"Country Code",1960,1961,1962,1963,1964,1965,1966,1967,1968,1969,1970,1971,1972,1973,1974,1975,1976,1977,1978,1979,1980,1981,1982,1983,1984,1985,1986,1987,1988,1989,1990,1991,1992,1993,1994,1995,1996,1997,1998,1999,2000,2001,2002,2003,2004,2005,2006,2007,2008,2009,2010,2011ABW,,,,,,,,,,,,,,,,,,,,,,,,,,,,,,,,,,,,,,,,,,,1.00000000000000E+00,,,,,,,,,
AGO,,,,,,,,,,,,,,,,,,,,,,,,,,,,,,,,,4.00000000000000E+00,,,,,,,,,,,,,,,,,,,
ARB,,,,,,,,1.80000000000000E+02,,1.70000000000000E+02,1.60000000000000E+02,1.75000000000000E+02,1.89000000000000E+02,2.14000000000000E+02,2.09000000000000E+02,1.42000000000000E+02,,,1.49000000000000E+02,,,,,1.93000000000000E+02,,,,,,5.49000000000000E+02,,,,7.02000000000000E+02,7.03000000000000E+02,7.95000000000000E+02,9.02000000000000E+02,,7.77000000000000E+02,8.09000000000000E+02,1.12400000000000E+03,8.31000000000000E+02,9.91000000000000E+02,8.74000000000000E+02,9.32000000000000E+02,9.82000000000000E+02,,9.51000000000000E+02,,,,
ARG,,,,,,,,,,1.83000000000000E+03,1.98200000000000E+03,1.08100000000000E+03,1.82400000000000E+03,1.75600000000000E+03,1.68600000000000E+03,1.61600000000000E+03,1.71500000000000E+03,1.70400000000000E+03,1.57400000000000E+03,1.31400000000000E+03,1.26900000000000E+03,9.54000000000000E+02,9.51000000000000E+02,1.10200000000000E+03,1.18200000000000E+03,,,,,,,,,,7.00000000000000E+02,,,8.24000000000000E+02,8.61000000000000E+02,8.99000000000000E+02,,,,,,,,,,,,
ARM,,,,,,,,,,,,,,,,,,,,,,,,,,,,,,,,,,1.84000000000000E+02,,,1.62000000000000E+02,6.20000000000000E+01,7.50000000000000E+01,1.09000000000000E+02,1.19000000000000E+02,1.40000000000000E+02,2.00000000000000E+02,1.51000000000000E+02,,2.06000000000000E+02,1.92000000000000E+02,,2.26000000000000E+02,1.16000000000000E+02,,
AUS,,,,3.97800000000000E+03,3.97200000000000E+03,4.12300000000000E+03,4.44500000000000E+03,4.05800000000000E+03,4.20100000000000E+03,4.07000000000000E+03,3.98400000000000E+03,4.39100000000000E+03,4.60600000000000E+03,4.65100000000000E+03,4.30000000000000E+03,4.31100000000000E+03,4.32000000000000E+03,4.36400000000000E+03,4.55800000000000E+03,4.74400000000000E+03,6.58200000000000E+03,6.34100000000000E+03,6.60300000000000E+03,6.93000000000000E+03,7.17000000000000E+03,,,,,,,,,,,1.78400000000000E+03,1.79700000000000E+03,1.76000000000000E+03,1.86200000000000E+03,1.85800000000000E+03,1.92800000000000E+03,2.18700000000000E+03,2.36400000000000E+03,2.41800000000000E+03,2.55900000000000E+03,2.55500000000000E+03,2.83700000000000E+03,2.71800000000000E+03,2.82100000000000E+03,,,
AUT,,,,2.58600000000000E+03,2.62300000000000E+03,2.71400000000000E+03,2.54700000000000E+03,2.59300000000000E+03,2.48600000000000E+03,2.42200000000000E+03,2.26700000000000E+03,2.25200000000000E+03,2.37300000000000E+03,2.28000000000000E+03,2.36500000000000E+03,2.52500000000000E+03,2.55100000000000E+03,2.38500000000000E+03,2.30300000000000E+03,2.44600000000000E+03,2.32700000000000E+03,2.39000000000000E+03,2.23300000000000E+03,2.34500000000000E+03,2.32400000000000E+03,2.26900000000000E+03,2.21000000000000E+03,2.24900000000000E+03,2.21200000000000E+03,2.10500000000000E+03,2.02500000000000E+03,2.07600000000000E+03,2.11700000000000E+03,2.19000000000000E+03,1.98900000000000E+03,1.72800000000000E+03,1.90900000000000E+03,1.91000000000000E+03,1.95700000000000E+03,2.02800000000000E+03,1.96100000000000E+03,1.81500000000000E+03,1.93200000000000E+03,2.12000000000000E+03,2.24800000000000E+03,2.27000000000000E+03,2.27100000000000E+03,,2.29800000000000E+03,2.26300000000000E+03,,
AZE,,,,,,,,,,,,,,,,,,,,,,,,,,,,,,,,,,,,2.21000000000000E+02,1.65000000000000E+02,,,,,,,,,2.81000000000000E+02,,,2.22000000000000E+02,,,
BDI,,,,,,1.00000000000000E+00,1.00000000000000E+00,,,1.00000000000000E+00,,,1.00000000000000E+00,,,,,,,,,,,,,,,,,1.00000000000000E+00,,,,,,,1.00000000000000E+00,,,,,,,,,,,,,,,
BEL,,,,,,1.76600000000000E+03,1.67100000000000E+03,1.60700000000000E+03,1.46600000000000E+03,1.45600000000000E+03,1.33900000000000E+03,1.35900000000000E+03,1.34200000000000E+03,1.24200000000000E+03,1.10900000000000E+03,1.06000000000000E+03,1.03800000000000E+03,1.07300000000000E+03,1.00000000000000E+03,8.53000000000000E+02,8.65000000000000E+02,8.06000000000000E+02,9.14000000000000E+02,8.05000000000000E+02,8.69000000000000E+02,7.71000000000000E+02,7.94000000000000E+02,5.48000000000000E+02,6.36000000000000E+02,6.81000000000000E+02,6.43000000000000E+02,6.25000000000000E+02,6.75000000000000E+02,8.09000000000000E+02,7.44000000000000E+02,7.32000000000000E+02,7.76000000000000E+02,7.92000000000000E+02,6.90000000000000E+02,5.91000000000000E+02,5.77000000000000E+02,5.71000000000000E+02,6.01000000000000E+02,5.19000000000000E+02,5.14000000000000E+02,5.17000000000000E+02,4.90000000000000E+02,4.54000000000000E+02,5.75000000000000E+02,6.69000000000000E+02,,
BFA,,,,,,,,,,,,,,,,,,,,,,,,,,,,,,,,,,,,,,,2.00000000000000E+00,4.00000000000000E+00,2.00000000000000E+00,,,1.00000000000000E+00,2.00000000000000E+00,1.00000000000000E+00,,,,,,
BGD,,,,,,,,,,,,,,,1.90000000000000E+01,,3.00000000000000E+01,2.70000000000000E+01,2.70000000000000E+01,3.10000000000000E+01,3.40000000000000E+01,3.90000000000000E+01,4.00000000000000E+01,4.00000000000000E+01,6.20000000000000E+01,4.00000000000000E+01,1.60000000000000E+01,2.30000000000000E+01,2.40000000000000E+01,3.20000000000000E+01,3.20000000000000E+01,3.60000000000000E+01,7.20000000000000E+01,3.60000000000000E+01,3.90000000000000E+01,7.00000000000000E+01,,,3.20000000000000E+01,4.90000000000000E+01,7.00000000000000E+01,5.90000000000000E+01,4.30000000000000E+01,5.80000000000000E+01,4.80000000000000E+01,5.00000000000000E+01,2.20000000000000E+01,2.90000000000000E+01,,,,
BGR,,,,7.88000000000000E+02,9.47000000000000E+02,1.02900000000000E+03,1.08400000000000E+03,1.16900000000000E+03,1.43500000000000E+03,1.36500000000000E+03,1.90800000000000E+03,2.01400000000000E+03,2.07100000000000E+03,2.16800000000000E+03,2.33600000000000E+03,2.48100000000000E+03,2.37100000000000E+03,2.55900000000000E+03,2.94900000000000E+03,3.43100000000000E+03,3.29700000000000E+03,3.67300000000000E+03,3.62800000000000E+03,3.81100000000000E+03,3.84300000000000E+03,2.00000000000000E+00,1.00000000000000E+00,3.00000000000000E+00,6.00000000000000E+00,6.30000000000000E+01,1.98000000000000E+02,4.22000000000000E+02,3.29000000000000E+02,4.12000000000000E+02,3.19000000000000E+02,3.68000000000000E+02,3.16000000000000E+02,3.94000000000000E+02,2.74000000000000E+02,2.82000000000000E+02,2.31000000000000E+02,2.83000000000000E+02,2.89000000000000E+02,2.78000000000000E+02,2.63000000000000E+02,2.61000000000000E+02,2.43000000000000E+02,2.11000000000000E+02,2.49000000000000E+02,2.42000000000000E+02,,
BHR,,,,,,,,,,,,,,,,,,,,,,1.00000000000000E+00,,,,,,,,,,,,,,,,,,,,,,,,,,,,,,
BHS,,,,,,,,,,,,,,1.00000000000000E+00,,2.00000000000000E+00,4.00000000000000E+00,6.00000000000000E+00,3.00000000000000E+00,1.00000000000000E+00,,2.00000000000000E+00,3.00000000000000E+00,,3.00000000000000E+00,3.00000000000000E+00,1.00000000000000E+00,,4.00000000000000E+00,,2.00000000000000E+00,1.00000000000000E+00,2.00000000000000E+00,,,,,,,,,,,,,,,,,,,
BIH,,,,,,,,,,,,,,,,,,,,,,,,,,,,,,,,,,,,,,,,2.30000000000000E+01,3.10000000000000E+01,5.20000000000000E+01,,3.20000000000000E+01,5.00000000000000E+01,6.60000000000000E+01,5.50000000000000E+01,,5.90000000000000E+01,,,
BLR,,,,,,,,,,,,,,,,,,,,,,,,,,,,,,,,,,8.28000000000000E+02,6.83000000000000E+02,6.24000000000000E+02,6.98000000000000E+02,7.52000000000000E+02,9.10000000000000E+02,9.93000000000000E+02,9.94000000000000E+02,9.30000000000000E+02,8.95000000000000E+02,1.08200000000000E+03,1.06500000000000E+03,1.16600000000000E+03,1.18800000000000E+03,,1.51000000000000E+03,,,
BLZ,,,,,,,,,,,,,,,,,,,,,,,,,,,,,,,,,,,,,,,,,,,,,,,1.00000000000000E+00,,,,,
BOL,,,,,,,,,,2.00000000000000E+01,2.00000000000000E+01,2.10000000000000E+01,3.20000000000000E+01,1.60000000000000E+01,2.00000000000000E+01,2.50000000000000E+01,2.10000000000000E+01,2.60000000000000E+01,2.80000000000000E+01,1.50000000000000E+01,8.00000000000000E+00,1.20000000000000E+01,1.80000000000000E+01,1.10000000000000E+01,4.00000000000000E+00,5.00000000000000E+00,,,,,,,,2.60000000000000E+01,2.80000000000000E+01,1.70000000000000E+01,,,,,,,,,,,,,,,,
BRA,,,,,,1.00030000000000E+04,2.36000000000000E+03,2.82400000000000E+03,2.76300000000000E+03,,3.83900000000000E+03,3.42600000000000E+03,2.84000000000000E+03,2.49500000000000E+03,3.42100000000000E+03,,,1.64500000000000E+03,,1.95800000000000E+03,2.14900000000000E+03,2.17100000000000E+03,2.11600000000000E+03,2.30200000000000E+03,2.06200000000000E+03,1.95400000000000E+03,1.85500000000000E+03,2.45100000000000E+03,2.33800000000000E+03,2.32300000000000E+03,2.38900000000000E+03,2.31900000000000E+03,2.10000000000000E+03,2.42900000000000E+03,2.26900000000000E+03,2.70700000000000E+03,2.61100000000000E+03,2.75600000000000E+03,2.49100000000000E+03,2.81600000000000E+03,3.08000000000000E+03,3.32300000000000E+03,3.36500000000000E+03,3.68900000000000E+03,3.95800000000000E+03,3.90500000000000E+03,3.81000000000000E+03,4.02300000000000E+03,,,,
BRB,,,,,,,,,,,,,,,,,,4.00000000000000E+00,,,,,,,3.00000000000000E+00,,,,,,,,,,,,,,,,,,,,,,,,,,,
CAN,1.50600000000000E+03,1.31000000000000E+03,1.61300000000000E+03,1.70300000000000E+03,1.71500000000000E+03,1.73400000000000E+03,1.85400000000000E+03,1.65500000000000E+03,1.59100000000000E+03,1.78500000000000E+03,1.81400000000000E+03,1.98600000000000E+03,1.97000000000000E+03,1.94200000000000E+03,1.93600000000000E+03,1.78200000000000E+03,1.85400000000000E+03,1.88300000000000E+03,1.83800000000000E+03,1.79600000000000E+03,1.64800000000000E+03,2.16400000000000E+03,2.00000000000000E+03,2.01700000000000E+03,2.02600000000000E+03,2.09200000000000E+03,2.16100000000000E+03,2.52700000000000E+03,2.77200000000000E+03,3.03100000000000E+03,2.54900000000000E+03,2.18200000000000E+03,2.80700000000000E+03,3.62300000000000E+03,2.48000000000000E+03,2.43100000000000E+03,2.58300000000000E+03,3.34400000000000E+03,3.80900000000000E+03,4.06100000000000E+03,4.18700000000000E+03,3.96300000000000E+03,3.95900000000000E+03,3.92900000000000E+03,5.23100000000000E+03,5.18300000000000E+03,5.52200000000000E+03,4.99800000000000E+03,5.06100000000000E+03,5.06700000000000E+03,,
CHE,4.87400000000000E+03,4.82100000000000E+03,,5.10800000000000E+03,5.18800000000000E+03,5.72100000000000E+03,5.58100000000000E+03,5.59100000000000E+03,5.92800000000000E+03,5.85000000000000E+03,5.92700000000000E+03,6.14100000000000E+03,6.13900000000000E+03,5.51700000000000E+03,5.39600000000000E+03,5.83400000000000E+03,5.69300000000000E+03,5.54200000000000E+03,4.55500000000000E+03,4.44100000000000E+03,4.04900000000000E+03,3.71200000000000E+03,3.84500000000000E+03,3.81700000000000E+03,3.39300000000000E+03,3.19100000000000E+03,3.19900000000000E+03,3.29800000000000E+03,3.23600000000000E+03,3.24700000000000E+03,2.98700000000000E+03,2.94900000000000E+03,3.06800000000000E+03,2.99900000000000E+03,3.03300000000000E+03,2.89000000000000E+03,2.50400000000000E+03,2.40800000000000E+03,2.02500000000000E+03,1.91600000000000E+03,2.08300000000000E+03,1.85900000000000E+03,1.82700000000000E+03,,1.74200000000000E+03,1.64300000000000E+03,1.74000000000000E+03,1.69200000000000E+03,1.59400000000000E+03,1.68400000000000E+03,,
CHL,,,,1.45000000000000E+02,,1.88000000000000E+02,2.43000000000000E+02,2.01000000000000E+02,1.97000000000000E+02,7.50000000000000E+01,1.66000000000000E+02,1.95000000000000E+02,1.47000000000000E+02,1.84000000000000E+02,2.88000000000000E+02,2.58000000000000E+02,2.30000000000000E+02,2.00000000000000E+02,1.32000000000000E+02,1.48000000000000E+02,1.40000000000000E+02,9.20000000000000E+01,9.60000000000000E+01,9.60000000000000E+01,1.05000000000000E+02,1.22000000000000E+02,9.60000000000000E+01,1.08000000000000E+02,1.11000000000000E+02,1.35000000000000E+02,1.69000000000000E+02,1.51000000000000E+02,1.78000000000000E+02,1.55000000000000E+02,2.19000000000000E+02,1.71000000000000E+02,1.76000000000000E+02,1.61000000000000E+02,2.07000000000000E+02,2.04000000000000E+02,2.41000000000000E+02,2.46000000000000E+02,3.91000000000000E+02,3.29000000000000E+02,3.82000000000000E+02,3.61000000000000E+02,2.91000000000000E+02,4.03000000000000E+02,5.31000000000000E+02,,,
CHN,,,,,,,,,,,,,,,,,,,,,,,,,,4.06500000000000E+03,3.49400000000000E+03,3.97500000000000E+03,,4.74900000000000E+03,,7.37200000000000E+03,1.00220000000000E+04,1.20840000000000E+04,1.11910000000000E+04,1.00110000000000E+04,1.16280000000000E+04,1.26720000000000E+04,1.37510000000000E+04,1.56260000000000E+04,2.53460000000000E+04,3.00380000000000E+04,3.98060000000000E+04,5.67690000000000E+04,6.57860000000000E+04,9.34850000000000E+04,1.22318000000000E+05,1.53060000000000E+05,1.94579000000000E+05,2.29096000000000E+05,,
COG,,,,,,,,,,,,,,,,,,,,,,,,,,,5.00000000000000E+00,,1.90000000000000E+01,,,,,,,,,,,,,,,,,,,,,,,
COL,,,,9.60000000000000E+01,1.10000000000000E+02,1.17000000000000E+02,1.40000000000000E+02,4.10000000000000E+01,1.36000000000000E+02,1.51000000000000E+02,1.52000000000000E+02,1.00000000000000E+00,1.14000000000000E+02,7.60000000000000E+01,5.00000000000000E+01,6.90000000000000E+01,6.70000000000000E+01,6.90000000000000E+01,5.50000000000000E+01,4.50000000000000E+01,4.30000000000000E+01,3.90000000000000E+01,,8.20000000000000E+01,6.90000000000000E+01,7.20000000000000E+01,8.10000000000000E+01,5.20000000000000E+01,8.50000000000000E+01,9.00000000000000E+01,,8.50000000000000E+01,1.20000000000000E+02,1.38000000000000E+02,3.90000000000000E+01,1.41000000000000E+02,8.70000000000000E+01,,7.40000000000000E+01,6.80000000000000E+01,7.50000000000000E+01,6.30000000000000E+01,5.20000000000000E+01,,,,,1.21000000000000E+02,,,,
CRI,,,,,,,,1.70000000000000E+01,1.40000000000000E+01,2.00000000000000E+01,4.00000000000000E+01,,,3.00000000000000E+01,3.80000000000000E+01,2.10000000000000E+01,1.50000000000000E+01,9.00000000000000E+00,2.70000000000000E+01,3.00000000000000E+01,3.00000000000000E+01,4.10000000000000E+01,3.80000000000000E+01,1.60000000000000E+01,,,1.90000000000000E+01,1.20000000000000E+01,1.00000000000000E+01,1.40000000000000E+01,2.50000000000000E+01,,,2.90000000000000E+01,,,,,,,,,,,,,,,,,,
CUB,,,,8.00000000000000E+00,7.00000000000000E+00,1.00000000000000E+01,1.70000000000000E+01,2.60000000000000E+01,1.40000000000000E+01,1.20000000000000E+01,9.00000000000000E+00,7.30000000000000E+01,1.44000000000000E+02,1.05000000000000E+02,9.70000000000000E+01,1.56000000000000E+02,1.10000000000000E+02,1.52000000000000E+02,9.00000000000000E+01,1.19000000000000E+02,1.29000000000000E+02,1.22000000000000E+02,1.83000000000000E+02,1.66000000000000E+02,2.14000000000000E+02,,,,,,,,1.00000000000000E+00,1.00000000000000E+00,1.21000000000000E+02,1.04000000000000E+02,8.30000000000000E+01,1.09000000000000E+02,,1.10000000000000E+02,,,,,,1.05000000000000E+02,9.40000000000000E+01,7.40000000000000E+01,6.90000000000000E+01,,,
CYP,,,,,,,,,1.00000000000000E+00,,,,,,,,,,,2.00000000000000E+00,1.00000000000000E+00,,,2.00000000000000E+00,2.00000000000000E+00,,,,,,,,,,,,,,,,,,,1.20000000000000E+01,9.00000000000000E+00,2.00000000000000E+01,,3.00000000000000E+00,1.10000000000000E+01,6.00000000000000E+00,,
CZE,,,,,,,,,,,,,,,,,,,,,,,,,,,,,,,,,,8.93000000000000E+02,7.56000000000000E+02,6.26000000000000E+02,6.14000000000000E+02,5.79000000000000E+02,6.24000000000000E+02,5.96000000000000E+02,5.55000000000000E+02,5.68000000000000E+02,5.26000000000000E+02,6.25000000000000E+02,6.23000000000000E+02,5.86000000000000E+02,6.41000000000000E+02,7.16000000000000E+02,7.12000000000000E+02,7.89000000000000E+02,,
DEU,,,,3.61080000000000E+04,3.78610000000000E+04,3.81480000000000E+04,3.68610000000000E+04,3.71020000000000E+04,3.40050000000000E+04,3.30940000000000E+04,3.27720000000000E+04,3.28740000000000E+04,3.33810000000000E+04,3.19090000000000E+04,3.05340000000000E+04,3.01980000000000E+04,3.10650000000000E+04,3.02470000000000E+04,3.03080000000000E+04,3.08790000000000E+04,2.86830000000000E+04,2.98410000000000E+04,3.06680000000000E+04,3.16580000000000E+04,3.19840000000000E+04,3.22020000000000E+04,3.21690000000000E+04,3.15970000000000E+04,3.19120000000000E+04,3.11710000000000E+04,3.07240000000000E+04,3.22560000000000E+04,3.39190000000000E+04,3.47520000000000E+04,3.67150000000000E+04,3.81030000000000E+04,4.23220000000000E+04,4.44380000000000E+04,4.65230000000000E+04,5.00290000000000E+04,5.17360000000000E+04,4.99890000000000E+04,4.75980000000000E+04,4.78180000000000E+04,4.84480000000000E+04,4.83670000000000E+04,4.80120000000000E+04,4.78530000000000E+04,4.92400000000000E+04,4.78590000000000E+04,,
DNK,,,,1.21400000000000E+03,1.16300000000000E+03,1.15300000000000E+03,1.05200000000000E+03,1.01600000000000E+03,8.27000000000000E+02,9.07000000000000E+02,8.15000000000000E+02,7.87000000000000E+02,8.11000000000000E+02,7.92000000000000E+02,8.35000000000000E+02,8.28000000000000E+02,8.21000000000000E+02,8.32000000000000E+02,9.38000000000000E+02,8.95000000000000E+02,9.64000000000000E+02,1.08500000000000E+03,1.09500000000000E+03,1.16700000000000E+03,9.66000000000000E+02,8.56000000000000E+02,9.58000000000000E+02,1.00700000000000E+03,1.19700000000000E+03,1.12000000000000E+03,1.21800000000000E+03,1.06100000000000E+03,1.20400000000000E+03,1.15900000000000E+03,1.27400000000000E+03,1.23400000000000E+03,1.30900000000000E+03,1.31900000000000E+03,1.54300000000000E+03,1.65600000000000E+03,1.73000000000000E+03,1.75700000000000E+03,1.81500000000000E+03,1.77200000000000E+03,1.87700000000000E+03,1.65800000000000E+03,1.50300000000000E+03,1.66000000000000E+03,1.63400000000000E+03,1.51800000000000E+03,,
DOM,,,,1.50000000000000E+01,9.00000000000000E+00,5.00000000000000E+00,1.30000000000000E+01,,,,5.00000000000000E+00,1.10000000000000E+01,,,,,7.00000000000000E+00,9.00000000000000E+00,1.00000000000000E+01,,,,,2.50000000000000E+01,,,1.40000000000000E+01,,,,,,,,,,,,,,,,,,,,,,,,,
DZA,,,,,,,1.90000000000000E+01,5.00000000000000E+00,,7.00000000000000E+00,1.80000000000000E+01,1.40000000000000E+01,1.40000000000000E+01,7.00000000000000E+00,1.10000000000000E+01,7.00000000000000E+00,9.00000000000000E+00,1.10000000000000E+01,7.00000000000000E+00,5.00000000000000E+00,5.00000000000000E+00,1.40000000000000E+01,1.40000000000000E+01,3.00000000000000E+01,3.00000000000000E+01,,,,5.00000000000000E+00,4.00000000000000E+00,6.00000000000000E+00,6.00000000000000E+00,1.00000000000000E+01,8.00000000000000E+00,2.70000000000000E+01,2.80000000000000E+01,5.00000000000000E+01,3.40000000000000E+01,4.20000000000000E+01,3.60000000000000E+01,3.20000000000000E+01,5.10000000000000E+01,4.30000000000000E+01,3.00000000000000E+01,5.80000000000000E+01,5.90000000000000E+01,5.80000000000000E+01,8.40000000000000E+01,,,,
EAP,,,,,,,,,,,,,,,,,,,,,,,,,,4.26800000000000E+03,3.68300000000000E+03,4.18100000000000E+03,,5.11000000000000E+03,,7.80400000000000E+03,1.05000000000000E+04,1.26950000000000E+04,1.19240000000000E+04,1.06800000000000E+04,1.21850000000000E+04,1.35170000000000E+04,1.46590000000000E+04,1.69150000000000E+04,2.64570000000000E+04,3.13440000000000E+04,4.13100000000000E+04,5.85340000000000E+04,6.77570000000000E+04,1.01483000000000E+05,1.30847000000000E+05,1.61746000000000E+05,1.96416000000000E+05,2.37052000000000E+05,,
EAS,,,,,,,,,,,,,,,,,,,,,,,,,,2.82346000000000E+05,2.98422000000000E+05,3.20885000000000E+05,,3.30305000000000E+05,,3.57620000000000E+05,3.64991000000000E+05,3.67163000000000E+05,3.61014000000000E+05,4.06914000000000E+05,4.22972000000000E+05,4.33733000000000E+05,4.26116000000000E+05,4.34110000000000E+05,4.87447000000000E+05,4.92425000000000E+05,4.88023000000000E+05,5.12027000000000E+05,5.46381000000000E+05,5.96807000000000E+05,6.09171000000000E+05,6.29412000000000E+05,6.58686000000000E+05,6.62138000000000E+05,,
ECA,,,,,,,,,,,,,,,,,,,,,,,,,,,,,,,,,4.27830000000000E+04,4.67760000000000E+04,3.29730000000000E+04,2.87460000000000E+04,2.80940000000000E+04,2.60370000000000E+04,2.76390000000000E+04,3.10680000000000E+04,3.46380000000000E+04,3.83740000000000E+04,3.01760000000000E+04,3.30410000000000E+04,3.16110000000000E+04,3.39770000000000E+04,3.78540000000000E+04,3.51450000000000E+04,3.74310000000000E+04,3.30420000000000E+04,,
ECS,,,,,,,,,,,,,,,,,,,,,,,,,,,,,,,,9.10700000000000E+04,1.38969000000000E+05,1.45365000000000E+05,1.33415000000000E+05,1.22214000000000E+05,1.33026000000000E+05,1.26206000000000E+05,1.31491000000000E+05,1.47250000000000E+05,1.55927000000000E+05,1.47663000000000E+05,1.35802000000000E+05,1.36428000000000E+05,1.36942000000000E+05,1.37050000000000E+05,1.40553000000000E+05,1.45573000000000E+05,1.50966000000000E+05,1.41165000000000E+05,,
ECU,,,,,,,,,3.30000000000000E+01,3.80000000000000E+01,3.40000000000000E+01,2.60000000000000E+01,3.20000000000000E+01,3.60000000000000E+01,3.90000000000000E+01,2.40000000000000E+01,,2.70000000000000E+01,3.40000000000000E+01,2.30000000000000E+01,3.50000000000000E+01,1.40000000000000E+01,2.20000000000000E+01,2.40000000000000E+01,2.40000000000000E+01,,2.70000000000000E+01,2.10000000000000E+01,2.40000000000000E+01,2.60000000000000E+01,,1.30000000000000E+01,2.30000000000000E+01,2.10000000000000E+01,4.00000000000000E+00,8.00000000000000E+00,7.00000000000000E+00,8.00000000000000E+00,,1.50000000000000E+01,,,1.30000000000000E+01,,,1.10000000000000E+01,,,,,,
EGY,,,,,7.00000000000000E+01,7.40000000000000E+01,6.00000000000000E+01,5.30000000000000E+01,8.60000000000000E+01,6.50000000000000E+01,5.70000000000000E+01,6.60000000000000E+01,6.40000000000000E+01,5.70000000000000E+01,5.40000000000000E+01,6.10000000000000E+01,4.80000000000000E+01,5.80000000000000E+01,7.70000000000000E+01,6.10000000000000E+01,7.60000000000000E+01,5.90000000000000E+01,5.30000000000000E+01,8.80000000000000E+01,1.28000000000000E+02,1.68000000000000E+02,1.42000000000000E+02,1.70000000000000E+02,1.90000000000000E+02,1.86000000000000E+02,2.78000000000000E+02,3.08000000000000E+02,3.01000000000000E+02,3.28000000000000E+02,3.08000000000000E+02,4.08000000000000E+02,5.04000000000000E+02,,4.94000000000000E+02,5.36000000000000E+02,5.34000000000000E+02,4.64000000000000E+02,6.27000000000000E+02,4.93000000000000E+02,3.82000000000000E+02,4.28000000000000E+02,,5.16000000000000E+02,,4.90000000000000E+02,,
EMU,,,,6.56800000000000E+04,,6.87890000000000E+04,7.63970000000000E+04,7.49140000000000E+04,7.20150000000000E+04,6.57610000000000E+04,6.59190000000000E+04,6.65980000000000E+04,6.66410000000000E+04,6.17100000000000E+04,5.91380000000000E+04,5.90090000000000E+04,5.28720000000000E+04,5.23820000000000E+04,5.22790000000000E+04,5.26930000000000E+04,5.61580000000000E+04,5.09070000000000E+04,5.15400000000000E+04,5.29160000000000E+04,5.39930000000000E+04,5.71190000000000E+04,5.47510000000000E+04,5.50310000000000E+04,5.64980000000000E+04,5.38870000000000E+04,5.33130000000000E+04,5.45930000000000E+04,6.39330000000000E+04,6.56830000000000E+04,6.78310000000000E+04,6.10420000000000E+04,7.34200000000000E+04,6.91100000000000E+04,7.15440000000000E+04,8.19050000000000E+04,8.57510000000000E+04,7.50550000000000E+04,7.27580000000000E+04,7.29870000000000E+04,7.44140000000000E+04,7.45430000000000E+04,7.44930000000000E+04,8.17480000000000E+04,8.58390000000000E+04,8.41820000000000E+04,,
ESP,,,,,,4.08900000000000E+03,5.50000000000000E+03,4.27000000000000E+03,3.79200000000000E+03,3.39200000000000E+03,2.96600000000000E+03,2.75400000000000E+03,2.48800000000000E+03,2.13500000000000E+03,2.03600000000000E+03,1.90300000000000E+03,1.76000000000000E+03,1.86300000000000E+03,1.80400000000000E+03,1.89300000000000E+03,1.87600000000000E+03,1.71800000000000E+03,1.64600000000000E+03,1.49800000000000E+03,1.78400000000000E+03,2.14900000000000E+03,1.64900000000000E+03,1.72000000000000E+03,1.81600000000000E+03,2.08700000000000E+03,2.21800000000000E+03,2.15600000000000E+03,2.07600000000000E+03,2.16500000000000E+03,2.13600000000000E+03,2.04700000000000E+03,2.27400000000000E+03,2.23700000000000E+03,2.27100000000000E+03,2.43900000000000E+03,2.71000000000000E+03,2.52800000000000E+03,2.76300000000000E+03,2.81300000000000E+03,2.87100000000000E+03,3.04000000000000E+03,3.11100000000000E+03,3.26700000000000E+03,3.63200000000000E+03,3.59600000000000E+03,,
EST,,,,,,,,,,,,,,,,,,,,,,,,,,,,,,,,,,,1.60000000000000E+01,1.60000000000000E+01,1.20000000000000E+01,1.50000000000000E+01,2.00000000000000E+01,1.30000000000000E+01,1.30000000000000E+01,1.80000000000000E+01,1.90000000000000E+01,1.80000000000000E+01,2.70000000000000E+01,2.30000000000000E+01,3.60000000000000E+01,4.40000000000000E+01,6.20000000000000E+01,7.60000000000000E+01,,
ETH,,,,,,,,,,,,,,,,,,,,,,,,,,,,,,,,,,,,,3.00000000000000E+00,,,,3.00000000000000E+00,,1.00000000000000E+00,3.00000000000000E+00,1.00000000000000E+00,1.00000000000000E+00,5.00000000000000E+00,1.20000000000000E+01,,,,
EUU,,,,1.01324000000000E+05,9.56790000000000E+04,1.05635000000000E+05,1.04893000000000E+05,1.15820000000000E+05,1.13863000000000E+05,1.06658000000000E+05,1.05001000000000E+05,1.07682000000000E+05,1.07696000000000E+05,1.01427000000000E+05,9.76910000000000E+04,9.71590000000000E+04,9.33690000000000E+04,9.22270000000000E+04,9.09760000000000E+04,9.14880000000000E+04,9.45050000000000E+04,8.93620000000000E+04,9.04300000000000E+04,9.26790000000000E+04,9.32690000000000E+04,9.37180000000000E+04,9.21620000000000E+04,9.32390000000000E+04,9.66540000000000E+04,9.17680000000000E+04,8.64820000000000E+04,8.61030000000000E+04,9.36570000000000E+04,9.64140000000000E+04,9.82790000000000E+04,9.16590000000000E+04,1.03295000000000E+05,9.86010000000000E+04,1.02212000000000E+05,1.14166000000000E+05,1.18922000000000E+05,1.07446000000000E+05,1.04238000000000E+05,1.03173000000000E+05,1.03367000000000E+05,1.01232000000000E+05,1.00678000000000E+05,1.08207000000000E+05,1.11759000000000E+05,1.07517000000000E+05,,
FIN,,,,6.86000000000000E+02,7.26000000000000E+02,8.19000000000000E+02,8.72000000000000E+02,9.26000000000000E+02,9.58000000000000E+02,8.88000000000000E+02,8.61000000000000E+02,9.38000000000000E+02,9.42000000000000E+02,9.96000000000000E+02,9.86000000000000E+02,1.16400000000000E+03,1.27000000000000E+03,1.24000000000000E+03,1.32900000000000E+03,1.38400000000000E+03,1.35600000000000E+03,1.42300000000000E+03,1.63800000000000E+03,1.71900000000000E+03,1.77500000000000E+03,1.72700000000000E+03,1.75400000000000E+03,1.85900000000000E+03,1.98100000000000E+03,1.94800000000000E+03,2.05900000000000E+03,2.12300000000000E+03,2.05200000000000E+03,2.16600000000000E+03,2.30600000000000E+03,2.05800000000000E+03,2.17900000000000E+03,2.35500000000000E+03,2.47100000000000E+03,2.51100000000000E+03,2.57900000000000E+03,2.39000000000000E+03,2.16200000000000E+03,1.97200000000000E+03,2.01100000000000E+03,1.83000000000000E+03,1.81600000000000E+03,1.80400000000000E+03,1.79900000000000E+03,1.80600000000000E+03,,
FJI,,,,,,,,,,,,,,,1.00000000000000E+00,1.00000000000000E+00,,1.00000000000000E+00,3.00000000000000E+00,1.00000000000000E+00,2.00000000000000E+00,,,,,,,,,,,,,,,,,,,,,,,,,,,,,,,
FRA,,,,1.58250000000000E+04,1.66540000000000E+04,1.75090000000000E+04,1.74670000000000E+04,1.73470000000000E+04,1.75610000000000E+04,1.29740000000000E+04,1.41060000000000E+04,1.49620000000000E+04,1.48070000000000E+04,1.34580000000000E+04,1.27060000000000E+04,1.21100000000000E+04,1.14710000000000E+04,1.18110000000000E+04,1.14450000000000E+04,1.13030000000000E+04,1.10000000000000E+04,1.09450000000000E+04,1.06810000000000E+04,1.11470000000000E+04,1.13330000000000E+04,1.20500000000000E+04,1.21550000000000E+04,1.26950000000000E+04,1.24370000000000E+04,1.25920000000000E+04,1.23780000000000E+04,1.25970000000000E+04,1.25390000000000E+04,1.26380000000000E+04,1.25190000000000E+04,1.24190000000000E+04,1.29160000000000E+04,1.32520000000000E+04,1.32510000000000E+04,1.35920000000000E+04,1.38700000000000E+04,1.34990000000000E+04,1.35190000000000E+04,1.35110000000000E+04,1.42300000000000E+04,1.43270000000000E+04,1.45290000000000E+04,1.47220000000000E+04,1.47430000000000E+04,1.42950000000000E+04,,
GBR,,,,2.43000000000000E+04,2.39630000000000E+04,2.42740000000000E+04,1.42060000000000E+04,2.57860000000000E+04,2.67110000000000E+04,2.59040000000000E+04,2.52270000000000E+04,2.47710000000000E+04,2.43370000000000E+04,2.24720000000000E+04,2.05450000000000E+04,2.08420000000000E+04,2.17970000000000E+04,2.11140000000000E+04,1.93840000000000E+04,1.94680000000000E+04,1.96120000000000E+04,2.08080000000000E+04,2.05300000000000E+04,1.98930000000000E+04,1.90930000000000E+04,1.96720000000000E+04,2.00400000000000E+04,1.99450000000000E+04,2.05360000000000E+04,1.97320000000000E+04,1.93100000000000E+04,1.92300000000000E+04,1.88480000000000E+04,1.87270000000000E+04,1.83840000000000E+04,1.86300000000000E+04,1.81840000000000E+04,1.79380000000000E+04,1.95300000000000E+04,2.13330000000000E+04,2.20500000000000E+04,2.14230000000000E+04,2.06240000000000E+04,2.04260000000000E+04,1.91780000000000E+04,1.78330000000000E+04,1.74840000000000E+04,1.73750000000000E+04,1.65230000000000E+04,1.59850000000000E+04,,
GEO,,,,,,,,,,,,,,,,,,,,,,,,,,,,,,,,,3.65000000000000E+02,5.02000000000000E+02,3.86000000000000E+02,2.87000000000000E+02,2.88000000000000E+02,2.63000000000000E+02,2.77000000000000E+02,2.65000000000000E+02,2.32000000000000E+02,2.54000000000000E+02,1.94000000000000E+02,1.94000000000000E+02,2.49000000000000E+02,2.25000000000000E+02,2.36000000000000E+02,8.30000000000000E+01,2.21000000000000E+02,2.50000000000000E+02,,
GRC,6.94000000000000E+02,6.79000000000000E+02,8.45000000000000E+02,7.31000000000000E+02,8.45000000000000E+02,8.81000000000000E+02,9.54000000000000E+02,1.00800000000000E+03,1.31700000000000E+03,1.46200000000000E+03,1.38100000000000E+03,1.40600000000000E+03,1.48100000000000E+03,1.31700000000000E+03,1.42600000000000E+03,1.45700000000000E+03,1.33400000000000E+03,1.28800000000000E+03,1.51000000000000E+03,1.34600000000000E+03,1.26500000000000E+03,1.22100000000000E+03,1.26400000000000E+03,1.19100000000000E+03,1.27700000000000E+03,1.12100000000000E+03,1.24900000000000E+03,1.53900000000000E+03,2.05000000000000E+02,2.16000000000000E+02,2.41000000000000E+02,1.88000000000000E+02,2.22000000000000E+02,2.21000000000000E+02,2.67000000000000E+02,2.66000000000000E+02,2.67000000000000E+02,2.93000000000000E+02,2.76000000000000E+02,2.90000000000000E+02,3.06000000000000E+02,3.85000000000000E+02,3.76000000000000E+02,3.93000000000000E+02,3.79000000000000E+02,4.62000000000000E+02,5.32000000000000E+02,5.75000000000000E+02,6.28000000000000E+02,6.98000000000000E+02,,
GTM,,,,7.40000000000000E+01,5.00000000000000E+01,2.40000000000000E+01,2.00000000000000E+01,1.80000000000000E+01,2.10000000000000E+01,2.30000000000000E+01,5.00000000000000E+01,4.50000000000000E+01,5.70000000000000E+01,4.30000000000000E+01,4.90000000000000E+01,6.20000000000000E+01,4.10000000000000E+01,,,,,,1.70000000000000E+01,,,7.20000000000000E+01,2.50000000000000E+01,8.00000000000000E+00,1.60000000000000E+01,5.00000000000000E+00,7.00000000000000E+00,1.40000000000000E+01,7.00000000000000E+00,6.00000000000000E+00,2.00000000000000E+00,5.00000000000000E+00,2.00000000000000E+00,4.00000000000000E+00,1.10000000000000E+01,7.00000000000000E+00,1.30000000000000E+01,5.00000000000000E+00,,7.00000000000000E+00,1.00000000000000E+01,,2.80000000000000E+01,9.00000000000000E+00,5.00000000000000E+00,7.00000000000000E+00,,
GUY,,,,,,,,,,,,,,,,,,,,,,,,1.00000000000000E+00,,1.00000000000000E+00,9.00000000000000E+00,,,,,,,,,,,,,,,,,,,,,,,,,
HIC,,,,2.35572000000000E+05,2.30485000000000E+05,2.51778000000000E+05,2.47205000000000E+05,2.52429000000000E+05,2.63884000000000E+05,2.66437000000000E+05,2.90958000000000E+05,2.68760000000000E+05,2.86610000000000E+05,2.94772000000000E+05,2.93177000000000E+05,3.07845000000000E+05,3.04120000000000E+05,3.00858000000000E+05,3.02877000000000E+05,3.11022000000000E+05,3.32562000000000E+05,1.61663000000000E+05,1.63824000000000E+05,3.89921000000000E+05,4.21329000000000E+05,4.38301000000000E+05,4.54823000000000E+05,4.81013000000000E+05,4.89454000000000E+05,5.01776000000000E+05,5.24575000000000E+05,5.28624000000000E+05,5.47348000000000E+05,5.58011000000000E+05,5.60574000000000E+05,6.17424000000000E+05,6.26454000000000E+05,6.44480000000000E+05,6.55854000000000E+05,6.88825000000000E+05,7.52959000000000E+05,7.53166000000000E+05,7.41842000000000E+05,7.51135000000000E+05,7.80347000000000E+05,8.11882000000000E+05,8.08705000000000E+05,8.26192000000000E+05,8.13996000000000E+05,7.64583000000000E+05,,
HKG,,,,,,,,,,,,,,,,,,,,,,,,2.10000000000000E+01,2.00000000000000E+01,1.60000000000000E+01,1.00000000000000E+01,1.30000000000000E+01,1.20000000000000E+01,1.50000000000000E+01,2.10000000000000E+01,1.60000000000000E+01,1.10000000000000E+01,9.00000000000000E+00,2.10000000000000E+01,2.30000000000000E+01,4.10000000000000E+01,2.60000000000000E+01,1.28000000000000E+02,4.20000000000000E+01,5.10000000000000E+01,7.40000000000000E+01,1.12000000000000E+02,1.07000000000000E+02,1.27000000000000E+02,1.56000000000000E+02,1.72000000000000E+02,1.60000000000000E+02,1.73000000000000E+02,1.49000000000000E+02,,
HND,,,,,,,,,,,,6.00000000000000E+00,2.00000000000000E+00,2.00000000000000E+00,1.00000000000000E+00,,2.60000000000000E+01,5.00000000000000E+00,1.10000000000000E+01,,6.00000000000000E+00,,6.30000000000000E+01,1.60000000000000E+01,4.00000000000000E+00,1.20000000000000E+01,,1.20000000000000E+01,,,6.00000000000000E+00,,,,,7.00000000000000E+00,1.00000000000000E+01,,1.10000000000000E+01,8.00000000000000E+00,4.00000000000000E+00,7.00000000000000E+00,7.00000000000000E+00,,,,,,,,,
HRV,,,,,,,,,,,,,,,,,,,,,,,,,,,,,,,,,4.79000000000000E+02,5.03000000000000E+02,2.77000000000000E+02,2.65000000000000E+02,2.59000000000000E+02,2.73000000000000E+02,2.67000000000000E+02,2.46000000000000E+02,3.37000000000000E+02,3.62000000000000E+02,3.28000000000000E+02,3.87000000000000E+02,3.85000000000000E+02,3.63000000000000E+02,3.17000000000000E+02,3.44000000000000E+02,3.30000000000000E+02,2.50000000000000E+02,,
HTI,,,,1.00000000000000E+00,3.00000000000000E+00,,,,,,,,,,,,1.00000000000000E+00,1.00000000000000E+00,9.00000000000000E+00,,4.00000000000000E+00,,2.00000000000000E+00,1.00000000000000E+00,2.00000000000000E+00,6.00000000000000E+00,4.00000000000000E+00,9.00000000000000E+00,1.00000000000000E+00,,,3.00000000000000E+00,,,,,3.00000000000000E+00,,,1.00000000000000E+00,,,,,,,,,,,,
HUN,,,,1.55600000000000E+03,1.35500000000000E+03,1.43800000000000E+03,1.44800000000000E+03,1.43300000000000E+03,1.55500000000000E+03,1.51600000000000E+03,1.24100000000000E+03,1.21400000000000E+03,1.34300000000000E+03,1.17000000000000E+03,1.18400000000000E+03,1.09300000000000E+03,1.14900000000000E+03,1.14000000000000E+03,1.27200000000000E+03,1.34600000000000E+03,1.60100000000000E+03,2.12400000000000E+03,2.34400000000000E+03,2.76000000000000E+03,2.86900000000000E+03,2.90400000000000E+03,2.84700000000000E+03,3.22900000000000E+03,3.26200000000000E+03,2.65700000000000E+03,2.47700000000000E+03,2.21000000000000E+03,1.49700000000000E+03,1.13900000000000E+03,1.16200000000000E+03,1.09600000000000E+03,8.03000000000000E+02,7.37000000000000E+02,6.90000000000000E+02,7.29000000000000E+02,8.10000000000000E+02,9.19000000000000E+02,8.42000000000000E+02,7.56000000000000E+02,7.48000000000000E+02,7.05000000000000E+02,7.18000000000000E+02,6.89000000000000E+02,6.83000000000000E+02,7.57000000000000E+02,,
IDN,,,,3.00000000000000E+00,,1.00000000000000E+01,8.00000000000000E+00,,7.00000000000000E+00,4.00000000000000E+00,4.00000000000000E+00,8.00000000000000E+00,,5.00000000000000E+00,1.00000000000000E+00,3.00000000000000E+00,3.00000000000000E+00,2.00000000000000E+00,9.00000000000000E+00,1.20000000000000E+01,5.00000000000000E+00,,1.60000000000000E+01,4.00000000000000E+01,2.60000000000000E+01,4.90000000000000E+01,3.20000000000000E+01,6.20000000000000E+01,,1.13000000000000E+02,,3.40000000000000E+01,6.70000000000000E+01,3.80000000000000E+01,2.90000000000000E+01,6.10000000000000E+01,4.00000000000000E+01,7.90000000000000E+01,9.30000000000000E+01,1.52000000000000E+02,1.56000000000000E+02,2.08000000000000E+02,2.28000000000000E+02,2.01000000000000E+02,2.26000000000000E+02,2.34000000000000E+02,2.82000000000000E+02,,,,,
IND,7.21000000000000E+02,7.74000000000000E+02,,8.78000000000000E+02,9.02000000000000E+02,9.48000000000000E+02,8.94000000000000E+02,1.12500000000000E+03,1.21700000000000E+03,1.28800000000000E+03,1.27800000000000E+03,1.41600000000000E+03,1.32200000000000E+03,1.11800000000000E+03,1.26800000000000E+03,1.12200000000000E+03,1.32400000000000E+03,1.18600000000000E+03,1.17300000000000E+03,1.05300000000000E+03,1.20700000000000E+03,1.06700000000000E+03,1.12800000000000E+03,,1.00300000000000E+03,9.82000000000000E+02,9.99000000000000E+02,9.88000000000000E+02,1.03300000000000E+03,1.04800000000000E+03,1.14700000000000E+03,1.26700000000000E+03,1.24800000000000E+03,1.20900000000000E+03,1.58800000000000E+03,1.54500000000000E+03,1.66100000000000E+03,1.92600000000000E+03,2.24700000000000E+03,2.20600000000000E+03,2.17900000000000E+03,2.37100000000000E+03,2.69300000000000E+03,3.42500000000000E+03,4.01400000000000E+03,4.52100000000000E+03,5.31400000000000E+03,,,,,
IRL,,,,9.90000000000000E+01,1.17000000000000E+02,1.57000000000000E+02,1.30000000000000E+02,1.52000000000000E+02,1.68000000000000E+02,1.95000000000000E+02,2.05000000000000E+02,2.19000000000000E+02,2.49000000000000E+02,2.64000000000000E+02,2.66000000000000E+02,3.39000000000000E+02,3.63000000000000E+02,3.48000000000000E+02,3.33000000000000E+02,3.52000000000000E+02,3.94000000000000E+02,4.61000000000000E+02,4.34000000000000E+02,5.67000000000000E+02,6.51000000000000E+02,7.26000000000000E+02,7.43000000000000E+02,7.19000000000000E+02,7.27000000000000E+02,7.36000000000000E+02,7.34000000000000E+02,7.86000000000000E+02,7.52000000000000E+02,7.88000000000000E+02,8.11000000000000E+02,8.40000000000000E+02,7.93000000000000E+02,7.96000000000000E+02,9.85000000000000E+02,9.96000000000000E+02,9.25000000000000E+02,1.01900000000000E+03,9.14000000000000E+02,8.62000000000000E+02,7.87000000000000E+02,7.89000000000000E+02,8.38000000000000E+02,8.47000000000000E+02,9.31000000000000E+02,9.08000000000000E+02,,
IRN,,,,8.00000000000000E+01,8.00000000000000E+01,7.60000000000000E+01,8.70000000000000E+01,7.60000000000000E+01,7.90000000000000E+01,8.20000000000000E+01,8.80000000000000E+01,9.40000000000000E+01,1.16000000000000E+02,1.00000000000000E+02,1.30000000000000E+02,1.03000000000000E+02,1.19000000000000E+02,1.32000000000000E+02,1.14000000000000E+02,6.40000000000000E+01,1.69000000000000E+02,2.86000000000000E+02,2.02000000000000E+02,2.13000000000000E+02,1.62000000000000E+02,1.83000000000000E+02,,2.07000000000000E+02,1.67000000000000E+02,1.41000000000000E+02,1.82000000000000E+02,2.62000000000000E+02,2.25000000000000E+02,2.78000000000000E+02,2.66000000000000E+02,2.78000000000000E+02,2.88000000000000E+02,2.84000000000000E+02,3.37000000000000E+02,3.66000000000000E+02,4.10000000000000E+02,6.91000000000000E+02,9.10000000000000E+02,1.28700000000000E+03,2.42600000000000E+03,4.05100000000000E+03,5.97000000000000E+03,,,,,
IRQ,,,,9.00000000000000E+00,1.31000000000000E+02,1.29000000000000E+02,,9.00000000000000E+00,2.30000000000000E+01,1.60000000000000E+01,3.10000000000000E+01,1.20000000000000E+01,3.30000000000000E+01,4.20000000000000E+01,2.90000000000000E+01,9.00000000000000E+00,3.20000000000000E+01,5.00000000000000E+00,2.80000000000000E+01,3.70000000000000E+01,1.90000000000000E+01,2.60000000000000E+01,4.70000000000000E+01,3.30000000000000E+01,1.24000000000000E+02,2.96000000000000E+02,1.99000000000000E+02,2.72000000000000E+02,2.72000000000000E+02,2.47000000000000E+02,,,1.49000000000000E+02,1.64000000000000E+02,1.12000000000000E+02,7.60000000000000E+01,6.80000000000000E+01,,,,,,,,,,,,,,,
ISL,,,,8.00000000000000E+00,1.50000000000000E+01,,1.70000000000000E+01,1.70000000000000E+01,1.80000000000000E+01,2.60000000000000E+01,1.90000000000000E+01,1.10000000000000E+01,1.70000000000000E+01,1.10000000000000E+01,1.30000000000000E+01,1.40000000000000E+01,1.40000000000000E+01,1.30000000000000E+01,1.00000000000000E+01,9.00000000000000E+00,1.90000000000000E+01,1.40000000000000E+01,1.80000000000000E+01,3.20000000000000E+01,2.80000000000000E+01,2.10000000000000E+01,2.90000000000000E+01,2.80000000000000E+01,1.60000000000000E+01,1.80000000000000E+01,1.70000000000000E+01,3.40000000000000E+01,2.80000000000000E+01,3.40000000000000E+01,2.20000000000000E+01,1.90000000000000E+01,1.60000000000000E+01,2.20000000000000E+01,4.10000000000000E+01,3.50000000000000E+01,5.10000000000000E+01,4.90000000000000E+01,7.10000000000000E+01,5.70000000000000E+01,6.60000000000000E+01,4.70000000000000E+01,4.50000000000000E+01,6.10000000000000E+01,5.00000000000000E+01,6.40000000000000E+01,,
ISR,,,,4.51000000000000E+02,4.41000000000000E+02,4.12000000000000E+02,3.97000000000000E+02,2.91000000000000E+02,2.90000000000000E+02,2.31000000000000E+02,2.47000000000000E+02,3.83000000000000E+02,3.94000000000000E+02,3.74000000000000E+02,3.44000000000000E+02,4.83000000000000E+02,5.61000000000000E+02,5.08000000000000E+02,6.32000000000000E+02,5.95000000000000E+02,6.69000000000000E+02,7.27000000000000E+02,7.07000000000000E+02,6.87000000000000E+02,6.96000000000000E+02,7.90000000000000E+02,8.19000000000000E+02,8.23000000000000E+02,9.95000000000000E+02,1.04200000000000E+03,1.05200000000000E+03,1.08700000000000E+03,1.40000000000000E+03,1.31800000000000E+03,1.26100000000000E+03,1.26600000000000E+03,1.21800000000000E+03,1.44100000000000E+03,1.95000000000000E+03,2.05300000000000E+03,1.59900000000000E+03,1.24800000000000E+03,1.21300000000000E+03,1.32900000000000E+03,1.54400000000000E+03,3.16000000000000E+02,2.57000000000000E+02,1.61500000000000E+03,1.52800000000000E+03,1.38700000000000E+03,,
ITA,7.22200000000000E+03,,,6.91800000000000E+03,,,7.62200000000000E+03,7.25300000000000E+03,7.60400000000000E+03,7.25900000000000E+03,7.24100000000000E+03,7.19600000000000E+03,7.04200000000000E+03,5.77900000000000E+03,5.47300000000000E+03,6.11000000000000E+03,,,,,6.36900000000000E+03,,,,,2.00000000000000E+03,,,2.28900000000000E+03,,,,7.56800000000000E+03,7.49300000000000E+03,7.87200000000000E+03,,6.99700000000000E+03,,,6.28100000000000E+03,7.87700000000000E+03,,,,,,,9.25500000000000E+03,8.58800000000000E+03,8.81400000000000E+03,,
JAM,,,,7.70000000000000E+01,,1.14000000000000E+02,,,,,,,7.00000000000000E+00,4.00000000000000E+00,2.00000000000000E+00,2.00000000000000E+00,6.00000000000000E+00,9.00000000000000E+00,1.00000000000000E+01,6.00000000000000E+00,,,,1.50000000000000E+01,1.00000000000000E+01,,,3.00000000000000E+00,,,4.00000000000000E+00,4.00000000000000E+00,6.00000000000000E+00,,6.00000000000000E+00,7.00000000000000E+00,,,,,1.10000000000000E+01,3.00000000000000E+00,1.50000000000000E+01,,,1.00000000000000E+01,2.10000000000000E+01,,,,,
JOR,,,,1.00000000000000E+00,,,,,,1.00000000000000E+00,,,3.00000000000000E+00,5.00000000000000E+00,1.00000000000000E+00,,2.00000000000000E+00,1.00000000000000E+00,,,,,,,,,,,,1.10000000000000E+01,,,,,,,,,,,7.10000000000000E+01,5.20000000000000E+01,2.10000000000000E+01,2.50000000000000E+01,4.20000000000000E+01,4.90000000000000E+01,7.50000000000000E+01,5.90000000000000E+01,,,,
JPN,,,,5.38760000000000E+04,5.55560000000000E+04,6.07960000000000E+04,6.29620000000000E+04,6.17210000000000E+04,7.11140000000000E+04,7.71320000000000E+04,1.00513000000000E+05,7.84250000000000E+04,1.01328000000000E+05,1.15221000000000E+05,1.21509000000000E+05,1.35118000000000E+05,1.35762000000000E+05,1.35991000000000E+05,1.41517000000000E+05,1.50623000000000E+05,1.65730000000000E+05,,,2.27708000000000E+05,2.56195000000000E+05,2.74348000000000E+05,2.90132000000000E+05,3.10908000000000E+05,3.08775000000000E+05,3.17353000000000E+05,3.32952000000000E+05,3.35564000000000E+05,3.37498000000000E+05,3.31774000000000E+05,3.19261000000000E+05,3.33770000000000E+05,3.39045000000000E+05,3.49211000000000E+05,3.57379000000000E+05,3.57531000000000E+05,3.84201000000000E+05,3.82815000000000E+05,3.65204000000000E+05,3.58184000000000E+05,3.68416000000000E+05,3.67960000000000E+05,3.47060000000000E+05,3.33498000000000E+05,3.30110000000000E+05,2.95315000000000E+05,,
KAZ,,,,,,,,,,,,,,,,,,,,,,,,,,,,,,,,,4.33000000000000E+02,3.22300000000000E+03,1.39300000000000E+03,1.03100000000000E+03,1.02200000000000E+03,1.17100000000000E+03,1.24400000000000E+03,1.35200000000000E+03,1.39900000000000E+03,1.60700000000000E+03,,1.69600000000000E+03,,1.52300000000000E+03,1.43300000000000E+03,,1.10000000000000E+01,,,
KEN,,,,,,,1.00000000000000E+00,,,,,1.00000000000000E+00,2.00000000000000E+00,1.00000000000000E+00,,,,,,,,,,,,,,,1.00000000000000E+00,,,8.00000000000000E+00,,1.40000000000000E+01,,,1.50000000000000E+01,2.20000000000000E+01,2.70000000000000E+01,2.50000000000000E+01,,,,,,,3.80000000000000E+01,,,,,
KGZ,,,,,,,,,,,,,,,,,,,,,,,,,,,,,,,,,,,1.32000000000000E+02,1.19000000000000E+02,1.26000000000000E+02,1.52000000000000E+02,1.11000000000000E+02,6.00000000000000E+01,8.00000000000000E+01,8.40000000000000E+01,1.23000000000000E+02,1.79000000000000E+02,,,,1.55000000000000E+02,1.35000000000000E+02,,,
KHM,,,,,,,,,,,,,1.00000000000000E+00,2.00000000000000E+00,,,,,,,,,,,,,,,,,,,,,,,,,,,,,,,,,,,,,,
KOR,,,,2.45500000000000E+03,,1.01800000000000E+03,8.83000000000000E+02,,1.08600000000000E+03,1.15700000000000E+03,1.20200000000000E+03,1.28300000000000E+03,1.37700000000000E+03,1.62200000000000E+03,1.09300000000000E+03,1.32600000000000E+03,1.43600000000000E+03,1.17700000000000E+03,9.89000000000000E+02,1.03400000000000E+03,1.24100000000000E+03,1.31900000000000E+03,1.55600000000000E+03,1.59900000000000E+03,1.99700000000000E+03,2.70200000000000E+03,3.64000000000000E+03,4.87100000000000E+03,5.69600000000000E+03,7.02000000000000E+03,9.08200000000000E+03,1.32530000000000E+04,1.59510000000000E+04,2.14490000000000E+04,2.85540000000000E+04,5.92280000000000E+04,6.84050000000000E+04,6.73590000000000E+04,5.05960000000000E+04,5.59700000000000E+04,7.28310000000000E+04,7.37140000000000E+04,7.65700000000000E+04,9.03130000000000E+04,1.05250000000000E+05,1.22188000000000E+05,1.25476000000000E+05,1.28701000000000E+05,1.27114000000000E+05,1.27316000000000E+05,,
KWT,,,,,,,,,,,,,2.00000000000000E+00,5.00000000000000E+00,4.00000000000000E+00,,,,,,,,,,,,,,,,,,,,,,,,,,,,,,,,,,,,,
LAC,,,,,,1.15100000000000E+04,4.04000000000000E+03,4.75600000000000E+03,6.72000000000000E+03,,7.63200000000000E+03,5.74200000000000E+03,6.13000000000000E+03,5.49700000000000E+03,6.44500000000000E+03,,,4.73100000000000E+03,,4.73700000000000E+03,4.93200000000000E+03,4.51500000000000E+03,4.36400000000000E+03,5.38900000000000E+03,5.33800000000000E+03,3.20400000000000E+03,3.13900000000000E+03,3.81000000000000E+03,3.32700000000000E+03,3.58700000000000E+03,3.61300000000000E+03,3.48000000000000E+03,3.31400000000000E+03,3.66900000000000E+03,4.17800000000000E+03,3.65300000000000E+03,3.65300000000000E+03,4.56400000000000E+03,4.14500000000000E+03,4.66700000000000E+03,4.01600000000000E+03,4.21700000000000E+03,4.42800000000000E+03,,,,,5.28700000000000E+03,,,,
LAO,,,,,,,,,,,,,1.00000000000000E+00,1.00000000000000E+00,,,,,,,,,,,,,,,,,,,,,,,,,,,,,,,,,,,,,,
LBN,,,,5.20000000000000E+01,3.40000000000000E+01,3.60000000000000E+01,4.70000000000000E+01,6.80000000000000E+01,4.00000000000000E+01,5.30000000000000E+01,2.90000000000000E+01,4.60000000000000E+01,4.70000000000000E+01,4.80000000000000E+01,3.20000000000000E+01,,,,,,,,,,,,,,,,,,,,,,,,,,,,,,,,,,,,,
LBR,,,,,,,,,,,,,,,,,,,,,,,,,,,,,,,,6.00000000000000E+00,,1.40000000000000E+01,,,,,,,,,,,,,,,,,,
LBY,,,,,1.00000000000000E+00,2.00000000000000E+00,2.00000000000000E+00,,1.00000000000000E+00,,,,,2.00000000000000E+00,3.00000000000000E+00,6.00000000000000E+00,,,,,,,,,,,,,,3.00000000000000E+00,1.00000000000000E+01,2.50000000000000E+01,,1.50000000000000E+01,1.00000000000000E+01,6.00000000000000E+00,1.20000000000000E+01,,,,,,,,,,,,,,,
LCN,,,,,,1.15120000000000E+04,4.05000000000000E+03,4.76100000000000E+03,6.72200000000000E+03,,7.63600000000000E+03,5.74600000000000E+03,6.13800000000000E+03,5.50400000000000E+03,6.44600000000000E+03,,,4.75500000000000E+03,,4.74200000000000E+03,4.93900000000000E+03,4.51700000000000E+03,4.37700000000000E+03,5.38900000000000E+03,5.34400000000000E+03,3.20700000000000E+03,3.14000000000000E+03,3.81000000000000E+03,3.33100000000000E+03,3.58700000000000E+03,3.61500000000000E+03,3.48100000000000E+03,3.32900000000000E+03,3.69800000000000E+03,4.19200000000000E+03,3.67700000000000E+03,3.66200000000000E+03,4.58100000000000E+03,4.14500000000000E+03,4.66700000000000E+03,4.01600000000000E+03,4.21700000000000E+03,4.43100000000000E+03,,,,,5.28700000000000E+03,,,,
LKA,,,,3.30000000000000E+01,2.50000000000000E+01,2.00000000000000E+01,2.40000000000000E+01,4.50000000000000E+01,1.50000000000000E+01,2.60000000000000E+01,3.30000000000000E+01,5.30000000000000E+01,4.90000000000000E+01,4.30000000000000E+01,4.80000000000000E+01,3.40000000000000E+01,3.30000000000000E+01,3.60000000000000E+01,2.90000000000000E+01,5.30000000000000E+01,1.10000000000000E+01,6.00000000000000E+00,1.20000000000000E+01,1.60000000000000E+01,1.60000000000000E+01,2.80000000000000E+01,2.60000000000000E+01,4.10000000000000E+01,2.60000000000000E+01,2.80000000000000E+01,2.30000000000000E+01,3.30000000000000E+01,3.60000000000000E+01,4.90000000000000E+01,3.60000000000000E+01,7.60000000000000E+01,5.00000000000000E+01,8.10000000000000E+01,5.40000000000000E+01,1.19000000000000E+02,7.10000000000000E+01,1.20000000000000E+02,1.23000000000000E+02,9.50000000000000E+01,1.20000000000000E+02,1.49000000000000E+02,1.53000000000000E+02,1.51000000000000E+02,2.01000000000000E+02,,,
LMC,,,,1.13700000000000E+03,,1.34000000000000E+03,1.19200000000000E+03,,1.54100000000000E+03,1.60100000000000E+03,1.55800000000000E+03,1.77700000000000E+03,1.69300000000000E+03,1.51000000000000E+03,1.65000000000000E+03,1.49900000000000E+03,1.76400000000000E+03,1.49600000000000E+03,1.57900000000000E+03,1.45900000000000E+03,1.53900000000000E+03,,1.56200000000000E+03,,1.56200000000000E+03,1.77400000000000E+03,1.54800000000000E+03,1.70100000000000E+03,,1.83200000000000E+03,1.79500000000000E+03,1.95600000000000E+03,2.79000000000000E+03,1.38500000000000E+04,9.68800000000000E+03,9.17100000000000E+03,8.22300000000000E+03,8.75200000000000E+03,1.01510000000000E+04,1.02070000000000E+04,1.05350000000000E+04,1.25700000000000E+04,7.21500000000000E+03,8.10300000000000E+03,1.04610000000000E+04,1.08460000000000E+04,1.10420000000000E+04,,,,,
LMY,,,,,,,,,,,,,,,,,,,,,,,,,,1.76560000000000E+04,1.76120000000000E+04,1.97150000000000E+04,,2.17540000000000E+04,,2.24360000000000E+04,6.42840000000000E+04,7.08590000000000E+04,5.72390000000000E+04,5.14810000000000E+04,4.68880000000000E+04,4.66630000000000E+04,4.99380000000000E+04,5.62180000000000E+04,6.89500000000000E+04,7.80250000000000E+04,8.06730000000000E+04,1.01897000000000E+05,1.11921000000000E+05,1.50252000000000E+05,1.85619000000000E+05,,,,,
LSO,,,,,,,,,,,,,,,,,,,,,,,,,,,,,,,,,,,,8.00000000000000E+00,1.00000000000000E+00,,,,,,,,,,,,,,,
LTU,,,,,,,,,,,,,,,,,,,,,,,,,,,,,,,,2.90000000000000E+01,1.34000000000000E+02,4.13000000000000E+02,1.12000000000000E+02,1.06000000000000E+02,1.00000000000000E+02,1.25000000000000E+02,1.34000000000000E+02,8.60000000000000E+01,6.60000000000000E+01,6.80000000000000E+01,8.50000000000000E+01,6.40000000000000E+01,7.00000000000000E+01,6.80000000000000E+01,6.50000000000000E+01,6.20000000000000E+01,8.70000000000000E+01,9.10000000000000E+01,,
LUX,9.10000000000000E+01,7.40000000000000E+01,,5.60000000000000E+01,4.70000000000000E+01,7.30000000000000E+01,5.60000000000000E+01,5.60000000000000E+01,8.10000000000000E+01,8.40000000000000E+01,1.41000000000000E+02,1.29000000000000E+02,1.16000000000000E+02,1.18000000000000E+02,8.60000000000000E+01,1.04000000000000E+02,8.30000000000000E+01,8.60000000000000E+01,1.11000000000000E+02,8.80000000000000E+01,9.70000000000000E+01,1.09000000000000E+02,9.40000000000000E+01,,5.80000000000000E+01,8.10000000000000E+01,8.00000000000000E+01,6.90000000000000E+01,6.80000000000000E+01,5.80000000000000E+01,4.10000000000000E+01,5.20000000000000E+01,,7.30000000000000E+01,5.00000000000000E+01,3.50000000000000E+01,5.20000000000000E+01,4.80000000000000E+01,4.40000000000000E+01,2.40000000000000E+01,8.50000000000000E+01,5.10000000000000E+01,4.10000000000000E+01,1.60000000000000E+01,2.30000000000000E+01,2.40000000000000E+01,2.60000000000000E+01,1.50000000000000E+01,4.80000000000000E+01,6.00000000000000E+01,,
LVA,,,,,,,,,,,,,,,,,,,,,,,,,,,,,,,,,7.30000000000000E+01,1.55000000000000E+02,1.79000000000000E+02,2.10000000000000E+02,1.96000000000000E+02,1.62000000000000E+02,1.95000000000000E+02,9.10000000000000E+01,9.80000000000000E+01,1.17000000000000E+02,1.50000000000000E+02,9.10000000000000E+01,1.08000000000000E+02,1.12000000000000E+02,1.14000000000000E+02,,,,,
MAC,,,,,,,,,,,,,,,,,,,,,,,,,,,,,,,,,,,,,,,,,,,,,,3.00000000000000E+00,,1.00000000000000E+00,3.00000000000000E+00,1.00000000000000E+00,,
MAR,,,,1.10000000000000E+01,3.70000000000000E+01,3.00000000000000E+01,3.10000000000000E+01,3.00000000000000E+01,2.00000000000000E+01,1.80000000000000E+01,1.80000000000000E+01,2.30000000000000E+01,1.30000000000000E+01,3.40000000000000E+01,2.80000000000000E+01,1.90000000000000E+01,1.90000000000000E+01,1.80000000000000E+01,2.30000000000000E+01,2.90000000000000E+01,2.90000000000000E+01,3.60000000000000E+01,4.70000000000000E+01,1.60000000000000E+01,2.80000000000000E+01,3.50000000000000E+01,2.90000000000000E+01,7.20000000000000E+01,8.30000000000000E+01,6.00000000000000E+01,6.10000000000000E+01,5.50000000000000E+01,,4.20000000000000E+01,1.07000000000000E+02,8.90000000000000E+01,9.00000000000000E+01,,9.70000000000000E+01,,1.04000000000000E+02,,,,1.04000000000000E+02,1.40000000000000E+02,1.78000000000000E+02,1.50000000000000E+02,1.77000000000000E+02,,,
MCO,,,,2.30000000000000E+01,1.30000000000000E+01,1.20000000000000E+01,2.00000000000000E+01,2.20000000000000E+01,1.00000000000000E+01,1.50000000000000E+01,3.10000000000000E+01,1.20000000000000E+01,1.40000000000000E+01,6.00000000000000E+00,5.00000000000000E+00,2.10000000000000E+01,8.00000000000000E+00,5.00000000000000E+00,3.00000000000000E+01,1.70000000000000E+01,1.40000000000000E+01,2.00000000000000E+01,9.00000000000000E+00,1.90000000000000E+01,1.10000000000000E+01,1.50000000000000E+01,1.00000000000000E+01,1.90000000000000E+01,1.60000000000000E+01,9.00000000000000E+00,2.10000000000000E+01,1.20000000000000E+01,9.00000000000000E+00,1.00000000000000E+01,2.10000000000000E+01,1.30000000000000E+01,1.60000000000000E+01,2.00000000000000E+01,4.00000000000000E+00,1.50000000000000E+01,6.00000000000000E+00,6.00000000000000E+00,8.00000000000000E+00,5.00000000000000E+00,7.00000000000000E+00,2.00000000000000E+00,6.00000000000000E+00,1.10000000000000E+01,7.00000000000000E+00,3.00000000000000E+00,,
MDA,,,,,,,,,,,,,,,,,,,,,,,,,,,,,,,,,,6.70000000000000E+01,2.37000000000000E+02,2.70000000000000E+02,2.89000000000000E+02,2.95000000000000E+02,2.57000000000000E+02,2.56000000000000E+02,2.40000000000000E+02,4.37000000000000E+02,2.39000000000000E+02,2.93000000000000E+02,2.97000000000000E+02,3.77000000000000E+02,3.03000000000000E+02,3.33000000000000E+02,2.73000000000000E+02,1.34000000000000E+02,,
MDG,,,,,,,,,,,,,,,,,,,,,,,,,,,,,,,,,,,9.00000000000000E+00,2.20000000000000E+01,7.00000000000000E+00,9.00000000000000E+00,1.40000000000000E+01,1.00000000000000E+01,7.00000000000000E+00,,4.00000000000000E+00,3.00000000000000E+00,1.60000000000000E+01,7.00000000000000E+00,4.00000000000000E+00,9.00000000000000E+00,1.40000000000000E+01,1.00000000000000E+00,,
MEA,,,,,8.04000000000000E+02,7.70000000000000E+02,6.60000000000000E+02,5.47000000000000E+02,5.62000000000000E+02,4.84000000000000E+02,4.95000000000000E+02,6.56000000000000E+02,7.02000000000000E+02,6.88000000000000E+02,6.84000000000000E+02,7.29000000000000E+02,8.05000000000000E+02,7.52000000000000E+02,8.98000000000000E+02,8.26000000000000E+02,1.00700000000000E+03,1.19000000000000E+03,1.07700000000000E+03,1.09000000000000E+03,1.18000000000000E+03,1.48600000000000E+03,,1.57500000000000E+03,1.73500000000000E+03,1.73400000000000E+03,1.63400000000000E+03,1.80200000000000E+03,2.18400000000000E+03,2.30600000000000E+03,2.25100000000000E+03,2.35000000000000E+03,2.41400000000000E+03,,3.07200000000000E+03,3.23700000000000E+03,3.15000000000000E+03,2.79500000000000E+03,3.13400000000000E+03,3.48400000000000E+03,4.89800000000000E+03,5.34300000000000E+03,,,,,,
MEX,,,,7.50000000000000E+02,5.81000000000000E+02,8.49000000000000E+02,7.85000000000000E+02,1.45100000000000E+03,2.98300000000000E+03,8.23000000000000E+02,8.05000000000000E+02,3.53000000000000E+02,5.13000000000000E+02,3.38000000000000E+02,4.18000000000000E+02,2.84000000000000E+02,4.22000000000000E+02,2.66000000000000E+02,8.17000000000000E+02,7.26000000000000E+02,7.04000000000000E+02,7.65000000000000E+02,5.50000000000000E+02,7.30000000000000E+02,6.88000000000000E+02,5.90000000000000E+02,6.29000000000000E+02,7.42000000000000E+02,6.52000000000000E+02,7.57000000000000E+02,6.61000000000000E+02,5.64000000000000E+02,5.65000000000000E+02,5.53000000000000E+02,4.98000000000000E+02,4.32000000000000E+02,3.84000000000000E+02,4.18000000000000E+02,4.51000000000000E+02,4.55000000000000E+02,4.31000000000000E+02,5.34000000000000E+02,5.26000000000000E+02,4.68000000000000E+02,5.65000000000000E+02,5.84000000000000E+02,5.74000000000000E+02,6.29000000000000E+02,6.85000000000000E+02,8.22000000000000E+02,,
MIC,,,,,,,,,,,,,,,,,,,,,,,,,,1.75720000000000E+04,1.75450000000000E+04,1.96420000000000E+04,,2.16810000000000E+04,,2.23220000000000E+04,6.41670000000000E+04,7.07370000000000E+04,5.70300000000000E+04,5.11760000000000E+04,4.66730000000000E+04,4.64550000000000E+04,4.97130000000000E+04,5.60280000000000E+04,6.87400000000000E+04,7.77990000000000E+04,8.04630000000000E+04,1.01618000000000E+05,1.11810000000000E+05,1.44299000000000E+05,1.79163000000000E+05,,,,,
MKD,,,,,,,,,,,,,,,,,,,,,,,,,,,,,,,,,,7.80000000000000E+01,5.80000000000000E+01,1.00000000000000E+02,5.20000000000000E+01,6.60000000000000E+01,8.40000000000000E+01,6.40000000000000E+01,7.10000000000000E+01,6.60000000000000E+01,4.20000000000000E+01,4.60000000000000E+01,3.70000000000000E+01,,,,3.40000000000000E+01,,,
MLI,,,,,,,,,,,,,,,,,,,,,,1.00000000000000E+00,,,,,,,,,,,,,,,,,,,,,,,,,,,,,,
MLT,,,,1.00000000000000E+00,2.00000000000000E+00,,,,4.00000000000000E+00,1.00000000000000E+00,,4.00000000000000E+00,3.00000000000000E+00,,1.00000000000000E+00,1.00000000000000E+00,3.00000000000000E+00,2.00000000000000E+00,5.00000000000000E+00,2.00000000000000E+00,7.00000000000000E+00,6.00000000000000E+00,3.00000000000000E+00,4.00000000000000E+00,,,5.00000000000000E+00,5.00000000000000E+00,3.00000000000000E+00,2.00000000000000E+00,2.00000000000000E+00,6.00000000000000E+00,3.00000000000000E+00,8.00000000000000E+00,2.10000000000000E+01,1.10000000000000E+01,6.00000000000000E+00,2.20000000000000E+01,8.00000000000000E+00,1.10000000000000E+01,2.30000000000000E+01,2.60000000000000E+01,2.20000000000000E+01,,,,,1.00000000000000E+01,1.40000000000000E+01,8.00000000000000E+00,,
MNA,,,,,3.61000000000000E+02,3.58000000000000E+02,2.63000000000000E+02,2.56000000000000E+02,2.68000000000000E+02,2.52000000000000E+02,2.48000000000000E+02,2.69000000000000E+02,3.03000000000000E+02,3.09000000000000E+02,3.35000000000000E+02,2.45000000000000E+02,2.41000000000000E+02,2.42000000000000E+02,2.61000000000000E+02,2.29000000000000E+02,3.31000000000000E+02,4.56000000000000E+02,3.67000000000000E+02,3.99000000000000E+02,4.84000000000000E+02,6.96000000000000E+02,,7.47000000000000E+02,7.37000000000000E+02,6.78000000000000E+02,5.64000000000000E+02,6.82000000000000E+02,7.60000000000000E+02,9.59000000000000E+02,9.36000000000000E+02,1.04500000000000E+03,1.16300000000000E+03,,1.06900000000000E+03,1.10100000000000E+03,1.45200000000000E+03,1.47500000000000E+03,1.83800000000000E+03,2.09900000000000E+03,3.27300000000000E+03,4.90800000000000E+03,,,,,,
MNE,,,,,,,,,,,,,,,,,,,,,,,,,,,,,,,,,,,,,,,,,,,,,,,,,3.00000000000000E+00,,,
MNG,,,,,,,,,,,,,,,,,,,,,,,,1.20000000000000E+01,3.40000000000000E+01,,,,,,,2.80000000000000E+01,2.60000000000000E+01,5.50000000000000E+01,1.28000000000000E+02,1.30000000000000E+02,1.14000000000000E+02,1.86000000000000E+02,1.48000000000000E+02,,,1.06000000000000E+02,1.21000000000000E+02,1.67000000000000E+02,1.43000000000000E+02,1.00000000000000E+02,1.03000000000000E+02,,,,,
MOZ,,,,,,,,,,,,,,,,,,,,,,,,,,,,,,,,,,,,,,,,2.00000000000000E+00,,,,,,,,1.80000000000000E+01,,,,
MUS,,,,,,,,,,,2.00000000000000E+00,,3.00000000000000E+00,4.00000000000000E+00,2.00000000000000E+00,2.00000000000000E+00,,,3.00000000000000E+00,,,2.00000000000000E+00,,,,4.00000000000000E+00,,,3.00000000000000E+00,,1.00000000000000E+00,2.00000000000000E+00,,2.00000000000000E+00,5.00000000000000E+00,3.00000000000000E+00,3.00000000000000E+00,3.00000000000000E+00,3.00000000000000E+00,,,,,,,,,,2.00000000000000E+00,,,
MWI,,,,,,,1.00000000000000E+00,2.00000000000000E+00,2.00000000000000E+00,1.00000000000000E+00,1.00000000000000E+00,,1.00000000000000E+00,,1.00000000000000E+00,1.00000000000000E+00,1.00000000000000E+00,,1.00000000000000E+00,2.00000000000000E+00,2.00000000000000E+00,7.00000000000000E+00,3.00000000000000E+00,1.00000000000000E+00,,,,,1.00000000000000E+00,1.00000000000000E+00,,1.00000000000000E+00,2.00000000000000E+00,3.00000000000000E+00,1.00000000000000E+00,1.00000000000000E+00,2.00000000000000E+00,2.00000000000000E+00,2.00000000000000E+00,1.00000000000000E+00,3.00000000000000E+00,,,,,,,,,,,
MYS,,,,,,9.00000000000000E+00,3.00000000000000E+00,5.00000000000000E+00,,4.00000000000000E+00,,,,,4.00000000000000E+00,,,,,,,,,,,8.00000000000000E+00,1.50000000000000E+01,,7.30000000000000E+01,8.80000000000000E+01,9.20000000000000E+01,1.06000000000000E+02,1.51000000000000E+02,1.98000000000000E+02,2.23000000000000E+02,1.41000000000000E+02,,1.79000000000000E+02,,2.18000000000000E+02,2.06000000000000E+02,2.71000000000000E+02,3.22000000000000E+02,3.76000000000000E+02,5.22000000000000E+02,5.22000000000000E+02,5.31000000000000E+02,6.70000000000000E+02,8.18000000000000E+02,,,
NAC,6.45960000000000E+04,6.76450000000000E+04,,6.84180000000000E+04,6.87280000000000E+04,7.40510000000000E+04,6.87090000000000E+04,6.57730000000000E+04,6.87710000000000E+04,7.27930000000000E+04,7.41570000000000E+04,7.30750000000000E+04,6.79130000000000E+04,6.88770000000000E+04,6.60290000000000E+04,6.62270000000000E+04,6.69040000000000E+04,6.47460000000000E+04,6.32790000000000E+04,6.23310000000000E+04,6.37460000000000E+04,6.45680000000000E+04,6.53160000000000E+04,6.14080000000000E+04,6.38670000000000E+04,6.57650000000000E+04,6.73560000000000E+04,7.08420000000000E+04,7.79640000000000E+04,8.54010000000000E+04,9.31920000000000E+04,9.01370000000000E+04,9.52320000000000E+04,1.03578000000000E+05,1.09713000000000E+05,1.26393000000000E+05,1.09475000000000E+05,1.22558000000000E+05,1.38542000000000E+05,1.53312000000000E+05,1.68982000000000E+05,1.81476000000000E+05,1.88204000000000E+05,1.92870000000000E+05,1.94767000000000E+05,2.13050000000000E+05,2.27306000000000E+05,2.46345000000000E+05,2.36649000000000E+05,2.29979000000000E+05,,
NAM,,,,,,,,,,,,,,,,,,,,,,,,,,,,,,,5.00000000000000E+00,3.00000000000000E+00,,1.30000000000000E+01,,,,,,,,,,,,,,,,,,
NGA,,,,,,,,,,,,4.00000000000000E+00,,,,6.00000000000000E+00,8.00000000000000E+00,,6.00000000000000E+00,,,,,,,1.00000000000000E+01,,,,,1.20000000000000E+01,,,,,,,,,,,,,,,,,,,,,
NIC,,,,2.00000000000000E+00,,,,,,,5.00000000000000E+00,,,,,,6.00000000000000E+00,4.00000000000000E+00,3.00000000000000E+00,,,,,,,2.00000000000000E+00,,,,,,,3.00000000000000E+00,2.00000000000000E+00,,,,3.00000000000000E+00,1.20000000000000E+01,9.00000000000000E+00,1.40000000000000E+01,,,,,,,,,,,
NLD,2.22000000000000E+03,2.30200000000000E+03,,2.49100000000000E+03,2.14900000000000E+03,2.50500000000000E+03,2.59500000000000E+03,2.49100000000000E+03,2.47700000000000E+03,2.43100000000000E+03,2.46200000000000E+03,2.31300000000000E+03,2.28300000000000E+03,2.10300000000000E+03,2.09600000000000E+03,1.96600000000000E+03,1.85700000000000E+03,1.96000000000000E+03,2.01100000000000E+03,2.04900000000000E+03,1.82600000000000E+03,1.89700000000000E+03,1.87300000000000E+03,1.88900000000000E+03,1.84000000000000E+03,1.93800000000000E+03,1.86600000000000E+03,1.97000000000000E+03,2.15800000000000E+03,2.20500000000000E+03,2.14700000000000E+03,1.60500000000000E+03,1.75300000000000E+03,1.73300000000000E+03,1.74800000000000E+03,2.12300000000000E+03,2.34800000000000E+03,2.39100000000000E+03,2.45100000000000E+03,2.54500000000000E+03,2.46500000000000E+03,2.11000000000000E+03,2.12200000000000E+03,2.28800000000000E+03,2.18700000000000E+03,2.21700000000000E+03,2.16800000000000E+03,2.07900000000000E+03,2.42100000000000E+03,2.57500000000000E+03,,
NOR,,,,9.92000000000000E+02,9.18000000000000E+02,8.70000000000000E+02,9.06000000000000E+02,9.61000000000000E+02,9.87000000000000E+02,8.76000000000000E+02,9.38000000000000E+02,8.56000000000000E+02,8.55000000000000E+02,8.00000000000000E+02,7.41000000000000E+02,7.52000000000000E+02,8.01000000000000E+02,8.17000000000000E+02,7.74000000000000E+02,7.93000000000000E+02,7.16000000000000E+02,7.14000000000000E+02,6.93000000000000E+02,8.25000000000000E+02,9.61000000000000E+02,9.23000000000000E+02,9.03000000000000E+02,8.84000000000000E+02,9.04000000000000E+02,1.01500000000000E+03,8.99000000000000E+02,9.24000000000000E+02,9.41000000000000E+02,1.03100000000000E+03,1.07400000000000E+03,1.12800000000000E+03,1.29100000000000E+03,1.25600000000000E+03,1.21300000000000E+03,1.33500000000000E+03,1.31100000000000E+03,1.18900000000000E+03,1.17800000000000E+03,1.07900000000000E+03,1.14200000000000E+03,1.14300000000000E+03,1.14900000000000E+03,1.22300000000000E+03,1.14000000000000E+03,,,
NPL,,,,,5.00000000000000E+00,,,,,,,,,1.00000000000000E+00,,,1.00000000000000E+00,1.00000000000000E+00,1.00000000000000E+00,,2.00000000000000E+00,,,,,,,,,,,,1.00000000000000E+00,6.00000000000000E+00,4.00000000000000E+00,3.00000000000000E+00,,,,,,,,,,,,,,,,
NZL,,,,8.62000000000000E+02,9.32000000000000E+02,1.88000000000000E+02,7.88000000000000E+02,9.97000000000000E+02,1.03700000000000E+03,9.61000000000000E+02,8.97000000000000E+02,9.88000000000000E+02,1.06200000000000E+03,9.79000000000000E+02,9.08000000000000E+02,1.24300000000000E+03,1.23700000000000E+03,1.05500000000000E+03,1.06500000000000E+03,1.12400000000000E+03,1.14800000000000E+03,1.03300000000000E+03,9.86000000000000E+02,1.11000000000000E+03,1.00100000000000E+03,1.00800000000000E+03,9.57000000000000E+02,9.12000000000000E+02,8.03000000000000E+02,8.07000000000000E+02,8.02000000000000E+02,9.83000000000000E+02,1.03100000000000E+03,1.23600000000000E+03,1.25400000000000E+03,1.28400000000000E+03,1.27500000000000E+03,1.57200000000000E+03,1.18100000000000E+03,1.42000000000000E+03,1.46300000000000E+03,1.76800000000000E+03,1.83900000000000E+03,1.84500000000000E+03,1.63100000000000E+03,1.89300000000000E+03,2.15300000000000E+03,1.89200000000000E+03,1.25600000000000E+03,1.55500000000000E+03,,
OEC,,,,2.35545000000000E+05,2.30467000000000E+05,2.51764000000000E+05,2.47175000000000E+05,2.52402000000000E+05,2.63862000000000E+05,2.66412000000000E+05,2.90922000000000E+05,2.68738000000000E+05,2.86581000000000E+05,2.94754000000000E+05,2.93166000000000E+05,3.07812000000000E+05,3.04098000000000E+05,3.00823000000000E+05,3.02833000000000E+05,3.10996000000000E+05,3.32531000000000E+05,1.61630000000000E+05,1.63799000000000E+05,3.89870000000000E+05,4.21286000000000E+05,4.38263000000000E+05,4.54797000000000E+05,4.80976000000000E+05,4.89419000000000E+05,5.01738000000000E+05,5.24513000000000E+05,5.28562000000000E+05,5.46810000000000E+05,5.57431000000000E+05,5.60187000000000E+05,6.16915000000000E+05,6.25872000000000E+05,6.43777000000000E+05,6.55091000000000E+05,6.88065000000000E+05,7.51950000000000E+05,7.52129000000000E+05,7.40684000000000E+05,7.49942000000000E+05,7.79097000000000E+05,8.10650000000000E+05,8.07465000000000E+05,8.24839000000000E+05,8.12665000000000E+05,7.63416000000000E+05,,
OED,,,,2.36495000000000E+05,2.31126000000000E+05,2.52900000000000E+05,2.48327000000000E+05,2.54161000000000E+05,2.67129000000000E+05,2.67395000000000E+05,2.91982000000000E+05,2.69382000000000E+05,2.87241000000000E+05,2.95413000000000E+05,2.93964000000000E+05,3.08452000000000E+05,3.04868000000000E+05,3.01408000000000E+05,3.03871000000000E+05,3.11943000000000E+05,3.33509000000000E+05,1.62644000000000E+05,1.64571000000000E+05,3.90696000000000E+05,4.22232000000000E+05,4.39107000000000E+05,4.55696000000000E+05,4.81964000000000E+05,4.90335000000000E+05,5.02792000000000E+05,5.25481000000000E+05,5.29425000000000E+05,5.47742000000000E+05,5.58308000000000E+05,5.61055000000000E+05,6.17688000000000E+05,6.26621000000000E+05,6.44559000000000E+05,6.55956000000000E+05,6.89000000000000E+05,7.52899000000000E+05,7.53246000000000E+05,7.42015000000000E+05,7.51228000000000E+05,7.80726000000000E+05,8.12523000000000E+05,8.09402000000000E+05,8.27681000000000E+05,8.16102000000000E+05,7.66793000000000E+05,,
PAK,,,,,7.40000000000000E+01,7.00000000000000E+01,1.08000000000000E+02,6.80000000000000E+01,8.40000000000000E+01,8.90000000000000E+01,,5.80000000000000E+01,6.10000000000000E+01,3.80000000000000E+01,2.30000000000000E+01,3.40000000000000E+01,2.10000000000000E+01,2.00000000000000E+01,3.10000000000000E+01,3.00000000000000E+01,3.70000000000000E+01,,,,,,,,,,2.30000000000000E+01,2.20000000000000E+01,1.70000000000000E+01,1.90000000000000E+01,3.10000000000000E+01,2.10000000000000E+01,1.60000000000000E+01,2.70000000000000E+01,4.50000000000000E+01,4.40000000000000E+01,4.60000000000000E+01,5.80000000000000E+01,5.50000000000000E+01,5.70000000000000E+01,7.30000000000000E+01,1.43000000000000E+02,9.10000000000000E+01,1.09000000000000E+02,1.70000000000000E+02,,,
PAN,,,,,,,,,,,,,,,,,,1.20000000000000E+01,9.00000000000000E+00,,1.50000000000000E+01,8.00000000000000E+00,7.00000000000000E+00,1.60000000000000E+01,1.50000000000000E+01,1.40000000000000E+01,1.10000000000000E+01,3.00000000000000E+00,9.00000000000000E+00,6.00000000000000E+00,1.50000000000000E+01,1.90000000000000E+01,1.80000000000000E+01,2.00000000000000E+01,1.10000000000000E+01,1.60000000000000E+01,3.10000000000000E+01,,,,7.00000000000000E+00,,,,,,,,,,,
PER,,,,,,,,,,,,,6.00000000000000E+01,7.20000000000000E+01,,6.70000000000000E+01,,8.60000000000000E+01,1.13000000000000E+02,1.02000000000000E+02,8.20000000000000E+01,5.00000000000000E+01,5.60000000000000E+01,7.70000000000000E+01,,4.10000000000000E+01,4.80000000000000E+01,4.30000000000000E+01,5.30000000000000E+01,,4.90000000000000E+01,3.10000000000000E+01,2.10000000000000E+01,3.40000000000000E+01,2.90000000000000E+01,,5.20000000000000E+01,4.80000000000000E+01,,4.80000000000000E+01,4.00000000000000E+01,3.60000000000000E+01,2.90000000000000E+01,3.20000000000000E+01,3.80000000000000E+01,2.70000000000000E+01,3.90000000000000E+01,2.80000000000000E+01,3.10000000000000E+01,3.70000000000000E+01,,
PHL,,,,1.23000000000000E+02,3.60000000000000E+01,3.10000000000000E+01,4.00000000000000E+01,4.50000000000000E+01,5.30000000000000E+01,4.00000000000000E+01,5.70000000000000E+01,5.80000000000000E+01,5.30000000000000E+01,1.06000000000000E+02,1.23000000000000E+02,1.18000000000000E+02,1.67000000000000E+02,1.27000000000000E+02,1.29000000000000E+02,1.44000000000000E+02,1.19000000000000E+02,9.10000000000000E+01,1.34000000000000E+02,6.30000000000000E+01,1.02000000000000E+02,9.10000000000000E+01,7.50000000000000E+01,7.60000000000000E+01,8.60000000000000E+01,7.10000000000000E+01,1.47000000000000E+02,1.47000000000000E+02,1.33000000000000E+02,1.78000000000000E+02,1.81000000000000E+02,1.69000000000000E+02,1.63000000000000E+02,1.25000000000000E+02,1.63000000000000E+02,1.44000000000000E+02,1.54000000000000E+02,1.35000000000000E+02,1.49000000000000E+02,1.41000000000000E+02,1.58000000000000E+02,2.10000000000000E+02,2.23000000000000E+02,2.25000000000000E+02,2.16000000000000E+02,,,
PNG,,,,,,,,,,,,,,,,,,,,,,,,,,,,,,,,,,,,,,,,,,,,,,,,,1.00000000000000E+00,,,
POL,,,,2.35500000000000E+03,2.64600000000000E+03,4.11700000000000E+03,4.52700000000000E+03,4.53500000000000E+03,4.58500000000000E+03,4.89600000000000E+03,5.49300000000000E+03,5.42200000000000E+03,5.27700000000000E+03,5.69300000000000E+03,6.67200000000000E+03,6.69100000000000E+03,6.59300000000000E+03,6.64100000000000E+03,7.03000000000000E+03,6.78800000000000E+03,6.19800000000000E+03,4.37000000000000E+03,4.48200000000000E+03,4.74100000000000E+03,5.09000000000000E+03,5.12400000000000E+03,5.48600000000000E+03,5.68200000000000E+03,6.28000000000000E+03,5.29400000000000E+03,4.10600000000000E+03,3.38900000000000E+03,2.89100000000000E+03,2.65900000000000E+03,2.67600000000000E+03,2.59500000000000E+03,2.41100000000000E+03,2.39900000000000E+03,2.40700000000000E+03,2.28500000000000E+03,2.40400000000000E+03,2.20200000000000E+03,2.31300000000000E+03,2.26800000000000E+03,2.38100000000000E+03,2.02800000000000E+03,2.15700000000000E+03,2.39200000000000E+03,2.48800000000000E+03,2.89900000000000E+03,,
PRK,,,,,,,,,,,,,,,,1.15900000000000E+03,,1.28600000000000E+03,1.98600000000000E+03,,,,,,,,,,,,,,,,,,,,,,,,,,,5.86100000000000E+03,6.35000000000000E+03,6.84600000000000E+03,,7.95600000000000E+03,,
PRT,,,,1.79000000000000E+02,1.46000000000000E+02,1.28000000000000E+02,1.22000000000000E+02,1.09000000000000E+02,9.50000000000000E+01,1.03000000000000E+02,1.78000000000000E+02,1.92000000000000E+02,1.34000000000000E+02,1.09000000000000E+02,5.40000000000000E+01,7.20000000000000E+01,7.70000000000000E+01,7.90000000000000E+01,1.20000000000000E+02,9.60000000000000E+01,9.20000000000000E+01,9.00000000000000E+01,9.20000000000000E+01,9.10000000000000E+01,9.60000000000000E+01,8.50000000000000E+01,7.70000000000000E+01,6.10000000000000E+01,5.40000000000000E+01,8.60000000000000E+01,1.01000000000000E+02,1.02000000000000E+02,6.90000000000000E+01,8.80000000000000E+01,1.03000000000000E+02,8.10000000000000E+01,8.60000000000000E+01,7.10000000000000E+01,9.60000000000000E+01,8.10000000000000E+01,8.10000000000000E+01,1.07000000000000E+02,1.30000000000000E+02,1.25000000000000E+02,1.23000000000000E+02,1.58000000000000E+02,1.84000000000000E+02,2.50000000000000E+02,3.81000000000000E+02,,,
PRY,,,,,,,,,,,,,,,,,,,,,,,,5.00000000000000E+00,1.00000000000000E+01,7.00000000000000E+00,,,,6.00000000000000E+00,1.60000000000000E+01,,2.00000000000000E+01,3.00000000000000E+01,,,,,,,,,,,,,,,,,,
ROM,,,,1.13800000000000E+03,1.30000000000000E+01,2.10000000000000E+01,1.32200000000000E+03,1.65800000000000E+03,1.99300000000000E+03,1.97600000000000E+03,5.50000000000000E+01,2.47900000000000E+03,2.73200000000000E+03,2.55700000000000E+03,2.52100000000000E+03,2.17300000000000E+03,3.62500000000000E+03,3.05600000000000E+03,2.56800000000000E+03,2.75100000000000E+03,2.56900000000000E+03,2.48100000000000E+03,2.72400000000000E+03,3.10800000000000E+03,3.44600000000000E+03,4.20100000000000E+03,4.39400000000000E+03,4.82100000000000E+03,5.61500000000000E+03,5.86800000000000E+03,2.75200000000000E+03,2.01500000000000E+03,1.45700000000000E+03,1.41400000000000E+03,1.63300000000000E+03,1.81100000000000E+03,1.83100000000000E+03,1.70800000000000E+03,1.29900000000000E+03,1.06100000000000E+03,1.00300000000000E+03,1.12800000000000E+03,1.47800000000000E+03,8.81000000000000E+02,9.37000000000000E+02,9.16000000000000E+02,8.14000000000000E+02,8.27000000000000E+02,9.95000000000000E+02,1.05400000000000E+03,,
RUS,,,,,,,,,,,,,,,,,,,,,,,,,,,,,,,,9.06000000000000E+02,3.94940000000000E+04,2.85030000000000E+04,2.12500000000000E+04,1.75510000000000E+04,1.80140000000000E+04,1.51060000000000E+04,1.64540000000000E+04,1.99000000000000E+04,2.33770000000000E+04,2.47770000000000E+04,2.37120000000000E+04,2.49690000000000E+04,2.29850000000000E+04,2.36440000000000E+04,2.78840000000000E+04,2.75050000000000E+04,2.77120000000000E+04,2.55980000000000E+04,,
RWA,,,,,,,,,,,,,,,,,,,,,,,,,,,,,1.00000000000000E+00,,,,,,,,,,,,,,,,,,,,,,,
SAS,7.21000000000000E+02,7.74000000000000E+02,,9.11000000000000E+02,1.00600000000000E+03,1.03800000000000E+03,1.02600000000000E+03,1.23800000000000E+03,1.31600000000000E+03,1.40300000000000E+03,1.31100000000000E+03,1.52700000000000E+03,1.43200000000000E+03,1.20000000000000E+03,1.35800000000000E+03,1.19000000000000E+03,1.40900000000000E+03,1.27000000000000E+03,1.26100000000000E+03,1.16700000000000E+03,1.29100000000000E+03,1.11200000000000E+03,1.18000000000000E+03,,1.08100000000000E+03,1.05000000000000E+03,1.04100000000000E+03,1.05200000000000E+03,1.08300000000000E+03,1.10800000000000E+03,1.22500000000000E+03,1.35800000000000E+03,1.37400000000000E+03,1.31900000000000E+03,1.69800000000000E+03,1.71500000000000E+03,1.72700000000000E+03,2.03400000000000E+03,2.37800000000000E+03,2.41800000000000E+03,2.36600000000000E+03,2.60800000000000E+03,2.91400000000000E+03,3.63500000000000E+03,4.25500000000000E+03,4.86300000000000E+03,5.58000000000000E+03,,,,,
SAU,,,,,,,,,,,,,,,,,,,,,,,,,,,,,,1.20000000000000E+01,1.60000000000000E+01,2.70000000000000E+01,2.10000000000000E+01,2.10000000000000E+01,3.30000000000000E+01,2.80000000000000E+01,2.70000000000000E+01,5.70000000000000E+01,4.50000000000000E+01,7.20000000000000E+01,7.60000000000000E+01,4.60000000000000E+01,6.10000000000000E+01,5.60000000000000E+01,8.10000000000000E+01,1.19000000000000E+02,1.19000000000000E+02,1.28000000000000E+02,,,,
SDN,,,,,,,,,,,,,,,,,,,,,,,,7.00000000000000E+00,,,,,,,,,,,,,,,,2.00000000000000E+00,6.00000000000000E+00,1.00000000000000E+00,2.00000000000000E+00,6.00000000000000E+00,4.00000000000000E+00,6.00000000000000E+00,3.00000000000000E+00,3.00000000000000E+00,,,,
SGP,,,,,,,,,5.00000000000000E+00,1.00000000000000E+00,1.00000000000000E+00,2.00000000000000E+00,2.00000000000000E+00,,,,,4.00000000000000E+00,2.00000000000000E+00,,2.00000000000000E+00,4.00000000000000E+00,,5.00000000000000E+00,4.00000000000000E+00,4.00000000000000E+00,,,,,,,,,,1.45000000000000E+02,2.24000000000000E+02,2.88000000000000E+02,3.11000000000000E+02,3.74000000000000E+02,5.16000000000000E+02,5.23000000000000E+02,6.24000000000000E+02,6.26000000000000E+02,6.41000000000000E+02,5.69000000000000E+02,6.26000000000000E+02,6.96000000000000E+02,7.93000000000000E+02,7.50000000000000E+02,,
SLE,,,,,,,,1.00000000000000E+00,,,,,,,,,,,,,,,,,,,,,,,,,,,,,,,,,,,,,,,,,,,,
SLV,,,,,,,,,,,,,,,,,7.00000000000000E+00,8.00000000000000E+00,2.10000000000000E+01,1.60000000000000E+01,1.20000000000000E+01,,2.20000000000000E+01,3.90000000000000E+01,3.10000000000000E+01,1.60000000000000E+01,,,,1.90000000000000E+01,1.00000000000000E+01,1.00000000000000E+01,1.10000000000000E+01,1.00000000000000E+01,1.00000000000000E+01,3.00000000000000E+00,,,,,,,,,,,,,,,,
SOM,,,,,,,,,5.00000000000000E+00,,,,,,,,,,2.00000000000000E+00,,,,,,1.00000000000000E+00,,,,,,,,,,,,,,,,,,,,,,,,,,,
SRB,,,,,,,,,,,,,,,,,,,,,,,,,,,,,,,,,,,,,,,,,,,,,4.73000000000000E+02,3.72000000000000E+02,4.32000000000000E+02,3.95000000000000E+02,3.86000000000000E+02,3.19000000000000E+02,,
SVK,,,,,,,,,,,,,,,,,,,,,,,,,,,,,,,,,,2.82000000000000E+02,2.48000000000000E+02,2.69000000000000E+02,1.95000000000000E+02,2.24000000000000E+02,2.13000000000000E+02,2.13000000000000E+02,2.36000000000000E+02,2.46000000000000E+02,2.59000000000000E+02,2.10000000000000E+02,2.15000000000000E+02,1.55000000000000E+02,1.93000000000000E+02,2.39000000000000E+02,1.67000000000000E+02,1.76000000000000E+02,,
SVN,,,,,,,,,,,,,,,,,,,,,,,,,,,,,,,,2.10000000000000E+01,1.88000000000000E+02,2.77000000000000E+02,2.86000000000000E+02,3.14000000000000E+02,2.88000000000000E+02,2.66000000000000E+02,2.88000000000000E+02,2.61000000000000E+02,3.07000000000000E+02,3.01000000000000E+02,3.00000000000000E+02,3.10000000000000E+02,3.42000000000000E+02,3.44000000000000E+02,2.87000000000000E+02,3.31000000000000E+02,3.01000000000000E+02,3.73000000000000E+02,,
SWE,,,,4.29300000000000E+03,4.42200000000000E+03,4.81400000000000E+03,4.85700000000000E+03,5.30900000000000E+03,4.74200000000000E+03,4.33300000000000E+03,4.34300000000000E+03,4.39700000000000E+03,4.48400000000000E+03,4.86500000000000E+03,4.46000000000000E+03,4.04200000000000E+03,4.14100000000000E+03,4.50300000000000E+03,4.55600000000000E+03,4.11600000000000E+03,4.10600000000000E+03,3.91400000000000E+03,4.08700000000000E+03,4.28300000000000E+03,3.96900000000000E+03,3.84000000000000E+03,3.68500000000000E+03,3.52100000000000E+03,3.26000000000000E+03,3.14700000000000E+03,3.10800000000000E+03,3.15400000000000E+03,3.29100000000000E+03,3.76000000000000E+03,3.95300000000000E+03,3.94100000000000E+03,4.11100000000000E+03,4.13000000000000E+03,3.97200000000000E+03,4.14200000000000E+03,4.22400000000000E+03,3.92600000000000E+03,3.35800000000000E+03,3.02500000000000E+03,2.76800000000000E+03,2.52200000000000E+03,2.44600000000000E+03,2.52700000000000E+03,2.54900000000000E+03,,,
SYR,,,,4.00000000000000E+00,,4.00000000000000E+00,6.00000000000000E+00,8.00000000000000E+00,1.20000000000000E+01,1.00000000000000E+01,4.00000000000000E+00,5.00000000000000E+00,6.00000000000000E+00,4.00000000000000E+00,4.00000000000000E+00,3.00000000000000E+00,,,7.00000000000000E+00,7.00000000000000E+00,6.00000000000000E+00,7.00000000000000E+00,4.00000000000000E+00,,,,,,,,,,5.30000000000000E+01,8.20000000000000E+01,6.70000000000000E+01,1.29000000000000E+02,1.06000000000000E+02,1.16000000000000E+02,5.40000000000000E+01,8.70000000000000E+01,2.47000000000000E+02,1.89000000000000E+02,1.83000000000000E+02,2.13000000000000E+02,2.05000000000000E+02,1.05000000000000E+02,1.24000000000000E+02,,,,,
THA,,,,,,,,,,,,,,,,,,,,7.00000000000000E+00,1.30000000000000E+01,2.60000000000000E+01,4.00000000000000E+01,4.80000000000000E+01,4.90000000000000E+01,5.50000000000000E+01,6.00000000000000E+01,6.80000000000000E+01,7.80000000000000E+01,4.30000000000000E+01,7.30000000000000E+01,8.00000000000000E+01,6.70000000000000E+01,1.10000000000000E+02,1.50000000000000E+02,1.45000000000000E+02,2.03000000000000E+02,2.46000000000000E+02,4.79000000000000E+02,7.38000000000000E+02,5.61000000000000E+02,5.34000000000000E+02,6.15000000000000E+02,8.02000000000000E+02,8.19000000000000E+02,8.91000000000000E+02,1.04000000000000E+03,9.45000000000000E+02,8.02000000000000E+02,,,
TJK,,,,,,,,,,,,,,,,,,,,,,,,,,,,,,,,,,5.00000000000000E+00,2.40000000000000E+01,3.50000000000000E+01,3.00000000000000E+01,2.30000000000000E+01,3.70000000000000E+01,3.80000000000000E+01,4.50000000000000E+01,8.30000000000000E+01,3.90000000000000E+01,3.00000000000000E+01,3.20000000000000E+01,3.00000000000000E+01,2.60000000000000E+01,,,1.10000000000000E+01,,
TKM,,,,,,,,,,,,,,,,,,,,,,,,,,,,,,,,,,,,,6.60000000000000E+01,5.20000000000000E+01,4.10000000000000E+01,4.40000000000000E+01,,,,,,,,,,,,
TTO,,,,3.00000000000000E+00,3.00000000000000E+00,2.00000000000000E+00,1.00000000000000E+01,5.00000000000000E+00,2.00000000000000E+00,8.00000000000000E+00,4.00000000000000E+00,4.00000000000000E+00,8.00000000000000E+00,6.00000000000000E+00,1.00000000000000E+00,9.00000000000000E+00,7.00000000000000E+00,1.40000000000000E+01,4.00000000000000E+00,4.00000000000000E+00,7.00000000000000E+00,,1.00000000000000E+01,,,,,,,,,,1.30000000000000E+01,2.90000000000000E+01,1.40000000000000E+01,2.40000000000000E+01,9.00000000000000E+00,1.70000000000000E+01,,,,,2.00000000000000E+00,,,,,,,,,
TUN,,,,6.00000000000000E+00,8.00000000000000E+00,7.00000000000000E+00,1.10000000000000E+01,7.00000000000000E+00,7.00000000000000E+00,,3.00000000000000E+00,9.00000000000000E+00,7.00000000000000E+00,1.00000000000000E+01,4.30000000000000E+01,3.70000000000000E+01,1.20000000000000E+01,1.70000000000000E+01,5.00000000000000E+00,2.60000000000000E+01,2.70000000000000E+01,2.80000000000000E+01,,1.90000000000000E+01,1.20000000000000E+01,1.40000000000000E+01,2.80000000000000E+01,2.60000000000000E+01,2.00000000000000E+01,2.60000000000000E+01,2.70000000000000E+01,2.60000000000000E+01,2.20000000000000E+01,4.20000000000000E+01,3.90000000000000E+01,3.10000000000000E+01,4.50000000000000E+01,4.10000000000000E+01,3.80000000000000E+01,6.70000000000000E+01,4.70000000000000E+01,2.20000000000000E+01,4.50000000000000E+01,3.50000000000000E+01,4.60000000000000E+01,5.60000000000000E+01,,,,,,
TUR,,,,5.50000000000000E+01,7.80000000000000E+01,9.90000000000000E+01,1.24000000000000E+02,1.07000000000000E+02,8.70000000000000E+01,8.50000000000000E+01,8.90000000000000E+01,9.60000000000000E+01,,1.37000000000000E+02,9.20000000000000E+01,9.80000000000000E+01,1.18000000000000E+02,1.19000000000000E+02,8.90000000000000E+01,7.30000000000000E+01,1.34000000000000E+02,1.57000000000000E+02,1.26000000000000E+02,,1.53000000000000E+02,1.32000000000000E+02,1.74000000000000E+02,1.38000000000000E+02,1.53000000000000E+02,1.62000000000000E+02,1.38000000000000E+02,1.48000000000000E+02,1.89000000000000E+02,1.69000000000000E+02,1.51000000000000E+02,1.70000000000000E+02,1.89000000000000E+02,2.03000000000000E+02,2.07000000000000E+02,2.76000000000000E+02,2.77000000000000E+02,3.37000000000000E+02,4.14000000000000E+02,4.89000000000000E+02,6.82000000000000E+02,9.28000000000000E+02,1.07200000000000E+03,1.81000000000000E+03,2.22100000000000E+03,2.55500000000000E+03,,
TZA,,,,,,,,,,,,,,,,,,,,,,,,1.00000000000000E+00,,,,,,,,,,,,,,,,,,,,,,,,,,,,
UGA,,,,,1.00000000000000E+00,,,,,,,,,,,,,,,,,,,,,,,,,,,,,,,,,,,,,,,5.00000000000000E+00,1.20000000000000E+01,3.00000000000000E+00,1.10000000000000E+01,6.00000000000000E+00,,,,
UKR,,,,,,,,,,,,,,,,,,,,,,,,,,,,,,,,,3.09000000000000E+02,8.68700000000000E+03,5.35500000000000E+03,4.80400000000000E+03,3.63600000000000E+03,4.68800000000000E+03,5.31900000000000E+03,5.40100000000000E+03,5.62000000000000E+03,7.20800000000000E+03,1.60100000000000E+03,1.63500000000000E+03,4.09000000000000E+03,3.53800000000000E+03,3.47400000000000E+03,3.44000000000000E+03,2.82500000000000E+03,2.43400000000000E+03,,
UMC,,,,,,,,,,,,,,,,,,,,,,,,,,1.57980000000000E+04,1.59970000000000E+04,1.79410000000000E+04,,1.98490000000000E+04,,2.03660000000000E+04,6.13770000000000E+04,5.68870000000000E+04,4.73420000000000E+04,4.20050000000000E+04,3.84500000000000E+04,3.77030000000000E+04,3.95620000000000E+04,4.58210000000000E+04,5.82050000000000E+04,6.52290000000000E+04,7.32480000000000E+04,9.35150000000000E+04,1.01349000000000E+05,1.33453000000000E+05,1.68121000000000E+05,1.90906000000000E+05,2.31039000000000E+05,2.59814000000000E+05,,
URY,,,,,1.14000000000000E+02,,2.24000000000000E+02,,2.34000000000000E+02,2.46000000000000E+02,2.19000000000000E+02,1.90000000000000E+02,1.50000000000000E+02,8.80000000000000E+01,9.50000000000000E+01,1.32000000000000E+02,1.19000000000000E+02,5.90000000000000E+01,4.50000000000000E+01,4.30000000000000E+01,7.00000000000000E+01,7.10000000000000E+01,4.90000000000000E+01,4.00000000000000E+01,4.30000000000000E+01,6.30000000000000E+01,3.90000000000000E+01,3.40000000000000E+01,2.80000000000000E+01,2.30000000000000E+01,,3.40000000000000E+01,3.90000000000000E+01,2.90000000000000E+01,1.80000000000000E+01,3.50000000000000E+01,2.50000000000000E+01,3.20000000000000E+01,2.70000000000000E+01,2.70000000000000E+01,4.40000000000000E+01,,3.00000000000000E+01,4.50000000000000E+01,3.70000000000000E+01,,,,3.30000000000000E+01,,,
USA,6.30900000000000E+04,6.63350000000000E+04,,6.67150000000000E+04,6.70130000000000E+04,7.23170000000000E+04,6.68550000000000E+04,6.41180000000000E+04,6.71800000000000E+04,7.10080000000000E+04,7.23430000000000E+04,7.10890000000000E+04,6.59430000000000E+04,6.69350000000000E+04,6.40930000000000E+04,6.44450000000000E+04,6.50500000000000E+04,6.28630000000000E+04,6.14410000000000E+04,6.05350000000000E+04,6.20980000000000E+04,6.24040000000000E+04,6.33160000000000E+04,5.93910000000000E+04,6.18410000000000E+04,6.36730000000000E+04,6.51950000000000E+04,6.83150000000000E+04,7.51920000000000E+04,8.23700000000000E+04,9.06430000000000E+04,8.79550000000000E+04,9.24250000000000E+04,9.99550000000000E+04,1.07233000000000E+05,1.23962000000000E+05,1.06892000000000E+05,1.19214000000000E+05,1.34733000000000E+05,1.49251000000000E+05,1.64795000000000E+05,1.77513000000000E+05,1.84245000000000E+05,1.88941000000000E+05,1.89536000000000E+05,2.07867000000000E+05,2.21784000000000E+05,2.41347000000000E+05,2.31588000000000E+05,2.24912000000000E+05,,
UZB,,,,,,,,,,,,,,,,,,,,,,,,,,,,,,,,,,2.13600000000000E+03,1.06100000000000E+03,1.03900000000000E+03,9.14000000000000E+02,8.15000000000000E+02,7.21000000000000E+02,7.67000000000000E+02,7.55000000000000E+02,8.03000000000000E+02,7.15000000000000E+02,9.31000000000000E+02,2.73000000000000E+02,2.64000000000000E+02,3.23000000000000E+02,3.24000000000000E+02,2.62000000000000E+02,2.38000000000000E+02,,
VEN,,,,,1.04000000000000E+02,2.00000000000000E+02,2.38000000000000E+02,1.78000000000000E+02,3.25000000000000E+02,2.14000000000000E+02,3.06000000000000E+02,3.14000000000000E+02,2.08000000000000E+02,2.52000000000000E+02,2.41000000000000E+02,6.74000000000000E+02,1.83000000000000E+02,4.40000000000000E+02,1.94000000000000E+02,1.92000000000000E+02,2.36000000000000E+02,1.76000000000000E+02,1.74000000000000E+02,6.25000000000000E+02,8.75000000000000E+02,2.27000000000000E+02,2.82000000000000E+02,3.12000000000000E+02,,1.83000000000000E+02,2.62000000000000E+02,2.33000000000000E+02,2.02000000000000E+02,1.86000000000000E+02,2.24000000000000E+02,,1.82000000000000E+02,2.01000000000000E+02,,,5.60000000000000E+01,,,,,,,,,,,
VNM,,,,,,,,,,,,,,,,,,,,,,,,,5.20000000000000E+01,,7.00000000000000E+00,,2.00000000000000E+01,4.60000000000000E+01,5.80000000000000E+01,3.70000000000000E+01,3.40000000000000E+01,3.20000000000000E+01,2.20000000000000E+01,2.30000000000000E+01,3.70000000000000E+01,3.00000000000000E+01,2.50000000000000E+01,3.70000000000000E+01,3.40000000000000E+01,5.20000000000000E+01,6.90000000000000E+01,7.80000000000000E+01,1.03000000000000E+02,1.80000000000000E+02,,,,,,
WLD,,,,,,,,,,,,,,,,,,,,,,,,,,4.55957000000000E+05,4.72435000000000E+05,5.00728000000000E+05,,5.23530000000000E+05,,5.51060000000000E+05,6.11632000000000E+05,6.28870000000000E+05,6.17813000000000E+05,6.68905000000000E+05,6.73342000000000E+05,6.91143000000000E+05,7.05792000000000E+05,7.45043000000000E+05,8.21909000000000E+05,8.31191000000000E+05,8.22515000000000E+05,8.53032000000000E+05,8.92268000000000E+05,9.62134000000000E+05,9.94324000000000E+05,,,,,
WSM,,,,,,,,,,,,,,,,,,,,,,2.00000000000000E+00,,,,,,,,,,,,,,,,,,,,,,,,,,,,,,
YEM,,,,,,,,,,,,,,,,,,,,,,,,,,,,,,,,,,,,,,,7.00000000000000E+00,9.00000000000000E+00,7.00000000000000E+00,6.00000000000000E+00,9.00000000000000E+00,1.60000000000000E+01,1.00000000000000E+01,2.00000000000000E+01,1.40000000000000E+01,1.10000000000000E+01,,,,
ZAF,,,,1.65400000000000E+03,1.78500000000000E+03,2.01500000000000E+03,2.46600000000000E+03,,2.39200000000000E+03,,2.42800000000000E+03,2.59200000000000E+03,2.64900000000000E+03,2.68300000000000E+03,2.49000000000000E+03,2.54600000000000E+03,2.44200000000000E+03,2.96600000000000E+03,2.96500000000000E+03,2.53500000000000E+03,3.09200000000000E+03,3.34000000000000E+03,3.01700000000000E+03,4.24000000000000E+03,3.87400000000000E+03,4.05100000000000E+03,4.73000000000000E+03,4.92200000000000E+03,4.82900000000000E+03,5.13400000000000E+03,5.62100000000000E+03,5.51100000000000E+03,5.49800000000000E+03,5.34700000000000E+03,5.51500000000000E+03,5.54900000000000E+03,,,,,,,,,,,,,,,,
ZAR,,,,,,,,,,2.00000000000000E+00,,1.00000000000000E+00,2.00000000000000E+00,7.00000000000000E+00,1.00000000000000E+00,1.10000000000000E+01,2.00000000000000E+00,4.00000000000000E+00,3.00000000000000E+00,1.10000000000000E+01,3.00000000000000E+00,8.00000000000000E+00,6.00000000000000E+00,6.00000000000000E+00,8.00000000000000E+00,,,,,,,,,,,,,,,,,,,,,,,,,,,
ZMB,,,,,,,1.00000000000000E+00,5.00000000000000E+00,3.00000000000000E+00,2.00000000000000E+00,1.00000000000000E+00,2.00000000000000E+00,,1.00000000000000E+00,1.00000000000000E+00,2.00000000000000E+00,8.00000000000000E+00,,1.00000000000000E+00,1.00000000000000E+00,2.00000000000000E+00,1.00000000000000E+00,1.00000000000000E+00,1.00000000000000E+00,,,,,7.00000000000000E+00,3.00000000000000E+00,7.00000000000000E+00,1.00000000000000E+00,7.00000000000000E+00,4.00000000000000E+00,,4.00000000000000E+00,6.00000000000000E+00,,,5.00000000000000E+00,,6.00000000000000E+00,,,,,,,,,,
ZWE,,,,1.17000000000000E+02,6.90000000000000E+01,6.90000000000000E+01,6.40000000000000E+01,1.04000000000000E+02,1.15000000000000E+02,7.00000000000000E+01,7.70000000000000E+01,1.07000000000000E+02,8.30000000000000E+01,8.80000000000000E+01,6.80000000000000E+01,,,,,5.50000000000000E+01,3.90000000000000E+01,3.50000000000000E+01,4.10000000000000E+01,4.00000000000000E+01,3.40000000000000E+01,3.80000000000000E+01,4.70000000000000E+01,4.10000000000000E+01,3.80000000000000E+01,3.90000000000000E+01,4.40000000000000E+01,6.00000000000000E+01,4.20000000000000E+01,4.40000000000000E+01,,5.50000000000000E+01,2.80000000000000E+01,,,,,,,,,,,,,,,
