Indicator,1960,1961,1962,1963,1964,1965,1966,1967,1968,1969,1970,1971,1972,1973,1974,1975,1976,1977,1978,1979,1980,1981,1982,1983,1984,1985,1986,1987,1988,1989,1990,1991,1992,1993,1994,1995,1996,1997,1998,1999,2000,2001,2002,2003,2004,2005,2006,2007,2008,2009,2010,2011,2011AFG
AG.LND.EL5M.ZS,,,,,,,,,,,,,,,,,,,,,,,,,,,,,,,1.00000000000000E+02,,,,,,,,,,1.00000000000000E+02,,,,,,,,,,,
AG.LND.FRST.K2,,,,,,,,,,,,,,,,,,,,,,,,,,,,,,,0.00000000000000E+00,,,,,,,,,,0.00000000000000E+00,,,,,0.00000000000000E+00,,,,,0.00000000000000E+00,
AG.LND.FRST.ZS,,,,,,,,,,,,,,,,,,,,,,,,,,,,,,,0.00000000000000E+00,,,,,,,,,,0.00000000000000E+00,,,,,0.00000000000000E+00,,,,,0.00000000000000E+00,
AG.LND.TOTL.K2,,2.00000000000000E+00,2.00000000000000E+00,2.00000000000000E+00,2.00000000000000E+00,2.00000000000000E+00,2.00000000000000E+00,2.00000000000000E+00,2.00000000000000E+00,2.00000000000000E+00,2.00000000000000E+00,2.00000000000000E+00,2.00000000000000E+00,2.00000000000000E+00,2.00000000000000E+00,2.00000000000000E+00,2.00000000000000E+00,2.00000000000000E+00,2.00000000000000E+00,2.00000000000000E+00,2.00000000000000E+00,2.00000000000000E+00,2.00000000000000E+00,2.00000000000000E+00,2.00000000000000E+00,2.00000000000000E+00,2.00000000000000E+00,2.00000000000000E+00,2.00000000000000E+00,2.00000000000000E+00,2.00000000000000E+00,2.00000000000000E+00,2.00000000000000E+00,2.00000000000000E+00,2.00000000000000E+00,2.00000000000000E+00,2.00000000000000E+00,2.00000000000000E+00,2.00000000000000E+00,2.00000000000000E+00,2.00000000000000E+00,2.00000000000000E+00,2.00000000000000E+00,2.00000000000000E+00,2.00000000000000E+00,2.00000000000000E+00,2.00000000000000E+00,2.00000000000000E+00,2.00000000000000E+00,2.00000000000000E+00,2.00000000000000E+00,
AG.SRF.TOTL.K2,,2.00000000000000E+00,2.00000000000000E+00,2.00000000000000E+00,2.00000000000000E+00,2.00000000000000E+00,2.00000000000000E+00,2.00000000000000E+00,2.00000000000000E+00,2.00000000000000E+00,2.00000000000000E+00,2.00000000000000E+00,2.00000000000000E+00,2.00000000000000E+00,2.00000000000000E+00,2.00000000000000E+00,2.00000000000000E+00,2.00000000000000E+00,2.00000000000000E+00,2.00000000000000E+00,2.00000000000000E+00,2.00000000000000E+00,2.00000000000000E+00,2.00000000000000E+00,2.00000000000000E+00,2.00000000000000E+00,2.00000000000000E+00,2.00000000000000E+00,2.00000000000000E+00,2.00000000000000E+00,2.00000000000000E+00,2.00000000000000E+00,2.00000000000000E+00,2.00000000000000E+00,2.00000000000000E+00,2.00000000000000E+00,2.00000000000000E+00,2.00000000000000E+00,2.00000000000000E+00,2.00000000000000E+00,2.00000000000000E+00,2.00000000000000E+00,2.00000000000000E+00,2.00000000000000E+00,2.00000000000000E+00,2.00000000000000E+00,2.00000000000000E+00,2.00000000000000E+00,2.00000000000000E+00,2.00000000000000E+00,,
EN.BIR.THRD.NO,,,,,,,,,,,,,,,,,,,,,,,,,,,,,,,,,,,,,,,,,,,,,,,,,,,0.00000000000000E+00,
EN.CLC.GHGR.MT.CE,,,,,,,,,,,,,,,,,,,,,,,,,,,,,,,-1.25732000000000E-05,-1.27532000000000E-05,-1.30524000000000E-05,-1.32771000000000E-05,-1.36169000000000E-05,-1.38039000000000E-05,-1.38434000000000E-05,-1.38953000000000E-05,-1.38953000000000E-05,-1.39645000000000E-05,-1.34048000000000E-05,-1.50285000000000E-05,5.85840000000000E-06,7.07700000000000E-06,8.63860000000000E-06,-1.08582000000000E-05,-2.18494000000000E-05,-1.54879000000000E-05,-1.55917000000000E-05,-2.48411000000000E-05,,
EN.FSH.THRD.NO,,,,,,,,,,,,,,,,,,,,,,,,,,,,,,,,,,,,,,,,,,,,,,,,,,,9.00000000000000E+00,
EN.HPT.THRD.NO,,,,,,,,,,,,,,,,,,,,,,,,,,,,,,,,,,,,,,,,,,,,,,,,,,,0.00000000000000E+00,
EN.MAM.THRD.NO,,,,,,,,,,,,,,,,,,,,,,,,,,,,,,,,,,,,,,,,,,,,,,,,,,,2.00000000000000E+00,
EN.POP.DNST,,1.11715000000000E+04,1.12385000000000E+04,1.12810000000000E+04,1.13215000000000E+04,1.13745000000000E+04,1.14430000000000E+04,1.15230000000000E+04,1.16170000000000E+04,1.17240000000000E+04,1.18445000000000E+04,1.19840000000000E+04,1.21410000000000E+04,1.23025000000000E+04,1.24510000000000E+04,1.25765000000000E+04,1.26705000000000E+04,1.27410000000000E+04,1.28085000000000E+04,1.29010000000000E+04,1.30390000000000E+04,1.32295000000000E+04,1.34650000000000E+04,1.37295000000000E+04,1.40020000000000E+04,1.42665000000000E+04,1.45180000000000E+04,1.47605000000000E+04,1.49950000000000E+04,1.52235000000000E+04,1.54480000000000E+04,1.56650000000000E+04,1.58725000000000E+04,1.60770000000000E+04,1.62870000000000E+04,1.65070000000000E+04,1.67425000000000E+04,1.69870000000000E+04,1.72220000000000E+04,1.74200000000000E+04,1.75630000000000E+04,1.76440000000000E+04,1.76705000000000E+04,1.76615000000000E+04,1.76410000000000E+04,1.76300000000000E+04,1.76335000000000E+04,1.76475000000000E+04,1.76680000000000E+04,1.76885000000000E+04,1.77035000000000E+04,
EN.POP.EL5M.ZS,,,,,,,,,,,,,,,,,,,,,,,,,,,,,,,9.99999900000000E+01,,,,,,,,,,9.99999900000000E+01,,,,,,,,,,,
EN.URB.LCTY,2.21340000000000E+04,2.23420000000000E+04,2.24770000000000E+04,2.25620000000000E+04,2.26430000000000E+04,2.27490000000000E+04,2.28860000000000E+04,2.30460000000000E+04,2.32340000000000E+04,2.34480000000000E+04,2.36890000000000E+04,2.39660000000000E+04,2.42760000000000E+04,2.45950000000000E+04,2.48940000000000E+04,2.51530000000000E+04,2.53590000000000E+04,2.55210000000000E+04,2.56690000000000E+04,2.58450000000000E+04,2.60770000000000E+04,2.63750000000000E+04,2.67270000000000E+04,2.71090000000000E+04,2.74870000000000E+04,2.78370000000000E+04,2.81500000000000E+04,2.84350000000000E+04,2.86990000000000E+04,2.89590000000000E+04,2.92250000000000E+04,2.94960000000000E+04,2.97680000000000E+04,3.00430000000000E+04,3.03250000000000E+04,3.06150000000000E+04,3.09170000000000E+04,3.12260000000000E+04,3.15240000000000E+04,3.17890000000000E+04,3.20020000000000E+04,3.21570000000000E+04,3.22600000000000E+04,3.23290000000000E+04,3.23870000000000E+04,3.24530000000000E+04,3.25330000000000E+04,3.26200000000000E+04,3.27150000000000E+04,3.28120000000000E+04,,
EN.URB.LCTY.UR.ZS,9.99954822679015E+01,9.99955243252920E+01,1.00000000000000E+02,1.00000000000000E+02,1.00000000000000E+02,1.00000000000000E+02,1.00000000000000E+02,1.00000000000000E+02,1.00000000000000E+02,1.00000000000000E+02,1.00000000000000E+02,9.99916555407210E+01,9.99752903385224E+01,9.99593578540947E+01,9.99678740663401E+01,1.00000000000000E+02,1.00071031135314E+02,1.00153049211208E+02,1.00202990201819E+02,1.00166653747771E+02,9.99961653501035E+01,9.96825276843418E+01,9.92461938358708E+01,9.87253723733566E+01,9.81538351664048E+01,9.75607191672800E+01,9.69486155117785E+01,9.63212628298499E+01,9.56952317439146E+01,9.51128189969455E+01,9.45915328845158E+01,9.41461857644430E+01,9.37722475980469E+01,9.34347204080363E+01,9.30957205132928E+01,9.27333858363119E+01,9.23308944303419E+01,9.19114617060105E+01,9.15224712576937E+01,9.12428243398393E+01,9.11063030234015E+01,9.11272953978690E+01,9.12820803033304E+01,9.15239362455058E+01,9.17946828411088E+01,9.20391378332388E+01,9.22477103240990E+01,9.24210228077631E+01,9.25826352728096E+01,9.27495265285355E+01,,
EP.PMP.DESL.CD,,,,,,,,,,,,,,,,,,,,,,,,,,,,,,,,,,,,,,,,,,,,,,,,,,,1.69000000000000E+00,
EP.PMP.SGAS.CD,,,,,,,,,,,,,,,,,,,,,,,,,,,,,,,,,,,,,,,,,,,,,,,,,,,1.92000000000000E+00,
ER.BDV.TOTL.XQ,,,,,,,,,,,,,,,,,,,,,,,,,,,,,,,,,,,,,,,,,,,,,,,,,0.00000000000000E+00,,,
ER.LND.PTLD.ZS,,,,,,,,,,,,,,,,,,,,,,,,,,,,,,,2.35987291600000E+01,2.36039974853000E+01,2.36092853398000E+01,2.36145914393000E+01,2.36199168539000E+01,2.36252608347000E+01,2.36306238630000E+01,2.36360060460000E+01,2.36414068486000E+01,2.36414068486000E+01,2.36414068486000E+01,2.36414068486000E+01,2.36414068486000E+01,2.36414068486000E+01,2.36414068486000E+01,2.36414068486000E+01,2.36414068486000E+01,2.36414068486000E+01,2.36414068486000E+01,2.36720706260000E+01,,
ER.MRN.PTMR.ZS,,,,,,,,,,,,,,,,,,,,,,,,,,,,,,,7.96832185515542E-02,7.98886332159768E-02,8.00649648607848E-02,8.02418968400454E-02,8.04194359295427E-02,8.05975685777088E-02,8.07763015603275E-02,8.09556402980261E-02,8.11355739495502E-02,8.11355739495502E-02,8.11355739495502E-02,8.11355739495502E-02,8.11355739495502E-02,8.11355739495502E-02,8.11355739495502E-02,8.11355739495502E-02,8.11355739495502E-02,8.11355739495502E-02,8.11355739495502E-02,8.11359466176642E-02,,
IP.JRN.ARTC.SC,,,,,,,,,,,,,,,,,,,,,,,,,,,1.30000000000000E+01,1.60000000000000E+01,9.00000000000000E+00,6.00000000000000E+00,1.00000000000000E+01,9.00000000000000E+00,1.40000000000000E+01,1.10000000000000E+01,1.50000000000000E+01,1.36000000000000E+01,2.07000000000000E+01,1.33000000000000E+01,2.00000000000000E+01,2.27000000000000E+01,1.08000000000000E+01,2.01000000000000E+01,1.81000000000000E+01,2.66000000000000E+01,2.63000000000000E+01,2.35000000000000E+01,1.86000000000000E+01,1.41000000000000E+01,,,,
IP.PAT.NRES,,,,3.80000000000000E+01,4.80000000000000E+01,6.20000000000000E+01,4.40000000000000E+01,5.40000000000000E+01,4.50000000000000E+01,7.20000000000000E+01,3.60000000000000E+01,2.40000000000000E+01,4.50000000000000E+01,4.90000000000000E+01,4.10000000000000E+01,2.50000000000000E+01,4.30000000000000E+01,4.60000000000000E+01,4.70000000000000E+01,5.00000000000000E+01,5.40000000000000E+01,5.60000000000000E+01,3.70000000000000E+01,4.60000000000000E+01,5.10000000000000E+01,5.40000000000000E+01,4.00000000000000E+01,5.50000000000000E+01,6.70000000000000E+01,5.00000000000000E+01,5.60000000000000E+01,4.20000000000000E+01,1.30000000000000E+01,1.10000000000000E+01,1.40000000000000E+01,1.70000000000000E+01,2.30000000000000E+01,1.30000000000000E+01,1.50000000000000E+01,1.40000000000000E+01,7.00000000000000E+00,1.40000000000000E+01,4.00000000000000E+00,3.00000000000000E+00,2.00000000000000E+00,5.00000000000000E+00,7.00000000000000E+00,5.00000000000000E+00,3.00000000000000E+00,7.00000000000000E+00,,
IP.PAT.RESD,,,,2.30000000000000E+01,1.30000000000000E+01,1.20000000000000E+01,2.00000000000000E+01,2.20000000000000E+01,1.00000000000000E+01,1.50000000000000E+01,3.10000000000000E+01,1.20000000000000E+01,1.40000000000000E+01,6.00000000000000E+00,5.00000000000000E+00,2.10000000000000E+01,8.00000000000000E+00,5.00000000000000E+00,3.00000000000000E+01,1.70000000000000E+01,1.40000000000000E+01,2.00000000000000E+01,9.00000000000000E+00,1.90000000000000E+01,1.10000000000000E+01,1.50000000000000E+01,1.00000000000000E+01,1.90000000000000E+01,1.60000000000000E+01,9.00000000000000E+00,2.10000000000000E+01,1.20000000000000E+01,9.00000000000000E+00,1.00000000000000E+01,2.10000000000000E+01,1.30000000000000E+01,1.60000000000000E+01,2.00000000000000E+01,4.00000000000000E+00,1.50000000000000E+01,6.00000000000000E+00,6.00000000000000E+00,8.00000000000000E+00,5.00000000000000E+00,7.00000000000000E+00,2.00000000000000E+00,6.00000000000000E+00,1.10000000000000E+01,7.00000000000000E+00,3.00000000000000E+00,,
IP.TMK.MDRD,,,,,,,,,,,,,,,,,,,,,,,,,,2.87000000000000E+03,,,,,,,,,,,4.18200000000000E+03,4.24000000000000E+03,4.25700000000000E+03,4.11900000000000E+03,4.62600000000000E+03,4.40800000000000E+03,3.54000000000000E+03,3.16300000000000E+03,2.99200000000000E+03,3.80000000000000E+03,3.88700000000000E+03,3.74500000000000E+03,3.73700000000000E+03,2.77300000000000E+03,,
IP.TMK.NRES,5.80000000000000E+01,,1.16000000000000E+02,8.10000000000000E+01,6.50000000000000E+01,9.90000000000000E+01,3.06000000000000E+02,2.14000000000000E+02,1.38000000000000E+02,1.34000000000000E+02,1.58000000000000E+02,1.42000000000000E+02,1.43000000000000E+02,3.77000000000000E+02,1.49000000000000E+02,1.54000000000000E+02,1.54000000000000E+02,1.93000000000000E+02,1.94000000000000E+02,1.84000000000000E+02,1.57000000000000E+02,1.69000000000000E+02,2.01000000000000E+02,1.67000000000000E+02,1.48000000000000E+02,1.71000000000000E+02,1.71000000000000E+02,6.28000000000000E+02,5.02000000000000E+02,3.45000000000000E+02,3.84000000000000E+02,2.96000000000000E+02,2.56000000000000E+02,1.79000000000000E+02,2.67000000000000E+02,2.65000000000000E+02,3.10000000000000E+02,3.72000000000000E+02,3.40000000000000E+02,3.58000000000000E+02,3.61000000000000E+02,3.20000000000000E+02,2.66000000000000E+02,2.08000000000000E+02,2.19000000000000E+02,2.53000000000000E+02,3.42000000000000E+02,2.92000000000000E+02,3.79000000000000E+02,2.38000000000000E+02,,
IP.TMK.RESD,1.25000000000000E+02,,5.40000000000000E+01,4.50000000000000E+01,9.70000000000000E+01,3.86000000000000E+02,6.10000000000000E+01,4.30000000000000E+01,1.07000000000000E+02,1.48000000000000E+02,1.84000000000000E+02,2.00000000000000E+02,1.57000000000000E+02,5.10000000000000E+01,5.80000000000000E+01,4.80000000000000E+01,6.30000000000000E+01,5.60000000000000E+01,6.00000000000000E+01,6.50000000000000E+01,5.10000000000000E+01,7.10000000000000E+01,1.46000000000000E+02,8.30000000000000E+01,1.22000000000000E+02,1.55000000000000E+02,1.11000000000000E+02,2.14000000000000E+02,1.80000000000000E+02,1.78000000000000E+02,1.93000000000000E+02,1.49000000000000E+02,1.10000000000000E+02,1.43000000000000E+02,2.67000000000000E+02,2.04000000000000E+02,3.26000000000000E+02,2.89000000000000E+02,3.24000000000000E+02,3.02000000000000E+02,3.74000000000000E+02,3.41000000000000E+02,2.50000000000000E+02,3.05000000000000E+02,3.10000000000000E+02,3.59000000000000E+02,4.20000000000000E+02,3.76000000000000E+02,3.58000000000000E+02,3.13000000000000E+02,,
IP.TMK.TOTL,1.83000000000000E+02,,1.70000000000000E+02,1.26000000000000E+02,1.62000000000000E+02,4.85000000000000E+02,3.67000000000000E+02,2.57000000000000E+02,2.45000000000000E+02,2.82000000000000E+02,3.42000000000000E+02,3.42000000000000E+02,3.00000000000000E+02,4.28000000000000E+02,2.07000000000000E+02,2.02000000000000E+02,2.17000000000000E+02,2.49000000000000E+02,2.54000000000000E+02,2.49000000000000E+02,2.08000000000000E+02,2.40000000000000E+02,3.47000000000000E+02,2.50000000000000E+02,2.70000000000000E+02,3.19600000000000E+03,2.82000000000000E+02,8.42000000000000E+02,6.82000000000000E+02,5.23000000000000E+02,5.77000000000000E+02,4.45000000000000E+02,3.66000000000000E+02,3.22000000000000E+02,5.34000000000000E+02,4.69000000000000E+02,4.81800000000000E+03,4.90100000000000E+03,4.92100000000000E+03,4.77900000000000E+03,5.36100000000000E+03,5.06900000000000E+03,4.05600000000000E+03,3.67600000000000E+03,3.52100000000000E+03,4.41200000000000E+03,4.64900000000000E+03,4.41300000000000E+03,4.47400000000000E+03,3.32400000000000E+03,,
IS.AIR.DPRT,,,,,,,,,,,,,,,,,,,,,5.80000000000000E+03,5.80000000000000E+03,5.80000000000000E+03,5.80000000000000E+03,9.40000000000000E+03,9.40000000000000E+03,1.25000000000000E+04,1.25000000000000E+04,1.25000000000000E+04,1.25000000000000E+04,1.25000000000000E+04,1.25000000000000E+04,1.25000000000000E+04,1.25000000000000E+04,1.25000000000000E+04,1.25000000000000E+04,1.25000000000000E+04,1.25000000000000E+04,1.27000000000000E+04,2.89000000000000E+04,3.14790000000000E+04,2.99050000000000E+04,1.49590000000000E+04,1.40240000000000E+04,1.20220000000000E+04,1.22490000000000E+04,1.40920000000000E+04,1.51700000000000E+04,1.30710000000000E+04,1.03510000000000E+04,,
IS.AIR.GOOD.MT.K1,,,,,,,,,,,,,,,,,,,,,,,,,,,,,,,,,,,,,,,,,0.00000000000000E+00,0.00000000000000E+00,0.00000000000000E+00,0.00000000000000E+00,0.00000000000000E+00,0.00000000000000E+00,0.00000000000000E+00,0.00000000000000E+00,0.00000000000000E+00,0.00000000000000E+00,,
IS.AIR.PSGR,,,,,,,,,,,,,,,,,,,,,4.40000000000000E+04,4.40000000000000E+04,4.40000000000000E+04,4.40000000000000E+04,7.32000000000000E+04,7.38000000000000E+04,3.75000000000000E+04,4.00000000000000E+04,4.00000000000000E+04,4.25000000000000E+04,4.25000000000000E+04,4.25000000000000E+04,4.40000000000000E+04,4.40000000000000E+04,4.40000000000000E+04,4.40000000000000E+04,4.40000000000000E+04,4.40000000000000E+04,4.38000000000000E+04,7.52000000000000E+04,8.27640000000000E+04,7.77980000000000E+04,1.04255000000000E+05,9.45630000000000E+04,8.39160000000000E+04,8.75230000000000E+04,9.57210000000000E+04,1.01753000000000E+05,8.46600000000000E+04,6.38760000000000E+04,,
IS.ROD.DNST.K2,,,,,,,,,,,,,,,,,,,,,,,,,,,,,,,,,,,,,,,,,,,,,,,3.85000000000000E+03,3.85000000000000E+03,3.85000000000000E+03,,,
IS.ROD.PAVE.ZS,,,,,,,,,,,,,,,,,,,,,,,,,,,,,,,1.00000000000000E+02,1.00000000000000E+02,1.00000000000000E+02,1.00000000000000E+02,1.00000000000000E+02,1.00000000000000E+02,1.00000000000000E+02,1.00000000000000E+02,1.00000000000000E+02,1.00000000000000E+02,1.00000000000000E+02,1.00000000000000E+02,,,,,1.00000000000000E+02,1.00000000000000E+02,1.00000000000000E+02,,,
IS.ROD.PSGR.K6,,,,,,,,,,,,,,,,,,,,,,,,,,,,,,,,,,,,,,,,,,,,,,,1.31000000000000E+01,1.49000000000000E+01,1.66000000000000E+01,,,
IS.ROD.TOTL.KM,,,,,,,,,,,,,,,,,,,,,,,,,,,,,,,,,,,,,5.00000000000000E+01,5.00000000000000E+01,5.00000000000000E+01,5.00000000000000E+01,5.00000000000000E+01,,,,,,7.70000000000000E+01,7.70000000000000E+01,7.70000000000000E+01,,,
IS.VEH.NVEH.P3,,,,,,,,,,,,,,,,,,,,,,,,,,,,,,,,,,,,,,,,,,,,,,,,8.72000000000000E+02,8.63000000000000E+02,,,
IS.VEH.PCAR.P3,,,,,,,,,,,,,,,,,,,,,,,,,,,,,,,,,,,,,,,,,,,,,,,,7.48000000000000E+02,7.32000000000000E+02,,,
IS.VEH.ROAD.K1,,,,,,,,,,,,,,,,,,,,,,,,,,,,,,,,,,,,,,,,,,,,,,,,3.70000000000000E+02,3.67000000000000E+02,,,
IT.NET.SECR,,,,,,,,,,,,,,,,,,,,,,,,,,,,,,,,,,,,,,,,,,8.00000000000000E+00,,1.50000000000000E+01,1.80000000000000E+01,2.40000000000000E+01,3.30000000000000E+01,3.40000000000000E+01,5.00000000000000E+01,5.10000000000000E+01,9.00000000000000E+01,
IT.NET.SECR.P6,,,,,,,,,,,,,,,,,,,,,,,,,,,,,,,,,,,,,,,,,,2.26705962366810E+02,,4.24652492710132E+02,5.10175160138314E+02,6.80657969370391E+02,9.35718944055349E+02,9.63309250602068E+02,1.41498754810958E+03,1.44161460836136E+03,2.54187025164516E+03,
NY.ADJ.AEDU.CD,,,,,,,,,,,,,,,,,,,,,,,,,,,,,,,,,,,,,,,,2.09492397102378E+08,2.03827389113546E+08,2.05637688415143E+08,2.23694442115888E+08,2.76271251201687E+08,4.66097732084209E+07,4.85343802614951E+07,5.28821675094863E+07,6.77470811955292E+07,7.46269222698256E+07,6.92711166333053E+07,,
NY.ADJ.AEDU.GN.ZS,,,,,,,,,,,,,,,,,,,,,,,,,,,,,,,,,,,,,,,,7.20893758150760E+00,7.69774668962662E+00,7.69774668962662E+00,7.69774668962662E+00,7.69774668962662E+00,1.13396160539274E+00,1.13396160539274E+00,1.13396160539274E+00,1.13396160539274E+00,1.13396160539274E+00,1.13396160539274E+00,,
NY.ADJ.DCO2.CD,,,,,,,,,,,0.00000000000000E+00,0.00000000000000E+00,0.00000000000000E+00,0.00000000000000E+00,0.00000000000000E+00,0.00000000000000E+00,0.00000000000000E+00,0.00000000000000E+00,0.00000000000000E+00,0.00000000000000E+00,0.00000000000000E+00,0.00000000000000E+00,0.00000000000000E+00,0.00000000000000E+00,0.00000000000000E+00,0.00000000000000E+00,0.00000000000000E+00,0.00000000000000E+00,0.00000000000000E+00,0.00000000000000E+00,0.00000000000000E+00,0.00000000000000E+00,0.00000000000000E+00,0.00000000000000E+00,0.00000000000000E+00,0.00000000000000E+00,0.00000000000000E+00,0.00000000000000E+00,0.00000000000000E+00,0.00000000000000E+00,0.00000000000000E+00,0.00000000000000E+00,0.00000000000000E+00,0.00000000000000E+00,0.00000000000000E+00,0.00000000000000E+00,0.00000000000000E+00,0.00000000000000E+00,0.00000000000000E+00,0.00000000000000E+00,,
NY.ADJ.DCO2.GN.ZS,,,,,,,,,,,0.00000000000000E+00,0.00000000000000E+00,0.00000000000000E+00,0.00000000000000E+00,0.00000000000000E+00,0.00000000000000E+00,0.00000000000000E+00,0.00000000000000E+00,0.00000000000000E+00,0.00000000000000E+00,0.00000000000000E+00,0.00000000000000E+00,0.00000000000000E+00,0.00000000000000E+00,0.00000000000000E+00,0.00000000000000E+00,0.00000000000000E+00,0.00000000000000E+00,0.00000000000000E+00,0.00000000000000E+00,0.00000000000000E+00,0.00000000000000E+00,0.00000000000000E+00,0.00000000000000E+00,0.00000000000000E+00,0.00000000000000E+00,0.00000000000000E+00,0.00000000000000E+00,0.00000000000000E+00,0.00000000000000E+00,0.00000000000000E+00,0.00000000000000E+00,0.00000000000000E+00,0.00000000000000E+00,0.00000000000000E+00,0.00000000000000E+00,0.00000000000000E+00,0.00000000000000E+00,0.00000000000000E+00,0.00000000000000E+00,,
NY.ADJ.DKAP.CD,,,,,,,,,,,4.37725868327996E+07,4.95927299192566E+07,6.24700783544028E+07,8.38880825562987E+07,9.10622057073632E+07,1.06333963393876E+08,1.10155186643040E+08,1.22881957346385E+08,1.55263134021552E+08,1.91781328627451E+08,1.98671611217830E+08,1.71128544779027E+08,1.61210856641198E+08,1.53096976071308E+08,1.44342369970258E+08,1.72449547847321E+08,2.49712865960307E+08,3.08861299795268E+08,3.38559899268875E+08,3.40009694666390E+08,3.97525878119487E+08,3.97014076271824E+08,4.42000438444494E+08,4.12826812199185E+08,4.38214521256200E+08,5.03584968073889E+08,5.04453644950126E+08,4.51900132584816E+08,4.67947120130624E+08,4.62595085394385E+08,4.04401923446939E+08,4.08138167559645E+08,4.47150383120271E+08,5.62365544448314E+08,6.51480257721233E+08,6.74898534096572E+08,7.41295639438171E+08,9.72041979542820E+08,1.08018914197071E+09,9.95437889142478E+08,,
NY.ADJ.DKAP.GN.ZS,,,,,,,,,,,1.48723474568698E+01,1.50662082755104E+01,1.54403326537244E+01,1.59254412015327E+01,1.60461926895814E+01,1.48901812730755E+01,1.49330468093026E+01,1.50957438744200E+01,1.54568693720343E+01,1.57812264622132E+01,1.43814241708674E+01,1.41708434449572E+01,1.40752786461982E+01,1.39891027207331E+01,1.38939583308158E+01,1.58676976270770E+01,1.64107742109920E+01,1.67178613513581E+01,1.68432217428591E+01,1.68360141221277E+01,1.61887163160403E+01,1.61719136476924E+01,1.63287755066737E+01,1.62049524804687E+01,1.62853911853573E+01,1.60122160521295E+01,1.60010237462840E+01,1.58351949220655E+01,1.58702892852113E+01,1.58428246791108E+01,1.52713124467451E+01,1.52767122887730E+01,1.53857269360529E+01,1.56670789518886E+01,1.58472882511584E+01,1.57976757719724E+01,1.59254232181993E+01,1.63010763928790E+01,1.65217043185192E+01,,,
NY.ADJ.DMIN.CD,,,,,,,,,,,0.00000000000000E+00,0.00000000000000E+00,0.00000000000000E+00,0.00000000000000E+00,0.00000000000000E+00,0.00000000000000E+00,0.00000000000000E+00,0.00000000000000E+00,0.00000000000000E+00,0.00000000000000E+00,0.00000000000000E+00,0.00000000000000E+00,0.00000000000000E+00,0.00000000000000E+00,0.00000000000000E+00,0.00000000000000E+00,0.00000000000000E+00,0.00000000000000E+00,0.00000000000000E+00,0.00000000000000E+00,0.00000000000000E+00,0.00000000000000E+00,0.00000000000000E+00,0.00000000000000E+00,0.00000000000000E+00,0.00000000000000E+00,0.00000000000000E+00,0.00000000000000E+00,0.00000000000000E+00,0.00000000000000E+00,0.00000000000000E+00,0.00000000000000E+00,0.00000000000000E+00,0.00000000000000E+00,0.00000000000000E+00,0.00000000000000E+00,0.00000000000000E+00,0.00000000000000E+00,0.00000000000000E+00,0.00000000000000E+00,,
NY.ADJ.DMIN.GN.ZS,,,,,,,,,,,0.00000000000000E+00,0.00000000000000E+00,0.00000000000000E+00,0.00000000000000E+00,0.00000000000000E+00,0.00000000000000E+00,0.00000000000000E+00,0.00000000000000E+00,0.00000000000000E+00,0.00000000000000E+00,0.00000000000000E+00,0.00000000000000E+00,0.00000000000000E+00,0.00000000000000E+00,0.00000000000000E+00,0.00000000000000E+00,0.00000000000000E+00,0.00000000000000E+00,0.00000000000000E+00,0.00000000000000E+00,0.00000000000000E+00,0.00000000000000E+00,0.00000000000000E+00,0.00000000000000E+00,0.00000000000000E+00,0.00000000000000E+00,0.00000000000000E+00,0.00000000000000E+00,0.00000000000000E+00,0.00000000000000E+00,0.00000000000000E+00,0.00000000000000E+00,0.00000000000000E+00,0.00000000000000E+00,0.00000000000000E+00,0.00000000000000E+00,0.00000000000000E+00,0.00000000000000E+00,0.00000000000000E+00,0.00000000000000E+00,,
NY.ADJ.DNGY.CD,,,,,,,,,,,5.78583252116707E+07,6.84392369001461E+07,7.34339927002386E+07,9.72281495096714E+07,2.43487386744683E+08,2.36803188768171E+08,2.50477094913832E+08,2.91030680203954E+08,3.59566949543708E+08,5.73716896057106E+08,7.96618493483011E+08,8.67733344679321E+08,7.88315747081811E+08,7.61772997609875E+08,7.39916887409559E+08,6.62878609268142E+08,3.42118029016176E+08,3.35179149422494E+08,2.26111822619180E+08,2.71480064010897E+08,3.50063033974356E+08,3.48812930685358E+08,3.13596569046963E+08,2.84955360583405E+08,2.63011878543957E+08,2.59830584500654E+08,2.91493305220454E+08,2.30903219276542E+08,1.37368789574081E+08,1.43180964214969E+08,2.71853521092066E+08,0.00000000000000E+00,0.00000000000000E+00,0.00000000000000E+00,0.00000000000000E+00,0.00000000000000E+00,0.00000000000000E+00,0.00000000000000E+00,0.00000000000000E+00,0.00000000000000E+00,,
NY.ADJ.DNGY.GN.ZS,,,,,,,,,,,1.97418915585768E+01,2.08878150762207E+01,1.82462684233973E+01,1.85708388345784E+01,4.31761408876488E+01,3.32624723023273E+01,3.40627634714803E+01,3.58743109410836E+01,3.59374419949575E+01,4.74186052791808E+01,5.78042650511613E+01,7.20011455938490E+01,6.89551872447402E+01,6.97242007973546E+01,7.13300124471204E+01,6.12160456447522E+01,2.25789245046992E+01,1.82252162577627E+01,1.13017786619399E+01,1.35056856942642E+01,1.41079582921633E+01,1.40622163076865E+01,1.14573948718911E+01,1.10686348702122E+01,9.66849601715053E+00,8.30057816851970E+00,9.28959058804483E+00,8.12987349704344E+00,4.68103940829005E+00,4.92706488713936E+00,1.02668220946697E+01,0.00000000000000E+00,0.00000000000000E+00,0.00000000000000E+00,0.00000000000000E+00,0.00000000000000E+00,0.00000000000000E+00,0.00000000000000E+00,0.00000000000000E+00,0.00000000000000E+00,,
NY.GDP.COAL.RT.ZS,,,,,,,,,,,0.00000000000000E+00,0.00000000000000E+00,0.00000000000000E+00,0.00000000000000E+00,0.00000000000000E+00,0.00000000000000E+00,0.00000000000000E+00,0.00000000000000E+00,0.00000000000000E+00,0.00000000000000E+00,0.00000000000000E+00,0.00000000000000E+00,0.00000000000000E+00,0.00000000000000E+00,0.00000000000000E+00,0.00000000000000E+00,0.00000000000000E+00,0.00000000000000E+00,0.00000000000000E+00,0.00000000000000E+00,0.00000000000000E+00,0.00000000000000E+00,0.00000000000000E+00,0.00000000000000E+00,0.00000000000000E+00,0.00000000000000E+00,0.00000000000000E+00,0.00000000000000E+00,0.00000000000000E+00,0.00000000000000E+00,0.00000000000000E+00,0.00000000000000E+00,0.00000000000000E+00,0.00000000000000E+00,0.00000000000000E+00,0.00000000000000E+00,0.00000000000000E+00,0.00000000000000E+00,0.00000000000000E+00,0.00000000000000E+00,,
NY.GDP.DEFL.KD.ZG,,,,,,,,,,,,5.98384122090523E+00,6.86703871906933E+00,7.76504015953388E+00,1.13629699648961E+01,1.36498863149285E+01,1.08085737126021E+01,8.80683106350335E+00,9.15877839496839E+00,1.01025738493200E+01,1.12573170568313E+01,1.14426264385685E+01,1.19914811687120E+01,9.51516165703261E+00,7.27708243407498E+00,5.52667122001213E+00,5.27888310112583E+00,2.78044953291059E+00,3.07277858209034E+00,3.30838625528311E+00,2.64056122493047E+00,2.53981616189884E+00,2.13588389241445E+00,1.55002934369708E+00,1.34566185697579E+00,1.30791343118382E+00,1.60457948490217E+00,1.01405214824317E+00,9.00918153941305E-01,4.62493119802048E-02,1.40061549468990E+00,1.64890158663702E+00,2.38016507896776E+00,1.87867886716025E+00,1.58978624126837E+00,2.03424929154848E+00,2.82070978993241E+00,2.47788856550235E+00,-6.43269653303787E+00,5.19258185049324E-01,,
NY.GDP.DEFL.ZS,,,,,,,,,,,2.19424181037175E+01,2.32554175630712E+01,2.48523760914085E+01,2.67821730755048E+01,2.98254233580209E+01,3.38965597393368E+01,3.75602943847993E+01,4.08681660582231E+01,4.46111908215834E+01,4.91180693193949E+01,5.46474461148734E+01,6.09005492320164E+01,6.82034271248158E+01,7.46930934713785E+01,8.01285714558514E+01,8.45570141535088E+01,8.90206800844749E+01,9.14958551680775E+01,9.43073202091826E+01,9.74273706287090E+01,1.00000000000000E+02,1.02539816161899E+02,1.04729947578612E+02,1.06353292497719E+02,1.07784448188499E+02,1.09194175463084E+02,1.10946282801272E+02,1.12071335965415E+02,1.13081006976492E+02,1.13133306164199E+02,1.14717868779989E+02,1.16609453538459E+02,1.19384951030356E+02,1.21627810875933E+02,1.23561433078795E+02,1.26074980655827E+02,1.29631189977842E+02,1.32843306411627E+02,1.24297899645713E+02,1.24943326663468E+02,,
NY.GDP.MINR.RT.ZS,,,,,,,,,,,0.00000000000000E+00,0.00000000000000E+00,0.00000000000000E+00,0.00000000000000E+00,0.00000000000000E+00,0.00000000000000E+00,0.00000000000000E+00,0.00000000000000E+00,0.00000000000000E+00,0.00000000000000E+00,0.00000000000000E+00,0.00000000000000E+00,0.00000000000000E+00,0.00000000000000E+00,0.00000000000000E+00,0.00000000000000E+00,0.00000000000000E+00,0.00000000000000E+00,0.00000000000000E+00,0.00000000000000E+00,0.00000000000000E+00,0.00000000000000E+00,0.00000000000000E+00,0.00000000000000E+00,0.00000000000000E+00,0.00000000000000E+00,0.00000000000000E+00,0.00000000000000E+00,0.00000000000000E+00,0.00000000000000E+00,0.00000000000000E+00,0.00000000000000E+00,0.00000000000000E+00,0.00000000000000E+00,0.00000000000000E+00,0.00000000000000E+00,0.00000000000000E+00,0.00000000000000E+00,0.00000000000000E+00,0.00000000000000E+00,,
NY.GDP.MKTP.CD,,,,,,,,,,,2.93073868023221E+08,3.27651487962757E+08,4.02460333237637E+08,5.23552815119127E+08,5.63939670704419E+08,7.11922994225545E+08,7.35339911935065E+08,8.11250927388998E+08,1.00053573538751E+09,1.20989829346372E+09,1.37813099565913E+09,1.20516602551592E+09,1.14322907177943E+09,1.09255178101486E+09,1.03731495625083E+09,1.08285107652158E+09,1.51520958823780E+09,1.83909559525655E+09,2.00067466708261E+09,2.01011685120284E+09,2.48131605385316E+09,2.48049754784881E+09,2.73706695591266E+09,2.57443997317387E+09,2.72029773893904E+09,3.13027091879061E+09,3.13784878308404E+09,2.84018219177105E+09,2.93457878886478E+09,2.90600930766510E+09,2.64788382018625E+09,2.67140108276436E+09,2.90597302217460E+09,3.58898860070294E+09,4.11034844449411E+09,4.28007262597622E+09,4.66348836309770E+09,5.97437169595045E+09,6.58108016311355E+09,6.10877090581155E+09,,
NY.GDP.MKTP.CN,,,,,,,,,,,2.48154673000000E+08,2.76753854000000E+08,3.09506426000000E+08,3.55399109000000E+08,4.13492753000000E+08,4.65363289000000E+08,5.38411535000000E+08,6.06644400000000E+08,6.88386255000000E+08,7.84717819000000E+08,8.87770979000000E+08,9.98480895000000E+08,1.14541285200000E+09,1.26939049100000E+09,1.38198069900000E+09,1.48327719100000E+09,1.59987323900000E+09,1.68521217400000E+09,1.81687249100000E+09,1.95513277200000E+09,2.05980701100000E+09,2.13356310800000E+09,2.20891436300000E+09,2.22265265700000E+09,2.30247035400000E+09,2.38196901800000E+09,2.44707138600000E+09,2.52718817400000E+09,2.63928787100000E+09,2.72765960000000E+09,2.87401530500000E+09,2.98531742400000E+09,3.08774647800000E+09,3.17996652400000E+09,3.31033077500000E+09,3.44169200000000E+09,3.71745700000000E+09,4.36510000000000E+09,4.49273700000000E+09,4.39735817300000E+09,,
NY.GDP.MKTP.KD,,,,,,,,,,,1.19530542648991E+09,1.25779671166029E+09,1.31626299715697E+09,1.40252768216965E+09,1.46528534082263E+09,1.45103342620738E+09,1.51504763447605E+09,1.56888085369384E+09,1.63090736310165E+09,1.68854697151053E+09,1.71700671195972E+09,1.73284401046926E+09,1.77499352574049E+09,1.79620422532075E+09,1.82286915786104E+09,1.85401651740026E+09,1.89948376367870E+09,1.94667784666341E+09,2.03619780280865E+09,2.12097814217636E+09,2.17704522737760E+09,2.19914506484165E+09,2.22919937381045E+09,2.20882637305266E+09,2.25776566291562E+09,2.30556597631752E+09,2.33117459863139E+09,2.38332874506424E+09,2.46682314290958E+09,2.54824166156743E+09,2.64788382018625E+09,2.70581235227233E+09,2.73358743045005E+09,2.76331616384424E+09,2.83158350870378E+09,2.88525373283757E+09,3.03094018262071E+09,3.47292528643414E+09,3.82021781507755E+09,3.71980090340154E+09,,
NY.GDP.MKTP.KD.ZG,,,,,,,,,,,,5.22806002428122E+00,4.64830961590725E+00,6.55375750887276E+00,4.47461105052093E+00,-9.72637493749531E-01,4.41162878211530E+00,3.55323608266649E+00,3.95355130134796E+00,3.53420492867617E+00,1.68545743348325E+00,9.22378369241514E-01,2.43238947167679E+00,1.19497334906691E+00,1.48451563382339E+00,1.70869968395131E+00,2.45236468239263E+00,2.48457417152686E+00,4.59860147371964E+00,4.16365930906935E+00,2.64345417269203E+00,1.01512991949468E+00,1.36663603730779E+00,-9.13915596654761E-01,2.21562411876339E+00,2.11715122552458E+00,1.11073040532861E+00,2.23724754308287E+00,3.50326819236568E+00,3.30054138221743E+00,3.91023191095358E+00,2.18772937258254E+00,1.02649683576178E+00,1.08753548772695E+00,2.47048621336801E+00,1.89541378415325E+00,5.04934620220965E+00,1.45824423176593E+01,1.00000000000000E+01,-2.62856508546935E+00,,
NY.GDP.MKTP.KN,,,,,,,,,,,1.13093585140444E+09,1.19006185655198E+09,1.24537961626533E+09,1.32699877638029E+09,1.38637681026848E+09,1.37289238960716E+09,1.43345930541454E+09,1.48439349868487E+09,1.54307975716925E+09,1.59761535800053E+09,1.62454248481042E+09,1.63952691328945E+09,1.67940659331361E+09,1.69947505452618E+09,1.72470402740355E+09,1.75417403966889E+09,1.79719278428543E+09,1.84184537201633E+09,1.92654450043751E+09,2.00675924987334E+09,2.05980701100000E+09,2.08071672825251E+09,2.10915255289510E+09,2.08987667875695E+09,2.13618049050390E+09,2.18140666193802E+09,2.20563620899603E+09,2.25498175089114E+09,2.33397980931376E+09,2.41101377877276E+09,2.50529000892782E+09,2.56009897432151E+09,2.58637830928529E+09,2.61450609124564E+09,2.67909710377753E+09,2.72987707957338E+09,2.86771802421581E+09,3.28590135093020E+09,3.61449148602322E+09,3.51948222480435E+09,,
NY.GDP.NGAS.RT.ZS,,,,,,,,,,,2.57797373263414E+01,2.71928410650400E+01,2.48138545517823E+01,2.49074116618507E+01,5.40743602545339E+01,4.26143944144897E+01,4.27688101794514E+01,4.61853274457806E+01,4.75403188668308E+01,5.42149938963449E+01,7.04892656762195E+01,8.22069771130357E+01,8.01388011711700E+01,8.34020089343785E+01,7.88076120940310E+01,5.82117686651173E+01,2.22961102512092E+01,1.12506878147066E+01,5.37859785905417E+00,5.74978597504467E+00,5.93682264932556E+00,9.40217658284678E+00,7.26597998656123E+00,7.90319181315435E+00,6.74624987455369E+00,5.71373279104270E+00,6.95122349532390E+00,6.19060048104941E+00,3.96202911529069E+00,3.08280010348349E+00,7.47960833650298E+00,0.00000000000000E+00,0.00000000000000E+00,0.00000000000000E+00,0.00000000000000E+00,0.00000000000000E+00,0.00000000000000E+00,0.00000000000000E+00,0.00000000000000E+00,0.00000000000000E+00,,
NY.GDP.PCAP.CD,,,,,,,,,,,1.23717281448445E+04,1.36703724951083E+04,1.65744309874655E+04,2.12783099012041E+04,2.26463605615782E+04,2.83037011181785E+04,2.90177937703747E+04,3.18362344945059E+04,3.90574905487571E+04,4.68916476809441E+04,5.28464987981872E+04,4.55484343896564E+04,4.24518778974909E+04,3.97884766748557E+04,3.70416710559504E+04,3.79508315466854E+04,5.21838265683220E+04,6.22978759275279E+04,6.67113927003205E+04,6.60201941472999E+04,8.03118867767077E+04,7.91732380417749E+04,8.62204112746153E+04,8.00659318645853E+04,8.35113200386516E+04,9.48164693399955E+04,9.37090871460069E+04,8.35986987629085E+04,8.51985480450813E+04,8.34101408629477E+04,7.53824466260392E+04,7.57028191669791E+04,8.22266778578591E+04,1.01604863706450E+05,1.16499870883003E+05,1.21386064264782E+05,1.32233769900975E+05,1.69269632977772E+05,1.86242929678332E+05,1.72676340724526E+05,,
NY.GDP.PCAP.KD,,,,,,,,,,,5.04582475617338E+04,5.24781672087906E+04,5.42073551254825E+04,5.70017346949666E+04,5.88420745652009E+04,5.76882847456516E+04,5.97864186289433E+04,6.15681992659070E+04,6.36650413046670E+04,6.54424839745188E+04,6.58411961024509E+04,6.54916667473925E+04,6.59113823149088E+04,6.54140436767819E+04,6.50931708991943E+04,6.49779734833440E+04,6.54182312880116E+04,6.59421376871858E+04,6.78958920576409E+04,6.96613177710894E+04,7.04636596121700E+04,7.01929481277257E+04,7.02220624920601E+04,6.86952283713585E+04,6.93118948522019E+04,6.98360082485465E+04,6.96184739026843E+04,7.01515495692070E+04,7.16183701924742E+04,7.31412646833361E+04,7.53824466260392E+04,7.66779741632376E+04,7.73488987422556E+04,7.82299398081772E+04,8.02557538887757E+04,8.18279561213150E+04,8.59426711265691E+04,9.83970898550541E+04,1.08111212788022E+05,1.05147437696852E+05,,
NY.GDP.PCAP.KD.ZG,,,,,,,,,,,,4.00315061395185E+00,3.29506156305351E+00,5.15498231377561E+00,3.22856818320085E+00,-1.96082450878029E+00,3.63701901095243E+00,2.98024313518764E+00,3.40572253819529E+00,2.79186604363606E+00,6.09255797942126E-01,-5.30867262062813E-01,6.40868660642283E-01,-7.54556528264985E-01,-4.90525825269359E-01,-1.76973120619195E-01,6.77549300272389E-01,8.00856869498119E-01,2.96283141399391E+00,2.60019518110124E+00,1.15177528469556E+00,-3.84185956185505E-01,4.14776200614995E-02,-2.17429404166838E+00,8.97684592457736E-01,7.56166596602583E-01,-3.11493098356905E-01,7.65710071823449E-01,2.09093118010198E+00,2.12640204848155E+00,3.06418265039068E+00,1.71860638011037E+00,8.74989964640548E-01,1.13904797643912E+00,2.58956364477065E+00,1.95899004913484E+00,5.02849539484254E+00,1.44915425192490E+01,9.87236812316050E+00,-2.74141323063417E+00,,
NY.GDP.PCAP.KN,,,,,,,,,,,4.77409705519203E+04,4.96521135076761E+04,5.12881812151112E+04,5.39320778858074E+04,5.56733117929676E+04,5.45816558504815E+04,5.65668010502561E+04,5.82526292553516E+04,6.02365521789925E+04,6.19182760251349E+04,6.22955167118038E+04,6.19648102078480E+04,6.23619232570965E+04,6.18913672940085E+04,6.15877741538191E+04,6.14787803479792E+04,6.18953293940429E+04,6.23910223913936E+04,6.42395632023178E+04,6.59099172290649E+04,6.66690513658726E+04,6.64129182334028E+04,6.64404647312994E+04,6.49958536653900E+04,6.55793114294806E+04,6.60752002767923E+04,6.58693805882046E+04,6.63737490696162E+04,6.77615784843154E+04,6.92024620772893E+04,7.13229519139048E+04,7.25487127159802E+04,7.31835066717209E+04,7.40171019235524E+04,7.59338218858775E+04,7.74213579005496E+04,8.13144873172033E+04,9.30982108210851E+04,1.02289208909419E+05,9.94850390028649E+04,,
NY.GDP.PETR.RT.ZS,,,,,,,,,,,5.81319336820455E+00,6.23390996869454E+00,4.38563183097197E+00,4.81148444795632E+00,1.50203778395384E+01,1.06155090655615E+01,1.17417985140535E+01,1.12242989779780E+01,9.97033612370902E+00,2.16689560165676E+01,2.20148459076128E+01,3.30163891953533E+01,3.02101208249129E+01,2.81775647345102E+01,3.53417404640293E+01,3.97522122285273E+01,1.38369216276151E+01,1.79151088069681E+01,1.27076280191670E+01,1.58633502766252E+01,1.66401298804447E+01,1.31015750917207E+01,1.10692783676690E+01,9.80993427206762E+00,8.72623530671691E+00,7.56967472969081E+00,7.91489968025920E+00,6.81962851273378E+00,3.52903389484406E+00,4.80197725156679E+00,8.95037750997565E+00,0.00000000000000E+00,0.00000000000000E+00,0.00000000000000E+00,0.00000000000000E+00,0.00000000000000E+00,0.00000000000000E+00,0.00000000000000E+00,0.00000000000000E+00,0.00000000000000E+00,,
NY.GDP.TOTL.RT.ZS,,,,,,,,,,,3.15929306945460E+01,3.34267510337345E+01,2.91994863827543E+01,2.97188961098070E+01,6.90947380940723E+01,5.32299034800512E+01,5.45106086935049E+01,5.74096264237586E+01,5.75106549905398E+01,7.58839499129125E+01,9.25041115838323E+01,1.15223366308389E+02,1.10348921996083E+02,1.11579573668889E+02,1.14149352558060E+02,9.79639808936446E+01,3.61330318788242E+01,2.91657966216748E+01,1.80862258782211E+01,2.16131362516699E+01,2.25769525297702E+01,2.25037516745675E+01,1.83352583542302E+01,1.77131260852220E+01,1.54724851812706E+01,1.32834075207335E+01,1.48661231755831E+01,1.30102289937832E+01,7.49106301013475E+00,7.88477735505029E+00,1.64299858464786E+01,0.00000000000000E+00,0.00000000000000E+00,0.00000000000000E+00,0.00000000000000E+00,0.00000000000000E+00,0.00000000000000E+00,0.00000000000000E+00,0.00000000000000E+00,0.00000000000000E+00,,
NY.GNP.ATLS.CD,,,,,,,,,,,,,3.81195087915811E+08,4.92727373654194E+08,6.13410230840320E+08,7.14446464610986E+08,7.62340154149652E+08,8.38444403586249E+08,9.50874762010017E+08,1.16735998290924E+09,1.41180653912824E+09,1.42593050347902E+09,1.30963202761602E+09,1.14797916294782E+09,1.08693265376550E+09,1.08387191124809E+09,1.25980487130522E+09,1.61379712150552E+09,2.08141460580999E+09,2.20652610484831E+09,2.34218274021156E+09,2.44485753104559E+09,2.72679950767420E+09,2.69948305647172E+09,2.80610192526021E+09,2.97842667935393E+09,3.13141454561419E+09,3.11358619748916E+09,2.99528330667550E+09,2.93939693863446E+09,2.91418896567119E+09,2.79667789179831E+09,2.74389332502314E+09,3.10288462160157E+09,3.76867857299450E+09,4.34037547207080E+09,4.72672880320344E+09,5.65339666387231E+09,6.56297679278472E+09,6.47914037714906E+09,,
NY.GNP.MKTP.CD,,,,,,,,,,,2.93073868023221E+08,3.27651487962757E+08,4.02460333237637E+08,5.23552815119127E+08,5.63939670704419E+08,7.11922994225545E+08,7.35339911935065E+08,8.11250927388998E+08,1.00053573538751E+09,1.20989829346372E+09,1.37813099565913E+09,1.20516602551592E+09,1.14322907177943E+09,1.09255178101486E+09,1.03731495625083E+09,1.08285107652158E+09,1.51520958823780E+09,1.83909559525655E+09,2.00067466708261E+09,2.01011685120284E+09,2.48131605385316E+09,2.48049754784881E+09,2.73706695591266E+09,2.57443997317387E+09,2.72029773893904E+09,3.13027091879061E+09,3.13784878308404E+09,2.84018219177105E+09,2.93457878886478E+09,2.90600930766510E+09,2.64788382018625E+09,2.67140108276436E+09,2.90597302217460E+09,3.58898860070294E+09,4.11034844449411E+09,4.28007262597622E+09,4.66348836309770E+09,5.97437169595045E+09,6.58108016311355E+09,6.10877090581155E+09,,
NY.GNP.MKTP.CN,,,,,,,,,,,2.48154673000000E+08,2.76753854000000E+08,3.09506426000000E+08,3.55399109000000E+08,4.13492753000000E+08,4.65363289000000E+08,5.38411535000000E+08,6.06644400000000E+08,6.88386255000000E+08,7.84717819000000E+08,8.87770979000000E+08,9.98480895000000E+08,1.14541285200000E+09,1.26939049100000E+09,1.38198069900000E+09,1.48327719100000E+09,1.59987323900000E+09,1.68521217400000E+09,1.81687249100000E+09,1.95513277200000E+09,2.05980701100000E+09,2.13356310800000E+09,2.20891436300000E+09,2.22265265700000E+09,2.30247035400000E+09,2.38196901800000E+09,2.44707138600000E+09,2.52718817400000E+09,2.63928787100000E+09,2.72765960000000E+09,2.87401530500000E+09,2.98531742400000E+09,3.08774647800000E+09,3.17996652400000E+09,3.31033077500000E+09,3.44169200000000E+09,3.71745700000000E+09,4.36510000000000E+09,4.49273700000000E+09,4.39735817300000E+09,,
NY.GNP.MKTP.KD,,,,,,,,,,,,,,,,,,,,,,,,,,,,,,,,,,,,,,,,,2.64788382018625E+09,,,,,,,,,,,
NY.GNP.PCAP.CD,,,,,,,,,,,,,1.57000000000000E+04,2.00300000000000E+04,2.46300000000000E+04,2.84000000000000E+04,3.00800000000000E+04,3.29000000000000E+04,3.71200000000000E+04,4.52400000000000E+04,5.41400000000000E+04,5.38900000000000E+04,4.86300000000000E+04,4.18100000000000E+04,3.88100000000000E+04,3.79900000000000E+04,4.33900000000000E+04,5.46700000000000E+04,6.94000000000000E+04,7.24700000000000E+04,7.58100000000000E+04,7.80400000000000E+04,8.59000000000000E+04,8.39500000000000E+04,8.61500000000000E+04,9.02200000000000E+04,9.35200000000000E+04,9.16500000000000E+04,8.69600000000000E+04,8.43700000000000E+04,8.29600000000000E+04,7.92500000000000E+04,7.76400000000000E+04,8.78400000000000E+04,1.06820000000000E+05,1.23100000000000E+05,1.34030000000000E+05,1.60180000000000E+05,1.85730000000000E+05,1.83150000000000E+05,,
NY.GNP.PCAP.KD,,,,,,,,,,,,,,,,,,,,,,,,,,,,,,,,,,,,,,,,,7.53824466260392E+04,,,,,,,,,,,
NY.GSR.NFCY.CD,,,,,,,,,,,0.00000000000000E+00,0.00000000000000E+00,0.00000000000000E+00,0.00000000000000E+00,0.00000000000000E+00,0.00000000000000E+00,0.00000000000000E+00,0.00000000000000E+00,0.00000000000000E+00,0.00000000000000E+00,0.00000000000000E+00,0.00000000000000E+00,0.00000000000000E+00,0.00000000000000E+00,0.00000000000000E+00,0.00000000000000E+00,0.00000000000000E+00,0.00000000000000E+00,0.00000000000000E+00,0.00000000000000E+00,0.00000000000000E+00,0.00000000000000E+00,0.00000000000000E+00,0.00000000000000E+00,0.00000000000000E+00,0.00000000000000E+00,0.00000000000000E+00,0.00000000000000E+00,0.00000000000000E+00,0.00000000000000E+00,0.00000000000000E+00,0.00000000000000E+00,0.00000000000000E+00,0.00000000000000E+00,0.00000000000000E+00,0.00000000000000E+00,0.00000000000000E+00,0.00000000000000E+00,0.00000000000000E+00,,,
NY.GSR.NFCY.CN,,,,,,,,,,,0.00000000000000E+00,0.00000000000000E+00,0.00000000000000E+00,0.00000000000000E+00,0.00000000000000E+00,0.00000000000000E+00,0.00000000000000E+00,0.00000000000000E+00,0.00000000000000E+00,0.00000000000000E+00,0.00000000000000E+00,0.00000000000000E+00,0.00000000000000E+00,0.00000000000000E+00,0.00000000000000E+00,0.00000000000000E+00,0.00000000000000E+00,0.00000000000000E+00,0.00000000000000E+00,0.00000000000000E+00,0.00000000000000E+00,0.00000000000000E+00,0.00000000000000E+00,0.00000000000000E+00,0.00000000000000E+00,0.00000000000000E+00,0.00000000000000E+00,0.00000000000000E+00,0.00000000000000E+00,0.00000000000000E+00,0.00000000000000E+00,0.00000000000000E+00,0.00000000000000E+00,0.00000000000000E+00,0.00000000000000E+00,0.00000000000000E+00,0.00000000000000E+00,0.00000000000000E+00,0.00000000000000E+00,,,
PA.NUS.ATLS,,,,,,,,,,,8.46730807744134E-01,8.44659231431471E-01,7.69035853819781E-01,6.78821885274619E-01,7.33221609473766E-01,6.53670822230203E-01,7.32194086382659E-01,7.47788852399193E-01,6.88017659592524E-01,6.48581639662864E-01,6.44184755873226E-01,8.28500699372571E-01,1.00191018604624E+00,1.16185842452325E+00,1.33226720647593E+00,1.36978872086890E+00,1.05587586787955E+00,9.16326578317379E-01,9.08129902823915E-01,9.72646326918787E-01,8.30126822337440E-01,8.60135140972147E-01,8.07037021227509E-01,8.63353847889420E-01,8.46403803907878E-01,7.60946601682732E-01,7.79856377780860E-01,8.89797908501116E-01,8.99375365560039E-01,9.38627275833333E-01,1.08540083333333E+00,1.11751000000000E+00,1.06255166666667E+00,8.86034166666667E-01,8.05365000000000E-01,8.04120000000000E-01,7.97140833333333E-01,7.30637500000000E-01,6.82674711239873E-01,7.19843359785615E-01,,
SE.ENR.PRIM.FM.ZS,,,,,,,,,,,,,,,,,,,,,,,,,,,,,,,,,,,,,,,,,,1.01162000000000E+02,,,,,,,,9.50460000000000E+01,,
SE.ENR.PRSC.FM.ZS,,,,,,,,,,,,,,,,,,,,,,,,,,,,,,,,,,,,,,,,,,1.04050000000000E+02,,,,,,,,9.81360000000000E+01,,
SE.ENR.SECO.FM.ZS,,,,,,,,,,,,,,,,,,,,,,,,,,,,,,,,,,,,,,,,,,1.06408000000000E+02,,,,,,,,1.00668000000000E+02,,
SE.PRE.ENRR,,,,,,,,,,,,,,,,,,,,,,,,,,,,,,,,,,,,,,,,,,1.13194440000000E+02,,,,,,,,1.11668760000000E+02,,
SE.PRE.ENRR.FE,,,,,,,,,,,,,,,,,,,,,,,,,,,,,,,,,,,,,,,,,,1.13915090000000E+02,,,,,,,,1.07389160000000E+02,,
SE.PRE.ENRR.MA,,,,,,,,,,,,,,,,,,,,,,,,,,,,,,,,,,,,,,,,,,1.12500000000000E+02,,,,,,,,1.16112530000000E+02,,
SE.PRM.AGES,,,,,,,,,,,6.00000000000000E+00,6.00000000000000E+00,6.00000000000000E+00,6.00000000000000E+00,6.00000000000000E+00,6.00000000000000E+00,6.00000000000000E+00,6.00000000000000E+00,6.00000000000000E+00,6.00000000000000E+00,6.00000000000000E+00,6.00000000000000E+00,6.00000000000000E+00,6.00000000000000E+00,6.00000000000000E+00,6.00000000000000E+00,6.00000000000000E+00,6.00000000000000E+00,6.00000000000000E+00,6.00000000000000E+00,6.00000000000000E+00,6.00000000000000E+00,6.00000000000000E+00,6.00000000000000E+00,6.00000000000000E+00,6.00000000000000E+00,6.00000000000000E+00,6.00000000000000E+00,6.00000000000000E+00,6.00000000000000E+00,6.00000000000000E+00,6.00000000000000E+00,6.00000000000000E+00,6.00000000000000E+00,6.00000000000000E+00,6.00000000000000E+00,6.00000000000000E+00,6.00000000000000E+00,6.00000000000000E+00,6.00000000000000E+00,6.00000000000000E+00,
se.PRM.CMPT.MA.ZS,,,,,,,,,,,,,,,,,,,,,,,,,,,,,,,,,,,,,,,,,,,,,,,,,,1.32876710000000E+02,,
se.PRM.CMPT.ZS,,,,,,,,,,,,,,,,,,,,,,,,,,,,,,,,,,,,,,,,,,,,,,,,,,1.32167830000000E+02,,
SE.PRM.DURS,,,,,,,,,,,5.00000000000000E+00,5.00000000000000E+00,5.00000000000000E+00,5.00000000000000E+00,5.00000000000000E+00,5.00000000000000E+00,5.00000000000000E+00,5.00000000000000E+00,5.00000000000000E+00,5.00000000000000E+00,5.00000000000000E+00,5.00000000000000E+00,5.00000000000000E+00,5.00000000000000E+00,5.00000000000000E+00,5.00000000000000E+00,5.00000000000000E+00,5.00000000000000E+00,5.00000000000000E+00,5.00000000000000E+00,5.00000000000000E+00,5.00000000000000E+00,5.00000000000000E+00,5.00000000000000E+00,5.00000000000000E+00,5.00000000000000E+00,5.00000000000000E+00,5.00000000000000E+00,5.00000000000000E+00,5.00000000000000E+00,5.00000000000000E+00,5.00000000000000E+00,5.00000000000000E+00,5.00000000000000E+00,5.00000000000000E+00,5.00000000000000E+00,5.00000000000000E+00,5.00000000000000E+00,5.00000000000000E+00,5.00000000000000E+00,5.00000000000000E+00,
SE.PRM.ENRL,,,,,,,,,,,,1.48600000000000E+03,1.48600000000000E+03,,,,,,1.55800000000000E+03,,,,,1.35400000000000E+03,,,,,,,,1.77300000000000E+03,1.76100000000000E+03,,1.81500000000000E+03,1.83800000000000E+03,1.89300000000000E+03,1.91900000000000E+03,1.95600000000000E+03,2.02200000000000E+03,2.00800000000000E+03,1.98500000000000E+03,,,1.83100000000000E+03,,,,1.85200000000000E+03,1.83700000000000E+03,1.82000000000000E+03,
SE.PRM.ENRL.FE.ZS,,,,,,,,,,,,,,,,,,,,,,,,,,,,,,,,,,,,,,,,4.99010900000000E+01,4.84561800000000E+01,4.89168800000000E+01,,,,,,,4.74622000000000E+01,4.89384900000000E+01,5.07142900000000E+01,
SE.PRM.ENRL.TC.ZS,,,,,,,,,,,,2.32187500000000E+01,,,,,,,,,,,,,,,,,,,,,,,,1.73396226415000E+01,,,,2.24666700000000E+01,,2.23033700000000E+01,,,,,,,,,,
SE.PRM.ENRR,,,,,,,,,,,,,,,,,,,,,,,,,,,,,,,,,,,,,,,,,,1.36145400000000E+02,,,,,,,,1.27746870000000E+02,,
SE.PRM.ENRR.FE,,,,,,,,,,,,,,,,,,,,,,,,,,,,,,,,,,,,,,,,,,1.36953460000000E+02,,,,,,,,1.24515240000000E+02,,
SE.PRM.ENRR.MA,,,,,,,,,,,,,,,,,,,,,,,,,,,,,,,,,,,,,,,,,,1.35380510000000E+02,,,,,,,,1.31005590000000E+02,,
SE.PRM.PRIV.ZS,,,,,,,,,,,,,,,,,,,,,,,,,,,,,,,,,,,,,,,,3.10089000000000E+01,3.01294800000000E+01,2.98740600000000E+01,,,2.62698000000000E+01,,,,2.48380100000000E+01,2.28633600000000E+01,2.24175800000000E+01,
SE.PRM.PRS5.FE.ZS,,,,,,,,,,,,,,,,,,,,,,,,,,,,,,,,8.95348837209306E+01,9.13294797687866E+01,,,,,,,,,,,,,,,,,,,
SE.PRM.PRS5.MA.ZS,,,,,,,,,,,,,,,,,,,,,,,,,,,,,,,,8.19209039548026E+01,8.46590909090913E+01,,,,,,,,,,,,,,,,,,,
SE.PRM.PRS5.ZS,,,,,,,,,,,,,,,,,,,,,,,,,,,,,,,,8.56733524355304E+01,8.79656160458456E+01,,,,,,,,,,,,,,,,,,,
SE.PRM.REPT.FE.ZS,,,,,,,,,,,,,,,,,,,,,,,,,,,,,,,,5.57414000000000E+00,5.86881000000000E+00,,,,,,,0.00000000000000E+00,,0.00000000000000E+00,,,0.00000000000000E+00,,,,,0.00000000000000E+00,,
SE.PRM.REPT.MA.ZS,,,,,,,,,,,,,,,,,,,,,,,,,,,,,,,,6.39269000000000E+00,6.05381000000000E+00,,,,,,,0.00000000000000E+00,,0.00000000000000E+00,,,0.00000000000000E+00,,,,,0.00000000000000E+00,,
SE.PRM.REPT.ZS,,,,,,,,,,,,,,,,,,,,,,,,,,,,,,,,5.97857000000000E+00,5.96252000000000E+00,,,,,,,0.00000000000000E+00,,0.00000000000000E+00,,,0.00000000000000E+00,,,,,0.00000000000000E+00,,
SE.PRM.TCHR,,,,,,,,,,,,,7.10000000000000E+01,,,,,,,,,,,,,,,,,,,,,,,1.06000000000000E+02,1.02000000000000E+02,,,9.00000000000000E+01,,8.90000000000000E+01,,,,,,,,,,
SE.PRM.TCHR.FE.ZS,,,,,,,,,,,,,,,,,,,,,,,,,,,,,,,,,,,,8.01886792452831E+01,7.84313725490196E+01,8.63636363636364E+01,,8.66666700000000E+01,,8.65168500000000E+01,,,,,,,,,,
SE.SEC.AGES,,,,,,,,,,,1.10000000000000E+01,,,,,1.10000000000000E+01,,,,,1.10000000000000E+01,,,,,1.10000000000000E+01,,,,,1.10000000000000E+01,1.10000000000000E+01,,,,1.10000000000000E+01,,,1.10000000000000E+01,1.10000000000000E+01,1.10000000000000E+01,1.10000000000000E+01,1.10000000000000E+01,1.10000000000000E+01,1.10000000000000E+01,1.10000000000000E+01,1.10000000000000E+01,1.10000000000000E+01,1.10000000000000E+01,1.10000000000000E+01,1.10000000000000E+01,
SE.SEC.DURS,,,,,,,,,,,7.00000000000000E+00,,,,,7.00000000000000E+00,,,,,7.00000000000000E+00,,,,,7.00000000000000E+00,,,,,7.00000000000000E+00,7.00000000000000E+00,,,,7.00000000000000E+00,,,7.00000000000000E+00,7.00000000000000E+00,7.00000000000000E+00,7.00000000000000E+00,7.00000000000000E+00,7.00000000000000E+00,7.00000000000000E+00,7.00000000000000E+00,7.00000000000000E+00,7.00000000000000E+00,7.00000000000000E+00,7.00000000000000E+00,7.00000000000000E+00,
SE.SEC.ENRL,,,,,,,,,,,,,,,,,,,,,,,,,,,,,,,,2.78500000000000E+03,,,,,,,,2.88300000000000E+03,2.92900000000000E+03,2.97100000000000E+03,,,3.07800000000000E+03,,,,3.01500000000000E+03,3.01700000000000E+03,2.99900000000000E+03,
SE.SEC.ENRL.FE.ZS,,,,,,,,,,,,,3.93011400000000E+01,3.93059200000000E+01,3.92818300000000E+01,,,,3.39469000000000E+01,,,,,,,,,,,,,4.94793500000000E+01,4.86704000000000E+01,,4.87125200000000E+01,4.93883300000000E+01,5.03268000000000E+01,5.05197500000000E+01,4.85233500000000E+01,5.09191800000000E+01,5.09047500000000E+01,4.83675500000000E+01,,,,,,,4.79933700000000E+01,4.82598600000000E+01,4.92830900000000E+01,
SE.SEC.ENRL.GC,,,,,,,,,,,,,,,,,,,,,,,,,,,,,,,,,,,,,,,,2.38700000000000E+03,2.45400000000000E+03,2.50500000000000E+03,,,2.60000000000000E+03,,,,2.64300000000000E+03,2.44000000000000E+03,2.45800000000000E+03,
SE.SEC.ENRL.GC.FE.ZS,,,,,,,,,,,,,,,,,,,,,,,,,,,,,,,,5.14285714285715E+01,5.11959714645406E+01,,5.02725366876310E+01,5.09754028837998E+01,5.19899455383326E+01,5.16115351993214E+01,,5.16966900000000E+01,5.25672400000000E+01,4.92614800000000E+01,,,,,,,4.89973500000000E+01,4.95082000000000E+01,5.01220500000000E+01,
SE.SEC.ENRL.TC.ZS,,,,,,,,,,,,1.69791666666667E+01,,,,1.10346153846154E+01,,,,,1.00852459016393E+01,,,,,,,,,,,7.05063291139241E+00,,,,1.02544802867384E+01,,,,1.02964300000000E+01,,1.07644900000000E+01,,,1.11119100000000E+01,,,,5.80925000000000E+00,,,
SE.SEC.ENRL.VO,,,,,,,,,,,,,,,,,,,,,,,,,,,,,,,,,,,,,,,,4.96000000000000E+02,4.75000000000000E+02,4.66000000000000E+02,,,4.78000000000000E+02,,,,3.72000000000000E+02,5.77000000000000E+02,5.41000000000000E+02,
SE.SEC.ENRL.VO.FE.ZS,,,,,,,,,,,,,,,,,,,,,,,,,,,,,,,,3.67567567567568E+01,3.60000000000000E+01,,4.04444444444444E+01,4.19483101391650E+01,4.26923076923077E+01,4.56439393939394E+01,,4.71774200000000E+01,4.23157900000000E+01,4.35622300000000E+01,,,,,,,4.08602200000000E+01,4.29809400000000E+01,4.54713500000000E+01,
SE.SEC.ENRR,,,,,,,,,,,,,,,,,,,,,,,,,,,,,,,,,,,,,,,,,,1.53698910000000E+02,,,,,,,,1.53380780000000E+02,,
SE.SEC.ENRR.FE,,,,,,,,,,,,,,,,,,,,,,,,,,,,,,,,,,,,,,,,,,1.58784530000000E+02,,,,,,,,1.53911210000000E+02,,
SE.SEC.ENRR.MA,,,,,,,,,,,,,,,,,,,,,,,,,,,,,,,,,,,,,,,,,,1.49221790000000E+02,,,,,,,,1.52889320000000E+02,,
SE.SEC.PRIV.ZS,,,,,,,,,,,,,,,,,,,,,,,,,,,,,,,,,,,,,,,,2.34131100000000E+01,2.39672200000000E+01,2.46718300000000E+01,,,2.27420400000000E+01,,,,2.23217200000000E+01,2.13457100000000E+01,2.17405800000000E+01,
SE.SEC.REPT.FE.ZS,,,,,,,,,,,,,,,,,,,,,,,,,,,,,,,,,4.18033000000000E+00,,,,,,,0.00000000000000E+00,,0.00000000000000E+00,,,0.00000000000000E+00,,,,,0.00000000000000E+00,,
SE.SEC.REPT.MA.ZS,,,,,,,,,,,,,,,,,,,,,,,,,,,,,,,,,6.19089000000000E+00,,,,,,,0.00000000000000E+00,,0.00000000000000E+00,,,0.00000000000000E+00,,,,,0.00000000000000E+00,,
SE.SEC.REPT.ZS,,,,,,,,,,,,,,,,,,,,,,,,,,,,,,,,,5.16156000000000E+00,,,,,,,0.00000000000000E+00,,0.00000000000000E+00,,,0.00000000000000E+00,,,,,0.00000000000000E+00,,
SE.SEC.TCHR,,,,,,,,,,,,1.44000000000000E+02,2.26000000000000E+02,2.36000000000000E+02,2.47000000000000E+02,,,,2.76000000000000E+02,,,,,,,,,,,,,,2.54000000000000E+02,,2.75000000000000E+02,2.79000000000000E+02,2.87000000000000E+02,2.81000000000000E+02,,2.80000000000000E+02,,2.76000000000000E+02,,,2.77000000000000E+02,,,,5.19000000000000E+02,,,
SE.SEC.TCHR.FE,,,,,,,,,,,,,,7.60000000000000E+01,8.00000000000000E+01,,,,8.90000000000000E+01,,,,,,,,,,,,,,1.29000000000000E+02,,1.85000000000000E+02,1.86000000000000E+02,1.88000000000000E+02,1.72000000000000E+02,,1.64000000000000E+02,,1.60000000000000E+02,,,1.75000000000000E+02,,,,3.55000000000000E+02,,,
SE.SEC.TCHR.FE.ZS,,,,,,,,,,,,,,3.22033900000000E+01,3.23886600000000E+01,,,,3.22463800000000E+01,,,,,,,,,,,,,,5.07874000000000E+01,,6.72727300000000E+01,6.66666700000000E+01,6.55052300000000E+01,6.12099600000000E+01,,5.85714300000000E+01,,5.79710100000000E+01,,,6.31769000000000E+01,,,,6.84007700000000E+01,,,
SE.XPD.PRIM.PC.ZS,,,,,,,,,,,,,,,,,,,,,,,,,,,,,,,,,,,,,,,,2.12438700000000E+01,2.06737400000000E+01,,,,3.38633000000000E+00,,,,,3.24989000000000E+00,,
SE.XPD.SECO.PC.ZS,,,,,,,,,,,,,,,,,,,,,,,,,,,,,,,,,,,,,,,,4.53682600000000E+01,4.37993500000000E+01,,,,5.99836000000000E+00,,,,,5.12631000000000E+00,,
SE.XPD.TOTL.GB.ZS,,,,,,,,,,,,,,,1.04067793610576E+01,,,,,,,,,,,,,,,5.28003420265071E+00,,,,,,,,,,5.07166000000000E+00,,,,,,,,,,6.59881000000000E+00,,
SE.XPD.TOTL.GD.ZS,,,,,,,,,,,,,,,,,,,,,,,,,,,,,,,,,,,,,,,,7.84049000000000E+00,8.23459000000000E+00,,,,1.24386000000000E+00,,,,,1.20880000000000E+00,,
SG.GEN.PARL.ZS,,,,,,,,,,,,,,,,,,,,,,,,,,,,,,,1.10000000000000E+01,,,,,,,6.00000000000000E+00,6.00000000000000E+00,2.20000000000000E+01,2.20000000000000E+01,2.20000000000000E+01,2.20000000000000E+01,2.20000000000000E+01,2.10000000000000E+01,2.08000000000000E+01,2.08000000000000E+01,2.08000000000000E+01,2.50000000000000E+01,2.50000000000000E+01,2.61000000000000E+01,2.61000000000000E+01
SH.DYN.MORT,,,,,,,,,,,,,,,,,,,,,,,,,,,,,,9.10000000000000E+00,8.50000000000000E+00,7.90000000000000E+00,7.40000000000000E+00,6.90000000000000E+00,6.50000000000000E+00,6.10000000000000E+00,5.80000000000000E+00,5.50000000000000E+00,5.30000000000000E+00,5.20000000000000E+00,5.00000000000000E+00,4.90000000000000E+00,4.70000000000000E+00,4.60000000000000E+00,4.50000000000000E+00,4.40000000000000E+00,4.40000000000000E+00,4.40000000000000E+00,4.30000000000000E+00,4.30000000000000E+00,4.30000000000000E+00,
SH.DYN.NMRT,,,,,,,,,,,,,,,,,,,,,,,,,,,,,,,5.00000000000000E+00,4.00000000000000E+00,4.00000000000000E+00,4.00000000000000E+00,4.00000000000000E+00,3.00000000000000E+00,3.00000000000000E+00,3.00000000000000E+00,3.00000000000000E+00,3.00000000000000E+00,3.00000000000000E+00,3.00000000000000E+00,3.00000000000000E+00,2.00000000000000E+00,2.00000000000000E+00,2.00000000000000E+00,2.00000000000000E+00,2.00000000000000E+00,2.00000000000000E+00,2.00000000000000E+00,2.00000000000000E+00,
SH.H2O.SAFE.UR.ZS,,,,,,,,,,,,,,,,,,,,,,,,,,,,,,,1.00000000000000E+02,,,,,1.00000000000000E+02,,,,,1.00000000000000E+02,,,,,1.00000000000000E+02,,,1.00000000000000E+02,,,
SH.H2O.SAFE.ZS,,,,,,,,,,,,,,,,,,,,,,,,,,,,,,,1.00000000000000E+02,,,,,1.00000000000000E+02,,,,,1.00000000000000E+02,,,,,1.00000000000000E+02,,,1.00000000000000E+02,,,
SH.IMM.IDPT,,,,,,,,,,,,,,,,,,,,,,,,,,,,,9.90000000000000E+01,9.90000000000000E+01,9.90000000000000E+01,9.80000000000000E+01,9.80000000000000E+01,9.90000000000000E+01,9.90000000000000E+01,9.90000000000000E+01,9.90000000000000E+01,9.90000000000000E+01,9.90000000000000E+01,9.90000000000000E+01,9.90000000000000E+01,9.90000000000000E+01,9.90000000000000E+01,9.90000000000000E+01,9.90000000000000E+01,9.90000000000000E+01,9.90000000000000E+01,9.90000000000000E+01,9.90000000000000E+01,9.90000000000000E+01,9.90000000000000E+01,
SH.IMM.MEAS,,,,,,,,,,,,,,,,,,,,,,,,,,,,,9.90000000000000E+01,9.90000000000000E+01,9.90000000000000E+01,9.80000000000000E+01,9.80000000000000E+01,9.90000000000000E+01,9.90000000000000E+01,9.90000000000000E+01,9.90000000000000E+01,9.90000000000000E+01,9.90000000000000E+01,9.90000000000000E+01,9.90000000000000E+01,9.90000000000000E+01,9.90000000000000E+01,9.90000000000000E+01,9.90000000000000E+01,9.90000000000000E+01,9.90000000000000E+01,9.90000000000000E+01,9.90000000000000E+01,9.90000000000000E+01,9.90000000000000E+01,
SH.MED.BEDS.ZS,,,,,,,,,,,,,,,,,,,,,,,,,,,,,,1.81070995330811E+01,,,2.16786003113000E+01,,,1.95699996948000E+01,,,,,,,,,,,,,,,,
sh.MED.PHYS.ZS,,,,,,,,,,,2.40000009536743E+00,1.95829999446868E+00,2.20830011367797E+00,2.25000000000000E+00,2.37500000000000E+00,2.35999989509582E+00,2.41669988632202E+00,2.40000009536743E+00,2.31999993324279E+00,2.35999989509582E+00,2.38459992408752E+00,2.23079991340637E+00,2.18519997596740E+00,,,,,,,2.85710000991821E+00,,,3.00000000000000E+00,,,5.81000000000000E+00,,,,,,,,,,,,,,,,
SH.STA.ACSN,,,,,,,,,,,,,,,,,,,,,,,,,,,,,,,1.00000000000000E+02,,,,,1.00000000000000E+02,,,,,1.00000000000000E+02,,,,,1.00000000000000E+02,,,1.00000000000000E+02,,,
SH.STA.ACSN.UR,,,,,,,,,,,,,,,,,,,,,,,,,,,,,,,1.00000000000000E+02,,,,,1.00000000000000E+02,,,,,1.00000000000000E+02,,,,,1.00000000000000E+02,,,1.00000000000000E+02,,,
SH.TBS.DTEC.ZS,,,,,,,,,,,,,,,,,,,,,,,,,,,,,,,8.70000000000000E+01,,8.70000000000000E+01,,8.70000000000000E+01,8.70000000000000E+01,,,,8.70000000000000E+01,,,,,,,,,,,,
SH.TBS.INCD,,,,,,,,,,,,,,,,,,,,,,,,,,,,,,,3.70000000000000E+00,0.00000000000000E+00,3.60000000000000E+00,,3.50000000000000E+00,3.50000000000000E+00,0.00000000000000E+00,0.00000000000000E+00,0.00000000000000E+00,9.90000000000000E+00,0.00000000000000E+00,0.00000000000000E+00,0.00000000000000E+00,,,,,,,,,
SH.XPD.EXTR.ZS,,,,,,,,,,,,,,,,,,,,,,,,,,,,,,,,,,,,0.00000000000000E+00,0.00000000000000E+00,0.00000000000000E+00,0.00000000000000E+00,0.00000000000000E+00,0.00000000000000E+00,0.00000000000000E+00,0.00000000000000E+00,0.00000000000000E+00,0.00000000000000E+00,0.00000000000000E+00,0.00000000000000E+00,0.00000000000000E+00,0.00000000000000E+00,0.00000000000000E+00,,
SH.XPD.OOPC.TO.ZS,,,,,,,,,,,,,,,,,,,,,,,,,,,,,,,,,,,,7.00000000000000E+00,7.00000000000000E+00,7.00000000000000E+00,7.00000000000000E+00,7.00000000000000E+00,7.00000000000000E+00,7.00000000000000E+00,7.00000000000000E+00,7.00000000000000E+00,7.00000000000000E+00,7.00000000000000E+00,7.00000000000000E+00,7.00000000000000E+00,7.00000000000000E+00,7.00000000000000E+00,,
SH.XPD.OOPC.ZS,,,,,,,,,,,,,,,,,,,,,,,,,,,,,,,,,,,,6.69040129551596E+01,6.69376461723597E+01,6.49976178456234E+01,5.89025675755724E+01,5.62606610703042E+01,5.42640398781735E+01,5.55403145803061E+01,5.46103795104777E+01,5.89053672002918E+01,5.85881273193935E+01,5.92894082354330E+01,5.82013895359328E+01,5.52544465500208E+01,5.69572135724240E+01,5.82088503904792E+01,,
SH.XPD.PCAP,,,,,,,,,,,,,,,,,,,,,,,,,,,,,,,,,,,,3.06438630327526E+03,2.99035218180557E+03,2.88450537274719E+03,2.84373419132604E+03,3.05440588906943E+03,2.67265250443918E+03,2.73866302443356E+03,3.04029699240224E+03,4.31402829104633E+03,5.06833212215925E+03,5.28256745876435E+03,5.28549890079631E+03,6.01734254968371E+03,7.16571570038439E+03,7.13738971645355E+03,,
SH.XPD.PRIV.ZS,,,,,,,,,,,,,,,,,,,,,,,,,,,,,,,,,,,,3.17123599605171E-01,3.09000797695736E-01,3.39145510198428E-01,3.68772510064451E-01,4.19090308776967E-01,4.18423253832975E-01,4.14386681169852E-01,4.28107724288363E-01,4.59138380572146E-01,4.74151463079871E-01,4.63910218755941E-01,4.51448949337394E-01,4.20705456414858E-01,4.39866345539573E-01,4.63808175175247E-01,,
SH.XPD.PUBL,,,,,,,,,,,,,,,,,,,,,,,,,,,,,,,,,,,,8.95372494252452E+01,8.95425064963063E+01,8.92303745398396E+01,8.81159679652013E+01,8.75579137058971E+01,8.71001126791970E+01,8.73965423982634E+01,8.71819239076027E+01,8.81165327835095E+01,8.80521868162137E+01,8.81935067184283E+01,8.79727957428262E+01,8.73313363230178E+01,8.77100729460736E+01,8.79743373163320E+01,,
SH.XPD.PUBL.GX.ZS,,,,,,,,,,,,,,,,,,,,,,,,,,,,,,,,,,,,1.42606593807469E+01,1.30341120660418E+01,1.48354801521915E+01,1.46796216341332E+01,1.25138872783870E+01,1.42409546585073E+01,1.38127474446262E+01,1.45778161838318E+01,1.77226769631274E+01,1.66477435778948E+01,1.62594377655167E+01,1.55556631887235E+01,1.50148989516846E+01,1.57999746132355E+01,1.85207948566228E+01,,
SH.XPD.PUBL.ZS,,,,,,,,,,,,,,,,,,,,,,,,,,,,,,,,,,,,2.71385374559072E+00,2.64582578275199E+00,2.80994738493534E+00,2.73432001766194E+00,2.94923795121590E+00,2.82519619358812E+00,2.87349426598195E+00,2.91176731781942E+00,3.40453517704922E+00,3.49436943514873E+00,3.46537011615978E+00,3.30211621580164E+00,2.90012985141041E+00,3.13921385249173E+00,3.39301192177577E+00,,
SH.XPD.TOTL.ZS,,,,,,,,,,,,,,,,,,,,,,,,,,,,,,,,,,,,3.03097734519589E+00,2.95482658044773E+00,3.14909289513377E+00,3.10309252772639E+00,3.36832825999287E+00,3.24361944742110E+00,3.28788094715180E+00,3.33987504210778E+00,3.86367355762137E+00,3.96852089822860E+00,3.92928033491572E+00,3.75356516513904E+00,3.32083530782526E+00,3.57908019803130E+00,3.85682009695102E+00,,
SL.EMP.INSV.FE.ZS,,,,,,,,,,,,,,,,,,,,,,,,,,,,,,,,,,,,,,,,,3.92000000000000E+01,,,,,,,,,,,
SL.UEM.1524.FE.ZS,,,,,,,,,,,,,,,,,,,,,,,,,,,,,,,,,,,,,,,,,7.35294200000000E+00,,,,,,,,,,,
SL.UEM.1524.MA.ZS,,,,,,,,,,,,,,,,,,,,,,,,,,,,,,,,,,,,,,,,,6.56370700000000E+00,,,,,,,,,,,
SL.UEM.1524.ZS,,,,,,,,,,,,,,,,,,,,,,,,,,,,,,,,,,,,,,,,,6.91144800000000E+00,,,,,,,,,,,
SL.UEM.TOTL.FE.ZS,,,,,,,,,,,,,,,,,,,,,,,,,,,,,,,,,,,,,,,,,5.20000000000000E+00,,,,,,,,,,,
SL.UEM.TOTL.MA.ZS,,,,,,,,,,,,,,,,,,,,,,,,,,,,,,,,,,,,,,,,,2.50000000000000E+00,,,,,,,,,,,
SL.UEM.TOTL.ZS,,,,,,,,,,,,,,,,,,,,,,,,,,,,,,,,,,,,,,,,,3.60000000000000E+00,,,,,,,,,,,
SM.EMI.TERT.ZS,,,,,,,,,,,,,,,,,,,,,,,,,,,,,,,1.68866442084714E+01,,,,,,,,,,1.81930215982515E+01,,,,,,,,,,,
SM.POP.REFG.OR,,,,,,,,,,,,,,,,,,,,,,,,,,,,,,,,,,,,,1.00000000000000E+00,1.00000000000000E+00,1.00000000000000E+00,1.00000000000000E+00,1.00000000000000E+00,,1.00000000000000E+00,1.00000000000000E+00,,,,,,1.00000000000000E+00,2.00000000000000E+00,
SM.POP.TOTL,1.53800000000000E+04,,,,,1.52600000000000E+04,,,,,1.55300000000000E+04,,,,,1.62960000000000E+04,,,,,1.74660000000000E+04,,,,,1.87190000000000E+04,,,,,2.00600000000000E+04,,,,,2.08910000000000E+04,,,,,2.17490000000000E+04,,,,,2.26420000000000E+04,,,,,2.35720000000000E+04,
SM.POP.TOTL.ZS,6.94827196747233E+01,,,,,6.70798716427096E+01,,,,,6.55578538562202E+01,,,,,6.47875004969586E+01,,,,,6.69759950916481E+01,,,,,6.56047383731118E+01,,,,,6.49274987053340E+01,,,,,6.32792148785364E+01,,,,,6.19170984455959E+01,,,,,6.42144072603517E+01,,,,,6.65744061908662E+01,
SP.DYN.IMRT.IN,,,,,,,,,,,,,,,,,,,,,,,,,,,,,,7.30000000000000E+00,6.90000000000000E+00,6.40000000000000E+00,6.00000000000000E+00,5.60000000000000E+00,5.30000000000000E+00,4.90000000000000E+00,4.70000000000000E+00,4.50000000000000E+00,4.30000000000000E+00,4.10000000000000E+00,4.00000000000000E+00,3.90000000000000E+00,3.80000000000000E+00,3.70000000000000E+00,3.60000000000000E+00,3.50000000000000E+00,3.50000000000000E+00,3.50000000000000E+00,3.40000000000000E+00,3.40000000000000E+00,3.40000000000000E+00,
SP.POP.GROW,1.30964538401487E+00,9.35300671324501E-01,5.97949126534091E-01,3.77451102003846E-01,3.58367820765578E-01,4.67043499652358E-01,6.00418150861483E-01,6.96684869629966E-01,8.12450449946042E-01,9.16848031730813E-01,1.02256019673984E+00,1.17088019588192E+00,1.30157277869746E+00,1.32143391961581E+00,1.19984472122792E+00,1.00290521959563E+00,7.44646368729226E-01,5.54868314571982E-01,5.28387303438974E-01,7.19581470936594E-01,1.06400386983357E+00,1.45043180764239E+00,1.76445417458032E+00,1.94530762472445E+00,1.96533740441993E+00,1.87139550534071E+00,1.74751272542360E+00,1.65654350746745E+00,1.57621182636489E+00,1.51234743738732E+00,1.46392585513678E+00,1.39493792779417E+00,1.31591276583130E+00,1.28016271183549E+00,1.29775644106007E+00,1.34172897739804E+00,1.41658634366641E+00,1.44979488351057E+00,1.37392906367996E+00,1.14313351503833E+00,8.17544501524164E-01,4.60136580309476E-01,1.50080023639322E-01,-5.09453197931489E-02,-1.16139096688626E-01,-6.23741904489928E-02,1.98505537538612E-02,7.93628340172911E-02,1.16096344678978E-01,1.15961717348830E-01,8.47649237010166E-02,
SP.POP.SCIE.RD.P6,,,,,,,,,,,,,,,,,,,,,,,,,,,,,,,,,,,,,,,,,,,,,2.78000000000000E+02,3.08000000000000E+02,,,,,,
SP.POP.TECH.RD.P6,,,,,,,,,,,,,,,,,,,,,,,,,,,,,,,,,,,,,,,,,,,,,1.85000000000000E+02,1.54000000000000E+02,,,,,,
SP.POP.TOTL,2.21350000000000E+04,2.23430000000000E+04,2.24770000000000E+04,2.25620000000000E+04,2.26430000000000E+04,2.27490000000000E+04,2.28860000000000E+04,2.30460000000000E+04,2.32340000000000E+04,2.34480000000000E+04,2.36890000000000E+04,2.39680000000000E+04,2.42820000000000E+04,2.46050000000000E+04,2.49020000000000E+04,2.51530000000000E+04,2.53410000000000E+04,2.54820000000000E+04,2.56170000000000E+04,2.58020000000000E+04,2.60780000000000E+04,2.64590000000000E+04,2.69300000000000E+04,2.74590000000000E+04,2.80040000000000E+04,2.85330000000000E+04,2.90360000000000E+04,2.95210000000000E+04,2.99900000000000E+04,3.04470000000000E+04,3.08960000000000E+04,3.13300000000000E+04,3.17450000000000E+04,3.21540000000000E+04,3.25740000000000E+04,3.30140000000000E+04,3.34850000000000E+04,3.39740000000000E+04,3.44440000000000E+04,3.48400000000000E+04,3.51260000000000E+04,3.52880000000000E+04,3.53410000000000E+04,3.53230000000000E+04,3.52820000000000E+04,3.52600000000000E+04,3.52670000000000E+04,3.52950000000000E+04,3.53360000000000E+04,3.53770000000000E+04,3.54070000000000E+04,
SP.RUR.TOTL,0.00000000000000E+00,0.00000000000000E+00,0.00000000000000E+00,0.00000000000000E+00,0.00000000000000E+00,0.00000000000000E+00,0.00000000000000E+00,0.00000000000000E+00,0.00000000000000E+00,0.00000000000000E+00,0.00000000000000E+00,0.00000000000000E+00,0.00000000000000E+00,0.00000000000000E+00,0.00000000000000E+00,0.00000000000000E+00,0.00000000000000E+00,0.00000000000000E+00,0.00000000000000E+00,0.00000000000000E+00,0.00000000000000E+00,0.00000000000000E+00,0.00000000000000E+00,0.00000000000000E+00,0.00000000000000E+00,0.00000000000000E+00,0.00000000000000E+00,0.00000000000000E+00,0.00000000000000E+00,0.00000000000000E+00,0.00000000000000E+00,0.00000000000000E+00,0.00000000000000E+00,0.00000000000000E+00,0.00000000000000E+00,0.00000000000000E+00,0.00000000000000E+00,0.00000000000000E+00,0.00000000000000E+00,0.00000000000000E+00,0.00000000000000E+00,0.00000000000000E+00,0.00000000000000E+00,0.00000000000000E+00,0.00000000000000E+00,0.00000000000000E+00,0.00000000000000E+00,0.00000000000000E+00,0.00000000000000E+00,0.00000000000000E+00,0.00000000000000E+00,
SP.RUR.TOTL.ZS,0.00000000000000E+00,0.00000000000000E+00,0.00000000000000E+00,0.00000000000000E+00,0.00000000000000E+00,0.00000000000000E+00,0.00000000000000E+00,0.00000000000000E+00,0.00000000000000E+00,0.00000000000000E+00,0.00000000000000E+00,0.00000000000000E+00,0.00000000000000E+00,0.00000000000000E+00,0.00000000000000E+00,0.00000000000000E+00,0.00000000000000E+00,0.00000000000000E+00,0.00000000000000E+00,0.00000000000000E+00,0.00000000000000E+00,0.00000000000000E+00,0.00000000000000E+00,0.00000000000000E+00,0.00000000000000E+00,0.00000000000000E+00,0.00000000000000E+00,0.00000000000000E+00,0.00000000000000E+00,0.00000000000000E+00,0.00000000000000E+00,0.00000000000000E+00,0.00000000000000E+00,0.00000000000000E+00,0.00000000000000E+00,0.00000000000000E+00,0.00000000000000E+00,0.00000000000000E+00,0.00000000000000E+00,0.00000000000000E+00,0.00000000000000E+00,0.00000000000000E+00,0.00000000000000E+00,0.00000000000000E+00,0.00000000000000E+00,0.00000000000000E+00,0.00000000000000E+00,0.00000000000000E+00,0.00000000000000E+00,0.00000000000000E+00,0.00000000000000E+00,
SP.URB.GROW,1.30964538401487E+00,9.35300671324501E-01,5.97949126534091E-01,3.77451102003846E-01,3.58367820765578E-01,4.67043499652380E-01,6.00418150861483E-01,6.96684869629966E-01,8.12450449946042E-01,9.16848031730835E-01,1.02256019673984E+00,1.17088019588192E+00,1.30157277869746E+00,1.32143391961581E+00,1.19984472122792E+00,1.00290521959563E+00,7.44646368729226E-01,5.54868314571982E-01,5.28387303438974E-01,7.19581470936616E-01,1.06400386983357E+00,1.45043180764239E+00,1.76445417458032E+00,1.94530762472445E+00,1.96533740441991E+00,1.87139550534071E+00,1.74751272542360E+00,1.65654350746745E+00,1.57621182636489E+00,1.51234743738732E+00,1.46392585513678E+00,1.39493792779417E+00,1.31591276583128E+00,1.28016271183552E+00,1.29775644106005E+00,1.34172897739802E+00,1.41658634366644E+00,1.44979488351057E+00,1.37392906367993E+00,1.14313351503833E+00,8.17544501524186E-01,4.60136580309476E-01,1.50080023639322E-01,-5.09453197931489E-02,-1.16139096688615E-01,-6.23741904489928E-02,1.98505537538390E-02,7.93628340172911E-02,1.16096344678978E-01,1.15961717348808E-01,8.47649237010388E-02,
SP.URB.TOTL,2.21350000000000E+04,2.23430000000000E+04,2.24770000000000E+04,2.25620000000000E+04,2.26430000000000E+04,2.27490000000000E+04,2.28860000000000E+04,2.30460000000000E+04,2.32340000000000E+04,2.34480000000000E+04,2.36890000000000E+04,2.39680000000000E+04,2.42820000000000E+04,2.46050000000000E+04,2.49020000000000E+04,2.51530000000000E+04,2.53410000000000E+04,2.54820000000000E+04,2.56170000000000E+04,2.58020000000000E+04,2.60780000000000E+04,2.64590000000000E+04,2.69300000000000E+04,2.74590000000000E+04,2.80040000000000E+04,2.85330000000000E+04,2.90360000000000E+04,2.95210000000000E+04,2.99900000000000E+04,3.04470000000000E+04,3.08960000000000E+04,3.13300000000000E+04,3.17450000000000E+04,3.21540000000000E+04,3.25740000000000E+04,3.30140000000000E+04,3.34850000000000E+04,3.39740000000000E+04,3.44440000000000E+04,3.48400000000000E+04,3.51260000000000E+04,3.52880000000000E+04,3.53410000000000E+04,3.53230000000000E+04,3.52820000000000E+04,3.52600000000000E+04,3.52670000000000E+04,3.52950000000000E+04,3.53360000000000E+04,3.53770000000000E+04,3.54070000000000E+04,
SP.URB.TOTL.IN.ZS,1.00000000000000E+02,1.00000000000000E+02,1.00000000000000E+02,1.00000000000000E+02,1.00000000000000E+02,1.00000000000000E+02,1.00000000000000E+02,1.00000000000000E+02,1.00000000000000E+02,1.00000000000000E+02,1.00000000000000E+02,1.00000000000000E+02,1.00000000000000E+02,1.00000000000000E+02,1.00000000000000E+02,1.00000000000000E+02,1.00000000000000E+02,1.00000000000000E+02,1.00000000000000E+02,1.00000000000000E+02,1.00000000000000E+02,1.00000000000000E+02,1.00000000000000E+02,1.00000000000000E+02,1.00000000000000E+02,1.00000000000000E+02,1.00000000000000E+02,1.00000000000000E+02,1.00000000000000E+02,1.00000000000000E+02,1.00000000000000E+02,1.00000000000000E+02,1.00000000000000E+02,1.00000000000000E+02,1.00000000000000E+02,1.00000000000000E+02,1.00000000000000E+02,1.00000000000000E+02,1.00000000000000E+02,1.00000000000000E+02,1.00000000000000E+02,1.00000000000000E+02,1.00000000000000E+02,1.00000000000000E+02,1.00000000000000E+02,1.00000000000000E+02,1.00000000000000E+02,1.00000000000000E+02,1.00000000000000E+02,1.00000000000000E+02,1.00000000000000E+02,
ST.INT.ARVL,,,,,,,,,,,,,,,,,,,,,,,,,,,,,,,,,,,,2.33000000000000E+05,2.26000000000000E+05,2.59000000000000E+05,2.78000000000000E+05,2.78000000000000E+05,3.00000000000000E+05,2.70000000000000E+05,2.63000000000000E+05,2.35000000000000E+05,2.50000000000000E+05,2.86000000000000E+05,3.13000000000000E+05,3.28000000000000E+05,3.24000000000000E+05,2.65000000000000E+05,2.79000000000000E+05,
VC.BTL.DETH,0.00000000000000E+00,0.00000000000000E+00,0.00000000000000E+00,0.00000000000000E+00,0.00000000000000E+00,0.00000000000000E+00,0.00000000000000E+00,0.00000000000000E+00,0.00000000000000E+00,0.00000000000000E+00,0.00000000000000E+00,0.00000000000000E+00,0.00000000000000E+00,0.00000000000000E+00,0.00000000000000E+00,0.00000000000000E+00,0.00000000000000E+00,0.00000000000000E+00,0.00000000000000E+00,0.00000000000000E+00,0.00000000000000E+00,0.00000000000000E+00,0.00000000000000E+00,0.00000000000000E+00,0.00000000000000E+00,0.00000000000000E+00,0.00000000000000E+00,0.00000000000000E+00,0.00000000000000E+00,0.00000000000000E+00,0.00000000000000E+00,0.00000000000000E+00,0.00000000000000E+00,0.00000000000000E+00,0.00000000000000E+00,0.00000000000000E+00,0.00000000000000E+00,0.00000000000000E+00,0.00000000000000E+00,0.00000000000000E+00,0.00000000000000E+00,0.00000000000000E+00,0.00000000000000E+00,0.00000000000000E+00,0.00000000000000E+00,0.00000000000000E+00,0.00000000000000E+00,0.00000000000000E+00,0.00000000000000E+00,,,
VC.IHR.ICTS.P5,,,,,,,,,,,,,,,,,,,,,,,,,,,,,,,,,,,,,,,,,,,,,3.08765862846204E+00,3.08137922534126E+00,3.07380198567608E+00,0.00000000000000E+00,0.00000000000000E+00,,,
VC.IHR.IPBH.P5,,,,,,,,,,,,,,,,,,,,,,,,,,,,,,,,,,,,,,,,,,,,,0.00000000000000E+00,,,,,,,
