Indicator,1960,1961,1962,1963,1964,1965,1966,1967,1968,1969,1970,1971,1972,1973,1974,1975,1976,1977,1978,1979,1980,1981,1982,1983,1984,1985,1986,1987,1988,1989,1990,1991,1992,1993,1994,1995,1996,1997,1998,1999,2000,2001,2002,2003,2004,2005,2006,2007,2008,2009,2010,2011,2011AFG
AG.LND.AGRI.K2,,1.00000000000000E+01,1.00000000000000E+01,1.00000000000000E+01,1.00000000000000E+01,1.00000000000000E+01,1.00000000000000E+01,1.00000000000000E+01,1.00000000000000E+01,1.00000000000000E+01,1.00000000000000E+01,1.00000000000000E+01,1.00000000000000E+01,1.00000000000000E+01,1.00000000000000E+01,1.00000000000000E+01,1.00000000000000E+01,1.00000000000000E+01,1.00000000000000E+01,1.00000000000000E+01,1.00000000000000E+01,1.00000000000000E+01,1.00000000000000E+01,1.00000000000000E+01,1.00000000000000E+01,1.00000000000000E+01,1.00000000000000E+01,1.00000000000000E+01,1.00000000000000E+01,1.00000000000000E+01,1.00000000000000E+01,1.00000000000000E+01,1.00000000000000E+01,1.00000000000000E+01,1.00000000000000E+01,1.00000000000000E+01,1.00000000000000E+01,1.00000000000000E+01,1.00000000000000E+01,1.00000000000000E+01,1.00000000000000E+01,1.00000000000000E+01,1.00000000000000E+01,1.00000000000000E+01,1.00000000000000E+01,1.00000000000000E+01,1.00000000000000E+01,1.00000000000000E+01,1.00000000000000E+01,1.00000000000000E+01,,
AG.LND.AGRI.ZS,,1.66666666666667E+01,1.66666666666667E+01,1.66666666666667E+01,1.66666666666667E+01,1.66666666666667E+01,1.66666666666667E+01,1.66666666666667E+01,1.66666666666667E+01,1.66666666666667E+01,1.66666666666667E+01,1.66666666666667E+01,1.66666666666667E+01,1.66666666666667E+01,1.66666666666667E+01,1.66666666666667E+01,1.66666666666667E+01,1.66666666666667E+01,1.66666666666667E+01,1.66666666666667E+01,1.66666666666667E+01,1.66666666666667E+01,1.66666666666667E+01,1.66666666666667E+01,1.66666666666667E+01,1.66666666666667E+01,1.66666666666667E+01,1.66666666666667E+01,1.66666666666667E+01,1.66666666666667E+01,1.66666666666667E+01,1.66666666666667E+01,1.66666666666667E+01,1.66666666666667E+01,1.66666666666667E+01,1.66666666666667E+01,1.66666666666667E+01,1.66666666666667E+01,1.66666666666667E+01,1.66666666666667E+01,1.66666666666667E+01,1.66666666666667E+01,1.66666666666667E+01,1.66666666666667E+01,1.66666666666667E+01,1.66666666666667E+01,1.66666666666667E+01,1.66666666666667E+01,1.66666666666667E+01,1.66666666666667E+01,,
AG.LND.ARBL.HA,,1.00000000000000E+03,1.00000000000000E+03,1.00000000000000E+03,1.00000000000000E+03,1.00000000000000E+03,1.00000000000000E+03,1.00000000000000E+03,1.00000000000000E+03,1.00000000000000E+03,1.00000000000000E+03,1.00000000000000E+03,1.00000000000000E+03,1.00000000000000E+03,1.00000000000000E+03,1.00000000000000E+03,1.00000000000000E+03,1.00000000000000E+03,1.00000000000000E+03,1.00000000000000E+03,1.00000000000000E+03,1.00000000000000E+03,1.00000000000000E+03,1.00000000000000E+03,1.00000000000000E+03,1.00000000000000E+03,1.00000000000000E+03,1.00000000000000E+03,1.00000000000000E+03,1.00000000000000E+03,1.00000000000000E+03,1.00000000000000E+03,1.00000000000000E+03,1.00000000000000E+03,1.00000000000000E+03,1.00000000000000E+03,1.00000000000000E+03,1.00000000000000E+03,1.00000000000000E+03,1.00000000000000E+03,1.00000000000000E+03,1.00000000000000E+03,1.00000000000000E+03,1.00000000000000E+03,1.00000000000000E+03,1.00000000000000E+03,1.00000000000000E+03,1.00000000000000E+03,1.00000000000000E+03,1.00000000000000E+03,,
AG.LND.ARBL.HA.PC,,6.33472697326745E-02,6.17436404050383E-02,6.01865783930184E-02,5.87130108031940E-02,5.73427375422903E-02,5.60600964233658E-02,5.48636637954683E-02,5.37981493436626E-02,5.29240539825351E-02,5.22575250836120E-02,5.18161562775273E-02,5.15596803299820E-02,5.13742614949910E-02,5.11116790186558E-02,5.06739637174420E-02,5.00300180108065E-02,4.92295574262787E-02,4.83488855581879E-02,4.74969127006745E-02,4.67333395644453E-02,4.60680886350025E-02,4.54752160072760E-02,4.49337227589306E-02,4.44148345547413E-02,4.39058658236740E-02,4.34008940584176E-02,4.29110882251974E-02,4.24250137881295E-02,4.19339958904684E-02,4.14353194663131E-02,4.09131822273136E-02,4.03730469538536E-02,3.98438122559567E-02,3.93607809178934E-02,3.89438429784251E-02,3.86145113333591E-02,3.83479694750163E-02,3.80647862662251E-02,3.76633648450153E-02,3.70823599213854E-02,3.63068656282903E-02,3.53969770981558E-02,3.44673077585910E-02,3.36451113653186E-02,3.30022111481469E-02,3.25510237296963E-02,3.22507820814655E-02,3.20533367523559E-02,3.18887719633917E-02,,
AG.LND.ARBL.ZS,,1.66666666666667E+01,1.66666666666667E+01,1.66666666666667E+01,1.66666666666667E+01,1.66666666666667E+01,1.66666666666667E+01,1.66666666666667E+01,1.66666666666667E+01,1.66666666666667E+01,1.66666666666667E+01,1.66666666666667E+01,1.66666666666667E+01,1.66666666666667E+01,1.66666666666667E+01,1.66666666666667E+01,1.66666666666667E+01,1.66666666666667E+01,1.66666666666667E+01,1.66666666666667E+01,1.66666666666667E+01,1.66666666666667E+01,1.66666666666667E+01,1.66666666666667E+01,1.66666666666667E+01,1.66666666666667E+01,1.66666666666667E+01,1.66666666666667E+01,1.66666666666667E+01,1.66666666666667E+01,1.66666666666667E+01,1.66666666666667E+01,1.66666666666667E+01,1.66666666666667E+01,1.66666666666667E+01,1.66666666666667E+01,1.66666666666667E+01,1.66666666666667E+01,1.66666666666667E+01,1.66666666666667E+01,1.66666666666667E+01,1.66666666666667E+01,1.66666666666667E+01,1.66666666666667E+01,1.66666666666667E+01,1.66666666666667E+01,1.66666666666667E+01,1.66666666666667E+01,1.66666666666667E+01,1.66666666666667E+01,,
AG.LND.EL5M.ZS,,,,,,,,,,,,,,,,,,,,,,,,,,,,,,,0.00000000000000E+00,,,,,,,,,,0.00000000000000E+00,,,,,,,,,,,
AG.LND.FRST.K2,,,,,,,,,,,,,,,,,,,,,,,,,,,,,,,0.00000000000000E+00,,,,,,,,,,0.00000000000000E+00,,,,,0.00000000000000E+00,,,,,0.00000000000000E+00,
AG.LND.FRST.ZS,,,,,,,,,,,,,,,,,,,,,,,,,,,,,,,0.00000000000000E+00,,,,,,,,,,0.00000000000000E+00,,,,,0.00000000000000E+00,,,,,0.00000000000000E+00,
AG.LND.TOTL.K2,,6.00000000000000E+01,6.00000000000000E+01,6.00000000000000E+01,6.00000000000000E+01,6.00000000000000E+01,6.00000000000000E+01,6.00000000000000E+01,6.00000000000000E+01,6.00000000000000E+01,6.00000000000000E+01,6.00000000000000E+01,6.00000000000000E+01,6.00000000000000E+01,6.00000000000000E+01,6.00000000000000E+01,6.00000000000000E+01,6.00000000000000E+01,6.00000000000000E+01,6.00000000000000E+01,6.00000000000000E+01,6.00000000000000E+01,6.00000000000000E+01,6.00000000000000E+01,6.00000000000000E+01,6.00000000000000E+01,6.00000000000000E+01,6.00000000000000E+01,6.00000000000000E+01,6.00000000000000E+01,6.00000000000000E+01,6.00000000000000E+01,6.00000000000000E+01,6.00000000000000E+01,6.00000000000000E+01,6.00000000000000E+01,6.00000000000000E+01,6.00000000000000E+01,6.00000000000000E+01,6.00000000000000E+01,6.00000000000000E+01,6.00000000000000E+01,6.00000000000000E+01,6.00000000000000E+01,6.00000000000000E+01,6.00000000000000E+01,6.00000000000000E+01,6.00000000000000E+01,6.00000000000000E+01,6.00000000000000E+01,6.00000000000000E+01,
AG.SRF.TOTL.K2,,6.00000000000000E+01,6.00000000000000E+01,6.00000000000000E+01,6.00000000000000E+01,6.00000000000000E+01,6.00000000000000E+01,6.00000000000000E+01,6.00000000000000E+01,6.00000000000000E+01,6.00000000000000E+01,6.00000000000000E+01,6.00000000000000E+01,6.00000000000000E+01,6.00000000000000E+01,6.00000000000000E+01,6.00000000000000E+01,6.00000000000000E+01,6.00000000000000E+01,6.00000000000000E+01,6.00000000000000E+01,6.00000000000000E+01,6.00000000000000E+01,6.00000000000000E+01,6.00000000000000E+01,6.00000000000000E+01,6.00000000000000E+01,6.00000000000000E+01,6.00000000000000E+01,6.00000000000000E+01,6.00000000000000E+01,6.00000000000000E+01,6.00000000000000E+01,6.00000000000000E+01,6.00000000000000E+01,6.00000000000000E+01,6.00000000000000E+01,6.00000000000000E+01,6.00000000000000E+01,6.00000000000000E+01,6.00000000000000E+01,6.00000000000000E+01,6.00000000000000E+01,6.00000000000000E+01,6.00000000000000E+01,6.00000000000000E+01,6.00000000000000E+01,6.00000000000000E+01,6.00000000000000E+01,6.00000000000000E+01,6.00000000000000E+01,
EN.ATM.PM10.MC.M3,,,,,,,,,,,,,,,,,,,,,,,,,,,,,,,2.17656225269000E+01,2.14159516432000E+01,2.11959969767000E+01,2.04619196704000E+01,2.00950428402000E+01,1.96244877205000E+01,1.88280983811000E+01,1.92627368424000E+01,1.87965235772000E+01,1.84320537345000E+01,1.82224206625000E+01,1.80034612694000E+01,1.81557878535000E+01,1.69595500136000E+01,9.49705493080000E+00,9.54714796610000E+00,8.85074966180000E+00,8.28808942320000E+00,8.05210175150000E+00,,,
EN.BIR.THRD.NO,,,,,,,,,,,,,,,,,,,,,,,,,,,,,,,,,,,,,,,,,,,,,,,,,,,0.00000000000000E+00,
EN.CLC.GHGR.MT.CE,,,,,,,,,,,,,,,,,,,,,,,,,,,,,,,,,,,,,,,,,,,,,,,,-4.00000000000000E-03,,,,
EN.FSH.THRD.NO,,,,,,,,,,,,,,,,,,,,,,,,,,,,,,,,,,,,,,,,,,,,,,,,,,,0.00000000000000E+00,
EN.HPT.THRD.NO,,,,,,,,,,,,,,,,,,,,,,,,,,,,,,,,,,,,,,,,,,,,,,,,,,,0.00000000000000E+00,
EN.MAM.THRD.NO,,,,,,,,,,,,,,,,,,,,,,,,,,,,,,,,,,,,,,,,,,,,,,,,,,,0.00000000000000E+00,
EN.POP.DNST,,2.63100000000000E+02,2.69933333333333E+02,2.76916666666667E+02,2.83866666666667E+02,2.90650000000000E+02,2.97300000000000E+02,3.03783333333333E+02,3.09800000000000E+02,3.14916666666667E+02,3.18933333333333E+02,3.21650000000000E+02,3.23250000000000E+02,3.24416666666667E+02,3.26083333333333E+02,3.28900000000000E+02,3.33133333333333E+02,3.38550000000000E+02,3.44716666666667E+02,3.50900000000000E+02,3.56633333333333E+02,3.61783333333333E+02,3.66500000000000E+02,3.70916666666667E+02,3.75250000000000E+02,3.79600000000000E+02,3.84016666666667E+02,3.88400000000000E+02,3.92850000000000E+02,3.97450000000000E+02,4.02233333333333E+02,4.07366666666667E+02,4.12816666666667E+02,4.18300000000000E+02,4.23433333333333E+02,4.27966666666667E+02,4.31616666666667E+02,4.34616666666667E+02,4.37850000000000E+02,4.42516666666667E+02,4.49450000000000E+02,4.59050000000000E+02,4.70850000000000E+02,4.83550000000000E+02,4.95366666666667E+02,5.05016666666667E+02,5.12016666666667E+02,5.16783333333333E+02,5.19966666666667E+02,5.22650000000000E+02,5.25566666666667E+02,
EN.POP.EL5M.ZS,,,,,,,,,,,,,,,,,,,,,,,,,,,,,,,0.00000000000000E+00,,,,,,,,,,0.00000000000000E+00,,,,,,,,,,,
EN.URB.LCTY,3.79800000000000E+03,3.83600000000000E+03,3.87500000000000E+03,3.91500000000000E+03,3.95400000000000E+03,3.99400000000000E+03,4.03500000000000E+03,4.07600000000000E+03,4.11700000000000E+03,4.15900000000000E+03,4.20100000000000E+03,4.24400000000000E+03,4.28700000000000E+03,4.33000000000000E+03,4.35200000000000E+03,4.35100000000000E+03,4.35000000000000E+03,4.34900000000000E+03,4.34800000000000E+03,4.34700000000000E+03,4.34600000000000E+03,4.34500000000000E+03,4.34400000000000E+03,4.30700000000000E+03,4.27000000000000E+03,4.23300000000000E+03,4.19700000000000E+03,4.17400000000000E+03,4.16500000000000E+03,4.17500000000000E+03,4.20500000000000E+03,4.23600000000000E+03,4.26600000000000E+03,4.29600000000000E+03,4.32600000000000E+03,4.35700000000000E+03,4.35200000000000E+03,4.40700000000000E+03,4.42100000000000E+03,4.41400000000000E+03,4.42100000000000E+03,4.48100000000000E+03,4.50800000000000E+03,4.48200000000000E+03,4.45600000000000E+03,4.43000000000000E+03,4.41500000000000E+03,4.40300000000000E+03,4.39400000000000E+03,4.38900000000000E+03,,
EN.URB.LCTY.UR.ZS,5.04604415647360E+01,4.86000253389079E+01,4.68212537318050E+01,4.51399337947638E+01,4.35555806221068E+01,4.21005319382183E+01,4.07718978133167E+01,3.95375342344994E+01,3.84259161776299E+01,3.74848672536382E+01,3.67113483070659E+01,3.53890838818516E+01,3.42798308893661E+01,3.32910135099238E+01,3.21628147902241E+01,3.08367015572853E+01,2.96337933479042E+01,2.84026724922906E+01,2.71884317650027E+01,2.60495936802715E+01,2.50126962742708E+01,2.42272869909327E+01,2.35059898067119E+01,2.26456288231587E+01,2.18291141285388E+01,2.10479648959923E+01,2.05312840806108E+01,2.00932109324629E+01,1.97298104541714E+01,1.94570385466443E+01,1.92738405260892E+01,1.91162850115708E+01,1.89431828316255E+01,1.87726494243902E+01,1.86214718122055E+01,1.85036340083967E+01,1.82584043158169E+01,1.82939490665076E+01,1.81497433221507E+01,1.78643984983771E+01,1.75525817143945E+01,1.73926731751517E+01,1.70334727538948E+01,1.64658360023454E+01,1.59560042830843E+01,1.55366413800522E+01,1.52658561468673E+01,1.50775316951256E+01,1.49482447134209E+01,1.48482728779255E+01,,
ER.BDV.TOTL.XQ,,,,,,,,,,,,,,,,,,,,,,,,,,,,,,,,,,,,,,,,,,,,,,,,,0.00000000000000E+00,,,
FI.RES.TOTL.CD,,,,,,,,,,,,,,,,,,,,,,,,,,,,,,,,,,1.19862151067515E+08,1.76306364666442E+08,1.98546118560897E+08,2.15015656128969E+08,1.82944573536206E+08,1.70672607741824E+08,1.44125704210508E+08,1.35161381862500E+08,1.33507953536101E+08,1.83406176622142E+08,2.52689264367290E+08,3.55577105052131E+08,3.54022342198380E+08,4.79133223820000E+08,6.47805162920937E+08,7.06794962761800E+08,7.90272113997800E+08,4.49162272201500E+08,
FI.RES.XGLD.CD,,,,,,,,,,,,,,,,,,,,,,,,,,,,,,,,,,1.19862151067515E+08,1.76306364666442E+08,1.98546118560897E+08,2.15015656128969E+08,1.82944573536206E+08,1.70672607741824E+08,1.44125704210508E+08,1.35161381862500E+08,1.33507953536101E+08,1.83406176622142E+08,2.52689264367290E+08,3.55577105052131E+08,3.54022342198380E+08,4.79133223820000E+08,6.47805162920937E+08,7.06794962761800E+08,7.90272113997800E+08,4.49162272201500E+08,
FP.CPI.TOTL,,,,,,,,,,,,,,,,,,,,,,,,,,,,,,,,,,,,,,,,,,,,1.00000000000000E+02,1.01430838685273E+02,1.03140444217850E+02,1.05301504025262E+02,1.07932931492430E+02,1.12566710797898E+02,1.15042719580287E+02,1.18017054939272E+02,
FP.CPI.TOTL.ZG,,,,,,,,,,,,,,,,,,,,,,,,,,,,,,,,,,,,,,,,,,,,,1.43083868527300E+00,1.68548890528422E+00,2.09525935611397E+00,2.49894575725787E+00,4.29320249287679E+00,2.19959237046059E+00,2.58541815582622E+00,
FR.INR.DPST,,,,,,,,,,,,,,,,,,,,,,,,,,,,,,,8.00000000000000E+00,7.60000000000000E+00,1.00000000000000E+01,9.00000000000000E+00,7.50000000000000E+00,7.35000000000000E+00,6.17500000000000E+00,4.65000000000000E+00,3.70000000000000E+00,2.45000000000000E+00,2.62500000000000E+00,2.87500000000000E+00,2.67500000000000E+00,1.63750000000000E+00,1.43750000000000E+00,1.35000000000000E+00,2.12750000000000E+00,2.62750000000000E+00,2.22750000000000E+00,9.62500000000000E-01,7.07500000000000E-01,
FR.INR.LEND,,,,,,,,,,,,,,,,,,,,,,,,,,,,,,,1.45000000000000E+01,1.52000000000000E+01,1.79000000000000E+01,1.60000000000000E+01,1.50000000000000E+01,1.52250000000000E+01,1.44500000000000E+01,1.14250000000000E+01,9.52500000000000E+00,7.92500000000000E+00,9.20000000000000E+00,8.80000000000000E+00,7.95000000000000E+00,7.48750000000000E+00,7.13750000000000E+00,7.17500000000000E+00,6.70924400000000E+00,7.58250000000000E+00,7.89250000000000E+00,5.74250000000000E+00,5.38250000000000E+00,
FR.INR.LNDP,,,,,,,,,,,,,,,,,,,,,,,,,,,,,,,6.50000000000000E+00,7.60000000000000E+00,7.90000000000000E+00,7.00000000000000E+00,7.50000000000000E+00,7.87500000000000E+00,8.27500000000000E+00,6.77500000000000E+00,5.82500000000000E+00,5.47500000000000E+00,6.57500000000000E+00,5.92500000000000E+00,5.27500000000000E+00,5.85000000000000E+00,5.70000000000000E+00,5.82500000000000E+00,4.58174400000000E+00,4.95500000000000E+00,5.66500000000000E+00,4.78000000000000E+00,4.67500000000000E+00,
FR.INR.RINR,,,,,,,,,,,,,,,,,,,,,,,,,,,,,,,5.63276860402271E+00,7.12148932316979E+00,1.29312861553522E+01,1.12599318360084E+01,1.07140603943480E+01,9.39412697644870E+00,1.00501505983227E+01,9.56866153101578E+00,7.66280232365140E+00,6.25822089018201E+00,6.40296043656203E+00,5.94597699970245E+00,5.44503045626938E+00,4.95436767697264E+00,5.10642366035884E+00,5.19983736673614E+00,4.67119044658611E+00,5.74219331378370E+00,4.51608801469798E+00,,,
GC.BAL.CASH.CN,,,,,,,,,,,,,,,,,,,,,,,,,,,,,,,,,,,,,,,,,,,1.20579951000000E+07,2.91087638600000E+07,2.58659164000000E+07,5.95146023000000E+07,7.25999865300000E+07,,,,,
GC.BAL.CASH.GD.ZS,,,,,,,,,,,,,,,,,,,,,,,,,,,,,,,,,,,,,,,,,,,1.28962514438503E+00,2.92550390552763E+00,2.43788090480678E+00,5.38106711573237E+00,6.19982805550811E+00,,,,,
GC.DOD.TOTL.CN,,,,,,,,,,,,,,,,,,,,,,,,,,,,,,,,,,,,,,,,,,,1.54728162000000E+08,3.43015643600000E+08,4.40223241890000E+08,5.64955793180000E+08,7.26514954880000E+08,,,,,
GC.DOD.TOTL.GD.ZS,,,,,,,,,,,,,,,,,,,,,,,,,,,,,,,,,,,,,,,,,,,1.65484665240642E+01,3.44739340301508E+01,4.14913517332705E+01,5.10809939584087E+01,6.20422677096499E+01,,,,,
GC.FIN.DOMS.CN,,,,,,,,,,,,,,,,,,,,,,,,,,,,,,,,,,,,,,,,,,,-4.24475333000000E+07,4.52884521000000E+07,9.02890580000000E+07,1.39296032230000E+08,1.59269052150000E+08,,,,,
GC.FIN.DOMS.GD.ZS,,,,,,,,,,,,,,,,,,,,,,,,,,,,,,,,,,,,,,,,,,,-4.53984313368984E+00,4.55160322613065E+00,8.50980754005655E+00,1.25945779593128E+01,1.36011146157131E+01,,,,,
GC.FIN.FRGN.CN,,,,,,,,,,,,,,,,,,,,,,,,,,,,,,,,,,,,,,,,,,,2.31628529000000E+07,1.75751620000000E+06,6.91873436000000E+06,6.57484990000000E+06,4.16473984000000E+06,,,,,
GC.FIN.FRGN.GD.ZS,,,,,,,,,,,,,,,,,,,,,,,,,,,,,,,,,,,,,,,,,,,2.47731047058824E+00,1.76634793969849E-01,6.52095604147031E-01,5.94471057866184E-01,3.55656690008540E-01,,,,,
GC.REV.GOTR.CN,,,,,,,,,,,,,,,,,,,,,,,,,,,,,,,,,,,,,,,,,,,1.24669599300000E+08,1.29732676700000E+08,1.76724197530000E+08,1.53957112740000E+08,1.61848306130000E+08,,,,,
GC.REV.GOTR.ZS,,,,,,,,,,,,,,,,,,,,,,,,,,,,,,,,,,,,,,,,,,,2.84036204520625E+01,2.90197678313604E+01,3.54226424510731E+01,3.05011849321784E+01,2.95870024134608E+01,,,,,
GC.REV.SOCL.CN,,,,,,,,,,,,,,,,,,,,,,,,,,,,,,,,,,,,,,,,,,,9.43580670000000E+07,9.87285933000000E+07,1.02570486570000E+08,1.07612747880000E+08,1.23222473630000E+08,,,,,
GC.REV.SOCL.ZS,,,,,,,,,,,,,,,,,,,,,,,,,,,,,,,,,,,,,,,,,,,2.14977086371231E+01,2.20844965876111E+01,2.05592540386832E+01,2.13196796544950E+01,2.25259300629013E+01,,,,,
GC.REV.XGRT.CN,,,,,,,,,,,,,,,,,,,,,,,,,,,,,,,,,,,,,,,,,,,4.34273393300000E+08,4.42401211500000E+08,4.94286282600000E+08,5.00109728660000E+08,5.32397824320000E+08,,,,,
GC.REV.XGRT.GD.ZS,,,,,,,,,,,,,,,,,,,,,,,,,,,,,,,,,,,,,,,,,,,4.64463522245989E+01,4.44624333165829E+01,4.65868315362865E+01,4.52178778173599E+01,4.54652283791631E+01,,,,,
GC.TAX.EXPT.CN,,,,,,,,,,,,,,,,,,,,,,,,,,,,,,,,,,,,,,,,,,,0.00000000000000E+00,0.00000000000000E+00,0.00000000000000E+00,0.00000000000000E+00,0.00000000000000E+00,,,,,
GC.TAX.EXPT.ZS,,,,,,,,,,,,,,,,,,,,,,,,,,,,,,,,,,,,,,,,,,,0.00000000000000E+00,0.00000000000000E+00,0.00000000000000E+00,0.00000000000000E+00,0.00000000000000E+00,,,,,
GC.TAX.GSRV.CN,,,,,,,,,,,,,,,,,,,,,,,,,,,,,,,,,,,,,,,,,,,1.01646938000000E+08,1.00712189200000E+08,1.04898572820000E+08,1.18898883330000E+08,1.23231308580000E+08,,,,,
GC.TAX.GSRV.RV.ZS,,,,,,,,,,,,,,,,,,,,,,,,,,,,,,,,,,,,,,,,,,,2.31583406321763E+01,2.25282050961648E+01,2.10258962301975E+01,2.35556302929784E+01,2.25275451535576E+01,,,,,
GC.TAX.IMPT.CN,,,,,,,,,,,,,,,,,,,,,,,,,,,,,,,,,,,,,,,,,,,4.43488300000000E+06,3.78516300000000E+06,5.95437714000000E+06,8.53664038000000E+06,1.00505828600000E+07,,,,,
GC.TAX.IMPT.ZS,,,,,,,,,,,,,,,,,,,,,,,,,,,,,,,,,,,,,,,,,,,2.01682910247209E+00,1.73164218445609E+00,2.71137725459696E+00,3.51030568816480E+00,3.83677042869326E+00,,,,,
GC.TAX.INTT.CN,,,,,,,,,,,,,,,,,,,,,,,,,,,,,,,,,,,,,,,,,,,4.43488300000000E+06,3.78516300000000E+06,5.95437714000000E+06,8.53664038000000E+06,1.00505828600000E+07,,,,,
GC.TAX.INTT.RV.ZS,,,,,,,,,,,,,,,,,,,,,,,,,,,,,,,,,,,,,,,,,,,1.01040457488103E+00,8.46699183721195E-01,1.19349684648169E+00,1.69123493092263E+00,1.83731684591531E+00,,,,,
GC.TAX.OTHR.CN,,,,,,,,,,,,,,,,,,,,,,,,,,,,,,,,,,,,,,,,,,,1.15571640000000E+07,1.20990306000000E+07,1.28003435100000E+07,1.39959097000000E+07,2.84085497100000E+07,,,,,
GC.TAX.OTHR.RV.ZS,,,,,,,,,,,,,,,,,,,,,,,,,,,,,,,,,,,,,,,,,,,2.63308217561778E+00,2.70641960011703E+00,2.56570406171273E+00,2.77279706313210E+00,5.19328159145246E+00,,,,,
GC.TAX.TOTL.CN,,,,,,,,,,,,,,,,,,,,,,,,,,,,,,,,,,,,,,,,,,,2.19893842000000E+08,2.18588056700000E+08,2.19607106680000E+08,2.43187948240000E+08,2.61954241120000E+08,,,,,
GC.TAX.TOTL.GD.ZS,,,,,,,,,,,,,,,,,,,,,,,,,,,,,,,,,,,,,,,,,,,2.35180579679144E+01,2.19686489145729E+01,2.06981250405278E+01,2.19880604195298E+01,2.23701316071734E+01,,,,,
GC.TAX.YPKG.CN,,,,,,,,,,,,,,,,,,,,,,,,,,,,,,,,,,,,,,,,,,,1.02254857000000E+08,9.85271315000000E+07,9.59538132100000E+07,1.01756514830000E+08,1.00263799970000E+08,,,,,
GC.TAX.YPKG.RV.ZS,,,,,,,,,,,,,,,,,,,,,,,,,,,,,,,,,,,,,,,,,,,2.32968435281393E+01,2.20394318066199E+01,1.92330063718518E+01,2.01594731262936E+01,1.83289239327125E+01,,,,,
GC.TAX.YPKG.ZS,,,,,,,,,,,,,,,,,,,,,,,,,,,,,,,,,,,,,,,,,,,4.65019193215970E+01,4.50743434876788E+01,4.36934007558411E+01,4.18427457307948E+01,3.82753108105127E+01,,,,,
GC.XPN.COMP.CN,,,,,,,,,,,,,,,,,,,,,,,,,,,,,,,,,,,,,,,,,,,1.48488549000000E+08,1.46614394200000E+08,1.49798473920000E+08,1.53317702230000E+08,1.60537476310000E+08,,,,,
GC.XPN.COMP.ZS,,,,,,,,,,,,,,,,,,,,,,,,,,,,,,,,,,,,,,,,,,,3.39883161086109E+01,3.60013096049512E+01,3.26487522719078E+01,3.54002820072829E+01,3.51035919771147E+01,,,,,
GC.XPN.GSRV.CN,,,,,,,,,,,,,,,,,,,,,,,,,,,,,,,,,,,,,,,,,,,7.93101950000000E+07,8.06241508000000E+07,9.62773522900000E+07,9.82937832400000E+07,9.87274661300000E+07,,,,,
GC.XPN.GSRV.ZS,,,,,,,,,,,,,,,,,,,,,,,,,,,,,,,,,,,,,,,,,,,1.81537229399122E+01,1.97973400253430E+01,2.09837613298391E+01,2.26955374079293E+01,2.15880351904227E+01,,,,,
GC.XPN.INTP.CN,,,,,,,,,,,,,,,,,,,,,,,,,,,,,,,,,,,,,,,,,,,9.89534200000000E+06,3.95308830000000E+06,3.66327014000000E+06,2.77254176000000E+06,1.09684136500000E+07,,,,,
GC.XPN.INTP.RV.ZS,,,,,,,,,,,,,,,,,,,,,,,,,,,,,,,,,,,,,,,,,,,2.25446732795710E+00,8.84262219827206E-01,7.34266785106688E-01,5.49281598290041E-01,2.00510273412267E+00,,,,,
GC.XPN.INTP.ZS,,,,,,,,,,,,,,,,,,,,,,,,,,,,,,,,,,,,,,,,,,,2.26499628532847E+00,9.70684744567939E-01,7.98414003668756E-01,6.40165869651048E-01,2.39838526340302E+00,,,,,
GC.XPN.OTHR.CN,,,,,,,,,,,,,,,,,,,,,,,,,,,,,,,,,,,,,,,,,,,7.22050720000000E+07,2.96386169000000E+07,5.64898580100000E+07,2.95272350700000E+07,2.61741638600000E+07,,,,,
GC.XPN.OTHR.ZS,,,,,,,,,,,,,,,,,,,,,,,,,,,,,,,,,,,,,,,,,,,1.65273943903985E+01,7.27779171411969E+00,1.23120305019175E+01,6.81768923724975E+00,5.72331887608194E+00,,,,,
GC.XPN.TOTL.CN,,,,,,,,,,,,,,,,,,,,,,,,,,,,,,,,,,,,,,,,,,,4.36881158000000E+08,4.07247391300000E+08,4.58818372820000E+08,4.33097403570000E+08,4.57324926790000E+08,,,,,
GC.XPN.TOTL.GD.ZS,,,,,,,,,,,,,,,,,,,,,,,,,,,,,,,,,,,,,,,,,,,4.67252575401070E+01,4.09293860603015E+01,4.32439559679548E+01,3.91588972486438E+01,3.90542209043553E+01,,,,,
GC.XPN.TRFT.CN,,,,,,,,,,,,,,,,,,,,,,,,,,,,,,,,,,,,,,,,,,,1.39984226000000E+08,1.59066728400000E+08,1.66063542980000E+08,1.63658990290000E+08,1.75779757180000E+08,,,,,
GC.XPN.TRFT.ZS,,,,,,,,,,,,,,,,,,,,,,,,,,,,,,,,,,,,,,,,,,,3.20417173953746E+01,3.90589925922504E+01,3.61937430620610E+01,3.77880331170234E+01,3.84365134902687E+01,,,,,
IP.JRN.ARTC.SC,,,,,,,,,,,,,,,,,,,,,,,,,,,0.00000000000000E+00,0.00000000000000E+00,0.00000000000000E+00,0.00000000000000E+00,1.00000000000000E+00,0.00000000000000E+00,0.00000000000000E+00,0.00000000000000E+00,0.00000000000000E+00,0.00000000000000E+00,5.00000000000000E-01,8.00000000000000E-01,8.00000000000000E-01,2.00000000000000E-01,0.00000000000000E+00,0.00000000000000E+00,0.00000000000000E+00,0.00000000000000E+00,3.00000000000000E-01,0.00000000000000E+00,0.00000000000000E+00,1.60000000000000E+00,,,,
IP.TMK.MDRD,,,,,,,,,,,,,,,,,,,,,,,,,,,,,,,,,,,,,2.30400000000000E+03,2.35200000000000E+03,2.29900000000000E+03,2.20000000000000E+03,2.44500000000000E+03,2.22700000000000E+03,1.79500000000000E+03,1.59100000000000E+03,1.50700000000000E+03,1.55800000000000E+03,1.53300000000000E+03,1.56600000000000E+03,1.86900000000000E+03,1.31400000000000E+03,,
IP.TMK.NRES,,,,,,,,,,,,,,,,,,,,,,,,,,,,,,,,,,,,,,,,4.40000000000000E+01,1.40000000000000E+02,1.22000000000000E+02,1.28000000000000E+02,1.36000000000000E+02,6.20000000000000E+01,4.80000000000000E+01,1.11000000000000E+02,,,,,
IP.TMK.RESD,,,,,,,,,,,,,,,,,,,,,,,,,,,,,,,,,,,,,,,,5.00000000000000E+00,5.10000000000000E+01,8.00000000000000E+01,7.90000000000000E+01,1.03000000000000E+02,8.10000000000000E+01,9.50000000000000E+01,6.30000000000000E+01,,,,,
IP.TMK.TOTL,,,,,,,,,,,,,,,,,,,,,,,,,,,,,,,,,,,,,2.30400000000000E+03,2.35200000000000E+03,2.29900000000000E+03,2.24900000000000E+03,2.63600000000000E+03,2.42900000000000E+03,2.00200000000000E+03,1.83000000000000E+03,1.65000000000000E+03,1.70100000000000E+03,1.70700000000000E+03,1.56600000000000E+03,1.86900000000000E+03,1.31400000000000E+03,,
IT.CEL.SETS,,,,,,,,,,,,,,,,,,,,,,,,,,,,,,,0.00000000000000E+00,,9.00000000000000E+02,1.30000000000000E+03,1.90000000000000E+03,2.34000000000000E+03,2.27900000000000E+03,2.35000000000000E+03,4.98000000000000E+03,9.58000000000000E+03,1.45030000000000E+04,1.58540000000000E+04,1.67590000000000E+04,1.69000000000000E+04,1.70850000000000E+04,1.71500000000000E+04,1.73900000000000E+04,1.75000000000000E+04,2.40000000000000E+04,2.40000000000000E+04,2.40000000000000E+04,
IT.CEL.SETS.P2,,,,,,,,,,,,,,,,,,,,,,,,,,,,,,,0.00000000000000E+00,,3.63357422584682E+00,5.17969559327436E+00,7.47854837439975E+00,9.11285925695148E+00,8.80024713287253E+00,9.01177282662883E+00,1.89562635605801E+01,3.60815035215246E+01,5.37805465939852E+01,5.75609047670915E+01,5.93217939187993E+01,5.82497501120188E+01,5.74826727676469E+01,5.65987921190720E+01,5.66062302659419E+01,5.64388686425646E+01,7.69280082056542E+01,7.65330527121401E+01,7.61083275195028E+01,
IT.MLT.MAIN,,,,,,,,,,,,,,,,,,,,,,,,7.00000000000000E+03,7.20000000000000E+03,7.60000000000000E+03,8.20000000000000E+03,8.60000000000000E+03,8.82000000000000E+03,9.65900000000000E+03,1.02460000000000E+04,1.08000000000000E+04,1.35040000000000E+04,1.41000000000000E+04,1.44320000000000E+04,1.60880000000000E+04,1.70630000000000E+04,1.75380000000000E+04,1.93250000000000E+04,1.99040000000000E+04,2.03020000000000E+04,2.05010000000000E+04,2.06010000000000E+04,2.06890000000000E+04,2.07540000000000E+04,2.08490000000000E+04,2.10000000000000E+04,2.10800000000000E+04,2.13000000000000E+04,2.15000000000000E+04,2.17000000000000E+04,
IT.MLT.MAIN.P2,,,,,,,,,,,,,,,,,,,,,,,,3.14536059312514E+01,3.19786808794137E+01,3.33684580259923E+01,3.55887331279024E+01,3.69035358736698E+01,3.74188621611302E+01,4.05040466306034E+01,4.24546283251844E+01,4.41862368054987E+01,5.45197626064839E+01,5.61797752808989E+01,5.68054790207038E+01,6.26528545836903E+01,6.58879406881106E+01,6.72546688652836E+01,7.35601994594800E+01,7.49651613875184E+01,7.52846071123966E+01,7.44327052245580E+01,7.29213125199108E+01,7.13094130217489E+01,6.98270641275823E+01,6.88063100227715E+01,6.83571498323622E+01,6.79846486277292E+01,6.82736072825181E+01,6.85608597212921E+01,6.88146127988837E+01,
IT.NET.BBND,,,,,,,,,,,,,,,,,,,,,,,,,,,,,,,,,,,,,,,,,,,,6.00000000000000E+02,1.07600000000000E+03,1.22000000000000E+03,1.48000000000000E+03,1.59900000000000E+03,4.90000000000000E+03,1.00000000000000E+04,1.01000000000000E+04,
IT.NET.BBND.P2,,,,,,,,,,,,,,,,,,,,,,,,,,,,,,,,,,,,,,,,,,,,2.06803846551546E+00,3.62021398290828E+00,4.02626976007392E+00,4.81755151199505E+00,5.15690005482633E+00,1.57061350086544E+01,3.18887719633917E+01,3.20289211644574E+01,
IT.NET.SECR,,,,,,,,,,,,,,,,,,,,,,,,,,,,,,,,,,,,,,,,,,3.00000000000000E+00,,,6.00000000000000E+00,1.10000000000000E+01,1.40000000000000E+01,2.40000000000000E+01,2.70000000000000E+01,3.00000000000000E+01,3.90000000000000E+01,
IT.NET.SECR.P6,,,,,,,,,,,,,,,,,,,,,,,,,,,,,,,,,,,,,,,,,,1.08920596884871E+02,,,2.01870668191912E+02,3.63024322629616E+02,4.55714332215748E+02,7.74018769955171E+02,8.65440092313610E+02,9.56663158901751E+02,1.23676032219192E+03,
IT.NET.USER,,,,,,,,,,,,,,,,,,,,,,,,,,,,,,,0.00000000000000E+00,,,,,3.49768437439189E+02,3.69828630977652E+02,3.69914887091209E+02,3.70042256738237E+02,1.13647083647325E+04,1.31597598990611E+04,1.38656059174179E+04,1.43613506327768E+04,1.45075018301105E+04,1.50293284789644E+04,1.52291505472341E+04,1.54246022430881E+04,1.56166203912959E+04,1.70076321190354E+04,1.70005421264111E+04,,
IT.NET.USER.P2,,,,,,,,,,,,,,,,,,,,,,,,,,,,,,,0.00000000000000E+00,,,,,1.36213271064409E+00,1.42807518622872E+00,1.41854847985278E+00,1.40855794122126E+00,4.28033157498116E+01,4.87994953055999E+01,5.03416690898517E+01,5.08348399446985E+01,5.00034530386740E+01,5.05663430420712E+01,5.02595641966736E+01,5.02086593635889E+01,5.03648221088655E+01,5.45151359671626E+01,5.42126411123158E+01,,
NY.ADJ.DCO2.CD,,,,,,,,,,,,,,,,,,,,,,,,,,,,,,,,,,,,,,,,0.00000000000000E+00,0.00000000000000E+00,0.00000000000000E+00,0.00000000000000E+00,0.00000000000000E+00,0.00000000000000E+00,0.00000000000000E+00,0.00000000000000E+00,0.00000000000000E+00,0.00000000000000E+00,,,
NY.ADJ.DCO2.GN.ZS,,,,,,,,,,,,,,,,,,,,,,,,,,,,,,,,,,,,,,,,0.00000000000000E+00,0.00000000000000E+00,0.00000000000000E+00,0.00000000000000E+00,0.00000000000000E+00,0.00000000000000E+00,0.00000000000000E+00,0.00000000000000E+00,0.00000000000000E+00,0.00000000000000E+00,,,
NY.ADJ.DKAP.CD,,,,,,,,,,,,,,,,,,,,,,,,,,,,,,,,,,,,,,,,,,,,,1.90260941027874E+08,1.94787910121797E+08,2.09270534492310E+08,2.43648216539840E+08,2.77290064173299E+08,,,
NY.ADJ.DKAP.GN.ZS,,,,,,,,,,,,,,,,,,,,,,,,,,,,,,,,,,,,,,,,,,,,,1.62674459840846E+01,1.61752894743537E+01,1.62701719906845E+01,1.63440194686901E+01,1.65238053461947E+01,,,
NY.ADJ.DMIN.CD,,,,,,,,,,,,,,,,,,,,,,,,,,,,,,,,,,,,,,,,0.00000000000000E+00,0.00000000000000E+00,0.00000000000000E+00,0.00000000000000E+00,0.00000000000000E+00,0.00000000000000E+00,0.00000000000000E+00,0.00000000000000E+00,0.00000000000000E+00,0.00000000000000E+00,,,
NY.ADJ.DMIN.GN.ZS,,,,,,,,,,,,,,,,,,,,,,,,,,,,,,,,,,,,,,,,0.00000000000000E+00,0.00000000000000E+00,0.00000000000000E+00,0.00000000000000E+00,0.00000000000000E+00,0.00000000000000E+00,0.00000000000000E+00,0.00000000000000E+00,0.00000000000000E+00,0.00000000000000E+00,,,
NY.ADJ.DNGY.CD,,,,,,,,,,,,,,,,,,,,,,,,,,,,,,,,,,,,,,,,0.00000000000000E+00,0.00000000000000E+00,0.00000000000000E+00,0.00000000000000E+00,0.00000000000000E+00,0.00000000000000E+00,0.00000000000000E+00,0.00000000000000E+00,0.00000000000000E+00,0.00000000000000E+00,,,
NY.ADJ.DNGY.GN.ZS,,,,,,,,,,,,,,,,,,,,,,,,,,,,,,,,,,,,,,,,0.00000000000000E+00,0.00000000000000E+00,0.00000000000000E+00,0.00000000000000E+00,0.00000000000000E+00,0.00000000000000E+00,0.00000000000000E+00,0.00000000000000E+00,0.00000000000000E+00,0.00000000000000E+00,,,
NY.ADJ.DPEM.CD,,,,,,,,,,,,,,,,,,,,,,,,,,,,,,,,,,,,,,,,,,,,,0.00000000000000E+00,,,,,,,
NY.ADJ.DPEM.GN.ZS,,,,,,,,,,,,,,,,,,,,,,,,,,,,,,,,,,,,,,,,,,,,,0.00000000000000E+00,,,,,,,
NY.GDP.COAL.RT.ZS,,,,,,,,,,,,,,,,,,,,,,,,,,,,,,,,,,,,,,,,0.00000000000000E+00,0.00000000000000E+00,0.00000000000000E+00,0.00000000000000E+00,0.00000000000000E+00,0.00000000000000E+00,0.00000000000000E+00,0.00000000000000E+00,0.00000000000000E+00,0.00000000000000E+00,,,
NY.GDP.DEFL.KD.ZG,,,,,,,,,,,,7.17914998173146E+00,5.63265654701834E+00,1.27386960906440E+01,2.02464524658808E+01,1.69831165325425E+01,1.74542226436001E+01,1.84768862624804E+01,1.39455038740195E+01,1.54509988145386E+01,2.08157053077570E+01,1.87868932789988E+01,1.75410528094645E+01,1.50969028805761E+01,1.07619034442780E+01,9.17452494987208E+00,7.48846251168263E+00,6.00925890747706E+00,6.65040624811233E+00,6.19731446067264E+00,8.39439457391975E+00,7.54144731171402E+00,4.39976733977217E+00,4.26035508540323E+00,3.87117913513974E+00,5.33015179581497E+00,3.99804032775614E+00,1.69422391680740E+00,1.72965744542905E+00,1.56861191148741E+00,2.62872344149257E+00,2.69384745048467E+00,2.37561650168946E+00,2.41355589014056E+00,1.93239981811615E+00,1.87753392277430E+00,1.94710076833789E+00,1.74037120712572E+00,3.23051890808159E+00,,,
NY.GDP.DEFL.ZS,,,,,,,,,,,9.26361491467865E+00,9.92866372313347E+00,1.04879112503660E+01,1.18239343908066E+01,1.42178616468382E+01,1.66324976587563E+01,1.95355708313073E+01,2.31451360345342E+01,2.63728418768772E+01,3.04477093626337E+01,3.67856148165219E+01,4.36964890141254E+01,5.13613132279750E+01,5.91152808041909E+01,6.54772102451518E+01,7.14844332355734E+01,7.68375182201081E+01,8.14548836280342E+01,8.68719642982256E+01,9.22556931039500E+01,1.00000000000000E+02,1.07541447311714E+02,1.12273020787253E+02,1.17056250137899E+02,1.21587707269614E+02,1.28068516632136E+02,1.33188747574247E+02,1.35445263190147E+02,1.37788002269396E+02,1.39949361285594E+02,1.43628242951928E+02,1.47497368712864E+02,1.51001340543565E+02,1.54645842292445E+02,1.57634218267629E+02,1.60593854189503E+02,1.63720778358331E+02,1.66570127644961E+02,1.71951207113747E+02,,,
NY.GDP.MINR.RT.ZS,,,,,,,,,,,,,,,,,,,,,,,,,,,,,,,,,,,,,,,,0.00000000000000E+00,0.00000000000000E+00,0.00000000000000E+00,0.00000000000000E+00,0.00000000000000E+00,0.00000000000000E+00,0.00000000000000E+00,0.00000000000000E+00,0.00000000000000E+00,0.00000000000000E+00,,,
NY.GDP.MKTP.CD,,,,,,,,,,,,,,,,,,,,,,,,,,,,,,,,,,,,,,,,8.53373879731819E+08,7.73907642414748E+08,8.15205233062791E+08,8.79957209923907E+08,1.12298152535502E+09,1.31735783461634E+09,1.37541660448689E+09,1.46907539831891E+09,1.68765398302765E+09,1.89980957961037E+09,,,
NY.GDP.MKTP.CN,,,,,,,,,,,1.75656770000000E+07,1.91690180000000E+07,2.09960430000000E+07,2.53574030000000E+07,3.21684270000000E+07,3.68450670000000E+07,4.63597210000000E+07,5.63318540000000E+07,6.62673790000000E+07,8.10655720000000E+07,1.01299217000000E+08,1.21346086000000E+08,1.43221373000000E+08,1.66770678000000E+08,1.90677100000000E+08,2.13995798000000E+08,2.36599266000000E+08,2.58823204000000E+08,2.87613712000000E+08,3.15787608000000E+08,3.49323241000000E+08,3.81425923000000E+08,4.01287011000000E+08,4.54998528000000E+08,5.05611304000000E+08,5.82046925000000E+08,6.34725529000000E+08,6.61000000000000E+08,7.23000000000000E+08,8.01000000000000E+08,8.40000000000000E+08,9.11000000000000E+08,9.35000000000000E+08,9.95000000000000E+08,1.06100000000000E+09,1.10600000000000E+09,1.17100000000000E+09,1.23300000000000E+09,1.29700000000000E+09,,,
NY.GDP.MKTP.KD,,,,,,,,,,,2.50919316763026E+08,2.55481090046504E+08,2.64909874466966E+08,2.83786974918257E+08,2.99395479024945E+08,2.93137632897253E+08,3.14025130486594E+08,3.22065351009804E+08,3.32500696862014E+08,3.52315315644156E+08,3.64399494976759E+08,3.67475954541883E+08,3.68995789294060E+08,3.73310009257890E+08,3.85352399644312E+08,3.96135226928205E+08,4.07464484670369E+08,4.20470739311627E+08,4.38106445408031E+08,4.52951398182451E+08,4.62250274610713E+08,4.69336170918154E+08,4.72965422689683E+08,5.14357505105625E+08,5.50271224477726E+08,6.01402621497334E+08,6.30620563241827E+08,6.45784080786672E+08,6.94347043661829E+08,7.57375569946609E+08,7.73907642414748E+08,8.17304332643612E+08,8.19370841702129E+08,8.51401732109149E+08,8.90665404220978E+08,9.11330494806152E+08,9.46461148800946E+08,9.79525293737225E+08,9.98123875263881E+08,,,
NY.GDP.MKTP.KD.ZG,,,,,,,,,,,,1.81802395380592E+00,3.69059973039320E+00,7.12585761073430E+00,5.50007769425773E+00,-2.09016052883378E+00,7.12549166168046E+00,2.56037486896400E+00,3.24013304116433E+00,5.95927135465955E+00,3.42993301625548E+00,8.44254618223175E-01,4.13587537740256E-01,1.16917864349726E+00,3.22584181719674E+00,2.79817312513042E+00,2.85994705141874E+00,3.19199712627235E+00,4.19427666364511E+00,3.38843514630204E+00,2.05295236212419E+00,1.53291337975048E+00,7.73273401116754E-01,8.75160855957517E+00,6.98224853640011E+00,9.29203540820038E+00,4.85829969808711E+00,2.40453902532035E+00,7.51999999999995E+00,9.07738095238105E+00,2.18281036834922E+00,5.60747663551398E+00,2.52844500632094E-01,3.90920554854992E+00,4.61165048543685E+00,2.32018561484917E+00,3.85487528344667E+00,3.49344978165948E+00,1.89873417721518E+00,,,
NY.GDP.MKTP.KN,,,,,,,,,,,1.89620112254087E+08,1.93067451316100E+08,2.00192798153849E+08,2.14458251897237E+08,2.26253622373332E+08,2.21524558463428E+08,2.37309272405314E+08,2.43385279377701E+08,2.51271286232148E+08,2.66245224015065E+08,2.75377256857761E+08,2.77702142066319E+08,2.78850683517943E+08,2.82110946156881E+08,2.91211399028899E+08,2.99359998133842E+08,3.07921535573598E+08,3.17750382140281E+08,3.31077712267034E+08,3.42296065831063E+08,3.49323241000000E+08,3.54678063699867E+08,3.57420694826054E+08,3.88700754948144E+08,4.15840807721487E+08,4.54480882816714E+08,4.76560926174462E+08,4.88020019623755E+08,5.24719125099461E+08,5.72349879014740E+08,5.84843191517108E+08,6.17638136835824E+08,6.19199800898620E+08,6.43405593871959E+08,6.73077211065083E+08,6.88693851693043E+08,7.15242140760575E+08,7.40228765765312E+08,7.54283742330476E+08,,,
NY.GDP.NGAS.RT.ZS,,,,,,,,,,,,,,,,,,,,,,,,,,,,,,,,,,,,,,,,0.00000000000000E+00,0.00000000000000E+00,0.00000000000000E+00,0.00000000000000E+00,0.00000000000000E+00,0.00000000000000E+00,0.00000000000000E+00,0.00000000000000E+00,0.00000000000000E+00,0.00000000000000E+00,,,
NY.GDP.PCAP.CD,,,,,,,,,,,,,,,,,,,,,,,,,,,,,,,,,,,,,,,,3.21409317815457E+04,2.86983217419345E+04,2.95975468562898E+04,3.11478252070336E+04,3.87061498416235E+04,4.43226510536417E+04,4.53917891979437E+04,4.78199081513918E+04,5.44281608355419E+04,6.08952362206029E+04,,,
NY.GDP.PCAP.KD,,,,,,,,,,,1.31124224897066E+04,1.32380480878027E+04,1.36586684437724E+04,1.45793462583230E+04,1.53026056235597E+04,1.48544457736522E+04,1.57106829340901E+04,1.58551346925518E+04,1.60760381405993E+04,1.67338897902610E+04,1.70296053358613E+04,1.69289148450676E+04,1.67801632239227E+04,1.67742084591278E+04,1.71153630754747E+04,1.73926601215404E+04,1.76843229317464E+04,1.80428569907152E+04,1.85866719871041E+04,1.89940620699648E+04,1.91534878018858E+04,1.92020362866440E+04,1.90950552177998E+04,2.04939638658708E+04,2.16591051120887E+04,2.34209292584054E+04,2.43511048863508E+04,2.47645082174588E+04,2.64301718115728E+04,2.85253124156005E+04,2.86983217419345E+04,2.96737585827111E+04,2.90032509186269E+04,2.93455255268035E+04,2.99665367142513E+04,3.00759214153378E+04,3.08082793138552E+04,3.15904567916027E+04,3.19932006943997E+04,,,
NY.GDP.PCAP.KD.ZG,,,,,,,,,,,,9.58065515313251E-01,3.17735932956218E+00,6.74061178321045E+00,4.96084908350252E+00,-2.92865059018105E+00,5.76418113125885E+00,9.19449263075506E-01,1.39326125151918E+00,4.09212545969521E+00,1.76716561006836E+00,-5.91267318342474E-01,-8.78683734346168E-01,-3.54869301053782E-02,2.03380455881472E+00,1.62016455533507E+00,1.67693043023800E+00,2.02741185146076E+00,3.01401821601060E+00,2.19183984708708E+00,8.39345113929554E-01,2.53470726900346E-01,-5.57133979163652E-01,7.32602567583544E+00,5.68528984360267E+00,8.13433490072195E+00,3.97155730962973E+00,1.69767792072403E+00,6.72601119104712E+00,7.92707901773953E+00,6.06511591576364E-01,3.39893339251007E+00,-2.25959802906409E+00,1.18012497680640E+00,2.11620400827601E+00,3.65022832399802E-01,2.43503062933232E+00,2.53885479867000E+00,1.27489103894196E+00,,,
NY.GDP.PCAP.KN,,,,,,,,,,,9.90907777247528E+03,1.00040132294989E+04,1.03218766771771E+04,1.10176343127273E+04,1.15642025235539E+04,1.12255274380981E+04,1.18725871725692E+04,1.19817495878354E+04,1.21486866620968E+04,1.26458261620151E+04,1.28692988530592E+04,1.27932068948412E+04,1.26807950667550E+04,1.26762950418729E+04,1.29341061083233E+04,1.31436599110398E+04,1.33640699437350E+04,1.36350146816118E+04,1.40459765078713E+04,1.43538418178833E+04,1.44743200878429E+04,1.45110082521834E+04,1.44301624944913E+04,1.54873199039025E+04,1.63678189294453E+04,1.76992321371101E+04,1.84021672847999E+04,1.87145768157286E+04,1.99733213467116E+04,2.15566223123325E+04,2.16873657254091E+04,2.24245048410058E+04,2.19178011715911E+04,2.21764586175838E+04,2.26457577237428E+04,2.27284199100044E+04,2.32818638963763E+04,2.38729566151292E+04,2.41773107997460E+04,,,
NY.GDP.PETR.RT.ZS,,,,,,,,,,,,,,,,,,,,,,,,,,,,,,,,,,,,,,,,0.00000000000000E+00,0.00000000000000E+00,0.00000000000000E+00,0.00000000000000E+00,0.00000000000000E+00,0.00000000000000E+00,0.00000000000000E+00,0.00000000000000E+00,0.00000000000000E+00,0.00000000000000E+00,,,
NY.GDP.TOTL.RT.ZS,,,,,,,,,,,,,,,,,,,,,,,,,,,,,,,,,,,,,,,,0.00000000000000E+00,0.00000000000000E+00,0.00000000000000E+00,0.00000000000000E+00,0.00000000000000E+00,0.00000000000000E+00,0.00000000000000E+00,0.00000000000000E+00,0.00000000000000E+00,0.00000000000000E+00,,,
NY.GNP.ATLS.CD,,,,,,,,,,,,,,,,,,,,,,,,,,,,,,,,,,,,,,,,,,7.32452981977478E+08,7.34126439476274E+08,8.66179648816226E+08,1.06779957368448E+09,1.22311849689202E+09,1.31387920458283E+09,1.42421072729033E+09,1.57246472518689E+09,,,
NY.GNP.MKTP.CD,,,,,,,,,,,,,,,,,,,,,,,,,,,,,,,,,,,,,,,,7.55358402908689E+08,6.77169187112904E+08,7.06928797057745E+08,7.80197355109004E+08,1.00560456190083E+09,1.16960516513534E+09,1.20628761876337E+09,1.28842927612596E+09,1.49333566931289E+09,1.68106343928519E+09,,,
NY.GNP.MKTP.CN,,,,,,,,,,,1.61905180000000E+07,1.76675920000000E+07,1.93517070000000E+07,2.33716590000000E+07,2.96500430000000E+07,3.39598670000000E+07,4.27299390000000E+07,5.19208500000000E+07,6.10787780000000E+07,7.47179820000000E+07,9.33672630000000E+07,1.11844085000000E+08,1.32007137000000E+08,1.53712724000000E+08,1.75747116000000E+08,1.97240102000000E+08,2.18073082000000E+08,2.38557113000000E+08,2.65092889000000E+08,2.91060808000000E+08,3.21970928000000E+08,3.51559855000000E+08,3.69865986000000E+08,4.19372000000000E+08,4.66021000000000E+08,5.36472012000000E+08,5.85026007000000E+08,6.03895502000000E+08,6.51998049000000E+08,7.09000000000000E+08,7.35000000000000E+08,7.90000000000000E+08,8.29000000000000E+08,8.91000000000000E+08,9.42000000000000E+08,9.70000000000000E+08,1.02700697600000E+09,1.09103104000000E+09,1.14766201000000E+09,,,
NY.GNP.MKTP.KD,,,,,,,,,,,,,,,,,,,,,,,,,,,,,,,,,,,,,,,,,6.77169187112904E+08,,,,,,,,,,,
NY.GNP.PCAP.CD,,,,,,,,,,,,,,,,,,,,,,,,,,,,,,,,,,,,,,,,,,2.65900000000000E+04,2.59900000000000E+04,2.98500000000000E+04,3.59300000000000E+04,4.03700000000000E+04,4.27700000000000E+04,4.59300000000000E+04,5.04000000000000E+04,,,
NY.GNP.PCAP.KD,,,,,,,,,,,,,,,,,,,,,,,,,,,,,,,,,,,,,,,,,2.51110315241927E+04,,,,,,,,,,,
PA.NUS.ATLS,,,,,,,,,,,,,,,,,,,,,,,,,,,,,,,,,,,,,,,,9.38627275833333E-01,1.08540083333333E+00,1.11751000000000E+00,1.06255166666667E+00,8.86034166666667E-01,8.05400000000000E-01,8.04120000000000E-01,7.97100000000000E-01,7.30600000000000E-01,6.82700000000000E-01,,,
PA.NUS.FCRF,0.00000000000000E+00,0.00000000000000E+00,0.00000000000000E+00,0.00000000000000E+00,0.00000000000000E+00,0.00000000000000E+00,0.00000000000000E+00,0.00000000000000E+00,0.00000000000000E+00,0.00000000000000E+00,0.00000000000000E+00,0.00000000000000E+00,5.83217499999417E+02,5.82995833331917E+02,6.50343333331833E+02,6.52849166666000E+02,8.32334999999667E+02,8.82388333331250E+02,8.48663333330917E+02,8.30861666665917E+02,8.56447499997417E+02,1.13676499999958E+03,1.35250999999808E+03,1.51884833333283E+03,1.75696083333183E+03,1.90943916666400E+03,1.49080999999875E+03,1.29607000000000E+03,1.30162750000000E+03,1.37209333333333E+03,1.19810166666667E+03,1.24061333333333E+03,1.23240583333333E+03,1.57366586666667E+03,1.61244498333333E+03,1.62893315833333E+03,1.54294696666667E+03,1.70309690833333E+03,1.73620738333333E+03,9.38627275833333E-01,1.08540083333333E+00,1.11751000000000E+00,1.06255166666667E+00,8.86034166666667E-01,8.05365000000000E-01,8.04120000000000E-01,7.97140833333333E-01,7.30637500000000E-01,6.82674711239873E-01,7.19843359785615E-01,7.55044951989835E-01,
SE.ENR.PRIM.FM.ZS,,,,,,,,,,,,,,,,,,,,,,,,,,,,,,,,,,,,,,,,,,,,,,,,,,1.01344000000000E+02,,
SE.ENR.PRSC.FM.ZS,,,,,,,,,,,,,,,,,,,,,,,,,,,,,,,,,,,,,,,,,,,,,,,,,,1.02753000000000E+02,,
SE.ENR.SECO.FM.ZS,,,,,,,,,,,,,,,,,,,,,,,,,,,,,,,,,,,,,,,,,,,,,,,,,,1.03700000000000E+02,,
SE.PRE.ENRR,,,,,,,,,,,,,,,,,,,,,,,,,,,,,,,,,,,,,,,,,,,,,,,,,,1.05432600000000E+02,,
SE.PRE.ENRR.FE,,,,,,,,,,,,,,,,,,,,,,,,,,,,,,,,,,,,,,,,,,,,,,,,,,1.03070180000000E+02,,
SE.PRE.ENRR.MA,,,,,,,,,,,,,,,,,,,,,,,,,,,,,,,,,,,,,,,,,,,,,,,,,,1.07434940000000E+02,,
SE.PRM.AGES,,,,,,,,,,,6.00000000000000E+00,6.00000000000000E+00,6.00000000000000E+00,6.00000000000000E+00,6.00000000000000E+00,6.00000000000000E+00,6.00000000000000E+00,6.00000000000000E+00,6.00000000000000E+00,6.00000000000000E+00,6.00000000000000E+00,6.00000000000000E+00,6.00000000000000E+00,6.00000000000000E+00,6.00000000000000E+00,6.00000000000000E+00,6.00000000000000E+00,6.00000000000000E+00,6.00000000000000E+00,6.00000000000000E+00,6.00000000000000E+00,6.00000000000000E+00,6.00000000000000E+00,6.00000000000000E+00,6.00000000000000E+00,6.00000000000000E+00,6.00000000000000E+00,6.00000000000000E+00,6.00000000000000E+00,6.00000000000000E+00,6.00000000000000E+00,6.00000000000000E+00,6.00000000000000E+00,6.00000000000000E+00,6.00000000000000E+00,6.00000000000000E+00,6.00000000000000E+00,6.00000000000000E+00,6.00000000000000E+00,6.00000000000000E+00,6.00000000000000E+00,
se.PRM.CMPT.MA.ZS,,,,,,,,,,,,,,,,,,,,,,,,,,,,,,,,,,,,,,,,,,,,,,,,,,9.03954800000000E+01,,
se.PRM.CMPT.ZS,,,,,,,,,,,,,,,,,,,,,,,,,,,,,,,,,,,,,,,,,,,,,,,,,,9.16167700000000E+01,,
SE.PRM.DURS,,,,,,,,,,,5.00000000000000E+00,5.00000000000000E+00,5.00000000000000E+00,5.00000000000000E+00,5.00000000000000E+00,5.00000000000000E+00,5.00000000000000E+00,5.00000000000000E+00,5.00000000000000E+00,5.00000000000000E+00,5.00000000000000E+00,5.00000000000000E+00,5.00000000000000E+00,5.00000000000000E+00,5.00000000000000E+00,5.00000000000000E+00,5.00000000000000E+00,5.00000000000000E+00,5.00000000000000E+00,5.00000000000000E+00,5.00000000000000E+00,5.00000000000000E+00,5.00000000000000E+00,5.00000000000000E+00,5.00000000000000E+00,5.00000000000000E+00,5.00000000000000E+00,5.00000000000000E+00,5.00000000000000E+00,5.00000000000000E+00,5.00000000000000E+00,5.00000000000000E+00,5.00000000000000E+00,5.00000000000000E+00,5.00000000000000E+00,5.00000000000000E+00,5.00000000000000E+00,5.00000000000000E+00,5.00000000000000E+00,5.00000000000000E+00,5.00000000000000E+00,
SE.PRM.ENRL,,,,,,,,,,,,1.63900000000000E+03,1.65400000000000E+03,1.68300000000000E+03,1.69200000000000E+03,1.69800000000000E+03,1.69200000000000E+03,1.66300000000000E+03,1.62300000000000E+03,1.58800000000000E+03,1.53500000000000E+03,1.50900000000000E+03,1.48800000000000E+03,1.49300000000000E+03,1.45600000000000E+03,1.44000000000000E+03,1.41100000000000E+03,1.36300000000000E+03,1.28800000000000E+03,1.26600000000000E+03,1.22700000000000E+03,1.21200000000000E+03,1.20000000000000E+03,1.19000000000000E+03,1.16600000000000E+03,,1.13400000000000E+03,1.17000000000000E+03,,,1.24900000000000E+03,,,,1.44500000000000E+03,,,,1.57300000000000E+03,1.56800000000000E+03,1.57700000000000E+03,
SE.PRM.ENRL.FE.ZS,,,,,,,,,,,,,,,,,,,,,,,,,,,,,,,,,,,,,,,,,4.80384300000000E+01,,,,,,,,4.75524500000000E+01,4.75765300000000E+01,5.03487600000000E+01,
SE.PRM.ENRL.TC.ZS,,,,,,,,,,,,1.84157303370787E+01,,,,1.58691588785047E+01,,,,,1.16287878787879E+01,,,,,8.42105263157895E+00,,,,,6.16582914570000E+00,5.82692307692308E+00,,,,5.27522935780000E+00,,,,,5.36052000000000E+00,,,,6.33772000000000E+00,,,,6.34274000000000E+00,6.22222000000000E+00,6.46311000000000E+00,
SE.PRM.ENRR,,,,,,,,,,,,,,,,,,,,,,,,,,,,,,,,,,,,,,,,,,,,,,,,,,9.29460600000000E+01,,
SE.PRM.ENRR.FE,,,,,,,,,,,,,,,,,,,,,,,,,,,,,,,,,,,,,,,,,,,,,,,,,,9.36010000000000E+01,,
SE.PRM.ENRR.MA,,,,,,,,,,,,,,,,,,,,,,,,,,,,,,,,,,,,,,,,,,,,,,,,,,9.23595500000000E+01,,
SE.PRM.GINT.FE.ZS,,,,,,,,,,,,,,,,,,,,,,,,,,,,,,,,,,,,,,,,,,,,,,,,,,9.41605800000000E+01,,
SE.PRM.GINT.MA.ZS,,,,,,,,,,,,,,,,,,,,,,,,,,,,,,,,,,,,,,,,,,,,,,,,,,9.03225800000000E+01,,
SE.PRM.GINT.ZS,,,,,,,,,,,,,,,,,,,,,,,,,,,,,,,,,,,,,,,,,,,,,,,,,,9.19504600000000E+01,,
SE.PRM.NENR,,,,,,,,,,,,,,,,,,,,,,,,,,,,,,,,,,,,,,,,,,,,,,,,,,9.19976300000000E+01,,
SE.PRM.NENR.FE,,,,,,,,,,,,,,,,,,,,,,,,,,,,,,,,,,,,,,,,,,,,,,,,,,9.29736500000000E+01,,
SE.PRM.NENR.MA,,,,,,,,,,,,,,,,,,,,,,,,,,,,,,,,,,,,,,,,,,,,,,,,,,9.11236000000000E+01,,
SE.PRM.NINT.FE.ZS,,,,,,,,,,,,,,,,,,,,,,,,,,,,,,,,,,,,,,,,,,,,,,,,,,8.97810200000000E+01,,
SE.PRM.NINT.MA.ZS,,,,,,,,,,,,,,,,,,,,,,,,,,,,,,,,,,,,,,,,,,,,,,,,,,8.81720400000000E+01,,
SE.PRM.NINT.ZS,,,,,,,,,,,,,,,,,,,,,,,,,,,,,,,,,,,,,,,,,,,,,,,,,,8.88544900000000E+01,,
SE.PRM.PRS5.FE.ZS,,,,,,,,,,,,,,,,,,,,,,,,,,,,,,,,,,,,,,8.40909090909094E+01,,,,,,,,,,,,,,
SE.PRM.PRS5.MA.ZS,,,,,,,,,,,,,,,,,,,,,,,,,,,,,,,,,,,,,,7.70370370370373E+01,,,,,,,,,,,,,,
SE.PRM.PRS5.ZS,,,,,,,,,,,,,,,,,,,,,,,,,,,,,,,1.00000000000000E+02,,,,,,,8.05243445692887E+01,,,,,,,,,,,,,,
SE.PRM.REPT.FE.ZS,,,,,,,,,,,,,,,,,,,,,,,,,,,,,,,,,0.00000000000000E+00,0.00000000000000E+00,,,,,,,0.00000000000000E+00,,,,,,,,0.00000000000000E+00,0.00000000000000E+00,0.00000000000000E+00,
SE.PRM.REPT.MA.ZS,,,,,,,,,,,,,,,,,,,,,,,,,,,,,,,,,3.22060000000000E-01,6.49350000000000E-01,,,,,,,0.00000000000000E+00,,,,,,,,0.00000000000000E+00,0.00000000000000E+00,0.00000000000000E+00,
SE.PRM.REPT.ZS,,,,,,,,,,,,4.39292000000000E+00,1.87424000000000E+00,1.48544000000000E+00,,,,,,,,,,1.13865000000000E+00,4.12090000000000E-01,2.08330000000000E-01,2.83490000000000E-01,2.20100000000000E-01,6.98760000000000E-01,6.31910000000000E-01,3.26000000000000E-01,2.47520000000000E-01,1.66670000000000E-01,3.36130000000000E-01,4.28820000000000E-01,,8.81800000000000E-02,8.54700000000000E-02,,,0.00000000000000E+00,,,,0.00000000000000E+00,,,,0.00000000000000E+00,0.00000000000000E+00,0.00000000000000E+00,
SE.PRM.TCHR,,,,,,,,,,,,8.90000000000000E+01,9.70000000000000E+01,9.90000000000000E+01,9.90000000000000E+01,1.07000000000000E+02,1.16000000000000E+02,1.17000000000000E+02,1.32000000000000E+02,1.32000000000000E+02,1.32000000000000E+02,1.45000000000000E+02,1.60000000000000E+02,1.64000000000000E+02,1.65000000000000E+02,1.71000000000000E+02,1.58000000000000E+02,1.71000000000000E+02,1.84000000000000E+02,1.89000000000000E+02,1.99000000000000E+02,2.08000000000000E+02,2.18000000000000E+02,2.21000000000000E+02,2.19000000000000E+02,,2.17000000000000E+02,2.21000000000000E+02,,,2.33000000000000E+02,,,,2.28000000000000E+02,,,,2.48000000000000E+02,2.52000000000000E+02,2.44000000000000E+02,
SE.PRM.TCHR.FE.ZS,,,,,,,,,,,,8.08988800000000E+01,7.93814400000000E+01,8.18181800000000E+01,8.58585900000000E+01,8.50467300000000E+01,8.62069000000000E+01,8.46153800000000E+01,8.56060600000000E+01,8.63636400000000E+01,8.63636400000000E+01,8.82758600000000E+01,8.81250000000000E+01,8.96341500000000E+01,8.72727300000000E+01,8.83040900000000E+01,8.73417700000000E+01,8.88888900000000E+01,8.31521700000000E+01,8.46560800000000E+01,8.49246200000000E+01,8.94230800000000E+01,8.57798200000000E+01,8.82352900000000E+01,8.76712300000000E+01,,8.84792600000000E+01,8.91402700000000E+01,,,9.09871200000000E+01,,,,,,,,9.11290300000000E+01,9.08730200000000E+01,9.34426200000000E+01,
SE.PRM.TENR,,,,,,,,,,,,,,,,,,,,,,,,,,,,,,,,,,,,,,,,,,,,,,,,,,9.19976300000000E+01,,
SE.PRM.TENR.FE,,,,,,,,,,,,,,,,,,,,,,,,,,,,,,,,,,,,,,,,,,,,,,,,,,9.29736500000000E+01,,
SE.PRM.TENR.MA,,,,,,,,,,,,,,,,,,,,,,,,,,,,,,,,,,,,,,,,,,,,,,,,,,9.11236000000000E+01,,
SE.PRM.UNER,,,,,,,,,,,,,,,,,,,,,,,,,,,,,,,,,,,,,,,,,,,,,,,,,,1.35000000000000E+02,,
SE.PRM.UNER.FE,,,,,,,,,,,,,,,,,,,,,,,,,,,,,,,,,,,,,,,,,,,,,,,,,,5.60000000000000E+01,,
SE.PRM.UNER.MA,,,,,,,,,,,,,,,,,,,,,,,,,,,,,,,,,,,,,,,,,,,,,,,,,,7.90000000000000E+01,,
SE.SEC.AGES,,,,,,,,,,,1.10000000000000E+01,,,,,1.10000000000000E+01,,,,,1.10000000000000E+01,,,,,1.10000000000000E+01,,,,,1.10000000000000E+01,1.10000000000000E+01,,,,1.10000000000000E+01,,,1.10000000000000E+01,1.10000000000000E+01,1.10000000000000E+01,1.10000000000000E+01,1.10000000000000E+01,1.10000000000000E+01,1.10000000000000E+01,1.10000000000000E+01,1.10000000000000E+01,1.10000000000000E+01,1.10000000000000E+01,1.10000000000000E+01,1.10000000000000E+01,
SE.SEC.DURS,,,,,,,,,,,8.00000000000000E+00,,,,,8.00000000000000E+00,,,,,8.00000000000000E+00,,,,,8.00000000000000E+00,,,,,8.00000000000000E+00,8.00000000000000E+00,,,,8.00000000000000E+00,,,8.00000000000000E+00,8.00000000000000E+00,8.00000000000000E+00,8.00000000000000E+00,8.00000000000000E+00,8.00000000000000E+00,8.00000000000000E+00,8.00000000000000E+00,8.00000000000000E+00,8.00000000000000E+00,8.00000000000000E+00,8.00000000000000E+00,8.00000000000000E+00,
SE.SEC.ENRL,,,,,,,,,,,,,,,,,,,,,,,,,,,,,,,,1.18200000000000E+03,,,,,,,,,9.88000000000000E+02,,,,,,,,2.22300000000000E+03,2.28600000000000E+03,2.33400000000000E+03,
SE.SEC.ENRL.FE.ZS,,,,,,,,,,,,4.68368500000000E+01,4.60526300000000E+01,4.59981600000000E+01,4.63677100000000E+01,4.74561400000000E+01,4.74814200000000E+01,4.72563500000000E+01,4.59884200000000E+01,4.70342500000000E+01,4.77198700000000E+01,4.86464300000000E+01,4.55686900000000E+01,4.47228500000000E+01,4.59715600000000E+01,4.74603200000000E+01,4.78365400000000E+01,4.86906700000000E+01,4.84672700000000E+01,4.82816400000000E+01,4.87541500000000E+01,5.21150600000000E+01,4.93091500000000E+01,4.84038000000000E+01,4.75367300000000E+01,,4.77898200000000E+01,4.84899300000000E+01,,,4.92915000000000E+01,,,,,,,,4.87179500000000E+01,4.87751500000000E+01,4.82433600000000E+01,
SE.SEC.ENRL.GC,,,,,,,,,,,,,,,,,,,,,,,,,,,,,,,,,,,,,,,,,9.88000000000000E+02,,,,,,,,1.71000000000000E+03,1.76500000000000E+03,1.81700000000000E+03,
SE.SEC.ENRL.GC.FE.ZS,,,,,,,,,,,,,,,,,,,,,,,,,,,,,,,5.18790100824932E+01,5.55023923444976E+01,5.23996082272282E+01,5.10489510489511E+01,4.97987927565392E+01,,5.04725897920605E+01,5.08936970837253E+01,,,4.92915000000000E+01,,,,,,,,4.87179500000000E+01,,4.82433600000000E+01,
SE.SEC.ENRL.TC.ZS,,,,,,,,,,,,1.20133333333333E+01,,,,1.22580645161290E+01,,,,,1.09642857142857E+01,,,,,7.20000000000000E+00,,,,,,,,,,,,,,,,,,,,,,,1.46250000000000E+01,1.36886200000000E+01,1.44968900000000E+01,
SE.SEC.ENRL.VO,,,,,,,,,,,,,,,,,,,,,,,,,,,,,,,,,,,,,,,,,0.00000000000000E+00,,,,,,,,5.13000000000000E+02,5.21000000000000E+02,5.17000000000000E+02,
SE.SEC.ENRL.VO.FE.ZS,,,,,,,,,,,,,,,,,,,,,,,,,,,,,,,1.85840707964602E+01,2.62773722627737E+01,2.62773722627737E+01,3.16455696202532E+01,3.37423312883436E+01,,2.76595744680851E+01,2.86821705426357E+01,,,,,,,,,,,3.19688100000000E+01,3.53167000000000E+01,3.23017400000000E+01,
SE.SEC.ENRR,,,,,,,,,,,,,,,,,,,,,,,,,,,,,,,,,,,,,,,,,,,,,,,,,,9.55685600000000E+01,,
SE.SEC.ENRR.FE,,,,,,,,,,,,,,,,,,,,,,,,,,,,,,,,,,,,,,,,,,,,,,,,,,9.73799100000000E+01,,
SE.SEC.ENRR.MA,,,,,,,,,,,,,,,,,,,,,,,,,,,,,,,,,,,,,,,,,,,,,,,,,,9.39053700000000E+01,,
SE.SEC.PROG.FE.ZS,,,,,,,,,,,,,,,,,,,,,,,,,,,,,,,,,,,,,,,,,,,,,,,,,1.00000000000000E+02,9.94419100000000E+01,,
SE.SEC.PROG.MA.ZS,,,,,,,,,,,,,,,,,,,,,,,,,,,,,,,,,,,,,,,,,,,,,,,,,9.37287600000000E+01,1.00000000000000E+02,,
SE.SEC.PROG.ZS,,,,,,,,,,,,,,,,,,,,,,,,,,,,,,,,,,,9.80544747081712E+01,,1.00000000000000E+02,,,,,,,,,,,,9.66216200000000E+01,9.97337200000000E+01,,
SE.SEC.REPT.FE.ZS,,,,,,,,,,,,,,,,,,,,,,,,,,,,,,,,,,,,,0.00000000000000E+00,,,,0.00000000000000E+00,,,,,,,,0.00000000000000E+00,,0.00000000000000E+00,
SE.SEC.REPT.MA.ZS,,,,,,,,,,,,,,,,,,,,,,,,,,,,,,,,,,,,,1.71755725190840E+00,,,,0.00000000000000E+00,,,,,,,,0.00000000000000E+00,,0.00000000000000E+00,
SE.SEC.REPT.ZS,,,,,,,,,,,,3.32963000000000E+00,1.61943000000000E+00,2.29991000000000E+00,5.91928000000000E+00,3.77193000000000E+00,5.69777000000000E+00,,,,,,,,,5.23810000000000E+00,5.60897000000000E+00,,,,,,,,,,8.50660000000000E-01,,,,0.00000000000000E+00,,,,,,,,0.00000000000000E+00,,0.00000000000000E+00,
SE.SEC.TCHR,,,,,,,,,,,,7.50000000000000E+01,7.90000000000000E+01,8.30000000000000E+01,9.00000000000000E+01,9.30000000000000E+01,1.08000000000000E+02,,,1.10000000000000E+02,1.12000000000000E+02,1.12000000000000E+02,1.47000000000000E+02,1.70000000000000E+02,1.55000000000000E+02,1.75000000000000E+02,,1.79000000000000E+02,,,,,,,,,,,,,,,,,,,,,1.52000000000000E+02,1.67000000000000E+02,1.61000000000000E+02,
SE.SEC.TCHR.FE,,,,,,,,,,,,4.10000000000000E+01,4.20000000000000E+01,4.50000000000000E+01,4.80000000000000E+01,5.10000000000000E+01,6.20000000000000E+01,,,6.10000000000000E+01,6.90000000000000E+01,6.90000000000000E+01,7.90000000000000E+01,1.04000000000000E+02,8.80000000000000E+01,1.06000000000000E+02,,1.08000000000000E+02,,,,,,,,,,,,,,,,,,,,,1.16000000000000E+02,1.31000000000000E+02,1.25000000000000E+02,
SE.SEC.TCHR.FE.ZS,,,,,,,,,,,,5.46666700000000E+01,5.31645600000000E+01,5.42168700000000E+01,5.33333300000000E+01,5.48387100000000E+01,5.74074100000000E+01,,,5.54545500000000E+01,6.16071400000000E+01,6.16071400000000E+01,5.37415000000000E+01,6.11764700000000E+01,5.67741900000000E+01,6.05714300000000E+01,,6.03352000000000E+01,,,,,,,,,,,,,,,,,,,,,7.63157900000000E+01,7.84431100000000E+01,7.76397500000000E+01,
SE.XPD.TOTL.GB.ZS,,,,,,,,,,,1.34343774816834E+01,,,,,1.31268207249930E+01,,,,,7.50060749035871E+00,,,,1.06536424517699E+01,,,,,,,,,,,,,,,,,,,,,,,,,,,
SG.GEN.PARL.ZS,,,,,,,,,,,,,,,,,,,,,,,,,,,,,,,1.20000000000000E+01,,,,,,,1.20000000000000E+01,1.20000000000000E+01,1.30000000000000E+01,1.30000000000000E+01,1.30000000000000E+01,1.70000000000000E+01,1.70000000000000E+01,1.70000000000000E+01,1.67000000000000E+01,1.17000000000000E+01,1.17000000000000E+01,1.17000000000000E+01,1.50000000000000E+01,1.67000000000000E+01,1.67000000000000E+01
SH.DYN.MORT,,,,,,,,,,,,,,,,,,,,,,,1.85000000000000E+01,1.76000000000000E+01,1.69000000000000E+01,1.59000000000000E+01,1.50000000000000E+01,1.42000000000000E+01,1.35000000000000E+01,1.26000000000000E+01,1.19000000000000E+01,1.13000000000000E+01,1.06000000000000E+01,1.00000000000000E+01,9.40000000000000E+00,8.70000000000000E+00,7.90000000000000E+00,7.10000000000000E+00,6.50000000000000E+00,5.80000000000000E+00,5.30000000000000E+00,4.80000000000000E+00,4.30000000000000E+00,3.90000000000000E+00,3.50000000000000E+00,3.20000000000000E+00,2.90000000000000E+00,2.60000000000000E+00,2.40000000000000E+00,2.10000000000000E+00,1.90000000000000E+00,
SH.DYN.NMRT,,,,,,,,,,,,,,,,,,,,,,,,,,,,,,,5.00000000000000E+00,5.00000000000000E+00,5.00000000000000E+00,4.00000000000000E+00,4.00000000000000E+00,4.00000000000000E+00,3.00000000000000E+00,3.00000000000000E+00,3.00000000000000E+00,3.00000000000000E+00,2.00000000000000E+00,2.00000000000000E+00,2.00000000000000E+00,2.00000000000000E+00,1.00000000000000E+00,1.00000000000000E+00,1.00000000000000E+00,1.00000000000000E+00,1.00000000000000E+00,1.00000000000000E+00,1.00000000000000E+00,
SH.IMM.IDPT,,,,,,,,,,,,,,,,,,,,,,,,9.90000000000000E+01,9.90000000000000E+01,9.90000000000000E+01,9.90000000000000E+01,9.90000000000000E+01,9.90000000000000E+01,9.90000000000000E+01,9.90000000000000E+01,9.90000000000000E+01,9.90000000000000E+01,9.90000000000000E+01,8.80000000000000E+01,9.90000000000000E+01,9.90000000000000E+01,9.90000000000000E+01,9.90000000000000E+01,9.90000000000000E+01,9.60000000000000E+01,9.60000000000000E+01,9.60000000000000E+01,9.60000000000000E+01,9.80000000000000E+01,9.50000000000000E+01,9.50000000000000E+01,9.20000000000000E+01,8.70000000000000E+01,9.20000000000000E+01,9.20000000000000E+01,
SH.IMM.MEAS,,,,,,,,,,,,,,,,,,,,,,,,,,,,,,,,9.90000000000000E+01,9.90000000000000E+01,9.60000000000000E+01,9.70000000000000E+01,9.70000000000000E+01,9.80000000000000E+01,9.80000000000000E+01,9.90000000000000E+01,9.90000000000000E+01,7.40000000000000E+01,8.00000000000000E+01,8.50000000000000E+01,9.10000000000000E+01,9.80000000000000E+01,9.40000000000000E+01,9.40000000000000E+01,9.20000000000000E+01,7.30000000000000E+01,9.30000000000000E+01,9.30000000000000E+01,
SH.MED.BEDS.ZS,,,,,,,,,,,,,,,,,,,,,6.67199993133545E+00,,,,6.82000017166138E+00,6.76800012588500E+00,6.69999980926514E+00,6.65899991989136E+00,7.65700006484985E+00,7.44500017166138E+00,7.15999984740000E+00,,,,,,,,,,,,,,,,,,,,,
sh.MED.PHYS.ZS,,,,,,,,,,,,,,,,,,,,,2.05999994277954E+00,2.21799993515014E+00,2.18099999427795E+00,2.24699997901916E+00,2.16599988937377E+00,2.28699994087219E+00,2.39899992942810E+00,2.51900005340576E+00,2.53800010681152E+00,2.42300009727478E+00,4.73500000000000E+01,,,,,,,,,,,,,,,,,,,,,
SH.TBS.CURE.ZS,,,,,,,,,,,,,,,,,,,,,,,,,,,,,,,,,,,,,,1.00000000000000E+02,,,0.00000000000000E+00,,,,,,,,,,,
SH.TBS.DTEC.ZS,,,,,,,,,,,,,,,,,,,,,,,,,,,,,,,8.70000000000000E+01,8.70000000000000E+01,,8.70000000000000E+01,8.70000000000000E+01,8.70000000000000E+01,,8.70000000000000E+01,,,8.70000000000000E+01,,8.70000000000000E+01,8.70000000000000E+01,,,,,,,,
SH.TBS.INCD,,,,,,,,,,,,,,,,,,,,,,,,,,,,,,,4.80000000000000E+00,4.70000000000000E+00,,1.40000000000000E+01,9.10000000000000E+00,9.00000000000000E+00,0.00000000000000E+00,4.40000000000000E+00,0.00000000000000E+00,0.00000000000000E+00,4.30000000000000E+00,0.00000000000000E+00,4.10000000000000E+00,4.00000000000000E+00,0.00000000000000E+00,,,,,,,
SH.XPD.EXTR.ZS,,,,,,,,,,,,,,,,,,,,,,,,,,,,,,,,,,,,0.00000000000000E+00,0.00000000000000E+00,0.00000000000000E+00,0.00000000000000E+00,0.00000000000000E+00,0.00000000000000E+00,0.00000000000000E+00,0.00000000000000E+00,0.00000000000000E+00,0.00000000000000E+00,0.00000000000000E+00,0.00000000000000E+00,0.00000000000000E+00,0.00000000000000E+00,0.00000000000000E+00,,
SH.XPD.OOPC.TO.ZS,,,,,,,,,,,,,,,,,,,,,,,,,,,,,,,,,,,,1.27101916720133E+01,1.29351332941285E+01,1.40538936464933E+01,1.40030188353264E+01,1.34159238505346E+01,1.34590698552082E+01,1.34203366371363E+01,1.03727080363002E+01,1.37170044872362E+01,1.28104414058299E+01,1.36433055538363E+01,1.39918183435110E+01,1.39150270886798E+01,1.39150270886798E+01,1.39150270886798E+01,,
SH.XPD.OOPC.ZS,,,,,,,,,,,,,,,,,,,,,,,,,,,,,,,,,,,,9.52693823915900E+01,9.52380952380952E+01,9.49796472184532E+01,9.57766898772884E+01,9.58748141114538E+01,9.59970523247932E+01,9.61291851665214E+01,9.60906516542792E+01,9.61333785234166E+01,9.53424532172679E+01,9.55642712783239E+01,9.56627482772598E+01,9.62524654832347E+01,9.62524654832347E+01,9.62524654832347E+01,,
SH.XPD.PCAP,,,,,,,,,,,,,,,,,,,,,,,,,,,,,,,,,,,,2.11420933292562E+03,2.31249148944382E+03,2.17000714502306E+03,2.26553133495762E+03,2.39023515901329E+03,2.15014108706625E+03,2.17640098655003E+03,2.90172866183481E+03,2.82847376661494E+03,3.34625011403439E+03,3.42329228540489E+03,3.44929712644025E+03,3.87753405197996E+03,4.33596980299121E+03,4.08927133489889E+03,,
SH.XPD.PRIV.ZS,,,,,,,,,,,,,,,,,,,,,,,,,,,,,,,,,,,,1.04596377688964E+00,1.02564017083989E+00,1.11497730711044E+00,1.08308650013831E+00,1.04172463832709E+00,1.05409982640000E+00,1.02770595115258E+00,1.00172787711230E+00,1.04544866836583E+00,1.01820568708765E+00,1.06912322513562E+00,1.05337318531170E+00,1.02798053527981E+00,1.02798053527981E+00,1.02798053527981E+00,,
SH.XPD.PUBL,,,,,,,,,,,,,,,,,,,,,,,,,,,,,,,,,,,,8.66586815691005E+01,8.64181100411651E+01,8.52032576893349E+01,8.53795126420975E+01,8.60068319559518E+01,8.59797050750358E+01,8.60392693291962E+01,8.92052891121816E+01,8.57312780452265E+01,8.65637594025011E+01,8.57234242763165E+01,8.53738068417620E+01,8.55431993156544E+01,8.55431993156544E+01,8.55431993156544E+01,,
SH.XPD.PUBL.GX.ZS,,,,,,,,,,,,,,,,,,,,,,,,,,,,,,,,,,,,1.78370191249436E+01,1.84095438222222E+01,1.84514177391304E+01,1.94179040339703E+01,2.06217998793727E+01,2.04365826119684E+01,2.02243252716439E+01,1.81322388395367E+01,1.49542638793514E+01,1.47134678967351E+01,1.43987374265884E+01,1.37910328087717E+01,1.36432983737764E+01,1.36432983737764E+01,1.36432983737764E+01,,
SH.XPD.PUBL.ZS,,,,,,,,,,,,,,,,,,,,,,,,,,,,,,,,,,,,6.79406929260901E+00,6.52588744386237E+00,6.42031177004539E+00,6.32491894882434E+00,6.40279853932584E+00,6.46428571428571E+00,6.33369923161361E+00,8.27807486631016E+00,6.28140703517588E+00,6.55984919886899E+00,6.41952983725136E+00,6.14859094790777E+00,6.08272506082725E+00,6.08272506082725E+00,6.08272506082725E+00,,
SH.XPD.TOTL.ZS,,,,,,,,,,,,,,,,,,,,,,,,,,,,,,,,,,,,7.84003306949865E+00,7.55152761470226E+00,7.53528907715583E+00,7.40800544896266E+00,7.44452317765293E+00,7.51838554068571E+00,7.36140518276619E+00,9.27980274342246E+00,7.32685570354171E+00,7.57805488595664E+00,7.48865306238698E+00,7.20196413321947E+00,7.11070559610706E+00,7.11070559610706E+00,7.11070559610706E+00,,
SL.AGR.EMPL.FE.ZS,,,,,,,,,,,,,,,,,,,,,5.70000000000000E+00,5.30000000000000E+00,5.10000000000000E+00,5.00000000000000E+00,4.70000000000000E+00,3.70000000000000E+00,3.40000000000000E+00,3.20000000000000E+00,3.10000000000000E+00,2.70000000000000E+00,2.70000000000000E+00,2.50000000000000E+00,2.30000000000000E+00,2.30000000000000E+00,,1.60000000000000E+00,1.50000000000000E+00,1.50000000000000E+00,1.40000000000000E+00,1.40000000000000E+00,,4.00000000000000E-01,3.00000000000000E-01,3.00000000000000E-01,3.00000000000000E-01,3.00000000000000E-01,3.00000000000000E-01,3.00000000000000E-01,2.00000000000000E-01,,,
SL.AGR.EMPL.MA.ZS,,,,,,,,,,,,,,,,,,,,,5.40000000000000E+00,5.40000000000000E+00,5.30000000000000E+00,5.20000000000000E+00,5.00000000000000E+00,3.30000000000000E+00,3.10000000000000E+00,3.00000000000000E+00,2.80000000000000E+00,2.60000000000000E+00,2.40000000000000E+00,2.20000000000000E+00,2.10000000000000E+00,1.90000000000000E+00,,1.50000000000000E+00,1.50000000000000E+00,1.40000000000000E+00,1.30000000000000E+00,1.30000000000000E+00,,5.00000000000000E-01,5.00000000000000E-01,4.00000000000000E-01,5.00000000000000E-01,6.00000000000000E-01,5.00000000000000E-01,5.00000000000000E-01,4.00000000000000E-01,,,
SL.AGR.EMPL.ZS,,,,,,,,,,,,,,,,,,,,,5.50000000000000E+00,5.40000000000000E+00,5.20000000000000E+00,5.10000000000000E+00,4.90000000000000E+00,3.50000000000000E+00,3.20000000000000E+00,3.00000000000000E+00,2.90000000000000E+00,2.70000000000000E+00,2.50000000000000E+00,2.30000000000000E+00,2.20000000000000E+00,2.10000000000000E+00,,1.50000000000000E+00,1.50000000000000E+00,1.40000000000000E+00,1.40000000000000E+00,1.30000000000000E+00,,5.00000000000000E-01,4.00000000000000E-01,4.00000000000000E-01,4.00000000000000E-01,5.00000000000000E-01,4.00000000000000E-01,4.00000000000000E-01,3.00000000000000E-01,,,
SL.EMP.INSV.FE.ZS,,,,,,,,,,,,,,,,,,,,,,,,,,,,,,,4.04000000000000E+01,4.08000000000000E+01,4.05000000000000E+01,4.03000000000000E+01,,3.99000000000000E+01,3.99000000000000E+01,4.05000000000000E+01,4.04000000000000E+01,4.12000000000000E+01,,4.15000000000000E+01,4.17000000000000E+01,4.19000000000000E+01,4.22000000000000E+01,4.21000000000000E+01,4.21000000000000E+01,4.22000000000000E+01,4.22000000000000E+01,4.31000000000000E+01,,
SL.EMP.SELF.FE.ZS,,,,,,,,,,,,,,,,,,,,,,,,,,,,,,,,,,,,1.46000000000000E+01,1.40000000000000E+01,1.31000000000000E+01,1.24000000000000E+01,1.14000000000000E+01,,9.20000000000000E+00,9.00000000000000E+00,8.70000000000000E+00,8.20000000000000E+00,8.10000000000000E+00,7.70000000000000E+00,7.10000000000000E+00,6.80000000000000E+00,,,
SL.EMP.SELF.MA.ZS,,,,,,,,,,,,,,,,,,,,,,,,,,,,,,,,,,,,1.70000000000000E+01,1.69000000000000E+01,1.66000000000000E+01,1.57000000000000E+01,1.54000000000000E+01,,1.33000000000000E+01,1.36000000000000E+01,1.34000000000000E+01,1.31000000000000E+01,1.27000000000000E+01,1.17000000000000E+01,1.13000000000000E+01,1.09000000000000E+01,,,
SL.EMP.SELF.ZS,,,,,,,,,,,,,,,,,,,,,,,,,,,,,,,,,,,,1.61000000000000E+01,1.58000000000000E+01,1.52000000000000E+01,1.44000000000000E+01,1.38000000000000E+01,,1.17000000000000E+01,1.17000000000000E+01,1.15000000000000E+01,1.11000000000000E+01,1.08000000000000E+01,1.01000000000000E+01,9.60000000000000E+00,9.20000000000000E+00,,,
SL.EMP.WORK.FE.ZS,,,,,,,,,,,,,,,,,,,,,,,,,,,,,,,,,,,,8.26000000000000E+01,8.35000000000000E+01,8.43000000000000E+01,8.54000000000000E+01,8.64000000000000E+01,,9.08000000000000E+01,9.10000000000000E+01,9.12000000000000E+01,9.19000000000000E+01,9.19000000000000E+01,9.23000000000000E+01,9.29000000000000E+01,9.32000000000000E+01,,,
SL.EMP.WORK.MA.ZS,,,,,,,,,,,,,,,,,,,,,,,,,,,,,,,,,,,,7.71000000000000E+01,7.77000000000000E+01,7.81000000000000E+01,7.93000000000000E+01,8.02000000000000E+01,,8.67000000000000E+01,8.64000000000000E+01,8.66000000000000E+01,8.69000000000000E+01,8.73000000000000E+01,8.83000000000000E+01,8.87000000000000E+01,8.91000000000000E+01,,,
SL.EMP.WORK.ZS,,,,,,,,,,,,,,,,,,,,,,,,,,,,,,,,,,,,7.92000000000000E+01,7.99000000000000E+01,8.05000000000000E+01,8.16000000000000E+01,8.27000000000000E+01,,8.83000000000000E+01,8.83000000000000E+01,8.85000000000000E+01,8.89000000000000E+01,8.92000000000000E+01,8.99000000000000E+01,9.04000000000000E+01,9.08000000000000E+01,,,
SL.FAM.WORK.FE.ZS,,,,,,,,,,,,,,,,,,,,,,,,,,,,,,,,,,,,6.00000000000000E-01,5.00000000000000E-01,3.00000000000000E-01,3.00000000000000E-01,3.00000000000000E-01,,0.00000000000000E+00,0.00000000000000E+00,0.00000000000000E+00,0.00000000000000E+00,0.00000000000000E+00,0.00000000000000E+00,0.00000000000000E+00,0.00000000000000E+00,,,
SL.FAM.WORK.MA.ZS,,,,,,,,,,,,,,,,,,,,,,,,,,,,,,,,,,,,2.00000000000000E-01,2.00000000000000E-01,1.00000000000000E-01,1.00000000000000E-01,1.00000000000000E-01,,0.00000000000000E+00,0.00000000000000E+00,0.00000000000000E+00,0.00000000000000E+00,0.00000000000000E+00,0.00000000000000E+00,0.00000000000000E+00,0.00000000000000E+00,,,
SL.FAM.WORK.ZS,,,,,,,,,,,,,,,,,,,,,,,,,,,,,,,,,,,,3.00000000000000E-01,3.00000000000000E-01,2.00000000000000E-01,2.00000000000000E-01,2.00000000000000E-01,,0.00000000000000E+00,0.00000000000000E+00,0.00000000000000E+00,0.00000000000000E+00,0.00000000000000E+00,0.00000000000000E+00,0.00000000000000E+00,0.00000000000000E+00,,,
SL.IND.EMPL.FE.ZS,,,,,,,,,,,,,,,,,,,,,4.39000000000000E+01,4.29000000000000E+01,4.12000000000000E+01,4.01000000000000E+01,3.82000000000000E+01,3.88000000000000E+01,3.74000000000000E+01,3.63000000000000E+01,3.47000000000000E+01,3.37000000000000E+01,3.17000000000000E+01,3.08000000000000E+01,2.88000000000000E+01,2.79000000000000E+01,,2.72000000000000E+01,2.62000000000000E+01,2.57000000000000E+01,2.50000000000000E+01,2.45000000000000E+01,,2.42000000000000E+01,2.38000000000000E+01,2.43000000000000E+01,2.42000000000000E+01,2.34000000000000E+01,2.33000000000000E+01,2.20000000000000E+01,2.11000000000000E+01,,,
SL.IND.EMPL.MA.ZS,,,,,,,,,,,,,,,,,,,,,5.20000000000000E+01,5.17000000000000E+01,5.08000000000000E+01,4.98000000000000E+01,5.04000000000000E+01,5.17000000000000E+01,5.18000000000000E+01,5.15000000000000E+01,5.16000000000000E+01,5.16000000000000E+01,5.16000000000000E+01,5.14000000000000E+01,5.04000000000000E+01,5.06000000000000E+01,,4.95000000000000E+01,4.99000000000000E+01,4.96000000000000E+01,5.04000000000000E+01,5.04000000000000E+01,,5.27000000000000E+01,5.22000000000000E+01,5.27000000000000E+01,5.24000000000000E+01,5.04000000000000E+01,4.96000000000000E+01,4.87000000000000E+01,4.79000000000000E+01,,,
SL.IND.EMPL.ZS,,,,,,,,,,,,,,,,,,,,,4.91000000000000E+01,4.85000000000000E+01,4.73000000000000E+01,4.62000000000000E+01,4.58000000000000E+01,4.68000000000000E+01,4.63000000000000E+01,4.55000000000000E+01,4.49000000000000E+01,4.46000000000000E+01,4.38000000000000E+01,4.33000000000000E+01,4.19000000000000E+01,4.16000000000000E+01,,4.10000000000000E+01,4.08000000000000E+01,4.04000000000000E+01,4.06000000000000E+01,4.02000000000000E+01,,4.12000000000000E+01,4.07000000000000E+01,4.12000000000000E+01,4.09000000000000E+01,3.93000000000000E+01,3.88000000000000E+01,3.77000000000000E+01,3.69000000000000E+01,,,
SL.SRV.EMPL.FE.ZS,,,,,,,,,,,,,,,,,,,,,5.05000000000000E+01,5.18000000000000E+01,5.37000000000000E+01,5.49000000000000E+01,5.70000000000000E+01,5.76000000000000E+01,5.92000000000000E+01,6.06000000000000E+01,6.22000000000000E+01,6.35000000000000E+01,6.57000000000000E+01,6.67000000000000E+01,6.89000000000000E+01,6.98000000000000E+01,,6.84000000000000E+01,6.98000000000000E+01,7.02000000000000E+01,7.13000000000000E+01,7.19000000000000E+01,,7.54000000000000E+01,7.58000000000000E+01,7.52000000000000E+01,7.55000000000000E+01,7.63000000000000E+01,7.64000000000000E+01,7.77000000000000E+01,7.86000000000000E+01,,,
SL.SRV.EMPL.MA.ZS,,,,,,,,,,,,,,,,,,,,,4.26000000000000E+01,4.29000000000000E+01,4.39000000000000E+01,4.50000000000000E+01,4.46000000000000E+01,4.50000000000000E+01,4.51000000000000E+01,4.56000000000000E+01,4.56000000000000E+01,4.58000000000000E+01,4.60000000000000E+01,4.64000000000000E+01,4.75000000000000E+01,4.75000000000000E+01,,4.31000000000000E+01,4.33000000000000E+01,4.36000000000000E+01,4.33000000000000E+01,4.39000000000000E+01,,4.68000000000000E+01,4.72000000000000E+01,4.67000000000000E+01,4.72000000000000E+01,4.91000000000000E+01,4.99000000000000E+01,5.08000000000000E+01,5.16000000000000E+01,,,
SL.SRV.EMPL.ZS,,,,,,,,,,,,,,,,,,,,,4.54000000000000E+01,4.62000000000000E+01,4.75000000000000E+01,4.87000000000000E+01,4.93000000000000E+01,4.97000000000000E+01,5.05000000000000E+01,5.14000000000000E+01,5.22000000000000E+01,5.28000000000000E+01,5.37000000000000E+01,5.44000000000000E+01,5.60000000000000E+01,5.63000000000000E+01,,5.28000000000000E+01,5.34000000000000E+01,5.39000000000000E+01,5.41000000000000E+01,5.49000000000000E+01,,5.83000000000000E+01,5.88000000000000E+01,5.83000000000000E+01,5.87000000000000E+01,6.02000000000000E+01,6.07000000000000E+01,6.18000000000000E+01,6.27000000000000E+01,,,
SL.TLF.PRIM.FE.ZS,,,,,,,,,,,,,,,,,,,,,,,,,,,,,,,,,,,,4.85000000000000E+01,4.71000000000000E+01,4.65000000000000E+01,4.38000000000000E+01,4.42000000000000E+01,,4.20000000000000E+01,4.10000000000000E+01,,,,,,,,,
SL.TLF.PRIM.MA.ZS,,,,,,,,,,,,,,,,,,,,,,,,,,,,,,,,,,,,6.67000000000000E+01,6.48000000000000E+01,6.36000000000000E+01,6.22000000000000E+01,6.23000000000000E+01,,5.78000000000000E+01,5.56000000000000E+01,,,,,,,,,
SL.TLF.PRIM.ZS,,,,,,,,,,,,,,,,,,,,,,,,,,,,,,,,,,,,5.95000000000000E+01,5.84000000000000E+01,5.67000000000000E+01,5.51000000000000E+01,5.50000000000000E+01,,5.10000000000000E+01,5.00000000000000E+01,,,,,,,,,
SL.TLF.SECO.FE.ZS,,,,,,,,,,,,,,,,,,,,,,,,,,,,,,,,,,,,1.82000000000000E+01,1.76000000000000E+01,1.69000000000000E+01,1.64000000000000E+01,1.43000000000000E+01,,4.57000000000000E+01,4.58000000000000E+01,,,,,,,,,
SL.TLF.SECO.MA.ZS,,,,,,,,,,,,,,,,,,,,,,,,,,,,,,,,,,,,5.90000000000000E+00,5.70000000000000E+00,5.60000000000000E+00,6.30000000000000E+00,6.10000000000000E+00,,3.28000000000000E+01,3.42000000000000E+01,,,,,,,,,
SL.TLF.SECO.ZS,,,,,,,,,,,,,,,,,,,,,,,,,,,,,,,,,,,,1.01000000000000E+01,1.04000000000000E+01,1.01000000000000E+01,1.03000000000000E+01,9.90000000000000E+00,,3.83000000000000E+01,3.90000000000000E+01,,,,,,,,,
SL.TLF.TERT.FE.ZS,,,,,,,,,,,,,,,,,,,,,,,,,,,,,,,,,,,,3.33000000000000E+01,3.53000000000000E+01,3.80000000000000E+01,3.84000000000000E+01,4.03000000000000E+01,,1.11000000000000E+01,1.08000000000000E+01,,,,,,,,,
SL.TLF.TERT.MA.ZS,,,,,,,,,,,,,,,,,,,,,,,,,,,,,,,,,,,,2.84000000000000E+01,2.95000000000000E+01,2.99000000000000E+01,3.15000000000000E+01,3.25000000000000E+01,,7.80000000000000E+00,8.50000000000000E+00,,,,,,,,,
SL.TLF.TERT.ZS,,,,,,,,,,,,,,,,,,,,,,,,,,,,,,,,,,,,3.04000000000000E+01,3.12000000000000E+01,3.26000000000000E+01,3.41000000000000E+01,3.56000000000000E+01,,9.20000000000000E+00,9.50000000000000E+00,,,,,,,,,
SL.UEM.PRIM.FE.ZS,,,,,,,,,,,,,,,,,,,,,,,,,,,,,,,,,,,,2.58000000000000E+01,3.15000000000000E+01,2.30000000000000E+01,2.64000000000000E+01,2.38000000000000E+01,,2.34000000000000E+01,3.65000000000000E+01,4.91000000000000E+01,4.64000000000000E+01,3.38000000000000E+01,3.10000000000000E+01,2.88000000000000E+01,,,,
SL.UEM.PRIM.MA.ZS,,,,,,,,,,,,,,,,,,,,,,,,,,,,,,,,,,,,1.75000000000000E+01,2.89000000000000E+01,2.24000000000000E+01,2.60000000000000E+01,2.23000000000000E+01,,2.38000000000000E+01,3.10000000000000E+01,4.14000000000000E+01,3.46000000000000E+01,3.17000000000000E+01,3.26000000000000E+01,2.81000000000000E+01,,,,
SL.UEM.PRIM.ZS,,,,,,,,,,,,,,,,,,,,,,,,,,,,,,,,,,,,2.40000000000000E+01,3.09000000000000E+01,2.29000000000000E+01,2.63000000000000E+01,2.34000000000000E+01,,2.35000000000000E+01,3.51000000000000E+01,4.70000000000000E+01,4.37000000000000E+01,3.32000000000000E+01,3.14000000000000E+01,2.86000000000000E+01,,,,
SL.UEM.SECO.FE.ZS,,,,,,,,,,,,,,,,,,,,,,,,,,,,,,,,,,,,1.30000000000000E+01,1.18000000000000E+01,1.11000000000000E+01,1.16000000000000E+01,1.16000000000000E+01,,5.29000000000000E+01,4.22000000000000E+01,2.86000000000000E+01,2.57000000000000E+01,3.58000000000000E+01,3.70000000000000E+01,3.79000000000000E+01,,,,
SL.UEM.SECO.MA.ZS,,,,,,,,,,,,,,,,,,,,,,,,,,,,,,,,,,,,8.70000000000000E+00,5.20000000000000E+00,7.20000000000000E+00,5.50000000000000E+00,8.30000000000000E+00,,5.24000000000000E+01,4.29000000000000E+01,3.45000000000000E+01,3.98000000000000E+01,4.50000000000000E+01,3.61000000000000E+01,4.84000000000000E+01,,,,
SL.UEM.SECO.ZS,,,,,,,,,,,,,,,,,,,,,,,,,,,,,,,,,,,,1.21000000000000E+01,1.03000000000000E+01,1.02000000000000E+01,1.01000000000000E+01,1.06000000000000E+01,,5.27000000000000E+01,4.24000000000000E+01,3.03000000000000E+01,2.89000000000000E+01,3.83000000000000E+01,3.68000000000000E+01,4.07000000000000E+01,,,,
SL.UEM.TERT.FE.ZS,,,,,,,,,,,,,,,,,,,,,,,,,,,,,,,,,,,,4.97000000000000E+01,5.67000000000000E+01,6.58000000000000E+01,6.20000000000000E+01,6.46000000000000E+01,,2.03000000000000E+01,2.11000000000000E+01,2.22000000000000E+01,2.79000000000000E+01,3.03000000000000E+01,3.17000000000000E+01,3.29000000000000E+01,,,,
SL.UEM.TERT.MA.ZS,,,,,,,,,,,,,,,,,,,,,,,,,,,,,,,,,,,,6.60000000000000E+01,6.59000000000000E+01,7.04000000000000E+01,6.85000000000000E+01,6.94000000000000E+01,,2.20000000000000E+01,2.61000000000000E+01,2.30000000000000E+01,2.56000000000000E+01,2.33000000000000E+01,3.13000000000000E+01,2.35000000000000E+01,,,,
SL.UEM.TERT.ZS,,,,,,,,,,,,,,,,,,,,,,,,,,,,,,,,,,,,5.31000000000000E+01,5.87000000000000E+01,6.69000000000000E+01,6.35000000000000E+01,6.60000000000000E+01,,2.08000000000000E+01,2.24000000000000E+01,2.25000000000000E+01,2.74000000000000E+01,2.85000000000000E+01,3.16000000000000E+01,3.04000000000000E+01,,,,
SL.UEM.TOTL.FE.ZS,,,,,,,,,,,,,,,,,,,,,,,,,,1.19000000000000E+01,1.14000000000000E+01,1.03000000000000E+01,9.80000000000000E+00,8.90000000000000E+00,9.00000000000000E+00,6.30000000000000E+00,6.30000000000000E+00,7.20000000000000E+00,,5.90000000000000E+00,6.80000000000000E+00,5.60000000000000E+00,5.80000000000000E+00,,,,,,,,5.10000000000000E+00,4.50000000000000E+00,,,,
SL.UEM.TOTL.MA.ZS,,,,,,,,,,,,,,,,,,,,,,,,,,2.80000000000000E+00,3.00000000000000E+00,2.50000000000000E+00,2.40000000000000E+00,1.90000000000000E+00,2.00000000000000E+00,1.90000000000000E+00,1.60000000000000E+00,2.00000000000000E+00,,1.00000000000000E+00,1.30000000000000E+00,1.20000000000000E+00,1.20000000000000E+00,,,,,,,,1.20000000000000E+00,1.20000000000000E+00,,,,
SL.UEM.TOTL.ZS,,,,,,,,,,,,,,,,,,,,,,,,,,6.50000000000000E+00,6.40000000000000E+00,5.70000000000000E+00,5.50000000000000E+00,4.70000000000000E+00,4.90000000000000E+00,3.70000000000000E+00,3.60000000000000E+00,4.10000000000000E+00,,2.90000000000000E+00,3.50000000000000E+00,2.90000000000000E+00,3.00000000000000E+00,,,,,,,,2.80000000000000E+00,2.60000000000000E+00,,,,
SM.EMI.TERT.ZS,,,,,,,,,,,,,,,,,,,,,,,,,,,,,,,2.25889593986178E+01,,,,,,,,,,1.50571210199362E+01,,,,,,,,,,,
SM.POP.REFG.OR,,,,,,,,,,,,,,,,,,,,,,,,,,,,,,,,,,,,,,2.00000000000000E+00,4.00000000000000E+00,4.00000000000000E+00,4.00000000000000E+00,,3.00000000000000E+00,1.00000000000000E+00,1.00000000000000E+00,1.00000000000000E+00,2.00000000000000E+00,2.00000000000000E+00,1.00000000000000E+00,1.00000000000000E+00,2.00000000000000E+00,
SM.POP.TOTL,7.52700000000000E+03,,,,,7.71800000000000E+03,,,,,7.91400000000000E+03,,,,,8.11500000000000E+03,,,,,8.32000000000000E+03,,,,,8.53000000000000E+03,,,,,8.74500000000000E+03,,,,,8.96600000000000E+03,,,,,9.19200000000000E+03,,,,,1.13960000000000E+04,,,,,1.16830000000000E+04,
SM.POP.TOTL.ZS,4.89020270270270E+01,,,,,4.42571248351396E+01,,,,,4.13566053511706E+01,,,,,4.11219215567042E+01,,,,,3.88821385176185E+01,,,,,3.74517035475940E+01,,,,,3.62351868732908E+01,,,,,3.49170496144560E+01,,,,,3.40861052397375E+01,,,,,3.76093198244282E+01,,,,,3.70488996004313E+01,
SP.DYN.CBRT.IN,,,,,,,,,,,,,,,,,,,,,,,,,,,,,,,,,,,,,,,,,,,,,1.04000000000000E+01,9.50000000000000E+00,1.00000000000000E+01,9.40000000000000E+00,1.10000000000000E+01,1.10000000000000E+01,,
SP.DYN.CDRT.IN,,,,,,,,,,,,,,,,,,,,,,,,,,,,,,,,,,,,,,,,,,,,,6.30000000000000E+00,7.30000000000000E+00,7.50000000000000E+00,7.20000000000000E+00,6.00000000000000E+00,6.00000000000000E+00,,
SP.DYN.IMRT.IN,,,,,,,,,,,,,,,,,,,,,,,1.65000000000000E+01,1.57000000000000E+01,1.51000000000000E+01,1.42000000000000E+01,1.34000000000000E+01,1.27000000000000E+01,1.21000000000000E+01,1.12000000000000E+01,1.06000000000000E+01,1.01000000000000E+01,9.40000000000000E+00,8.90000000000000E+00,8.40000000000000E+00,7.70000000000000E+00,7.00000000000000E+00,6.30000000000000E+00,5.80000000000000E+00,5.20000000000000E+00,4.70000000000000E+00,4.30000000000000E+00,3.80000000000000E+00,3.50000000000000E+00,3.10000000000000E+00,2.80000000000000E+00,2.60000000000000E+00,2.30000000000000E+00,2.10000000000000E+00,1.90000000000000E+00,1.70000000000000E+00,
SP.DYN.LE00.FE.IN,,,,,,,,,,,,,,,,,,,,,,,,,,,,,,,,,,,,,8.25000000000000E+01,8.27000000000000E+01,8.34000000000000E+01,8.37000000000000E+01,8.40000000000000E+01,8.42000000000000E+01,8.45000000000000E+01,8.46000000000000E+01,8.50000000000000E+01,8.51000000000000E+01,8.51000000000000E+01,8.54000000000000E+01,8.57000000000000E+01,8.59127272727273E+01,,
SP.DYN.LE00.IN,,,,,,,,,,,,,,,,,,,,,,,,,,,,,,,,,,,,,7.91195121951220E+01,7.94731707317073E+01,8.01731707317073E+01,8.05243902439024E+01,8.06195121951220E+01,8.09731707317073E+01,8.11195121951220E+01,8.12195121951220E+01,8.17219512195122E+01,8.19756097560976E+01,8.21804878048781E+01,8.25060975609756E+01,8.28317073170732E+01,8.29955432372506E+01,,
SP.DYN.LE00.MA.IN,,,,,,,,,,,,,,,,,,,,,,,,,,,,,,,,,,,,,7.59000000000000E+01,7.64000000000000E+01,7.71000000000000E+01,7.75000000000000E+01,7.74000000000000E+01,7.79000000000000E+01,7.79000000000000E+01,7.80000000000000E+01,7.86000000000000E+01,7.90000000000000E+01,7.94000000000000E+01,7.97500000000000E+01,8.01000000000000E+01,8.02172727272727E+01,,
SP.POP.GROW,2.45318276999070E+00,2.52755773628601E+00,2.56408268837041E+00,2.55416036366426E+00,2.47880257846208E+00,2.36151497961448E+00,2.26219358566924E+00,2.15729979987808E+00,1.96121999799355E+00,1.63811255787202E+00,1.26740409667689E+00,8.48190332875174E-01,4.96201979495742E-01,3.60268017048847E-01,5.12427459995683E-01,8.60078077259912E-01,1.27890570469836E+00,1.61289816896594E+00,1.80510316455685E+00,1.77784590119465E+00,1.62068938872817E+00,1.43373294572105E+00,1.29530153930444E+00,1.19788979011479E+00,1.16150512857173E+00,1.15255962222015E+00,1.15678876878586E+00,1.13497819935384E+00,1.13921232046609E+00,1.16412803972911E+00,1.19632113923238E+00,1.26813293643997E+00,1.32899072534751E+00,1.31952904188326E+00,1.21972049131525E+00,1.06492275676230E+00,8.49253771194406E-01,6.92656788623413E-01,7.41196944112697E-01,1.06017425538780E+00,1.55464844972967E+00,2.11345235703008E+00,2.53804353663633E+00,2.66151502069000E+00,2.41435069334419E+00,1.92932029346789E+00,1.37657445619407E+00,9.26652561332231E-01,6.14100475035727E-01,5.14731702200296E-01,5.56502159661004E-01,
SP.POP.TOTL,1.53920000000000E+04,1.57860000000000E+04,1.61960000000000E+04,1.66150000000000E+04,1.70320000000000E+04,1.74390000000000E+04,1.78380000000000E+04,1.82270000000000E+04,1.85880000000000E+04,1.88950000000000E+04,1.91360000000000E+04,1.92990000000000E+04,1.93950000000000E+04,1.94650000000000E+04,1.95650000000000E+04,1.97340000000000E+04,1.99880000000000E+04,2.03130000000000E+04,2.06830000000000E+04,2.10540000000000E+04,2.13980000000000E+04,2.17070000000000E+04,2.19900000000000E+04,2.22550000000000E+04,2.25150000000000E+04,2.27760000000000E+04,2.30410000000000E+04,2.33040000000000E+04,2.35710000000000E+04,2.38470000000000E+04,2.41340000000000E+04,2.44420000000000E+04,2.47690000000000E+04,2.50980000000000E+04,2.54060000000000E+04,2.56780000000000E+04,2.58970000000000E+04,2.60770000000000E+04,2.62710000000000E+04,2.65510000000000E+04,2.69670000000000E+04,2.75430000000000E+04,2.82510000000000E+04,2.90130000000000E+04,2.97220000000000E+04,3.03010000000000E+04,3.07210000000000E+04,3.10070000000000E+04,3.11980000000000E+04,3.13590000000000E+04,3.15340000000000E+04,
SP.RUR.TOTL,7.86531200000000E+03,7.89300000000000E+03,7.91984400000000E+03,7.94197000000000E+03,7.95394400000000E+03,7.95218400000000E+03,7.94147760000000E+03,7.91780880000000E+03,7.87387680000000E+03,7.79985600000000E+03,7.69267200000000E+03,7.30660140000000E+03,6.88910400000000E+03,6.45848700000000E+03,6.03384600000000E+03,5.62419000000000E+03,5.30881280000000E+03,5.00106060000000E+03,4.69090440000000E+03,4.36659960000000E+03,4.02282400000000E+03,3.77267660000000E+03,3.50960400000000E+03,3.23587700000000E+03,2.95396800000000E+03,2.66479200000000E+03,2.59902480000000E+03,2.53081440000000E+03,2.46081240000000E+03,2.38946940000000E+03,2.31686400000000E+03,2.28288280000000E+03,2.24902520000000E+03,2.21364360000000E+03,2.17475360000000E+03,2.13127400000000E+03,2.06140120000000E+03,1.98706740000000E+03,1.91252880000000E+03,1.84263940000000E+03,1.77982200000000E+03,1.77927780000000E+03,1.78546320000000E+03,1.79300340000000E+03,1.79520880000000E+03,1.78775900000001E+03,1.80025060000000E+03,1.80460740000000E+03,1.80324440000000E+03,1.80000660000000E+03,1.79743800000000E+03,
SP.RUR.TOTL.ZG,1.32454654352193E+00,3.51408558134716E-01,3.39521793638444E-01,2.78984665322666E-01,1.50655096206216E-01,-2.21298358366177E-02,-1.34725425630405E-01,-2.98485278288327E-01,-5.56395491253889E-01,-9.44527398117777E-01,-1.38370845815633E+00,-5.14899465150467E+00,-5.88372078622501E+00,-6.45459531911821E+00,-6.80104614672129E+00,-7.03076806479249E+00,-5.77087056193883E+00,-5.97182221622661E+00,-6.40246102511875E+00,-7.16408170462235E+00,-8.20004390781962E+00,-6.41994205414476E+00,-7.22815124225385E+00,-8.12032220151413E+00,-9.11506373037129E+00,-1.03023345490031E+01,-2.49897080459398E+00,-2.65951495705849E+00,-2.80496088466362E+00,-2.94202064004832E+00,-3.08567857906047E+00,-1.47755168686373E+00,-1.49421523740756E+00,-1.58570321756698E+00,-1.77244749518963E+00,-2.01954477834766E+00,-3.33339772343170E+00,-3.67260622714992E+00,-3.82335380488351E+00,-3.72273451360033E+00,-3.46856409890385E+00,-3.05807667568838E-02,3.47032573062003E-01,4.21421351773506E-01,1.22924741056734E-01,-4.15845810037011E-01,6.96299723918462E-01,2.41718376774634E-01,-7.55574308701589E-02,-1.79715533080962E-01,-1.42801389435765E-01,
SP.RUR.TOTL.ZS,5.11000000000000E+01,5.00000000000000E+01,4.89000000000000E+01,4.78000000000000E+01,4.67000000000000E+01,4.56000000000000E+01,4.45200000000000E+01,4.34400000000000E+01,4.23600000000000E+01,4.12800000000000E+01,4.02000000000000E+01,3.78600000000000E+01,3.55200000000000E+01,3.31800000000000E+01,3.08400000000000E+01,2.85000000000000E+01,2.65600000000000E+01,2.46200000000000E+01,2.26800000000000E+01,2.07400000000000E+01,1.88000000000000E+01,1.73800000000000E+01,1.59600000000000E+01,1.45400000000000E+01,1.31200000000000E+01,1.17000000000000E+01,1.12800000000000E+01,1.08600000000000E+01,1.04400000000000E+01,1.00200000000000E+01,9.59999999999999E+00,9.34000000000000E+00,9.08000000000000E+00,8.81999999999999E+00,8.56000000000000E+00,8.30000000000000E+00,7.95999999999999E+00,7.62000000000000E+00,7.28000000000000E+00,6.94000000000000E+00,6.59999999999999E+00,6.45999999999999E+00,6.31999999999999E+00,6.18000000000001E+00,6.04000000000001E+00,5.90000000000001E+00,5.86000000000000E+00,5.81999999999999E+00,5.78000000000000E+00,5.73999999999999E+00,5.70000000000000E+00,
SP.URB.GROW,3.64636705541739E+00,4.75211863101799E+00,4.74023186652167E+00,4.68396013155772E+00,4.56418620678265E+00,4.40429724862428E+00,4.22803774414264E+00,4.08524241404672E+00,3.85269495229395E+00,3.49447387536591E+00,3.08993176170951E+00,4.68661463370669E+00,4.19272140284291E+00,3.92500189007261E+00,3.95444984864360E+00,4.18755696574715E+00,3.95603536592568E+00,4.22022232164138E+00,4.34616981467092E+00,4.25593924341053E+00,4.03885532926250E+00,3.16738642581968E+00,2.99941094012259E+00,2.87344521402270E+00,2.80944772554637E+00,2.77378476464904E+00,1.63131231200559E+00,1.60726064698368E+00,1.60927474168050E+00,1.63199120797632E+00,1.66200553774283E+00,1.55533074789719E+00,1.61536607251144E+00,1.60508662197854E+00,1.50446496144125E+00,1.34885873434870E+00,1.21934236166902E+00,1.06138077215281E+00,1.10856634701640E+00,1.42619899388843E+00,1.91933833155913E+00,2.26323306332439E+00,2.68760023580849E+00,2.81084838177500E+00,2.56346138238417E+00,2.07820897353008E+00,1.41907339436031E+00,9.69133445573469E-01,6.56563320684376E-01,5.57176524569266E-01,5.98928974043709E-01,
SP.URB.TOTL,7.52668800000000E+03,7.89300000000000E+03,8.27615600000000E+03,8.67303000000000E+03,9.07805600000000E+03,9.48681600000000E+03,9.89652240000000E+03,1.03091912000000E+04,1.07141232000000E+04,1.10951440000000E+04,1.14433280000000E+04,1.19923986000000E+04,1.25058960000000E+04,1.30065130000000E+04,1.35311540000000E+04,1.41098100000000E+04,1.46791872000000E+04,1.53119394000000E+04,1.59920956000000E+04,1.66874004000000E+04,1.73751760000000E+04,1.79343234000000E+04,1.84803960000000E+04,1.90191230000000E+04,1.95610320000000E+04,2.01112080000000E+04,2.04419752000000E+04,2.07731856000000E+04,2.11101876000000E+04,2.14575306000000E+04,2.18171360000000E+04,2.21591172000000E+04,2.25199748000000E+04,2.28843564000000E+04,2.32312464000000E+04,2.35467260000000E+04,2.38355988000000E+04,2.40899326000000E+04,2.43584712000000E+04,2.47083606000000E+04,2.51871780000000E+04,2.57637222000000E+04,2.64655368000000E+04,2.72199966000000E+04,2.79267912000000E+04,2.85132410000000E+04,2.89207494000000E+04,2.92023926000000E+04,2.93947556000000E+04,2.95589934000000E+04,2.97365620000000E+04,
SP.URB.TOTL.IN.ZS,4.89000000000000E+01,5.00000000000000E+01,5.11000000000000E+01,5.22000000000000E+01,5.33000000000000E+01,5.44000000000000E+01,5.54800000000000E+01,5.65600000000000E+01,5.76400000000000E+01,5.87200000000000E+01,5.98000000000000E+01,6.21400000000000E+01,6.44800000000000E+01,6.68200000000000E+01,6.91600000000000E+01,7.15000000000000E+01,7.34400000000000E+01,7.53800000000000E+01,7.73200000000000E+01,7.92600000000000E+01,8.12000000000000E+01,8.26200000000000E+01,8.40400000000000E+01,8.54600000000000E+01,8.68800000000000E+01,8.83000000000000E+01,8.87200000000000E+01,8.91400000000000E+01,8.95600000000000E+01,8.99800000000000E+01,9.04000000000000E+01,9.06600000000000E+01,9.09200000000000E+01,9.11800000000000E+01,9.14400000000000E+01,9.17000000000000E+01,9.20400000000000E+01,9.23800000000000E+01,9.27200000000000E+01,9.30600000000000E+01,9.34000000000000E+01,9.35400000000000E+01,9.36800000000000E+01,9.38200000000000E+01,9.39600000000000E+01,9.41000000000000E+01,9.41400000000000E+01,9.41800000000000E+01,9.42200000000000E+01,9.42600000000000E+01,9.43000000000000E+01,
ST.INT.ARVL,,,,,,,,,,,,,,,,,,,,,,,,,,,,,,,,,,,,2.80000000000000E+04,3.00000000000000E+04,2.80000000000000E+04,3.60000000000000E+04,3.40000000000000E+04,4.30000000000000E+04,4.90000000000000E+04,4.60000000000000E+04,4.10000000000000E+04,4.20000000000000E+04,5.00000000000000E+04,5.00000000000000E+04,6.90000000000000E+04,1.15000000000000E+05,1.51000000000000E+05,,
VC.BTL.DETH,0.00000000000000E+00,0.00000000000000E+00,0.00000000000000E+00,0.00000000000000E+00,0.00000000000000E+00,0.00000000000000E+00,0.00000000000000E+00,0.00000000000000E+00,0.00000000000000E+00,0.00000000000000E+00,0.00000000000000E+00,0.00000000000000E+00,0.00000000000000E+00,0.00000000000000E+00,0.00000000000000E+00,0.00000000000000E+00,0.00000000000000E+00,0.00000000000000E+00,0.00000000000000E+00,0.00000000000000E+00,0.00000000000000E+00,0.00000000000000E+00,0.00000000000000E+00,0.00000000000000E+00,0.00000000000000E+00,0.00000000000000E+00,0.00000000000000E+00,0.00000000000000E+00,0.00000000000000E+00,0.00000000000000E+00,0.00000000000000E+00,0.00000000000000E+00,0.00000000000000E+00,0.00000000000000E+00,0.00000000000000E+00,0.00000000000000E+00,0.00000000000000E+00,0.00000000000000E+00,0.00000000000000E+00,0.00000000000000E+00,0.00000000000000E+00,0.00000000000000E+00,0.00000000000000E+00,0.00000000000000E+00,0.00000000000000E+00,0.00000000000000E+00,0.00000000000000E+00,0.00000000000000E+00,0.00000000000000E+00,,,
