"Country Code",1960,1961,1962,1963,1964,1965,1966,1967,1968,1969,1970,1971,1972,1973,1974,1975,1976,1977,1978,1979,1980,1981,1982,1983,1984,1985,1986,1987,1988,1989,1990,1991,1992,1993,1994,1995,1996,1997,1998,1999,2000,2001,2002,2003,2004,2005,2006,2007,2008,2009,2010,2011ABW,,,,,,,,,,,,,,,,,,,,,,,,,,,,,,,,,,,,5.21000000000000E+08,6.20000000000000E+08,6.89000000000000E+08,7.41000000000000E+08,7.29000000000000E+08,8.14000000000000E+08,8.22000000000000E+08,8.34000000000000E+08,8.58000000000000E+08,1.05600000000000E+09,1.09700000000000E+09,1.06400000000000E+09,1.21100000000000E+09,1.34300000000000E+09,1.21100000000000E+09,1.23900000000000E+09,
AGO,,,,,,,,,,,,,,,,,,,,,,,,,,,,,,,,,,,,1.00000000000000E+07,9.00000000000000E+06,9.00000000000000E+06,8.00000000000000E+06,1.30000000000000E+07,1.80000000000000E+07,2.20000000000000E+07,3.70000000000000E+07,4.90000000000000E+07,6.60000000000000E+07,8.80000000000000E+07,7.50000000000000E+07,2.25000000000000E+08,2.85000000000000E+08,5.34000000000000E+08,,
ALB,,,,,,,,,,,,,,,,,,,,,,,,,,,,,,,,,,,,6.50000000000000E+07,7.70000000000000E+07,2.70000000000000E+07,5.40000000000000E+07,2.11000000000000E+08,3.89000000000000E+08,4.46000000000000E+08,4.87000000000000E+08,5.22000000000000E+08,7.35000000000000E+08,8.54000000000000E+08,1.01200000000000E+09,1.37800000000000E+09,1.71400000000000E+09,1.82700000000000E+09,1.61300000000000E+09,
ARG,,,,,,,,,,,,,,,,,,,,,,,,,,,,,,,,,,,,2.22200000000000E+09,2.62100000000000E+09,2.77800000000000E+09,3.02500000000000E+09,2.89800000000000E+09,2.90400000000000E+09,2.64200000000000E+09,1.53500000000000E+09,2.00600000000000E+09,2.23500000000000E+09,2.72900000000000E+09,3.34400000000000E+09,4.31400000000000E+09,4.64600000000000E+09,3.96000000000000E+09,4.93000000000000E+09,
ARM,,,,,,,,,,,,,,,,,,,,,,,,,,,,,,,,,,,,1.00000000000000E+06,1.20000000000000E+07,2.00000000000000E+07,2.40000000000000E+07,3.10000000000000E+07,3.80000000000000E+07,6.50000000000000E+07,6.30000000000000E+07,7.30000000000000E+07,1.71000000000000E+08,2.20000000000000E+08,2.71000000000000E+08,3.05000000000000E+08,3.31000000000000E+08,3.34000000000000E+08,4.03000000000000E+08,
ATG,,,,,,,,,,,,,,,,,,,,,,,,,,,,,,,,,,,,2.47000000000000E+08,2.58000000000000E+08,2.78000000000000E+08,2.82000000000000E+08,2.90000000000000E+08,2.91000000000000E+08,2.72000000000000E+08,2.74000000000000E+08,3.00000000000000E+08,3.37000000000000E+08,3.09000000000000E+08,3.27000000000000E+08,3.38000000000000E+08,3.34000000000000E+08,3.05000000000000E+08,3.01000000000000E+08,
AUS,,,,,,,,,,,,,,,,,,,,,,,,,,,,,,,,,,,,8.13000000000000E+09,9.51900000000000E+09,9.45600000000000E+09,8.13100000000000E+09,9.25600000000000E+09,9.28900000000000E+09,9.22400000000000E+09,9.97100000000000E+09,1.24380000000000E+10,1.52140000000000E+10,1.68480000000000E+10,1.78400000000000E+10,2.23080000000000E+10,2.47560000000000E+10,2.55940000000000E+10,,
AUT,,,,,,,,,,,,,,,,,,,,,,,,,,,,,,,,,,,,1.34350000000000E+10,1.28300000000000E+10,1.10180000000000E+10,1.12410000000000E+10,1.08470000000000E+10,9.89900000000000E+09,9.94800000000000E+09,1.08030000000000E+10,1.33070000000000E+10,1.51500000000000E+10,1.62430000000000E+10,1.65100000000000E+10,1.85590000000000E+10,2.16300000000000E+10,1.91760000000000E+10,1.88290000000000E+10,
AZE,,,,,,,,,,,,,,,,,,,,,,,,,,,,,,,,,,,,7.00000000000000E+07,4.60000000000000E+07,1.62000000000000E+08,1.25000000000000E+08,8.10000000000000E+07,6.30000000000000E+07,4.30000000000000E+07,5.10000000000000E+07,5.80000000000000E+07,6.50000000000000E+07,7.80000000000000E+07,1.17000000000000E+08,1.78000000000000E+08,1.90000000000000E+08,3.50000000000000E+08,6.08000000000000E+08,
BDI,,,,,,,,,,,,,,,,,,,,,,,,,,,,,,,,,,,,1.40000000000000E+06,1.20000000000000E+06,6.00000000000000E+05,4.00000000000000E+05,7.00000000000000E+05,8.00000000000000E+05,5.00000000000000E+05,1.10000000000000E+06,7.00000000000000E+05,1.20000000000000E+06,1.50000000000000E+06,1.30000000000000E+06,1.30000000000000E+06,1.30000000000000E+06,1.50000000000000E+06,,
BEL,,,,,,,,,,,,,,,,,,,,,,,,,,,,,,,,,,,,4.54800000000000E+09,4.84400000000000E+09,4.52900000000000E+09,4.62300000000000E+09,6.47200000000000E+09,6.59200000000000E+09,6.88700000000000E+09,6.93500000000000E+09,8.19300000000000E+09,9.20800000000000E+09,9.84500000000000E+09,1.03110000000000E+10,1.10170000000000E+10,1.17880000000000E+10,9.97000000000000E+09,1.02650000000000E+10,
BEN,,,,,,,,,,,,,,,,,,,,,,,,,,,,,,,,,,,,8.50000000000000E+07,7.90000000000000E+07,5.60000000000000E+07,6.40000000000000E+07,9.40000000000000E+07,7.70000000000000E+07,8.50000000000000E+07,9.30000000000000E+07,1.06000000000000E+08,1.18000000000000E+08,1.03000000000000E+08,1.16000000000000E+08,2.06000000000000E+08,2.36000000000000E+08,,,
BFA,,,,,,,,,,,,,,,,,,,,,,,,,,,,,,,,,,,,,,,,,1.90000000000000E+07,2.00000000000000E+07,2.50000000000000E+07,2.40000000000000E+07,4.00000000000000E+07,4.50000000000000E+07,5.30000000000000E+07,5.60000000000000E+07,6.20000000000000E+07,,,
BGD,,,,,,,,,,,,,,,,,,,,,,,,,,,,,,,,,,,,2.50000000000000E+07,3.30000000000000E+07,6.20000000000000E+07,5.20000000000000E+07,5.00000000000000E+07,5.00000000000000E+07,4.80000000000000E+07,5.70000000000000E+07,5.70000000000000E+07,6.70000000000000E+07,7.00000000000000E+07,8.00000000000000E+07,7.60000000000000E+07,7.50000000000000E+07,7.00000000000000E+07,8.10000000000000E+07,
BGR,,,,,,,,,,,,,,,,,,,,,,,,,,,,,,,,,,,,4.73000000000000E+08,3.88000000000000E+08,3.69000000000000E+08,9.66000000000000E+08,9.32000000000000E+08,1.07400000000000E+09,9.94000000000000E+08,1.09600000000000E+09,1.62100000000000E+09,2.20200000000000E+09,2.41200000000000E+09,2.61200000000000E+09,3.71300000000000E+09,4.30600000000000E+09,3.77600000000000E+09,3.57100000000000E+09,
BHR,,,,,,,,,,,,,,,,,,,,,,,,,,,,,,,,,,,,2.47000000000000E+08,2.63000000000000E+08,3.11000000000000E+08,3.66000000000000E+08,5.18000000000000E+08,5.73000000000000E+08,6.30000000000000E+08,7.40000000000000E+08,7.20000000000000E+08,8.64000000000000E+08,9.20000000000000E+08,1.04800000000000E+09,1.10500000000000E+09,1.16600000000000E+09,1.11800000000000E+09,1.36200000000000E+09,
BHS,,,,,,,,,,,,,,,,,,,,,,,,,,,,,,,,,,,,1.34600000000000E+09,1.39800000000000E+09,1.41600000000000E+09,1.35400000000000E+09,1.58300000000000E+09,1.73800000000000E+09,1.64800000000000E+09,1.76000000000000E+09,1.75700000000000E+09,1.88400000000000E+09,2.07100000000000E+09,2.05600000000000E+09,2.18700000000000E+09,2.15300000000000E+09,1.93800000000000E+09,,
BIH,,,,,,,,,,,,,,,,,,,,,,,,,,,,,,,,,,,,,,,2.47000000000000E+08,2.45000000000000E+08,2.33000000000000E+08,2.65000000000000E+08,2.88000000000000E+08,3.77000000000000E+08,4.81000000000000E+08,5.19000000000000E+08,6.07000000000000E+08,7.29000000000000E+08,8.30000000000000E+08,6.87000000000000E+08,5.87000000000000E+08,
BLR,,,,,,,,,,,,,,,,,,,,,,,,,,,,,,,,,,,,2.30000000000000E+07,5.50000000000000E+07,2.50000000000000E+07,2.20000000000000E+07,1.20000000000000E+07,9.30000000000000E+07,2.11000000000000E+08,2.34000000000000E+08,2.67000000000000E+08,2.70000000000000E+08,2.53000000000000E+08,2.86000000000000E+08,3.24000000000000E+08,3.63000000000000E+08,3.70000000000000E+08,4.11000000000000E+08,
BLZ,,,,,,,,,,,,,,,,,,,,,,,,,,,,,,,,,,,,7.80000000000000E+07,9.30000000000000E+07,9.50000000000000E+07,9.90000000000000E+07,1.01000000000000E+08,1.11000000000000E+08,1.11000000000000E+08,1.21000000000000E+08,1.50000000000000E+08,1.68000000000000E+08,2.14000000000000E+08,2.60000000000000E+08,2.89000000000000E+08,2.78000000000000E+08,2.56000000000000E+08,2.64000000000000E+08,
BMU,,,,,,,,,,,,,,,,,,,,,,,,,,,,,,,,,,,,4.88000000000000E+08,4.72000000000000E+08,4.78000000000000E+08,4.87000000000000E+08,4.79000000000000E+08,4.31000000000000E+08,3.51000000000000E+08,3.78000000000000E+08,3.48000000000000E+08,4.26000000000000E+08,4.29000000000000E+08,4.95000000000000E+08,5.69000000000000E+08,4.31000000000000E+08,3.63000000000000E+08,,
BOL,,,,,,,,,,,,,,,,,,,,,,,,,,,,,,,,,,,,5.50000000000000E+07,6.10000000000000E+07,6.40000000000000E+07,6.90000000000000E+07,8.70000000000000E+07,6.80000000000000E+07,7.60000000000000E+07,1.00000000000000E+08,1.66000000000000E+08,1.92000000000000E+08,2.39000000000000E+08,2.44000000000000E+08,2.92000000000000E+08,2.75000000000000E+08,2.79000000000000E+08,,
BRA,,,,,,,,,,,,,,,,,,,,,,,,,,,,,,,,,,,,9.72000000000000E+08,7.18000000000000E+08,9.77000000000000E+08,1.31700000000000E+09,1.62600000000000E+09,1.81000000000000E+09,1.73100000000000E+09,1.99800000000000E+09,2.47900000000000E+09,3.22200000000000E+09,3.86100000000000E+09,4.31600000000000E+09,4.95300000000000E+09,5.78500000000000E+09,5.30500000000000E+09,5.92000000000000E+09,
BRB,,,,,,,,,,,,,,,,,,,,,,,,,,,,,,,,,,,,6.22000000000000E+08,6.59000000000000E+08,6.63000000000000E+08,7.12000000000000E+08,6.87000000000000E+08,7.23000000000000E+08,6.97000000000000E+08,6.58000000000000E+08,7.58000000000000E+08,7.75000000000000E+08,8.97000000000000E+08,1.05700000000000E+09,1.19900000000000E+09,1.19400000000000E+09,1.06800000000000E+09,,
BRN,,,,,,,,,,,,,,,,,,,,,,,,,,,,,,,,,,,,,,,,,,1.55000000000000E+08,1.13000000000000E+08,1.24000000000000E+08,1.81000000000000E+08,1.91000000000000E+08,2.24000000000000E+08,2.33000000000000E+08,2.42000000000000E+08,2.54000000000000E+08,,
BTN,,,,,,,,,,,,,,,,,,,,,,,,,,,,,,,,,,,,,,,,,,,,,,,2.30000000000000E+07,2.80000000000000E+07,3.60000000000000E+07,4.20000000000000E+07,,
BWA,,,,,,,,,,,,,,,,,,,,,,,,,,,,,,,,,,,,1.62000000000000E+08,9.30000000000000E+07,1.36000000000000E+08,1.75000000000000E+08,2.34000000000000E+08,2.22000000000000E+08,2.30000000000000E+08,3.19000000000000E+08,4.57000000000000E+08,5.81000000000000E+08,5.62000000000000E+08,5.37000000000000E+08,5.46000000000000E+08,5.53000000000000E+08,4.52000000000000E+08,,
CAF,,,,,,,,,,,,,,,,,,,,,,,,,,,,,,,,,,,,,,,,,,,,,6.40000000000000E+06,5.00000000000000E+06,8.00000000000000E+06,8.40000000000000E+06,9.00000000000000E+06,4.50000000000000E+06,,
CAN,,,,,,,,,,,,,,,,,,,,,,,,,,,,,,,,,,,,7.91700000000000E+09,8.60700000000000E+09,8.81900000000000E+09,9.41400000000000E+09,1.02030000000000E+10,1.07780000000000E+10,1.06230000000000E+10,1.06870000000000E+10,1.06020000000000E+10,1.30290000000000E+10,1.37680000000000E+10,1.45550000000000E+10,1.55680000000000E+10,1.56680000000000E+10,1.37070000000000E+10,1.57750000000000E+10,
CHE,,,,,,,,,,,,,,,,,,,,,,,,,,,,,,,,,,,,9.45900000000000E+09,8.89100000000000E+09,7.94500000000000E+09,7.99100000000000E+09,6.83900000000000E+09,6.65200000000000E+09,6.78200000000000E+09,7.26000000000000E+09,8.61400000000000E+09,9.59500000000000E+09,1.00410000000000E+10,1.08080000000000E+10,1.21830000000000E+10,1.44580000000000E+10,1.38160000000000E+10,1.48540000000000E+10,
CHL,,,,,,,,,,,,,,,,,,,,,,,,,,,,,,,,,,,,9.11000000000000E+08,9.31000000000000E+08,1.10300000000000E+09,1.10500000000000E+09,9.11000000000000E+08,8.19000000000000E+08,7.99000000000000E+08,8.98000000000000E+08,8.83000000000000E+08,1.09500000000000E+09,1.10900000000000E+09,1.21300000000000E+09,1.47700000000000E+09,1.67400000000000E+09,1.60400000000000E+09,1.63600000000000E+09,
CHN,,,,,,,,,,,,,,,,,,,,,,,,,,,,,,,,,,,,8.73000000000000E+09,1.02000000000000E+10,1.20740000000000E+10,1.26020000000000E+10,1.40980000000000E+10,1.62310000000000E+10,1.77920000000000E+10,2.03850000000000E+10,1.74060000000000E+10,2.57390000000000E+10,2.92960000000000E+10,3.39490000000000E+10,3.72330000000000E+10,4.08430000000000E+10,3.96750000000000E+10,4.58140000000000E+10,
CIV,,,,,,,,,,,,,,,,,,,,,,,,,,,,,,,,,,,,8.90000000000000E+07,9.30000000000000E+07,9.00000000000000E+07,9.80000000000000E+07,1.00000000000000E+08,4.90000000000000E+07,5.30000000000000E+07,5.10000000000000E+07,6.90000000000000E+07,8.20000000000000E+07,8.30000000000000E+07,9.30000000000000E+07,1.03000000000000E+08,1.16000000000000E+08,1.13000000000000E+08,,
CMR,,,,,,,,,,,,,,,,,,,,,,,,,,,,,,,,,,,,3.60000000000000E+07,1.04000000000000E+08,8.40000000000000E+07,8.50000000000000E+07,6.00000000000000E+07,5.70000000000000E+07,7.30000000000000E+07,6.20000000000000E+07,1.82000000000000E+08,1.58000000000000E+08,1.75000000000000E+08,1.81000000000000E+08,2.26000000000000E+08,1.56000000000000E+08,2.70000000000000E+08,1.05000000000000E+08,
COG,,,,,,,,,,,,,,,,,,,,,,,,,,,,,,,,,,,,1.40000000000000E+07,1.10000000000000E+07,1.00000000000000E+07,9.00000000000000E+06,1.30000000000000E+07,1.20000000000000E+07,2.20000000000000E+07,2.50000000000000E+07,2.90000000000000E+07,2.20000000000000E+07,4.00000000000000E+07,4.50000000000000E+07,5.40000000000000E+07,,,,
COL,,,,,,,,,,,,,,,,,,,,,,,,,,,,,,,,,,,,6.57000000000000E+08,1.12000000000000E+09,1.04300000000000E+09,9.28000000000000E+08,9.27000000000000E+08,1.03000000000000E+09,1.21700000000000E+09,9.67000000000000E+08,8.93000000000000E+08,1.06100000000000E+09,1.22200000000000E+09,1.55400000000000E+09,1.66900000000000E+09,1.84400000000000E+09,1.99900000000000E+09,2.08300000000000E+09,
CPV,,,,,,,,,,,,,,,,,,,,,,,,,,,,,,,,,,,,1.00000000000000E+07,1.10000000000000E+07,1.50000000000000E+07,2.00000000000000E+07,2.90000000000000E+07,4.10000000000000E+07,5.40000000000000E+07,6.50000000000000E+07,8.70000000000000E+07,9.90000000000000E+07,1.22000000000000E+08,2.09000000000000E+08,3.04000000000000E+08,3.52000000000000E+08,2.92000000000000E+08,,
CRI,,,,,,,,,,,,,,,,,,,,,,,,,,,,,,,,,,,,6.81000000000000E+08,7.10000000000000E+08,7.42000000000000E+08,9.14000000000000E+08,1.09800000000000E+09,1.30200000000000E+09,1.17300000000000E+09,1.16100000000000E+09,1.29300000000000E+09,1.45900000000000E+09,1.67100000000000E+09,1.70700000000000E+09,2.02600000000000E+09,2.28300000000000E+09,1.81500000000000E+09,2.11100000000000E+09,
CUB,,,,,,,,,,,,,,,,,,,,,,,,,,,,,,,,,,,,9.63000000000000E+08,1.17100000000000E+09,1.31100000000000E+09,1.55600000000000E+09,1.69500000000000E+09,1.73700000000000E+09,1.69200000000000E+09,1.63300000000000E+09,1.84600000000000E+09,1.91500000000000E+09,2.32200000000000E+09,2.12700000000000E+09,2.14100000000000E+09,2.25800000000000E+09,2.05100000000000E+09,2.18700000000000E+09,
CYP,,,,,,,,,,,,,,,,,,,,,,,,,,,,,,,,,,,,1.79800000000000E+09,1.68100000000000E+09,1.65900000000000E+09,1.71800000000000E+09,1.91100000000000E+09,1.94100000000000E+09,1.99300000000000E+09,1.95900000000000E+09,2.09700000000000E+09,2.24100000000000E+09,2.31800000000000E+09,2.38100000000000E+09,2.68600000000000E+09,2.77000000000000E+09,2.18800000000000E+09,2.16500000000000E+09,
CZE,,,,,,,,,,,,,,,,,,,,,,,,,,,,,,,,,,,,2.88000000000000E+09,4.07900000000000E+09,3.62000000000000E+09,3.89400000000000E+09,3.15300000000000E+09,2.97300000000000E+09,3.10400000000000E+09,2.96400000000000E+09,3.56600000000000E+09,4.18700000000000E+09,4.67600000000000E+09,5.54100000000000E+09,6.38800000000000E+09,7.20400000000000E+09,6.47700000000000E+09,6.67400000000000E+09,
DEU,,,,,,,,,,,,,,,,,,,,,,,,,,,,,,,,,,,,1.80360000000000E+10,1.76160000000000E+10,1.77020000000000E+10,1.83650000000000E+10,1.82310000000000E+10,1.86110000000000E+10,1.80310000000000E+10,1.92780000000000E+10,2.31250000000000E+10,2.76130000000000E+10,2.91210000000000E+10,3.28880000000000E+10,3.61010000000000E+10,3.99150000000000E+10,3.47250000000000E+10,3.45600000000000E+10,
DJI,,,,,,,,,,,,,,,,,,,,,,,,,,,,,,,,,,,,5.40000000000000E+06,4.60000000000000E+06,4.20000000000000E+06,9.30000000000000E+06,7.60000000000000E+06,8.10000000000000E+06,8.60000000000000E+06,8.90000000000000E+06,6.90000000000000E+06,6.80000000000000E+06,7.10000000000000E+06,9.80000000000000E+06,6.80000000000000E+06,7.80000000000000E+06,1.60000000000000E+07,,
DMA,,,,,,,,,,,,,,,,,,,,,,,,,,,,,,,,,,,,4.20000000000000E+07,4.40000000000000E+07,4.80000000000000E+07,4.70000000000000E+07,5.10000000000000E+07,4.80000000000000E+07,4.60000000000000E+07,4.60000000000000E+07,5.20000000000000E+07,6.10000000000000E+07,5.70000000000000E+07,7.20000000000000E+07,7.40000000000000E+07,8.20000000000000E+07,8.40000000000000E+07,8.70000000000000E+07,
DNK,,,,,,,,,,,,,,,,,,,,,,,,,,,,,,,,,,,,3.69100000000000E+09,3.42000000000000E+09,3.15600000000000E+09,3.23600000000000E+09,3.69800000000000E+09,3.67100000000000E+09,4.00300000000000E+09,4.79100000000000E+09,5.27100000000000E+09,5.65200000000000E+09,5.29300000000000E+09,5.58700000000000E+09,5.97600000000000E+09,6.24200000000000E+09,5.67900000000000E+09,,
DOM,,,,,,,,,,,,,,,,,,,,,,,,,,,,,,,,,,,,1.57100000000000E+09,1.78100000000000E+09,2.09900000000000E+09,2.15300000000000E+09,2.48300000000000E+09,2.86000000000000E+09,2.79800000000000E+09,2.73000000000000E+09,3.12800000000000E+09,3.15200000000000E+09,3.51800000000000E+09,3.91700000000000E+09,4.06400000000000E+09,4.16600000000000E+09,4.05100000000000E+09,,
DZA,,,,,,,,,,,,,,,,,,,,,,,,,,,,,,,,,,,,3.20000000000000E+07,4.50000000000000E+07,2.80000000000000E+07,7.40000000000000E+07,8.00000000000000E+07,1.02000000000000E+08,1.00000000000000E+08,1.11000000000000E+08,1.12000000000000E+08,1.78000000000000E+08,1.84000000000000E+08,2.20000000000000E+08,2.19000000000000E+08,3.24000000000000E+08,2.67000000000000E+08,,
EAP,,,,,,,,,,,,,,,,,,,,,,,,,,,,,,,,,,,,2.86191700270701E+10,3.32206081360896E+10,3.41793611941579E+10,2.84316819129440E+10,3.35189829602178E+10,3.78640534667255E+10,4.08625248273487E+10,4.49203400683913E+10,3.90057644483534E+10,5.39299624752196E+10,5.80678797221876E+10,6.98237242421877E+10,8.30763177991498E+10,8.93780943112495E+10,8.39369412370670E+10,9.98386639174706E+10,
EAS,,,,,,,,,,,,,,,,,,,,,,,,,,,,,,,,,,,,6.80979000517957E+10,7.74332563275731E+10,7.47026023217746E+10,6.27910637131284E+10,6.94694059216122E+10,7.43519263009987E+10,7.68692432764309E+10,8.37822125355292E+10,8.47544222847839E+10,1.11474216458931E+11,1.21176226973187E+11,1.33059109416113E+11,1.58539708206077E+11,1.78554214374168E+11,1.74689030248798E+11,,
ECA,,,,,,,,,,,,,,,,,,,,,,,,,,,,,,,,,,,,1.16037005141163E+10,1.57191998314067E+10,1.74364410922148E+10,1.76780862755915E+10,1.27427805424176E+10,1.53643367483450E+10,1.84554727324398E+10,2.16358759074789E+10,2.46633582747183E+10,3.17716988035374E+10,3.63617560632582E+10,3.87183328107699E+10,4.64385218278771E+10,5.57752808639332E+10,4.86251910150884E+10,4.76329284994763E+10,
ECS,,,,,,,,,,,,,,,,,,,,,,,,,,,,,,,,,,,,2.07818575099652E+11,2.19452647412326E+11,2.16580725302565E+11,2.28835532803814E+11,2.25229161985609E+11,2.25495973644295E+11,2.24667552725006E+11,2.41725401387558E+11,2.82413937395489E+11,3.28983420545102E+11,3.46127808624293E+11,3.74960376055418E+11,4.29739295548056E+11,4.69068230790245E+11,4.07137018659634E+11,3.98162770090775E+11,
ECU,,,,,,,,,,,,,,,,,,,,,,,,,,,,,,,,,,,,2.55000000000000E+08,2.81000000000000E+08,2.90000000000000E+08,2.91000000000000E+08,3.43000000000000E+08,4.02000000000000E+08,4.30000000000000E+08,4.47000000000000E+08,4.06000000000000E+08,4.62000000000000E+08,4.86000000000000E+08,4.90000000000000E+08,6.23000000000000E+08,7.42000000000000E+08,6.70000000000000E+08,,
EGY,,,,,,,,,,,,,,,,,,,,,,,,,,,,,,,,,,,,2.68400000000000E+09,3.20400000000000E+09,3.72700000000000E+09,2.56500000000000E+09,3.90300000000000E+09,4.34500000000000E+09,3.80000000000000E+09,3.76400000000000E+09,4.58400000000000E+09,6.12500000000000E+09,6.85100000000000E+09,7.59100000000000E+09,9.30300000000000E+09,1.09850000000000E+10,1.07550000000000E+10,,
EMU,,,,,,,,,,,,,,,,,,,,,,,,,,,,,,,,,,,,1.43313000000000E+11,1.46365000000000E+11,1.41585000000000E+11,1.52146000000000E+11,1.57761000000000E+11,1.57048000000000E+11,1.55461000000000E+11,1.66227000000000E+11,1.95868000000000E+11,2.24522000000000E+11,2.31354000000000E+11,2.48850000000000E+11,2.81283000000000E+11,3.05011000000000E+11,2.64739000000000E+11,2.55450000000000E+11,
ESP,,,,,,,,,,,,,,,,,,,,,,,,,,,,,,,,,,,,2.53680000000000E+10,2.71680000000000E+10,2.61850000000000E+10,2.91170000000000E+10,3.12140000000000E+10,2.98020000000000E+10,3.05500000000000E+10,3.18800000000000E+10,3.96340000000000E+10,4.50670000000000E+10,4.77890000000000E+10,5.12970000000000E+10,5.77340000000000E+10,6.19780000000000E+10,5.33370000000000E+10,5.21870000000000E+10,
EST,,,,,,,,,,,,,,,,,,,,,,,,,,,,,,,,,,,,3.57000000000000E+08,4.84000000000000E+08,4.73000000000000E+08,5.39000000000000E+08,5.49000000000000E+08,5.08000000000000E+08,5.07000000000000E+08,5.55000000000000E+08,6.71000000000000E+08,8.87000000000000E+08,9.71000000000000E+08,1.02400000000000E+09,1.03600000000000E+09,1.18900000000000E+09,1.09000000000000E+09,1.07400000000000E+09,
ETH,,,,,,,,,,,,,,,,,,,,,,,,,,,,,,,,,,,,1.60000000000000E+07,2.30000000000000E+07,2.20000000000000E+07,3.70000000000000E+07,4.70000000000000E+07,5.70000000000000E+07,5.10000000000000E+07,7.20000000000000E+07,1.14000000000000E+08,1.74000000000000E+08,1.68000000000000E+08,1.62000000000000E+08,1.76000000000000E+08,3.77000000000000E+08,3.29000000000000E+08,,
EUU,,,,,,,,,,,,,,,,,,,,,,,,,,,,,,,,,,,,1.84544000000000E+11,1.92393000000000E+11,1.88470000000000E+11,2.00613000000000E+11,2.02977000000000E+11,2.00890000000000E+11,1.96343000000000E+11,2.09380000000000E+11,2.43737000000000E+11,2.82256000000000E+11,2.94410000000000E+11,3.19875000000000E+11,3.65472000000000E+11,3.92057000000000E+11,3.39130000000000E+11,3.30299119930664E+11,
FIN,,,,,,,,,,,,,,,,,,,,,,,,,,,,,,,,,,,,1.64000000000000E+09,1.63600000000000E+09,1.63900000000000E+09,1.63000000000000E+09,1.52100000000000E+09,1.40600000000000E+09,1.43700000000000E+09,1.57700000000000E+09,1.86900000000000E+09,2.06700000000000E+09,2.18000000000000E+09,2.38000000000000E+09,2.83700000000000E+09,3.22000000000000E+09,2.81400000000000E+09,2.89200000000000E+09,
FJI,,,,,,,,,,,,,,,,,,,,,,,,,,,,,,,,,,,,2.91000000000000E+08,2.98000000000000E+08,3.17000000000000E+08,2.48000000000000E+08,2.80000000000000E+08,1.89000000000000E+08,2.05000000000000E+08,2.60000000000000E+08,3.45000000000000E+08,4.23000000000000E+08,4.85000000000000E+08,4.80000000000000E+08,4.99000000000000E+08,5.47000000000000E+08,4.22000000000000E+08,,
FRA,,,,,,,,,,,,,,,,,,,,,,,,,,,,,,,,,,,,2.75870000000000E+10,2.83520000000000E+10,2.74020000000000E+10,2.94900000000000E+10,3.12390000000000E+10,3.28550000000000E+10,3.21810000000000E+10,3.50110000000000E+10,3.93890000000000E+10,4.48950000000000E+10,4.39540000000000E+10,4.65120000000000E+10,5.42090000000000E+10,5.72360000000000E+10,4.94500000000000E+10,4.57780000000000E+10,
GAB,,,,,,,,,,,,,,,,,,,,,,,,,,,,,,,,,,,,1.70000000000000E+07,1.00000000000000E+07,1.90000000000000E+07,2.30000000000000E+07,1.50000000000000E+07,2.00000000000000E+07,1.50000000000000E+07,1.80000000000000E+07,1.50000000000000E+07,1.00000000000000E+07,9.00000000000000E+06,,,,,,
GBR,,,,,,,,,,,,,,,,,,,,,,,,,,,,,,,,,,,,2.04870000000000E+10,2.13890000000000E+10,2.25860000000000E+10,2.36890000000000E+10,2.27160000000000E+10,2.17690000000000E+10,1.88640000000000E+10,2.05490000000000E+10,2.26680000000000E+10,2.82020000000000E+10,3.05730000000000E+10,3.47960000000000E+10,3.86980000000000E+10,3.64240000000000E+10,3.04980000000000E+10,3.04090000000000E+10,
GEO,,,,,,,,,,,,,,,,,,,,,,,,,,,,,,,,,,,,,,4.70000000000000E+07,1.88000000000000E+08,1.18000000000000E+08,9.70000000000000E+07,1.17000000000000E+08,1.26000000000000E+08,1.47000000000000E+08,1.77000000000000E+08,2.41000000000000E+08,3.13000000000000E+08,3.84000000000000E+08,4.47000000000000E+08,4.76000000000000E+08,6.57000000000000E+08,
GHA,,,,,,,,,,,,,,,,,,,,,,,,,,,,,,,,,,,,1.10000000000000E+07,1.30000000000000E+07,1.50000000000000E+07,2.84000000000000E+08,3.04000000000000E+08,3.35000000000000E+08,3.51000000000000E+08,3.58000000000000E+08,4.14000000000000E+08,4.66000000000000E+08,8.36000000000000E+08,8.61000000000000E+08,9.08000000000000E+08,9.19000000000000E+08,7.68000000000000E+08,6.20000000000000E+08,
GIN,,,,,,,,,,,,,,,,,,,,,,,,,,,,,,,,,,,,9.00000000000000E+05,6.40000000000000E+06,1.00000000000000E+05,9.00000000000000E+05,1.70000000000000E+06,2.00000000000000E+06,1.00000000000000E+05,,,,,,2.00000000000000E+05,1.50000000000000E+06,2.80000000000000E+06,2.00000000000000E+06,
GMB,,,,,,,,,,,,,,,,,,,,,,,,,,,,,,,,,,,,2.80000000000000E+07,6.60000000000000E+07,7.50000000000000E+07,,,,,,5.60000000000000E+07,4.70000000000000E+07,5.80000000000000E+07,6.60000000000000E+07,8.50000000000000E+07,8.00000000000000E+07,6.30000000000000E+07,3.20000000000000E+07,
GNB,,,,,,,,,,,,,,,,,,,,,,,,,,,,,,,,,,,,,,3.10000000000000E+06,,,,2.70000000000000E+06,2.30000000000000E+06,1.80000000000000E+06,1.00000000000000E+06,1.60000000000000E+06,2.80000000000000E+06,2.84000000000000E+07,3.82000000000000E+07,,,
GRC,,,,,,,,,,,,,,,,,,,,,,,,,,,,,,,,,,,,4.13500000000000E+09,3.72300000000000E+09,3.77300000000000E+09,6.18800000000000E+09,8.78600000000000E+09,9.21900000000000E+09,9.15500000000000E+09,9.90900000000000E+09,1.07660000000000E+10,1.27150000000000E+10,1.33340000000000E+10,1.44020000000000E+10,1.55500000000000E+10,1.74160000000000E+10,1.46810000000000E+10,1.24790000000000E+10,
GRD,,,,,,,,,,,,,,,,,,,,,,,,,,,,,,,,,,,,7.60000000000000E+07,7.90000000000000E+07,7.80000000000000E+07,8.30000000000000E+07,8.80000000000000E+07,9.30000000000000E+07,8.30000000000000E+07,9.10000000000000E+07,1.04000000000000E+08,8.60000000000000E+07,7.10000000000000E+07,9.40000000000000E+07,1.09000000000000E+08,1.09000000000000E+08,9.90000000000000E+07,9.60000000000000E+07,
GTM,,,,,,,,,,,,,,,,,,,,,,,,,,,,,,,,,,,,2.13000000000000E+08,2.16000000000000E+08,2.66000000000000E+08,3.14000000000000E+08,3.56000000000000E+08,4.82000000000000E+08,5.62000000000000E+08,6.20000000000000E+08,6.21000000000000E+08,6.30000000000000E+08,7.91000000000000E+08,9.19000000000000E+08,1.05500000000000E+09,1.06800000000000E+09,1.17900000000000E+09,1.37800000000000E+09,
GUY,,,,,,,,,,,,,,,,,,,,,,,,,,,,,,,,,,,,3.30000000000000E+07,1.09000000000000E+08,1.12000000000000E+08,1.08000000000000E+08,1.06000000000000E+08,7.50000000000000E+07,6.10000000000000E+07,4.90000000000000E+07,2.60000000000000E+07,2.70000000000000E+07,3.50000000000000E+07,3.70000000000000E+07,5.00000000000000E+07,5.90000000000000E+07,,,
HIC,,,,,,,,,,,,,,,,,,,,,,,,,,,,,,,,,,,,3.34745564283292E+11,3.55737089239408E+11,3.52677527863040E+11,3.58118837881820E+11,3.67775331169402E+11,3.75555962531327E+11,3.60044240531112E+11,3.73203558643090E+11,4.16978938446236E+11,4.85481853821644E+11,5.12317961305117E+11,5.46001841045059E+11,6.23270958002615E+11,6.85038777153980E+11,6.14092455515403E+11,6.26186043015472E+11,
HKG,,,,,,,,,,,,,,,,,,,,,,,,,,,,,,,,,,,,9.60400000000000E+09,1.19940000000000E+10,9.97900000000000E+09,5.65100000000000E+09,5.49300000000000E+09,5.86800000000000E+09,5.90400000000000E+09,7.41000000000000E+09,7.07200000000000E+09,8.91800000000000E+09,1.01790000000000E+10,1.14610000000000E+10,1.35660000000000E+10,1.50180000000000E+10,1.60200000000000E+10,,
HND,,,,,,,,,,,,,,,,,,,,,,,,,,,,,,,,,,,,8.00000000000000E+07,1.15000000000000E+08,1.46000000000000E+08,1.68000000000000E+08,2.08000000000000E+08,2.60000000000000E+08,2.56000000000000E+08,3.01000000000000E+08,3.64000000000000E+08,4.14000000000000E+08,4.63000000000000E+08,5.15000000000000E+08,5.46000000000000E+08,6.19000000000000E+08,6.11000000000000E+08,,
HPC,,,,,,,,,,,,,,,,,,,,,,,,,,,,,,,,,,,,1.67991866830489E+09,1.95272969969184E+09,1.89130242075445E+09,2.40052854613292E+09,2.67466968874056E+09,2.60090725908975E+09,2.98150750211327E+09,3.23145881592580E+09,3.72349927902727E+09,4.31437743577299E+09,5.26482380151515E+09,5.86674145322640E+09,7.44109333010306E+09,8.75365501231977E+09,8.44021706965933E+09,,
HRV,,,,,,,,,,,,,,,,,,,,,,,,,,,,,,,,,,,,1.34900000000000E+09,2.01400000000000E+09,2.52310000000000E+09,2.73340000000000E+09,2.49300000000000E+09,2.75800000000000E+09,3.33500000000000E+09,3.81100000000000E+09,6.31000000000000E+09,6.72700000000000E+09,7.37000000000000E+09,7.99000000000000E+09,9.23300000000000E+09,1.12800000000000E+10,9.00000000000000E+09,8.05900000000000E+09,
HTI,,,,,,,,,,,,,,,,,,,,,,,,,,,,,,,,,,,,9.00000000000000E+07,9.60000000000000E+07,1.07000000000000E+08,1.31000000000000E+08,1.35000000000000E+08,1.28000000000000E+08,1.05000000000000E+08,1.08000000000000E+08,9.60000000000000E+07,9.30000000000000E+07,8.00000000000000E+07,1.26000000000000E+08,1.99000000000000E+08,2.76000000000000E+08,3.15000000000000E+08,,
HUN,,,,,,,,,,,,,,,,,,,,,,,,,,,,,,,,,,,,2.92800000000000E+09,3.56200000000000E+09,3.79700000000000E+09,3.64600000000000E+09,3.56500000000000E+09,3.73300000000000E+09,4.15400000000000E+09,3.72800000000000E+09,4.06100000000000E+09,3.91400000000000E+09,4.12000000000000E+09,4.25400000000000E+09,4.73900000000000E+09,6.03300000000000E+09,5.71200000000000E+09,5.33900000000000E+09,
IDN,,,,,,,,,,,,,,,,,,,,,,,,,,,,,,,,,,,,5.22900000000000E+09,6.18400000000000E+09,6.64800000000000E+09,4.25500000000000E+09,4.35200000000000E+09,4.97500000000000E+09,5.27700000000000E+09,5.28500000000000E+09,4.03700000000000E+09,4.79800000000000E+09,4.52200000000000E+09,4.44800000000000E+09,5.34600000000000E+09,7.37700000000000E+09,5.59800000000000E+09,6.98100000000000E+09,
IND,,,,,,,,,,,,,,,,,,,,,,,,,,,,,,,,,,,,2.58200000000000E+09,2.83100000000000E+09,2.89000000000000E+09,2.94900000000000E+09,3.01000000000000E+09,3.46000000000000E+09,3.19800000000000E+09,3.10200000000000E+09,4.46300000000000E+09,6.17000000000000E+09,7.49300000000000E+09,8.63400000000000E+09,1.07300000000000E+10,1.18320000000000E+10,1.11360000000000E+10,1.41600000000000E+10,
IRL,,,,,,,,,,,,,,,,,,,,,,,,,,,,,,,,,,,,2.21100000000000E+09,2.47000000000000E+09,2.57800000000000E+09,3.29700000000000E+09,2.62100000000000E+09,2.61500000000000E+09,2.79100000000000E+09,3.09700000000000E+09,3.86200000000000E+09,4.37500000000000E+09,4.78200000000000E+09,5.36900000000000E+09,6.07400000000000E+09,6.35600000000000E+09,4.89400000000000E+09,4.04000000000000E+09,
IRN,,,,,,,,,,,,,,,,,,,,,,,,,,,,,,,,,,,,6.70000000000000E+07,1.90000000000000E+07,1.60000000000000E+07,4.90000000000000E+08,4.03000000000000E+08,4.67000000000000E+08,8.91000000000000E+08,1.35700000000000E+09,1.03300000000000E+09,1.04400000000000E+09,7.91000000000000E+08,1.21600000000000E+09,1.67700000000000E+09,1.91400000000000E+09,2.01200000000000E+09,,
IRQ,,,,,,,,,,,,,,,,,,,,,,,,,,,,,,,,,,,,1.80000000000000E+07,1.50000000000000E+07,1.40000000000000E+07,1.50000000000000E+07,1.00000000000000E+06,2.00000000000000E+06,1.50000000000000E+07,4.50000000000000E+07,,,1.68000000000000E+08,1.44000000000000E+08,5.16000000000000E+08,,,,
ISL,,,,,,,,,,,,,,,,,,,,,,,,,,,,,,,,,,,,1.86000000000000E+08,1.76000000000000E+08,1.73000000000000E+08,2.07000000000000E+08,2.22000000000000E+08,2.27000000000000E+08,2.32000000000000E+08,2.56000000000000E+08,3.19000000000000E+08,3.70000000000000E+08,4.13000000000000E+08,4.78000000000000E+08,6.01000000000000E+08,6.23000000000000E+08,5.59000000000000E+08,5.59000000000000E+08,
ISR,,,,,,,,,,,,,,,,,,,,,,,,,,,,,,,,,,,,2.99300000000000E+09,3.05300000000000E+09,3.29500000000000E+09,3.15700000000000E+09,4.30400000000000E+09,4.11400000000000E+09,2.56000000000000E+09,2.14500000000000E+09,2.13200000000000E+09,2.47600000000000E+09,2.86600000000000E+09,2.79400000000000E+09,3.13600000000000E+09,4.27900000000000E+09,3.74100000000000E+09,4.76800000000000E+09,
ITA,,,,,,,,,,,,,,,,,,,,,,,,,,,,,,,,,,,,2.87310000000000E+10,3.00170000000000E+10,2.97140000000000E+10,2.98090000000000E+10,2.83500000000000E+10,2.74930000000000E+10,2.58220000000000E+10,2.68730000000000E+10,3.12470000000000E+10,3.53780000000000E+10,3.53190000000000E+10,3.82570000000000E+10,4.26600000000000E+10,4.61930000000000E+10,4.03780000000000E+10,3.84150000000000E+10,
JAM,,,,,,,,,,,,,,,,,,,,,,,,,,,,,,,,,,,,1.06900000000000E+09,1.09200000000000E+09,1.13100000000000E+09,1.19700000000000E+09,1.28000000000000E+09,1.33300000000000E+09,1.23200000000000E+09,1.20900000000000E+09,1.35500000000000E+09,1.43800000000000E+09,1.54500000000000E+09,1.87000000000000E+09,1.91000000000000E+09,1.97600000000000E+09,1.92500000000000E+09,2.00100000000000E+09,
JOR,,,,,,,,,,,,,,,,,,,,,,,,,,,,,,,,,,,,6.60000000000000E+08,7.44000000000000E+08,7.74000000000000E+08,8.53000000000000E+08,7.95000000000000E+08,7.23000000000000E+08,7.00000000000000E+08,1.04800000000000E+09,1.06200000000000E+09,1.33000000000000E+09,1.44100000000000E+09,2.06000000000000E+09,2.31100000000000E+09,2.94300000000000E+09,2.91100000000000E+09,3.41300000000000E+09,
JPN,,,,,,,,,,,,,,,,,,,,,,,,,,,,,,,,,,,,3.22400000000000E+09,4.08100000000000E+09,4.32900000000000E+09,3.74300000000000E+09,3.43100000000000E+09,3.37300000000000E+09,3.30600000000000E+09,3.49700000000000E+09,8.84800000000000E+09,1.12650000000000E+10,1.24300000000000E+10,8.47000000000000E+09,9.34500000000000E+09,1.08200000000000E+10,1.03290000000000E+10,1.32240000000000E+10,
KAZ,,,,,,,,,,,,,,,,,,,,,,,,,,,,,,,,,,,,1.22000000000000E+08,1.99000000000000E+08,2.89000000000000E+08,4.07000000000000E+08,3.63000000000000E+08,3.56000000000000E+08,4.52000000000000E+08,6.22000000000000E+08,5.64000000000000E+08,7.18000000000000E+08,7.01000000000000E+08,8.38000000000000E+08,1.01300000000000E+09,1.01200000000000E+09,9.63000000000000E+08,1.00500000000000E+09,
KEN,,,,,,,,,,,,,,,,,,,,,,,,,,,,,,,,,,,,4.23000000000000E+08,4.62000000000000E+08,6.55000000000000E+08,7.25000000000000E+08,7.05000000000000E+08,2.83000000000000E+08,3.09000000000000E+08,2.76000000000000E+08,3.47000000000000E+08,4.86000000000000E+08,5.79000000000000E+08,6.87000000000000E+08,9.17000000000000E+08,7.52000000000000E+08,6.90000000000000E+08,,
KGZ,,,,,,,,,,,,,,,,,,,,,,,,,,,,,,,,,,,,5.00000000000000E+06,4.00000000000000E+06,7.00000000000000E+06,8.00000000000000E+06,1.40000000000000E+07,1.50000000000000E+07,2.40000000000000E+07,3.60000000000000E+07,4.80000000000000E+07,7.60000000000000E+07,7.30000000000000E+07,1.67000000000000E+08,3.46000000000000E+08,5.14000000000000E+08,4.59000000000000E+08,2.84000000000000E+08,
KHM,,,,,,,,,,,,,,,,,,,,,,,,,,,,,,,,,,,,5.30000000000000E+07,8.20000000000000E+07,6.80000000000000E+07,1.07000000000000E+08,2.12000000000000E+08,3.04000000000000E+08,3.80000000000000E+08,4.54000000000000E+08,3.89000000000000E+08,6.03000000000000E+08,8.40000000000000E+08,9.63000000000000E+08,1.13500000000000E+09,1.21900000000000E+09,1.18500000000000E+09,,
KNA,,,,,,,,,,,,,,,,,,,,,,,,,,,,,,,,,,,,6.30000000000000E+07,6.80000000000000E+07,7.20000000000000E+07,7.10000000000000E+07,6.90000000000000E+07,5.80000000000000E+07,6.20000000000000E+07,5.70000000000000E+07,7.50000000000000E+07,1.03000000000000E+08,1.21000000000000E+08,1.32000000000000E+08,1.25000000000000E+08,1.10000000000000E+08,8.30000000000000E+07,8.20000000000000E+07,
KOR,,,,,,,,,,,,,,,,,,,,,,,,,,,,,,,,,,,,5.15000000000000E+09,4.88000000000000E+09,4.73100000000000E+09,6.90800000000000E+09,6.84100000000000E+09,6.83400000000000E+09,6.38400000000000E+09,5.93600000000000E+09,5.35800000000000E+09,6.06900000000000E+09,5.80600000000000E+09,5.78800000000000E+09,6.13800000000000E+09,9.77400000000000E+09,9.81900000000000E+09,9.76500000000000E+09,
KWT,,,,,,,,,,,,,,,,,,,,,,,,,,,,,,,,,,,,1.21000000000000E+08,1.84000000000000E+08,1.88000000000000E+08,2.07000000000000E+08,9.20000000000000E+07,9.80000000000000E+07,1.06000000000000E+08,1.17000000000000E+08,1.18000000000000E+08,1.78000000000000E+08,1.65000000000000E+08,2.05000000000000E+08,2.23000000000000E+08,2.57000000000000E+08,2.48000000000000E+08,,
LAC,,,,,,,,,,,,,,,,,,,,,,,,,,,,,,,,,,,,1.92300000000000E+10,2.15460000000000E+10,2.33160000000000E+10,2.47510000000000E+10,2.52800000000000E+10,2.73340000000000E+10,2.69260000000000E+10,2.60340000000000E+10,2.88120000000000E+10,3.28890000000000E+10,3.71540000000000E+10,4.05440000000000E+10,4.49580000000000E+10,4.85590000000000E+10,4.48555001855670E+10,4.88771369830022E+10,
LAO,,,,,,,,,,,,,,,,,,,,,,,,,,,,,,,,,,,,5.10000000000000E+07,6.20000000000000E+07,5.80000000000000E+07,9.50000000000000E+07,8.20000000000000E+07,1.14000000000000E+08,1.04000000000000E+08,1.07000000000000E+08,7.40000000000000E+07,1.19000000000000E+08,1.39000000000000E+08,1.58000000000000E+08,1.89000000000000E+08,2.76000000000000E+08,2.68000000000000E+08,,
LBN,,,,,,,,,,,,,,,,,,,,,,,,,,,,,,,,,,,,,,,,,,,4.28400000000000E+09,6.37400000000000E+09,5.41100000000000E+09,5.53200000000000E+09,4.98100000000000E+09,5.21600000000000E+09,5.81900000000000E+09,6.77400000000000E+09,8.01200000000000E+09,
LBR,,,,,,,,,,,,,,,,,,,,,,,,,,,,,,,,,,,,,,,,,,,,,5.90000000000000E+07,6.70000000000000E+07,1.24000000000000E+08,1.31000000000000E+08,1.58000000000000E+08,1.23000000000000E+08,,
LBY,,,,,,,,,,,,,,,,,,,,,,,,,,,,,,,,,,,,2.00000000000000E+06,2.00000000000000E+06,2.00000000000000E+06,7.00000000000000E+06,2.70000000000000E+07,7.50000000000000E+07,7.80000000000000E+07,1.81000000000000E+08,2.05000000000000E+08,2.18000000000000E+08,2.50000000000000E+08,1.90000000000000E+08,7.40000000000000E+07,7.40000000000000E+07,5.00000000000000E+07,,
LCA,,,,,,,,,,,,,,,,,,,,,,,,,,,,,,,,,,,,2.30000000000000E+08,2.37000000000000E+08,2.53000000000000E+08,2.83000000000000E+08,2.63000000000000E+08,2.81000000000000E+08,2.33000000000000E+08,2.10000000000000E+08,2.82000000000000E+08,3.26000000000000E+08,3.82000000000000E+08,2.94000000000000E+08,3.02000000000000E+08,3.11000000000000E+08,2.96000000000000E+08,3.29000000000000E+08,
LCN,,,,,,,,,,,,,,,,,,,,,,,,,,,,,,,,,,,,2.21460937739094E+10,2.46542176476942E+10,2.66573165787911E+10,2.81903922959012E+10,2.89334289937569E+10,3.13345475826554E+10,3.07795201703944E+10,3.00184825834924E+10,3.29736285352604E+10,3.75728556865906E+10,4.23330907899462E+10,4.57562598569181E+10,5.06825031592562E+10,5.43116824008690E+10,5.00567478930558E+10,5.44386871802239E+10,
LDC,,,,,,,,,,,,,,,,,,,,,,,,,,,,,,,,,,,,2.00514691191971E+09,2.16404159110956E+09,2.02477746199723E+09,2.34458392950657E+09,2.59578540874947E+09,2.64364956015680E+09,2.92433511112244E+09,3.19033445404707E+09,3.39190603755124E+09,4.22314170585845E+09,4.85235416999522E+09,5.39137417744063E+09,7.32883419116758E+09,8.83903407809748E+09,9.08372845364828E+09,,
LIC,,,,,,,,,,,,,,,,,,,,,,,,,,,,,,,,,,,,2.33391666203626E+09,2.52972755149152E+09,2.61013791351205E+09,2.98440907267148E+09,3.27994794695905E+09,2.73649997733118E+09,3.12378197185736E+09,3.23843975800240E+09,3.50434893289589E+09,4.53450667954891E+09,5.13893448794399E+09,5.82940888145728E+09,7.49138718673355E+09,8.89922019460603E+09,8.65066830164327E+09,,
LKA,,,,,,,,,,,,,,,,,,,,,,,,,,,,,,,,,,,,2.26000000000000E+08,1.66000000000000E+08,2.09000000000000E+08,2.30000000000000E+08,2.73000000000000E+08,2.48000000000000E+08,2.13000000000000E+08,3.63000000000000E+08,4.41000000000000E+08,5.13000000000000E+08,4.29000000000000E+08,4.10000000000000E+08,3.85000000000000E+08,3.42000000000000E+08,3.50000000000000E+08,5.76000000000000E+08,
LMC,,,,,,,,,,,,,,,,,,,,,,,,,,,,,,,,,,,,1.78627293519637E+10,2.06375491451682E+10,2.25323986366986E+10,1.89375931901115E+10,2.20919112840108E+10,2.34766981383281E+10,2.32218526465664E+10,2.39805464782305E+10,2.62104013695380E+10,3.53532428363793E+10,4.00536181356894E+10,4.61522378256876E+10,5.83722760049005E+10,6.34376667072029E+10,5.82795426773739E+10,6.71934475822362E+10,
LMY,,,,,,,,,,,,,,,,,,,,,,,,,,,,,,,,,,,,7.58958275528906E+10,8.87011181122453E+10,9.37992694074087E+10,9.03612256696486E+10,9.29939575170685E+10,1.02140530914792E+11,1.08175170999081E+11,1.15712794849772E+11,1.23911887615863E+11,1.55508852950807E+11,1.72593922172550E+11,1.94877881948842E+11,2.29527097224843E+11,2.53763008408864E+11,2.37051255931207E+11,2.62801467471824E+11,
LSO,,,,,,,,,,,,,,,,,,,,,,,,,,,,,,,,,,,,2.70000000000000E+07,3.20000000000000E+07,3.20000000000000E+07,2.40000000000000E+07,2.30000000000000E+07,2.40000000000000E+07,2.30000000000000E+07,2.00000000000000E+07,2.80000000000000E+07,4.20000000000000E+07,2.60000000000000E+07,2.70000000000000E+07,4.30000000000000E+07,2.40000000000000E+07,4.00000000000000E+07,,
LTU,,,,,,,,,,,,,,,,,,,,,,,,,,,,,,,,,,,,7.70000000000000E+07,3.16000000000000E+08,3.60000000000000E+08,4.60000000000000E+08,5.50000000000000E+08,3.91000000000000E+08,3.83000000000000E+08,5.05000000000000E+08,6.38000000000000E+08,7.76000000000000E+08,9.21000000000000E+08,1.03800000000000E+09,1.15300000000000E+09,1.24900000000000E+09,1.01100000000000E+09,1.02100000000000E+09,
LUX,,,,,,,,,,,,,,,,,,,,,,,,,,,,,,,,,,,,1.69500000000000E+09,1.64000000000000E+09,1.63900000000000E+09,1.63400000000000E+09,1.69700000000000E+09,1.68600000000000E+09,1.78000000000000E+09,2.40600000000000E+09,2.99400000000000E+09,3.65000000000000E+09,3.61200000000000E+09,3.63600000000000E+09,4.03200000000000E+09,4.49100000000000E+09,4.18000000000000E+09,4.11100000000000E+09,
LVA,,,,,,,,,,,,,,,,,,,,,,,,,,,,,,,,,,,,2.00000000000000E+07,2.15000000000000E+08,1.92000000000000E+08,1.82000000000000E+08,1.18000000000000E+08,1.31000000000000E+08,1.19000000000000E+08,1.61000000000000E+08,2.22000000000000E+08,2.67000000000000E+08,3.41000000000000E+08,4.80000000000000E+08,6.71000000000000E+08,8.03000000000000E+08,7.23000000000000E+08,6.40000000000000E+08,
MAC,,,,,,,,,,,,,,,,,,,,,,,,,,,,,,,,,,,,,,,,,,,4.30600000000000E+09,5.15500000000000E+09,7.27100000000000E+09,7.75900000000000E+09,9.44900000000000E+09,1.30760000000000E+10,1.67610000000000E+10,1.78860000000000E+10,,
MAR,,,,,,,,,,,,,,,,,,,,,,,,,,,,,,,,,,,,1.29600000000000E+09,1.67500000000000E+09,1.44600000000000E+09,1.74400000000000E+09,1.94900000000000E+09,2.03900000000000E+09,2.58300000000000E+09,2.64600000000000E+09,3.22100000000000E+09,3.92200000000000E+09,4.61000000000000E+09,5.98400000000000E+09,7.18100000000000E+09,7.22100000000000E+09,6.62600000000000E+09,6.70200000000000E+09,
MDA,,,,,,,,,,,,,,,,,,,,,,,,,,,,,,,,,,,,5.70000000000000E+07,3.30000000000000E+07,5.00000000000000E+07,4.00000000000000E+07,3.40000000000000E+07,3.90000000000000E+07,3.90000000000000E+07,5.00000000000000E+07,5.40000000000000E+07,9.10000000000000E+07,1.03000000000000E+08,1.15000000000000E+08,1.67000000000000E+08,2.12000000000000E+08,1.68000000000000E+08,1.62000000000000E+08,
MDG,,,,,,,,,,,,,,,,,,,,,,,,,,,,,,,,,,,,5.80000000000000E+07,6.50000000000000E+07,7.40000000000000E+07,9.20000000000000E+07,1.00000000000000E+08,1.21000000000000E+08,1.15000000000000E+08,6.40000000000000E+07,7.60000000000000E+07,1.57000000000000E+08,1.83000000000000E+08,2.37000000000000E+08,2.62000000000000E+08,3.51000000000000E+08,3.08000000000000E+08,,
MDV,,,,,,,,,,,,,,,,,,,,,,,,,,,,,,,,,,,,2.11000000000000E+08,2.66000000000000E+08,2.86000000000000E+08,3.03000000000000E+08,3.14000000000000E+08,3.21000000000000E+08,3.27000000000000E+08,3.37000000000000E+08,4.02000000000000E+08,4.71000000000000E+08,2.87000000000000E+08,5.12000000000000E+08,6.02000000000000E+08,6.64000000000000E+08,6.08000000000000E+08,7.14000000000000E+08,
MEX,,,,,,,,,,,,,,,,,,,,,,,,,,,,,,,,,,,,6.17900000000000E+09,6.75600000000000E+09,7.37600000000000E+09,7.49300000000000E+09,7.22300000000000E+09,8.29400000000000E+09,8.40100000000000E+09,8.85800000000000E+09,9.36200000000000E+09,1.07960000000000E+10,1.18030000000000E+10,1.21770000000000E+10,1.28520000000000E+10,1.32890000000000E+10,1.12750000000000E+10,1.18720000000000E+10,
MIC,,,,,,,,,,,,,,,,,,,,,,,,,,,,,,,,,,,,7.37783158389836E+10,8.63834931380838E+10,9.14013071609835E+10,8.76827989518389E+10,9.00744716317513E+10,9.96105524064961E+10,1.05314431486514E+11,1.12734224048085E+11,1.20694472910985E+11,1.51364731162269E+11,1.67910320853196E+11,1.89568215925239E+11,2.22783133815414E+11,2.45827375222359E+11,2.29402235526249E+11,2.54853585547972E+11,
MKD,,,,,,,,,,,,,,,,,,,,,,,,,,,,,,,,,,,,1.90000000000000E+07,2.10000000000000E+07,1.40000000000000E+07,1.70000000000000E+07,4.00000000000000E+07,3.80000000000000E+07,2.60000000000000E+07,3.90000000000000E+07,5.70000000000000E+07,7.20000000000000E+07,8.90000000000000E+07,1.29000000000000E+08,1.86000000000000E+08,2.28000000000000E+08,2.18000000000000E+08,1.97000000000000E+08,
MLI,,,,,,,,,,,,,,,,,,,,,,,,,,,,,,,,,,,,2.50000000000000E+07,2.40000000000000E+07,2.30000000000000E+07,2.50000000000000E+07,3.00000000000000E+07,4.00000000000000E+07,8.80000000000000E+07,1.04000000000000E+08,1.28000000000000E+08,1.40000000000000E+08,1.48000000000000E+08,1.75000000000000E+08,2.21000000000000E+08,2.75000000000000E+08,,,
MLT,,,,,,,,,,,,,,,,,,,,,,,,,,,,,,,,,,,,6.56000000000000E+08,6.32000000000000E+08,6.35000000000000E+08,6.53000000000000E+08,6.67000000000000E+08,5.87000000000000E+08,5.61000000000000E+08,6.14000000000000E+08,7.22000000000000E+08,7.67000000000000E+08,7.55000000000000E+08,7.67000000000000E+08,9.65000000000000E+08,1.07700000000000E+09,8.96000000000000E+08,1.06600000000000E+09,
MMR,,,,,,,,,,,,,,,,,,,,,,,,,,,,,,,,,,,,1.51000000000000E+08,1.81000000000000E+08,1.55000000000000E+08,1.71000000000000E+08,1.89000000000000E+08,1.62000000000000E+08,1.09000000000000E+08,1.20000000000000E+08,5.60000000000000E+07,8.40000000000000E+07,6.80000000000000E+07,4.60000000000000E+07,,,,,
MNA,,,,,,,,,,,,,,,,,,,,,,,,,,,,,,,,,,,,7.90611120711430E+09,8.81289811116035E+09,8.93122716122229E+09,8.91623479008349E+09,1.05264556983668E+10,1.09485563488853E+10,1.12207332880159E+10,1.18026184040942E+10,1.42239109096402E+10,1.64514852327369E+10,1.77776528587141E+10,1.97921907534138E+10,2.39273991546010E+10,2.69321395903938E+10,2.74796899572240E+10,,
MNE,,,,,,,,,,,,,,,,,,,,,,,,,,,,,,,,,,,,,,,,,,,,,,,,6.29000000000000E+08,7.55000000000000E+08,6.59000000000000E+08,6.60000000000000E+08,
MNG,,,,,,,,,,,,,,,,,,,,,,,,,,,,,,,,,,,,2.10000000000000E+07,1.00000000000000E+07,1.30000000000000E+07,3.50000000000000E+07,3.60000000000000E+07,3.60000000000000E+07,3.90000000000000E+07,1.30000000000000E+08,1.43000000000000E+08,1.85000000000000E+08,1.77000000000000E+08,2.25000000000000E+08,3.12000000000000E+08,2.47000000000000E+08,2.35000000000000E+08,,
MOZ,,,,,,,,,,,,,,,,,,,,,,,,,,,,,,,,,,,,,4.90000000000000E+07,6.10000000000000E+07,6.10000000000000E+07,6.10000000000000E+07,7.40000000000000E+07,6.40000000000000E+07,6.30000000000000E+07,9.80000000000000E+07,9.50000000000000E+07,1.30000000000000E+08,1.40000000000000E+08,1.63000000000000E+08,1.90000000000000E+08,1.96000000000000E+08,1.97000000000000E+08,
MRT,,,,,,,,,,,,,,,,,,,,,,,,,,,,,,,,,,,,1.10000000000000E+07,1.90000000000000E+07,2.10000000000000E+07,2.00000000000000E+07,2.80000000000000E+07,,,,,,,,,,,,
MUS,,,,,,,,,,,,,,,,,,,,,,,,,,,,,,,,,,,,4.30000000000000E+08,5.04000000000000E+08,4.78000000000000E+08,4.96000000000000E+08,5.43000000000000E+08,5.42000000000000E+08,6.23000000000000E+08,6.12000000000000E+08,6.97000000000000E+08,8.56000000000000E+08,8.71000000000000E+08,1.00500000000000E+09,1.30400000000000E+09,1.45400000000000E+09,1.12000000000000E+09,1.28500000000000E+09,
MWI,,,,,,,,,,,,,,,,,,,,,,,,,,,,,,,,,,,,1.80000000000000E+07,2.60000000000000E+07,2.80000000000000E+07,2.40000000000000E+07,3.80000000000000E+07,2.50000000000000E+07,2.50000000000000E+07,3.30000000000000E+07,2.30000000000000E+07,2.40000000000000E+07,2.40000000000000E+07,2.40000000000000E+07,2.70000000000000E+07,,,,
MYS,,,,,,,,,,,,,,,,,,,,,,,,,,,,,,,,,,,,3.96900000000000E+09,4.47700000000000E+09,3.74100000000000E+09,2.38100000000000E+09,3.58800000000000E+09,5.01100000000000E+09,6.86300000000000E+09,7.11800000000000E+09,5.90100000000000E+09,8.20300000000000E+09,8.84600000000000E+09,1.04270000000000E+10,1.40500000000000E+10,1.52930000000000E+10,1.57980000000000E+10,,
NAC,,,,,,,,,,,,,,,,,,,,,,,,,,,,,,,,,,,,8.31960000000000E+10,9.08650000000000E+10,9.54720000000000E+10,9.49020000000000E+10,1.00083000000000E+11,1.09152000000000E+11,9.97530000000000E+10,9.58170000000000E+10,9.42660000000000E+10,1.07562000000000E+11,1.16267000000000E+11,1.21956000000000E+11,1.35723000000000E+11,1.51071000000000E+11,1.35201000000000E+11,1.48767424375918E+11,
NAM,,,,,,,,,,,,,,,,,,,,,,,,,,,,,,,,,,,,2.78000000000000E+08,2.93000000000000E+08,3.33000000000000E+08,2.88000000000000E+08,2.87000000000000E+08,1.60000000000000E+08,2.36000000000000E+08,2.18000000000000E+08,3.33000000000000E+08,4.05000000000000E+08,3.49000000000000E+08,3.81000000000000E+08,4.34000000000000E+08,3.82000000000000E+08,3.63000000000000E+08,,
NCL,,,,,,,,,,,,,,,,,,,,,,,,,,,,,,,,,,,,1.08000000000000E+08,1.14000000000000E+08,1.17000000000000E+08,1.10000000000000E+08,1.12000000000000E+08,1.11000000000000E+08,9.40000000000000E+07,1.56000000000000E+08,1.96000000000000E+08,2.41000000000000E+08,1.49000000000000E+08,1.22000000000000E+08,1.42000000000000E+08,1.52000000000000E+08,1.41000000000000E+08,,
NER,,,,,,,,,,,,,,,,,,,,,,,,,,,,,,,,,,,,7.00000000000000E+06,2.50000000000000E+07,2.80000000000000E+07,2.70000000000000E+07,2.50000000000000E+07,2.30000000000000E+07,3.00000000000000E+07,2.00000000000000E+07,2.70000000000000E+07,3.10000000000000E+07,4.30000000000000E+07,3.60000000000000E+07,4.10000000000000E+07,7.90000000000000E+07,,,
NGA,,,,,,,,,,,,,,,,,,,,,,,,,,,,,,,,,,,,1.70000000000000E+07,3.50000000000000E+07,5.50000000000000E+07,4.70000000000000E+07,5.40000000000000E+07,1.01000000000000E+08,9.10000000000000E+07,1.39000000000000E+08,3.00000000000000E+07,2.10000000000000E+07,5.40000000000000E+07,1.84000000000000E+08,2.13000000000000E+08,5.69000000000000E+08,6.02000000000000E+08,5.71000000000000E+08,
NIC,,,,,,,,,,,,,,,,,,,,,,,,,,,,,,,,,,,,5.00000000000000E+07,5.40000000000000E+07,8.00000000000000E+07,1.00000000000000E+08,1.25000000000000E+08,1.29000000000000E+08,1.35000000000000E+08,1.35000000000000E+08,1.60000000000000E+08,1.92000000000000E+08,2.06000000000000E+08,2.31000000000000E+08,2.55000000000000E+08,3.01000000000000E+08,3.34000000000000E+08,3.09000000000000E+08,
NLD,,,,,,,,,,,,,,,,,,,,,,,,,,,,,,,,,,,,6.57800000000000E+09,6.56800000000000E+09,6.29900000000000E+09,6.79600000000000E+09,6.97700000000000E+09,7.19700000000000E+09,6.70800000000000E+09,7.71000000000000E+09,9.16300000000000E+09,1.03080000000000E+10,1.04500000000000E+10,1.13820000000000E+10,1.33390000000000E+10,1.33460000000000E+10,1.24080000000000E+10,1.30410000000000E+10,
NOC,,,,,,,,,,,,,,,,,,,,,,,,,,,,,,,,,,,,3.53747274119109E+10,3.95355002394188E+10,3.63657491174215E+10,2.93714385913471E+10,3.02928358044240E+10,3.17699296215625E+10,3.27904109313708E+10,3.57301389122174E+10,3.72122638620472E+10,4.59479953129409E+10,4.88490997865605E+10,5.41493364584659E+10,6.46075236189214E+10,7.38067942058300E+10,7.16396057538054E+10,,
NOR,,,,,,,,,,,,,,,,,,,,,,,,,,,,,,,,,,,,2.23800000000000E+09,2.25600000000000E+09,2.13500000000000E+09,2.11600000000000E+09,2.27800000000000E+09,2.05000000000000E+09,1.95800000000000E+09,2.17900000000000E+09,2.50000000000000E+09,2.98000000000000E+09,3.33200000000000E+09,3.61700000000000E+09,4.36700000000000E+09,4.80700000000000E+09,4.08200000000000E+09,4.59000000000000E+09,
NPL,,,,,,,,,,,,,,,,,,,,,,,,,,,,,,,,,,,,1.77000000000000E+08,1.61000000000000E+08,1.46000000000000E+08,1.89000000000000E+08,1.73000000000000E+08,1.58000000000000E+08,1.44000000000000E+08,1.03000000000000E+08,1.99000000000000E+08,2.30000000000000E+08,1.31000000000000E+08,1.28000000000000E+08,2.00000000000000E+08,3.35000000000000E+08,4.13000000000000E+08,3.44000000000000E+08,
NZL,,,,,,,,,,,,,,,,,,,,,,,,,,,,,,,,,,,,2.31800000000000E+09,2.55300000000000E+09,2.21100000000000E+09,1.85700000000000E+09,2.23400000000000E+09,2.27200000000000E+09,2.34000000000000E+09,3.15900000000000E+09,4.23200000000000E+09,5.09800000000000E+09,5.21100000000000E+09,4.79200000000000E+09,5.41400000000000E+09,5.15200000000000E+09,4.59300000000000E+09,4.85600000000000E+09,
OEC,,,,,,,,,,,,,,,,,,,,,,,,,,,,,,,,,,,,2.97336000000000E+11,3.14434000000000E+11,3.13998000000000E+11,3.24899000000000E+11,3.33556000000000E+11,3.39939000000000E+11,3.24119000000000E+11,3.34552000000000E+11,3.76347000000000E+11,4.35703000000000E+11,4.59396000000000E+11,4.87337000000000E+11,5.53320000000000E+11,6.05170000000000E+11,5.36678000000000E+11,5.48102735809895E+11,
OED,,,,,,,,,,,,,,,,,,,,,,,,,,,,,,,,,,,,3.09383000000000E+11,3.27771000000000E+11,3.29479000000000E+11,3.40674000000000E+11,3.46893000000000E+11,3.56688000000000E+11,3.43386000000000E+11,3.56209000000000E+11,3.99795000000000E+11,4.63482000000000E+11,4.90460000000000E+11,5.17580000000000E+11,5.86136000000000E+11,6.42084000000000E+11,5.70807000000000E+11,5.82386404847517E+11,
OMN,,,,,,,,,,,,,,,,,,,,,,,,,,,,,,,,,,,,,1.93000000000000E+08,1.92000000000000E+08,2.06000000000000E+08,2.06000000000000E+08,2.21000000000000E+08,3.85000000000000E+08,3.93000000000000E+08,3.85000000000000E+08,4.11000000000000E+08,4.29000000000000E+08,5.44000000000000E+08,6.48000000000000E+08,8.04000000000000E+08,7.00000000000000E+08,,
PAK,,,,,,,,,,,,,,,,,,,,,,,,,,,,,,,,,,,,1.10000000000000E+08,1.05000000000000E+08,1.03000000000000E+08,8.70000000000000E+07,7.40000000000000E+07,8.10000000000000E+07,8.80000000000000E+07,9.70000000000000E+07,1.22000000000000E+08,1.79000000000000E+08,1.82000000000000E+08,2.55000000000000E+08,2.76000000000000E+08,3.16000000000000E+08,2.72000000000000E+08,3.04000000000000E+08,
PAN,,,,,,,,,,,,,,,,,,,,,,,,,,,,,,,,,,,,3.09000000000000E+08,3.60000000000000E+08,3.77000000000000E+08,3.82000000000000E+08,3.96000000000000E+08,4.58000000000000E+08,4.77000000000000E+08,5.13000000000000E+08,5.85000000000000E+08,6.51000000000000E+08,7.80000000000000E+08,9.60000000000000E+08,1.18500000000000E+09,1.40800000000000E+09,1.48300000000000E+09,1.67600000000000E+09,
PER,,,,,,,,,,,,,,,,,,,,,,,,,,,,,,,,,,,,4.28000000000000E+08,6.70000000000000E+08,8.16000000000000E+08,8.45000000000000E+08,8.90000000000000E+08,8.37000000000000E+08,7.33000000000000E+08,7.87000000000000E+08,9.63000000000000E+08,1.14200000000000E+09,1.30800000000000E+09,1.57000000000000E+09,1.72300000000000E+09,1.99100000000000E+09,2.04600000000000E+09,,
PHL,,,,,,,,,,,,,,,,,,,,,,,,,,,,,,,,,,,,1.13600000000000E+09,1.54600000000000E+09,2.34100000000000E+09,1.41800000000000E+09,2.57800000000000E+09,2.15600000000000E+09,1.74200000000000E+09,1.76100000000000E+09,1.54400000000000E+09,2.01700000000000E+09,2.26500000000000E+09,3.50100000000000E+09,4.93300000000000E+09,2.49900000000000E+09,2.33000000000000E+09,2.78300000000000E+09,
PNG,,,,,,,,,,,,,,,,,,,,,,,,,,,,,,,,,,,,2.50000000000000E+07,1.40000000000000E+07,8.00000000000000E+06,1.50000000000000E+07,6.00000000000000E+06,7.00000000000000E+06,5.20000000000000E+06,2.80000000000000E+06,4.00000000000000E+06,5.80000000000000E+06,3.60000000000000E+06,3.90000000000000E+06,4.20000000000000E+06,2.20000000000000E+06,1.20000000000000E+06,,
POL,,,,,,,,,,,,,,,,,,,,,,,,,,,,,,,,,,,,6.61400000000000E+09,8.44400000000000E+09,8.67900000000000E+09,7.94600000000000E+09,6.10000000000000E+09,5.67700000000000E+09,4.64600000000000E+09,4.31400000000000E+09,4.06900000000000E+09,5.83300000000000E+09,6.27400000000000E+09,7.23900000000000E+09,1.05990000000000E+10,1.17680000000000E+10,9.01100000000000E+09,9.44600000000000E+09,
PRT,,,,,,,,,,,,,,,,,,,,,,,,,,,,,,,,,,,,4.83100000000000E+09,4.79100000000000E+09,4.61400000000000E+09,5.47000000000000E+09,5.26000000000000E+09,5.24300000000000E+09,5.46800000000000E+09,5.79800000000000E+09,6.62200000000000E+09,7.67200000000000E+09,7.67600000000000E+09,8.41600000000000E+09,1.01750000000000E+10,1.09800000000000E+10,9.69300000000000E+09,1.00200000000000E+10,
PRY,,,,,,,,,,,,,,,,,,,,,,,,,,,,,,,,,,,,1.37000000000000E+08,1.40000000000000E+08,1.28000000000000E+08,1.11000000000000E+08,8.10000000000000E+07,7.30000000000000E+07,6.90000000000000E+07,6.20000000000000E+07,6.40000000000000E+07,7.00000000000000E+07,7.80000000000000E+07,9.20000000000000E+07,1.02000000000000E+08,1.09000000000000E+08,2.05000000000000E+08,2.17000000000000E+08,
PYF,,,,,,,,,,,,,,,,,,,,,,,,,,,,,,,,,,,,,,,,,,,3.72000000000000E+08,4.80000000000000E+08,5.23000000000000E+08,5.30000000000000E+08,4.63000000000000E+08,5.39000000000000E+08,5.22000000000000E+08,4.38000000000000E+08,,
QAT,,,,,,,,,,,,,,,,,,,,,,,,,,,,,,,,,,,,,,,,1.22000000000000E+08,1.28000000000000E+08,2.72000000000000E+08,2.85000000000000E+08,3.69000000000000E+08,4.98000000000000E+08,7.60000000000000E+08,8.74000000000000E+08,,,,,
ROM,,,,,,,,,,,,,,,,,,,,,,,,,,,,,,,,,,,,5.90000000000000E+08,5.29000000000000E+08,5.26000000000000E+08,2.60000000000000E+08,2.52000000000000E+08,3.59000000000000E+08,3.62000000000000E+08,3.35000000000000E+08,4.49000000000000E+08,5.03000000000000E+08,1.05200000000000E+09,1.30800000000000E+09,1.61000000000000E+09,1.99100000000000E+09,1.22900000000000E+09,1.12500000000000E+09,
RUS,,,,,,,,,,,,,,,,,,,,,,,,,,,,,,,,,,,,4.31200000000000E+09,7.10200000000000E+09,7.16400000000000E+09,6.50800000000000E+09,3.72300000000000E+09,3.42900000000000E+09,3.57200000000000E+09,4.04000000000000E+09,4.50200000000000E+09,5.53000000000000E+09,5.87000000000000E+09,7.62800000000000E+09,9.44700000000000E+09,1.18420000000000E+10,9.36600000000000E+09,8.98500000000000E+09,
RWA,,,,,,,,,,,,,,,,,,,,,,,,,,,,,,,,,,,,2.00000000000000E+06,4.00000000000000E+06,1.70000000000000E+07,1.90000000000000E+07,1.70000000000000E+07,2.30000000000000E+07,2.50000000000000E+07,3.10000000000000E+07,3.00000000000000E+07,4.40000000000000E+07,4.90000000000000E+07,3.10000000000000E+07,6.50000000000000E+07,2.02000000000000E+08,1.74000000000000E+08,,
SAS,,,,,,,,,,,,,,,,,,,,,,,,,,,,,,,,,,,,3.34637800194090E+09,3.57844444398483E+09,3.71306307270296E+09,3.82758936877659E+09,3.91197716588348E+09,4.33793461794680E+09,4.03654962827935E+09,4.07773891020057E+09,5.71024093756592E+09,7.66522490387543E+09,8.63166610407571E+09,1.00652540382605E+10,1.23254758921022E+10,1.36314932205082E+10,1.29208514048214E+10,1.62694727121648E+10,
SAU,,,,,,,,,,,,,,,,,,,,,,,,,,,,,,,,,,,,,,,,,,,,,6.48600000000000E+09,4.62600000000000E+09,4.76900000000000E+09,5.97100000000000E+09,5.90900000000000E+09,5.99500000000000E+09,,
SDN,,,,,,,,,,,,,,,,,,,,,,,,,,,,,,,,,,,,8.00000000000000E+06,8.00000000000000E+06,4.00000000000000E+06,2.00000000000000E+06,2.00000000000000E+06,5.00000000000000E+06,3.00000000000000E+06,1.08000000000000E+08,1.70000000000000E+07,2.10000000000000E+07,8.90000000000000E+07,1.67000000000000E+08,2.62000000000000E+08,3.31000000000000E+08,2.99000000000000E+08,9.40000000000000E+07,
SEN,,,,,,,,,,,,,,,,,,,,,,,,,,,,,,,,,,,,1.68000000000000E+08,1.56000000000000E+08,1.62000000000000E+08,1.72000000000000E+08,1.74000000000000E+08,1.44000000000000E+08,1.74000000000000E+08,1.90000000000000E+08,2.09000000000000E+08,2.11000000000000E+08,2.42000000000000E+08,2.50000000000000E+08,5.31000000000000E+08,5.43000000000000E+08,,,
SGP,,,,,,,,,,,,,,,,,,,,,,,,,,,,,,,,,,,,7.61100000000000E+09,7.40200000000000E+09,6.32600000000000E+09,4.60300000000000E+09,5.08900000000000E+09,5.14200000000000E+09,4.64100000000000E+09,4.45800000000000E+09,3.84200000000000E+09,5.32700000000000E+09,6.20500000000000E+09,7.54500000000000E+09,9.08300000000000E+09,1.07190000000000E+10,9.20000000000000E+09,,
SLB,,,,,,,,,,,,,,,,,,,,,,,,,,,,,,,,,,,,1.57000000000000E+07,1.39000000000000E+07,7.10000000000000E+06,6.60000000000000E+06,5.70000000000000E+06,3.90000000000000E+06,5.20000000000000E+06,7.00000000000000E+05,1.50000000000000E+06,3.50000000000000E+06,1.60000000000000E+06,2.55000000000000E+07,2.73000000000000E+07,3.69000000000000E+07,4.41000000000000E+07,,
SLE,,,,,,,,,,,,,,,,,,,,,,,,,,,,,,,,,,,,5.70000000000000E+07,2.90000000000000E+07,1.00000000000000E+07,6.00000000000000E+06,6.00000000000000E+06,1.00000000000000E+07,1.40000000000000E+07,3.80000000000000E+07,6.00000000000000E+07,5.80000000000000E+07,6.40000000000000E+07,2.30000000000000E+07,2.20000000000000E+07,3.40000000000000E+07,2.50000000000000E+07,2.60000000000000E+07,
SLV,,,,,,,,,,,,,,,,,,,,,,,,,,,,,,,,,,,,8.50000000000000E+07,8.60000000000000E+07,1.49000000000000E+08,2.06000000000000E+08,2.22000000000000E+08,2.17000000000000E+08,2.01000000000000E+08,2.45000000000000E+08,3.82000000000000E+08,4.53000000000000E+08,3.61000000000000E+08,3.82000000000000E+08,4.82000000000000E+08,4.25000000000000E+08,3.19000000000000E+08,3.90000000000000E+08,
SRB,,,,,,,,,,,,,,,,,,,,,,,,,,,,,,,,,,,,,,,,,,,,,,,,8.64000000000000E+08,9.57000000000000E+08,8.69000000000000E+08,7.99000000000000E+08,
SSA,,,,,,,,,,,,,,,,,,,,,,,,,,,,,,,,,,,,5.12897800427481E+09,5.85075516700714E+09,6.26754088302840E+09,6.74966744686360E+09,6.92732323670899E+09,6.21442445303123E+09,6.69428033393457E+09,7.37483696634863E+09,1.10094833406588E+10,1.28226072064555E+10,1.48018873066939E+10,1.62876162538352E+10,1.90456311068038E+10,1.94800035103669E+10,1.84604788990985E+10,2.02245234829206E+10,
SSF,,,,,,,,,,,,,,,,,,,,,,,,,,,,,,,,,,,,5.18947202681494E+09,5.91976223131015E+09,6.34146375014405E+09,6.82927678313461E+09,7.00902794428912E+09,6.28772083539479E+09,6.77323640375461E+09,7.46181990004424E+09,1.11393353175653E+10,1.29738441758331E+10,1.49764690076919E+10,1.64797214693310E+10,1.92702658852150E+10,1.97097615187764E+10,1.86782120665430E+10,2.04630627744558E+10,
STP,,,,,,,,,,,,,,,,,,,,,,,,,,,,,,,,,,,,,,,4.10000000000000E+06,9.20000000000000E+06,9.90000000000000E+06,6.20000000000000E+06,6.90000000000000E+06,7.40000000000000E+06,7.70000000000000E+06,7.30000000000000E+06,6.70000000000000E+06,5.00000000000000E+06,7.70000000000000E+06,8.30000000000000E+06,,
SUR,,,,,,,,,,,,,,,,,,,,,,,,,,,,,,,,,,,,2.10000000000000E+07,1.40000000000000E+07,9.00000000000000E+06,2.00000000000000E+06,9.00000000000000E+06,1.60000000000000E+07,1.40000000000000E+07,3.00000000000000E+06,4.00000000000000E+06,1.70000000000000E+07,4.50000000000000E+07,9.50000000000000E+07,6.70000000000000E+07,7.70000000000000E+07,6.40000000000000E+07,6.10000000000000E+07,
SVK,,,,,,,,,,,,,,,,,,,,,,,,,,,,,,,,,,,,6.23000000000000E+08,6.73000000000000E+08,5.45000000000000E+08,4.88000000000000E+08,4.61000000000000E+08,4.33000000000000E+08,6.41000000000000E+08,7.36000000000000E+08,8.65000000000000E+08,9.05000000000000E+08,1.21000000000000E+09,1.52100000000000E+09,2.02600000000000E+09,2.58900000000000E+09,2.34100000000000E+09,2.22800000000000E+09,
SVN,,,,,,,,,,,,,,,,,,,,,,,,,,,,,,,,,,,,1.08400000000000E+09,1.24000000000000E+09,1.18100000000000E+09,1.08800000000000E+09,9.58000000000000E+08,9.61000000000000E+08,1.00100000000000E+09,1.08600000000000E+09,1.34200000000000E+09,1.62400000000000E+09,1.79500000000000E+09,1.79700000000000E+09,2.28300000000000E+09,2.83700000000000E+09,2.51800000000000E+09,2.30000000000000E+09,
SWE,,,,,,,,,,,,,,,,,,,,,,,,,,,,,,,,,,,,3.47100000000000E+09,3.68600000000000E+09,3.60000000000000E+09,4.18800000000000E+09,4.13200000000000E+09,4.06400000000000E+09,4.25300000000000E+09,4.71000000000000E+09,5.30400000000000E+09,6.19800000000000E+09,7.39400000000000E+09,8.17000000000000E+09,1.06420000000000E+10,1.10260000000000E+10,1.02750000000000E+10,1.10930000000000E+10,
SWZ,,,,,,,,,,,,,,,,,,,,,,,,,,,,,,,,,,,,4.80000000000000E+07,3.80000000000000E+07,4.00000000000000E+07,4.70000000000000E+07,1.20000000000000E+07,2.10000000000000E+07,2.10000000000000E+07,4.30000000000000E+07,7.00000000000000E+07,7.50000000000000E+07,7.70000000000000E+07,7.50000000000000E+07,3.20000000000000E+07,2.60000000000000E+07,4.00000000000000E+07,,
SXM,,,,,,,,,,,,,,,,,,,,,,,,,,,,,,,,,,,,3.49000000000000E+08,3.22000000000000E+08,3.79000000000000E+08,4.30000000000000E+08,4.43000000000000E+08,5.11000000000000E+08,4.84000000000000E+08,4.89000000000000E+08,5.38000000000000E+08,6.26000000000000E+08,6.59000000000000E+08,6.51000000000000E+08,6.62000000000000E+08,6.63000000000000E+08,6.16000000000000E+08,,
SYC,,,,,,,,,,,,,,,,,,,,,,,,,,,,,,,,,,,,1.29000000000000E+08,1.41000000000000E+08,1.57000000000000E+08,1.35000000000000E+08,1.36000000000000E+08,1.39000000000000E+08,1.46000000000000E+08,1.64000000000000E+08,1.71000000000000E+08,1.72000000000000E+08,1.92000000000000E+08,2.28000000000000E+08,2.78000000000000E+08,2.69000000000000E+08,2.08000000000000E+08,,
SYR,,,,,,,,,,,,,,,,,,,,,,,,,,,,,,,,,,,,1.25800000000000E+09,1.16500000000000E+09,1.01300000000000E+09,1.01700000000000E+09,1.03100000000000E+09,1.08200000000000E+09,1.15000000000000E+09,9.70000000000000E+08,7.73000000000000E+08,1.80000000000000E+09,1.94400000000000E+09,2.02500000000000E+09,2.88400000000000E+09,3.15000000000000E+09,3.75700000000000E+09,,
TGO,,,,,,,,,,,,,,,,,,,,,,,,,,,,,,,,,,,,1.30000000000000E+07,1.00000000000000E+07,1.20000000000000E+07,1.10000000000000E+07,7.00000000000000E+06,8.00000000000000E+06,1.10000000000000E+07,1.30000000000000E+07,1.50000000000000E+07,1.90000000000000E+07,2.00000000000000E+07,2.10000000000000E+07,3.40000000000000E+07,4.00000000000000E+07,,,
THA,,,,,,,,,,,,,,,,,,,,,,,,,,,,,,,,,,,,8.03500000000000E+09,9.08900000000000E+09,7.66000000000000E+09,6.17400000000000E+09,7.02800000000000E+09,7.48300000000000E+09,7.07500000000000E+09,7.90100000000000E+09,7.85600000000000E+09,1.00430000000000E+10,9.57700000000000E+09,1.33930000000000E+10,1.66670000000000E+10,1.81630000000000E+10,1.56650000000000E+10,1.96900000000000E+10,
TJK,,,,,,,,,,,,,,,,,,,,,,,,,,,,,,,,,,,,,,,,,,,1.60000000000000E+06,1.50000000000000E+06,1.20000000000000E+06,1.60000000000000E+06,2.10000000000000E+06,3.30000000000000E+06,4.20000000000000E+06,2.40000000000000E+06,4.50000000000000E+06,
TKM,,,,,,,,,,,,,,,,,,,,,,,,,,,,,,,,,,,,,7.00000000000000E+06,3.30000000000000E+07,,,,,,,,,,,,,,
TMP,,,,,,,,,,,,,,,,,,,,,,,,,,,,,,,,,,,,,,,,,,,,,,,2.00000000000000E+07,2.60000000000000E+07,1.40000000000000E+07,1.80000000000000E+07,,
TON,,,,,,,,,,,,,,,,,,,,,,,,,,,,,,,,,,,,1.00000000000000E+07,1.30000000000000E+07,1.60000000000000E+07,8.00000000000000E+06,9.00000000000000E+06,7.00000000000000E+06,6.80000000000000E+06,5.90000000000000E+06,1.03000000000000E+07,1.28000000000000E+07,1.49000000000000E+07,1.57000000000000E+07,1.44000000000000E+07,1.91000000000000E+07,,,
TTO,,,,,,,,,,,,,,,,,,,,,,,,,,,,,,,,,,,,7.70000000000000E+07,1.08000000000000E+08,1.93000000000000E+08,2.01000000000000E+08,2.10000000000000E+08,2.13000000000000E+08,2.01000000000000E+08,2.42000000000000E+08,2.49000000000000E+08,3.41000000000000E+08,4.53000000000000E+08,3.82000000000000E+08,4.63000000000000E+08,3.97000000000000E+08,,,
TUN,,,,,,,,,,,,,,,,,,,,,,,,,,,,,,,,,,,,1.53000000000000E+09,1.58800000000000E+09,1.54300000000000E+09,1.65700000000000E+09,1.82700000000000E+09,1.68200000000000E+09,1.75100000000000E+09,1.52300000000000E+09,1.58300000000000E+09,1.97000000000000E+09,2.14300000000000E+09,2.27500000000000E+09,2.57500000000000E+09,2.95300000000000E+09,2.77300000000000E+09,,
TUR,,,,,,,,,,,,,,,,,,,,,,,,,,,,,,,,,,,,4.95700000000000E+09,5.65000000000000E+09,7.00200000000000E+09,7.17700000000000E+09,5.20300000000000E+09,7.63600000000000E+09,1.00670000000000E+10,1.19010000000000E+10,1.32030000000000E+10,1.58880000000000E+10,1.81520000000000E+10,1.68530000000000E+10,1.84870000000000E+10,2.19510000000000E+10,2.12500000000000E+10,2.08070000000000E+10,
TZA,,,,,,,,,,,,,,,,,,,,,,,,,,,,,,,,,,,,5.02000000000000E+08,4.73000000000000E+08,3.39000000000000E+08,3.99000000000000E+08,4.64000000000000E+08,3.77000000000000E+08,6.15000000000000E+08,6.35000000000000E+08,6.47000000000000E+08,7.46000000000000E+08,8.24000000000000E+08,9.50000000000000E+08,1.19900000000000E+09,1.28900000000000E+09,1.16000000000000E+09,1.25500000000000E+09,
UGA,,,,,,,,,,,,,,,,,,,,,,,,,,,,,,,,,,,,7.80000000000000E+07,1.17000000000000E+08,1.35000000000000E+08,1.44000000000000E+08,1.51000000000000E+08,1.65000000000000E+08,1.65000000000000E+08,1.71000000000000E+08,1.84000000000000E+08,2.67000000000000E+08,3.80000000000000E+08,3.46000000000000E+08,3.98000000000000E+08,4.98000000000000E+08,6.67000000000000E+08,7.30000000000000E+08,
UKR,,,,,,,,,,,,,,,,,,,,,,,,,,,,,,,,,,,,1.91000000000000E+08,2.30000000000000E+08,2.70000000000000E+08,3.15000000000000E+08,3.27000000000000E+08,3.94000000000000E+08,5.73000000000000E+08,7.88000000000000E+08,9.35000000000000E+08,2.56000000000000E+09,3.12500000000000E+09,3.48500000000000E+09,4.59700000000000E+09,5.76800000000000E+09,3.57600000000000E+09,3.78800000000000E+09,
UMC,,,,,,,,,,,,,,,,,,,,,,,,,,,,,,,,,,,,5.59912057932443E+10,6.58197980738021E+10,6.89837071537517E+10,6.87194597266090E+10,6.80984099458034E+10,7.62122544930913E+10,8.20891139075748E+10,8.87025906187095E+10,9.44828125938523E+10,1.16257122501541E+11,1.28212434873938E+11,1.43906635258385E+11,1.65378571072014E+11,1.83347045231814E+11,1.71903059071442E+11,1.89299927378835E+11,
URY,,,,,,,,,,,,,,,,,,,,,,,,,,,,,,,,,,,,6.11000000000000E+08,7.17000000000000E+08,7.59000000000000E+08,6.95000000000000E+08,6.53000000000000E+08,7.13000000000000E+08,6.11000000000000E+08,3.51000000000000E+08,3.45000000000000E+08,4.94000000000000E+08,5.94000000000000E+08,5.98000000000000E+08,8.09000000000000E+08,1.05100000000000E+09,1.31200000000000E+09,1.49600000000000E+09,
USA,,,,,,,,,,,,,,,,,,,,,,,,,,,,,,,,,,,,7.47910000000000E+10,8.17860000000000E+10,8.61750000000000E+10,8.50010000000000E+10,8.94010000000000E+10,9.79430000000000E+10,8.87790000000000E+10,8.47520000000000E+10,8.33160000000000E+10,9.41070000000000E+10,1.02070000000000E+11,1.06906000000000E+11,1.19586000000000E+11,1.34972000000000E+11,1.21131000000000E+11,1.32593000000000E+11,
UZB,,,,,,,,,,,,,,,,,,,,,,,,,,,,,,,,,,,,,,,,,2.70000000000000E+07,2.20000000000000E+07,2.20000000000000E+07,2.40000000000000E+07,2.80000000000000E+07,2.80000000000000E+07,4.30000000000000E+07,5.10000000000000E+07,6.40000000000000E+07,9.90000000000000E+07,,
VCT,,,,,,,,,,,,,,,,,,,,,,,,,,,,,,,,,,,,5.30000000000000E+07,6.40000000000000E+07,7.10000000000000E+07,7.30000000000000E+07,8.50000000000000E+07,8.20000000000000E+07,8.90000000000000E+07,9.10000000000000E+07,9.10000000000000E+07,9.60000000000000E+07,1.04000000000000E+08,1.13000000000000E+08,1.10000000000000E+08,9.60000000000000E+07,8.80000000000000E+07,8.70000000000000E+07,
VEN,,,,,,,,,,,,,,,,,,,,,,,,,,,,,,,,,,,,8.49000000000000E+08,8.84000000000000E+08,5.58000000000000E+08,7.03000000000000E+08,5.81000000000000E+08,4.23000000000000E+08,6.15000000000000E+08,4.34000000000000E+08,3.31000000000000E+08,5.02000000000000E+08,6.50000000000000E+08,7.68000000000000E+08,8.17000000000000E+08,9.17000000000000E+08,7.88000000000000E+08,6.18000000000000E+08,
VUT,,,,,,,,,,,,,,,,,,,,,,,,,,,,,,,,,,,,4.50000000000000E+07,5.60000000000000E+07,5.30000000000000E+07,6.00000000000000E+07,5.00000000000000E+07,5.60000000000000E+07,4.60000000000000E+07,5.40000000000000E+07,6.40000000000000E+07,7.50000000000000E+07,8.50000000000000E+07,9.20000000000000E+07,1.19000000000000E+08,,,,
WBG,,,,,,,,,,,,,,,,,,,,,,,,,,,,,,,,,,,,2.55000000000000E+08,2.42000000000000E+08,2.39000000000000E+08,3.46000000000000E+08,3.77000000000000E+08,2.83000000000000E+08,3.70000000000000E+07,3.80000000000000E+07,1.52000000000000E+08,1.15000000000000E+08,1.19000000000000E+08,8.90000000000000E+07,2.12000000000000E+08,2.69000000000000E+08,4.10000000000000E+08,,
WLD,,,,,,,,,,,,,,,,,,,,,,,,,,,,,,,,,,,,4.10587738381547E+11,4.44406620456840E+11,4.46464424091457E+11,4.48453061838782E+11,4.60742585144645E+11,4.77704492236247E+11,4.68272031726714E+11,4.88986935577539E+11,5.40846517582440E+11,6.41200674307077E+11,6.85246136581564E+11,7.41388589046218E+11,8.53485964439411E+11,9.39584062501340E+11,8.51980520456114E+11,8.89085968937120E+11,
WSM,,,,,,,,,,,,,,,,,,,,,,,,,,,,,,,,,,,,3.50000000000000E+07,4.00000000000000E+07,3.80000000000000E+07,3.90000000000000E+07,4.20000000000000E+07,4.10000000000000E+07,3.90000000000000E+07,4.50000000000000E+07,5.40000000000000E+07,6.90000000000000E+07,7.90000000000000E+07,9.00000000000000E+07,1.03000000000000E+08,1.12000000000000E+08,1.16000000000000E+08,1.24000000000000E+08,
YEM,,,,,,,,,,,,,,,,,,,,,,,,,,,,,,,,,,,,5.00000000000000E+07,5.50000000000000E+07,7.00000000000000E+07,8.40000000000000E+07,6.10000000000000E+07,7.30000000000000E+07,3.80000000000000E+07,3.80000000000000E+07,1.39000000000000E+08,1.39000000000000E+08,1.81000000000000E+08,1.81000000000000E+08,4.25000000000000E+08,4.53000000000000E+08,4.96000000000000E+08,,
ZAF,,,,,,,,,,,,,,,,,,,,,,,,,,,,,,,,,,,,2.12600000000000E+09,2.61500000000000E+09,2.85100000000000E+09,2.85400000000000E+09,2.80000000000000E+09,2.67700000000000E+09,2.56900000000000E+09,2.92300000000000E+09,5.71200000000000E+09,6.51300000000000E+09,7.51600000000000E+09,8.12000000000000E+09,8.77900000000000E+09,7.95600000000000E+09,7.62400000000000E+09,9.08500000000000E+09,
ZMB,,,,,,,,,,,,,,,,,,,,,,,,,,,,,,,,,,,,,,2.90000000000000E+07,4.00000000000000E+07,5.30000000000000E+07,6.70000000000000E+07,8.00000000000000E+07,6.40000000000000E+07,8.80000000000000E+07,9.20000000000000E+07,9.80000000000000E+07,1.10000000000000E+08,1.38000000000000E+08,1.48000000000000E+08,9.80000000000000E+07,1.25000000000000E+08,
