"Country Code",1960,1961,1962,1963,1964,1965,1966,1967,1968,1969,1970,1971,1972,1973,1974,1975,1976,1977,1978,1979,1980,1981,1982,1983,1984,1985,1986,1987,1988,1989,1990,1991,1992,1993,1994,1995,1996,1997,1998,1999,2000,2001,2002,2003,2004,2005,2006,2007,2008,2009,2010,2011AFG,,,,,,,,,,,,,,,,,,,,,,,,,,,,,,,,,,,,,,,,,,,,,,,,,3.80000000000000E+00,,,
AGO,,,,,,,,,,,,,,,,,,,,,,,,,,,,,,,,,,,,,,,,,6.00000000000000E-01,,,,,,,,,,,
ALB,,,,,,,,,,,,,,,,,,,,,,,,,,,,,,,,,,,,,,3.78000000000000E+00,,,,,3.95000000000000E+00,,3.45000000000000E+00,3.30000000000000E+00,,,3.53000000000000E+00,,,
ARG,,,,,,,,,,,,,,,,,,,,,,,,,,,1.87000000000000E+00,,,,,,1.88000000000000E+00,,,,1.56000000000000E+00,,1.40000000000000E+00,,,,1.11000000000000E+00,,1.20000000000000E+00,1.21000000000000E+00,1.26000000000000E+00,,,1.39000000000000E+00,,
ARM,,,,,,,,,,,,,,,,,,,,,,,,,,,,,,,,,,,,,2.30000000000000E+00,,,3.12000000000000E+00,,3.18000000000000E+00,3.32000000000000E+00,3.65000000000000E+00,,,,,3.74000000000000E+00,,,
AUS,,,,,,,,,,,,,,,,,,,,,,,,,,,,,,,,,,,2.03000000000000E+00,,,,,,,,,,,,,,,,,
AUT,,,,,,,,,,,,,,,,,,,,,,,,,,,,,,,,,,,,,,,,,3.34000000000000E+00,,,,,,,,,,,
AZE,,,,,,,,,,,,,,,,,,,,,,,,,,,,,,,,,,,,2.75000000000000E+00,,,,,,3.22000000000000E+00,,,,6.21000000000000E+00,,,3.43000000000000E+00,,,
BDI,,,,,,,,,,,,,,,,,,,,,,,,,,,,,,,,,3.41000000000000E+00,,,,,,1.83000000000000E+00,,,,,,,,4.14000000000000E+00,,,,,
BEL,,,,,,,,,,,,,,,,,,,,,,,,,,,,,,,,,,,,,,,,,3.42000000000000E+00,,,,,,,,,,,
BEN,,,,,,,,,,,,,,,,,,,,,,,,,,,,,,,,,,,,,,,,,,,,3.00000000000000E+00,,,,,,,,
BFA,,,,,,,,,,,,,,,,,,,,,,,,,,,,,,,,,,,2.25000000000000E+00,,,,2.42000000000000E+00,,,,,3.01000000000000E+00,,,,,,,,
BGD,,,,,,,,,,,,,,,,,,,,,,,,,4.13000000000000E+00,,4.47000000000000E+00,,,4.16000000000000E+00,,,4.30000000000000E+00,,,,4.03000000000000E+00,,,,4.18000000000000E+00,,,,,4.26000000000000E+00,,,,,,
BGR,,,,,,,,,,,,,,,,,,,,,,,,,,,,,,4.56000000000000E+00,,,3.33000000000000E+00,,4.39000000000000E+00,2.10000000000000E+00,,4.52000000000000E+00,,,,2.33000000000000E+00,,3.46000000000000E+00,,,,2.01000000000000E+00,,,,
BIH,,,,,,,,,,,,,,,,,,,,,,,,,,,,,,,,,,,,,,,,,,3.80000000000000E+00,,,2.88000000000000E+00,,,2.71000000000000E+00,,,,
BLR,,,,,,,,,,,,,,,,,,,,,,,,,,,,,4.47000000000000E+00,,,,,4.87000000000000E+00,,3.39000000000000E+00,,4.18000000000000E+00,3.37000000000000E+00,,3.60000000000000E+00,3.36000000000000E+00,3.43000000000000E+00,,3.99000000000000E+00,3.63000000000000E+00,,,3.80000000000000E+00,,,
BLZ,,,,,,,,,,,,,,,,,,,,,,,,,,,,,,,,,,,,6.60000000000000E-01,,,,1.03000000000000E+00,,,,,,,,,,,,
BOL,,,,,,,,,,,,,,,,,,,,,,,,,,,,,,,,2.32000000000000E+00,,,,,,6.60000000000000E-01,,1.60000000000000E-01,,,3.20000000000000E-01,,,5.00000000000000E-01,,9.90000000000000E-01,,,,
BRA,,,,,,,,,,,,,,,,,,,,,,1.11000000000000E+00,1.05000000000000E+00,1.11000000000000E+00,1.16000000000000E+00,1.05000000000000E+00,1.08000000000000E+00,9.30000000000000E-01,8.60000000000000E-01,8.20000000000000E-01,8.80000000000000E-01,,9.40000000000000E-01,9.50000000000000E-01,,1.00000000000000E+00,9.40000000000000E-01,9.40000000000000E-01,9.90000000000000E-01,1.04000000000000E+00,,1.01000000000000E+00,1.08000000000000E+00,1.07000000000000E+00,1.05000000000000E+00,1.16000000000000E+00,,,1.14000000000000E+00,1.22000000000000E+00,,
BTN,,,,,,,,,,,,,,,,,,,,,,,,,,,,,,,,,,,,,,,,,,,,2.30000000000000E+00,,,,,,,,
BWA,,,,,,,,,,,,,,,,,,,,,,,,,,,1.43000000000000E+00,,,,,,,,1.28000000000000E+00,,,,,,,,,,,,,,,,,
CAF,,,,,,,,,,,,,,,,,,,,,,,,,,,,,,,,,6.90000000000000E-01,,,,,,,,,,,2.10000000000000E+00,,,,,1.22000000000000E+00,,,
CAN,,,,,,,,,,,,,,,,,,,,,,,,,,,,,,,,,,,,,,,,,2.63000000000000E+00,,,,,,,,,,,
CHE,,,,,,,,,,,,,,,,,,,,,,,,,,,,,,,,,,,,,,,,,2.88000000000000E+00,,,,,,,,,,,
CHL,,,,,,,,,,,,,,,,,,,,,,,,,,,,1.40000000000000E+00,,,1.50000000000000E+00,,,,1.51000000000000E+00,,1.53000000000000E+00,,1.46000000000000E+00,,1.54000000000000E+00,,,1.60000000000000E+00,,,1.79000000000000E+00,,,1.52000000000000E+00,,
CHN,,,,,,,,,,,,,,,,,,,,,,,,,,,,,,,,,,,,,,,,,,,,,,2.37000000000000E+00,,,,,,
CIV,,,,,,,,,,,,,,,,,,,,,,,,,,2.29000000000000E+00,3.07000000000000E+00,2.74000000000000E+00,2.82000000000000E+00,,,,,3.00000000000000E+00,,3.05000000000000E+00,,,2.31000000000000E+00,,,,1.96000000000000E+00,,,,,,2.23000000000000E+00,,,
CMR,,,,,,,,,,,,,,,,,,,,,,,,,,,,,,,,,,,,,2.50000000000000E+00,,,,,2.37000000000000E+00,,,,,,2.91000000000000E+00,,,,
COG,,,,,,,,,,,,,,,,,,,,,,,,,,,,,,,,,,,,,,,,,,,,,,2.08000000000000E+00,,,,,,
COL,,,,,,,,,,,,,,,,,,,,,9.30000000000000E-01,,,,,,,,1.22000000000000E+00,1.34000000000000E+00,,1.34000000000000E+00,,,,1.02000000000000E+00,9.10000000000000E-01,,9.80000000000000E-01,8.30000000000000E-01,9.80000000000000E-01,,,9.00000000000000E-01,,,8.80000000000000E-01,,,,,
COM,,,,,,,,,,,,,,,,,,,,,,,,,,,,,,,,,,,,,,,,,,,,,9.10000000000000E-01,,,,,,,
CPV,,,,,,,,,,,,,,,,,,,,,,,,,,,,,,,,,,,,,,,,,,,1.88000000000000E+00,,,,,,,,,
CRI,,,,,,,,,,,,,,,,,,,,,,1.07000000000000E+00,,,,,1.68000000000000E+00,,,,1.36000000000000E+00,,1.41000000000000E+00,1.49000000000000E+00,,,1.45000000000000E+00,1.67000000000000E+00,1.56000000000000E+00,,1.56000000000000E+00,1.46000000000000E+00,,1.21000000000000E+00,,1.69000000000000E+00,,,,1.67000000000000E+00,,
CZE,,,,,,,,,,,,,,,,,,,,,,,,,,,,,5.31000000000000E+00,,,,,4.64000000000000E+00,,,4.32000000000000E+00,,,,,,,,,,,,,,,
DEU,,,,,,,,,,,,,,,,,,,,,,,,,,,,,,,,,,,,,,,,,3.22000000000000E+00,,,,,,,,,,,
DJI,,,,,,,,,,,,,,,,,,,,,,,,,,,,,,,,,,,,,2.56000000000000E+00,,,,,,2.42000000000000E+00,,,,,,,,,
DNK,,,,,,,,,,,,,,,,,,,,,,,,,,,,,,,,,,,,,,2.62000000000000E+00,,,,,,,,,,,,,,
DOM,,,,,,,,,,,,,,,,,,,,,,,,,,,1.38000000000000E+00,,,1.66000000000000E+00,,,1.61000000000000E+00,,,,1.66000000000000E+00,1.37000000000000E+00,,,1.41000000000000E+00,,,1.56000000000000E+00,,1.66000000000000E+00,1.60000000000000E+00,1.73000000000000E+00,,,,
DZA,,,,,,,,,,,,,,,,,,,,,,,,,,,,,2.56000000000000E+00,,,,,,,2.87000000000000E+00,,,,,,,,,,,,,,,,
ECU,,,,,,,,,,,,,,,,,,,,,,,,,,,,1.03000000000000E+00,,,,,,,1.05000000000000E+00,,,,1.25000000000000E+00,,,,,8.90000000000000E-01,,1.26000000000000E+00,,1.41000000000000E+00,,1.59000000000000E+00,,
EGY,,,,,,,,,,,,,,,,,,,,,,,,,,,,,,,,3.85000000000000E+00,,,,,4.18000000000000E+00,,,,3.88000000000000E+00,,,,,3.85000000000000E+00,,,,,,
ESP,,,,,,,,,,,,,,,,,,,,,,,,,,,,,,,,,,,,,,,,,2.57000000000000E+00,,,,,,,,,,,
EST,,,,,,,,,,,,,,,,,,,,,,,,,,,,,4.20000000000000E+00,,,,,2.50000000000000E+00,,3.37000000000000E+00,,,2.99000000000000E+00,,2.69000000000000E+00,2.84000000000000E+00,2.75000000000000E+00,2.63000000000000E+00,2.71000000000000E+00,,,,,,,
ETH,,,,,,,,,,,,,,,,,,,,,,,3.68000000000000E+00,,,,,,,,,,,,,2.97000000000000E+00,,,,,3.87000000000000E+00,,,,,4.07000000000000E+00,,,,,,
FIN,,,,,,,,,,,,,,,,,,,,,,,,,,,,,,,,,,,,,,,,,4.02000000000000E+00,,,,,,,,,,,
FRA,,,,,,,,,,,,,,,,,,,,,,,,,,,,,,,,,,,,2.75000000000000E+00,,,,,,,,,,,,,,,,
FSM,,,,,,,,,,,,,,,,,,,,,,,,,,,,,,,,,,,,,,,,,4.10000000000000E-01,,,,,,,,,,,
GAB,,,,,,,,,,,,,,,,,,,,,,,,,,,,,,,,,,,,,,,,,,,,,,2.58000000000000E+00,,,,,,
GBR,,,,,,,,,,,,,,,,,,,,,,,,,,,,,,,,,,,,,,,,2.06000000000000E+00,,,,,,,,,,,,
GEO,,,,,,,,,,,,,,,,,,,,,,,,,,,,,,,,,,,,,2.33000000000000E+00,2.42000000000000E+00,2.22000000000000E+00,2.28000000000000E+00,2.32000000000000E+00,2.48000000000000E+00,2.15000000000000E+00,2.11000000000000E+00,,2.01000000000000E+00,,,2.00000000000000E+00,,,
GHA,,,,,,,,,,,,,,,,,,,,,,,,,,,,,2.82000000000000E+00,2.87000000000000E+00,,,2.79000000000000E+00,,,,,,2.24000000000000E+00,,,,,,,,2.03000000000000E+00,,,,,
GIN,,,,,,,,,,,,,,,,,,,,,,,,,,,,,,,,1.02000000000000E+00,,,2.69000000000000E+00,,,,,,,,,2.39000000000000E+00,,,,2.66000000000000E+00,,,,
GMB,,,,,,,,,,,,,,,,,,,,,,,,,,,,,,,,,,,,,,,1.62000000000000E+00,,,,,1.95000000000000E+00,,,,,,,,
GNB,,,,,,,,,,,,,,,,,,,,,,,,,,,,,,,,5.00000000000000E-01,,2.11000000000000E+00,,,,,,,,,3.05000000000000E+00,,,,,,,,,
GRC,,,,,,,,,,,,,,,,,,,,,,,,,,,,,,,,,,,,,,,,,2.55000000000000E+00,,,,,,,,,,,
GTM,,,,,,,,,,,,,,,,,,,,,,,,,,,,1.00000000000000E+00,,6.80000000000000E-01,,,,,,,,,1.02000000000000E+00,,1.14000000000000E+00,,1.08000000000000E+00,,,,1.30000000000000E+00,,,,,
GUY,,,,,,,,,,,,,,,,,,,,,,,,,,,,,,,,,,1.59000000000000E+00,,,,,1.33000000000000E+00,,,,,,,,,,,,,
HKG,,,,,,,,,,,,,,,,,,,,,,,,,,,,,,,,,,,,,1.97000000000000E+00,,,,,,,,,,,,,,,
HND,,,,,,,,,,,,,,,,,,,,,,,,,,,1.23000000000000E+00,,,1.04000000000000E+00,1.02000000000000E+00,,1.05000000000000E+00,,1.13000000000000E+00,,,1.20000000000000E+00,,1.21000000000000E+00,,,,1.33000000000000E+00,,7.40000000000000E-01,,5.30000000000000E-01,,,,
HRV,,,,,,,,,,,,,,,,,,,,,,,,,,,,,4.31000000000000E+00,,,,,,,,,,3.96000000000000E+00,3.79000000000000E+00,3.54000000000000E+00,3.52000000000000E+00,,,3.70000000000000E+00,,,,3.33000000000000E+00,,,
HTI,,,,,,,,,,,,,,,,,,,,,,,,,,,,,,,,,,,,,,,,,,8.80000000000000E-01,,,,,,,,,,
HUN,,,,,,,,,,,,,,,,,,,,,,,,,,,,4.96000000000000E+00,,4.63000000000000E+00,,,,4.10000000000000E+00,,,,,4.21000000000000E+00,3.98000000000000E+00,4.02000000000000E+00,3.98000000000000E+00,4.08000000000000E+00,,3.61000000000000E+00,,,3.54000000000000E+00,,,,
IDN,,,,,,,,,,,,,,,,,,,,,,,,,,,,,,,,,,,,,,,,,,,,,,3.00000000000000E+00,,3.16000000000000E+00,,3.27000000000000E+00,,
IND,,,,,,,,,,,,,,,,,,,,,,,,,,,,,,,,,,,,,,,,,,,,,,3.64000000000000E+00,,,,,,
IRL,,,,,,,,,,,,,,,,,,,,,,,,,,,,,,,,,,,,,,,,,2.91000000000000E+00,,,,,,,,,,,
IRN,,,,,,,,,,,,,,,,,,,,,,,,,,,1.81000000000000E+00,,,,2.06000000000000E+00,,,,2.23000000000000E+00,,,,2.07000000000000E+00,,,,,,,2.62000000000000E+00,,,,,,
IRQ,,,,,,,,,,,,,,,,,,,,,,,,,,,,,,,,,,,,,,,,,,,,,,,,3.79000000000000E+00,,,,
ISR,,,,,,,,,,,,,,,,,,,,,,,,,,,,,,,,,,,,,,,,,,2.14000000000000E+00,,,,,,,,,,
ITA,,,,,,,,,,,,,,,,,,,,,,,,,,,,,,,,,,,,,,,,,2.30000000000000E+00,,,,,,,,,,,
JAM,,,,,,,,,,,,,,,,,,,,,,,,,,,,,2.14000000000000E+00,,2.51000000000000E+00,,,2.72000000000000E+00,,,2.53000000000000E+00,,,2.27000000000000E+00,,,2.02000000000000E+00,,2.25000000000000E+00,,,,,,,
JOR,,,,,,,,,,,,,,,,,,,,,,,,,,,,3.14000000000000E+00,,,,,2.54000000000000E+00,,,,,3.27000000000000E+00,,,,,,2.87000000000000E+00,,,3.15000000000000E+00,,,,,
JPN,,,,,,,,,,,,,,,,,,,,,,,,,,,,,,,,,,4.78000000000000E+00,,,,,,,,,,,,,,,,,,
KAZ,,,,,,,,,,,,,,,,,,,,,,,,,,,,,4.07000000000000E+00,,,,,3.07000000000000E+00,,,2.81000000000000E+00,,,,,3.49000000000000E+00,3.02000000000000E+00,3.11000000000000E+00,,,,3.76000000000000E+00,,,,
KEN,,,,,,,,,,,,,,,,,,,,,,,,,,,,,,,,,1.24000000000000E+00,,2.11000000000000E+00,,,2.50000000000000E+00,,,,,,,,1.96000000000000E+00,,,,,,
KGZ,,,,,,,,,,,,,,,,,,,,,,,,,,,,,5.14000000000000E+00,,,,,7.10000000000000E-01,,,,,3.05000000000000E+00,3.24000000000000E+00,,,3.65000000000000E+00,,3.56000000000000E+00,,,4.06000000000000E+00,,,,
KHM,,,,,,,,,,,,,,,,,,,,,,,,,,,,,,,,,,,3.67000000000000E+00,,,,,,,,,,3.07000000000000E+00,,,2.96000000000000E+00,,,,
KOR,,,,,,,,,,,,,,,,,,,,,,,,,,,,,,,,,,,,,,,2.89000000000000E+00,,,,,,,,,,,,,
LAO,,,,,,,,,,,,,,,,,,,,,,,,,,,,,,,,,4.16000000000000E+00,,,,,3.39000000000000E+00,,,,,3.78000000000000E+00,,,,,,3.34000000000000E+00,,,
LBR,,,,,,,,,,,,,,,,,,,,,,,,,,,,,,,,,,,,,,,,,,,,,,,,2.35000000000000E+00,,,,
LCA,,,,,,,,,,,,,,,,,,,,,,,,,,,,,,,,,,,,2.01000000000000E+00,,,,,,,,,,,,,,,,
LKA,,,,,,,,,,,,,,,,,,,,,,,,,,3.59000000000000E+00,,,,,,3.75000000000000E+00,,,,,3.57000000000000E+00,,,,,,2.97000000000000E+00,,,,,3.05000000000000E+00,,,,
LSO,,,,,,,,,,,,,,,,,,,,,,,,,,,,1.04000000000000E+00,,,,,,1.01000000000000E+00,4.60000000000000E-01,,,,,,,,,9.90000000000000E-01,,,,,,,,
LTU,,,,,,,,,,,,,,,,,,,,,,,,,,,,,4.52000000000000E+00,,,,,3.14000000000000E+00,,,3.08000000000000E+00,,3.36000000000000E+00,,3.24000000000000E+00,3.13000000000000E+00,3.14000000000000E+00,,2.72000000000000E+00,,,,2.63000000000000E+00,,,
LUX,,,,,,,,,,,,,,,,,,,,,,,,,,,,,,,,,,,,,,,,,3.50000000000000E+00,,,,,,,,,,,
LVA,,,,,,,,,,,,,,,,,,,,,,,,,,,,,4.46000000000000E+00,,,,,4.25000000000000E+00,,2.94000000000000E+00,2.62000000000000E+00,2.59000000000000E+00,2.82000000000000E+00,,,,2.80000000000000E+00,,2.70000000000000E+00,,,,,,,
MAR,,,,,,,,,,,,,,,,,,,,,,,,,,2.66000000000000E+00,,,,,,2.81000000000000E+00,,,,,,,,2.76000000000000E+00,,2.78000000000000E+00,,,,,,2.66000000000000E+00,,,,
MDA,,,,,,,,,,,,,,,,,,,,,,,,,,,,,4.27000000000000E+00,,,,2.72000000000000E+00,,,,,2.62000000000000E+00,,2.77000000000000E+00,,2.97000000000000E+00,2.85000000000000E+00,,3.06000000000000E+00,,,,2.85000000000000E+00,,,
MDG,,,,,,,,,,,,,,,,,,,,,2.02000000000000E+00,,,,,,,,,,,,,1.94000000000000E+00,,,,2.43000000000000E+00,,2.44000000000000E+00,,2.10000000000000E+00,,,,2.62000000000000E+00,,,,,,
MDV,,,,,,,,,,,,,,,,,,,,,,,,,,,,,,,,,,,,,,,4.90000000000000E-01,,,,,,2.71000000000000E+00,,,,,,,
MEX,,,,,,,,,,,,,,,,,,,,,,,,,1.87000000000000E+00,,,,,1.21000000000000E+00,,,1.64000000000000E+00,,1.18000000000000E+00,1.38000000000000E+00,1.11000000000000E+00,,1.12000000000000E+00,,1.28000000000000E+00,,1.50000000000000E+00,,1.57000000000000E+00,,1.62000000000000E+00,,1.25000000000000E+00,,,
MKD,,,,,,,,,,,,,,,,,,,,,,,,,,,,,,,,,,,,,,,3.26000000000000E+00,,2.35000000000000E+00,,2.39000000000000E+00,2.42000000000000E+00,,,,,2.23000000000000E+00,,,
MLI,,,,,,,,,,,,,,,,,,,,,,,,,,,,,,2.95000000000000E+00,,,,,1.96000000000000E+00,,,,,,,2.57000000000000E+00,,,,,2.73000000000000E+00,,,,,
MNE,,,,,,,,,,,,,,,,,,,,,,,,,,,,,,,,,,,,,,,,,,,,,,,,,3.57000000000000E+00,,,
MNG,,,,,,,,,,,,,,,,,,,,,,,,,,,,,,,,,,,,3.06000000000000E+00,,,3.04000000000000E+00,,,,3.08000000000000E+00,,,2.90000000000000E+00,,,,,,
MOZ,,,,,,,,,,,,,,,,,,,,,,,,,,,,,,,,,,,,,2.21000000000000E+00,,,,,,,2.12000000000000E+00,,,,,1.94000000000000E+00,,,
MRT,,,,,,,,,,,,,,,,,,,,,,,,,,,,1.42000000000000E+00,,,,,,2.05000000000000E+00,,,2.54000000000000E+00,,,,2.54000000000000E+00,,,,,,,,,,,
MWI,,,,,,,,,,,,,,,,,,,,,,,,,,,,,,,,,,,,,,,1.87000000000000E+00,,,,,,3.02000000000000E+00,,,,,,,
MYS,,,,,,,,,,,,,,,,,,,,,,,,,1.83000000000000E+00,,,1.99000000000000E+00,,2.11000000000000E+00,,,1.89000000000000E+00,,,1.80000000000000E+00,,1.74000000000000E+00,,,,,,,2.67000000000000E+00,,,,,1.78000000000000E+00,,
NAM,,,,,,,,,,,,,,,,,,,,,,,,,,,,,,,,,,6.10000000000000E-01,,,,,,,,,,,,,,,,,,
NER,,,,,,,,,,,,,,,,,,,,,,,,,,,,,,,,,3.00000000000000E+00,,2.50000000000000E+00,,,,,,,,,,,2.33000000000000E+00,,3.65000000000000E+00,,,,
NGA,,,,,,,,,,,,,,,,,,,,,,,,,,2.47000000000000E+00,,,,,,,1.42000000000000E+00,,,,1.89000000000000E+00,,,,,,,,1.99000000000000E+00,,,,,,,
NIC,,,,,,,,,,,,,,,,,,,,,,,,,,,,,,,,,,8.60000000000000E-01,,,,,1.03000000000000E+00,,,1.66000000000000E+00,,,,1.35000000000000E+00,,,,,,
NLD,,,,,,,,,,,,,,,,,,,,,,,,,,,,,,,,,,,,,,,,2.49000000000000E+00,,,,,,,,,,,,
NOR,,,,,,,,,,,,,,,,,,,,,,,,,,,,,,,,,,,,,,,,,3.86000000000000E+00,,,,,,,,,,,
NPL,,,,,,,,,,,,,,,,,,,,,,,,,,,,,,,,,,,,,3.34000000000000E+00,,,,,,,,2.58000000000000E+00,,,,,,,
NZL,,,,,,,,,,,,,,,,,,,,,,,,,,,,,,,,,,,,,,2.22000000000000E+00,,,,,,,,,,,,,,
PAK,,,,,,,,,,,,,,,,,,,,,,,,,,,,3.64000000000000E+00,,,,3.46000000000000E+00,,4.35000000000000E+00,,,,4.52000000000000E+00,,3.75000000000000E+00,,,4.10000000000000E+00,,,4.10000000000000E+00,3.96000000000000E+00,,,,,
PAN,,,,,,,,,,,,,,,,,,,,1.49000000000000E+00,,,,,,,,,,,,5.90000000000000E-01,,,,7.00000000000000E-01,7.20000000000000E-01,1.23000000000000E+00,,,8.20000000000000E-01,6.40000000000000E-01,8.70000000000000E-01,,9.50000000000000E-01,,8.90000000000000E-01,,,1.33000000000000E+00,,
PER,,,,,,,,,,,,,,,,,,,,,,,,,,,1.95000000000000E+00,,,,2.17000000000000E+00,,,,1.91000000000000E+00,,1.59000000000000E+00,,,,,1.19000000000000E+00,1.13000000000000E+00,,,1.42000000000000E+00,1.49000000000000E+00,,,1.40000000000000E+00,,
PHL,,,,,,,,,,,,,,,,,,,,,,,,,,2.77000000000000E+00,,,2.83000000000000E+00,,,2.55000000000000E+00,,,2.56000000000000E+00,,,2.28000000000000E+00,,,2.30000000000000E+00,,,2.31000000000000E+00,,,2.41000000000000E+00,,,,,
PNG,,,,,,,,,,,,,,,,,,,,,,,,,,,,,,,,,,,,,1.90000000000000E+00,,,,,,,,,,,,,,,
POL,,,,,,,,,,,,,,,,,,,,,,,,,,4.12000000000000E+00,,4.11000000000000E+00,,3.85000000000000E+00,,,3.94000000000000E+00,1.98000000000000E+00,,,3.45000000000000E+00,,3.33000000000000E+00,3.27000000000000E+00,3.30000000000000E+00,3.29000000000000E+00,3.19000000000000E+00,,2.87000000000000E+00,3.03000000000000E+00,,,3.20000000000000E+00,,,
PRT,,,,,,,,,,,,,,,,,,,,,,,,,,,,,,,,,,,,,,1.99000000000000E+00,,,,,,,,,,,,,,
PRY,,,,,,,,,,,,,,,,,,,,,,,,,,,,,,,2.43000000000000E+00,,,,,7.10000000000000E-01,,,4.90000000000000E-01,6.60000000000000E-01,,,6.70000000000000E-01,,,1.11000000000000E+00,,1.09000000000000E+00,1.41000000000000E+00,,,
QAT,,,,,,,,,,,,,,,,,,,,,,,,,,,,,,,,,,,,,,,,,,,,,,,,1.30000000000000E+00,,,,
ROM,,,,,,,,,,,,,,,,,,,,,,,,,,,,,,4.12000000000000E+00,,,3.80000000000000E+00,,3.70000000000000E+00,,,,3.57000000000000E+00,,3.29000000000000E+00,3.28000000000000E+00,3.14000000000000E+00,,,3.40000000000000E+00,,,3.26000000000000E+00,,,
RUS,,,,,,,,,,,,,,,,,,,,,,,,,,,,,4.22000000000000E+00,,,,,1.52000000000000E+00,,,1.46000000000000E+00,,,2.48000000000000E+00,,2.50000000000000E+00,2.84000000000000E+00,,,2.68000000000000E+00,,,2.56000000000000E+00,,,
RWA,,,,,,,,,,,,,,,,,,,,,,,,,,4.41000000000000E+00,,,,,,,,,,,,,,,2.09000000000000E+00,,,,,1.65000000000000E+00,,,,,,
SEN,,,,,,,,,,,,,,,,,,,,,,,,,,,,,,,,1.36000000000000E+00,,,2.62000000000000E+00,,,,,,,2.84000000000000E+00,,,,2.54000000000000E+00,,,,,,
SGP,,,,,,,,,,,,,,,,,,,,,,,,,,,,,,,,,,,,,,,1.85000000000000E+00,,,,,,,,,,,,,
SLE,,,,,,,,,,,,,,,,,,,,,,,,,,,,,,,1.22000000000000E+00,,,,,,,,,,,,,2.63000000000000E+00,,,,,,,,
SLV,,,,,,,,,,,,,,,,,,,,,,,,,,,,,,4.20000000000000E-01,,,,,,1.32000000000000E+00,1.21000000000000E+00,1.38000000000000E+00,1.18000000000000E+00,,9.10000000000000E-01,,8.00000000000000E-01,9.20000000000000E-01,,1.08000000000000E+00,,,1.83000000000000E+00,,,
SRB,,,,,,,,,,,,,,,,,,,,,,,,,,,,,,,,,,,,,,,,,,,,,,,,,3.87000000000000E+00,,,
STP,,,,,,,,,,,,,,,,,,,,,,,,,,,,,,,,,,,,,,,,,,2.21000000000000E+00,,,,,,,,,,
SUR,,,,,,,,,,,,,,,,,,,,,,,,,,,,,,,,,,,,,,,,1.11000000000000E+00,,,,,,,,,,,,
SVK,,,,,,,,,,,,,,,,,,,,,,,,,,,,,5.43000000000000E+00,,,,5.13000000000000E+00,,,,3.13000000000000E+00,,,,,,,,,,,,,,,
SVN,,,,,,,,,,,,,,,,,,,,,,,,,,,,4.49000000000000E+00,,,,,,3.97000000000000E+00,,,,,3.94000000000000E+00,,,,3.58000000000000E+00,3.43000000000000E+00,3.38000000000000E+00,,,,,,,
SWE,,,,,,,,,,,,,,,,,,,,,,,,,,,,,,,,,,,,,,,,,3.58000000000000E+00,,,,,,,,,,,
SWZ,,,,,,,,,,,,,,,,,,,,,,,,,,,,,,,,,,,,1.04000000000000E+00,,,,,,1.82000000000000E+00,,,,,,,,,,
SYC,,,,,,,,,,,,,,,,,,,,,,,,,,,,,,,,,,,,,,,,,2.12000000000000E+00,,,,,,,1.64000000000000E+00,,,,
SYR,,,,,,,,,,,,,,,,,,,,,,,,,,,,,,,,,,,,,,,,,,,,,3.36000000000000E+00,,,,,,,
TCD,,,,,,,,,,,,,,,,,,,,,,,,,,,,,,,,,,,,,,,,,,,,2.61000000000000E+00,,,,,,,,
TGO,,,,,,,,,,,,,,,,,,,,,,,,,,,,,,,,,,,,,,,,,,,,,,,3.27000000000000E+00,,,,,
THA,,,,,,,,,,,,,,,,,,,,,,2.29000000000000E+00,,,,,,,2.68000000000000E+00,,,,2.46000000000000E+00,,,,2.65000000000000E+00,,2.79000000000000E+00,2.61000000000000E+00,2.67000000000000E+00,,2.77000000000000E+00,,2.66000000000000E+00,,,,,,,
TJK,,,,,,,,,,,,,,,,,,,,,,,,,,,,,,,,,,,,,,,,3.27000000000000E+00,,,,3.37000000000000E+00,3.29000000000000E+00,,,,,,,
TKM,,,,,,,,,,,,,,,,,,,,,,,,,,,,,5.12000000000000E+00,,,,,2.85000000000000E+00,,,,,2.57000000000000E+00,,,,,,,,,,,,,
TMP,,,,,,,,,,,,,,,,,,,,,,,,,,,,,,,,,,,,,,,,,,2.89000000000000E+00,,,,,,4.01000000000000E+00,,,,
TTO,,,,,,,,,,,,,,,,,,,,,,,,,,,,,1.86000000000000E+00,,,,2.07000000000000E+00,,,,,,,,,,,,,,,,,,,
TUN,,,,,,,,,,,,,,,,,,,,,,,,,,2.26000000000000E+00,,,,,2.28000000000000E+00,,,,,2.30000000000000E+00,,,,,2.44000000000000E+00,,,,,,,,,,,
TUR,,,,,,,,,,,,,,,,,,,,,,,,,,,,2.37000000000000E+00,,,,,,,2.27000000000000E+00,,,,,,,,2.28000000000000E+00,,1.96000000000000E+00,1.96000000000000E+00,,,,,,
TZA,,,,,,,,,,,,,,,,,,,,,,,,,,,,,,,,,3.04000000000000E+00,,,,,,,,3.05000000000000E+00,,,,,,,2.82000000000000E+00,,,,
UGA,,,,,,,,,,,,,,,,,,,,,,,,,,,,,,1.93000000000000E+00,,,2.47000000000000E+00,,,,3.17000000000000E+00,,,2.36000000000000E+00,,,2.30000000000000E+00,,,2.59000000000000E+00,,,,2.35000000000000E+00,,
UKR,,,,,,,,,,,,,,,,,,,,,,,,,,,,,4.38000000000000E+00,,,,4.09000000000000E+00,,,,2.90000000000000E+00,,,3.65000000000000E+00,,,3.79000000000000E+00,,,3.87000000000000E+00,,,4.07000000000000E+00,,,
URY,,,,,,,,,,,,,,,,,,,,,,1.89000000000000E+00,,,,,,,,2.12000000000000E+00,,,1.98000000000000E+00,,,,1.88000000000000E+00,,1.68000000000000E+00,,1.87000000000000E+00,1.79000000000000E+00,,1.97000000000000E+00,,1.84000000000000E+00,1.78000000000000E+00,,,2.29000000000000E+00,,
USA,,,,,,,,,,,,,,,,,,,,,,,,,,,,,,,,,,,,,,,,,1.88000000000000E+00,,,,,,,,,,,
UZB,,,,,,,,,,,,,,,,,,,,,,,,,,,,,4.92000000000000E+00,,,,,,,,,,1.09000000000000E+00,,,,3.17000000000000E+00,2.85000000000000E+00,,,,,,,,
VEN,,,,,,,,,,,,,,,,,,,,,,1.25000000000000E+00,,,,,,1.32000000000000E+00,,1.82000000000000E+00,,,,2.23000000000000E+00,,1.60000000000000E+00,1.25000000000000E+00,1.55000000000000E+00,8.30000000000000E-01,,,,,9.60000000000000E-01,,1.19000000000000E+00,1.85000000000000E+00,,,,,
VNM,,,,,,,,,,,,,,,,,,,,,,,,,,,,,,,,,,3.46000000000000E+00,,,,,3.57000000000000E+00,,,,3.32000000000000E+00,,3.16000000000000E+00,,3.08000000000000E+00,,3.23000000000000E+00,,,
YEM,,,,,,,,,,,,,,,,,,,,,,,,,,,,,,,,,2.44000000000000E+00,,,,,,3.03000000000000E+00,,,,,,,2.91000000000000E+00,,,,,,
ZAF,,,,,,,,,,,,,,,,,,,,,,,,,,,,,,,,,,1.25000000000000E+00,,1.53000000000000E+00,,,,,1.28000000000000E+00,,,,,,1.07000000000000E+00,,,,,
ZAR,,,,,,,,,,,,,,,,,,,,,,,,,,,,,,,,,,,,,,,,,,,,,,,2.29000000000000E+00,,,,,
ZMB,,,,,,,,,,,,,,,,,,,,,,,,,,,,,,,,0.00000000000000E+00,,1.07000000000000E+00,,,1.63000000000000E+00,,1.22000000000000E+00,,,,,2.59000000000000E+00,1.32000000000000E+00,,,,,,,
ZWE,,,,,,,,,,,,,,,,,,,,,,,,,,,,,,,,,,,,1.83000000000000E+00,,,,,,,,,,,,,,,,
