"Country Code",1960,1961,1962,1963,1964,1965,1966,1967,1968,1969,1970,1971,1972,1973,1974,1975,1976,1977,1978,1979,1980,1981,1982,1983,1984,1985,1986,1987,1988,1989,1990,1991,1992,1993,1994,1995,1996,1997,1998,1999,2000,2001,2002,2003,2004,2005,2006,2007,2008,2009,2010,2011AFG,,,,,,,,,,,,,,,,,,,,,,,,,,,,,,,,,,,,,,,,,,,,,,,,,1.31000000000000E+01,,,
AGO,,,,,,,,,,,,,,,,,,,,,,,,,,,,,,,,,,,,,,,,,5.66000000000000E+00,,,,,,,,,,,
ALB,,,,,,,,,,,,,,,,,,,,,,,,,,,,,,,,,,,,,,1.30200000000000E+01,,,,,1.33800000000000E+01,,1.26900000000000E+01,1.22100000000000E+01,,,1.20500000000000E+01,,,
ARG,,,,,,,,,,,,,,,,,,,,,,,,,,,9.41000000000000E+00,,,,,,8.95000000000000E+00,,,,8.19000000000000E+00,,7.80000000000000E+00,,,,7.16000000000000E+00,,7.65000000000000E+00,7.85000000000000E+00,8.13000000000000E+00,,,8.95000000000000E+00,,
ARM,,,,,,,,,,,,,,,,,,,,,,,,,,,,,,,,,,,,,9.38000000000000E+00,,,1.17000000000000E+01,,1.15600000000000E+01,1.18000000000000E+01,1.22800000000000E+01,,,,,1.28100000000000E+01,,,
AUS,,,,,,,,,,,,,,,,,,,,,,,,,,,,,,,,,,,1.20100000000000E+01,,,,,,,,,,,,,,,,,
AUT,,,,,,,,,,,,,,,,,,,,,,,,,,,,,,,,,,,,,,,,,1.33300000000000E+01,,,,,,,,,,,
AZE,,,,,,,,,,,,,,,,,,,,,,,,,,,,,,,,,,,,1.19300000000000E+01,,,,,,1.13700000000000E+01,,,,1.62500000000000E+01,,,1.20900000000000E+01,,,
BDI,,,,,,,,,,,,,,,,,,,,,,,,,,,,,,,,,1.20900000000000E+01,,,,,,1.03000000000000E+01,,,,,,,,1.18600000000000E+01,,,,,
BEL,,,,,,,,,,,,,,,,,,,,,,,,,,,,,,,,,,,,,,,,,1.29800000000000E+01,,,,,,,,,,,
BEN,,,,,,,,,,,,,,,,,,,,,,,,,,,,,,,,,,,,,,,,,,,,1.08400000000000E+01,,,,,,,,
BFA,,,,,,,,,,,,,,,,,,,,,,,,,,,,,,,,,,,7.91000000000000E+00,,,,9.26000000000000E+00,,,,,1.06300000000000E+01,,,,,,,,
BGD,,,,,,,,,,,,,,,,,,,,,,,,,1.42900000000000E+01,,1.38200000000000E+01,,,1.33600000000000E+01,,,1.39900000000000E+01,,,,1.29100000000000E+01,,,,1.26900000000000E+01,,,,,1.26200000000000E+01,,,,,,
BGR,,,,,,,,,,,,,,,,,,,,,,,,,,,,,,1.47400000000000E+01,,,1.30200000000000E+01,,1.46800000000000E+01,1.34700000000000E+01,,1.38900000000000E+01,,,,1.23300000000000E+01,,1.35000000000000E+01,,,,9.11000000000000E+00,,,,
BIH,,,,,,,,,,,,,,,,,,,,,,,,,,,,,,,,,,,,,,,,,,1.36000000000000E+01,,,1.15200000000000E+01,,,1.13100000000000E+01,,,,
BLR,,,,,,,,,,,,,,,,,,,,,,,,,,,,,1.48800000000000E+01,,,,,1.53000000000000E+01,,1.34600000000000E+01,,1.42000000000000E+01,1.31000000000000E+01,,1.29200000000000E+01,1.30200000000000E+01,1.31600000000000E+01,,1.40600000000000E+01,1.36800000000000E+01,,,1.37700000000000E+01,,,
BLZ,,,,,,,,,,,,,,,,,,,,,,,,,,,,,,,,,,,,5.42000000000000E+00,,,,7.29000000000000E+00,,,,,,,,,,,,
BOL,,,,,,,,,,,,,,,,,,,,,,,,,,,,,,,,9.66000000000000E+00,,,,,,6.07000000000000E+00,,5.75000000000000E+00,,,5.65000000000000E+00,,,5.95000000000000E+00,,6.35000000000000E+00,,,,
BRA,,,,,,,,,,,,,,,,,,,,,,6.01000000000000E+00,5.83000000000000E+00,5.73000000000000E+00,5.83000000000000E+00,5.67000000000000E+00,5.92000000000000E+00,5.62000000000000E+00,5.23000000000000E+00,4.80000000000000E+00,5.27000000000000E+00,,6.16000000000000E+00,5.69000000000000E+00,,5.67000000000000E+00,5.62000000000000E+00,5.62000000000000E+00,5.68000000000000E+00,5.82000000000000E+00,,5.85000000000000E+00,5.95000000000000E+00,6.11000000000000E+00,6.29000000000000E+00,6.47000000000000E+00,,,7.07000000000000E+00,7.17000000000000E+00,,
BTN,,,,,,,,,,,,,,,,,,,,,,,,,,,,,,,,,,,,,,,,,,,,8.68000000000000E+00,,,,,,,,
BWA,,,,,,,,,,,,,,,,,,,,,,,,,,,6.88000000000000E+00,,,,,,,,5.81000000000000E+00,,,,,,,,,,,,,,,,,
CAF,,,,,,,,,,,,,,,,,,,,,,,,,,,,,,,,,4.93000000000000E+00,,,,,,,,,,,9.38000000000000E+00,,,,,6.87000000000000E+00,,,
CAN,,,,,,,,,,,,,,,,,,,,,,,,,,,,,,,,,,,,,,,,,1.27300000000000E+01,,,,,,,,,,,
CHE,,,,,,,,,,,,,,,,,,,,,,,,,,,,,,,,,,,,,,,,,1.22000000000000E+01,,,,,,,,,,,
CHL,,,,,,,,,,,,,,,,,,,,,,,,,,,,6.51000000000000E+00,,,6.81000000000000E+00,,,,6.85000000000000E+00,,6.82000000000000E+00,,6.68000000000000E+00,,6.89000000000000E+00,,,7.06000000000000E+00,,,7.61000000000000E+00,,,7.91000000000000E+00,,
CHN,,,,,,,,,,,,,,,,,,,,,,,,,,,,,,,,,,,,,,,,,,,,,,9.80000000000000E+00,,,,,,
CIV,,,,,,,,,,,,,,,,,,,,,,,,,,1.00700000000000E+01,1.06000000000000E+01,1.02900000000000E+01,1.11800000000000E+01,,,,,1.11600000000000E+01,,1.11700000000000E+01,,,9.70000000000000E+00,,,,8.71000000000000E+00,,,,,,1.00700000000000E+01,,,
CMR,,,,,,,,,,,,,,,,,,,,,,,,,,,,,,,,,,,,,8.88000000000000E+00,,,,,9.31000000000000E+00,,,,,,1.04900000000000E+01,,,,
COG,,,,,,,,,,,,,,,,,,,,,,,,,,,,,,,,,,,,,,,,,,,,,,8.44000000000000E+00,,,,,,
COL,,,,,,,,,,,,,,,,,,,,,5.97000000000000E+00,,,,,,,,7.21000000000000E+00,7.16000000000000E+00,,7.59000000000000E+00,,,,6.75000000000000E+00,6.87000000000000E+00,,6.24000000000000E+00,6.48000000000000E+00,6.39000000000000E+00,,,5.99000000000000E+00,,,5.96000000000000E+00,,,,,
COM,,,,,,,,,,,,,,,,,,,,,,,,,,,,,,,,,,,,,,,,,,,,,5.35000000000000E+00,,,,,,,
CPV,,,,,,,,,,,,,,,,,,,,,,,,,,,,,,,,,,,,,,,,,,,7.91000000000000E+00,,,,,,,,,
CRI,,,,,,,,,,,,,,,,,,,,,,8.32000000000000E+00,,,,,1.19600000000000E+01,,,,9.06000000000000E+00,,8.79000000000000E+00,8.84000000000000E+00,,,8.63000000000000E+00,8.92000000000000E+00,8.33000000000000E+00,,8.74000000000000E+00,7.97000000000000E+00,,8.03000000000000E+00,,8.57000000000000E+00,,,,7.84000000000000E+00,,
CZE,,,,,,,,,,,,,,,,,,,,,,,,,,,,,1.56800000000000E+01,,,,,1.38700000000000E+01,,,1.43300000000000E+01,,,,,,,,,,,,,,,
DEU,,,,,,,,,,,,,,,,,,,,,,,,,,,,,,,,,,,,,,,,,1.37200000000000E+01,,,,,,,,,,,
DJI,,,,,,,,,,,,,,,,,,,,,,,,,,,,,,,,,,,,,1.14800000000000E+01,,,,,,1.05100000000000E+01,,,,,,,,,
DNK,,,,,,,,,,,,,,,,,,,,,,,,,,,,,,,,,,,,,,1.47400000000000E+01,,,,,,,,,,,,,,
DOM,,,,,,,,,,,,,,,,,,,,,,,,,,,8.58000000000000E+00,,,7.89000000000000E+00,,,8.07000000000000E+00,,,,8.30000000000000E+00,8.17000000000000E+00,,,7.47000000000000E+00,,,7.64000000000000E+00,,7.96000000000000E+00,7.55000000000000E+00,8.39000000000000E+00,,,,
DZA,,,,,,,,,,,,,,,,,,,,,,,,,,,,,1.07900000000000E+01,,,,,,,1.15500000000000E+01,,,,,,,,,,,,,,,,
ECU,,,,,,,,,,,,,,,,,,,,,,,,,,,,8.07000000000000E+00,,,,,,,7.63000000000000E+00,,,,7.17000000000000E+00,,,,,6.01000000000000E+00,,7.21000000000000E+00,,7.04000000000000E+00,,8.33000000000000E+00,,
EGY,,,,,,,,,,,,,,,,,,,,,,,,,,,,,,,,1.24900000000000E+01,,,,,1.30100000000000E+01,,,,1.24700000000000E+01,,,,,1.26400000000000E+01,,,,,,
ESP,,,,,,,,,,,,,,,,,,,,,,,,,,,,,,,,,,,,,,,,,1.20900000000000E+01,,,,,,,,,,,
EST,,,,,,,,,,,,,,,,,,,,,,,,,,,,,1.47900000000000E+01,,,,,1.08100000000000E+01,,1.28700000000000E+01,,,1.09600000000000E+01,,1.12900000000000E+01,1.12700000000000E+01,1.12700000000000E+01,1.17300000000000E+01,1.16400000000000E+01,,,,,,,
ETH,,,,,,,,,,,,,,,,,,,,,,,1.26700000000000E+01,,,,,,,,,,,,,1.08700000000000E+01,,,,,1.31900000000000E+01,,,,,1.32200000000000E+01,,,,,,
FIN,,,,,,,,,,,,,,,,,,,,,,,,,,,,,,,,,,,,,,,,,1.40700000000000E+01,,,,,,,,,,,
FRA,,,,,,,,,,,,,,,,,,,,,,,,,,,,,,,,,,,,1.26200000000000E+01,,,,,,,,,,,,,,,,
FSM,,,,,,,,,,,,,,,,,,,,,,,,,,,,,,,,,,,,,,,,,5.16000000000000E+00,,,,,,,,,,,
GAB,,,,,,,,,,,,,,,,,,,,,,,,,,,,,,,,,,,,,,,,,,,,,,1.01200000000000E+01,,,,,,
GBR,,,,,,,,,,,,,,,,,,,,,,,,,,,,,,,,,,,,,,,,1.14100000000000E+01,,,,,,,,,,,,
GEO,,,,,,,,,,,,,,,,,,,,,,,,,,,,,,,,,,,,,1.13500000000000E+01,1.14600000000000E+01,1.13100000000000E+01,1.10400000000000E+01,1.08100000000000E+01,1.13600000000000E+01,1.05300000000000E+01,1.04400000000000E+01,,1.04000000000000E+01,,,1.02500000000000E+01,,,
GHA,,,,,,,,,,,,,,,,,,,,,,,,,,,,,1.17200000000000E+01,1.15400000000000E+01,,,1.09500000000000E+01,,,,,,1.00000000000000E+01,,,,,,,,9.84000000000000E+00,,,,,
GIN,,,,,,,,,,,,,,,,,,,,,,,,,,,,,,,,8.15000000000000E+00,,,1.04100000000000E+01,,,,,,,,,9.64000000000000E+00,,,,1.04600000000000E+01,,,,
GMB,,,,,,,,,,,,,,,,,,,,,,,,,,,,,,,,,,,,,,,7.55000000000000E+00,,,,,8.56000000000000E+00,,,,,,,,
GNB,,,,,,,,,,,,,,,,,,,,,,,,,,,,,,,,6.47000000000000E+00,,8.88000000000000E+00,,,,,,,,,1.16400000000000E+01,,,,,,,,,
GRC,,,,,,,,,,,,,,,,,,,,,,,,,,,,,,,,,,,,,,,,,1.18900000000000E+01,,,,,,,,,,,
GTM,,,,,,,,,,,,,,,,,,,,,,,,,,,,6.19000000000000E+00,,5.68000000000000E+00,,,,,,,,,7.03000000000000E+00,,7.21000000000000E+00,,6.81000000000000E+00,,,,7.25000000000000E+00,,,,,
GUY,,,,,,,,,,,,,,,,,,,,,,,,,,,,,,,,,,8.42000000000000E+00,,,,,9.78000000000000E+00,,,,,,,,,,,,,
HKG,,,,,,,,,,,,,,,,,,,,,,,,,,,,,,,,,,,,,9.39000000000000E+00,,,,,,,,,,,,,,,
HND,,,,,,,,,,,,,,,,,,,,,,,,,,,6.66000000000000E+00,,,5.88000000000000E+00,6.25000000000000E+00,,6.77000000000000E+00,,6.75000000000000E+00,,,7.40000000000000E+00,,7.65000000000000E+00,,,,6.99000000000000E+00,,6.40000000000000E+00,,6.01000000000000E+00,,,,
HRV,,,,,,,,,,,,,,,,,,,,,,,,,,,,,1.51800000000000E+01,,,,,,,,,,1.38200000000000E+01,1.37900000000000E+01,1.26700000000000E+01,1.26800000000000E+01,,,1.33200000000000E+01,,,,1.22100000000000E+01,,,
HTI,,,,,,,,,,,,,,,,,,,,,,,,,,,,,,,,,,,,,,,,,,5.92000000000000E+00,,,,,,,,,,
HUN,,,,,,,,,,,,,,,,,,,,,,,,,,,,1.54000000000000E+01,,1.42200000000000E+01,,,,1.37700000000000E+01,,,,,1.44600000000000E+01,1.37300000000000E+01,1.38100000000000E+01,1.39300000000000E+01,1.39200000000000E+01,,1.31200000000000E+01,,,1.28600000000000E+01,,,,
IDN,,,,,,,,,,,,,,,,,,,,,,,,,,,,,,,,,,,,,,,,,,,,,,1.07400000000000E+01,,1.09800000000000E+01,,1.12600000000000E+01,,
IND,,,,,,,,,,,,,,,,,,,,,,,,,,,,,,,,,,,,,,,,,,,,,,1.12700000000000E+01,,,,,,
IRL,,,,,,,,,,,,,,,,,,,,,,,,,,,,,,,,,,,,,,,,,1.22700000000000E+01,,,,,,,,,,,
IRN,,,,,,,,,,,,,,,,,,,,,,,,,,,8.60000000000000E+00,,,,9.56000000000000E+00,,,,9.66000000000000E+00,,,,9.32000000000000E+00,,,,,,,1.09100000000000E+01,,,,,,
IRQ,,,,,,,,,,,,,,,,,,,,,,,,,,,,,,,,,,,,,,,,,,,,,,,,1.27500000000000E+01,,,,
ISR,,,,,,,,,,,,,,,,,,,,,,,,,,,,,,,,,,,,,,,,,,1.04600000000000E+01,,,,,,,,,,
ITA,,,,,,,,,,,,,,,,,,,,,,,,,,,,,,,,,,,,,,,,,1.19800000000000E+01,,,,,,,,,,,
JAM,,,,,,,,,,,,,,,,,,,,,,,,,,,,,9.78000000000000E+00,,9.72000000000000E+00,,,1.16500000000000E+01,,,1.05600000000000E+01,,,9.55000000000000E+00,,,8.27000000000000E+00,,8.99000000000000E+00,,,,,,,
JOR,,,,,,,,,,,,,,,,,,,,,,,,,,,,1.12400000000000E+01,,,,,9.69000000000000E+00,,,,,1.14300000000000E+01,,,,,,1.06800000000000E+01,,,1.10800000000000E+01,,,,,
JPN,,,,,,,,,,,,,,,,,,,,,,,,,,,,,,,,,,1.42100000000000E+01,,,,,,,,,,,,,,,,,,
KAZ,,,,,,,,,,,,,,,,,,,,,,,,,,,,,1.40000000000000E+01,,,,,1.23200000000000E+01,,,1.14700000000000E+01,,,,,1.25000000000000E+01,1.16400000000000E+01,1.19000000000000E+01,,,,1.27600000000000E+01,,,,
KEN,,,,,,,,,,,,,,,,,,,,,,,,,,,,,,,,,6.72000000000000E+00,,1.01200000000000E+01,,,9.86000000000000E+00,,,,,,,,8.68000000000000E+00,,,,,,
KGZ,,,,,,,,,,,,,,,,,,,,,,,,,,,,,1.31600000000000E+01,,,,,7.06000000000000E+00,,,,,1.13100000000000E+01,1.17000000000000E+01,,,1.23500000000000E+01,,1.19800000000000E+01,,,1.18000000000000E+01,,,,
KHM,,,,,,,,,,,,,,,,,,,,,,,,,,,,,,,,,,,1.09600000000000E+01,,,,,,,,,,1.00200000000000E+01,,,9.40000000000000E+00,,,,
KOR,,,,,,,,,,,,,,,,,,,,,,,,,,,,,,,,,,,,,,,1.35600000000000E+01,,,,,,,,,,,,,
LAO,,,,,,,,,,,,,,,,,,,,,,,,,,,,,,,,,1.28100000000000E+01,,,,,1.19000000000000E+01,,,,,1.23100000000000E+01,,,,,,1.13300000000000E+01,,,
LBR,,,,,,,,,,,,,,,,,,,,,,,,,,,,,,,,,,,,,,,,,,,,,,,,1.13500000000000E+01,,,,
LCA,,,,,,,,,,,,,,,,,,,,,,,,,,,,,,,,,,,,9.87000000000000E+00,,,,,,,,,,,,,,,,
LKA,,,,,,,,,,,,,,,,,,,,,,,,,,1.23700000000000E+01,,,,,,1.24700000000000E+01,,,,,1.15200000000000E+01,,,,,,1.02000000000000E+01,,,,,1.03500000000000E+01,,,,
LSO,,,,,,,,,,,,,,,,,,,,,,,,,,,,6.40000000000000E+00,,,,,,5.51000000000000E+00,4.30000000000000E+00,,,,,,,,,7.21000000000000E+00,,,,,,,,
LTU,,,,,,,,,,,,,,,,,,,,,,,,,,,,,1.49300000000000E+01,,,,,1.25200000000000E+01,,,1.26200000000000E+01,,1.30800000000000E+01,,1.26500000000000E+01,1.24800000000000E+01,1.25100000000000E+01,,1.16300000000000E+01,,,,1.11200000000000E+01,,,
LUX,,,,,,,,,,,,,,,,,,,,,,,,,,,,,,,,,,,,,,,,,1.29200000000000E+01,,,,,,,,,,,
LVA,,,,,,,,,,,,,,,,,,,,,,,,,,,,,1.49200000000000E+01,,,,,1.35900000000000E+01,,1.32900000000000E+01,1.33500000000000E+01,1.33600000000000E+01,1.22800000000000E+01,,,,1.16800000000000E+01,,1.16800000000000E+01,,,,,,,
MAR,,,,,,,,,,,,,,,,,,,,,,,,,,1.10700000000000E+01,,,,,,1.04500000000000E+01,,,,,,,,1.05200000000000E+01,,1.02000000000000E+01,,,,,,1.04500000000000E+01,,,,
MDA,,,,,,,,,,,,,,,,,,,,,,,,,,,,,1.45600000000000E+01,,,,1.19100000000000E+01,,,,,1.13000000000000E+01,,1.13400000000000E+01,,1.14600000000000E+01,1.11300000000000E+01,,1.16600000000000E+01,,,,1.08800000000000E+01,,,
MDG,,,,,,,,,,,,,,,,,,,,,8.79000000000000E+00,,,,,,,,,,,,,9.24000000000000E+00,,,,1.06900000000000E+01,,9.85000000000000E+00,,8.29000000000000E+00,,,,9.57000000000000E+00,,,,,,
MDV,,,,,,,,,,,,,,,,,,,,,,,,,,,,,,,,,,,,,,,4.42000000000000E+00,,,,,,1.08800000000000E+01,,,,,,,
MEX,,,,,,,,,,,,,,,,,,,,,,,,,8.68000000000000E+00,,,,,6.92000000000000E+00,,,7.79000000000000E+00,,6.98000000000000E+00,7.20000000000000E+00,7.11000000000000E+00,,7.23000000000000E+00,,7.40000000000000E+00,,7.82000000000000E+00,,7.93000000000000E+00,,8.12000000000000E+00,,8.02000000000000E+00,,,
MKD,,,,,,,,,,,,,,,,,,,,,,,,,,,,,,,,,,,,,,,1.37900000000000E+01,,1.22400000000000E+01,,1.07700000000000E+01,1.07300000000000E+01,,,,,9.33000000000000E+00,,,
MLI,,,,,,,,,,,,,,,,,,,,,,,,,,,,,,1.13300000000000E+01,,,,,7.82000000000000E+00,,,,,,,1.01900000000000E+01,,,,,1.06700000000000E+01,,,,,
MNE,,,,,,,,,,,,,,,,,,,,,,,,,,,,,,,,,,,,,,,,,,,,,,,,,1.31300000000000E+01,,,
MNG,,,,,,,,,,,,,,,,,,,,,,,,,,,,,,,,,,,,1.20300000000000E+01,,,1.31300000000000E+01,,,,1.21600000000000E+01,,,1.22700000000000E+01,,,,,,
MOZ,,,,,,,,,,,,,,,,,,,,,,,,,,,,,,,,,,,,,9.62000000000000E+00,,,,,,,9.20000000000000E+00,,,,,9.47000000000000E+00,,,
MRT,,,,,,,,,,,,,,,,,,,,,,,,,,,,9.51000000000000E+00,,,,,,8.58000000000000E+00,,,1.11800000000000E+01,,,,1.05300000000000E+01,,,,,,,,,,,
MWI,,,,,,,,,,,,,,,,,,,,,,,,,,,,,,,,,,,,,,,8.43000000000000E+00,,,,,,1.07800000000000E+01,,,,,,,
MYS,,,,,,,,,,,,,,,,,,,,,,,,,8.38000000000000E+00,,,8.67000000000000E+00,,8.90000000000000E+00,,,8.42000000000000E+00,,,8.27000000000000E+00,,8.13000000000000E+00,,,,,,,1.08100000000000E+01,,,,,8.65000000000000E+00,,
NAM,,,,,,,,,,,,,,,,,,,,,,,,,,,,,,,,,,2.83000000000000E+00,,,,,,,,,,,,,,,,,,
NER,,,,,,,,,,,,,,,,,,,,,,,,,,,,,,,,,1.17200000000000E+01,,1.00900000000000E+01,,,,,,,,,,,9.78000000000000E+00,,1.20300000000000E+01,,,,
NGA,,,,,,,,,,,,,,,,,,,,,,,,,,1.04100000000000E+01,,,,,,,8.80000000000000E+00,,,,9.12000000000000E+00,,,,,,,,9.67000000000000E+00,,,,,,,
NIC,,,,,,,,,,,,,,,,,,,,,,,,,,,,,,,,,,6.45000000000000E+00,,,,,7.39000000000000E+00,,,7.96000000000000E+00,,,,7.71000000000000E+00,,,,,,
NLD,,,,,,,,,,,,,,,,,,,,,,,,,,,,,,,,,,,,,,,,1.32200000000000E+01,,,,,,,,,,,,
NOR,,,,,,,,,,,,,,,,,,,,,,,,,,,,,,,,,,,,,,,,,1.39600000000000E+01,,,,,,,,,,,
NPL,,,,,,,,,,,,,,,,,,,,,,,,,,,,,,,,,,,,,1.10800000000000E+01,,,,,,,,8.93000000000000E+00,,,,,,,
NZL,,,,,,,,,,,,,,,,,,,,,,,,,,,,,,,,,,,,,,1.13700000000000E+01,,,,,,,,,,,,,,
PAK,,,,,,,,,,,,,,,,,,,,,,,,,,,,1.22200000000000E+01,,,,1.22600000000000E+01,,1.29000000000000E+01,,,,1.33400000000000E+01,,1.24200000000000E+01,,,1.29800000000000E+01,,,1.27200000000000E+01,1.24000000000000E+01,,,,,
PAN,,,,,,,,,,,,,,,,,,,,7.88000000000000E+00,,,,,,,,,,,,6.09000000000000E+00,,,,6.20000000000000E+00,6.30000000000000E+00,8.14000000000000E+00,,,6.30000000000000E+00,6.25000000000000E+00,6.27000000000000E+00,,6.55000000000000E+00,,6.64000000000000E+00,,,7.36000000000000E+00,,
PER,,,,,,,,,,,,,,,,,,,,,,,,,,,9.04000000000000E+00,,,,9.78000000000000E+00,,,,9.20000000000000E+00,,9.05000000000000E+00,,,,,7.30000000000000E+00,7.00000000000000E+00,,,7.53000000000000E+00,8.03000000000000E+00,,,8.39000000000000E+00,,
PHL,,,,,,,,,,,,,,,,,,,,,,,,,,1.01200000000000E+01,,,1.00800000000000E+01,,,9.31000000000000E+00,,,9.50000000000000E+00,,,8.78000000000000E+00,,,8.75000000000000E+00,,,9.03000000000000E+00,,,9.08000000000000E+00,,,,,
PNG,,,,,,,,,,,,,,,,,,,,,,,,,,,,,,,,,,,,,7.74000000000000E+00,,,,,,,,,,,,,,,
POL,,,,,,,,,,,,,,,,,,,,,,,,,,1.43400000000000E+01,,1.43000000000000E+01,,1.38300000000000E+01,,,1.37500000000000E+01,1.30400000000000E+01,,,1.23800000000000E+01,,1.22800000000000E+01,1.21800000000000E+01,1.23000000000000E+01,1.22700000000000E+01,1.19700000000000E+01,,1.14000000000000E+01,1.17000000000000E+01,,,1.19600000000000E+01,,,
PRT,,,,,,,,,,,,,,,,,,,,,,,,,,,,,,,,,,,,,,1.10100000000000E+01,,,,,,,,,,,,,,
PRY,,,,,,,,,,,,,,,,,,,,,,,,,,,,,,,1.02800000000000E+01,,,,,5.90000000000000E+00,,,6.24000000000000E+00,6.40000000000000E+00,,,6.23000000000000E+00,,,7.11000000000000E+00,,7.59000000000000E+00,7.67000000000000E+00,,,
ROM,,,,,,,,,,,,,,,,,,,,,,,,,,,,,,1.49900000000000E+01,,,1.43600000000000E+01,,1.36100000000000E+01,,,,1.32500000000000E+01,,1.30200000000000E+01,1.29300000000000E+01,1.27500000000000E+01,,,1.28200000000000E+01,,,1.28100000000000E+01,,,
RUS,,,,,,,,,,,,,,,,,,,,,,,,,,,,,1.46000000000000E+01,,,,,8.73000000000000E+00,,,9.23000000000000E+00,,,1.10100000000000E+01,,1.05000000000000E+01,1.14200000000000E+01,,,1.09800000000000E+01,,,9.84000000000000E+00,,,
RWA,,,,,,,,,,,,,,,,,,,,,,,,,,1.30900000000000E+01,,,,,,,,,,,,,,,9.05000000000000E+00,,,,,7.67000000000000E+00,,,,,,
SEN,,,,,,,,,,,,,,,,,,,,,,,,,,,,,,,,6.97000000000000E+00,,,1.03600000000000E+01,,,,,,,1.01800000000000E+01,,,,1.06100000000000E+01,,,,,,
SGP,,,,,,,,,,,,,,,,,,,,,,,,,,,,,,,,,,,,,,,9.42000000000000E+00,,,,,,,,,,,,,
SLE,,,,,,,,,,,,,,,,,,,,,,,,,,,,,,,2.20000000000000E+00,,,,,,,,,,,,,9.65000000000000E+00,,,,,,,,
SLV,,,,,,,,,,,,,,,,,,,,,,,,,,,,,,8.47000000000000E+00,,,,,,8.16000000000000E+00,7.50000000000000E+00,7.80000000000000E+00,7.25000000000000E+00,,7.52000000000000E+00,,7.36000000000000E+00,8.30000000000000E+00,,8.13000000000000E+00,,,8.77000000000000E+00,,,
SRB,,,,,,,,,,,,,,,,,,,,,,,,,,,,,,,,,,,,,,,,,,,,,,,,,1.35000000000000E+01,,,
STP,,,,,,,,,,,,,,,,,,,,,,,,,,,,,,,,,,,,,,,,,,8.50000000000000E+00,,,,,,,,,,
SUR,,,,,,,,,,,,,,,,,,,,,,,,,,,,,,,,,,,,,,,,7.23000000000000E+00,,,,,,,,,,,,
SVK,,,,,,,,,,,,,,,,,,,,,,,,,,,,,1.55700000000000E+01,,,,1.58400000000000E+01,,,,1.49500000000000E+01,,,,,,,,,,,,,,,
SVN,,,,,,,,,,,,,,,,,,,,,,,,,,,,1.48100000000000E+01,,,,,,1.32800000000000E+01,,,,,1.33600000000000E+01,,,,1.32200000000000E+01,1.27100000000000E+01,1.27500000000000E+01,,,,,,,
SWE,,,,,,,,,,,,,,,,,,,,,,,,,,,,,,,,,,,,,,,,,1.39800000000000E+01,,,,,,,,,,,
SWZ,,,,,,,,,,,,,,,,,,,,,,,,,,,,,,,,,,,,5.77000000000000E+00,,,,,,7.95000000000000E+00,,,,,,,,,,
SYC,,,,,,,,,,,,,,,,,,,,,,,,,,,,,,,,,,,,,,,,,1.01100000000000E+01,,,,,,,5.66000000000000E+00,,,,
SYR,,,,,,,,,,,,,,,,,,,,,,,,,,,,,,,,,,,,,,,,,,,,,1.14300000000000E+01,,,,,,,
TCD,,,,,,,,,,,,,,,,,,,,,,,,,,,,,,,,,,,,,,,,,,,,1.04000000000000E+01,,,,,,,,
TGO,,,,,,,,,,,,,,,,,,,,,,,,,,,,,,,,,,,,,,,,,,,,,,,1.17400000000000E+01,,,,,
THA,,,,,,,,,,,,,,,,,,,,,,8.99000000000000E+00,,,,,,,9.36000000000000E+00,,,,8.74000000000000E+00,,,,9.46000000000000E+00,,9.81000000000000E+00,9.32000000000000E+00,9.37000000000000E+00,,9.82000000000000E+00,,9.73000000000000E+00,,,,,,,
TJK,,,,,,,,,,,,,,,,,,,,,,,,,,,,,,,,,,,,,,,,1.28900000000000E+01,,,,1.22900000000000E+01,1.20800000000000E+01,,,,,,,
TKM,,,,,,,,,,,,,,,,,,,,,,,,,,,,,1.30500000000000E+01,,,,,1.14500000000000E+01,,,,,1.01500000000000E+01,,,,,,,,,,,,,
TMP,,,,,,,,,,,,,,,,,,,,,,,,,,,,,,,,,,,,,,,,,,1.04400000000000E+01,,,,,,1.24600000000000E+01,,,,
TTO,,,,,,,,,,,,,,,,,,,,,,,,,,,,,9.60000000000000E+00,,,,1.03300000000000E+01,,,,,,,,,,,,,,,,,,,
TUN,,,,,,,,,,,,,,,,,,,,,,,,,,9.63000000000000E+00,,,,,1.04100000000000E+01,,,,,9.90000000000000E+00,,,,,1.02000000000000E+01,,,,,,,,,,,
TUR,,,,,,,,,,,,,,,,,,,,,,,,,,,,9.81000000000000E+00,,,,,,,1.01500000000000E+01,,,,,,,,9.89000000000000E+00,,9.70000000000000E+00,9.83000000000000E+00,,,,,,
TZA,,,,,,,,,,,,,,,,,,,,,,,,,,,,,,,,,1.21800000000000E+01,,,,,,,,1.18300000000000E+01,,,,,,,1.11100000000000E+01,,,,
UGA,,,,,,,,,,,,,,,,,,,,,,,,,,,,,,9.28000000000000E+00,,,1.01600000000000E+01,,,,1.11300000000000E+01,,,9.91000000000000E+00,,,9.30000000000000E+00,,,9.78000000000000E+00,,,,9.64000000000000E+00,,
UKR,,,,,,,,,,,,,,,,,,,,,,,,,,,,,1.47600000000000E+01,,,,1.41200000000000E+01,,,,1.18900000000000E+01,,,1.33100000000000E+01,,,1.35200000000000E+01,,,1.34500000000000E+01,,,1.36100000000000E+01,,,
URY,,,,,,,,,,,,,,,,,,,,,,9.63000000000000E+00,,,,,,,,9.99000000000000E+00,,,9.98000000000000E+00,,,,9.49000000000000E+00,,9.13000000000000E+00,,9.21000000000000E+00,9.05000000000000E+00,,9.08000000000000E+00,,9.07000000000000E+00,8.74000000000000E+00,,,9.80000000000000E+00,,
USA,,,,,,,,,,,,,,,,,,,,,,,,,,,,,,,,,,,,,,,,,1.06800000000000E+01,,,,,,,,,,,
UZB,,,,,,,,,,,,,,,,,,,,,,,,,,,,,1.37700000000000E+01,,,,,,,,,,9.38000000000000E+00,,,,1.20800000000000E+01,1.15200000000000E+01,,,,,,,,
VEN,,,,,,,,,,,,,,,,,,,,,,6.40000000000000E+00,,,,,,6.76000000000000E+00,,9.42000000000000E+00,,,,1.00300000000000E+01,,8.75000000000000E+00,8.40000000000000E+00,8.27000000000000E+00,8.21000000000000E+00,,,,,8.53000000000000E+00,,8.78000000000000E+00,9.64000000000000E+00,,,,,
VNM,,,,,,,,,,,,,,,,,,,,,,,,,,,,,,,,,,1.13900000000000E+01,,,,,1.15000000000000E+01,,,,1.08600000000000E+01,,1.04900000000000E+01,,1.08200000000000E+01,,1.09200000000000E+01,,,
YEM,,,,,,,,,,,,,,,,,,,,,,,,,,,,,,,,,1.07900000000000E+01,,,,,,1.22000000000000E+01,,,,,,,1.13100000000000E+01,,,,,,
ZAF,,,,,,,,,,,,,,,,,,,,,,,,,,,,,,,,,,5.25000000000000E+00,,6.07000000000000E+00,,,,,5.60000000000000E+00,,,,,,4.06000000000000E+00,,,,,
ZAR,,,,,,,,,,,,,,,,,,,,,,,,,,,,,,,,,,,,,,,,,,,,,,,9.20000000000000E+00,,,,,
ZMB,,,,,,,,,,,,,,,,,,,,,,,,,,,,,,,,4.80000000000000E+00,,7.04000000000000E+00,,,8.15000000000000E+00,,7.30000000000000E+00,,,,,1.00400000000000E+01,7.76000000000000E+00,,,,,,,
ZWE,,,,,,,,,,,,,,,,,,,,,,,,,,,,,,,,,,,,8.14000000000000E+00,,,,,,,,,,,,,,,,
