"Country Code",1960,1961,1962,1963,1964,1965,1966,1967,1968,1969,1970,1971,1972,1973,1974,1975,1976,1977,1978,1979,1980,1981,1982,1983,1984,1985,1986,1987,1988,1989,1990,1991,1992,1993,1994,1995,1996,1997,1998,1999,2000,2001,2002,2003,2004,2005,2006,2007,2008,2009,2010,2011AFG,,,,,,,,,,,,,,,,,,,,,,,,,,,,,,,,,,,,,,,,,,,,,,,,,9.00000000000000E+00,,,
AGO,,,,,,,,,,,,,,,,,,,,,,,,,,,,,,,,,,,,,,,,,2.00000000000000E+00,,,,,,,,,,,
ALB,,,,,,,,,,,,,,,,,,,,,,,,,,,,,,,,,,,,,,8.72000000000000E+00,,,,,9.09000000000000E+00,,8.18000000000000E+00,7.81000000000000E+00,,,8.14000000000000E+00,,,
ARG,,,,,,,,,,,,,,,,,,,,,,,,,,,4.89000000000000E+00,,,,,,4.76000000000000E+00,,,,4.09000000000000E+00,,3.74000000000000E+00,,,,3.14000000000000E+00,,3.40000000000000E+00,3.47000000000000E+00,3.61000000000000E+00,,,4.03000000000000E+00,,
ARM,,,,,,,,,,,,,,,,,,,,,,,,,,,,,,,,,,,,,5.53000000000000E+00,,,7.60000000000000E+00,,7.60000000000000E+00,7.93000000000000E+00,8.57000000000000E+00,,,,,8.78000000000000E+00,,,
AUS,,,,,,,,,,,,,,,,,,,,,,,,,,,,,,,,,,,5.90000000000000E+00,,,,,,,,,,,,,,,,,
AUT,,,,,,,,,,,,,,,,,,,,,,,,,,,,,,,,,,,,,,,,,8.56000000000000E+00,,,,,,,,,,,
AZE,,,,,,,,,,,,,,,,,,,,,,,,,,,,,,,,,,,,6.94000000000000E+00,,,,,,7.47000000000000E+00,,,,1.33300000000000E+01,,,7.99000000000000E+00,,,
BDI,,,,,,,,,,,,,,,,,,,,,,,,,,,,,,,,,7.94000000000000E+00,,,,,,5.14000000000000E+00,,,,,,,,8.96000000000000E+00,,,,,
BEL,,,,,,,,,,,,,,,,,,,,,,,,,,,,,,,,,,,,,,,,,8.50000000000000E+00,,,,,,,,,,,
BEN,,,,,,,,,,,,,,,,,,,,,,,,,,,,,,,,,,,,,,,,,,,,6.99000000000000E+00,,,,,,,,
BFA,,,,,,,,,,,,,,,,,,,,,,,,,,,,,,,,,,,5.12000000000000E+00,,,,5.89000000000000E+00,,,,,6.96000000000000E+00,,,,,,,,
BGD,,,,,,,,,,,,,,,,,,,,,,,,,9.72000000000000E+00,,1.00400000000000E+01,,,9.45000000000000E+00,,,9.96000000000000E+00,,,,9.26000000000000E+00,,,,9.26000000000000E+00,,,,,9.36000000000000E+00,,,,,,
BGR,,,,,,,,,,,,,,,,,,,,,,,,,,,,,,1.04500000000000E+01,,,8.31000000000000E+00,,1.02200000000000E+01,6.89000000000000E+00,,1.01200000000000E+01,,,,6.49000000000000E+00,,8.70000000000000E+00,,,,5.02000000000000E+00,,,,
BIH,,,,,,,,,,,,,,,,,,,,,,,,,,,,,,,,,,,,,,,,,,9.13000000000000E+00,,,6.98000000000000E+00,,,6.65000000000000E+00,,,,
BLR,,,,,,,,,,,,,,,,,,,,,,,,,,,,,1.04900000000000E+01,,,,,1.11200000000000E+01,,8.51000000000000E+00,,9.73000000000000E+00,8.37000000000000E+00,,8.47000000000000E+00,8.16000000000000E+00,8.45000000000000E+00,,9.40000000000000E+00,8.76000000000000E+00,,,9.17000000000000E+00,,,
BLZ,,,,,,,,,,,,,,,,,,,,,,,,,,,,,,,,,,,,2.05000000000000E+00,,,,3.20000000000000E+00,,,,,,,,,,,,
BOL,,,,,,,,,,,,,,,,,,,,,,,,,,,,,,,,5.62000000000000E+00,,,,,,2.20000000000000E+00,,1.33000000000000E+00,,,1.60000000000000E+00,,,1.92000000000000E+00,,2.78000000000000E+00,,,,
BRA,,,,,,,,,,,,,,,,,,,,,,2.89000000000000E+00,2.75000000000000E+00,2.83000000000000E+00,2.93000000000000E+00,2.71000000000000E+00,2.83000000000000E+00,2.52000000000000E+00,2.33000000000000E+00,2.17000000000000E+00,2.36000000000000E+00,,2.66000000000000E+00,2.57000000000000E+00,,2.64000000000000E+00,2.54000000000000E+00,2.53000000000000E+00,2.64000000000000E+00,2.74000000000000E+00,,2.70000000000000E+00,2.82000000000000E+00,2.85000000000000E+00,2.86000000000000E+00,3.08000000000000E+00,,,3.20000000000000E+00,3.34000000000000E+00,,
BTN,,,,,,,,,,,,,,,,,,,,,,,,,,,,,,,,,,,,,,,,,,,,5.36000000000000E+00,,,,,,,,
BWA,,,,,,,,,,,,,,,,,,,,,,,,,,,3.60000000000000E+00,,,,,,,,3.13000000000000E+00,,,,,,,,,,,,,,,,,
CAF,,,,,,,,,,,,,,,,,,,,,,,,,,,,,,,,,1.99000000000000E+00,,,,,,,,,,,5.21000000000000E+00,,,,,3.37000000000000E+00,,,
CAN,,,,,,,,,,,,,,,,,,,,,,,,,,,,,,,,,,,,,,,,,7.20000000000000E+00,,,,,,,,,,,
CHE,,,,,,,,,,,,,,,,,,,,,,,,,,,,,,,,,,,,,,,,,7.55000000000000E+00,,,,,,,,,,,
CHL,,,,,,,,,,,,,,,,,,,,,,,,,,,,3.47000000000000E+00,,,3.70000000000000E+00,,,,3.71000000000000E+00,,3.74000000000000E+00,,3.61000000000000E+00,,3.78000000000000E+00,,,3.90000000000000E+00,,,4.32000000000000E+00,,,4.14000000000000E+00,,
CHN,,,,,,,,,,,,,,,,,,,,,,,,,,,,,,,,,,,,,,,,,,,,,,5.73000000000000E+00,,,,,,
CIV,,,,,,,,,,,,,,,,,,,,,,,,,,5.69000000000000E+00,7.01000000000000E+00,6.44000000000000E+00,6.78000000000000E+00,,,,,7.05000000000000E+00,,7.13000000000000E+00,,,5.77000000000000E+00,,,,5.00000000000000E+00,,,,,,5.60000000000000E+00,,,
CMR,,,,,,,,,,,,,,,,,,,,,,,,,,,,,,,,,,,,,5.73000000000000E+00,,,,,5.62000000000000E+00,,,,,,6.73000000000000E+00,,,,
COG,,,,,,,,,,,,,,,,,,,,,,,,,,,,,,,,,,,,,,,,,,,,,,4.96000000000000E+00,,,,,,
COL,,,,,,,,,,,,,,,,,,,,,2.60000000000000E+00,,,,,,,,3.33000000000000E+00,3.52000000000000E+00,,3.61000000000000E+00,,,,3.07000000000000E+00,2.90000000000000E+00,,2.75000000000000E+00,2.69000000000000E+00,2.79000000000000E+00,,,2.57000000000000E+00,,,2.52000000000000E+00,,,,,
COM,,,,,,,,,,,,,,,,,,,,,,,,,,,,,,,,,,,,,,,,,,,,,2.55000000000000E+00,,,,,,,
CPV,,,,,,,,,,,,,,,,,,,,,,,,,,,,,,,,,,,,,,,,,,,4.54000000000000E+00,,,,,,,,,
CRI,,,,,,,,,,,,,,,,,,,,,,3.35000000000000E+00,,,,,5.39000000000000E+00,,,,4.02000000000000E+00,,4.03000000000000E+00,4.16000000000000E+00,,,4.04000000000000E+00,4.45000000000000E+00,4.13000000000000E+00,,4.23000000000000E+00,3.90000000000000E+00,,3.52000000000000E+00,,4.39000000000000E+00,,,,4.18000000000000E+00,,
CZE,,,,,,,,,,,,,,,,,,,,,,,,,,,,,1.18300000000000E+01,,,,,1.04400000000000E+01,,,1.02200000000000E+01,,,,,,,,,,,,,,,
DEU,,,,,,,,,,,,,,,,,,,,,,,,,,,,,,,,,,,,,,,,,8.52000000000000E+00,,,,,,,,,,,
DJI,,,,,,,,,,,,,,,,,,,,,,,,,,,,,,,,,,,,,6.53000000000000E+00,,,,,,6.03000000000000E+00,,,,,,,,,
DNK,,,,,,,,,,,,,,,,,,,,,,,,,,,,,,,,,,,,,,8.34000000000000E+00,,,,,,,,,,,,,,
DOM,,,,,,,,,,,,,,,,,,,,,,,,,,,3.92000000000000E+00,,,4.19000000000000E+00,,,4.31000000000000E+00,,,,4.28000000000000E+00,3.82000000000000E+00,,,3.69000000000000E+00,,,3.98000000000000E+00,,4.20000000000000E+00,4.02000000000000E+00,4.42000000000000E+00,,,,
DZA,,,,,,,,,,,,,,,,,,,,,,,,,,,,,6.54000000000000E+00,,,,,,,6.97000000000000E+00,,,,,,,,,,,,,,,,
ECU,,,,,,,,,,,,,,,,,,,,,,,,,,,,3.28000000000000E+00,,,,,,,3.19000000000000E+00,,,,3.38000000000000E+00,,,,,2.76000000000000E+00,,3.42000000000000E+00,,3.61000000000000E+00,,4.19000000000000E+00,,
EGY,,,,,,,,,,,,,,,,,,,,,,,,,,,,,,,,8.71000000000000E+00,,,,,9.51000000000000E+00,,,,8.95000000000000E+00,,,,,8.96000000000000E+00,,,,,,
ESP,,,,,,,,,,,,,,,,,,,,,,,,,,,,,,,,,,,,,,,,,6.97000000000000E+00,,,,,,,,,,,
EST,,,,,,,,,,,,,,,,,,,,,,,,,,,,,9.99000000000000E+00,,,,,6.41000000000000E+00,,8.07000000000000E+00,,,6.99000000000000E+00,,6.64000000000000E+00,6.86000000000000E+00,6.72000000000000E+00,6.71000000000000E+00,6.80000000000000E+00,,,,,,,
ETH,,,,,,,,,,,,,,,,,,,,,,,8.56000000000000E+00,,,,,,,,,,,,,7.17000000000000E+00,,,,,9.16000000000000E+00,,,,,9.28000000000000E+00,,,,,,
FIN,,,,,,,,,,,,,,,,,,,,,,,,,,,,,,,,,,,,,,,,,9.62000000000000E+00,,,,,,,,,,,
FRA,,,,,,,,,,,,,,,,,,,,,,,,,,,,,,,,,,,,7.18000000000000E+00,,,,,,,,,,,,,,,,
FSM,,,,,,,,,,,,,,,,,,,,,,,,,,,,,,,,,,,,,,,,,1.59000000000000E+00,,,,,,,,,,,
GAB,,,,,,,,,,,,,,,,,,,,,,,,,,,,,,,,,,,,,,,,,,,,,,6.16000000000000E+00,,,,,,
GBR,,,,,,,,,,,,,,,,,,,,,,,,,,,,,,,,,,,,,,,,6.14000000000000E+00,,,,,,,,,,,,
GEO,,,,,,,,,,,,,,,,,,,,,,,,,,,,,,,,,,,,,6.13000000000000E+00,6.37000000000000E+00,6.13000000000000E+00,5.96000000000000E+00,5.95000000000000E+00,6.35000000000000E+00,5.63000000000000E+00,5.53000000000000E+00,,5.39000000000000E+00,,,5.32000000000000E+00,,,
GHA,,,,,,,,,,,,,,,,,,,,,,,,,,,,,6.97000000000000E+00,6.99000000000000E+00,,,6.69000000000000E+00,,,,,,5.56000000000000E+00,,,,,,,,5.24000000000000E+00,,,,,
GIN,,,,,,,,,,,,,,,,,,,,,,,,,,,,,,,,3.09000000000000E+00,,,6.39000000000000E+00,,,,,,,,,5.75000000000000E+00,,,,6.35000000000000E+00,,,,
GMB,,,,,,,,,,,,,,,,,,,,,,,,,,,,,,,,,,,,,,,4.02000000000000E+00,,,,,4.79000000000000E+00,,,,,,,,
GNB,,,,,,,,,,,,,,,,,,,,,,,,,,,,,,,,2.06000000000000E+00,,5.15000000000000E+00,,,,,,,,,7.28000000000000E+00,,,,,,,,,
GRC,,,,,,,,,,,,,,,,,,,,,,,,,,,,,,,,,,,,,,,,,6.74000000000000E+00,,,,,,,,,,,
GTM,,,,,,,,,,,,,,,,,,,,,,,,,,,,2.76000000000000E+00,,2.15000000000000E+00,,,,,,,,,3.14000000000000E+00,,3.37000000000000E+00,,3.03000000000000E+00,,,,3.49000000000000E+00,,,,,
GUY,,,,,,,,,,,,,,,,,,,,,,,,,,,,,,,,,,4.28000000000000E+00,,,,,4.47000000000000E+00,,,,,,,,,,,,,
HKG,,,,,,,,,,,,,,,,,,,,,,,,,,,,,,,,,,,,,5.26000000000000E+00,,,,,,,,,,,,,,,
HND,,,,,,,,,,,,,,,,,,,,,,,,,,,3.23000000000000E+00,,,2.76000000000000E+00,2.82000000000000E+00,,2.96000000000000E+00,,3.09000000000000E+00,,,3.37000000000000E+00,,3.44000000000000E+00,,,,3.46000000000000E+00,,2.40000000000000E+00,,1.97000000000000E+00,,,,
HRV,,,,,,,,,,,,,,,,,,,,,,,,,,,,,1.03100000000000E+01,,,,,,,,,,9.27000000000000E+00,9.23000000000000E+00,8.30000000000000E+00,8.26000000000000E+00,,,8.73000000000000E+00,,,,8.05000000000000E+00,,,
HTI,,,,,,,,,,,,,,,,,,,,,,,,,,,,,,,,,,,,,,,,,,2.53000000000000E+00,,,,,,,,,,
HUN,,,,,,,,,,,,,,,,,,,,,,,,,,,,1.14200000000000E+01,,1.03700000000000E+01,,,,9.72000000000000E+00,,,,,9.87000000000000E+00,9.49000000000000E+00,9.56000000000000E+00,9.37000000000000E+00,9.50000000000000E+00,,8.56000000000000E+00,,,8.40000000000000E+00,,,,
IDN,,,,,,,,,,,,,,,,,,,,,,,,,,,,,,,,,,,,,,,,,,,,,,7.15000000000000E+00,,7.38000000000000E+00,,7.65000000000000E+00,,
IND,,,,,,,,,,,,,,,,,,,,,,,,,,,,,,,,,,,,,,,,,,,,,,8.08000000000000E+00,,,,,,
IRL,,,,,,,,,,,,,,,,,,,,,,,,,,,,,,,,,,,,,,,,,7.44000000000000E+00,,,,,,,,,,,
IRN,,,,,,,,,,,,,,,,,,,,,,,,,,,4.58000000000000E+00,,,,5.21000000000000E+00,,,,5.50000000000000E+00,,,,5.16000000000000E+00,,,,,,,6.43000000000000E+00,,,,,,
IRQ,,,,,,,,,,,,,,,,,,,,,,,,,,,,,,,,,,,,,,,,,,,,,,,,8.70000000000000E+00,,,,
ISR,,,,,,,,,,,,,,,,,,,,,,,,,,,,,,,,,,,,,,,,,,5.71000000000000E+00,,,,,,,,,,
ITA,,,,,,,,,,,,,,,,,,,,,,,,,,,,,,,,,,,,,,,,,6.50000000000000E+00,,,,,,,,,,,
JAM,,,,,,,,,,,,,,,,,,,,,,,,,,,,,5.41000000000000E+00,,5.93000000000000E+00,,,6.80000000000000E+00,,,6.36000000000000E+00,,,5.54000000000000E+00,,,4.82000000000000E+00,,5.35000000000000E+00,,,,,,,
JOR,,,,,,,,,,,,,,,,,,,,,,,,,,,,7.27000000000000E+00,,,,,5.99000000000000E+00,,,,,7.56000000000000E+00,,,,,,6.73000000000000E+00,,,7.28000000000000E+00,,,,,
JPN,,,,,,,,,,,,,,,,,,,,,,,,,,,,,,,,,,1.05800000000000E+01,,,,,,,,,,,,,,,,,,
KAZ,,,,,,,,,,,,,,,,,,,,,,,,,,,,,9.46000000000000E+00,,,,,7.49000000000000E+00,,,6.84000000000000E+00,,,,,8.15000000000000E+00,7.22000000000000E+00,7.41000000000000E+00,,,,8.66000000000000E+00,,,,
KEN,,,,,,,,,,,,,,,,,,,,,,,,,,,,,,,,,3.39000000000000E+00,,5.61000000000000E+00,,,5.97000000000000E+00,,,,,,,,4.84000000000000E+00,,,,,,
KGZ,,,,,,,,,,,,,,,,,,,,,,,,,,,,,1.05800000000000E+01,,,,,2.51000000000000E+00,,,,,7.16000000000000E+00,7.57000000000000E+00,,,8.35000000000000E+00,,8.11000000000000E+00,,,8.82000000000000E+00,,,,
KHM,,,,,,,,,,,,,,,,,,,,,,,,,,,,,,,,,,,8.04000000000000E+00,,,,,,,,,,6.89000000000000E+00,,,6.57000000000000E+00,,,,
KOR,,,,,,,,,,,,,,,,,,,,,,,,,,,,,,,,,,,,,,,7.91000000000000E+00,,,,,,,,,,,,,
LAO,,,,,,,,,,,,,,,,,,,,,,,,,,,,,,,,,9.27000000000000E+00,,,,,8.02000000000000E+00,,,,,8.57000000000000E+00,,,,,,7.64000000000000E+00,,,
LBR,,,,,,,,,,,,,,,,,,,,,,,,,,,,,,,,,,,,,,,,,,,,,,,,6.44000000000000E+00,,,,
LCA,,,,,,,,,,,,,,,,,,,,,,,,,,,,,,,,,,,,5.23000000000000E+00,,,,,,,,,,,,,,,,
LKA,,,,,,,,,,,,,,,,,,,,,,,,,,8.29000000000000E+00,,,,,,8.72000000000000E+00,,,,,8.01000000000000E+00,,,,,,6.77000000000000E+00,,,,,6.94000000000000E+00,,,,
LSO,,,,,,,,,,,,,,,,,,,,,,,,,,,,2.87000000000000E+00,,,,,,2.61000000000000E+00,1.48000000000000E+00,,,,,,,,,2.97000000000000E+00,,,,,,,,
LTU,,,,,,,,,,,,,,,,,,,,,,,,,,,,,1.05600000000000E+01,,,,,7.98000000000000E+00,,,7.83000000000000E+00,,8.18000000000000E+00,,7.86000000000000E+00,7.65000000000000E+00,7.68000000000000E+00,,6.79000000000000E+00,,,,6.62000000000000E+00,,,
LUX,,,,,,,,,,,,,,,,,,,,,,,,,,,,,,,,,,,,,,,,,8.43000000000000E+00,,,,,,,,,,,
LVA,,,,,,,,,,,,,,,,,,,,,,,,,,,,,1.04400000000000E+01,,,,,9.60000000000000E+00,,7.98000000000000E+00,7.65000000000000E+00,7.63000000000000E+00,7.33000000000000E+00,,,,6.94000000000000E+00,,6.79000000000000E+00,,,,,,,
MAR,,,,,,,,,,,,,,,,,,,,,,,,,,6.58000000000000E+00,,,,,,6.57000000000000E+00,,,,,,,,6.53000000000000E+00,,6.47000000000000E+00,,,,,,6.52000000000000E+00,,,,
MDA,,,,,,,,,,,,,,,,,,,,,,,,,,,,,9.96000000000000E+00,,,,6.85000000000000E+00,,,,,6.54000000000000E+00,,6.78000000000000E+00,,7.11000000000000E+00,6.82000000000000E+00,,7.32000000000000E+00,,,,6.77000000000000E+00,,,
MDG,,,,,,,,,,,,,,,,,,,,,4.96000000000000E+00,,,,,,,,,,,,,5.12000000000000E+00,,,,6.09000000000000E+00,,5.85000000000000E+00,,4.94000000000000E+00,,,,6.15000000000000E+00,,,,,,
MDV,,,,,,,,,,,,,,,,,,,,,,,,,,,,,,,,,,,,,,,1.56000000000000E+00,,,,,,6.51000000000000E+00,,,,,,,
MEX,,,,,,,,,,,,,,,,,,,,,,,,,4.67000000000000E+00,,,,,3.28000000000000E+00,,,4.13000000000000E+00,,3.25000000000000E+00,3.59000000000000E+00,3.16000000000000E+00,,3.19000000000000E+00,,3.49000000000000E+00,,3.93000000000000E+00,,4.07000000000000E+00,,4.19000000000000E+00,,3.79000000000000E+00,,,
MKD,,,,,,,,,,,,,,,,,,,,,,,,,,,,,,,,,,,,,,,8.48000000000000E+00,,6.47000000000000E+00,,6.04000000000000E+00,6.07000000000000E+00,,,,,5.41000000000000E+00,,,
MLI,,,,,,,,,,,,,,,,,,,,,,,,,,,,,,7.03000000000000E+00,,,,,4.63000000000000E+00,,,,,,,6.13000000000000E+00,,,,,6.52000000000000E+00,,,,,
MNE,,,,,,,,,,,,,,,,,,,,,,,,,,,,,,,,,,,,,,,,,,,,,,,,,8.50000000000000E+00,,,
MNG,,,,,,,,,,,,,,,,,,,,,,,,,,,,,,,,,,,,7.37000000000000E+00,,,7.72000000000000E+00,,,,7.45000000000000E+00,,,7.22000000000000E+00,,,,,,
MOZ,,,,,,,,,,,,,,,,,,,,,,,,,,,,,,,,,,,,,5.63000000000000E+00,,,,,,,5.43000000000000E+00,,,,,5.23000000000000E+00,,,
MRT,,,,,,,,,,,,,,,,,,,,,,,,,,,,4.22000000000000E+00,,,,,,5.16000000000000E+00,,,6.39000000000000E+00,,,,6.18000000000000E+00,,,,,,,,,,,
MWI,,,,,,,,,,,,,,,,,,,,,,,,,,,,,,,,,,,,,,,4.84000000000000E+00,,,,,,7.01000000000000E+00,,,,,,,
MYS,,,,,,,,,,,,,,,,,,,,,,,,,4.57000000000000E+00,,,4.88000000000000E+00,,5.12000000000000E+00,,,4.67000000000000E+00,,,4.49000000000000E+00,,4.37000000000000E+00,,,,,,,6.46000000000000E+00,,,,,4.54000000000000E+00,,
NAM,,,,,,,,,,,,,,,,,,,,,,,,,,,,,,,,,,1.48000000000000E+00,,,,,,,,,,,,,,,,,,
NER,,,,,,,,,,,,,,,,,,,,,,,,,,,,,,,,,7.45000000000000E+00,,6.03000000000000E+00,,,,,,,,,,,5.85000000000000E+00,,8.30000000000000E+00,,,,
NGA,,,,,,,,,,,,,,,,,,,,,,,,,,6.02000000000000E+00,,,,,,,4.00000000000000E+00,,,,5.00000000000000E+00,,,,,,,,5.13000000000000E+00,,,,,,,
NIC,,,,,,,,,,,,,,,,,,,,,,,,,,,,,,,,,,2.60000000000000E+00,,,,,3.24000000000000E+00,,,4.21000000000000E+00,,,,3.79000000000000E+00,,,,,,
NLD,,,,,,,,,,,,,,,,,,,,,,,,,,,,,,,,,,,,,,,,7.60000000000000E+00,,,,,,,,,,,,
NOR,,,,,,,,,,,,,,,,,,,,,,,,,,,,,,,,,,,,,,,,,9.59000000000000E+00,,,,,,,,,,,
NPL,,,,,,,,,,,,,,,,,,,,,,,,,,,,,,,,,,,,,7.58000000000000E+00,,,,,,,,5.94000000000000E+00,,,,,,,
NZL,,,,,,,,,,,,,,,,,,,,,,,,,,,,,,,,,,,,,,6.45000000000000E+00,,,,,,,,,,,,,,
PAK,,,,,,,,,,,,,,,,,,,,,,,,,,,,8.35000000000000E+00,,,,8.08000000000000E+00,,9.59000000000000E+00,,,,9.97000000000000E+00,,8.73000000000000E+00,,,9.39000000000000E+00,,,9.16000000000000E+00,9.01000000000000E+00,,,,,
PAN,,,,,,,,,,,,,,,,,,,,3.89000000000000E+00,,,,,,,,,,,,2.08000000000000E+00,,,,2.30000000000000E+00,2.34000000000000E+00,3.56000000000000E+00,,,2.51000000000000E+00,2.21000000000000E+00,2.57000000000000E+00,,2.75000000000000E+00,,2.69000000000000E+00,,,3.55000000000000E+00,,
PER,,,,,,,,,,,,,,,,,,,,,,,,,,,4.91000000000000E+00,,,,5.63000000000000E+00,,,,4.88000000000000E+00,,4.38000000000000E+00,,,,,3.31000000000000E+00,3.17000000000000E+00,,,3.73000000000000E+00,3.95000000000000E+00,,,3.90000000000000E+00,,
PHL,,,,,,,,,,,,,,,,,,,,,,,,,,6.43000000000000E+00,,,6.51000000000000E+00,,,5.88000000000000E+00,,,5.95000000000000E+00,,,5.36000000000000E+00,,,5.37000000000000E+00,,,5.44000000000000E+00,,,5.60000000000000E+00,,,,,
PNG,,,,,,,,,,,,,,,,,,,,,,,,,,,,,,,,,,,,,4.52000000000000E+00,,,,,,,,,,,,,,,
POL,,,,,,,,,,,,,,,,,,,,,,,,,,9.84000000000000E+00,,9.67000000000000E+00,,9.24000000000000E+00,,,9.18000000000000E+00,6.53000000000000E+00,,,8.23000000000000E+00,,8.01000000000000E+00,7.86000000000000E+00,7.84000000000000E+00,7.81000000000000E+00,7.57000000000000E+00,,6.92000000000000E+00,7.34000000000000E+00,,,7.59000000000000E+00,,,
PRT,,,,,,,,,,,,,,,,,,,,,,,,,,,,,,,,,,,,,,5.76000000000000E+00,,,,,,,,,,,,,,
PRY,,,,,,,,,,,,,,,,,,,,,,,,,,,,,,,5.95000000000000E+00,,,,,2.25000000000000E+00,,,1.97000000000000E+00,2.28000000000000E+00,,,2.26000000000000E+00,,,3.15000000000000E+00,,3.40000000000000E+00,3.76000000000000E+00,,,
QAT,,,,,,,,,,,,,,,,,,,,,,,,,,,,,,,,,,,,,,,,,,,,,,,,3.90000000000000E+00,,,,
ROM,,,,,,,,,,,,,,,,,,,,,,,,,,,,,,9.93000000000000E+00,,,9.22000000000000E+00,,8.85000000000000E+00,,,,8.69000000000000E+00,,8.18000000000000E+00,8.14000000000000E+00,7.90000000000000E+00,,,8.18000000000000E+00,,,8.09000000000000E+00,,,
RUS,,,,,,,,,,,,,,,,,,,,,,,,,,,,,1.00100000000000E+01,,,,,4.36000000000000E+00,,,4.41000000000000E+00,,,6.22000000000000E+00,,6.12000000000000E+00,6.88000000000000E+00,,,6.52000000000000E+00,,,6.04000000000000E+00,,,
RWA,,,,,,,,,,,,,,,,,,,,,,,,,,9.70000000000000E+00,,,,,,,,,,,,,,,5.26000000000000E+00,,,,,4.24000000000000E+00,,,,,,
SEN,,,,,,,,,,,,,,,,,,,,,,,,,,,,,,,,3.50000000000000E+00,,,6.46000000000000E+00,,,,,,,6.57000000000000E+00,,,,6.22000000000000E+00,,,,,,
SGP,,,,,,,,,,,,,,,,,,,,,,,,,,,,,,,,,,,,,,,5.04000000000000E+00,,,,,,,,,,,,,
SLE,,,,,,,,,,,,,,,,,,,,,,,,,,,,,,,1.12000000000000E+00,,,,,,,,,,,,,6.09000000000000E+00,,,,,,,,
SLV,,,,,,,,,,,,,,,,,,,,,,,,,,,,,,2.47000000000000E+00,,,,,,3.74000000000000E+00,3.40000000000000E+00,3.73000000000000E+00,3.27000000000000E+00,,2.94000000000000E+00,,2.72000000000000E+00,3.16000000000000E+00,,3.36000000000000E+00,,,4.66000000000000E+00,,,
SRB,,,,,,,,,,,,,,,,,,,,,,,,,,,,,,,,,,,,,,,,,,,,,,,,,9.05000000000000E+00,,,
STP,,,,,,,,,,,,,,,,,,,,,,,,,,,,,,,,,,,,,,,,,,5.23000000000000E+00,,,,,,,,,,
SUR,,,,,,,,,,,,,,,,,,,,,,,,,,,,,,,,,,,,,,,,3.18000000000000E+00,,,,,,,,,,,,
SVK,,,,,,,,,,,,,,,,,,,,,,,,,,,,,1.19700000000000E+01,,,,1.18500000000000E+01,,,,8.71000000000000E+00,,,,,,,,,,,,,,,
SVN,,,,,,,,,,,,,,,,,,,,,,,,,,,,1.04100000000000E+01,,,,,,9.28000000000000E+00,,,,,9.10000000000000E+00,,,,8.65000000000000E+00,8.12000000000000E+00,8.22000000000000E+00,,,,,,,
SWE,,,,,,,,,,,,,,,,,,,,,,,,,,,,,,,,,,,,,,,,,9.12000000000000E+00,,,,,,,,,,,
SWZ,,,,,,,,,,,,,,,,,,,,,,,,,,,,,,,,,,,,2.74000000000000E+00,,,,,,4.45000000000000E+00,,,,,,,,,,
SYC,,,,,,,,,,,,,,,,,,,,,,,,,,,,,,,,,,,,,,,,,5.68000000000000E+00,,,,,,,3.71000000000000E+00,,,,
SYR,,,,,,,,,,,,,,,,,,,,,,,,,,,,,,,,,,,,,,,,,,,,,7.68000000000000E+00,,,,,,,
TCD,,,,,,,,,,,,,,,,,,,,,,,,,,,,,,,,,,,,,,,,,,,,6.26000000000000E+00,,,,,,,,
TGO,,,,,,,,,,,,,,,,,,,,,,,,,,,,,,,,,,,,,,,,,,,,,,,7.62000000000000E+00,,,,,
THA,,,,,,,,,,,,,,,,,,,,,,5.42000000000000E+00,,,,,,,6.12000000000000E+00,,,,5.62000000000000E+00,,,,6.08000000000000E+00,,6.37000000000000E+00,5.99000000000000E+00,6.08000000000000E+00,,6.35000000000000E+00,,6.18000000000000E+00,,,,,,,
TJK,,,,,,,,,,,,,,,,,,,,,,,,,,,,,,,,,,,,,,,,8.03000000000000E+00,,,,7.92000000000000E+00,7.75000000000000E+00,,,,,,,
TKM,,,,,,,,,,,,,,,,,,,,,,,,,,,,,1.04900000000000E+01,,,,,6.89000000000000E+00,,,,,6.14000000000000E+00,,,,,,,,,,,,,
TMP,,,,,,,,,,,,,,,,,,,,,,,,,,,,,,,,,,,,,,,,,,6.70000000000000E+00,,,,,,8.95000000000000E+00,,,,
TTO,,,,,,,,,,,,,,,,,,,,,,,,,,,,,4.90000000000000E+00,,,,5.51000000000000E+00,,,,,,,,,,,,,,,,,,,
TUN,,,,,,,,,,,,,,,,,,,,,,,,,,5.54000000000000E+00,,,,,5.86000000000000E+00,,,,,5.66000000000000E+00,,,,,5.96000000000000E+00,,,,,,,,,,,
TUR,,,,,,,,,,,,,,,,,,,,,,,,,,,,5.91000000000000E+00,,,,,,,5.80000000000000E+00,,,,,,,,5.64000000000000E+00,,5.19000000000000E+00,5.16000000000000E+00,,,,,,
TZA,,,,,,,,,,,,,,,,,,,,,,,,,,,,,,,,,7.43000000000000E+00,,,,,,,,7.33000000000000E+00,,,,,,,6.80000000000000E+00,,,,
UGA,,,,,,,,,,,,,,,,,,,,,,,,,,,,,,4.94000000000000E+00,,,6.04000000000000E+00,,,,7.32000000000000E+00,,,5.92000000000000E+00,,,5.65000000000000E+00,,,6.08000000000000E+00,,,,5.84000000000000E+00,,
UKR,,,,,,,,,,,,,,,,,,,,,,,,,,,,,1.03100000000000E+01,,,,9.54000000000000E+00,,,,7.14000000000000E+00,,,8.80000000000000E+00,,,8.93000000000000E+00,,,9.02000000000000E+00,,,9.36000000000000E+00,,,
URY,,,,,,,,,,,,,,,,,,,,,,4.98000000000000E+00,,,,,,,,5.44000000000000E+00,,,5.22000000000000E+00,,,,4.92000000000000E+00,,4.52000000000000E+00,,4.83000000000000E+00,4.65000000000000E+00,,4.94000000000000E+00,,4.75000000000000E+00,4.57000000000000E+00,,,5.63000000000000E+00,,
USA,,,,,,,,,,,,,,,,,,,,,,,,,,,,,,,,,,,,,,,,,5.44000000000000E+00,,,,,,,,,,,
UZB,,,,,,,,,,,,,,,,,,,,,,,,,,,,,1.06100000000000E+01,,,,,,,,,,3.91000000000000E+00,,,,7.80000000000000E+00,7.14000000000000E+00,,,,,,,,
VEN,,,,,,,,,,,,,,,,,,,,,,3.08000000000000E+00,,,,,,3.38000000000000E+00,,4.81000000000000E+00,,,,5.60000000000000E+00,,4.31000000000000E+00,3.69000000000000E+00,4.12000000000000E+00,3.01000000000000E+00,,,,,3.27000000000000E+00,,3.72000000000000E+00,4.92000000000000E+00,,,,,
VNM,,,,,,,,,,,,,,,,,,,,,,,,,,,,,,,,,,7.82000000000000E+00,,,,,8.02000000000000E+00,,,,7.46000000000000E+00,,7.12000000000000E+00,,7.07000000000000E+00,,7.33000000000000E+00,,,
YEM,,,,,,,,,,,,,,,,,,,,,,,,,,,,,,,,,6.15000000000000E+00,,,,,,7.41000000000000E+00,,,,,,,7.18000000000000E+00,,,,,,
ZAF,,,,,,,,,,,,,,,,,,,,,,,,,,,,,,,,,,2.95000000000000E+00,,3.57000000000000E+00,,,,,3.06000000000000E+00,,,,,,2.45000000000000E+00,,,,,
ZAR,,,,,,,,,,,,,,,,,,,,,,,,,,,,,,,,,,,,,,,,,,,,,,,5.47000000000000E+00,,,,,
ZMB,,,,,,,,,,,,,,,,,,,,,,,,,,,,,,,,6.60000000000000E-01,,3.04000000000000E+00,,,4.20000000000000E+00,,3.37000000000000E+00,,,,,6.16000000000000E+00,3.63000000000000E+00,,,,,,,
ZWE,,,,,,,,,,,,,,,,,,,,,,,,,,,,,,,,,,,,4.63000000000000E+00,,,,,,,,,,,,,,,,
