"Country Code",1960,1961,1962,1963,1964,1965,1966,1967,1968,1969,1970,1971,1972,1973,1974,1975,1976,1977,1978,1979,1980,1981,1982,1983,1984,1985,1986,1987,1988,1989,1990,1991,1992,1993,1994,1995,1996,1997,1998,1999,2000,2001,2002,2003,2004,2005,2006,2007,2008,2009,2010,2011ABW,,,,,,,,,,,,,,,,,,,,,,,,,,,,,,,,,,,,,,,,,,,,1.56424581005587E+05,,,4.46927374301676E+04,3.91061452513967E+04,4.46927374301676E+04,,,
AGO,,,,,,,,,,,,,,,,,,,,,,,,,,,,,,,,,,1.41000000000000E+07,1.83000000000000E+07,7.42100000000000E+06,1.65870000000000E+07,5.96000000000000E+06,9.48000000000000E+06,2.79000000000000E+06,1.57500000000000E+07,4.42000000000000E+06,,,2.26800000000000E+08,4.94305711100000E+07,1.33958844164000E+09,1.20216941200000E+07,1.20000000000000E+07,,,
ALB,,,,,,,,,,,,,,,,,,,,,,,,,,,,,,,,,,,,,,,,,,,,5.32198391000000E+06,1.54104983900000E+07,5.05314458021101E+05,7.23627416065902E+05,7.53000000000000E+06,3.91341882215150E+07,1.72079674120013E+07,7.41635996185058E+05,
ARB,,,,,,,,,,,,,,,,1.23381009842321E+06,4.52559080276074E+05,1.11028559345826E+06,4.79999520115680E+05,7.69401583155594E+05,1.27011679814651E+06,2.32005291054409E+06,8.30147986468612E+05,1.82807044377977E+06,1.24850522247596E+06,6.85714683247081E+06,2.30656648363866E+06,3.11033618547174E+06,1.21815291473539E+06,1.21137917974301E+07,5.38488599522935E+06,4.13481803929226E+06,1.40550195452616E+06,5.80725765610298E+06,4.33791766685663E+07,5.09846815121339E+07,6.10755772589918E+07,5.90928532161149E+07,7.32975845762230E+07,6.26338192531487E+07,9.98472498781775E+07,7.87025157125305E+07,7.48930000517867E+07,1.64537340288336E+08,1.33987735842424E+08,1.74416828808832E+08,3.18272578534546E+08,1.56709853016657E+08,1.35350749318762E+09,6.38824218193048E+07,4.00487615240868E+07,
ARG,,,,,,,,,,,,,,,,,2.30000000000000E+07,1.40000000000000E+07,4.00000000000000E+06,3.00000000000000E+06,4.00000000000000E+06,6.00000000000000E+06,1.20000000000000E+07,2.00000000000000E+06,4.00000000000000E+06,8.00000000000000E+06,1.60000000000000E+07,1.40000000000000E+07,6.00000000000000E+06,7.00000000000000E+06,4.00000000000000E+06,4.00000000000000E+06,5.70000000000000E+06,6.96000000000000E+06,8.70000000000000E+06,1.24000000000000E+07,1.55546424928916E+07,1.75792529146114E+07,2.63323817137999E+07,2.54064576116032E+07,3.67565580114996E+07,4.67751295457136E+07,3.34500000000000E+07,5.15000000000000E+07,6.12100000000000E+07,5.10800000000000E+07,7.13200000000000E+07,1.06180000000000E+08,1.04770000000000E+08,1.08317754422377E+08,1.35010970770044E+08,
AUS,1.12000017933443E+06,1.12000017933443E+06,3.36000053800329E+06,1.12000017933443E+06,4.48000071733772E+06,3.36000053800329E+06,4.48000071733772E+06,5.60000089667214E+06,6.72000107600657E+06,8.96000143467543E+06,1.00800016140099E+07,1.12911466851320E+06,7.15659808604359E+06,5.82548769636986E+06,2.97499118486079E+06,1.84695722174968E+07,1.09522016388165E+07,1.55150199259763E+07,2.18011822998307E+07,1.78770207148416E+07,6.67745912174509E+07,5.04353912205415E+07,7.88085350327754E+07,9.04418978740036E+07,1.09301928399218E+08,1.01882880911899E+08,1.50789005829980E+08,1.61954075792403E+08,1.63974382576994E+08,1.70237056690934E+08,1.62330634564820E+08,1.54230038157313E+08,1.48081020271711E+08,1.86941007398405E+08,2.39301517388523E+08,2.40272765440007E+08,2.72547920798438E+08,3.36372769774672E+08,2.87277397680059E+08,3.60901094164316E+08,3.72131247842965E+08,3.16057324643501E+08,3.23834769390742E+08,4.29989590206711E+08,5.16649168318626E+08,5.52360337525508E+08,6.21196014928336E+08,6.91015209748661E+08,7.03299613695731E+08,,,
AUT,,,,,,,,3.92307691930473E+06,5.07692307204142E+06,4.84615384149408E+06,6.88461537799556E+06,7.72102210497617E+06,7.70637638298165E+06,9.48482739255912E+06,1.45026750232369E+07,1.35534193263003E+07,1.96496270540420E+07,2.56861932381397E+07,2.84429525466592E+07,3.32981282207492E+07,3.61077666236341E+07,2.86223729496529E+07,3.46705433838044E+07,3.01470096017481E+07,3.15015680777299E+07,3.01849544725458E+07,4.39431519892928E+07,5.53613297444246E+07,7.06494718981890E+07,7.64883599238472E+07,9.08860650577224E+07,7.93889276315770E+07,1.22295591941538E+08,1.18139892280159E+08,1.29498433737075E+08,1.32381393377634E+08,1.82478927525854E+08,1.84573233500764E+08,9.92880249097789E+07,1.19656755887366E+08,1.61441393098426E+08,1.37672150212902E+08,2.42789883220196E+08,3.46762448611608E+08,3.72220018404789E+08,3.90689679156749E+08,5.39904011482074E+08,7.42280000044325E+08,9.04502523861347E+08,7.50846476672110E+08,6.46339067577693E+08,
AZE,,,,,,,,,,,,,,,,,,,,,,,,,,,,,,,,,,,,,,,,,,,,1.00000000000000E+03,,6.00000000000000E+03,5.60000000000000E+04,2.20000000000000E+04,1.30000000000000E+04,1.80000000000000E+06,1.49000000000000E+05,
BEL,,,,,,,,,,,,,,,,,,,,,,,,,,,,,,,,,,,,,,,,,,,6.48908359702882E+08,8.83281937029085E+08,1.02189608183593E+09,1.36043054597950E+09,1.54229327018308E+09,1.67891224736245E+09,1.16691248746229E+09,2.46595317901415E+09,2.13837465944710E+09,
BEN,,,,,,,,,,,,,,,,,,,,,,,,,,,,,,,,,,,,,,,,,,1.36418481478833E+03,2.86948902382617E+03,8.77494364394292E+04,,,1.91244772394770E+03,,2.00980222724933E+04,,,
BFA,,,,,,,,,,,,,,,,,,,,,,,,,,4.45173576724117E+03,5.77524084767816E+03,,,,,,,,,,,,,,,,,4.30144296271712E+04,9.95675042581660E+05,,7.84103566818556E+04,1.02239507890481E+05,3.79629309591541E+04,8.47123281280599E+03,,
BGD,,,,,,,,,,,,,,,,,,,,,,,,,,,,,,,,,,,,,,2.22041283247629E+04,,8.15043246795426E+04,5.77342047930283E+04,7.01754385964912E+04,5.18134715025907E+04,3.27391013701952E+05,1.34430377118349E+05,2.60850899533999E+05,3.19865786912214E+05,4.34359671163359E+04,1.45819926001248E+04,3.33018064914714E+05,5.31028197407921E+05,
BGR,,,,,,,,,,,,,,,,,,,,,,,,,,,,,,,,,,,,,,,,,3.52218300000000E+06,2.58297690000000E+06,3.91723656111204E+06,4.66997043591628E+06,7.08974452339917E+06,5.04980951206603E+06,1.05168306626388E+07,1.08640748096957E+07,1.14115330804541E+07,1.00276435973130E+07,3.37078714152483E+07,
BIH,,,,,,,,,,,,,,,,,,,,,,,,,,,,,,,,,,,,,,,,,,,,,,,3.70969230328127E+06,4.29312643215237E+06,4.77237514706025E+06,1.23905508875808E+07,1.51241053121197E+07,
BLR,,,,,,,,,,,,,,,,,,,,,,,,,,,,,,,,,,,,,,1.70000000000000E+06,9.00000000000000E+05,7.00000000000000E+05,9.00000000000000E+05,5.00000000000000E+05,8.00000000000000E+05,1.40000000000000E+06,1.70000000000000E+06,3.10000000000000E+06,5.90000000000000E+06,3.10000000000000E+06,4.70000000000000E+06,9.50000000000000E+06,8.50000000000000E+06,
BLZ,,,,,,,,,,,,,,,,,,,,,,,,,,,4.50000000000000E+05,5.50000000000000E+05,2.90000000000000E+06,2.90000000000000E+06,3.75000000000000E+06,6.00000000000000E+05,,1.00000000000000E+05,,,,,,,,,,,,,,,,,,
BOL,,,,,,,,,,,,,,,,,,,,,,,,,,,,,,,,,,,,,,,,1.60000000000000E+06,1.60000000000000E+06,1.64000000000000E+06,1.80000000000000E+06,1.69000000000000E+06,1.84000000000000E+06,1.92000000000000E+06,1.78000000000000E+06,2.00500000000000E+06,2.25000000000000E+06,2.50000000000000E+06,2.80400000000000E+06,
BRA,,,,,,,,,,,,,,,,1.34000000000000E+08,1.31000000000000E+08,1.27000000000000E+08,1.59000000000000E+08,1.10000000000000E+07,1.20000000000000E+07,1.90000000000000E+07,1.50000000000000E+07,1.10000000000000E+07,1.10000000000000E+07,7.00000000000000E+06,4.00000000000000E+06,5.00000000000000E+06,6.00000000000000E+06,1.20000000000000E+07,1.20000000000000E+07,1.30000000000000E+07,1.20000000000000E+07,3.40000000000000E+07,1.90000000000000E+07,3.20000000000000E+07,7.80000000000000E+07,9.70000000000000E+07,1.42000000000000E+08,1.33000000000000E+08,1.25190000000000E+08,1.12092000000000E+08,1.00258000000000E+08,1.08116000000000E+08,1.14479000000000E+08,1.01660000000000E+08,1.50307000000000E+08,3.19410000000000E+08,4.65444000000000E+08,4.33807800000000E+08,3.97212729820000E+08,
BRB,,,,,,,,,,,,,,,,,,,,3.00000000000000E+05,3.50000000000000E+05,4.00000000000000E+05,4.50000000000000E+05,6.50000000000000E+05,7.00000000000000E+05,2.35000000000000E+06,3.85000000000000E+06,1.50000000000000E+05,6.50000000000000E+05,3.50000000000000E+05,6.00000000000000E+05,2.50000000000000E+05,1.00000000000000E+05,4.00000000000000E+05,3.50000000000000E+05,5.00000000000000E+04,,,2.50000000000000E+05,2.00000000000000E+05,2.50000000000000E+05,3.00000000000000E+05,5.00000000000000E+05,8.50000000000000E+05,2.30574360500000E+06,1.70168519000000E+06,4.18732157000000E+06,3.93011000000000E+05,3.88637300000000E+06,2.52405882000000E+06,3.43186574000000E+06,
BWA,,,,,,,,,,,,,,,,,,,,,,,,,,,,,,,,4.94668300171320E+04,4.73995425944140E+04,4.12698740237095E+04,3.72488658185969E+04,3.60723466985386E+04,,1.04909566857707E+05,1.72745085047375E+05,2.16244491644610E+04,,5.13596708892833E+03,4.59875420122700E+05,3.36772533889390E+06,5.40179166715513E+06,4.61807498906666E+05,3.16966920962976E+05,2.33088040176708E+05,5.04108951588650E+05,5.31086914250021E+05,1.28767886381475E+05,
CAN,,,,,,,,,,,,,,,,,,,,,,,,,,,,,,,,,,,,3.73932439369500E+08,8.77050089836381E+08,1.16361565805782E+09,1.40101317290343E+09,1.54406555137343E+09,2.25853142903810E+09,2.41216733365333E+09,2.49610720783617E+09,2.80982034066061E+09,3.00815943301603E+09,2.76503086433710E+09,3.17343290638187E+09,3.50491044381136E+09,3.59927495871124E+09,3.42018939289015E+09,3.81333329972951E+09,
CHL,,,,,,,,,,,,,,,,,,,,,,,,,,,,,,,1.00000000000000E+05,5.00000000000000E+05,5.00000000000000E+05,1.70000000000000E+06,6.00000000000000E+06,1.90000000000000E+06,1.01000000000000E+07,1.00000000000000E+07,5.10000000000000E+06,6.00000000000000E+06,9.99999999999999E+06,2.49027868449786E+07,4.11000000000000E+07,4.54508831805000E+07,4.84559433128048E+07,5.40000000000000E+07,5.52000000000000E+07,6.12886126939993E+07,6.36232338496189E+07,5.91611235258208E+07,6.40900322122314E+07,
CHN,,,,,,,,,,,,,,,,,,,,,,,,,,,,,,,,,,,,,,5.50000000000000E+07,6.30000000000000E+07,7.50000000000000E+07,8.03480000000000E+07,1.10000000000000E+08,1.32822320486600E+08,1.06978898264600E+08,2.36359258211400E+08,1.57401785777000E+08,2.04503785234955E+08,3.42634074968636E+08,5.70536223222955E+08,4.29452520000000E+08,8.30483814000000E+08,
CIV,,,,,,,,,,,,,,,,,,,,,,,,,2.28855645947545E+05,2.22586788362059E+05,2.88762042383908E+05,3.32738217276915E+05,-3.35741473950671E+05,3.13471468173486E+05,,,,3.53154008473050E+05,5.40341251339202E+05,2.00341210771987E+05,1.95483383681176E+05,1.71329873960652E+05,1.52554842412341E+05,1.47799461253539E+05,1.33431412550853E+05,1.28233372590103E+07,,,1.70362649871387E+05,,2.29493726873724E+04,,2.97004106915735E+05,,,
CMR,,,,,,,,,,,,,,,,,,,,,,,,,,,7.50781310198161E+05,,2.01444884370402E+05,7.20984376799018E+05,5.50934261925660E+05,3.54475544119937E+04,1.31095862817066E+07,1.76577004236525E+05,4.32273001071362E+05,1.80307089694789E+05,2.73676737153646E+05,1.71329873960652E+05,1.01703228274894E+03,1.73250203647417E+06,2.45387390386943E+06,5.60679958878003E+04,4.46205543204970E+04,1.61390139961146E+05,1.21146773241875E+05,3.46940383953217E+05,2.29493726873724E+05,2.50382468303218E+05,4.10892899793197E+05,2.22369861336157E+05,3.16994314619240E+05,
COL,,,,,,,,,7.99999999996948E+06,7.99999999996948E+06,2.99999999996948E+06,3.00893999996948E+06,2.17142000000000E+06,2.38426000000000E+06,2.40527999996948E+06,9.00000000000000E+06,9.00000000000000E+06,1.20000000000000E+07,9.00000000000000E+06,1.40000000000000E+07,1.10000000000000E+07,1.70000000000000E+07,2.60000000000000E+07,3.00000000000000E+07,3.30000000000000E+07,2.90000000000000E+07,1.10000000000000E+07,1.10000000000000E+07,1.30000000000000E+07,1.70000000000000E+07,2.10000000000000E+07,2.90000000000000E+07,2.43000000000000E+07,3.02000000000000E+07,1.35500000000000E+05,2.29500000000000E+05,6.71560000000000E+05,1.37578000000000E+06,3.75731000000000E+06,6.12054000000000E+06,5.41403000000000E+06,2.63999000000000E+06,4.06820000000000E+06,5.98175000000000E+06,7.56388000000000E+06,9.93748000000000E+06,1.13423400000000E+07,1.67807900000000E+07,2.97139300000000E+07,3.90494216275556E+07,5.64907145344445E+07,
CPV,,,,,,,,,,,,,,,,,,,,,,,,,,,,,1.24882922260381E+03,,,3.24892052748279E+04,1.57459284425228E+05,8.21867419083678E+04,9.40276180687704E+04,3.03174878556558E+04,1.02916201189469E+04,4.24462490609237E+05,2.96951299986802E+03,4.27785553275470E+04,2.36396001559891E+03,1.29824322310601E+05,5.61194227315054E+05,7.41478398981907E+04,,,,6.72985789145253E+02,,,,
CRI,,,,,,,,,,,,,,,,,,1.00000000000000E+06,1.00000000000000E+06,1.40000000000000E+06,1.40000000000000E+06,2.00000000000000E+05,,,,2.00000000000000E+05,2.00000000000000E+05,,,,1.20000000000000E+06,2.60000000000000E+06,2.10000000000000E+06,2.50000000000000E+06,2.50000000000000E+06,2.60000000000000E+06,2.19000000000000E+06,1.70000000000000E+05,2.20000000000000E+05,1.18100000000000E+06,2.45008000000000E+05,9.13228999999999E+05,1.68786000000000E+06,4.58000000000000E+05,5.12407000000000E+05,1.02560000000000E+05,,,6.25120000000000E+05,5.88100000000000E+05,7.51100000000000E+06,
CYP,,,,,,,,,,,,,,,,,,,,,,,,,,,,,,,,,,,,3.31550207200460E+06,6.43347120619543E+06,9.72956984923059E+06,1.15869130323322E+07,1.28925849678906E+07,1.60666027090916E+07,2.62409526602830E+07,4.27207000268986E+07,1.50081497721967E+07,1.76609835423303E+07,1.51047404857741E+07,1.59611564600766E+07,2.10799705598350E+07,1.20906806322182E+07,1.19991966223083E+07,8.45622497921335E+06,
CZE,,,,,,,,,,,,,,,,,,,,,,,,,,,,,,,,,,1.46894803691455E+06,3.68053984654756E+06,1.31817298901637E+07,4.27841498830750E+07,3.37803706560900E+07,5.73573406704584E+07,4.29089279472013E+07,4.42854276717208E+07,3.64858663688542E+07,4.52809763613009E+07,5.03042395723995E+07,3.76127453338855E+07,3.98065114438455E+07,3.17088043037020E+07,3.59237005008600E+07,5.69794169071176E+07,9.88924696993883E+07,1.05154705547511E+08,
DEU,,,,,,,,,,,,1.56379882202346E+08,2.11276916800285E+08,2.25350237749492E+08,2.75539638387756E+08,3.24885739281454E+08,3.04438860548789E+08,3.55860382361821E+08,4.62286663765467E+08,5.25965634558065E+08,6.06121398698069E+08,5.46035547736915E+08,5.61911840745761E+08,5.92844962522169E+08,5.83238416927030E+08,6.18173314744477E+08,9.20418045622580E+08,1.16132753566745E+09,1.26502201025465E+09,1.34051128638090E+09,1.98698370133165E+09,1.88775484861372E+09,2.07173291969025E+09,2.05776444143388E+09,2.40281469753629E+09,3.13421732528799E+09,3.36502706500610E+09,3.22196268918746E+09,3.34525352839296E+09,3.10824098396873E+09,2.90956108165504E+09,3.32466707899029E+09,3.87486582745219E+09,4.50822181524200E+09,5.53182473180892E+09,7.13639815233354E+09,6.96074802066478E+09,8.46412614736225E+09,1.08315802364326E+10,1.63479180949091E+10,1.43844826162389E+10,
DMA,,,,,,,,,,,,,,,,,,,,,,,,,,,,,,,,,,,,,,,2.03703703703704E+05,1.00000000000000E+05,2.59259259259259E+04,,,,,,,,,,,
DZA,,,,,,,,,,,,,,,,,,,,,,,,,,,,,,,,,,,,,,,,,,,,,,,2.00000000000009E+06,1.00000000000000E+06,3.00000000000000E+06,2.00000000000009E+06,,
EAP,,,,,,,,,,,,,,,,,3.58807290124733E+06,8.39589854691582E+05,,5.32747870859774E+05,6.57827854923066E+05,1.27958973152684E+06,4.56000124440152E+05,1.74322118570787E+06,7.72285659655679E+05,3.92716589882075E+06,2.66584546612036E+06,2.02309018660554E+06,2.53740751793448E+06,2.58863558224057E+06,4.32096162042589E+06,1.16222801539025E+07,1.91144541344848E+07,1.24226883265273E+07,1.76915977278380E+07,2.59922169028131E+06,3.01313574603979E+07,1.17113768102598E+08,7.02093404820560E+07,1.18091570169083E+08,1.17425901308917E+08,1.41994291897481E+08,1.57272662342709E+08,1.40397631964422E+08,5.24781627456371E+08,4.71119562994858E+08,2.96986663393127E+08,4.69887225775885E+08,9.10847636937258E+08,8.81296039164113E+08,1.04855295070762E+09,
EAS,1.12000017933443E+06,1.12000017933443E+06,3.36000053800329E+06,1.12000017933443E+06,4.48000071733772E+06,3.36000053800329E+06,4.48000071733772E+06,5.60000089667214E+06,6.72000107600657E+06,8.96000143467543E+06,1.00800016140099E+07,1.12911466851320E+06,7.15659808604359E+06,5.82548769636986E+06,2.97499118486079E+06,1.84695722174968E+07,1.65402745400638E+07,2.26354609780668E+08,3.04801182299831E+08,3.40409768585701E+08,4.40632419072374E+08,5.35514980952068E+08,6.44964535157216E+08,6.69085119059712E+08,8.04074214058874E+08,1.09010046810720E+08,1.69054851296100E+08,1.74277165979009E+08,2.09111790094928E+08,1.96025692273175E+08,2.03751596185246E+08,3.09230598334279E+09,3.33303263795580E+09,4.18957649110636E+09,5.59629400220939E+09,6.62814638098467E+09,7.25766274783683E+09,8.09952012330043E+09,8.26832241214003E+09,9.31222409360139E+09,1.16458494445031E+10,1.24003570147211E+10,1.24049821520964E+10,1.49675363145354E+10,1.96555196580285E+10,2.18321022338183E+10,2.44300249784438E+10,2.78454620096876E+10,3.16110239629591E+10,2.76746601875729E+10,3.29250243342207E+10,
ECA,,,,,,,,,,,,,,,,,,,,,,,,,,,,,,,,,1.49355000000000E+05,1.33000000000000E+05,5.63211378164152E+06,7.03000000000000E+06,2.61627000000000E+08,1.80943500000000E+08,3.66637089929127E+07,6.29197447685021E+07,1.13756123640241E+08,9.71824025098438E+07,1.73051727233991E+08,2.18362269988137E+08,3.23776909835951E+08,3.67633738906105E+08,4.20104773672435E+08,5.64038111237777E+08,8.88163186377165E+08,9.40883784939026E+08,1.35163361922138E+09,
ECS,,,,,,,,6.85639608504210E+07,6.39167020349806E+07,8.77190819583098E+07,4.64472386232704E+08,6.47933113168350E+08,7.63053014179027E+08,9.15240370353789E+08,1.06276373511211E+09,1.43021410890549E+09,1.57044072530207E+09,1.79907513699616E+09,2.19306246654417E+09,2.62899052651392E+09,3.01055764604343E+09,2.91476654658557E+09,2.52332507082377E+09,2.91505059863602E+09,2.60194802932598E+09,2.87839536169612E+09,3.64857712762321E+09,5.37109045994431E+09,6.33651575950784E+09,6.73353812985985E+09,9.48993439287139E+09,9.46707308903125E+09,1.08369258885720E+10,1.13943925050225E+10,1.36560797808559E+10,1.55543185643097E+10,1.68812065768927E+10,1.69560852746399E+10,1.80454290273317E+10,2.00382740002005E+10,2.03758984783380E+10,2.00177978860458E+10,2.32486593348134E+10,2.79398649874487E+10,3.56676370548368E+10,4.17094077555099E+10,4.35140899082715E+10,5.18562268149347E+10,5.93450244867160E+10,6.40251809813926E+10,6.65577942782290E+10,
EGY,,,,,,,,,,,,,,,,,,,,,,,,,,,,,,,,,,,4.00000000000000E+07,4.70000000000000E+07,5.50000000000000E+07,5.40000000000000E+07,5.60000000000000E+07,4.65000000000000E+07,5.90000000000000E+07,4.63000000000000E+07,3.76000000000000E+07,1.20800000000000E+08,1.00000000000000E+08,1.36000000000000E+08,1.38000000000000E+08,1.22000000000000E+08,,,,
EMU,,,,,,,,6.85639608504210E+07,6.39167020349806E+07,8.77190819583098E+07,1.08208372210297E+08,2.74555644101791E+08,3.27589718191427E+08,3.83657454992665E+08,4.58163283750995E+08,7.49049374450358E+08,7.80031868559500E+08,9.38057690044553E+08,1.17771901342727E+09,1.48500144094523E+09,1.69520135366136E+09,1.57430187274071E+09,1.42446454539494E+09,1.66186671293420E+09,1.44423134720817E+09,1.57396460347271E+09,2.24422337150675E+09,2.99582971529917E+09,3.47995234728437E+09,3.58514835993224E+09,5.69049011080125E+09,5.29624687871271E+09,5.84573211504198E+09,6.12941327617717E+09,7.02441595713241E+09,8.41694368493631E+09,8.73533475315985E+09,8.69936893872634E+09,9.55057660907375E+09,9.91738962830063E+09,1.02811613633677E+10,9.66218965287317E+09,1.20640880974864E+10,1.47649034518976E+10,1.91153605750483E+10,2.32091066531782E+10,2.35934343387846E+10,2.88895200134878E+10,3.73000438202781E+10,4.36634062673126E+10,4.29002082847861E+10,
ERI,,,,,,,,,,,,,,,,,,,,,,,,,,,,,,,,,,,,,,,3.98855043489875E+05,8.76120996815425E+03,9.41151202749141E+04,,,,,,,,,,,
ESP,,,,,,,,,,,,,,,,1.57300061980739E+07,1.63825030508700E+07,2.12474595963299E+07,2.35020181257986E+07,2.54249443202922E+07,3.61871352571286E+07,3.14955958432404E+07,3.62933294942150E+07,3.22905446691608E+07,2.99621948346116E+07,2.58981597409856E+07,3.22197492770782E+07,2.92174335788681E+07,3.95158598948689E+07,5.24350283024117E+07,9.01171930127265E+07,8.42858278380253E+07,1.01499241987913E+08,1.50374141989184E+08,2.20171988256317E+08,1.96073167445017E+08,2.14088034021948E+08,2.11801152176430E+08,2.41764812378891E+08,3.42674839756967E+08,4.21140275749261E+08,3.65363475183475E+08,3.70141573342294E+08,5.27861731357542E+08,5.00084638333014E+08,5.64800062397541E+08,9.22593052426065E+08,5.36958953662155E+08,8.01199166404028E+08,6.70968788374130E+08,8.77464508500325E+08,
EST,,,,,,,,,,,,,,,,,,,,,,,,,,,,,,,,,,,8.60853291990289E+05,9.42781900884106E+05,1.34905672419043E+06,9.67263972300308E+05,1.15794036780961E+06,1.73578898872968E+06,1.55782855621344E+06,2.12489516746361E+06,4.91536396122266E+06,5.17453013918214E+06,3.96834087764502E+06,5.44080849777588E+06,6.64503746605969E+06,1.06553633356758E+07,2.68726783471350E+07,2.45866077290584E+07,2.04060173800178E+07,
ETH,,,,,,,,,,,,,,,,,,,,,,,,,,,,,,,,,,,,,,,,,,,,,3.31623488041211E+03,4.60956946621186E+03,1.49087128046729E+04,8.39304811964979E+04,1.06466973316172E+05,2.15769820481949E+06,2.47765416893145E+05,
EUU,,,,,,,,6.85639608504210E+07,6.39167020349806E+07,8.77190819583098E+07,4.64472386232704E+08,6.47933113168350E+08,7.63053014179027E+08,9.15240370353789E+08,1.06276373511211E+09,1.39958704873548E+09,1.53563973791515E+09,1.75145239805558E+09,2.13161082724795E+09,2.56699104241309E+09,2.92024574058240E+09,2.83770323677419E+09,2.49430440841227E+09,2.86745513308536E+09,2.57288211719138E+09,2.84980096100543E+09,3.60609150033730E+09,5.30372270371677E+09,6.25579499747241E+09,6.62651304709686E+09,9.35707302531995E+09,9.35068209572017E+09,1.07151704532591E+10,1.12669583268356E+10,1.35349999779545E+10,1.54375199029413E+10,1.66003354402325E+10,1.66552783113183E+10,1.78836039621647E+10,1.97586621952899E+10,2.00458987897398E+10,1.96766632601691E+10,2.28314823790989E+10,2.75059525977714E+10,3.50867376991371E+10,4.09676480106812E+10,4.27594955632957E+10,5.08293574752283E+10,5.80331869141002E+10,6.26702188834559E+10,6.52235264458363E+10,
FIN,,,,,,,,,,,,,,,,4.76109582090809E+06,6.99669794188168E+06,2.95611408754405E+06,2.67622539437156E+06,3.58579411982103E+06,3.47610248403499E+06,6.45653824878472E+06,4.36776006992127E+06,7.14515293521059E+06,5.19216024599281E+06,6.54040704862128E+06,9.13275325292537E+06,2.70738473452903E+07,3.95069670272128E+07,4.50676972611956E+07,5.04707578783455E+07,5.41241153034928E+07,6.26751434618267E+07,8.91321364379279E+07,7.53498121943748E+07,5.82740589261079E+07,6.59484708384743E+07,9.34496673243878E+07,1.06247893558393E+08,6.48357474282710E+08,8.86376136974850E+08,5.83674254057410E+08,5.60370114239380E+08,5.00956228054581E+08,8.38998211282219E+08,1.20646287911151E+09,1.06984597416541E+09,1.28106593128544E+09,1.48847635386662E+09,1.75403351944063E+09,2.34042043005453E+09,
FJI,,,,,,,,,,,,,,,,,,,,,,,,,,,,,,,,,,,,,,,,,2.91410588254636E+06,1.26485811370812E+06,3.90579444577154E+06,1.11938223543972E+06,1.15857299465434E+05,1.16593153272203E+05,1.76557135850907E+05,6.25143261997542E+04,,5.78588335620089E+05,5.29988940128860E+05,
FRA,,,,,,,,,,,,,,,,1.92154613478427E+08,2.01071165681414E+08,2.83850217890703E+08,3.47416985066910E+08,4.29876142836436E+08,4.95717088753075E+08,4.95447294315840E+08,3.74878716630407E+08,5.87718469244710E+08,4.24926838849206E+08,5.22346082112156E+08,6.88839182671791E+08,8.97504217170555E+08,1.08160589958730E+09,9.98191639642778E+08,1.29466212540326E+09,1.38760515612996E+09,1.57875301640961E+09,1.45589962756840E+09,1.53106307663285E+09,1.85002138068064E+09,1.88447826616060E+09,2.04642294903265E+09,2.33798504237980E+09,1.92031011202130E+09,2.31874166337267E+09,2.60239313539705E+09,3.33525009656890E+09,4.07446611695403E+09,5.16906347255837E+09,6.21703675556390E+09,6.23010242474442E+09,8.84113427177524E+09,1.10411678976670E+10,9.77214140929395E+09,1.04071720155241E+10,
FRO,,,,,,,,,,,,,,,,,,,,,,,,,,,,,,,,,,,,,,,1.00000000000000E+04,1.00000000000000E+04,1.00000000000000E+04,2.00000000000000E+04,1.00000000000000E+04,2.00000000000000E+04,,,,,,,,
GBR,,,,,,,,,,,3.40799727837337E+08,3.57770469690405E+08,4.14465553240536E+08,4.94946588144538E+08,5.73064835818219E+08,6.09148287081686E+08,6.95748713691340E+08,7.38818054010789E+08,8.83117477764340E+08,9.91008503450077E+08,1.13512660725482E+09,1.16118325400913E+09,9.95518507890011E+08,1.06226613691015E+09,1.04776527545110E+09,1.16183626686707E+09,1.23909343206294E+09,2.01805660526522E+09,2.41184975896279E+09,2.60369090273710E+09,3.05503302048713E+09,3.33948152794765E+09,4.19009980286732E+09,4.35538173261052E+09,5.31905053229923E+09,6.08009395674603E+09,6.65505305630066E+09,6.79044221839124E+09,7.07073873364791E+09,8.24401992993647E+09,8.15139485154819E+09,8.16732706968359E+09,8.68063857133636E+09,1.01000610507985E+10,1.17833750841296E+10,1.33021610272087E+10,1.45411841033123E+10,1.60633739301350E+10,1.47516485228463E+10,1.29283440248380E+10,1.42849159534293E+10,
GEO,,,,,,,,,,,,,,,,,,,,,,,,,,,,,,,,,,,,,,,,,3.35878570140943E+06,3.94450986128826E+06,5.51000000000000E+06,6.28850500000000E+06,7.72488670222500E+06,9.29460103018612E+06,1.29319709148493E+07,1.06302976015907E+07,6.19742651217212E+06,7.46432900360000E+06,4.72638108600000E+06,
GIN,,,,,,,,,,,,,,,,,,,,,,,,,,,,,,,,,,,,,,,,,,4.39000000000000E+03,3.00000000000000E+04,3.08640000000000E+05,,2.70000000000000E+05,,6.00000000000000E+04,1.00000000000000E+05,,,
GRC,,,,,,,,,,,,,,,,,,,,,,,,,,,,,,,,,,,,,,,,1.29000000000000E+07,5.40000000000001E+06,1.40000000000000E+07,1.25893861117388E+07,1.83635015753236E+07,3.17954808128042E+07,6.02308000019894E+07,6.66765943982607E+07,5.23024465652224E+07,4.38742706640652E+07,4.79555854088746E+07,6.87147512603402E+07,
GRD,,,,,,,,,,,,,,,,,,,,,,,,,,,,,,,,,,,,,,,,,,,,,,,6.47148148148148E+04,6.47148148148148E+04,6.50407407407407E+04,4.25704814814815E+05,4.38147037037037E+05,
GTM,,,,,,,,,,,,,,,,,,5.00000000000000E+05,2.00000000000000E+05,5.00000000000000E+05,4.00000000000000E+05,3.00000000000000E+05,1.00000000000000E+05,1.00000000000000E+05,,,4.00000000000000E+05,,,,,1.60000000000000E+06,,,,,,,,,,,,,2.20000000000000E+06,4.50000000000000E+06,7.90000000000000E+06,1.08000000000000E+07,1.19000000000000E+07,1.31000000000000E+07,1.34000000000000E+07,
GUY,,,,,,,,,,,,,,,,,,,,,,,,,,,,,,,,,,,,,1.40000000000000E+07,1.70000000000000E+07,1.70000000000000E+07,1.62000000000000E+07,1.48000000000000E+07,2.31000000000000E+07,3.44000000000000E+07,3.21000000000000E+07,3.37370000000000E+07,3.54230000000000E+07,3.71940000000000E+07,4.05420000000000E+07,4.25700000000000E+07,4.46975499974063E+07,4.69324274972766E+07,
HIC,1.12000017933443E+06,1.12000017933443E+06,3.36000053800329E+06,1.12000017933443E+06,4.48000071733772E+06,3.36000053800329E+06,4.48000071733772E+06,7.41639617470932E+07,7.06367031109872E+07,9.66790833929852E+07,2.80455238784671E+09,3.19906222783686E+09,3.55020961226507E+09,4.15106585805016E+09,4.89973872629697E+09,5.76368368112299E+09,5.95939292694088E+09,6.95659015692213E+09,8.38686364884400E+09,9.16916754722876E+09,1.05428822372609E+10,1.07433019378061E+10,8.79908360585654E+09,9.38484249651003E+09,9.61354995772520E+09,9.69842824260802E+09,1.19676705912356E+10,1.57589945357367E+10,1.87530423877703E+10,2.08027121367721E+10,2.63930506846312E+10,3.04384686652721E+10,3.50879511572900E+10,3.73579179405935E+10,4.60570059137588E+10,5.29703662568568E+10,5.73529822598353E+10,5.93263258857342E+10,6.34507316176979E+10,7.86982523302377E+10,8.63540044081001E+10,8.45056611043701E+10,9.21002749503062E+10,1.02599868277452E+11,1.25085954976181E+11,1.40539575763708E+11,1.54691174275845E+11,1.80811868932901E+11,1.95734683742570E+11,1.91288110221895E+11,2.07366259231529E+11,
HKG,,,,,,,,,,,,,,,,,,,,,,,,,,,,,,,,,,,,,,,1.55448442072646E+08,7.75951562593700E+07,1.06652667360685E+08,1.95672003254521E+08,2.28878001442948E+08,3.40604530573764E+08,2.17905394817703E+08,2.45221771985228E+08,2.59254439294070E+08,3.57912339758392E+08,3.79753523114378E+08,3.83395054443663E+08,,
HND,,,,,,,,,,,,,,,,,,,,,,,,,,,,,,,,,,,,,,,,,3.00000000000000E+05,6.00000000000000E+05,1.50000000000000E+06,8.11000000000000E+05,,,,,,,,
HPC,,,,,,,,,,,,,,,4.15446866823810E+04,4.66607468989430E+04,4.18496727980135E+04,4.07034058849231E+04,4.43152683454891E+04,9.40195816431891E+04,9.46613124054689E+04,1.29950950564140E+06,1.73459876468672E+06,1.02344466084822E+06,1.02985040676395E+06,1.14952141950836E+06,2.26953588034695E+06,1.21044242765317E+06,8.05779537481609E+05,1.81813451540622E+06,1.89684530605727E+06,2.91611718941324E+06,1.51545624495317E+07,2.91370510141486E+06,3.10626731904820E+06,2.36208229551759E+06,1.59273472255659E+07,2.18268268344497E+07,2.31158847689252E+07,2.51281267209204E+07,2.52881570491429E+07,4.08493778160700E+07,4.55792073461373E+07,5.80183700521980E+07,4.01724186086414E+07,5.18329209481949E+07,4.52730127031253E+07,4.65951085575211E+07,1.14983163812733E+08,6.05402654674729E+07,5.94646138182988E+07,
HRV,,,,,,,,,,,,,,,,,,,,,,,,,,,,,,,,,,1.94200000000000E+06,2.27000000000000E+06,2.23900000000000E+06,2.54188307300000E+06,1.89256977270000E+07,4.16011880660000E+07,8.18882653250000E+07,6.60306164290000E+07,1.06373527810000E+08,8.47943033220000E+07,3.45892459030000E+07,4.05204290100000E+07,7.31493726000000E+07,4.71598586020000E+07,3.95594045200000E+07,4.37468055700000E+07,3.23020963300000E+07,3.17839128400000E+07,
HTI,,,,,,,,,,,,,,,,,,,,,,,,,,,,,,,,,,,,,,,,,,,6.46000000000000E+06,5.84000000000000E+06,,,,,,,,
HUN,,,,,,,,,,,,,,,,,,,,,,,,,,,,,,,4.85279289659244E+07,1.80575536538157E+07,3.82590064879030E+07,3.30210834095160E+07,3.14850946349707E+07,3.16978090876983E+07,4.49558931187557E+07,1.00151484281254E+08,4.63925999166414E+07,6.19483406431751E+07,1.11789226999056E+08,9.56657518760687E+07,3.49305233507852E+08,3.13280050295257E+08,5.39812910885683E+08,8.37211660231368E+08,5.49836584654373E+08,9.19784068093720E+08,8.64272689047347E+08,8.30863163129066E+08,1.05088885208748E+09,
IDN,,,,,,,,,,,,,,,,,,,,,,,,,,,,,,,,,,,,,,,,,,,,,2.21187500000000E+08,2.63330000000000E+08,1.34450527973301E+07,3.06900000000000E+07,2.72119567544272E+07,3.81281410043154E+07,5.95606874038917E+07,
IND,,,,,,,,,,,,,,,,,1.11523926889180E+05,1.13459994886484E+05,,,,1.11305389516412E+05,6.25124175325905E+05,8.96690489893737E+05,1.73389201559159E+05,1.65407730054585E+05,3.97330037929543E+05,7.71836313459156E+05,1.03202435151543E+06,1.29241228765816E+06,1.32339880972990E+06,6.15524763325469E+05,7.31658988919698E+05,2.90980453742414E+05,4.46175135529178E+05,1.39555026340294E+06,6.89930742773766E+06,1.24141455187344E+07,1.93039133226733E+07,2.28838865633397E+07,8.25487087700891E+07,3.71561595439439E+07,2.01599479368238E+07,2.40886156906115E+07,5.27960595739589E+07,2.05974583701422E+08,6.09132603059551E+07,1.63126496583273E+08,1.47815443392231E+08,1.92555770135384E+08,1.28724356186778E+08,
IRL,,,,,,,,,,,,,,,,,,,,,,,,,,,,,,,3.80122971217576E+07,4.35545075240772E+07,3.88607995495950E+07,6.74301049403399E+07,9.11966517095333E+07,1.31575602542286E+08,1.00717346470793E+08,1.17408811395594E+08,2.49176860072111E+08,5.82750045669451E+08,6.37915508003997E+08,1.85003772116636E+08,2.82235121233522E+08,2.10711254790643E+08,3.51790007211773E+08,7.73415052505997E+08,9.25317847722089E+08,1.18535535086576E+09,1.47497327292048E+09,1.69816930447441E+09,2.25220771121291E+09,
IRQ,,,,,,,,,,,,,,,,,,,,,,,,,,,,,,,,,,,,,,,,,,,,,,,,2.00000000000000E+05,1.31210000000000E+09,,,
ISL,,,,,,,,,,,,,,,,,,,,,,,,,,,,,,,,,,,,,1.95918733280897E+05,1.41864094197759E+04,1.40517949628920E+05,,1.32555673382821E+04,,2.96530000000000E+04,,1.68207228343967E+06,,1.44941540245434E+04,6.28634292000629E+04,2.38805970149254E+04,,,
ISR,,,,,,,,,,,,,,,4.00000000000000E+06,5.00000000000000E+06,6.00000000000000E+06,1.20000000000000E+07,9.00000000000000E+06,1.00000000000000E+07,1.20000000000000E+07,1.39000000000000E+07,2.08000000000000E+07,2.18000000000000E+07,2.76000000000000E+07,3.26000000000000E+07,3.46000000000000E+07,4.15000000000000E+07,6.20000000000000E+07,5.51000000000000E+07,6.29000000000000E+07,7.04000000000000E+07,9.61000000000000E+07,9.20000000000000E+07,1.15500000000000E+08,1.34300000000000E+08,1.58200000000000E+08,1.77100000000000E+08,2.15600000000000E+08,2.53500000000000E+08,4.96100000000000E+08,4.25200000000000E+08,4.20200000000000E+08,4.25200000000000E+08,5.04700000000000E+08,5.74100000000000E+08,5.93000000000000E+08,7.84700000000000E+08,8.03800000000000E+08,7.60600000000000E+08,8.49400000000000E+08,
ITA,,,,,,,,,,,1.59999999840000E+06,4.85097833209795E+06,5.14200561595555E+06,6.83943513780150E+06,7.63591963835962E+06,1.38663405355691E+07,1.99891263678549E+07,1.47280346584795E+07,1.88352706289086E+07,9.26664958791856E+07,9.56757564779831E+07,7.44597003722911E+07,6.83618226247791E+07,6.65120772931529E+07,6.68674544185483E+07,6.39365464494735E+07,7.98518179209065E+07,1.00589779321864E+08,1.13101907362503E+08,1.10039690183260E+08,1.03997855017627E+09,2.48246081881467E+08,2.40617737360552E+08,2.33993486713002E+08,3.22555518235379E+08,4.62101588711283E+08,3.81449490399113E+08,4.90284213608145E+08,4.76674333808978E+08,5.63448612685280E+08,5.63285589175207E+08,4.43192017467969E+08,5.38988029305903E+08,5.24693139320209E+08,7.68915590067207E+08,1.12983329529876E+09,1.11550559089477E+09,1.04962386745491E+09,3.97258255565623E+09,3.92764468718583E+09,3.60334889442674E+09,
JAM,,,,,,,,,,,,,,,,,,,,4.00000000000000E+05,,,,,,,4.10000000000000E+06,2.60000000000000E+06,1.53000000000000E+07,2.70000000000000E+06,3.30000000000000E+06,2.00000000000000E+06,3.30000000000000E+06,9.20000000000000E+06,5.10000000000000E+06,3.90000000000000E+06,4.30000000000000E+06,7.00000000000000E+06,6.60000000000000E+06,6.20000000000000E+06,6.40000000000000E+06,5.90000000000000E+06,6.13000000000000E+06,1.20000000000000E+07,9.68664900000000E+06,1.26520160000000E+07,1.19599916500000E+07,1.49483760000000E+07,1.66070727000000E+07,9.13447476000000E+06,4.86122177000000E+06,
JPN,,,,,,,,,,,,,,,,,,2.10000000000000E+08,2.80000000000000E+08,3.20000000000000E+08,3.50000000000000E+08,4.80000000000000E+08,5.60000000000000E+08,5.70000000000000E+08,6.90000000000000E+08,,,,,,,2.86595366503158E+09,3.06083716354960E+09,3.86071279538143E+09,5.18450088709303E+09,6.00503322613439E+09,6.68050766061403E+09,7.30267083904691E+09,7.38801711335546E+09,8.19046585430485E+09,1.02272335889601E+10,1.04615963099484E+10,1.04217393061717E+10,1.22707507507923E+10,1.57013225190014E+10,1.76552533687708E+10,2.00956216055190E+10,2.32285680125429E+10,2.57005831197172E+10,2.16980035485029E+10,2.66803173338952E+10,
KAZ,,,,,,,,,,,,,,,,,,,,,,,,,,,,,,,,,,,,,,,,,,,,2.00000000000000E+02,3.59000000000000E+04,2.13300000000000E+04,,,,,,
KEN,,,,,,,,,,,,,,,,,,,,,,,,,,,,8.26522038815136E+06,,1.21035558853743E+07,9.42623606611748E+06,1.10659253837690E+07,6.95288694833446E+06,9.28102802234431E+06,7.04403121645050E+06,1.52253653035365E+07,1.54803828075119E+07,2.24203764539423E+07,2.19042949175622E+07,1.01390353952876E+07,7.06673018953481E+06,5.02553390299364E+06,9.94344806086246E+06,1.16435552728272E+07,1.66316222655567E+07,1.75012320256387E+07,9.88948324694649E+06,2.30416580738654E+07,3.28310733659562E+07,1.94832681818566E+07,5.37971784322630E+07,
KGZ,,,,,,,,,,,,,,,,,,,,,,,,,,,,,,,,,,,,,,,2.56979737080000E+06,2.81617696000000E+06,4.83480000000000E+06,1.28620000000000E+06,6.32713689000000E+05,5.12354379633942E+05,9.61306098135182E+05,1.73841126188194E+06,2.38283808363394E+06,2.39074438563394E+06,2.77728047783394E+06,3.71522301315000E+06,1.09453400000000E+06,
KHM,,,,,,,,,,,,,,,,,,,,,,,,,,,,,,,,,,,,,,,,,,,,3.90158211622987E+05,1.97565000000000E+04,4.03577823604819E+05,1.30000000000000E+05,9.00000000000000E+04,5.30000000000000E+05,4.00000000000000E+04,3.40000000000000E+05,
KIR,,,,,,,,,,,,,,,,,,,,,,,,,,2.16845508999209E+06,2.51341238666333E+06,1.50261171561008E+06,1.72903007376830E+06,2.32801499292264E+06,3.10212662983943E+06,9.28291789651070E+06,9.55239299427532E+06,9.60654444565336E+06,1.34330022342032E+07,,,,,,,,,,,,,,,,,
KNA,,,,,,,,,,,,,,,,,,,,,,,,,,,,,,,,,,,,,,,,,,,,1.06296296296296E+05,,,,,,,,
KOR,,,,,,,,,,,,,,,,,2.00000000000000E+06,,3.00000000000000E+06,2.00000000000000E+06,2.32000000000000E+07,3.80000000000000E+06,5.70000000000000E+06,6.90000000000000E+06,4.00000000000000E+06,3.20000000000000E+06,1.56000000000000E+07,1.03000000000000E+07,4.26000000000000E+07,2.32000000000000E+07,3.71000000000000E+07,6.05000000000000E+07,1.05000000000000E+08,1.29500000000000E+08,1.54800000000000E+08,2.99200000000000E+08,1.84900000000000E+08,2.52000000000000E+08,2.60100000000000E+08,4.55100000000000E+08,6.88100000000000E+08,9.23500000000000E+08,8.35300000000000E+08,1.31120000000000E+09,1.86110000000000E+09,1.90840000000000E+09,2.04560000000000E+09,1.73510000000000E+09,2.38170000000000E+09,3.19910000000000E+09,3.14580000000000E+09,
LAC,,,,,,,,,7.99999999996948E+06,7.99999999996948E+06,2.99999999996948E+06,3.00893999996948E+06,2.17142000000000E+06,2.38426000000000E+06,2.40527999996948E+06,1.43000000000000E+08,1.63000000000000E+08,1.54500000000000E+08,1.73200000000000E+08,3.03000000000000E+07,4.98000000000000E+07,7.45000000000000E+07,7.61000000000000E+07,5.71000000000000E+07,6.10000000000000E+07,5.62000000000000E+07,5.41500000000000E+07,5.48500000000000E+07,1.22100000000000E+08,6.26000000000000E+07,1.94650000000000E+08,2.10400000000000E+08,2.14500000000000E+08,2.77289818797454E+08,1.75885500000000E+08,3.08466500000000E+08,4.03617202492892E+08,4.69122032914611E+08,5.23624395417504E+08,4.30942997611603E+08,4.49934521937425E+08,4.41433135390692E+08,4.68545060000000E+08,5.42184929476796E+08,5.39457667312805E+08,4.94232056000000E+08,6.04963046464815E+08,8.60714493508814E+08,1.02286439729036E+09,9.77403929147974E+08,9.87079243641033E+08,
LBN,,,,,,,,,,,,,,,,,,,,,,,,,,,,,,,,,,,,,,,,,,,,,,,,,,,7.12094330429375E+06,
LBY,,,,,,,,,,,,,,,,,,,,,,,,,,,,,,,,,,,,,,,,,4.00000000000000E+06,2.00000000000000E+06,1.00000000000000E+07,,,,,,,,,
LCN,,,,,,,,,7.99999999996948E+06,7.99999999996948E+06,2.99999999996948E+06,3.00893999996948E+06,2.17142000000000E+06,2.38426000000000E+06,2.40527999996948E+06,1.43000000000000E+08,1.63000000000000E+08,1.54500000000000E+08,1.73200000000000E+08,3.06000000000000E+07,5.01500000000000E+07,7.49000000000000E+07,7.65500000000000E+07,5.77500000000000E+07,6.17000000000000E+07,5.85500000000000E+07,5.80000000000000E+07,5.50000000000000E+07,1.22750000000000E+08,6.29500000000000E+07,1.95250000000000E+08,2.10650000000000E+08,2.14600000000000E+08,2.77689818797454E+08,1.76235500000000E+08,3.08516500000000E+08,4.03617202492892E+08,4.69122032914611E+08,5.23874395417504E+08,4.31142997611603E+08,4.50184521937425E+08,4.41733135390692E+08,4.69045060000000E+08,5.43191354057802E+08,5.41763410917805E+08,4.95933741190000E+08,6.09195060772245E+08,8.61146610654065E+08,1.02679546302779E+09,9.79927987967975E+08,9.90511109381033E+08,
LDC,,,,,,,,,,,,,,,4.15446866823810E+04,4.66607468989430E+04,3.62992257404534E+06,8.80293260576505E+05,4.43152683454891E+04,6.26767452502963E+05,7.52489167328535E+05,2.57909923716824E+06,2.19059888912687E+06,2.76666584655609E+06,1.53415239469658E+06,4.81632210326773E+06,3.74340491442821E+06,2.82232444160119E+06,3.16017797498040E+06,3.29480863978564E+06,4.66687266455750E+06,1.24261288453048E+07,1.17595548850264E+07,2.62618178471077E+07,3.40204991991190E+07,9.40243399505082E+06,1.80451871047311E+07,5.46683845948864E+07,3.33439889556939E+07,2.04847583239276E+07,1.73198113767315E+07,5.92052198624750E+06,7.33676865079947E+06,2.35687849435425E+07,2.30587943012299E+08,6.24995691354985E+07,1.49290122594946E+09,1.38457550787642E+07,8.78945617616758E+07,4.32155211516514E+07,9.20070622695763E+06,
LIC,,,,,,,,,,,,,,,,,3.58807290124733E+06,1.63442183730181E+06,1.77824138305464E+06,1.56140761810797E+06,3.44726915376284E+06,3.30083532867255E+06,1.90700122802061E+06,2.72802193169600E+06,1.35811996209300E+06,2.10959464005032E+06,6.12727688503827E+05,9.26026508769358E+06,1.04425035896481E+06,3.00571518372511E+07,1.05538354629845E+07,1.42820462574170E+07,8.93368782445694E+06,1.15009293555045E+07,9.07835655868359E+06,1.61449908814958E+07,1.68564668910969E+07,2.67267476687955E+07,2.75988056596090E+07,1.59320800573576E+07,1.32186811553842E+07,7.71039791629857E+06,1.79877840925140E+07,3.65294844103890E+07,2.23478183282031E+07,3.34586496148339E+07,1.70923688465271E+07,2.73427821524547E+07,1.03621979670139E+08,3.08470674812384E+07,6.18371986360739E+07,
LMC,,,,,,,,,,,,,,,4.15446866823810E+04,1.28047084532215E+06,6.05932679963268E+05,1.76444899422967E+06,7.24314788461169E+05,1.36342116479878E+06,1.76477811055198E+06,2.50649312838245E+07,1.21990693358776E+07,1.07503756741412E+07,1.02792531697995E+07,1.03262022731640E+07,8.31965283882601E+06,7.13264179673787E+06,7.26742070544554E+07,1.72921996236931E+07,9.15235311681066E+07,9.70130470658997E+07,1.07986996914952E+08,1.29567014874150E+08,1.93311403666539E+08,2.08137697740050E+08,2.78932928861162E+08,3.40128308424706E+08,3.13454367383998E+08,3.18695335731775E+08,4.19261651750449E+08,3.37240298058656E+08,3.17933372439999E+08,4.34164875451802E+08,9.34557580207004E+08,9.84783996243500E+08,2.11232340534490E+09,7.86074817585753E+08,2.01831782560721E+09,7.25256601683594E+08,6.64225948960956E+08,
LMY,,,2.79999888112045E+06,1.39999944056022E+06,2.79999888112045E+06,2.79999888112045E+06,2.79999888112045E+06,4.19999832168067E+06,1.35999977622104E+07,1.07999988810899E+07,7.19999832165015E+06,9.99441614222600E+06,1.24232879728003E+07,8.15733319604800E+06,9.82481103595058E+06,1.52585559051778E+08,1.77544005572211E+08,1.67748870822531E+08,1.84702556163516E+08,4.46169140553596E+07,7.13009897660861E+07,1.20732916277664E+08,1.09319714751010E+08,8.86128688298989E+07,8.68129831658974E+07,7.96566013129427E+07,7.53745674364379E+07,8.59152387170224E+07,1.45878381655895E+08,1.23469035827587E+08,2.39640404055304E+08,3.33726692561446E+08,3.17373975337102E+08,3.76555774831699E+08,3.28091004107797E+08,4.47921579763464E+08,8.91179436046631E+08,9.79670606025587E+08,8.37218562266674E+08,7.86323994545439E+08,9.48682903929933E+08,8.52488497377098E+08,9.40183367076704E+08,1.16334889657937E+09,1.88488620125674E+09,1.86162788653407E+09,3.16422454305939E+09,2.34958557724791E+09,4.57600690645185E+09,3.15472633556508E+09,3.68949086893458E+09,
LSO,,,,,,,,,,,,,,,,,,,,,,,,,,,,,,,,,,,,,,4.42020133800332E+07,2.03676452706401E+07,1.30804385361236E+07,,,,,,,,,,,,
LTU,,,,,,,,,,,,,,,,,,,,,,,,,,,,,,,,,,,1.01137816415239E+04,,,1.38750000000000E+06,5.00000000000000E+04,7.00000000000000E+04,2.50000000000000E+04,4.75000000000000E+05,2.43117605242581E+05,5.18822562586295E+05,7.95622522191291E+05,1.93783984395014E+06,7.15101291965532E+05,1.74036311934261E+05,8.83696263437750E+05,3.67784049388540E+05,8.93553440537455E+05,
LUX,,,,,,,,,,,,,,,,,,,,,,,,,,,,,,,,,,,,4.42085453452837E+07,6.12758915412034E+07,7.52894867544987E+07,9.99194346502783E+07,1.21550281936843E+08,1.34119674534483E+08,2.02481849424230E+08,1.16423642513308E+08,1.28134728474215E+08,1.99831929236183E+08,2.96893078782667E+08,3.94953479790949E+08,3.99332557323020E+08,3.41811848742492E+08,3.77176639647887E+08,4.72891993038440E+08,
LVA,,,,,,,,,,,,,,,,,,,,,,,,,,,,,,,,,1.49355000000000E+05,1.33000000000000E+05,1.20000000000000E+04,,9.70000000000000E+04,2.36000000000000E+05,1.50000000000000E+06,1.04000000000000E+07,2.30000000000000E+06,2.50000000000000E+06,3.30000000000000E+06,4.30000000000000E+06,8.00000000000000E+06,9.90000000000000E+06,1.14000000000000E+07,1.25000000000000E+07,1.31000000000000E+07,7.00000000000000E+06,1.21000000000000E+07,
MAR,,,,,,,,,,,,,,,,1.23381009842321E+06,4.52559080276074E+05,1.11028559345826E+06,4.79999520115680E+05,7.69401583155594E+05,1.27011679814651E+06,2.32005291054409E+06,8.30147986468612E+05,1.82807044377977E+06,1.24850522247596E+06,6.85714683247081E+06,2.30656648363866E+06,3.11033618547174E+06,1.21815291473539E+06,8.95363782770609E+06,4.24636607113068E+06,4.13481803929226E+06,1.40550195452616E+06,5.80725765610298E+06,2.39059886131430E+06,2.92731963002973E+06,5.04825915850300E+06,3.98861914005371E+06,6.55948275181407E+06,6.01769457191200E+06,2.22480796718415E+07,1.51110658919444E+07,1.11155640581639E+07,2.58365496147272E+07,1.62936741787903E+07,1.27207701802575E+07,3.01218447733428E+06,4.21403484193389E+06,1.30356160361544E+05,1.91048388073660E+06,3.84692399036731E+06,
MDA,,,,,,,,,,,,,,,,,,,,,,,,,,,,,,,,,,,,,5.20000000000000E+05,,1.80000000000000E+05,1.50000000000000E+05,6.90000000000000E+05,1.13000000000000E+06,1.31000000000000E+06,1.40000000000000E+06,2.21000000000000E+06,1.59000000000000E+06,1.68000000000000E+06,6.20000000000000E+06,3.90000000000000E+06,4.34000000000000E+06,4.86000000000000E+06,
MDG,,,,,,,,,,,,,,,,,,,,,,,,,,,,,,,1.33855667895164E+05,1.64000523058147E+06,9.87142116275327E+05,1.39514286498074E+06,1.43120943989667E+06,7.59559252459288E+05,1.30747868781012E+06,8.40718126495012E+05,5.58679922654685E+05,5.47441625456035E+05,7.55081562230751E+05,9.69772937841687E+05,4.27829813231961E+05,8.72825199999999E+05,4.77450300000001E+05,2.32097930000000E+06,,,,,,
MDV,,,,,,,,,,,,,,,,,,,,,,,,,,,3.00000000000000E+05,4.00000000000000E+05,3.40000000000000E+06,1.00000000000000E+06,1.60000000000000E+06,1.20000000000000E+06,4.30000000000000E+06,1.00000000000000E+06,1.59771846586288E+06,1.55016098496177E+06,1.18751019310110E+06,2.73858371383178E+06,2.67851189974511E+06,2.04757858963466E+06,3.70525609894647E+06,3.79610279256976E+06,5.05287500000000E+06,6.71243915625000E+06,9.90669541406250E+06,7.50628790625000E+06,9.97354474218750E+06,6.50040174662109E+06,1.09609375000000E+07,8.69531250000000E+06,8.37554687500000E+06,
MEA,,,,,,,,,,,,,,,4.00000000000000E+06,6.23381009842321E+06,6.45255908027607E+06,1.31102855934583E+07,9.47999952011568E+06,1.07694015831556E+07,1.32701167981465E+07,1.62200529105441E+07,2.16301479864686E+07,2.36280704437798E+07,2.88485052224760E+07,3.94571468324708E+07,3.71610242660198E+07,4.46103361854717E+07,6.35203986001782E+07,6.75007420187404E+07,6.84705431902323E+07,7.45966910912579E+07,9.75619418512620E+07,9.79118904473222E+07,1.58985018871513E+08,1.85532775395267E+08,2.19896779988764E+08,2.36054951054724E+08,2.89687639373969E+08,3.16133819253149E+08,5.97504331048186E+08,5.03918080069779E+08,4.96243645188667E+08,5.90937452467264E+08,6.41879359829395E+08,7.96503355562542E+08,1.05475848404015E+09,9.93472737352322E+08,2.20194758494834E+09,8.68097847142338E+08,9.21030785063002E+08,
MEX,,,,,,,,,,,,,,,,,,,,,2.10000000000000E+07,3.20000000000000E+07,2.30000000000000E+07,1.40000000000000E+07,1.30000000000000E+07,1.20000000000000E+07,1.80000000000000E+07,2.10000000000000E+07,1.40000000000000E+07,2.10000000000000E+07,7.30000000000000E+07,7.80000000000000E+07,8.50000000000000E+07,9.60000000000000E+07,1.98500000000000E+07,1.14440000000000E+08,1.21800000000000E+08,1.29900000000000E+08,1.38390000000000E+08,4.20460000000000E+07,4.30770000000000E+07,4.07580000000000E+07,4.82580000000000E+07,8.40000000000000E+07,5.15000000000000E+07,,,,,,,
MIC,,,2.79999888112045E+06,1.39999944056022E+06,2.79999888112045E+06,2.79999888112045E+06,2.79999888112045E+06,4.19999832168067E+06,1.35999977622104E+07,1.07999988810899E+07,7.19999832165015E+06,9.99441614222600E+06,1.24232879728003E+07,8.15733319604800E+06,9.82481103595058E+06,1.52585559051778E+08,1.73955932670963E+08,1.66114448985230E+08,1.82924314780461E+08,4.30555064372516E+07,6.78537206123233E+07,1.17432080948992E+08,1.07412713522990E+08,8.58848468982029E+07,8.54548632038044E+07,7.75470066728923E+07,7.47618397479340E+07,7.66549736293288E+07,1.44834131296930E+08,9.34118839903361E+07,2.29086568592320E+08,3.19444646304029E+08,3.08440287512646E+08,3.65054845476194E+08,3.19012647549114E+08,4.31776588881968E+08,8.74322969155534E+08,9.52943858356791E+08,8.09619756607065E+08,7.70391914488082E+08,9.35464222774549E+08,8.44778099460799E+08,9.22195582984190E+08,1.12681941216898E+09,1.86253838292853E+09,1.82816923691924E+09,3.14713217421287E+09,2.32224279509545E+09,4.47238492678171E+09,3.12387926808384E+09,3.62765367029851E+09,
MKD,,,,,,,,,,,,,,,,,,,,,,,,,,,,,,,,,,,,,8.00000000000000E+05,1.55000000000000E+06,1.43391162211272E+06,2.24356780850206E+06,2.78535493883183E+06,3.39371574855556E+06,3.18985937863627E+06,2.29703370000000E+06,3.12085160000000E+06,3.12663280000000E+06,2.66461300000000E+06,4.64269800000000E+06,5.83746500000000E+06,6.16607500000000E+06,6.93202000000000E+06,
MLI,,,,,,,,,,,,,,,,,,,,,,,,,,,,,,,,,,,,,,,,,,7.77585344429347E+04,4.73465688931319E+04,,1.77934323199004E+05,1.64938871059726E+05,1.56820713363711E+05,9.59799461829002E+04,2.23311358583259E+05,,,
MLT,,,,,,,,,,,,,,,,,,,,,,,,,,,2.54457782381113E+05,,3.02245685442840E+05,2.86950221310358E+05,1.85657195002989E+05,6.18730519656295E+04,5.64398967358926E+04,1.04632791219216E+05,1.05842202946691E+05,2.48093883133527E+05,6.21202729772271E+05,6.20978386091855E+04,9.90054797746057E+05,,1.55708117000880E+06,1.55643572484006E+04,1.15064513688014E+06,1.20011217892796E+06,3.19162398697159E+06,4.79865267537104E+07,1.43485905505608E+08,5.20628843356652E+07,4.46400917607117E+07,4.51354253230331E+07,3.44620235389149E+07,
MMR,,,,,,,,,,,,,,,,,3.58807290124733E+06,8.39589854691582E+05,,5.32747870859774E+05,6.57827854923066E+05,1.27958973152684E+06,4.56000124440152E+05,1.74322118570787E+06,7.33157633880170E+05,1.72093238212933E+06,,4.42008515614855E+05,4.91071774150225E+05,1.83114976429284E+05,2.18834990586456E+05,,,,,,,,,1.83915992096624E+06,1.10219522550669E+05,2.97341124245363E+04,,,,,,,,,,
MNA,,,,,,,,,,,,,,,,1.23381009842321E+06,4.52559080276074E+05,1.11028559345826E+06,4.79999520115680E+05,7.69401583155594E+05,1.27011679814651E+06,2.32005291054409E+06,8.30147986468612E+05,1.82807044377977E+06,1.24850522247596E+06,6.85714683247081E+06,2.30656648363866E+06,3.11033618547174E+06,1.21815291473539E+06,1.21137917974301E+07,5.38488599522935E+06,4.13481803929226E+06,1.40550195452616E+06,5.80725765610298E+06,4.33791766685663E+07,5.09846815121339E+07,6.10755772589918E+07,5.88928532161149E+07,7.30975845762230E+07,6.26338192531487E+07,9.98472498781775E+07,7.87025157125305E+07,7.48930000517867E+07,1.64537340288336E+08,1.33987735842424E+08,1.74416828808832E+08,3.18272578534546E+08,1.56709853016657E+08,1.35350749318762E+09,6.23624218193048E+07,3.71687615240868E+07,
MNG,,,,,,,,,,,,,,,,,,,,,,,,,,,,,,,,,,,,,,,,1.00000000000000E+06,,,,,,,,,1.25349800000000E+07,1.94743540000000E+05,4.91650000000000E+05,
MOZ,,,,,,,,,,,,,,,,,,,,,,,,,,,,,,,,,,,,,,,,,,,3.00000000000000E+04,1.50000000000000E+07,5.48225780000000E+05,2.20317100000000E+06,1.01768700000000E+06,4.51990000000000E+04,8.42240000000000E+02,1.92948520000000E+05,1.49550000000000E+04,
MUS,,,,,,,,,,,,,,,,,,,,,,,,,,,,,,,,,,,,,,,,,3.91072085013857E+04,,,,1.45720431657136E+05,3.36489983254015E+04,1.92936091001600E+05,4.60807808651444E+05,5.18624511585049E+03,1.20526280784030E+05,5.54905873404756E+05,
MYS,,,,,,,,,,,,,,,,,,,,,,,,,,,,,,,,,,,,,,,,1.47368421052632E+07,1.81578947368421E+07,2.07894736842105E+07,1.21052631578947E+07,2.02894736842105E+07,4.15105263157895E+07,2.70407481411611E+07,2.61631530713806E+07,3.69795241589430E+07,1.99256272635503E+08,2.65724707230903E+08,,
NAC,,,,,,,,,,,2.33000000000000E+09,2.55000000000000E+09,2.78000000000000E+09,3.23000000000000E+09,3.83000000000000E+09,4.31000000000000E+09,4.37000000000000E+09,4.92000000000000E+09,5.88000000000000E+09,6.19000000000000E+09,7.08000000000000E+09,7.28000000000000E+09,5.61000000000000E+09,5.78000000000000E+09,6.18000000000000E+09,6.68000000000000E+09,8.11400000000000E+09,1.01740000000000E+10,1.21470000000000E+10,1.38200000000000E+10,1.66400000000000E+10,1.78200000000000E+10,2.08410000000000E+10,2.16940000000000E+10,2.67120000000000E+10,3.06629324393695E+10,3.33470500898364E+10,3.43916156580578E+10,3.70270131729034E+10,4.92750655513734E+10,5.40655314290381E+10,5.19011673336533E+10,5.63551072078362E+10,5.96238203406606E+10,7.01011594330160E+10,7.72130308643371E+10,8.67234329063819E+10,1.01306910443811E+11,1.05725274958711E+11,1.00602189392890E+11,1.09396333299730E+11,
NAM,,,,,,,,,,,,,,,,,,,,,,,,,,,,,,,1.31410065431262E+06,3.25931666615363E+05,3.50629394372457E+05,3.06021750648938E+05,2.81626807868090E+05,2.75703491922577E+04,6.97780032210302E+06,6.57557553466337E+06,5.96930241013600E+06,5.72884998263381E+06,5.49993665594426E+06,4.69702875228133E+06,3.80837619729026E+06,,,,,,,2.93609854783870E+03,,
NCL,,,,,,,,,,,,,,,,,,,,,,,,,,,,,,,,,,,,,,,,,,,1.18300171597443E+05,1.13494534840082E+05,1.76888802506761E+05,2.98601550986748E+05,1.37972174603282E+06,2.86157435518137E+05,5.24523457856153E+05,6.86888107439389E+05,1.01081700813791E+06,
NER,,,,,,,,,,,,,,,,,,,,,,,,,,,,,,,,,,,,,,,,,,3.41046203697082E+04,,,,7.58339637056212E+03,,2.08652056919348E+03,,,,
NGA,,,,,,,,,,,,,,,,,,,,,,2.10455365907919E+07,8.90919840939637E+06,6.90217007961950E+06,7.82750833900046E+06,,,,,,,,,,,,,,,,,,,,,,,,,,,
NLD,,,,,,,,6.46408839311163E+07,5.88397789629392E+07,8.28729281168157E+07,9.97237568339016E+07,1.05603761462371E+08,1.03464419392205E+08,1.41982954712812E+08,1.60485050701643E+08,1.84098159809626E+08,2.09182820684914E+08,2.30829708623082E+08,2.92735535650473E+08,3.71134627893571E+08,4.18313294311535E+08,3.86620741335886E+08,3.41549645354361E+08,3.41439548095175E+08,2.99793647309996E+08,3.03341513508175E+08,4.64215028133399E+08,7.18346397727106E+08,8.62578318190948E+08,9.53864061462360E+08,1.08567476857402E+09,1.49598237381128E+09,1.61283682431730E+09,1.91722219258965E+09,2.21133302644140E+09,2.36952241346279E+09,2.42699995553175E+09,2.19907342283341E+09,2.51522255137422E+09,2.43527763753283E+09,2.17053775456226E+09,1.74041542748827E+09,1.96345243469677E+09,2.93022393940467E+09,4.20521928280183E+09,3.86647298071656E+09,3.48124449905130E+09,4.32243929129615E+09,4.87333909784702E+09,5.47449920907596E+09,5.49069033818500E+09,
NOC,,,,,,,,,,,,,,,,,,,,3.00000000000000E+05,3.50000000000000E+05,4.00000000000000E+05,4.50000000000000E+05,6.50000000000000E+05,7.00000000000000E+05,2.35000000000000E+06,4.10445778238111E+06,1.50000000000000E+05,9.52245685442840E+05,6.36950221310358E+05,7.85657195002989E+05,3.11873051965630E+05,1.56439896735893E+05,2.44663279121922E+06,2.72584220294669E+06,7.63066820506872E+07,8.39950648252537E+07,9.32127612082956E+07,2.67516181539667E+08,2.33437464791160E+08,2.75669835406462E+08,6.32018832786163E+08,7.17132403012918E+08,7.59378916358396E+08,1.01044196365485E+09,1.28991717170331E+09,1.45798173117455E+09,1.69410960997548E+09,1.84027037350916E+09,1.82877012190326E+09,1.94594040288543E+09,
NOR,,,,,,,,,,,,,,,,3.06270601700130E+07,3.48009873869208E+07,4.76227389405722E+07,6.14516392962183E+07,6.19994841008242E+07,9.03119054610335E+07,7.70633098113808E+07,2.90206624115016E+07,4.75954655506662E+07,2.90659121346007E+07,2.85944006906926E+07,4.27400850682897E+07,6.73677562275361E+07,8.10230077208741E+07,1.07312032984294E+08,1.33047024746440E+08,1.16452866363039E+08,1.21811875209607E+08,1.25596810978092E+08,1.15305645104382E+08,1.10777755251598E+08,1.18224537583647E+08,1.02609177023836E+08,8.89497049562283E+07,1.49263794817065E+08,1.60593957131673E+08,1.59132236814149E+08,1.70902271461809E+08,1.94629778963590E+08,2.41996935602904E+08,4.13860809432404E+08,4.88873056007511E+08,5.39809955976721E+08,6.89939021176258E+08,6.37307069637364E+08,4.98013748726024E+08,
NZL,,,,,,,,,,,,,,,,,,,,,,,,,,,,,,,,,,,,1.05870816244421E+07,1.51773011476738E+07,2.68673505827907E+07,4.96405349788629E+07,4.92189604648685E+07,4.92031712927908E+07,5.81403002730436E+07,7.88786596641187E+07,1.07643357648681E+08,1.04903159741521E+08,9.29941178532818E+07,1.23477898303886E+08,1.39916328205438E+08,1.78731862800150E+08,1.59451255097924E+08,1.82547673830615E+08,
OEC,1.12000017933443E+06,1.12000017933443E+06,3.36000053800329E+06,1.12000017933443E+06,4.48000071733772E+06,3.36000053800329E+06,4.48000071733772E+06,7.41639617470932E+07,7.06367031109872E+07,9.66790833929852E+07,2.80455238784671E+09,3.19906222783686E+09,3.55020961226507E+09,4.15106585805016E+09,4.89973872629697E+09,5.76368368112299E+09,5.95939292694088E+09,6.95659015692213E+09,8.38686364884400E+09,9.16886754722876E+09,1.05425322372609E+10,1.07429019378061E+10,8.79863360585654E+09,9.38419249651003E+09,9.61284995772520E+09,9.69607824260802E+09,1.19635661334532E+10,1.57588445357367E+10,1.87520901420848E+10,2.08020751865508E+10,2.63922650274362E+10,3.04381567922201E+10,3.50877947173933E+10,3.73554713078023E+10,4.60542800715558E+10,5.28940595748061E+10,5.72689871950100E+10,5.92331131245259E+10,6.31832154361583E+10,7.84648148654465E+10,8.60783345726936E+10,8.38736422715840E+10,9.13831425472932E+10,1.01840489361094E+11,1.24075513012526E+11,1.39249658592005E+11,1.53233192544670E+11,1.79117759322925E+11,1.93894413369061E+11,1.89459340099992E+11,2.05420318828644E+11,
OED,1.12000017933443E+06,1.12000017933443E+06,3.36000053800329E+06,1.12000017933443E+06,4.48000071733772E+06,3.36000053800329E+06,4.48000071733772E+06,7.41639617470932E+07,7.06367031109872E+07,9.66790833929852E+07,2.80455238784671E+09,3.19906222783686E+09,3.55020961226507E+09,4.15106585805016E+09,4.89973872629697E+09,5.76368368112299E+09,5.95939292694088E+09,6.95659015692213E+09,8.38686364884400E+09,9.16886754722876E+09,1.05635322372609E+10,1.07749019378061E+10,8.82163360585654E+09,9.39819249651003E+09,9.62584995772520E+09,9.70807824260802E+09,1.19815661334532E+10,1.57798445357367E+10,1.87660901420848E+10,2.08230751865508E+10,2.64653650274362E+10,3.05166567922201E+10,3.51732947173933E+10,3.74531713078023E+10,4.60801300715558E+10,5.30103995748061E+10,5.74008871950100E+10,5.93730131245259E+10,6.33267054361583E+10,7.85128608654465E+10,8.61314115726936E+10,8.39393030584290E+10,9.14725005472933E+10,1.01969940244274E+11,1.24175468955839E+11,1.39303658592005E+11,1.53288392544670E+11,1.79179047935619E+11,1.93958036602911E+11,1.89518501223518E+11,2.05484408860856E+11,
PAK,,,,,,,,,,,,,,,,,,,,,,,,,,,,,,,,,,1.34822304444410E+06,2.42580615981114E+06,5.81833120707245E+06,1.84888660356328E+07,1.55769088371983E+06,1.00000000000000E+06,6.00000000000000E+06,,2.00000000000000E+06,6.00000000000000E+06,8.00000000000000E+06,1.00000000000000E+07,1.50000000000000E+07,5.30000000000000E+07,3.70000000000000E+07,3.80000000000000E+07,5.00000000000000E+06,3.00000000000000E+06,
PER,,,,,,,,,,,,,,,,,,,,,,,,,,,,,,,,,,,,1.09700000000000E+06,1.01000000000000E+05,7.29700000000000E+06,1.22100000000000E+06,3.89000000000000E+05,1.03500000000000E+06,7.56000000000000E+05,8.17000000000000E+05,5.31000000000000E+05,2.39000000000000E+05,1.78600000000000E+06,2.69500000000000E+06,1.06500000000000E+06,1.50000000000000E+06,2.18600000000000E+06,3.05200000000000E+06,
PHL,,,,,,,,,,,,,,,,,,,,,,,,,,,,,,,1.00000000000000E+06,,,,,2.00000000000000E+06,5.00000000000000E+06,1.80000000000000E+07,,6.00000000000000E+06,7.00000000000000E+06,1.00000000000000E+06,1.00000000000000E+06,4.00000000000000E+06,1.10000000000000E+07,6.00000000000000E+06,6.00000000000000E+06,5.00000000000000E+06,,2.00000000000000E+06,4.00000000000000E+06,
POL,,,,,,,,,,,,,,,,,,,,,,,,,,,,,,,,,,,1.00000000000000E+06,4.00000000000000E+06,2.40000000000000E+07,2.70000000000000E+07,2.20000000000000E+07,2.50000000000000E+07,3.40000000000000E+07,4.80000000000000E+07,3.40000000000000E+07,2.80000000000000E+07,3.00000000000000E+07,6.20000000000000E+07,3.80000000000000E+07,1.03000000000000E+08,2.07000000000000E+08,1.03000000000000E+08,2.37000000000000E+08,
PRT,,,,,,,,,,,,,,,,,2.32106722973486E+06,2.89957958845378E+06,1.82336224868173E+06,3.04967311711294E+06,3.60281105589889E+06,5.16408193809640E+06,2.43088709169130E+06,3.76894857286901E+06,2.74906654505090E+06,3.54362539627150E+06,5.34918485639383E+06,6.40917474361305E+06,7.66966738325391E+06,8.26364655417825E+06,1.35189950504965E+07,1.52431669271451E+07,1.25044004266547E+07,3.58526194334084E+07,2.89827802265956E+07,1.92429885261904E+07,2.00822263058540E+07,2.65123959709606E+07,4.25523812651447E+07,2.49570822275605E+07,2.55350034298131E+07,2.05450803499474E+07,2.33109838545643E+07,2.94707495003517E+07,2.73740315358156E+07,4.64093089207634E+07,7.08001144601085E+07,8.49502204864394E+07,6.37213402682993E+07,1.48125224633550E+08,4.09982955314936E+07,
PRY,,,,,,,,,,,,,,,,,,,,,,,,,,,,,6.49000000000000E+07,,7.63000000000000E+07,7.91000000000000E+07,8.16000000000000E+07,9.60000000000000E+07,1.14100000000000E+08,1.39800000000000E+08,1.56600000000000E+08,1.81800000000000E+08,1.82800000000000E+08,1.91600000000000E+08,2.02600000000000E+08,1.80100000000000E+08,1.87100000000000E+08,1.93400000000000E+08,2.07900000000000E+08,2.18700000000000E+08,2.54700000000000E+08,2.87200000000000E+08,2.82300000000000E+08,2.63900000000000E+08,2.54100000000000E+08,
PYF,,,,,,,,,,,,,,,,,,,,,,,,,,,,,,,,,,,,,,,,,,,4.25880617750795E+05,5.29641162587047E+05,1.22781639387046E+06,5.15991689948528E+05,2.71361745264572E+05,1.78321256001809E+05,2.88698878617849E+05,3.34385575191443E+05,1.94074528276494E+05,
ROM,,,,,,,,,,,,,,,,,,,,,,,,,,,,,,,,,,,2.00000000000000E+06,3.00000000000000E+06,1.01000000000000E+08,,3.00000000000000E+06,4.00000000000000E+06,3.00000000000000E+06,1.60000000000000E+07,3.00000000000000E+06,3.00000000000000E+06,8.00000000000000E+06,4.80100000000000E+07,3.54400000000000E+07,4.10000000000000E+07,2.40000000000000E+08,1.93000000000000E+08,4.66000000000000E+08,
RUS,,,,,,,,,,,,,,,,,,,,,,,,,,,,,,,,,,,3.61000000000000E+06,4.03000000000000E+06,1.59210000000000E+08,1.76070000000000E+08,2.70300000000000E+07,4.25400000000000E+07,9.13400000000000E+07,6.03700000000000E+07,1.46790000000000E+08,1.73740000000000E+08,2.27470000000000E+08,2.60200000000000E+08,2.99270000000000E+08,3.96360000000000E+08,4.53360000000000E+08,4.93670000000000E+08,6.25100000000000E+08,
RWA,,,,,,,,,,,,,,,,,,,,,,1.14731126692712E+04,,,,9.87706309462390E+03,1.14167089047950E+04,1.25848454562714E+04,,,,,,,,,6.86053957748529E+04,1.32748923339450E+03,1.22084585430225E+06,,,,,,,,1.53395528844779E+03,,6.19417517830041E+07,1.40034650871008E+05,3.59408219383597E+04,
SAS,,,,,,,,,,,,,,,,,1.11523926889180E+05,1.13459994886484E+05,,,,1.11305389516412E+05,6.25124175325905E+05,8.96690489893737E+05,1.73389201559159E+05,1.65407730054585E+05,6.97330037929543E+05,1.17183631345916E+06,4.43202435151543E+06,2.29241228765816E+06,2.92339880972990E+06,1.81552476332547E+06,5.03165898891970E+06,2.63920349818651E+06,4.46969976120320E+06,8.76404245543716E+06,2.65756836564716E+07,1.67326242446108E+07,2.29824252224184E+07,3.10129694776539E+07,8.63116990738286E+07,4.30224377751101E+07,3.12646364083264E+07,3.91284458605635E+07,7.28371853651398E+07,2.28741722507206E+08,1.24206670835055E+08,2.06670334297010E+08,1.96790962884831E+08,2.06584100700299E+08,1.40630931259186E+08,
SDN,,,,,,,,,,,,,,,,,,,,,,,,,,,,,,,,,,,,,,2.00000000000000E+05,2.00000000000000E+05,,,,,,,,,,,1.52000000000000E+06,2.88000000000000E+06,
SEN,,,,,,,,,,,,,,,4.15446866823810E+04,4.66607468989430E+04,4.18496727980135E+04,4.07034058849231E+04,4.43152683454891E+04,9.40195816431891E+04,9.46613124054689E+04,1.28803639297213E+06,1.73459876468672E+06,1.02344466084822E+06,8.00994760816407E+05,9.12605832284441E+05,1.21280057801241E+06,8.65119364919980E+05,9.40076127061878E+05,7.83678670433715E+05,1.21205537623645E+06,1.24066440441978E+06,1.05783405154981E+06,9.88831223724541E+05,7.02443626740963E+05,1.06180841709153E+06,8.21030211460938E+04,,6.78021521832625E+04,1.57544480676849E+06,1.68544942169499E+04,4.50180988880148E+04,2.00864231667832E+05,,,3.79169818528106E+03,7.64979089579079E+03,5.04937977744823E+05,2.45642494441585E+05,1.23256437426327E+06,,
SGP,,,,,,,,,,,,,,,,,,,,,,,,,,,,,,,,,,,,7.04540860955491E+07,7.43985078162860E+07,6.44953957934558E+07,5.76295835709427E+07,6.08514582388994E+07,8.51028677376768E+07,3.03396784704111E+08,3.58534572294843E+08,3.66307317652075E+08,7.27453083496468E+08,9.05938481447665E+08,9.86237273514072E+08,1.22259841496482E+09,1.35529498435795E+09,1.35239301668163E+09,1.86660148425089E+09,
SLB,,,,,,,,,,,,,,,,,,,,,,,,,,,,,,,,,,,,,,,1.03828161623762E+05,6.20072789655808E+04,2.35805916665207E+05,5.68398740545473E+04,8.30820764801282E+04,1.07610185614677E+05,2.91153047787809E+05,,1.83982275779109E+04,1.82959094190682E+04,1.80734408852177E+04,1.73804911563311E+04,1.30200231467091E+04,
SLE,,,,,,,,,,,,,,,,,,,,,,,,,,,,,,,,,,,,,,,,,,,,2.18446653629243E+03,1.14000140673183E+06,,,,1.23098221561374E+06,1.10668173024382E+06,1.27152304122552E+06,
SLV,,,,,,,,,,,,,,,,,,,,,,,,,,,,,,,,,,2.29818797453991E+05,,,,,,1.10000000000000E+06,2.40000000000000E+06,1.20000000000000E+06,1.50000000000000E+06,2.00000000000000E+05,1.00000000000000E+05,2.40000000000000E+06,5.00000000000000E+05,3.00000000000000E+05,1.40000000000000E+06,4.40000000000000E+05,3.80000000000000E+05,
SRB,,,,,,,,,,,,,,,,,,,,,,,,,,,,,,,,,,,,,,,,,,,,,,,,1.04562336967702E+07,2.90395216746915E+07,6.16112119759925E+07,3.90667179712899E+07,
SSA,,,2.79999888112045E+06,1.39999944056022E+06,2.79999888112045E+06,2.79999888112045E+06,2.79999888112045E+06,4.19999832168067E+06,5.59999776224089E+06,2.79999888112045E+06,4.19999832168067E+06,6.98547614225652E+06,1.02518679728003E+07,5.77307319604800E+06,7.41953103598110E+06,8.35174895335465E+06,1.03918496637980E+07,1.11855353794951E+07,1.10225566434001E+07,1.30147646013442E+07,1.95730451130165E+07,4.25219682460770E+07,3.13084424647756E+07,2.70448867105175E+07,2.36188030822066E+07,1.25068808515965E+07,1.55548254487493E+07,2.47599760314859E+07,1.55907968717099E+07,4.38741961602584E+07,3.23611576299190E+07,1.05754069604926E+08,7.71730052591718E+07,7.82638065534278E+07,8.10329161685483E+07,7.00771341056117E+07,1.08152615177878E+08,1.36865827547652E+08,1.10641107575561E+08,8.07228932654489E+07,8.14074080913438E+07,5.01537140914397E+07,3.51562810398906E+07,5.87382790011158E+07,2.90045075444046E+08,1.25483977317073E+08,1.39969081015942E+09,9.15655594117613E+07,2.03833229774615E+08,8.61960597943588E+07,1.24425362581278E+08,
SSF,,,2.79999888112045E+06,1.39999944056022E+06,2.79999888112045E+06,2.79999888112045E+06,2.79999888112045E+06,4.19999832168067E+06,5.59999776224089E+06,2.79999888112045E+06,4.19999832168067E+06,6.98547614225652E+06,1.02518679728003E+07,5.77307319604800E+06,7.41953103598110E+06,8.35174895335465E+06,1.03918496637980E+07,1.11855353794951E+07,1.10225566434001E+07,1.30147646013442E+07,1.95730451130165E+07,4.25219682460770E+07,3.13084424647756E+07,2.70448867105175E+07,2.36188030822066E+07,1.25068808515965E+07,1.55548254487493E+07,2.47599760314859E+07,1.55907968717099E+07,4.38741961602584E+07,3.23611576299190E+07,1.05754069604926E+08,7.71730052591718E+07,7.82638065534278E+07,8.10329161685483E+07,7.00771341056117E+07,1.08152615177878E+08,1.36865827547652E+08,1.10641107575561E+08,8.07228932654489E+07,8.14074080913438E+07,5.01537140914397E+07,3.51562810398906E+07,5.87382790011158E+07,2.90045075444046E+08,1.25483977317073E+08,1.39969081015942E+09,9.15655594117613E+07,2.03833229774615E+08,8.61960597943588E+07,1.24425362581278E+08,
SUR,,,,,,,,,,,,,,,,,,,,,,,,,,,,,,,,,,,,1.00000000000000E+05,,,,,,,,,,,,1.00000000000000E+05,,,7.00000000000000E+05,
SVK,,,,,,,,,,,,,,,,,,,,,,,,,,,,,,,,,,,7.18327666765185E+06,1.08188427750685E+07,1.81853486980052E+07,1.66319852819039E+07,1.40568380853038E+07,1.46374283749766E+07,1.61257703763732E+07,,3.84759361197302E+07,4.96730694929911E+07,5.97261507525291E+07,7.51019866714733E+07,8.99491734031867E+07,1.48523241995566E+08,1.64097564257870E+08,9.17484735191066E+07,4.50106433579070E+07,
SVN,,,,,,,,,,,,,,,,,,,,,,,,,,,,,,,,,3.90000000000000E+06,3.50000000000000E+06,3.30000000000000E+06,4.00000000000000E+06,6.20000000000000E+06,5.20000000000000E+06,8.70000000000000E+06,8.00000000000000E+06,1.18000000000000E+07,1.44000000000000E+07,7.50000000000000E+06,1.07000000000000E+07,1.18000000000000E+07,1.64000000000000E+07,1.74081859663771E+07,1.87172677776875E+07,4.82017534876715E+07,5.45044459885387E+07,6.87680945324615E+07,
SWE,,,,,,,,,,,1.54642861850697E+07,1.56069993761542E+07,2.09977427470642E+07,3.66363272165863E+07,3.15356155428993E+07,4.13893872034355E+07,5.98591556643049E+07,7.45766540002417E+07,7.07743360563380E+07,9.09810980177811E+07,8.99177796662193E+07,1.02218110024354E+08,7.43213551273148E+07,1.43322283241013E+08,8.08854945321150E+07,1.14000090665650E+08,1.22774696767615E+08,2.89836383152382E+08,3.63992891225250E+08,4.37673784427521E+08,5.63021965065646E+08,6.96896135406000E+08,6.40930173861915E+08,7.47540286601459E+08,1.15334574025967E+09,8.88602722281078E+08,9.97110587770170E+08,1.00291179926335E+09,1.13198867885591E+09,1.45292536846240E+09,1.41442073715310E+09,1.64543694246739E+09,1.64770914624061E+09,2.23691501220922E+09,3.55669101669398E+09,3.45246450926303E+09,3.94725980028611E+09,4.75321765188933E+09,4.58784723567746E+09,4.83531753083015E+09,6.13265722513019E+09,
SWZ,,,,,,,,,,,,,,,,,,,,,,,,,,,,,8.79713477320437E+04,,3.86500192444888E+04,1.08643888871788E+05,2.10377636623474E+05,3.12142185661917E+05,2.92891880182813E+05,3.02722434130989E+05,2.27941477188699E+05,2.38717263634644E+05,2.35154337368994E+05,2.12783921610403E+05,2.01734096688751E+05,1.62617097619721E+05,1.42304909456130E+05,3.76747455495054E+04,3.99399816632138E+04,3.14498622364993E+03,2.65818050743928E+03,1.31433928547350E+04,3.63821298459833E+07,3.46810597754600E+04,2.59519518747224E+05,
SYC,,,,,,,,,,,,,,,,,,,,,,4.73324097000928E+04,7.31489457444878E+05,1.63905927955483E+05,2.37288944483566E+05,1.83374453760536E+05,,,,,,,,,,,,,,,,,,,,,,1.22352930421302E+06,9.86962414139019E+05,8.67022846243080E+06,1.86488470168411E+06,
SYR,,,,,,,,,,,,,,,,,,,,,,,,,,,,,,,,,,,,,,,,,,,,,,,,,,,1.40000000000000E+06,
TGO,,,,,,,,,,,,,,,,,,,,,,,,,,,,,,,,,,,,,,,,,,1.36418481478833E+03,,,,5.68754727792159E+03,5.73734317184309E+03,,,,,
THA,,,,,,,,,,,,,,,,,,,,,,,,,3.91280257755091E+04,3.77784266993273E+04,1.52433079457026E+05,7.84699553806021E+04,3.17305670015957E+05,7.75056128886460E+04,,2.07682094359890E+06,9.39987541728352E+06,2.64484456812488E+06,4.10475159535663E+06,5.99221690281315E+05,2.51313574603979E+07,4.41137681025976E+07,7.10551232043220E+06,1.94535608638876E+07,8.65987525031230E+06,8.85338611308350E+06,7.35620217596297E+06,7.51210938293439E+06,1.42975760819285E+07,1.68268580998195E+07,4.63689281509962E+07,5.41474690340421E+07,1.00760130883488E+08,1.45159958562118E+08,1.53133790340452E+08,
TJK,,,,,,,,,,,,,,,,,,,,,,,,,,,,,,,,,,,,,,,,,,,3.58800000000000E+05,9.12400000000000E+05,1.25810000000000E+06,1.15380000000000E+06,7.14100000000000E+05,8.74900000000000E+05,1.03670000000000E+06,6.23000000000000E+05,6.37800000000000E+05,
TUN,,,,,,,,,,,,,,,,,,,,,,,,,,,,,,3.16015396972397E+06,1.13851992409867E+06,,,,9.88577807252042E+05,1.05736188210415E+06,1.02731810048883E+06,9.04234076061156E+05,1.05381018244089E+07,1.01161246812367E+07,1.45912622657798E+07,1.52914498205861E+07,1.61774359936228E+07,1.78507906736086E+07,1.76640616636334E+07,2.56660586285744E+07,2.62203940572115E+07,2.92658181747234E+07,2.96232170272628E+07,2.50319379385681E+07,2.48008942294257E+07,
TZA,,,,,,,,,,,,,,,,,,,,,,,,,,,,,,,,,,,,1.60066325500000E+05,,3.44212147080000E+06,9.46332550800000E+05,5.00000621000000E+05,3.00000556000000E+05,2.10000000000000E+05,,,,,4.48200000000000E+02,1.22000000000000E+02,,,,
UGA,,,,,,,,,,,,,,,,,,,,,,,,,,,,,,,,,,,,,,,,,,,2.96300000000000E+03,5.89212000000000E+05,,7.42380792000000E+06,2.37862300000000E+06,5.12486270000000E+05,2.77092831000000E+06,3.04672388257000E+06,3.86647372634598E+06,
UKR,,,,,,,,,,,,,,,,,,,,,,,,,,,,,,,,,,,,,,,,,1.00000000000000E+06,5.00000000000000E+06,4.00000000000000E+06,1.40000000000000E+07,4.00000000000000E+07,2.20000000000000E+07,3.20000000000000E+07,5.30000000000000E+07,7.20000000000000E+07,1.12000000000000E+08,1.32000000000000E+08,
UMC,,,2.79999888112045E+06,1.39999944056022E+06,2.79999888112045E+06,2.79999888112045E+06,2.79999888112045E+06,4.19999832168067E+06,1.35999977622104E+07,1.07999988810899E+07,7.19999832165015E+06,9.99441614222600E+06,1.24232879728003E+07,8.15733319604800E+06,9.78326634926820E+06,1.51305088206456E+08,1.73349999991000E+08,1.64349999991000E+08,1.82199999992000E+08,4.16920852724528E+07,6.60889425017713E+07,9.23671496651673E+07,9.52136441871121E+07,7.51344712240617E+07,7.51756100340049E+07,6.72208043997284E+07,6.64421869091080E+07,6.95223318325909E+07,7.21599242424750E+07,7.61196843666430E+07,1.37563037424213E+08,2.22431599238129E+08,2.00453290597693E+08,2.35487830602044E+08,1.25701243882575E+08,2.23638891141918E+08,5.95390040294372E+08,6.12815549932085E+08,4.96165389223067E+08,4.51696578756307E+08,5.16202571024100E+08,5.07537801402143E+08,6.04262210544191E+08,6.92654536717179E+08,9.27980802721529E+08,8.43385240675740E+08,1.03480876886797E+09,1.53616797750970E+09,2.45406710117450E+09,2.39862266640024E+09,2.96342772133755E+09,
URY,,,,,,,,,,,,,,,,,,,,,,,,,,,,7.00000000000000E+05,,,,,,4.00000000000000E+05,5.00000000000000E+05,,,,,,9.10000000000000E+04,5.60000000000000E+04,1.60000000000000E+04,,3.37880000000000E+04,7.10000000000000E+04,,3.00000000000000E+04,9.60000000000000E+04,9.60000000000000E+04,9.60000000000000E+04,
USA,,,,,,,,,,,2.33000000000000E+09,2.55000000000000E+09,2.78000000000000E+09,3.23000000000000E+09,3.83000000000000E+09,4.31000000000000E+09,4.37000000000000E+09,4.92000000000000E+09,5.88000000000000E+09,6.19000000000000E+09,7.08000000000000E+09,7.28000000000000E+09,5.61000000000000E+09,5.78000000000000E+09,6.18000000000000E+09,6.68000000000000E+09,8.11400000000000E+09,1.01740000000000E+10,1.21470000000000E+10,1.38200000000000E+10,1.66400000000000E+10,1.78200000000000E+10,2.08410000000000E+10,2.16940000000000E+10,2.67120000000000E+10,3.02890000000000E+10,3.24700000000000E+10,3.32280000000000E+10,3.56260000000000E+10,4.77310000000000E+10,5.18070000000000E+10,4.94890000000000E+10,5.38590000000000E+10,5.68140000000000E+10,6.70930000000000E+10,7.44480000000000E+10,8.35500000000000E+10,9.78020000000000E+10,1.02126000000000E+11,9.71820000000000E+10,1.05583000000000E+11,
VCT,,,,,,,,,,,,,,,,,,,,,,,,,,,,,,,,,,,,,3.00000000000000E+05,,,,,,,,,,,,,,,
VUT,,,,,,,,,,,,,,,,,,,,,,,,,,,,,,,,,,,,,,,,,,,,,,,1.80788775036616E+05,2.65347378644930E+05,,,,
WBG,,,,,,,,,,,,,,,,,,,,,,,,,,,,,,,,,,,,,,,,,7.90794055618226E+03,,,5.00000000000000E+04,3.00000000000000E+04,3.00000000000000E+04,4.00000000000000E+04,3.00000000000000E+04,,,,
WLD,1.12000017933443E+06,1.12000017933443E+06,6.15999941912374E+06,2.51999961989465E+06,7.27999959845817E+06,6.15999941912374E+06,7.27999959845817E+06,7.83639600687738E+07,8.42367008731976E+07,1.07479082274075E+08,2.81175238616836E+09,3.20905664397909E+09,3.56263290023787E+09,4.15922319124621E+09,4.90956353733292E+09,5.91626924017477E+09,6.13693693251309E+09,7.12433902774466E+09,8.57156620500751E+09,9.21378446128412E+09,1.06141832270270E+10,1.08640348540838E+10,8.90840332060755E+09,9.47345536533993E+09,9.70036294089110E+09,9.77808484392096E+09,1.20430451586720E+10,1.58449097744537E+10,1.88989207694262E+10,2.09261811725997E+10,2.66326910886865E+10,3.07721953578336E+10,3.54053251326271E+10,3.77344737154252E+10,4.63850969178666E+10,5.34182878366202E+10,5.82441616958819E+10,6.03059964917598E+10,6.42879501799646E+10,7.94845763247831E+10,8.73026873120300E+10,8.53581496017472E+10,9.30404583173829E+10,1.03763217174031E+11,1.26970841177438E+11,1.42401203650242E+11,1.57855398818904E+11,1.83161454510149E+11,2.00310690649022E+11,1.94442836557461E+11,2.11055750100464E+11,
WSM,,,,,,,,,,,,,,,,,,,,,,,,,,,,,,,,2.62541313792851E+05,1.62185722925966E+05,1.71299312749104E+05,1.53843898278151E+05,,,,,,,,,,,,,,,,,
YEM,,,,,,,,,,,,,,,,,,,,,,,,,,,,,,,,,,,,,,,,,,,,,,,1.49000000000000E+08,,8.65392000000000E+06,3.34200000000000E+07,,
ZAF,,,2.79999888112045E+06,1.39999944056022E+06,2.79999888112045E+06,2.79999888112045E+06,2.79999888112045E+06,4.19999832168067E+06,5.59999776224089E+06,2.79999888112045E+06,4.19999832168067E+06,6.98547614225652E+06,1.02518679728003E+07,5.77307319604800E+06,7.37798634929872E+06,8.30508820645571E+06,1.03499999910000E+07,1.03499999910000E+07,9.19999999200000E+06,1.18920852724528E+07,1.66889425017713E+07,1.81198172554672E+07,1.84821547296672E+07,1.79705652961062E+07,1.38991930637458E+07,1.07996515192685E+07,1.26897538296510E+07,1.47438618772103E+07,1.41426185724591E+07,1.21820247840304E+07,1.89104168458018E+07,8.96793797978977E+07,5.33060312434429E+07,5.04026944092463E+07,5.12737065587749E+07,4.46720038886802E+07,6.69418517253898E+07,5.21129460234619E+07,4.89629086436810E+07,4.41954326643811E+07,4.90941789315161E+07,2.14903962330755E+07,1.94545885677067E+07,2.65501601313830E+07,3.73918885875072E+07,4.53020630116660E+07,4.57841494605058E+07,5.29136015143237E+07,5.37378856169324E+07,4.77258403397975E+07,5.91864538477752E+07,
ZWE,,,,,,,,,,,,,,,,,,7.94831982610225E+05,1.77824138305464E+06,1.02865974724820E+06,2.78944129883977E+06,2.00977248447644E+06,1.45100110358046E+06,9.84800745988126E+05,6.24962328212831E+05,3.74333459059128E+05,5.95535738751354E+05,5.40451338471094E+05,5.53178584814580E+05,1.77704809754475E+07,7.74908738385353E+05,1.57611564306655E+06,9.93658759847148E+05,8.24758468179408E+05,6.03115902336422E+05,,,,,,,,,,,,,,,,,
