"Country Code",1960,1961,1962,1963,1964,1965,1966,1967,1968,1969,1970,1971,1972,1973,1974,1975,1976,1977,1978,1979,1980,1981,1982,1983,1984,1985,1986,1987,1988,1989,1990,1991,1992,1993,1994,1995,1996,1997,1998,1999,2000,2001,2002,2003,2004,2005,2006,2007,2008,2009,2010,2011ABW,,,,,,,,,,,,,,,,,,,,,,,,,,,,,,,,,,,,,4.30167597765363E+06,5.41899441340782E+06,5.08379888268157E+06,1.25865921787710E+07,1.09329608938547E+07,5.98882681564246E+06,1.31843575418994E+07,1.06424581005587E+07,,1.04972067039106E+07,1.47206703910614E+07,1.53351955307263E+07,1.69385474860335E+07,1.56424581005587E+07,1.69832402234637E+07,
AGO,,,,,,,,,,,,,,,,,,,,,,,,,,,,,,,,,,,,,,,,,,,,,,,,,,3.39500000000000E+07,,
ALB,,,,,,,,,,,,,,,,,,,,,,,,,,,,,,,,,,,,8.30000000000000E+06,1.11000000000000E+07,1.14800000000000E+07,1.53300000000000E+07,2.58000000000000E+07,2.13000000000000E+07,,3.31000000000000E+07,4.92946882574251E+07,7.57115287826181E+07,7.45560216608516E+07,5.40056094982349E+07,7.06500000000000E+07,1.68896339479121E+08,1.66055970115773E+08,1.07326935170274E+08,
ARG,,,,,,,,,,,,,,,,,,,,,,,,,,,,,,,,,2.10300000000000E+08,2.41000000000000E+08,2.88200000000000E+08,3.45500000000000E+08,3.91500000000000E+08,3.29900000000000E+08,2.76185752455922E+08,2.62026704275248E+08,3.21606166793532E+08,3.75612378199248E+08,2.77210000000000E+08,3.12240000000000E+08,3.55770000000000E+08,4.47880000000000E+08,6.50660000000000E+08,9.68330000000000E+08,1.25738000000000E+09,1.37719996441935E+09,1.58393619461629E+09,
ARM,,,,,,,,,,,,,,,,,,,,,,,,,,,,,,,,,,,,,,,,3.23400000000000E+07,1.78100000000000E+07,3.10373000000000E+07,2.75591000000000E+07,2.77119000000000E+07,4.13809000000000E+07,5.06307000000000E+07,5.59184276605815E+07,8.49500000000000E+07,1.12519057587547E+08,9.49216632159624E+07,1.28050000000000E+08,
AUS,,,,,,,,,,,,,,,,,,,,,,,,,,,,,,,,3.86807271547485E+08,7.49938598020357E+08,6.97451713967370E+08,7.51465503859292E+08,7.84933942805575E+08,9.35270651195508E+08,1.18448247631989E+09,1.21639921932873E+09,1.36764963616724E+09,1.38314151425657E+09,9.81382176017395E+08,1.18038857616556E+09,1.39630011882381E+09,1.53955471439313E+09,1.51083011259839E+09,1.70511288239358E+09,1.88957895936736E+09,2.21317450488413E+09,,,
AUT,,,,,,,,,,,,,,,,,,,,,,,,,,,,,,,,,1.30576809794686E+08,1.43501295066284E+08,1.79004678512861E+08,4.81605993258928E+08,5.21951165306913E+08,4.91291922448252E+08,6.12856699397321E+08,6.74084695392286E+08,7.73873247191648E+08,8.94365808001174E+08,1.06818975904927E+09,1.34110074055649E+09,1.57078537174848E+09,2.24422142938887E+09,2.91943569176856E+09,3.49620998864320E+09,3.91712411513451E+09,3.57923566443703E+09,3.40077060876123E+09,
AZE,,,,,,,,,,,,,,,,,,,,,,,,,,,,,,,,,,,,,,,,,,,,,,3.57080000000000E+07,3.37280000000000E+07,3.82220000000000E+07,5.53760000000000E+07,8.14420000000000E+07,8.51410000000000E+07,
BEL,,,,,,,,,,,,,,,,,,,,,,,,,,,,,,,,,,,,,,,,,,,3.48773039408848E+09,3.99430177847285E+09,4.67118685107787E+09,4.78704844290430E+09,4.89652482606791E+09,6.62102534813406E+09,7.64264212056024E+09,8.19496521252715E+09,8.06150882663745E+09,
BEN,,,,,,,,,,,,,,,,,,,,,,,,,,,,,,,,,,,,,,4.45115012549773E+06,,,,,,,5.20552541273682E+06,5.40127406493287E+06,1.18074522476531E+07,2.33481651692751E+06,,,,
BFA,,,,,,,,,,,,,,,,,,,,,,,,,,,,,,,,,,,,,,,,,2.26412038981027E+06,3.29587051252860E+06,,,,,3.88226887961383E+05,2.17832747423800E+06,1.39234632076662E+07,,,
BGD,,,,,,,,,,,,,,,,,,,,,,,,,,,,,,,,,,,,,2.88829944807171E+07,3.73848643324970E+07,2.93632579158094E+07,4.77073161946738E+07,2.47753773953744E+07,1.33396909705456E+07,3.93121916600480E+07,7.65668458036839E+07,6.58778025525416E+07,4.26183245512756E+07,9.35569285747454E+07,9.25264885470009E+07,1.40659215749787E+08,2.23970742714442E+08,3.15355189597583E+08,
BGR,,,,,,,,,,,,,,,,,,,,,,,,,,,,,,,,,,,,,,,,,5.03510702549563E+07,5.93493236524956E+07,5.02942636184434E+07,5.95448687802387E+07,1.10131000976915E+08,1.78338470961832E+08,2.06534494874097E+08,2.95792849435390E+08,4.46913624985439E+08,3.87740980151393E+08,6.00628593904799E+08,
BLR,,,,,,,,,,,,,,,,,,,,,,,,,,,,,,,,,,,,8.80000000000000E+06,1.78000000000000E+07,3.15000000000000E+07,4.86000000000000E+07,4.77000000000000E+07,5.45000000000000E+07,6.07000000000000E+07,7.30000000000000E+07,8.77000000000000E+07,9.99000000000000E+07,1.20400000000000E+08,1.54900000000000E+08,2.21100000000000E+08,3.07000000000000E+08,3.16400000000000E+08,3.94600000000000E+08,
BOL,,,,,,,,,,,,,,,,,,,,,,,,,,,,,,,,,,,,,,,,4.05000000000000E+07,3.57000000000000E+07,3.22400000000000E+07,2.49800000000000E+07,2.73300000000000E+07,3.36960000000000E+07,3.70800000000000E+07,4.32880000000000E+07,5.70800000000000E+07,6.17800000000000E+07,6.48100000000000E+07,6.48230000000000E+07,
BRA,,,,,,,,,,,,,,,,,,,,,,,,,,,,,,,,,,4.20000000000000E+07,,7.90000000000000E+07,2.31000000000000E+08,1.52000000000000E+08,1.63000000000000E+08,4.50000000000000E+07,6.96990000000000E+07,2.68775000000000E+08,1.71628000000000E+08,4.78291000000000E+08,2.96704000000000E+08,3.26920000000000E+08,3.06994000000000E+08,4.36906000000000E+08,6.55108000000000E+08,5.62050400000000E+08,6.44836901320000E+08,
BRB,,,,,,,,,,,,,,,,,,,,,,,,,,,,,,,,,,,4.26000000000000E+07,4.68000000000000E+07,5.09000000000000E+07,5.21500000000000E+07,5.04500000000000E+07,4.51000000000000E+07,4.51500000000000E+07,4.68500000000000E+07,4.85000000000000E+07,5.02000000000000E+07,5.21050000000000E+07,5.51500000000000E+07,,1.90700000000000E+07,1.81300000000000E+07,3.80605000000000E+07,3.80605000000000E+07,
BWA,,,,,,,,,,,,,,,,,,,,,,,,,,,,,,,,,,,,,,3.64307373161229E+04,5.25097731123458E+05,,3.85352992782472E+05,5.77796297504437E+06,1.14589576333666E+07,9.73953440840282E+06,8.29979429726598E+06,2.29260027847055E+07,1.74486006653349E+07,2.90572539363429E+07,2.71604941145398E+07,2.75116997552939E+07,2.16676027561198E+07,
CAN,,,,,,,,,,,,,,,,,,,,,,,,,,,,,,,,,,,,2.28854165918688E+09,2.07054844339922E+09,2.55467432225647E+09,2.86534132808785E+09,3.45744665385130E+09,3.80709917576500E+09,3.84040952899368E+09,3.77178458418528E+09,4.49261606018558E+09,4.89524125993965E+09,5.55776509975458E+09,6.41815783926704E+09,6.82860349283304E+09,7.49606581617013E+09,6.82072592846453E+09,7.85282792577461E+09,
CHL,,,,,,,,,,,,,,,,,,,,,,,,,,,,,,,,,,,,,2.19700000000000E+08,2.17900000000000E+08,2.28800000000000E+08,2.12900000000000E+08,2.40700000000000E+08,1.67555856866015E+08,2.24699000000000E+08,2.39470000000000E+08,2.33238000000000E+08,2.21963000000000E+08,2.21280000000000E+08,2.32724273658358E+08,3.00331343323892E+08,2.37068199628970E+08,2.36550589152671E+08,
CHN,,,,,,,,,,,,,,,,,,,,,,,,,,,,,,,,,,,,,,3.56000000000000E+08,9.53000000000000E+08,8.55000000000000E+08,1.70139700000000E+09,7.32000000000000E+08,1.18827444386850E+09,1.74058569715920E+09,2.07761123679250E+09,2.32541519020040E+09,3.69558171835135E+09,5.51930366173875E+09,7.82172569362920E+09,7.70997256400000E+09,1.04764129870000E+10,
CIV,,,,,,,,,,,,,,,,,,,,,,,,,,,,,,,,,,,,,5.47353474307292E+06,4.95143335746284E+07,5.70114396632963E+07,4.45672221626056E+07,3.95097435269000E+07,4.27494595410218E+07,5.95418972443931E+07,7.25016814251896E+07,8.62186441815769E+07,9.09116515393914E+07,9.27498897160154E+07,1.02681307755802E+08,1.12423681415936E+08,,,
CMR,,,,,,,,,,,,,,,,,,,,,,,,,,,,,,,,,,,,,,,5.53791028494842E+06,2.65876613265981E+06,8.44620841446901E+06,4.02052548614415E+06,2.53493529853828E+07,2.15915230956548E+07,5.33708323680416E+07,5.62005505022359E+07,4.23932286967486E+07,4.51689972819005E+07,9.82435990951192E+07,6.05036625572636E+07,4.19583366375950E+07,
COL,,,,,,,,,,,,,,,,,,,,,,,,,,,,,,,,,,,2.64984450000000E+08,2.70347210000000E+08,2.60390660000000E+08,2.49465990000000E+08,1.79046570000000E+08,1.68782640000000E+08,1.85550560000000E+08,1.89505650000000E+08,1.51945940000000E+08,1.49844930000000E+08,1.99512020000000E+08,2.38270594000000E+08,2.87346835040000E+08,2.86241253000000E+08,3.02371177600000E+08,3.16847519792195E+08,2.76960191078674E+08,
CPV,,,,,,,,,,,,,,,,,,,,,,,,,,,,,,,,,,,,,,,4.73377245645726E+06,5.54891805924230E+06,1.05290936253499E+07,1.09017435944593E+07,1.27800881656224E+07,1.46324933490759E+07,1.71504316083980E+07,1.87914821663270E+07,2.27470235825817E+07,2.59191836899201E+07,3.08420648795063E+07,2.80339673525492E+07,2.32562888561825E+07,
CRI,,,,,,,,,,,,,,,,,,,,,,,,,,,,,,,,,,,,,,7.99600000000000E+07,8.76500000000000E+07,1.41852104000000E+08,1.52878100000000E+08,2.11353564787111E+08,1.85575956042324E+08,1.90220103157867E+08,2.25984989672501E+08,2.89672606659523E+08,4.56970193372381E+08,5.46095042808560E+08,7.22674145039436E+08,8.03355585957831E+08,1.11020139504616E+09,
CYP,,,,,,,,,,,,,,,,,,,,,,,,,,,,,,,,,,,,,,2.89941181507072E+07,7.18388608004594E+07,8.74853979964002E+07,8.49923283310948E+07,1.17061697521201E+08,1.26848961015753E+08,1.42547617650008E+08,2.85483581532396E+08,2.64789695190509E+08,2.94481962646904E+08,3.92102267402886E+08,3.16379662801964E+08,2.05429139888904E+08,1.91297424219210E+08,
CZE,,,,,,,,,,,,,,,,,,,,,,,,,,,,,,,,,,,,2.96987593203637E+08,1.05098605876814E+08,9.98644611546529E+07,1.28389280067261E+08,1.64312038836678E+08,2.16637422335249E+08,3.33688032397010E+08,3.13485869259176E+08,1.80146710870094E+08,3.60645158923881E+08,1.04424919426063E+09,1.40876090725949E+09,1.56985923289336E+09,2.00681978995174E+09,1.87946125146502E+09,1.79656718556983E+09,
DEU,,,,,,,,,,,,,,,,,,,,,,,,,,,9.38382524371006E+08,1.14907769328689E+09,1.42500818371825E+09,1.31157719159411E+09,1.66497476843341E+09,1.53311411293754E+09,2.66106992097558E+09,1.24443056947839E+09,1.59228549565733E+09,3.43901502755211E+09,3.62339879846948E+09,4.09740273688695E+09,4.66336416341951E+09,4.74333759776098E+09,5.25192982018427E+09,6.57362193254391E+09,7.56556651515872E+09,9.37694160615274E+09,1.13444239354431E+10,1.18241159113739E+10,1.44947353114862E+10,1.74203232418271E+10,2.06710732136973E+10,1.96122444625192E+10,2.17513330389400E+10,
DOM,,,,,,,,,,,,,,,,,,,,,,,,,,,,,,,,,,,,,,,,,,,1.20300000000000E+08,1.31100000000000E+08,1.36370000000000E+08,1.33300000000000E+08,1.70100000000000E+08,1.76000000000000E+08,1.97200000000000E+08,2.01300000000000E+08,2.30400000000000E+08,
DZA,,,,,,,,,,,,,,,,,,,,,,,,,,,,,,,,,,,,,,,,,,,,,,1.10999999999995E+08,1.47000000000007E+08,2.43000000000000E+08,1.74000000000000E+08,1.05000000000005E+08,,
ECA,,,,,,,,,,,,,,,,,,,,,,,,,,,,,,,,,,,,,,,,,,,,,,3.25206249643558E+09,4.87532720363552E+09,6.64350358349935E+09,8.71401725049654E+09,8.09281732359559E+09,8.21908378514440E+09,
ECS,,,,,,,,,,,,,,,,,,,,,,,,,,,,,,,,,,,,,,,,,,,5.19769922258785E+10,6.77161900898727E+10,8.67706658119690E+10,9.55886353049704E+10,1.13300286263280E+11,1.38880407825472E+11,1.67686094490823E+11,1.58418754334197E+11,1.65775761144631E+11,
EGY,,,,,,,,,,,,,,,,,,,,,,,,,,,,,,,,,,,,2.16000000000000E+08,2.11000000000000E+08,1.85700000000000E+08,2.26000000000000E+08,2.43600000000000E+08,3.29000000000000E+08,2.54300000000000E+08,2.47900000000000E+08,3.31800000000000E+08,4.38100000000000E+08,3.86900000000000E+08,5.47100000000000E+08,8.44900000000000E+08,1.82950000000000E+09,1.01260000000000E+09,9.95700000000000E+08,
EMU,,,,,,,,,,,,,,,,,,,,,,,,,,,,,,,,,,,,,1.13104775079412E+10,1.23721014124538E+10,2.00546198396715E+10,2.30821862435639E+10,2.58134704152534E+10,2.98710572894420E+10,3.74269112522598E+10,4.95590406543717E+10,6.14580209618753E+10,6.72265054731942E+10,7.81163924515287E+10,9.51857968450235E+10,1.19346851352434E+11,1.13401495923690E+11,1.19784281179155E+11,
ERI,,,,,,,,,,,,,,,,,,,,,,,,,,,,,,,,,,,,,,,6.80877361208445E+06,6.41140775061625E+06,8.24167740549828E+06,,,,,,,,,,,
ESP,,,,,,,,,,,,,,,,,,,,,,,,,,,,,,,2.17441566066382E+08,2.92703236132656E+08,4.09472046118026E+08,1.05339755706166E+09,1.08408207121004E+09,1.57504456162545E+09,1.92071801066027E+09,1.98680912591654E+09,2.25017573736076E+09,2.67440988547100E+09,2.71085575472211E+09,2.99370408688440E+09,3.42416938071121E+09,3.96165450276700E+09,4.19099757129742E+09,5.08054076549477E+09,5.40745641815949E+09,7.07240181627040E+09,8.32218872469538E+09,8.20453621450551E+09,8.53952175627677E+09,
EST,,,,,,,,,,,,,,,,,,,,,,,,,,,,,,,,,,,1.44677469857636E+07,1.90301154826753E+07,1.71230717694946E+07,1.91020168754904E+07,2.20134492749043E+07,4.05169616315846E+07,4.19378001598934E+07,4.19010513101061E+07,4.66800233084156E+07,6.98137889592537E+07,1.02407662201103E+08,1.31592073291765E+08,1.72522820959594E+08,2.89380840488644E+08,3.71471110721570E+08,3.79434023695456E+08,4.04060366304425E+08,
ETH,,,,,,,,,,,,,,,,,,,,,,,,,,,,,,,,,,1.74600000000000E+07,1.85419787007398E+07,2.57221898617985E+07,2.56911846687259E+07,2.47827991620649E+07,3.75904971639187E+07,3.23087373421321E+07,1.81507312175679E+07,1.77844334331252E+07,2.49731266296766E+07,2.17365445546752E+07,4.16243421838054E+07,4.13927600158185E+07,5.61795518898353E+07,8.60616115761770E+07,7.68100332228015E+07,1.00211577312674E+08,1.01724139345607E+08,
EUU,,,,,,,,,,,,,,,,,,,,,,,,,,,,,,,,,,,,1.35279605128517E+10,1.53868701546257E+10,1.84893148757798E+10,2.76013809283994E+10,3.19475780426844E+10,3.57001098465978E+10,4.09527400376182E+10,5.01234189874292E+10,6.56913188814976E+10,8.43195529330447E+10,9.21705389399264E+10,1.08359375067081E+11,1.31737826292597E+11,1.58445120695639E+11,1.49323581956819E+11,1.55942855594269E+11,
FIN,,,,,,,,,,,,,,,,,,,,,,,,,,,8.20425114197592E+07,1.49760582284111E+08,2.77982113206443E+08,4.03030602765152E+08,3.91451217143429E+08,3.83854897665976E+08,5.70340348598944E+08,5.11643721590071E+08,7.30084058900007E+08,9.16476152851145E+08,1.04325958764212E+09,1.10465238923630E+09,1.21474392469776E+09,1.49292839472993E+09,4.13642197254930E+08,5.33542723034074E+08,7.41221122479250E+08,7.94921067527505E+08,1.06649197982717E+09,1.90371961633945E+09,1.90346422174463E+09,2.27703986641932E+09,8.68478465301413E+09,7.37629917024564E+09,6.81042094819128E+09,
FJI,,,,,,,,,,,,,,,,,,,,,,,,,,,,,,,,,,,,,,,,,2.45119844963683E+07,2.19471294775991E+07,2.62780809936107E+07,2.66488870343574E+07,3.18532643355712E+07,3.12264295743448E+07,2.40694794506710E+07,2.20798726640145E+07,2.71656015189904E+07,1.40717213017257E+07,1.11123880443744E+07,
FRA,,,,,,,,,,,,,,,,,,,,,,,,,,,,,1.94223449383603E+08,1.77853967210636E+08,2.83062723267264E+08,3.07044785666429E+08,5.11098692280495E+08,5.64971098424673E+08,6.15755105626305E+08,8.32296163435487E+08,1.09152583153848E+09,1.18946344289476E+09,1.65547540572385E+09,1.81843947208988E+09,2.12821661249952E+09,2.69396272315487E+09,3.35321419678886E+09,3.77655196929457E+09,4.55550641037645E+09,5.23340775832398E+09,5.77819083941280E+09,6.34597344724064E+09,6.39411189388530E+09,6.26889561462199E+09,6.09392768671234E+09,
FRO,,,,,,,,,,,,,,,,,,,,,,,,,,,,,,,,,,,,,,,6.20000000000000E+05,6.80000000000000E+05,9.80000000000000E+05,1.74000000000000E+06,2.15000000000000E+06,2.17000000000000E+06,,,,,,,,
GBR,,,,,,,,,,,,,,,,,,,,,,,,,,,,,,,,2.52250984774066E+09,2.39809215400053E+09,2.44871799022617E+09,2.77154671145033E+09,2.84597364586894E+09,3.35800837250280E+09,4.18266920495900E+09,5.15943811336360E+09,6.46469697938796E+09,7.13137229589830E+09,7.61160910456505E+09,9.23890482082803E+09,1.22069004504597E+10,1.70918932811444E+10,1.75351496329431E+10,2.00515582114516E+10,2.22057265905329E+10,2.11769933621062E+10,1.90000582801352E+10,1.90978766726281E+10,
GEO,,,,,,,,,,,,,,,,,,,,,,,,,,,,,,,,,,,,,,,,,,,,,1.77324584162873E+07,1.98772939054953E+07,1.80849092991347E+07,1.63830279948849E+07,2.71224954711473E+07,3.42754175340010E+07,3.48826842086891E+07,
GIN,,,,,,,,,,,,,,,,,,,,,,,,,,,,,,,,,,,,,,9.94000000000000E+06,,,,2.30800000000000E+06,4.70000000000000E+05,,,6.60000000000000E+05,,,1.19800000000000E+07,1.55700000000000E+07,,
GMB,,,,,,,,,,,,,,,,,,,,,,,,,,,,,,,,,,,,,,,,,,,,,,,,,1.26885813602657E+07,1.85852882577383E+07,,
GRC,,,,,,,,,,,,,,,,,,,,,,,,,,,,,,,,,,,,,,,,3.56700000000000E+08,3.46000000000001E+08,3.10000000000000E+08,2.89083953474740E+08,4.57149491185275E+08,5.92662193062106E+08,5.68684357393271E+08,5.89312186904772E+08,6.96297872369385E+08,8.48082766904803E+08,8.20525947709143E+08,8.88115032450388E+08,
GTM,,,,,,,,,,,,,,,,,,,,,,,,,,,,,,,,,,,,6.78000000000000E+07,7.24000000000000E+07,5.06000000000000E+07,4.60000000000000E+06,4.50000000000000E+06,4.00000000000000E+06,3.03843928100000E+07,5.03638845500000E+07,1.08675000000000E+07,1.69500000000000E+08,1.83600000000000E+08,2.22500000000000E+08,2.76000000000000E+08,2.84000000000000E+08,2.71200000000000E+08,2.84200000000000E+08,
GUY,,,,,,,,,,,,,,,,,,,,,,,,,,,,,,,,,,,,,,,,,3.82000000000000E+07,4.11000000000000E+07,3.01000000000000E+07,3.05000000000000E+07,3.21280000000000E+07,3.37350000000000E+07,3.54210000000000E+07,3.71920000000000E+07,3.92000000000000E+07,4.13293089496140E+07,5.12465822115370E+07,
HKG,,,,,,,,,,,,,,,,,,,,,,,,,,,,,,,,,,,,,,,9.74393182991910E+08,5.76071282834190E+08,4.22007912517576E+08,6.58950490257638E+08,9.13460460701910E+08,1.00113326834249E+09,1.09697393275274E+09,1.20681564811915E+09,1.19149075858434E+09,1.14270575125529E+09,1.56332872289951E+09,1.57718333499683E+09,,
HND,,,,,,,,,,,,,,,,,,,,,,,,,,,,,,,,,,,,,7.62000000000000E+07,8.25000000000000E+07,,,,,,1.26674000000000E+08,1.51393320000000E+08,1.43662680000000E+08,1.38159296193921E+08,1.37982625819098E+08,1.79344066422525E+08,2.51546357239988E+08,2.57942243010000E+08,
HRV,,,,,,,,,,,,,,,,,,,,,,,,,,,,,,,,,,,,,8.44769409460000E+07,1.28922067149000E+08,1.48112366913000E+08,1.17716242204000E+08,1.36368860417000E+08,1.97530773528074E+08,2.02296853333549E+08,2.74956148929622E+08,2.55147600741229E+08,3.23005476671506E+08,3.39983383268680E+08,4.08951546644494E+08,4.70233431525696E+08,4.23824655676762E+08,3.98028524359009E+08,
HUN,,,,,,,,,,,,,,,,,,,,,,,,,,,,,,,,,,,,1.28004904179212E+08,1.35395668304817E+08,1.29754313063581E+08,1.08519614807807E+08,1.64274912433493E+08,1.89533339274296E+08,2.70622370350224E+08,3.24981974469076E+08,4.51845397106582E+08,6.29346553191584E+08,7.22772488537079E+08,9.10226358821350E+08,1.28004200611273E+09,1.67639219724064E+09,1.62498134920850E+09,1.65808883762066E+09,
IDN,,,,,,,,,,,,,,,,,,,,,,,,,,,,,,,,,,,,,,,,,,,,,9.73130000000000E+08,1.14555000000000E+09,1.22035116732689E+09,1.48365000000000E+09,1.27381423694062E+09,1.15659841545835E+09,1.23973594130160E+09,
IND,,,,,,,,,,,,,,,,,,,,,,,,,,,,,,,,,,,,,,,,,5.32618829193119E+09,8.51128341891947E+09,9.66870411381729E+09,1.28446674592296E+10,1.74380259310730E+10,2.34408080048332E+10,3.12692010702469E+10,3.98391533734630E+10,5.15896069523794E+10,4.81408055868954E+10,5.81120245897463E+10,
IRL,,,,,,,,,,,,,,,,,,,,,,,,,,,,,,,,,,,,,,,5.64582543024521E+09,5.90569976685955E+09,8.43110522182321E+09,9.93162766014411E+09,1.14315068928436E+10,1.49425391247842E+10,1.92007342436672E+10,2.01239097354480E+10,2.35366650140084E+10,3.05336480364265E+10,3.59141952965130E+10,3.45777994207347E+10,3.81112299699802E+10,
IRQ,,,,,,,,,,,,,,,,,,,,,,,,,,,,,,,,,,,,,,,,,,,,,,6.60000000000000E+06,,2.87000000000000E+07,1.12000000000000E+07,,,
ISL,,,,,,,,,,,,,,,,,,,,,,,,,,,,,,,,,,,,,4.02517665875233E+07,4.50520141355029E+07,4.34580680982030E+07,3.69163050104914E+07,3.97720436157363E+07,5.10941501373610E+07,4.27475436429823E+07,5.25598977272556E+07,6.60968562820157E+07,7.75199938573161E+07,1.01114065909075E+08,1.06329980607422E+08,9.58478355519283E+07,,,
ISR,,,,,,,,,,,,,,,,,,,,,,,,,,,,,,,,,,,,,,1.30900000000000E+09,1.85980000000000E+09,2.12900000000000E+09,4.42160000000000E+09,3.60980000000000E+09,4.31740000000000E+09,3.58050000000000E+09,4.55300000000000E+09,4.68990000000000E+09,5.51030000000000E+09,6.03840000000000E+09,7.12650000000000E+09,7.93830000000000E+09,7.98830000000000E+09,
ITA,,,,,,,,,,,,,,,,,,,,,,,,,,,,,,,3.80267512444363E+08,3.60649450510637E+08,4.87466985184528E+08,4.14107575277595E+08,4.49253382291770E+08,4.53008715674980E+08,7.44800175208394E+08,9.19540048066260E+08,9.62399341474376E+08,1.53817933195438E+09,1.72201480389127E+09,1.78071155656875E+09,1.38137594855043E+09,2.39501270763585E+09,2.58946344886433E+09,2.82735284543452E+09,4.13322115723152E+09,3.96764980957715E+09,8.52027767400538E+09,7.17094571942986E+09,8.81584710098065E+09,
JAM,,,,,,,,,,,,,,,,,,,,,,,,,,,,,,,,,,,1.96900000000000E+08,2.04100000000000E+08,2.22400000000000E+08,2.45300000000000E+08,2.21500000000000E+08,3.15000000000000E+08,2.49800000000000E+08,2.01300000000000E+08,2.05240000000000E+08,1.80600000000000E+08,2.25931221403972E+08,1.82896635050681E+08,1.76551089618824E+08,1.84446034217748E+08,1.65163056540000E+08,1.87663220680000E+08,1.67432312820000E+08,
JPN,,,,,,,,,,,,,,,,,,,,,,,,,,,,,,,,,,,,,2.59797514344903E+09,2.77670320697085E+09,2.50105790959647E+09,2.02175891430102E+09,2.39121683541061E+09,2.13233541729327E+09,1.88060621931276E+09,1.73727686113742E+09,1.49685199409101E+09,1.52078178931616E+09,1.40188218418160E+09,1.52001423736115E+09,1.59945336670304E+09,1.52920828939310E+09,1.78149839375489E+09,
KAZ,,,,,,,,,,,,,,,,,,,,,,,,,,,,,,,,,,,,,,,,,3.55367800000000E+07,3.60540590000000E+07,4.56160580000000E+07,6.13401220000000E+07,6.40174110000000E+07,7.41075940000000E+07,8.09433650000000E+07,9.00463800000000E+07,1.06499440000000E+08,1.29479870000000E+08,1.00990426187135E+08,
KEN,,,,,,,,,,,,,,,,,,,,,,,,,,,,,,,,,,2.93536759973396E+07,6.42360403974446E+07,2.47567787327394E+07,2.02667023063464E+07,1.53098893970207E+08,2.23721190656438E+08,2.91048644021564E+08,2.23503805661203E+07,4.58289279095638E+07,1.61682651664245E+07,1.52435809524924E+07,1.13570036569983E+08,1.78751097697495E+08,2.83946780851124E+08,3.29455706081865E+08,4.37626021540982E+08,3.78825309511917E+08,3.59876256170233E+08,
KGZ,,,,,,,,,,,,,,,,,,,,,,,,,,,,,,,,,,,,,,,9.98722662000000E+06,1.05183960000000E+07,9.75515724000000E+06,9.16543924000000E+06,9.51685100000000E+06,1.01408800000000E+07,8.70434840000000E+06,7.61573660000000E+06,1.14532140000000E+07,1.31181890000000E+07,1.78587160000000E+07,1.06262838000000E+07,2.29857610000000E+07,
KHM,,,,,,,,,,,,,,,,,,,,,,,,,,,,,,,,,,,,,,,,,,,,,4.08555187287075E+07,4.28599152711222E+07,,4.73300000000000E+07,4.64200000000000E+07,1.05910000000000E+08,9.63800000000000E+07,
KOR,,,,,,,,,,,,,,,,,,,,,3.13000000000000E+07,3.63000000000000E+07,4.78000000000000E+07,7.55000000000000E+07,4.96000000000000E+07,6.03000000000000E+07,2.09400000000000E+08,2.60900000000000E+08,4.66300000000000E+08,2.25500000000000E+08,3.97800000000000E+08,3.58000000000000E+08,3.80100000000000E+08,3.81900000000000E+08,4.96500000000000E+08,5.65600000000000E+08,6.49000000000000E+08,6.55100000000000E+08,6.60100000000000E+08,4.04100000000000E+08,3.98000000000000E+08,4.13600000000000E+08,3.97200000000000E+08,3.70900000000000E+08,4.70900000000000E+08,5.00100000000000E+08,8.90500000000000E+08,8.87400000000000E+08,1.02740000000000E+09,9.42800000000000E+08,9.76900000000000E+08,
LBN,,,,,,,,,,,,,,,,,,,,,,,,,,,,,,,,,,,,,,,,,,,5.98123234300000E+07,1.62710842360000E+08,2.29495774660000E+08,2.40578335710000E+08,3.04863891810000E+08,2.50060000000000E+08,,4.82739909120000E+08,4.71973185796476E+08,
LCA,,,,,,,,,,,,,,,,,,,,,,,,,,,,,,,,,,,,,,,,,1.35333333333333E+07,1.27851851851852E+07,1.40081481481482E+07,1.00525925925926E+07,1.03266666666667E+07,1.67885185185185E+07,,,,,,
LKA,,,,,,,,,,,,,,,,,,,,,,,,,,,,,,,,,,,,,,,,,,1.06020000000000E+08,1.18940000000000E+08,1.17820000000000E+08,1.14810000000000E+08,1.26340000000000E+08,1.65900000000000E+08,2.47200000000000E+08,3.10500000000000E+08,3.24700000000000E+08,3.48500000000000E+08,
LSO,,,,,,,,,,,,,,,,,,,,,,,,,,,,,,,,,,,,,,,,,,,,,,1.86016562112813E+06,5.30599997162003E+06,4.70928022846063E+06,5.80548601326166E+06,2.68043647705143E+06,2.16158684116554E+06,
LTU,,,,,,,,,,,,,,,,,,,,,,,,,,,,,,,,,,,9.66311365379698E+06,2.42225000000000E+07,2.64500000000000E+07,4.33675000000000E+07,3.37750000000000E+07,4.42825000000000E+07,5.08450000000000E+07,6.11500000000000E+07,5.82005860253486E+07,8.81415930534726E+07,9.51523113533907E+07,1.05196315907404E+08,1.05878865703468E+08,1.23817709783685E+08,1.48645700402729E+08,1.44712667459938E+08,1.52063464681426E+08,
LUX,,,,,,,,,,,,,,,,,,,,,,,,,,,,,,,,,,,,4.83774249103867E+08,6.47490287284836E+08,6.46182097939224E+08,6.60682287047916E+08,7.87836156560251E+08,8.55275655815982E+08,9.08303577595896E+08,9.92962283190873E+08,2.02722034867303E+09,3.23435445302164E+09,3.50633709576952E+09,3.64730470954554E+09,3.49429365396549E+09,4.06857808969465E+09,4.36706386660353E+09,3.39494871009418E+09,
LVA,,,,,,,,,,,,,,,,,,,,,,,,,,,,,,,,,6.78880000000000E+04,4.22200000000000E+06,5.47700000000000E+06,5.48200000000000E+06,3.04400000000000E+07,3.95480000000000E+07,4.00000000000000E+07,5.19000000000000E+07,3.98000000000000E+07,4.49000000000000E+07,5.02000000000000E+07,6.89000000000000E+07,9.59000000000000E+07,1.15300000000000E+08,1.54900000000000E+08,1.79800000000000E+08,2.37900000000000E+08,2.26300000000000E+08,2.27800000000000E+08,
MAR,,,,,,,,,,,,,,,,,,,,,,,,,,,,,,,,,,,,,,,,,,,,,,,,,7.96115879398305E+08,9.26985644820337E+08,1.00960090548846E+09,
MDA,,,,,,,,,,,,,,,,,,,,,,,,,,,,,,,,,,,2.16200000000000E+06,3.89000000000000E+06,5.42000000000000E+06,8.88000000000000E+06,1.50700000000000E+07,1.67300000000000E+07,1.72900000000000E+07,1.78700000000000E+07,2.08300000000000E+07,2.55900000000000E+07,4.79700000000000E+07,6.30100000000000E+07,7.91600000000000E+07,9.99400000000000E+07,1.40830000000000E+08,1.34960000000000E+08,1.59440000000000E+08,
MDG,,,,,,,,,,,,,,,,,,,,,,,,,,,,,,,,,,,,,,,,,,,,6.78306210000001E+06,7.55264200000001E+06,2.31936550000000E+06,,,,,,
MKD,,,,,,,,,,,,,,,,,,,,,,,,,,,,,,,,,,,,,1.77700000000000E+07,1.63400000000000E+07,1.88156595904358E+07,3.22331615000218E+07,4.03617327856977E+07,3.45669589540284E+07,4.02322445998568E+07,5.95367266000000E+07,5.69021500000000E+07,6.16615634000000E+07,8.45804176000000E+07,1.02878816300000E+08,1.30080709000000E+08,1.22990568400000E+08,1.28909305300000E+08,
MLI,,,,,,,,,,,,,,,,,,,,,,,,,,,,,,,,,,,,,,,5.55977647902753E+05,,,,1.04334620906320E+07,,3.77977932514650E+07,,,,1.05175183665544E+08,,,
MLT,,,,,,,,,,,,,,,,,,,,,,,,,,,,,,,,,,,,,2.03462826475917E+07,,1.53718923505430E+07,2.19612462103544E+07,2.72428499003157E+07,2.77404488100897E+07,3.18471102059996E+07,3.68699548157379E+07,6.39491394502393E+07,1.07134247712096E+08,1.08341615791190E+08,1.24949829804424E+08,1.25298956406546E+08,1.10410411192069E+08,1.02308473911671E+08,
MNG,,,,,,,,,,,,,,,,,,,,,,,,,,,,,,,,,,,,,,,,,,,7.12559000000000E+06,6.60000000000000E+06,6.00000000000000E+06,1.52300000000000E+07,1.80600000000000E+07,2.06007000000000E+07,1.92309800000000E+07,1.24802784300000E+07,9.80683000000000E+06,
MOZ,,,,,,,,,,,,,,,,,,,,,,,,,,,,,,,,,,,,,,,,,,,1.10059230000000E+07,7.45308800000000E+06,9.46680926000000E+06,1.23937207000000E+07,1.79904506900000E+07,2.28719930813100E+07,3.40935014248550E+07,3.54211274450000E+07,4.55594718479000E+07,
MUS,,,,,,,,,,,,,,,,,,,,,,,,,,,,,,,,,,,,,,,,,1.87697478426386E+07,3.78121379509345E+07,3.69900790088445E+07,2.96844426660537E+07,3.22594702419397E+07,3.68190276299331E+07,5.03919613667793E+07,6.23141101046998E+07,9.26684602605045E+07,8.20810006739778E+07,1.02624100596571E+08,
MYS,,,,,,,,,,,,,,,,,,,,,,,,,,,,,,,,,,,,,,,,1.90789473684210E+08,2.62368421052632E+08,4.18684210526316E+08,4.16315789473684E+08,4.17210526315790E+08,7.43015789473684E+08,1.05010843340073E+09,1.12532643081477E+09,1.45911774868820E+09,1.62756235555740E+09,2.01382198520122E+09,,
NAC,,,,,,,,,,,,,,,,,,,,,,,,,,,,,,,,,,,,8.24444165918688E+09,8.39654844339922E+09,1.02026743222565E+10,1.23784413280878E+10,1.36772026538513E+10,1.35568261757650E+10,1.38535735289937E+10,1.32901885841853E+10,1.54405400601856E+10,1.65421922599397E+10,1.79330410997546E+10,2.39230998392670E+10,2.73784314928330E+10,3.09170718161701E+10,3.05809149284645E+10,3.29447199257746E+10,
NAM,,,,,,,,,,,,,,,,,,,,,,,,,,,,,,,5.48830273271741E+06,5.21490666584580E+06,,8.29318944258623E+06,8.81491908627121E+06,9.12578558263730E+06,8.09424837363950E+06,7.81256499167925E+06,6.15019036195830E+06,5.89253141070906E+06,6.07010949375265E+06,,,8.55599933532501E+06,1.55016476734412E+07,1.67973400349708E+07,1.68576025629322E+07,1.61956048002892E+07,1.29643477825880E+07,1.26623376171528E+07,1.46214798913704E+07,
NCL,,,,,,,,,,,,,,,,,,,,,,,,,,,,,,,,,,,,,,,,,,,5.48124128401486E+06,5.75038976523080E+06,5.68125212757010E+06,1.31860178300649E+06,5.44866444295008E+06,2.39475702190696E+06,2.92249968553170E+06,1.12968940678258E+06,3.46540801466775E+06,
NER,,,,,,,,,,,,,,,,,,,,,,,,,,,,,,,,,,,,,,,,3.81679927412985E+05,2.05063012972890E+05,1.13950357579269E+07,2.28841749650137E+07,1.63540861442505E+07,2.92966970228828E+07,2.25625000515149E+07,2.97003131529077E+07,,1.52164359738633E+07,1.28085040129627E+07,,
NLD,,,,,,,,,,,,,,,,,,,,,,,,,,,,,,,,,,,,1.25345910840071E+09,1.28586574937360E+09,1.46858804639083E+09,1.88230562697906E+09,2.51950352548004E+09,2.60766688163085E+09,2.71876251479246E+09,2.90847425422214E+09,5.47268554317189E+09,7.01282162171557E+09,7.48439137151822E+09,8.76142795687329E+09,1.06189741567018E+10,1.11974552587154E+10,1.05482261091413E+10,1.12554012977010E+10,
NOR,,,,,,,,,,,,,,,,,,,,,,,,,,,,,,,,,2.77576598066807E+08,2.81359410451482E+08,2.40992149207326E+08,2.83231157629429E+08,3.38484490224242E+08,3.53843127063539E+08,6.14808599879249E+08,6.55471356918196E+08,9.51538760975361E+08,9.10920240440429E+08,6.62116398078914E+08,6.82459699676539E+08,8.87411564752407E+08,1.27690743266091E+09,1.77593151975433E+09,2.40915681114730E+09,2.95263355940482E+09,3.32569445690925E+09,3.76059377335708E+09,
NZL,,,,,,,,,,,,,,,,,,,,,,,,,,,,,,,,,,,,,,,,2.56942525328760E+08,2.74402466488219E+08,3.03943710039590E+08,3.33799431588917E+08,3.38354707577720E+08,3.92459600013788E+08,4.66643066647881E+08,3.42932180740926E+08,4.03922122980699E+08,4.25487613640037E+08,3.54406812039866E+08,4.19298729616545E+08,
OEC,,,,,,,,,,,,,,,,,,,,,,,,,,,,,,,,,,,,,2.81891643668336E+10,3.48152604043753E+10,4.66074603002389E+10,5.21749902900547E+10,5.86743763946230E+10,6.27141877905562E+10,7.16654748195380E+10,8.85482061923264E+10,1.09178403889204E+11,1.18370073704990E+11,1.41564320800312E+11,1.69553597240468E+11,2.01494551447396E+11,1.91042313244934E+11,2.01078068460055E+11,
OED,,,,,,,,,,,,,,,,,,,,,,,,,,,,,,,,,,,,,2.84088643668336E+10,3.50331604043753E+10,4.68362603002389E+10,5.23878902900547E+10,5.89150763946230E+10,6.28817436474222E+10,7.18901738195380E+10,8.87876761923264E+10,1.09411641889204E+11,1.18592036704990E+11,1.42213600800312E+11,1.70307321514126E+11,2.02532882790720E+11,1.91924381444563E+11,2.01868619049208E+11,
PAK,,,,,,,,,,,,,,,,,,,,,,,,,,,,,,,,,,,,,,2.84642329908579E+08,3.11000000000000E+08,2.91000000000000E+08,2.12000000000000E+08,2.21000000000000E+08,3.53000000000000E+08,2.24000000000000E+08,2.71000000000000E+08,3.43000000000000E+08,2.44000000000000E+08,2.54000000000000E+08,2.78000000000000E+08,4.66000000000000E+08,4.35000000000000E+08,
PAN,,,,,,,,,,,,,,,,,,,,,,,,,,,,,,,,,,,,,,,,,,,,,1.17700000000000E+08,1.38500000000000E+08,1.75300000000000E+08,2.33500000000000E+08,2.53600000000000E+08,2.64700000000000E+08,2.74100000000000E+08,
PER,,,,,,,,,,,,,,,,,,,,,,,,,,,,,,,,,,,,,,,,,,,,,,,,1.01770581350000E+08,1.45248880000000E+08,1.09712000000000E+08,1.22754200000000E+08,
PHL,,,,,,,,,,,,,,,,,,,,,,,,,,,,,,,,,,,,,,,,1.96000000000000E+08,2.58000000000000E+08,3.50000000000000E+08,4.15000000000000E+08,4.61000000000000E+08,5.20000000000000E+08,6.11000000000000E+08,6.70000000000000E+08,8.22000000000000E+08,1.55200000000000E+09,2.10200000000000E+09,1.80800000000000E+09,
PNG,,,,,,,,,,,,,,,,,,,,,,,,,,,,,,,,,,,,,,,,,,,,5.33190718847376E+05,4.12717904886786E+06,6.60874653670961E+06,1.49178791005879E+07,1.34217060123679E+07,4.29615574305285E+06,2.25033664310266E+06,2.31677766871489E+06,
POL,,,,,,,,,,,,,,,,,,,,,,,,,,,,,,,,,,,2.11000000000000E+08,3.14000000000000E+08,3.43000000000000E+08,4.06000000000000E+08,4.60000000000000E+08,4.07000000000000E+08,2.95000000000000E+08,2.85000000000000E+08,2.63000000000000E+08,3.77000000000000E+08,4.93000000000000E+08,5.04000000000000E+08,8.03000000000000E+08,1.16900000000000E+09,1.56300000000000E+09,1.53100000000000E+09,2.10000000000000E+09,
PRT,,,,,,,,,,,,,,,,,,,,,,,,,,,,,,,,,,3.71429505378822E+08,3.57296597891668E+08,3.67879782214605E+08,3.22311060413229E+08,3.24522703204241E+08,2.63238065378734E+08,2.55124546016035E+08,2.36601866411088E+08,2.47851509080923E+08,3.12281498480611E+08,4.51631382613256E+08,5.90628980441240E+08,6.84542744414891E+08,8.05129845862790E+08,1.07475525980585E+09,1.23801706325938E+09,1.04956280969347E+09,9.83365968914218E+08,
PRY,,,,,,,,,,,,,,,,,,,,,,,,,,,,,,,,,2.03000000000000E+07,,4.91000000000000E+07,1.55000000000000E+07,1.12000000000000E+07,1.42000000000000E+07,1.03000000000000E+07,1.18000000000000E+07,1.07000000000000E+07,1.18000000000000E+07,1.34000000000000E+07,1.32000000000000E+07,1.64000000000000E+07,1.74000000000000E+07,1.94000000000000E+07,1.66000000000000E+07,1.34000000000000E+07,2.04000000000000E+07,2.09000000000000E+07,
PYF,,,,,,,,,,,,,,,,,,,,,,,,,,,,,,,,,,,,,,,,,,,,,,,,,,4.19224659864072E+07,2.41700009079794E+07,
ROM,,,,,,,,,,,,,,,,,,,,,,,,,,,,,,,,,,,4.60000000000000E+07,6.80000000000000E+07,7.80000000000000E+07,8.90000000000000E+07,1.07000000000000E+08,1.16000000000000E+08,1.89000000000000E+08,1.85000000000000E+08,2.45000000000000E+08,3.46000000000000E+08,4.39000000000000E+08,1.00543000000000E+09,1.57579000000000E+09,1.70100000000000E+09,2.03300000000000E+09,1.87800000000000E+09,1.46200000000000E+09,
RUS,,,,,,,,,,,,,,,,,,,,,,,,,,,,,,,,,,,,,,,,4.97750000000000E+08,4.44520000000000E+08,5.64530000000000E+08,6.20670000000000E+08,6.17900000000000E+08,7.26530000000000E+08,1.07966000000000E+09,1.43503000000000E+09,2.36840000000000E+09,3.13651000000000E+09,2.62738000000000E+09,2.71024000000000E+09,
RWA,,,,,,,,,,,,,,,,,,,,,,,,,,,,,,,,,,,,,,,,,,,,,,,,,,3.72058656901374E+05,1.35844820787353E+07,
SDN,,,,,,,,,,,,,,,,,,,,,,,,,,,,,,,,,,,,,,,,,,,4.55000000000000E+06,,,,7.94000000000000E+06,2.09438459654176E+07,5.83000000000000E+06,,6.55762085728401E+07,
SEN,,,,,,,,,,,,,,,,,,,,,,,,,,,,,,,,,,,,,3.64693800595601E+07,,5.06854988645979E+07,4.95160678597433E+07,5.22896637669022E+07,5.85167076303453E+07,5.65734108492449E+07,7.84617607943304E+07,9.33057304162266E+07,1.05460397476315E+08,1.44634596466717E+08,1.85800483645541E+08,2.02192803402040E+08,1.31458708597327E+08,,
SGP,,,,,,,,,,,,,,,,,,,,,,,,,,,,,,,,,,,,,,,,,6.80102228696495E+08,6.99791486074118E+08,7.29805659374999E+08,8.14148842176278E+08,9.79631148396602E+08,1.07361177185976E+09,1.62506061639872E+09,1.95544996850668E+09,2.76388394312163E+09,2.64151593003063E+09,3.13752172070625E+09,
SLB,,,,,,,,,,,,,,,,,,,,,,,,,,,,,,,,,,,,,,,2.42957898199603E+06,2.29426932172649E+06,1.82749585415535E+06,2.10307534001825E+06,1.44202083751202E+05,7.56986754804947E+04,2.77515573842324E+05,1.51856564676256E+06,6.05207641643390E+06,6.93759836749695E+06,7.11086105644234E+06,2.50918776441628E+06,2.67326832325520E+06,
SLV,,,,,,,,,,,,,,,,,,,,,,,,,,,,,,,,,,,,,,,,,9.02000000000000E+07,1.09000000000000E+08,9.35000000000000E+07,1.23300000000000E+08,1.39700000000000E+08,,1.36400000000000E+08,,1.54590000000000E+08,1.41030000000000E+08,1.72740000000000E+08,
SRB,,,,,,,,,,,,,,,,,,,,,,,,,,,,,,,,,,,,,,,,,,,,,,,,1.93646610985393E+08,2.70697167570556E+08,2.80266902918520E+08,3.25618414692077E+08,
SVK,,,,,,,,,,,,,,,,,,,,,,,,,,,,,,,,,,,,,2.83874876268064E+07,4.15527644442300E+07,6.19289555210760E+07,8.72792654112084E+07,1.03415375437169E+08,,1.28758958691420E+08,1.59899030112096E+08,1.98423518148975E+08,2.30017383196120E+08,4.28936877432845E+08,4.67311703715941E+08,6.15666786935931E+08,5.02478147444408E+08,5.33531214357969E+08,
SVN,,,,,,,,,,,,,,,,,,,,,,,,,,,,,,,,,,9.70000000000000E+06,1.79000000000000E+07,2.37000000000000E+07,4.33000000000000E+07,5.40000000000000E+07,7.24000000000000E+07,7.87000000000000E+07,7.87000000000000E+07,9.79000000000000E+07,1.37000000000000E+08,1.58200000000000E+08,1.87700000000000E+08,2.24700000000000E+08,2.39240995632193E+08,2.93459706230704E+08,4.99503965488825E+08,4.33443989300867E+08,4.46692754721747E+08,
SWE,,,,,,,,,,,,,,,,,,,,,,,,,,,,,,,,,,,,,,1.12700998414877E+09,1.50963908048927E+09,1.45292536846240E+09,1.72410030358165E+09,2.23036391721150E+09,2.15244022096935E+09,2.35379920685570E+09,3.54646366557928E+09,3.73359736412216E+09,5.02633377744253E+09,8.02699105881531E+09,9.80860466851766E+09,9.24983150470895E+09,9.06354966070924E+09,
SWZ,,,,,,,,,,,,,,,,,,,,,,,,,,,,,,,,,,,1.71685334612545E+07,1.48819230869969E+07,1.24644447153726E+07,1.23347380276963E+07,2.58181373635973E+06,3.39062995089192E+06,3.50167163116667E+06,2.82268434946918E+06,2.40894604556793E+06,1.30526469317831E+06,6.43683890525749E+05,1.32531291957720E+07,2.01637759158755E+06,6.41695639615549E+06,6.04561794116852E+04,,2.30835782464636E+07,
SYC,,,,,,,,,,,,,,,,,,,,,,,,,,,,,,,,,,,,,,,,,,,,,,1.27798009090909E+07,1.30471108914593E+07,,,,,
SYR,,,,,,,,,,,,,,,,,,,,,,,,,,,,,,,,,,,,,,,,,,,,9.00000000000000E+07,1.15000000000000E+08,1.85000000000000E+08,1.70000000000000E+08,1.71586000000000E+08,1.75985630412371E+08,1.73216886656798E+08,1.41100898935536E+08,
TGO,,,,,,,,,,,,,,,,,,,,,,,,,,,,,,,,,,,,,6.31215845906516E+06,7.31064572190101E+06,,,,8.99952722315859E+06,7.15507088091056E+06,9.06400061103751E+06,1.17909882894318E+07,1.21239549474362E+07,,,5.26523521267609E+07,,,
TJK,,,,,,,,,,,,,,,,,,,,,,,,,,,,,,,,,,,,,,,,,,,6.58530000000000E+06,1.03811000000000E+07,1.25572000000000E+07,1.35708000000000E+07,1.64199000000000E+07,1.87580000000000E+07,3.91680000000000E+07,3.52650000000000E+07,7.74072000000000E+07,
TON,,,,,,,,,,,,,,,,,,,,,,,,,,,,,,,,,,,,,,,,,,,,,,4.65148969298830E+06,8.04693659642039E+05,1.81886868097426E+06,1.07889887117444E+06,9.06752693310776E+05,,
TUN,,,,,,,,,,,,,,,,,,,,,,,,,,,,,,,,,,,,2.85487708168121E+07,1.84917258087990E+07,1.80846815212232E+07,2.01980284967837E+07,2.44473013129887E+07,3.21007769847157E+07,3.40582291458509E+07,2.95414048579199E+07,2.87164893445009E+07,3.21164757520608E+07,6.44349099504149E+07,9.63918784395484E+07,1.46329090873617E+08,2.00950918793159E+08,2.68019477513840E+08,3.44627637278189E+08,
TUR,,,,,,,,,,,,,,,,,,,,,,,,,,,,,,,,,,,,,,,,,,,,,,,4.28000000000000E+08,5.21000000000000E+08,7.38000000000000E+08,6.45000000000000E+08,5.54000000000000E+08,
TZA,,,,,,,,,,,,,,,,,,,,,,,,,,,,,,,,,,,,,,,1.65811304324000E+07,2.49000309261000E+07,2.72000504076000E+07,1.09732368800000E+07,1.46955998400000E+07,2.04590791847778E+07,3.15711634610148E+07,3.40141188400667E+07,3.82375533669163E+07,4.30215710741327E+07,4.39946582513369E+07,5.06918452414503E+07,4.35312184430025E+07,
UGA,,,,,,,,,,,,,,,,,,,,,,,,,,,,,,,,,,,,,,,,,,,9.25281364000000E+06,1.73589883404673E+07,2.65665809847793E+07,5.06808419332328E+07,5.56316433232379E+07,3.66056916736559E+07,5.60911073713925E+07,5.86521715704400E+07,6.84616920306353E+07,
UKR,,,,,,,,,,,,,,,,,,,,,,,,,,,,,,,,,,,,,,,,,9.50000000000000E+07,1.00000000000000E+08,9.90000000000000E+07,1.00000000000000E+08,1.55000000000000E+08,2.47000000000000E+08,3.80000000000000E+08,5.04000000000000E+08,5.97000000000000E+08,7.77000000000000E+08,9.47000000000000E+08,
URY,,,,,,,,,,,,,,,,,,,,,,,,,,,,,,,,,,,,,,,,5.75000000000000E+07,3.74860000000000E+07,5.60599609732643E+07,4.36418096597467E+07,3.47516444118214E+07,9.64951177300000E+07,1.04088760750000E+08,1.43608906900000E+08,1.74459760265714E+08,2.06458327550000E+08,1.72174063500000E+08,2.05522143500000E+08,
USA,,,,,,,,,,,,,,,,,,,,,,,,,,,3.06000000000000E+09,3.05200000000000E+09,3.81100000000000E+09,3.99000000000000E+09,4.26000000000000E+09,5.66000000000000E+09,4.48600000000000E+09,4.60500000000000E+09,5.40600000000000E+09,5.95590000000000E+09,6.32600000000000E+09,7.64800000000000E+09,9.51310000000000E+09,1.02197560000000E+10,9.74972700000000E+09,1.00131640000000E+10,9.51840400000000E+09,1.09479240000000E+10,1.16469510000000E+10,1.23752760000000E+10,1.75049420000000E+10,2.05498280000000E+10,2.34210060000000E+10,2.37601890000000E+10,2.50918920000000E+10,
VCT,,,,,,,,,,,,,,,,,,,,,,,,,,,,,,,,,,,,,,,,,,,,,,,,,,8.50853740740741E+06,9.10280666666667E+06,
VEN,,,,,,,,,,,,,,,,,,,,,,,,,,,,,,,,,,,,,,1.78000000000000E+08,1.40000000000000E+08,1.31000000000000E+08,1.13000000000000E+08,8.70000000000000E+07,5.90000000000000E+07,5.40000000000000E+07,6.10000000000000E+07,9.10000000000000E+07,1.38000000000000E+08,1.44000000000000E+08,1.61000000000000E+08,1.49000000000000E+08,1.53000000000000E+08,
WBG,,,,,,,,,,,,,,,,,,,,,,,,,,,,,,,,,,,,,,,,,1.82837755652558E+06,4.42033712371483E+06,4.86733383617731E+06,9.35034372411514E+06,1.50595607134521E+07,2.54339944299055E+07,3.53789641549539E+07,2.69310000000000E+07,2.68040000000000E+07,3.44810000000000E+07,,
WSM,,,,,,,,,,,,,,,,,,,,,,,,,,,,,,,,,,,,,,,,,,,,,2.60407115054131E+06,6.06125863131315E+06,8.02105187740111E+06,7.44508702079574E+06,,5.88449074080047E+06,6.35357289066598E+06,
ZAF,,,,,,,,,,,,,,,,,,,,,,,,,,,,,,,,,,,,,,,,,,1.38473928046017E+08,1.37884021064746E+08,2.02647039663372E+08,2.77545357615361E+08,3.02394650806492E+08,3.89091449488027E+08,4.55798361942426E+08,4.13305758046334E+08,4.64453868663835E+08,5.11766523115590E+08,
ZMB,,,,,,,,,,,,,,,,,,,,,,,,,,,,,,,,,,,,,,,,,,,,,,,2.12000000000000E+07,2.36200000000000E+07,2.39600000000000E+07,,,
ZWE,,,,,,,,,,,,,,,,,,,,,,,,,,,,,,,,,,,8.18743884172936E+06,,,,,,,,,,,,,,,,,
