"Country Code",1960,1961,1962,1963,1964,1965,1966,1967,1968,1969,1970,1971,1972,1973,1974,1975,1976,1977,1978,1979,1980,1981,1982,1983,1984,1985,1986,1987,1988,1989,1990,1991,1992,1993,1994,1995,1996,1997,1998,1999,2000,2001,2002,2003,2004,2005,2006,2007,2008,2009,2010,2011ABW,,,,,,,,,,,,,,,,,,,,,,,,,,,,,,,,,,,,,,,,,1.00000000000000E+02,9.30653149379000E+01,8.88642346846000E+01,9.64956986743000E+01,1.03807207212600E+02,1.20490294037100E+02,1.25295569603000E+02,1.25529875168600E+02,1.39837839351800E+02,1.01403035800200E+02,9.99318718880000E+01,
ADO,,,,,,,,,,,,,,,,,,,,,,,,,,,,,,,,,,,,,,,,,1.00000000000000E+02,1.00250455697600E+02,1.01438487626000E+02,9.99749003614000E+01,9.63176114689000E+01,,,,,,,
AFG,,,,,,,,,,,,,,,,,,,,,,,,,,,,,,,,,,,,,,,,,1.00000000000000E+02,9.82904455543000E+01,1.02940379475400E+02,1.09313847627600E+02,1.11063579257000E+02,1.08376770253100E+02,1.10475415384600E+02,1.13427951633900E+02,1.03027696711300E+02,1.04793018351600E+02,1.05919363940400E+02,
AGO,,,,,,,,,,,,,,,,,,,,,,,,,,1.18867924528300E+02,8.52941176471000E+01,8.49315068493000E+01,1.06666666666700E+02,1.21311475409800E+02,9.42528735632000E+01,6.35761589404000E+01,6.66666666667000E+01,6.17021276596000E+01,6.85714285714000E+01,8.07692307692000E+01,8.65384615385000E+01,6.83168316832000E+01,4.43298969072000E+01,6.00000000000000E+01,1.00000000000000E+02,9.13809997870000E+01,9.24403544034000E+01,1.01891799658200E+02,1.25665374149000E+02,1.72413786607000E+02,1.98348219688100E+02,2.03599109698900E+02,2.51607823780300E+02,1.71733361638000E+02,2.13430003243800E+02,
ALB,,,,,,,,,,,,,,,,,,,,,,,,,,,,,,,,,,,,,,,,,1.00000000000000E+02,9.99643926029000E+01,9.93903947936000E+01,9.50814661055000E+01,9.47915347944000E+01,9.42634364335000E+01,9.39275978659000E+01,9.27522686823000E+01,9.35546200983000E+01,9.70326180632000E+01,9.95398994823000E+01,
ARE,,,,,,,,,,,,,,,,,,,,,,,,,,,,,,,,,,,,,,,,,1.00000000000000E+02,9.35949366701000E+01,9.17367305118000E+01,1.01214415669900E+02,1.14224624662300E+02,1.38969922267100E+02,1.49599929073400E+02,1.51844494184800E+02,1.75654017434200E+02,1.45229211710700E+02,1.60038175567800E+02,
ARG,,,,,,,,,,,,,,,,,,,,,1.06250000000000E+02,8.68131868132000E+01,7.90697674419000E+01,8.39080459770000E+01,8.37209302326000E+01,9.41176470588000E+01,9.13043478261000E+01,8.21782178218000E+01,7.50000000000000E+01,6.90909090909000E+01,6.35593220339000E+01,9.20792079208000E+01,9.32692307692000E+01,9.60784313725000E+01,9.72477064220000E+01,9.15966386555000E+01,1.00000000000000E+02,1.00000000000000E+02,9.51923076923000E+01,9.10000000000000E+01,1.00000000000000E+02,9.93198556528000E+01,9.87291242402000E+01,1.07219688361800E+02,1.09205297932500E+02,1.06888547049500E+02,1.13351856453400E+02,1.17549581305900E+02,1.33215071863100E+02,1.27051942306200E+02,1.26571130051300E+02,
ARM,,,,,,,,,,,,,,,,,,,,,,,,,,,,,,,,,,,,,,,,,1.00000000000000E+02,9.90521910127000E+01,1.00196288355500E+02,9.85201098218000E+01,1.05098134760300E+02,1.04973687647100E+02,1.14100280826200E+02,1.13419368660900E+02,1.15737921817800E+02,1.13785076961200E+02,1.27830573533600E+02,
ASM,,,,,,,,,,,,,,,,,,,,,,,,,,,,,,,,,,,,,,,,,1.00000000000000E+02,1.03068007005800E+02,1.02487530848600E+02,1.13664554548200E+02,1.20776663996000E+02,1.10724893205600E+02,1.64018311110200E+02,1.70912992592900E+02,1.47170130239400E+02,1.35195667217100E+02,1.36396362611900E+02,
ATG,,,,,,,,,,,,,,,,,,,,,,,,,,,,,,,,,,,,,,,,,1.00000000000000E+02,9.24912857349000E+01,9.40113202952000E+01,8.90063600558000E+01,8.55783979757000E+01,7.87980890152000E+01,7.97806288924000E+01,8.09525941673000E+01,8.25078137066000E+01,8.27429580692000E+01,7.25969831324000E+01,
AUS,,,,,,,,,,,,,,,,,,,,,1.20559600000000E+02,1.20392300000000E+02,1.17838500000000E+02,1.16701600000000E+02,1.14238500000000E+02,1.08158900000000E+02,1.00192500000000E+02,9.82971200000000E+01,1.12506800000000E+02,1.19866600000000E+02,1.16352100000000E+02,1.05185000000000E+02,1.02717900000000E+02,9.62698700000000E+01,9.58881300000000E+01,9.94148900000000E+01,1.00709800000000E+02,1.02623600000000E+02,9.92970100000000E+01,9.42857000000000E+01,1.00000000000000E+02,1.04075100000000E+02,1.05849500000000E+02,1.05923700000000E+02,1.16175500000000E+02,1.31084900000000E+02,1.45516100000000E+02,1.52391100000000E+02,1.74630500000000E+02,1.62964200000000E+02,1.78864700000000E+02,
AZE,,,,,,,,,,,,,,,,,,,,,,,,,,,,,,,,,,,,,,,,,1.00000000000000E+02,8.72014190190000E+01,9.01018628459000E+01,9.50535755452000E+01,1.10479971525000E+02,1.36349401649100E+02,1.49858141275100E+02,1.52670702755800E+02,1.88333444194800E+02,1.27015505778900E+02,1.57025620924800E+02,
BDI,,,,,,,,,,,,,,,,,,,,,2.30921052631600E+02,1.70860927152300E+02,1.81818181818200E+02,2.12132352941200E+02,2.65502183406100E+02,2.43145161290300E+02,2.96226415094300E+02,1.79084967320300E+02,2.17891373801900E+02,1.77500000000000E+02,1.28279883381900E+02,1.36391437308900E+02,9.79452054795000E+01,1.20408163265300E+02,1.71369294605800E+02,1.63568773234200E+02,1.18942731277500E+02,1.09543568464700E+02,1.21176470588200E+02,1.15929203539800E+02,1.00000000000000E+02,8.55548910440000E+01,8.65657928350000E+01,8.95902954746000E+01,9.28132266809000E+01,1.12223380932400E+02,1.19707899221500E+02,1.19057225471300E+02,1.27663327582800E+02,1.31301313030800E+02,1.54337834613000E+02,
BEL,,,,,,,,,,,,,,,,,,,,,,,,,,,,,,,,,,1.06348500000000E+02,1.05594300000000E+02,1.04322400000000E+02,1.03220100000000E+02,1.02363400000000E+02,1.04231500000000E+02,1.02379300000000E+02,1.00000000000000E+02,9.97887800000000E+01,1.01283800000000E+02,1.00528100000000E+02,1.00662100000000E+02,9.93622000000000E+01,9.87397000000000E+01,1.00751800000000E+02,9.95686400000000E+01,1.02955400000000E+02,1.00810500000000E+02,
BEN,,,,,,,,,,,,,,,,,,,,,8.63636363636000E+01,7.38461538462000E+01,9.34210526316000E+01,9.42857142857000E+01,9.84848484848000E+01,9.39393939394000E+01,8.25581395349000E+01,7.88461538462000E+01,8.62385321101000E+01,8.21782178218000E+01,1.07000000000000E+02,9.42307692308000E+01,8.51851851852000E+01,8.23529411765000E+01,8.05309734513000E+01,1.06611570247900E+02,9.41666666667000E+01,9.90990990991000E+01,9.91304347826000E+01,1.00000000000000E+02,1.00000000000000E+02,8.81466019065000E+01,8.84177344934000E+01,1.00598458282000E+02,9.73453100707000E+01,8.97131405585000E+01,9.42124352433000E+01,9.67936436895000E+01,8.64054378524000E+01,8.30864375542000E+01,9.91990353466000E+01,
BFA,,,,,,,,,,,,,,,,,,,,,6.49572649573000E+01,6.33663366337000E+01,6.37254901961000E+01,7.30000000000000E+01,8.52631578947000E+01,8.51063829787000E+01,9.65517241379000E+01,1.06796116504900E+02,1.12727272727300E+02,1.18750000000000E+02,1.18803418803400E+02,1.14159292035400E+02,1.15584415584400E+02,1.10000000000000E+02,1.21782178217800E+02,1.30973451327400E+02,1.22608695652200E+02,1.21698113207500E+02,1.24489795918400E+02,1.12371134020600E+02,1.00000000000000E+02,9.13960965463000E+01,9.05996617431000E+01,1.11042063362300E+02,1.02827024804200E+02,8.61948226898000E+01,8.80770123655000E+01,8.93305223154000E+01,8.07331305276000E+01,8.50050262148000E+01,1.08529346066400E+02,
BGD,,,,,,,,,,,,,,,,,,,,,1.36666666666700E+02,1.32758620689700E+02,1.37735849056600E+02,1.29629629629600E+02,1.35849056603800E+02,1.62264150943400E+02,1.32727272727300E+02,1.28813559322000E+02,1.28571428571400E+02,1.24615384615400E+02,1.17391304347800E+02,1.26865671641800E+02,1.23529411764700E+02,1.24242424242400E+02,1.14285714285700E+02,1.11842105263200E+02,1.10975609756100E+02,1.14285714285700E+02,1.13793103448300E+02,1.08695652173900E+02,1.00000000000000E+02,1.03525335538500E+02,1.01678199311800E+02,9.33403026467000E+01,8.67241290698000E+01,8.00239119740000E+01,7.51847970283000E+01,6.82024333381000E+01,5.75336008635000E+01,6.36513973540000E+01,5.65591832743000E+01,
BGR,,,,,,,,,,,,,,,,,,,,,,,,,,,,,,,,,,,,,,,,,1.00000000000000E+02,9.90835030550000E+01,9.79481712492000E+01,1.02783847770900E+02,1.03365643135600E+02,1.02315761257100E+02,1.05300359580000E+02,1.07662236804200E+02,1.09478469477600E+02,1.02651884076500E+02,1.08788788120500E+02,
BHR,,,,,,,,,,,,,,,,,,,,,,,,,,,,,,,,,,,,,,,,,1.00000000000000E+02,9.55939824120000E+01,9.23490213653000E+01,9.53697935160000E+01,1.04778498449900E+02,1.14377224642100E+02,1.26214586557600E+02,1.24725381450500E+02,1.34122723802400E+02,1.04833243943300E+02,1.13985941287200E+02,
BHS,,,,,,,,,,,,,,,,,,,,,,,,,,,,,,,,,,,,,,,,,1.00000000000000E+02,9.27424304246000E+01,9.07431346663000E+01,9.41143514958000E+01,9.46741142355000E+01,9.29237341822000E+01,9.48933356381000E+01,9.52856211311000E+01,1.02266782609100E+02,9.45280985735000E+01,9.84044946143000E+01,
BIH,,,,,,,,,,,,,,,,,,,,,,,,,,,,,,,,,,,,,,,,,1.00000000000000E+02,9.99020576693000E+01,9.99417117196000E+01,1.00918101847600E+02,1.02216230802600E+02,1.01339803376500E+02,1.04393885493700E+02,1.02635060627200E+02,1.00445539265600E+02,1.01164475135300E+02,1.02900778625800E+02,
BLR,,,,,,,,,,,,,,,,,,,,,,,,,,,,,,,,,,,,,,,,,1.00000000000000E+02,1.00215870761100E+02,9.95994402623000E+01,9.62967153853000E+01,9.58218812732000E+01,9.74691809738000E+01,9.51703276684000E+01,9.76390884732000E+01,9.94254288340000E+01,9.78651210457000E+01,9.94903171789000E+01,
BLZ,,,,,,,,,,,,,,,,,,,,,,,,,,,,,,,,,,,,,,,,,1.00000000000000E+02,9.87869955537000E+01,8.24723720620000E+01,7.85233349908000E+01,7.61509263252000E+01,7.45228795662000E+01,7.96524200274000E+01,7.40250812959000E+01,7.65154931119000E+01,7.98437942118000E+01,8.67409643332000E+01,
BMU,,,,,,,,,,,,,,,,,,,,,,,,,,,,,,,,,,,,,,,,,1.00000000000000E+02,9.73009108529000E+01,9.74859752558000E+01,9.37264588909000E+01,9.17569712146000E+01,8.57889164114000E+01,9.18755836931000E+01,9.42782449607000E+01,1.11649723597500E+02,8.73668857834000E+01,9.22322629959000E+01,
BOL,,,,,,,,,,,,,,,,,,,,,1.87500000000000E+02,1.68965517241400E+02,1.85000000000000E+02,1.59090909090900E+02,1.82926829268300E+02,1.84415584415600E+02,1.36842105263200E+02,1.33766233766200E+02,1.21686746988000E+02,1.13186813186800E+02,1.02020202020200E+02,1.01086956521700E+02,8.22916666667000E+01,7.90000000000000E+01,9.12621359223000E+01,8.93805309735000E+01,1.00000000000000E+02,1.03773584905700E+02,9.80392156863000E+01,9.79591836735000E+01,1.00000000000000E+02,9.57686005569000E+01,9.62008698290000E+01,9.85278892741000E+01,1.04052872932900E+02,1.11832468368500E+02,1.39809283448700E+02,1.42074497308700E+02,1.43917887046100E+02,1.39373060320300E+02,1.52398672477400E+02,
BRA,,,,,,,,,,,,,,,,,,,,,7.38853503185000E+01,6.19318181818000E+01,5.96491228070000E+01,5.76687116564000E+01,6.21794871795000E+01,6.20689655172000E+01,7.33870967742000E+01,6.52482269504000E+01,8.42975206612000E+01,7.42647058824000E+01,6.64429530201000E+01,7.89062500000000E+01,8.19672131148000E+01,8.72727272727000E+01,1.00952380952400E+02,1.10377358490600E+02,1.08333333333300E+02,1.14423076923100E+02,1.14285714285700E+02,1.03157894736800E+02,1.00000000000000E+02,9.96434392673000E+01,9.83784664687000E+01,9.69779433337000E+01,9.78595604642000E+01,9.91820507126000E+01,1.04415614336500E+02,1.06605523357800E+02,1.10393538246400E+02,1.07779945639900E+02,1.25068331119600E+02,
BRB,,,,,,,,,,,,,,,,,,,,,,,,,,,,,,,,,,,,,,,,,1.00000000000000E+02,9.80025518608000E+01,9.65560521195000E+01,1.00648995556200E+02,1.08039729723000E+02,1.17575778678800E+02,1.21400718358000E+02,1.18981101850600E+02,1.20087940177500E+02,1.25138310329200E+02,1.19942244332600E+02,
BRN,,,,,,,,,,,,,,,,,,,,,,,,,,,,,,,,,,,,,,,,,1.00000000000000E+02,9.83166859851000E+01,8.81968830361000E+01,1.10045998102000E+02,1.24672319722800E+02,1.64809716410300E+02,1.99264893854400E+02,1.96352717573200E+02,2.55752198085300E+02,1.74204676826400E+02,1.87249389640100E+02,
BTN,,,,,,,,,,,,,,,,,,,,,,,,,,,,,,,,,,,,,,,,,1.00000000000000E+02,1.08600840992700E+02,1.07532691393300E+02,1.07825348052200E+02,1.25829446168500E+02,1.37680309483100E+02,1.38487800157800E+02,1.23736029094200E+02,1.51436747103100E+02,1.37806309395000E+02,1.45644988519300E+02,
BWA,,,,,,,,,,,,,,,,,,,,,8.35051546392000E+01,7.42574257426000E+01,6.77419354839000E+01,6.28865979381000E+01,6.86046511628000E+01,8.28125000000000E+01,8.26666666667000E+01,8.91304347826000E+01,1.01123595505600E+02,1.02247191011200E+02,9.81308411215000E+01,9.18181818182000E+01,8.41666666667000E+01,8.54700854701000E+01,8.95652173913000E+01,8.93442622951000E+01,9.37500000000000E+01,9.81818181818000E+01,1.00000000000000E+02,1.00000000000000E+02,1.00000000000000E+02,1.00153791961500E+02,9.80455487685000E+01,9.53134822108000E+01,9.46528285248000E+01,8.98924200176000E+01,9.33141010389000E+01,1.01828801531400E+02,8.82778567620000E+01,8.80390523082000E+01,8.80573774423000E+01,
CAF,,,,,,,,,,,,,,,,,,,,,2.60606060606100E+02,2.52252252252300E+02,2.70078740157500E+02,2.60162601626000E+02,2.69369369369400E+02,2.57894736842100E+02,2.34615384615400E+02,2.43670886075900E+02,2.78014184397200E+02,2.95774647887300E+02,2.37500000000000E+02,2.68939393939400E+02,2.80740740740700E+02,2.73846153846200E+02,2.00000000000000E+02,1.92968750000000E+02,1.66923076923100E+02,1.50000000000000E+02,1.23684210526300E+02,1.07142857142900E+02,1.00000000000000E+02,9.72680470471000E+01,9.43468716980000E+01,9.92911702864000E+01,1.00062808785800E+02,9.20782735489000E+01,9.01881989119000E+01,9.03396196954000E+01,8.28258207729000E+01,8.54052141531000E+01,8.83905873634000E+01,
CAN,,,,,,,,,,,,,,,,,,,,,1.14061100000000E+02,1.06834200000000E+02,1.03249100000000E+02,1.03846500000000E+02,1.02350300000000E+02,9.98626300000000E+01,9.84995900000000E+01,1.01512800000000E+02,1.03814800000000E+02,1.06010200000000E+02,1.03272300000000E+02,1.01035000000000E+02,9.92040300000000E+01,9.84203500000000E+01,9.91090200000000E+01,1.03194400000000E+02,1.04222900000000E+02,1.03075100000000E+02,1.06781600000000E+02,1.05064100000000E+02,1.00000000000000E+02,1.01143000000000E+02,1.05463000000000E+02,1.11445300000000E+02,1.15611100000000E+02,1.19720100000000E+02,1.19808300000000E+02,1.23548300000000E+02,1.26588500000000E+02,1.14848900000000E+02,1.19876000000000E+02,
CHE,,,,,,,,,,,,,,,,,,,,,,,,,,,,,8.98245800000000E+01,8.81516600000000E+01,8.96743900000000E+01,9.21339800000000E+01,9.03219100000000E+01,9.23088300000000E+01,9.62331200000000E+01,9.64108700000000E+01,9.74175300000000E+01,9.58480500000000E+01,9.87731200000000E+01,1.02637500000000E+02,1.00000000000000E+02,1.01142700000000E+02,1.02224100000000E+02,1.01661800000000E+02,1.01405600000000E+02,9.81078000000000E+01,9.63848600000000E+01,9.64223300000000E+01,9.93509400000000E+01,1.06585200000000E+02,1.06290900000000E+02,
CHL,,,,,,,,,,,,,,,,,,,,,2.43333333333300E+02,2.03225806451600E+02,1.96296296296300E+02,2.12244897959200E+02,2.02040816326500E+02,1.85714285714300E+02,1.75000000000000E+02,1.55223880597000E+02,1.42307692307700E+02,1.25252525252500E+02,1.13725490196100E+02,1.13000000000000E+02,1.10204081632700E+02,1.01041666666700E+02,1.14583333333300E+02,1.35576923076900E+02,1.09523809523800E+02,1.13000000000000E+02,1.00000000000000E+02,1.00000000000000E+02,1.00000000000000E+02,9.32868164481000E+01,9.71677958040000E+01,1.02775719432200E+02,1.24867751371800E+02,1.39760237603800E+02,1.83207245183800E+02,1.89459607265300E+02,1.64783366472300E+02,1.66745060433400E+02,2.04026879652000E+02,
CHN,,,,,,,,,,,,,,,,,,,,,1.17441860465100E+02,1.20238095238100E+02,1.17283950617300E+02,1.00000000000000E+02,9.65909090909000E+01,9.25531914894000E+01,8.51063829787000E+01,9.45054945055000E+01,9.07216494845000E+01,1.02173913043500E+02,1.02105263157900E+02,1.01030927835100E+02,1.03092783505200E+02,1.01041666666700E+02,1.02040816326500E+02,1.01941747572800E+02,1.05940594059400E+02,1.10204081632700E+02,1.10638297872300E+02,1.04123711340200E+02,1.00000000000000E+02,1.02189743305900E+02,1.02230315690400E+02,9.80158042068000E+01,9.23930018955000E+01,8.61860922810000E+01,8.25967358494000E+01,8.04613752579000E+01,7.38729957185000E+01,7.97360567404000E+01,7.57412851792000E+01,
CIV,,,,,,,,,,,,,,,,,,,,,2.02816901408500E+02,1.87096774193500E+02,1.79310344827600E+02,1.90566037735800E+02,2.28571428571400E+02,2.52083333333300E+02,2.59615384615400E+02,2.13333333333300E+02,1.95161290322600E+02,1.65079365079400E+02,1.43055555555600E+02,1.56060606060600E+02,1.62500000000000E+02,7.74193548387000E+01,1.22891566265100E+02,1.22000000000000E+02,1.18518518518500E+02,1.17346938775500E+02,1.16666666666700E+02,1.18181818181800E+02,1.00000000000000E+02,1.08317377888200E+02,1.40328299208600E+02,1.38729215131100E+02,1.29958860167100E+02,1.29893799574700E+02,1.31500586947500E+02,1.37051608472200E+02,1.37979052952100E+02,1.44154860759800E+02,1.56920979246900E+02,
CMR,,,,,,,,,,,,,,,,,,,,,8.02083333333000E+01,7.08571428571000E+01,1.14525139664800E+02,8.80000000000000E+01,8.03921568627000E+01,7.72058823529000E+01,1.01960784313700E+02,8.96551724138000E+01,8.46774193548000E+01,6.64383561644000E+01,8.12500000000000E+01,1.02586206896600E+02,6.44578313253000E+01,7.40000000000000E+01,8.47457627119000E+01,9.04000000000000E+01,8.22580645161000E+01,8.70689655172000E+01,8.34862385321000E+01,7.02702702703000E+01,1.00000000000000E+02,9.46708752827000E+01,1.02204760784900E+02,1.08201437658600E+02,1.14397890726500E+02,1.23877113328000E+02,1.29265329888500E+02,1.27060102796300E+02,1.30431925922700E+02,1.19723319691900E+02,1.35121584062400E+02,
COG,,,,,,,,,,,,,,,,,,,,,9.68421052632000E+01,1.00000000000000E+02,1.40625000000000E+02,1.30000000000000E+02,1.38596491228100E+02,1.11764705882400E+02,6.66666666667000E+01,7.38095238095000E+01,6.07142857143000E+01,7.62500000000000E+01,6.32478632479000E+01,6.34782608696000E+01,6.10169491525000E+01,6.23376623377000E+01,5.35714285714000E+01,5.20325203252000E+01,6.41666666667000E+01,6.36363636364000E+01,3.92000000000000E+01,6.44230769231000E+01,1.00000000000000E+02,9.14890505324000E+01,9.09830234408000E+01,9.96750300284000E+01,1.17747679760400E+02,1.55976853179500E+02,1.79698164543700E+02,1.81786254923300E+02,2.22471825662300E+02,1.52974475243800E+02,1.79179722107800E+02,
COL,,,,,,,,,,,,,,,,,,,,,1.12000000000000E+02,9.87179487179000E+01,1.01234567901200E+02,1.02631578947400E+02,1.12500000000000E+02,1.03947368421100E+02,1.30555555555600E+02,9.50000000000000E+01,8.97727272727000E+01,8.81720430108000E+01,8.12500000000000E+01,8.57142857143000E+01,7.57894736842000E+01,7.84946236559000E+01,9.08163265306000E+01,8.67924528302000E+01,8.98148148148000E+01,8.99082568807000E+01,8.25242718447000E+01,8.88888888889000E+01,1.00000000000000E+02,9.42453219043000E+01,9.24936286811000E+01,9.51875876390000E+01,1.02304471215200E+02,1.10990686950300E+02,1.15218936337900E+02,1.24414751999600E+02,1.38111814394700E+02,1.18805793644200E+02,1.33936780946500E+02,
COM,,,,,,,,,,,,,,,,,,,,,1.11200000000000E+02,8.97196261682000E+01,9.59595959596000E+01,1.17171717171700E+02,8.02197802198000E+01,9.47368421053000E+01,9.32773109244000E+01,8.57142857143000E+01,9.01315789474000E+01,8.83561643836000E+01,8.59550561798000E+01,7.78409090909000E+01,7.85714285714000E+01,6.97674418605000E+01,5.11363636364000E+01,8.61635220126000E+01,8.52564102564000E+01,8.79699248120000E+01,9.02439024390000E+01,9.66386554622000E+01,1.00000000000000E+02,6.24880179486000E+01,5.90817640167000E+01,6.71241308440000E+01,5.70246444799000E+01,5.29112242938000E+01,5.66484920804000E+01,6.28811097230000E+01,6.03098755684000E+01,6.55408784616000E+01,7.09507459510000E+01,
CPV,,,,,,,,,,,,,,,,,,,,,1.00000000000000E+02,2.18055555555600E+02,1.35714285714300E+02,1.00000000000000E+02,1.00000000000000E+02,1.00000000000000E+02,1.00000000000000E+02,1.00000000000000E+02,1.00000000000000E+02,1.00000000000000E+02,1.00000000000000E+02,1.00000000000000E+02,1.00000000000000E+02,1.00000000000000E+02,1.00000000000000E+02,1.00000000000000E+02,1.00000000000000E+02,1.00000000000000E+02,1.00000000000000E+02,1.00000000000000E+02,1.00000000000000E+02,1.00384530654800E+02,1.00396490154100E+02,9.46258114292000E+01,8.91202873499000E+01,9.67200540419000E+01,9.92852698230000E+01,9.26623009618000E+01,9.57986375453000E+01,1.16030579807700E+02,1.13971635266200E+02,
CRI,,,,,,,,,,,,,,,,,,,,,8.13725490196000E+01,7.34513274336000E+01,7.40740740741000E+01,7.35849056604000E+01,8.20000000000000E+01,8.40000000000000E+01,1.12500000000000E+02,9.25531914894000E+01,9.18367346939000E+01,8.54368932039000E+01,7.50000000000000E+01,7.96296296296000E+01,8.41121495327000E+01,8.78504672897000E+01,9.80198019802000E+01,1.04587155963300E+02,9.90825688073000E+01,1.05660377358500E+02,1.08910891089100E+02,1.07142857142900E+02,1.00000000000000E+02,9.83688112701000E+01,9.68785957245000E+01,9.54608900237000E+01,9.18584835720000E+01,8.83254165299000E+01,8.57527699974000E+01,8.49120969636000E+01,8.17079204283000E+01,8.44015847231000E+01,7.82069607409000E+01,
CUB,,,,,,,,,,,,,,,,,,,,,,,,,,,,,,,,,,,,,,,,,1.00000000000000E+02,1.14042821678600E+02,1.05061300879600E+02,1.20981099425300E+02,1.33341764824100E+02,1.29847496698600E+02,1.64003530496900E+02,1.72560465516800E+02,1.11125345562200E+02,,,
CYM,,,,,,,,,,,,,,,,,,,,,,,,,,,,,,,,,,,,,,,,,1.00000000000000E+02,9.44220134045000E+01,9.50029705982000E+01,8.68273787829000E+01,8.24165777838000E+01,8.19137712231000E+01,8.34401561336000E+01,8.15234464953000E+01,7.43317821531000E+01,7.59305313373000E+01,7.50542012684000E+01,
CYP,,,,,,,,,,,,,,,,,,,,,,,,,,,,,,,,,,,,,,,,,1.00000000000000E+02,1.00033320820900E+02,1.00356346708000E+02,1.00026832062600E+02,1.00842407082600E+02,9.98048256671000E+01,9.89595154139000E+01,9.89970282893000E+01,1.01804422671300E+02,1.03277658899200E+02,1.03944011813100E+02,
CZE,,,,,,,,,,,,,,,,,,,,,,,,,,,,,,,,,,,,,,,,,1.00000000000000E+02,1.01867814044900E+02,1.03929894756500E+02,1.05104020675300E+02,1.07234099771400E+02,1.06177606177600E+02,1.04589705786100E+02,1.07140911072400E+02,1.05624597812100E+02,1.09732148069100E+02,1.06402320688000E+02,
DEU,,,,,,,,,,,,,,,,,,,,,9.57154500000000E+01,8.94073100000000E+01,9.27060500000000E+01,9.42893600000000E+01,9.21498900000000E+01,9.33206300000000E+01,1.07384100000000E+02,1.11374400000000E+02,1.11355200000000E+02,1.08346000000000E+02,1.09918700000000E+02,1.07424600000000E+02,1.10035900000000E+02,1.11039900000000E+02,1.07936900000000E+02,1.07475100000000E+02,1.07247200000000E+02,1.04841700000000E+02,1.06683400000000E+02,1.07049300000000E+02,1.00000000000000E+02,1.01901300000000E+02,1.04414700000000E+02,1.07153200000000E+02,1.07178600000000E+02,1.05243600000000E+02,1.02247800000000E+02,1.02786600000000E+02,1.00235200000000E+02,1.06152100000000E+02,1.03324300000000E+02,
DJI,,,,,,,,,,,,,,,,,,,,,,,,,,,,,,,,,,,,,,,,,1.00000000000000E+02,1.01043666199300E+02,9.96053877893000E+01,9.57372571350000E+01,9.40347543328000E+01,8.52618296349000E+01,8.72471636635000E+01,8.61072532388000E+01,8.67093102535000E+01,7.97105819626000E+01,8.05677776772000E+01,
DMA,,,,,,,,,,,,,,,,,,,,,,,,,,,,,,,,,,,,,,,,,1.00000000000000E+02,9.66281694064000E+01,1.00271864912500E+02,9.88808627819000E+01,9.87599055433000E+01,9.48787105405000E+01,9.32347587976000E+01,9.12387131837000E+01,8.61622266484000E+01,9.18558436050000E+01,8.56452103399000E+01,
DNK,,,,,,,,,,,,,,,,,,,,,9.32412000000000E+01,9.08503900000000E+01,9.17956000000000E+01,9.25401300000000E+01,9.19461700000000E+01,9.32411900000000E+01,9.93889700000000E+01,1.02673100000000E+02,1.00672200000000E+02,9.98415200000000E+01,1.01694400000000E+02,1.02997000000000E+02,1.03958600000000E+02,1.04210700000000E+02,1.04083200000000E+02,1.02141500000000E+02,1.02099300000000E+02,1.00543000000000E+02,9.93011500000000E+01,9.98311200000000E+01,1.00000000000000E+02,1.00730300000000E+02,1.00735200000000E+02,1.02108200000000E+02,1.02591700000000E+02,1.03805500000000E+02,1.03178300000000E+02,9.99167600000000E+01,1.02476500000000E+02,1.02765600000000E+02,1.06449800000000E+02,
DOM,,,,,,,,,,,,,,,,,,,,,1.75362318840600E+02,1.81081081081100E+02,1.53333333333300E+02,1.60000000000000E+02,1.40740740740700E+02,1.45454545454500E+02,1.44303797468400E+02,1.36842105263200E+02,1.58974358974400E+02,1.50000000000000E+02,9.60396039604000E+01,1.04347826087000E+02,9.35483870968000E+01,8.84615384615000E+01,9.43396226415000E+01,9.81481481481000E+01,9.63302752294000E+01,1.00000000000000E+02,1.01010101010100E+02,1.02061855670100E+02,1.00000000000000E+02,1.00946306295300E+02,1.01522579317600E+02,9.79290032375000E+01,9.67164427397000E+01,9.57954593813000E+01,9.48831043507000E+01,9.80458975666000E+01,9.36293438826000E+01,1.01250388645200E+02,9.84379472779000E+01,
DZA,,,,,,,,,,,,,,,,,,,,,1.68354430379700E+02,1.94444444444400E+02,1.65714285714300E+02,1.68253968254000E+02,1.39726027397300E+02,1.36111111111100E+02,6.70454545455000E+01,6.31067961165000E+01,5.74074074074000E+01,5.90909090909000E+01,7.39495798319000E+01,8.11881188119000E+01,7.05882352941000E+01,5.85585585586000E+01,5.74074074074000E+01,5.78947368421000E+01,6.75438596491000E+01,7.07547169811000E+01,5.09259259259000E+01,5.94339622642000E+01,1.00000000000000E+02,9.72242464707000E+01,8.56195837252000E+01,1.06915475112500E+02,1.22210591206200E+02,1.64116855095000E+02,1.91436871678500E+02,1.82663795520200E+02,2.37080608708300E+02,1.60971262739700E+02,1.81701522099100E+02,
ECU,,,,,,,,,,,,,,,,,,,,,2.12987012987000E+02,1.80681818181800E+02,1.98717948717900E+02,2.08450704225400E+02,1.80000000000000E+02,1.68750000000000E+02,1.09638554216900E+02,1.15116279069800E+02,1.03797468354400E+02,1.15000000000000E+02,1.14285714285700E+02,9.77777777778000E+01,9.41860465116000E+01,8.57142857143000E+01,8.77551020408000E+01,8.05555555556000E+01,8.86792452830000E+01,9.04761904762000E+01,8.10000000000000E+01,8.55670103093000E+01,1.00000000000000E+02,8.45924765202000E+01,8.68053305191000E+01,8.97694120896000E+01,9.14791777162000E+01,1.02389693197500E+02,1.09904512176600E+02,1.12985922676100E+02,1.23984696653000E+02,1.09733511995800E+02,1.21926030544000E+02,
EGY,,,,,,,,,,,,,,,,,,,,,2.14000000000000E+02,2.20000000000000E+02,2.00000000000000E+02,2.00000000000000E+02,1.90566037735800E+02,1.88461538461500E+02,1.63265306122400E+02,1.17241379310300E+02,9.60000000000000E+01,9.48051948052000E+01,1.01219512195100E+02,1.25000000000000E+02,1.25000000000000E+02,1.23456790123500E+02,1.20000000000000E+02,1.16279069767400E+02,1.11111111111100E+02,1.07142857142900E+02,9.80198019802000E+01,9.68750000000000E+01,1.00000000000000E+02,9.49714610502000E+01,9.27056120490000E+01,9.80686213971000E+01,1.05517509600400E+02,1.23649918469500E+02,1.37236439732200E+02,1.31332197433500E+02,1.45368332607900E+02,1.35865069873400E+02,1.39344698952100E+02,
ERI,,,,,,,,,,,,,,,,,,,,,,,,,,,,,,,,,9.85294117647000E+01,9.90476190476000E+01,1.03703703703700E+02,1.01709401709400E+02,9.82905982906000E+01,1.00909090909100E+02,9.52830188679000E+01,9.61165048544000E+01,1.00000000000000E+02,1.02091042388300E+02,9.14578276786000E+01,8.89654178110000E+01,8.83063934424000E+01,8.65182616696000E+01,8.45099213028000E+01,8.39883849094000E+01,7.66484456591000E+01,7.77694084927000E+01,7.87371376380000E+01,
ESP,,,,,,,,,,,,,,,,,,,,,8.41156500000000E+01,6.92346700000000E+01,6.88968400000000E+01,6.57600200000000E+01,6.61461900000000E+01,6.98098100000000E+01,1.00000800000000E+02,1.00000800000000E+02,1.00000800000000E+02,1.00000800000000E+02,1.00000800000000E+02,1.01677100000000E+02,1.03962800000000E+02,1.03874700000000E+02,1.02275000000000E+02,1.04313400000000E+02,1.05050200000000E+02,1.04665000000000E+02,1.07225400000000E+02,1.06333900000000E+02,1.00000000000000E+02,1.01503100000000E+02,1.03736100000000E+02,1.03639600000000E+02,1.02116300000000E+02,1.01768900000000E+02,1.03529400000000E+02,1.04706000000000E+02,1.02758500000000E+02,1.07215600000000E+02,1.04496600000000E+02,
EST,,,,,,,,,,,,,,,,,,,,,,,,,,,,,,,,,,,,,,,,,1.00000000000000E+02,1.32047513318100E+02,1.31739410141500E+02,1.42842988735900E+02,1.44210931767200E+02,1.42813566643600E+02,1.42633733397600E+02,1.48345704473400E+02,1.46089979319900E+02,1.48662959629600E+02,1.44398330686100E+02,
ETH,,,,,,,,,,,,,,,,,,,,,,,,,,,,,,,,,1.25000000000000E+02,1.06250000000000E+02,1.13402061855700E+02,1.50961538461500E+02,1.14814814814800E+02,1.26923076923100E+02,1.50000000000000E+02,1.25000000000000E+02,1.00000000000000E+02,9.13914855254000E+01,9.33259073591000E+01,9.69628890321000E+01,1.02987269635400E+02,1.08840966470500E+02,1.08618596904000E+02,1.12309401678800E+02,1.12932675296800E+02,1.21857037873700E+02,1.32251608488500E+02,
FIN,,,,,,,,,,,,,,,,,,,,,8.97627600000000E+01,9.18439600000000E+01,8.76913100000000E+01,8.67087600000000E+01,8.90571800000000E+01,8.86489900000000E+01,9.96815200000000E+01,1.03076600000000E+02,1.08738900000000E+02,1.10673600000000E+02,1.09243000000000E+02,1.06618200000000E+02,1.03506200000000E+02,1.00208000000000E+02,1.01964700000000E+02,1.09212500000000E+02,1.10113400000000E+02,1.07336900000000E+02,1.10034900000000E+02,1.04468000000000E+02,1.00000000000000E+02,9.83221200000000E+01,9.58593800000000E+01,9.22310600000000E+01,8.95196100000000E+01,8.57505200000000E+01,8.20313000000000E+01,8.10319600000000E+01,7.87087800000000E+01,7.88093200000000E+01,7.70489600000000E+01,
FJI,,,,,,,,,,,,,,,,,,,,,1.35155581152800E+02,1.05446290223800E+02,1.02228327703500E+02,1.17286611765100E+02,1.09689469781200E+02,1.00000000000000E+02,1.45397624134300E+02,1.62256813047500E+02,1.41593628927200E+02,,,,,,,,,,,,1.00000000000000E+02,1.01535379722800E+02,9.88093643020000E+01,9.63858322855000E+01,9.23769672340000E+01,9.15393098066000E+01,9.87777736508000E+01,9.17321362398000E+01,8.90021804249000E+01,1.07519844963100E+02,1.05942889240100E+02,
FRA,,,,,,,,,,,,,,,,,,,,,,,,,,,,,,,1.03243100000000E+02,1.09065600000000E+02,1.09314700000000E+02,1.08390200000000E+02,1.07491800000000E+02,1.06433900000000E+02,1.05148100000000E+02,1.03288600000000E+02,1.04404500000000E+02,1.04912300000000E+02,1.00000000000000E+02,1.01793600000000E+02,1.03571300000000E+02,1.03568000000000E+02,1.04118800000000E+02,1.03978900000000E+02,1.02296200000000E+02,1.01365200000000E+02,9.97832300000000E+01,,,
FRO,,,,,,,,,,,,,,,,,,,,,,,,,,,,,,,,,,,,,,,,,1.00000000000000E+02,1.01091249640000E+02,1.02568639967000E+02,9.98619534055000E+01,9.49510767622000E+01,9.46741572767000E+01,1.07836037925800E+02,9.32204716672000E+01,9.62219703318000E+01,1.23002275836200E+02,1.24859551718500E+02,
FSM,,,,,,,,,,,,,,,,,,,,,,,,,,,,,,,,,,,,,,,,,1.00000000000000E+02,9.91176924805000E+01,9.75246900483000E+01,9.30450140104000E+01,8.61763632538000E+01,9.18772577219000E+01,1.01781001358200E+02,8.40093758510000E+01,8.61578924794000E+01,1.12466209025000E+02,1.15345218803100E+02,
GAB,,,,,,,,,,,,,,,,,,,,,3.06172839506200E+02,3.57575757575800E+02,3.31818181818200E+02,3.26666666666700E+02,2.82456140350900E+02,2.28000000000000E+02,1.42105263157900E+02,1.36363636363600E+02,1.39361702127700E+02,1.36842105263200E+02,1.56603773584900E+02,1.42452830188700E+02,1.34545454545500E+02,1.29761904761900E+02,1.18867924528300E+02,1.25438596491200E+02,1.47368421052600E+02,1.46078431372500E+02,1.02941176470600E+02,1.05050505050500E+02,1.00000000000000E+02,9.18720955932000E+01,9.25434637030000E+01,1.01670816721700E+02,1.18609017730600E+02,1.56217942222800E+02,1.78825220799700E+02,1.80207182815900E+02,2.21906136738600E+02,1.56464968971000E+02,1.86477130024800E+02,
GBR,,,,,,,,,,,,,,,,,,,,,1.06510700000000E+02,1.06767600000000E+02,1.05192300000000E+02,1.03399800000000E+02,1.02246000000000E+02,1.02642000000000E+02,9.69719500000000E+01,9.74483900000000E+01,9.94349300000000E+01,9.96028900000000E+01,1.00788700000000E+02,1.00949200000000E+02,1.02139500000000E+02,1.04324100000000E+02,1.02957300000000E+02,1.00147700000000E+02,1.00973400000000E+02,1.02547500000000E+02,1.02683100000000E+02,1.02138300000000E+02,1.00000000000000E+02,9.96912900000000E+01,1.02264600000000E+02,1.04877400000000E+02,1.05454000000000E+02,1.05295500000000E+02,1.04288500000000E+02,1.03659600000000E+02,1.04632500000000E+02,1.03786600000000E+02,1.03302200000000E+02,
GEO,,,,,,,,,,,,,,,,,,,,,,,,,,,,,,,,,,,,,,,,,1.00000000000000E+02,9.75117085075000E+01,1.01723300451500E+02,1.02866268383700E+02,1.11819034900700E+02,1.07827045569000E+02,1.12940759110100E+02,1.15625784665800E+02,1.24926125546800E+02,1.31582822042900E+02,1.36972894566200E+02,
GHA,,,,,,,,,,,,,,,,,,,,,2.09523809523800E+02,1.85714285714300E+02,1.25000000000000E+02,1.70370370370400E+02,1.32000000000000E+02,1.23333333333300E+02,1.35416666666700E+02,1.31914893617000E+02,1.25842696629200E+02,1.05747126436800E+02,1.00000000000000E+02,1.02020202020200E+02,9.50980392157000E+01,8.92156862745000E+01,9.42307692308000E+01,1.06666666666700E+02,1.08571428571400E+02,1.14000000000000E+02,1.24210526315800E+02,1.09574468085100E+02,1.00000000000000E+02,1.06538732778200E+02,1.35605795954300E+02,1.34880089340400E+02,1.25091987014600E+02,1.24640733575600E+02,1.27860979990800E+02,1.36719679243400E+02,1.55272061854600E+02,1.69463535439100E+02,1.75567233102300E+02,
GIN,,,,,,,,,,,,,,,,,,,,,,,,,,,1.36842105263200E+02,1.22307692307700E+02,1.08888888888900E+02,1.20588235294100E+02,1.21621621621600E+02,1.16806722689100E+02,9.31972789116000E+01,8.60759493671000E+01,1.00000000000000E+02,8.96103896104000E+01,7.81818181818000E+01,8.72483221477000E+01,8.00000000000000E+01,7.69230769231000E+01,1.00000000000000E+02,9.38018205664000E+01,9.80795474487000E+01,1.05145724852500E+02,1.34105762081300E+02,1.44508495613800E+02,1.78978569763500E+02,1.75677172550000E+02,1.63536849896300E+02,1.33565646357700E+02,1.52196553677200E+02,
GMB,,,,,,,,,,,,,,,,,,,,,1.82352941176500E+02,1.36538461538500E+02,1.28888888888900E+02,1.03703703703700E+02,8.24561403509000E+01,8.53333333333000E+01,9.85507246377000E+01,1.00000000000000E+02,1.00000000000000E+02,1.00000000000000E+02,1.00000000000000E+02,1.00000000000000E+02,1.00000000000000E+02,1.00000000000000E+02,1.00000000000000E+02,1.00000000000000E+02,1.00000000000000E+02,1.00000000000000E+02,1.00000000000000E+02,1.00000000000000E+02,1.00000000000000E+02,9.74863871451000E+01,1.08065941633700E+02,1.09825790170700E+02,1.04593404182400E+02,9.66539744800000E+01,9.32041804373000E+01,9.50645644849000E+01,8.98698989701000E+01,8.65760054550000E+01,8.28092620381000E+01,
GNB,,,,,,,,,,,,,,,,,,,,,1.25000000000000E+02,1.67164179104500E+02,1.59322033898300E+02,1.60416666666700E+02,2.66071428571400E+02,2.47619047619000E+02,2.12500000000000E+02,2.03750000000000E+02,1.55056179775300E+02,1.61797752809000E+02,1.45833333333300E+02,1.27472527472500E+02,1.04166666666700E+02,1.40909090909100E+02,1.24731182795700E+02,1.02727272727300E+02,1.01769911504400E+02,9.72477064220000E+01,8.72549019608000E+01,9.80769230769000E+01,1.00000000000000E+02,8.94151177395000E+01,9.31839858752000E+01,9.95033835789000E+01,1.03213480508200E+02,9.04663419833000E+01,8.91813254580000E+01,8.68042438218000E+01,7.14743525142000E+01,7.08892944404000E+01,6.38165538436000E+01,
GNQ,,,,,,,,,,,,,,,,,,,,,,,,,,3.77551020408000E+01,4.39189189189000E+01,3.96907216495000E+01,4.07407407407000E+01,4.83221476510000E+01,3.76623376623000E+01,3.40425531915000E+01,3.77593360996000E+01,3.16037735849000E+01,3.69747899160000E+01,3.67647058824000E+01,3.73493975904000E+01,3.68983957219000E+01,3.71428571429000E+01,7.90000000000000E+01,1.00000000000000E+02,8.93690903031000E+01,9.07070542396000E+01,1.01442461089900E+02,1.19965639145500E+02,1.54929814392800E+02,1.75982860053300E+02,1.79712829920000E+02,2.31560789112800E+02,1.80613460046100E+02,2.02761089709900E+02,
GRC,,,,,,,,,,,,,,,,,,,,,,,,,,,,,,,,,,,,,,,,,1.00000000000000E+02,9.76309981655000E+01,9.84331276538000E+01,9.74958324803000E+01,9.93160530913000E+01,9.46370710248000E+01,9.52051981660000E+01,9.55887452196000E+01,9.49250591638000E+01,9.08128704488000E+01,9.26928594567000E+01,
GRD,,,,,,,,,,,,,,,,,,,,,,,,,,,,,,,,,,,,,,,,,1.00000000000000E+02,8.96994279662000E+01,9.16278788321000E+01,9.49893085961000E+01,8.85669715844000E+01,8.14154961641000E+01,8.73334293352000E+01,8.98008322821000E+01,9.23631782302000E+01,9.84949735906000E+01,9.73928250519000E+01,
GRL,,,,,,,,,,,,,,,,,,,,,,,,,,,,,,,,,,,,,,,,,1.00000000000000E+02,9.03356799114000E+01,8.40818948677000E+01,7.94598178434000E+01,7.71942173788000E+01,7.29784849751000E+01,7.22488125364000E+01,6.69215031691000E+01,6.53442000430000E+01,7.42733933709000E+01,7.52149379665000E+01,
GTM,,,,,,,,,,,,,,,,,,,,,1.32926829268300E+02,1.19277108433700E+02,1.25000000000000E+02,1.34615384615400E+02,1.01041666666700E+02,9.34782608696000E+01,1.56578947368400E+02,9.03614457831000E+01,1.42528735632200E+02,9.19540229885000E+01,1.15294117647100E+02,9.04255319149000E+01,9.59595959596000E+01,9.89583333333000E+01,1.06122448979600E+02,1.17924528301900E+02,1.03738317757000E+02,1.12121212121200E+02,1.11340206185600E+02,1.03125000000000E+02,1.00000000000000E+02,9.67465537613000E+01,9.57839094541000E+01,9.29940203478000E+01,9.21408918948000E+01,9.12955402425000E+01,8.95890516159000E+01,8.79300055406000E+01,8.55956306328000E+01,9.29049321230000E+01,9.26468468008000E+01,
GUM,,,,,,,,,,,,,,,,,,,,,,,,,,,,,,,,,,,,,,,,,1.00000000000000E+02,1.00459713334300E+02,1.06005167925600E+02,1.04848440362100E+02,1.03989255424500E+02,9.15020395720000E+01,8.94941234650000E+01,8.75107413243000E+01,8.22024795834000E+01,1.12109875351800E+02,1.15201865259800E+02,
GUY,,,,,,,,,,,,,,,,,,,,,,,,,,,,,,,,,,,,,,,,,1.00000000000000E+02,9.76420806846000E+01,9.84770990011000E+01,9.73717956734000E+01,9.50895391889000E+01,9.64017786769000E+01,1.09385088443300E+02,9.92611702376000E+01,1.09369554603100E+02,1.29748085964000E+02,1.38039178776200E+02,
HKG,,,,,,,,,,,,,,,,,,,,,1.00000000000000E+02,9.78021978022000E+01,1.00000000000000E+02,9.87804878049000E+01,1.00000000000000E+02,1.03614457831300E+02,1.00000000000000E+02,1.00000000000000E+02,9.78947368421000E+01,1.00000000000000E+02,1.00000000000000E+02,1.00970873786400E+02,1.00961538461500E+02,1.01941747572800E+02,1.00000000000000E+02,9.90990990991000E+01,1.00000000000000E+02,1.00934579439300E+02,1.01960784313700E+02,1.01000000000000E+02,1.00000000000000E+02,1.00825570368700E+02,1.02148213853700E+02,1.00969816677200E+02,9.92669993762000E+01,9.79612208660000E+01,9.68063999363000E+01,9.67808332926000E+01,9.63571828881000E+01,9.75684740078000E+01,9.59542656113000E+01,
HND,,,,,,,,,,,,,,,,,,,,,1.13186813186800E+02,8.87850467290000E+01,8.23008849558000E+01,8.90000000000000E+01,1.02040816326500E+02,9.60000000000000E+01,1.25000000000000E+02,1.14117647058800E+02,8.38709677419000E+01,7.94117647059000E+01,7.80219780220000E+01,8.36956521739000E+01,7.89473684211000E+01,8.73563218391000E+01,8.91304347826000E+01,9.63302752294000E+01,8.96226415094000E+01,1.10784313725500E+02,1.13402061855700E+02,1.06315789473700E+02,1.00000000000000E+02,9.48253531336000E+01,9.19805105911000E+01,8.79813706553000E+01,8.71666624441000E+01,8.71666760949000E+01,8.31681648719000E+01,8.16135649873000E+01,7.66459393733000E+01,8.19319107095000E+01,8.34491066648000E+01,
HRV,,,,,,,,,,,,,,,,,,,,,,,,,,,,,,,,,,,,,,,,,1.00000000000000E+02,9.90577603314000E+01,9.81104166961000E+01,9.73785951644000E+01,9.57996630806000E+01,9.55099243983000E+01,9.68531479144000E+01,9.74889533359000E+01,9.75374986508000E+01,1.01365302154000E+02,1.01476344388600E+02,
HTI,,,,,,,,,,,,,,,,,,,,,2.24615384615400E+02,1.75362318840600E+02,1.69014084507000E+02,1.69736842105300E+02,1.88461538461500E+02,2.03896103896100E+02,2.05479452054800E+02,2.01470588235300E+02,1.95774647887300E+02,1.30666666666700E+02,1.32291666666700E+02,1.10752688172000E+02,1.04761904761900E+02,1.06024096385500E+02,1.10588235294100E+02,1.13186813186800E+02,1.02061855670100E+02,1.07608695652200E+02,1.10309278350500E+02,1.08510638297900E+02,1.00000000000000E+02,1.01189632570200E+02,1.00187522518700E+02,9.87356289514000E+01,9.59929138224000E+01,9.24376943100000E+01,8.89495737246000E+01,8.64320840216000E+01,6.21229736865000E+01,8.03944550120000E+01,7.78870411130000E+01,
HUN,,,,,,,,,,,,,,,,,,,,,,,,,,,,,,,,,,,,,,,,,1.00000000000000E+02,9.97671699758000E+01,1.00189502861400E+02,9.96920153337000E+01,9.89811847835000E+01,9.68781733252000E+01,9.55023625171000E+01,9.54521636186000E+01,9.38457882856000E+01,9.55675227838000E+01,9.54057445622000E+01,
IDN,,,,,,,,,,,,,,,,,,,,,,1.82558139534900E+02,1.82142857142900E+02,1.72151898734200E+02,1.73076923076900E+02,1.56756756756800E+02,1.08450704225400E+02,9.62025316456000E+01,8.18181818182000E+01,8.17204301075000E+01,9.48979591837000E+01,9.12621359223000E+01,8.85714285714000E+01,8.83495145631000E+01,8.49056603774000E+01,9.03508771930000E+01,9.73214285714000E+01,9.90476190476000E+01,8.18181818182000E+01,6.63265306122000E+01,1.00000000000000E+02,1.00628106880000E+02,1.00734320472000E+02,1.05315913108300E+02,1.07315482085600E+02,1.07197122104700E+02,1.12208798035500E+02,1.16303652755300E+02,1.24034659372500E+02,1.20477820674100E+02,1.26881310944000E+02,
IND,,,,,,,,,,,,,,,,,,,,,7.16417910448000E+01,6.54676258993000E+01,7.23076923077000E+01,7.58064516129000E+01,9.41176470588000E+01,8.09917355372000E+01,8.37606837607000E+01,1.00000000000000E+02,9.75609756098000E+01,9.46153846154000E+01,8.58156028369000E+01,9.36000000000000E+01,9.83193277311000E+01,1.13131313131300E+02,1.18750000000000E+02,1.08000000000000E+02,9.90384615385000E+01,1.13592233009700E+02,1.17582417582400E+02,1.05208333333300E+02,1.00000000000000E+02,9.78331419753000E+01,8.86228087947000E+01,9.62312209399000E+01,8.61672579678000E+01,1.05201766211100E+02,1.10780038759700E+02,1.14169016120900E+02,1.17235848426100E+02,1.31666391139000E+02,1.27198685921600E+02,
IRL,,,,,,,,,,,,,,,,,,,,,1.07690800000000E+02,1.03580800000000E+02,1.06641000000000E+02,1.10833400000000E+02,1.09130500000000E+02,1.10929400000000E+02,1.15801300000000E+02,1.15801300000000E+02,1.16440700000000E+02,1.16677000000000E+02,1.11500800000000E+02,1.08190400000000E+02,1.07682800000000E+02,1.10041300000000E+02,1.06000100000000E+02,1.03949100000000E+02,1.04928000000000E+02,1.05604800000000E+02,1.05973500000000E+02,1.03223500000000E+02,1.00000000000000E+02,1.02049800000000E+02,1.04057200000000E+02,1.03479300000000E+02,1.01979500000000E+02,1.01616200000000E+02,9.86773800000000E+01,9.60102800000000E+01,9.21554600000000E+01,9.66038000000000E+01,9.53504800000000E+01,
IRN,,,,,,,,,,,,,,,,,,,,,,,,,,,,,,,,,,,,,,,,,1.00000000000000E+02,9.01105641876000E+01,8.97411250510000E+01,9.70610579883000E+01,1.11610060520200E+02,1.41457520837700E+02,1.60417593313800E+02,1.61889014663300E+02,1.86966446802400E+02,1.32770626536100E+02,1.56016441074700E+02,
IRQ,,,,,,,,,,,,,,,,,,,,,,,,,,,,,,,,,,,,,,,,,1.00000000000000E+02,8.88817589248000E+01,9.07806159875000E+01,9.89916820729000E+01,1.18087672673600E+02,1.54585346140000E+02,1.77334381923800E+02,1.78481042782800E+02,2.19054626182400E+02,1.50500573988200E+02,1.85839794820100E+02,
ISL,,,,,,,,,,,,,,,,,,,,,9.84524200000000E+01,1.00384100000000E+02,1.00942200000000E+02,9.66169700000000E+01,9.37469700000000E+01,9.47715800000000E+01,1.02833000000000E+02,1.08582200000000E+02,1.03968000000000E+02,9.77098500000000E+01,9.96889300000000E+01,1.08928500000000E+02,1.06458100000000E+02,1.00907400000000E+02,9.96938100000000E+01,1.00443200000000E+02,9.62626200000000E+01,9.68421100000000E+01,1.04952900000000E+02,1.04629200000000E+02,1.00000000000000E+02,1.02455100000000E+02,1.03727500000000E+02,9.72495800000000E+01,9.51048000000000E+01,9.47292500000000E+01,1.01220400000000E+02,1.00965100000000E+02,9.47959100000000E+01,8.43053200000000E+01,9.24123800000000E+01,
ISR,,,,,,,,,,,,,,,,,,,,,,,,,,,,,,,,,,,,,,,,,1.00000000000000E+02,9.78472081996000E+01,9.78765092518000E+01,9.61877955847000E+01,9.46691340807000E+01,9.53418582551000E+01,9.36726941671000E+01,9.14776348572000E+01,9.29464002537000E+01,1.02672323954100E+02,9.81471200555000E+01,
ITA,,,,,,,,,,,,,,,,,,,,,7.88251300000000E+01,7.49971000000000E+01,7.68941000000000E+01,7.88208300000000E+01,7.75718500000000E+01,7.80511500000000E+01,9.04214500000000E+01,9.27148100000000E+01,9.35864700000000E+01,9.24413600000000E+01,9.51121700000000E+01,9.86379900000000E+01,9.99441500000000E+01,9.96377900000000E+01,9.92841000000000E+01,9.65948700000000E+01,1.00725000000000E+02,1.02218600000000E+02,1.07382400000000E+02,1.08410900000000E+02,1.00000000000000E+02,1.01637500000000E+02,1.03613200000000E+02,1.03921200000000E+02,1.02778900000000E+02,9.98187300000000E+01,9.58139600000000E+01,9.77720700000000E+01,9.46882900000000E+01,1.03260100000000E+02,9.90194600000000E+01,
JAM,,,,,,,,,,,,,,,,,,,,,,,,,,,,,,,,,,,,,,,,,1.00000000000000E+02,1.00034634299600E+02,9.55522620075000E+01,9.45161676732000E+01,9.92594723851000E+01,8.60732041414000E+01,8.99485929822000E+01,1.02636853288000E+02,8.39527223103000E+01,6.63902899085000E+01,7.14516176369000E+01,
JOR,,,,,,,,,,,,,,,,,,,,,8.79629629630000E+01,8.30508474576000E+01,8.84955752212000E+01,8.90000000000000E+01,8.66666666667000E+01,8.68686868687000E+01,1.00000000000000E+02,9.00000000000000E+01,9.88372093023000E+01,1.04878048780500E+02,9.36842105263000E+01,1.03225806451600E+02,1.05681818181800E+02,1.04545454545500E+02,1.12941176470600E+02,1.15625000000000E+02,1.13592233009700E+02,1.12871287128700E+02,1.07000000000000E+02,1.07142857142900E+02,1.00000000000000E+02,9.90578669090000E+01,9.67696201568000E+01,8.83786690722000E+01,8.73585384030000E+01,8.84986551692000E+01,8.84666391152000E+01,9.23722548380000E+01,1.17989609216200E+02,1.20399248234900E+02,8.54369332234000E+01,
JPN,,,,,,,,,,,,,,,,,,,,,7.97867700000000E+01,7.94358400000000E+01,7.65081100000000E+01,7.80085800000000E+01,8.12542900000000E+01,8.20885800000000E+01,1.08616000000000E+02,1.12303300000000E+02,1.15033700000000E+02,1.11701300000000E+02,1.04975900000000E+02,1.08169500000000E+02,1.11044500000000E+02,1.13978900000000E+02,1.17305500000000E+02,1.14922700000000E+02,1.09705500000000E+02,1.04028200000000E+02,1.10811500000000E+02,1.09828900000000E+02,1.00000000000000E+02,1.00563800000000E+02,1.00903200000000E+02,9.76320000000000E+01,9.24703400000000E+01,8.33128600000000E+01,7.53954200000000E+01,7.16701400000000E+01,6.19966300000000E+01,7.43590000000000E+01,6.77594700000000E+01,
KAZ,,,,,,,,,,,,,,,,,,,,,,,,,,,,,,,,,,,,,,,,,1.00000000000000E+02,9.21580550242000E+01,9.31499822073000E+01,1.00648802448200E+02,1.18788123440300E+02,1.48880018132700E+02,1.76652266599500E+02,1.84040029117100E+02,2.17786988725100E+02,1.63356612503700E+02,1.93264383428300E+02,
KEN,,,,,,,,,,,,,,,,,,,,,1.00724637681200E+02,8.81118881119000E+01,8.16176470588000E+01,7.73722627737000E+01,8.70229007634000E+01,7.66917293233000E+01,8.54961832061000E+01,7.78625954198000E+01,8.10606060606000E+01,7.93650793651000E+01,7.01492537313000E+01,7.86885245902000E+01,8.10344827586000E+01,9.48717948718000E+01,1.07228915662700E+02,1.03883495145600E+02,1.08247422680400E+02,1.14018691588800E+02,1.09909909909900E+02,9.80769230769000E+01,1.00000000000000E+02,9.40259412525000E+01,9.10282247217000E+01,9.03293680070000E+01,8.89900068758000E+01,8.93671803262000E+01,8.72775582050000E+01,8.41836182002000E+01,8.31933863798000E+01,9.25712538264000E+01,9.03932212895000E+01,
KGZ,,,,,,,,,,,,,,,,,,,,,,,,,,,,,,,,,,,,,,,,,1.00000000000000E+02,1.00588641318400E+02,1.05841681357200E+02,1.10987931856300E+02,1.10448642685000E+02,1.04320160802600E+02,1.05631259096400E+02,1.04645002744600E+02,1.03265352539200E+02,1.02058274706700E+02,1.05326854712400E+02,
KHM,,,,,,,,,,,,,,,,,,,,,,,,,,,,,,,,,,,,,,,,,1.00000000000000E+02,1.02929347850500E+02,1.04889346550400E+02,1.00776321433600E+02,9.42484586259000E+01,8.71251224256000E+01,8.38387682425000E+01,8.04114390664000E+01,7.51817222377000E+01,8.00860468038000E+01,7.60322248591000E+01,
KIR,,,,,,,,,,,,,,,,,,,,,,,,,,,,,,,,,,,,,,,,,1.00000000000000E+02,9.32763055467000E+01,9.03494264458000E+01,8.75889130861000E+01,8.31408917010000E+01,7.85563378069000E+01,8.12162815717000E+01,8.18771495139000E+01,7.80841411487000E+01,1.01257515100400E+02,1.00747867578700E+02,
KNA,,,,,,,,,,,,,,,,,,,,,,,,,,,,,,,,,,,,,,,,,1.00000000000000E+02,1.02236447598700E+02,9.85214827427000E+01,9.39323908663000E+01,8.73825190130000E+01,8.45537678026000E+01,8.22882191123000E+01,7.95842394791000E+01,7.49607131447000E+01,7.90052978300000E+01,7.49666983590000E+01,
KOR,,,,,,,,,,,,,,,,,,,,,1.14285714285700E+02,1.11864406779700E+02,1.17431192660600E+02,1.18269230769200E+02,1.19811320754700E+02,1.20792079207900E+02,1.31578947368400E+02,1.34313725490200E+02,1.38053097345100E+02,1.38260869565200E+02,1.33333333333300E+02,1.34188034188000E+02,1.34210526315800E+02,1.32432432432400E+02,1.37272727272700E+02,1.38461538461500E+02,1.25892857142900E+02,1.21904761904800E+02,1.17241379310300E+02,1.14942528735600E+02,1.00000000000000E+02,9.55561858526000E+01,9.49270603606000E+01,8.90359943856000E+01,8.53476514071000E+01,7.90351960876000E+01,7.38252325802000E+01,7.19635583657000E+01,6.20396076254000E+01,6.81855100715000E+01,6.79551212450000E+01,
KWT,,,,,,,,,,,,,,,,,,,,,,,,,,,,,,,,,,,,,,,,,1.00000000000000E+02,9.04295154854000E+01,8.89937812909000E+01,1.01337709412700E+02,1.21829440419400E+02,1.63527254478800E+02,1.84642923816100E+02,1.89101964691600E+02,2.33152302907300E+02,1.57882543908000E+02,1.91471496741100E+02,
LAO,,,,,,,,,,,,,,,,,,,,,,,,,,,,,,,,,,,,,,,,,1.00000000000000E+02,1.01096950788200E+02,1.02177765423200E+02,1.00758171187100E+02,9.57040568923000E+01,9.51770051963000E+01,1.18558486544100E+02,1.14702969697900E+02,1.10786924294100E+02,1.03852211728700E+02,1.21579910212800E+02,
LBN,,,,,,,,,,,,,,,,,,,,,,,,,,,,,,,,,,,,,,,,,1.00000000000000E+02,1.00113499441600E+02,1.02755248331800E+02,1.02040920579300E+02,1.01279650949200E+02,9.44905192070000E+01,9.54707712489000E+01,9.60108650602000E+01,9.29197131859000E+01,9.84913917250000E+01,9.56474017023000E+01,
LBR,,,,,,,,,,,,,,,,,,,,,1.11025304729800E+02,1.02314285598100E+02,1.05225882398300E+02,1.03333488806900E+02,9.31739380342000E+01,1.00000000000000E+02,9.35000714184000E+01,8.39085593342000E+01,,,,,,,,,,,,,1.00000000000000E+02,1.00744875733000E+02,1.04561710513500E+02,1.10037803904700E+02,1.12797749061400E+02,1.14603491968300E+02,1.20363747915200E+02,1.20319360623100E+02,1.20260978502700E+02,1.10938102031300E+02,1.47419638788000E+02,
LBY,,,,,,,,,,,,,,,,,,,,,,,1.04668745613300E+02,9.71609759797000E+01,1.00092485456600E+02,1.02261304220200E+02,,,,,,,,,,,,,,,1.00000000000000E+02,8.87112460799000E+01,8.84167067901000E+01,9.75813739346000E+01,1.17089086385200E+02,1.51052676574600E+02,1.69347316475000E+02,1.67994894594800E+02,2.00399561282400E+02,1.40365476794700E+02,1.66669531570800E+02,
LCA,,,,,,,,,,,,,,,,,,,,,,,,,,,,,,,,,,,,,,,,,1.00000000000000E+02,9.87304625377000E+01,1.01887863288200E+02,1.04421688908700E+02,1.04220914544300E+02,1.09981249169100E+02,1.11566682079600E+02,1.08946189822800E+02,9.22068058095000E+01,1.07727770248600E+02,9.30094511902000E+01,
LKA,,,,,,,,,,,,,,,,,,,,,8.71794871795000E+01,8.07692307692000E+01,7.60000000000000E+01,9.42028985507000E+01,1.14925373134300E+02,9.41176470588000E+01,9.01639344262000E+01,9.24242424242000E+01,8.80000000000000E+01,8.50000000000000E+01,8.24175824176000E+01,8.04347826087000E+01,9.56043956044000E+01,1.00000000000000E+02,9.88888888889000E+01,9.90000000000000E+01,1.00000000000000E+02,1.05000000000000E+02,,,1.00000000000000E+02,9.82800613637000E+01,9.71592159470000E+01,9.35114216538000E+01,8.73512501397000E+01,8.20344456621000E+01,7.93630204880000E+01,7.48883483364000E+01,6.90973184424000E+01,7.91404955867000E+01,7.49639643268000E+01,
LSO,,,,,,,,,,,,,,,,,,,,,1.31000000000000E+02,1.16000000000000E+02,1.06521739130400E+02,1.02020202020200E+02,1.02439024390200E+02,1.00000000000000E+02,9.31506849315000E+01,6.37362637363000E+01,1.01063829787200E+02,1.00000000000000E+02,1.00000000000000E+02,8.87096774194000E+01,1.00819672131100E+02,1.00000000000000E+02,1.00000000000000E+02,1.00000000000000E+02,1.00000000000000E+02,1.00000000000000E+02,1.00000000000000E+02,9.90566037736000E+01,1.00000000000000E+02,1.01406541476800E+02,1.01717598931500E+02,9.63586174144000E+01,9.07833586753000E+01,8.76995913709000E+01,8.52402654513000E+01,8.16518276867000E+01,7.42089295870000E+01,8.04934141666000E+01,6.91657582297000E+01,
LTU,,,,,,,,,,,,,,,,,,,,,,,,,,,,,,,,,,,,,,,,,1.00000000000000E+02,1.00863444913600E+02,9.93641893345000E+01,9.95080255380000E+01,1.00725781124900E+02,1.02614270459900E+02,1.01690154138900E+02,1.04750094692900E+02,1.01970081931500E+02,1.04453495332400E+02,1.02456318029500E+02,
LVA,,,,,,,,,,,,,,,,,,,,,,,,,,,,,,,,,,,,,,,,,1.00000000000000E+02,1.00930504825400E+02,9.80194664543000E+01,9.89823883110000E+01,1.03874082347300E+02,1.01727111058900E+02,1.02042610130000E+02,1.09394718816200E+02,1.08218106417400E+02,1.04211897585000E+02,1.05274804196400E+02,
MAC,,,,,,,,,,,,,,,,,,,,,,,,,,,,,,,,,,,,,,,,,1.00000000000000E+02,1.01276023648400E+02,1.01837678402200E+02,9.86512609298000E+01,9.55204588619000E+01,9.16564472983000E+01,9.04213108579000E+01,8.79177375015000E+01,8.26903604862000E+01,8.66643651496000E+01,8.82180991790000E+01,
MAR,,,,,,,,,,,,,,,,,,,,,9.01639344262000E+01,8.53448275862000E+01,8.91089108911000E+01,8.01980198020000E+01,7.97979797980000E+01,7.87878787879000E+01,8.28571428571000E+01,8.23008849558000E+01,9.25925925926000E+01,8.91891891892000E+01,8.49206349206000E+01,8.87931034483000E+01,9.20353982301000E+01,8.81818181818000E+01,7.96747967480000E+01,8.90625000000000E+01,9.15384615385000E+01,9.47826086957000E+01,1.05882352941200E+02,1.03883495145600E+02,1.00000000000000E+02,9.68790314221000E+01,1.01002060578100E+02,1.05493042510900E+02,1.04764805637400E+02,9.94799913073000E+01,1.00401043607900E+02,9.84245641536000E+01,1.31204877788400E+02,1.35642472302100E+02,1.28464312271500E+02,
MDA,,,,,,,,,,,,,,,,,,,,,,,,,,,,,,,,,,,,,,,,,1.00000000000000E+02,9.94594594595000E+01,1.02567567567600E+02,1.01648818630000E+02,9.98701404107000E+01,9.97305716932000E+01,9.88511447227000E+01,1.02661752661800E+02,9.75811965812000E+01,1.00408839779000E+02,1.04827736827700E+02,
MDG,,,,,,,,,,,,,,,,,,,,,8.33333333333000E+01,8.26086956522000E+01,9.21875000000000E+01,1.00000000000000E+02,1.06779661016900E+02,9.65517241379000E+01,1.12068965517200E+02,9.43661971831000E+01,9.43661971831000E+01,7.05128205128000E+01,8.09523809524000E+01,7.20930232558000E+01,7.11111111111000E+01,7.15909090909000E+01,7.76595744681000E+01,7.96116504854000E+01,8.15533980583000E+01,8.46938775510000E+01,9.37500000000000E+01,8.88888888889000E+01,1.00000000000000E+02,8.95417562111000E+01,8.60745603728000E+01,8.63463243824000E+01,8.05893223870000E+01,7.54101148329000E+01,7.40884086909000E+01,7.38990695058000E+01,7.03947938949000E+01,7.43447473340000E+01,7.47436733622000E+01,
MDV,,,,,,,,,,,,,,,,,,,,,,,,,,,,,,,,,,,,,,,,,1.00000000000000E+02,1.02381012728200E+02,1.03952520690300E+02,9.85788442007000E+01,9.44538120586000E+01,9.63617302633000E+01,1.04146568807100E+02,8.74124025222000E+01,8.71204863805000E+01,1.13142407390600E+02,1.14327151239800E+02,
MEX,,,,,,,,,,,,,,,,,,,,,3.05357142857100E+02,3.06557377049200E+02,2.45312500000000E+02,2.07352941176500E+02,1.97142857142900E+02,1.73913043478300E+02,1.09333333333300E+02,1.13253012048200E+02,9.03225806452000E+01,9.03225806452000E+01,1.02150537634400E+02,9.78494623656000E+01,9.69072164948000E+01,9.79166666667000E+01,9.59183673469000E+01,9.24528301887000E+01,9.61165048544000E+01,9.70588235294000E+01,9.40000000000000E+01,9.50000000000000E+01,1.00000000000000E+02,9.73843466061000E+01,9.78640567447000E+01,9.88236034054000E+01,1.01647071391700E+02,1.03583197073900E+02,1.04078855031000E+02,1.05060701291500E+02,1.05853509850200E+02,1.02510821380100E+02,1.04482278533600E+02,
MHL,,,,,,,,,,,,,,,,,,,,,,,,,,,,,,,,,,,,,,,,,1.00000000000000E+02,1.01887744183200E+02,9.96034691750000E+01,1.02527225026200E+02,1.09149976120900E+02,1.10798040091300E+02,1.11058917826500E+02,1.09302197738800E+02,1.09224474463700E+02,1.04663119636700E+02,1.04366731652500E+02,
MKD,,,,,,,,,,,,,,,,,,,,,,,,,,,,,,,,,,,,,,,,,1.00000000000000E+02,9.90188745040000E+01,9.86850626237000E+01,9.61623689098000E+01,9.54345130047000E+01,9.43070331081000E+01,9.17887941864000E+01,9.06702496452000E+01,8.90931999507000E+01,9.37726338697000E+01,8.72347943693000E+01,
MLI,,,,,,,,,,,,,,,,,,,,,1.16406250000000E+02,1.07142857142900E+02,1.09803921568600E+02,1.19354838709700E+02,1.24705882352900E+02,1.21176470588200E+02,1.12000000000000E+02,1.26851851851900E+02,1.28440366972500E+02,1.30693069306900E+02,1.34782608695700E+02,1.26956521739100E+02,1.13333333333300E+02,1.09482758620700E+02,1.00884955752200E+02,1.09600000000000E+02,1.10743801652900E+02,1.06542056074800E+02,1.11764705882400E+02,1.00990099009900E+02,1.00000000000000E+02,9.47802864037000E+01,1.01084614276400E+02,1.20446449182100E+02,1.11545775600900E+02,9.44131205142000E+01,1.04551544935600E+02,1.07808657279200E+02,1.10077095815500E+02,1.24383046407400E+02,1.55867792894600E+02,
MLT,,,,,,,,,,,,,,,,,,,,,,,,,,,,,,,,,,,,,,,,,1.00000000000000E+02,9.28161858949000E+01,8.84789563874000E+01,9.23279704316000E+01,8.53681090498000E+01,8.04507769893000E+01,7.69837503610000E+01,7.39189944224000E+01,6.97564352451000E+01,7.21235677243000E+01,6.83813071348000E+01,
MMR,,,,,,,,,,,,,,,,,,,,,,7.21052631578900E+02,6.17647058823500E+02,6.00000000000000E+02,6.00000000000000E+02,3.39024390243900E+02,2.73809523809500E+02,2.20930232558100E+02,2.52173913043500E+02,2.73469387755100E+02,2.51851851851900E+02,2.22807017543900E+02,1.77586206896600E+02,1.60000000000000E+02,1.86764705882400E+02,2.14285714285700E+02,1.65116279069800E+02,1.25490196078400E+02,1.15686274509800E+02,1.10101010101000E+02,1.00000000000000E+02,1.04068624262900E+02,9.70661894314000E+01,1.06708467800900E+02,1.04231936565500E+02,1.07805627933400E+02,1.18310266359100E+02,1.09960783479800E+02,1.20077286752500E+02,1.17021114927800E+02,1.10318534102100E+02,
MNG,,,,,,,,,,,,,,,,,,,,,,,,,,,,,,,,,,,,,,,,,1.00000000000000E+02,9.97730030892000E+01,1.05733527183500E+02,1.09885759825500E+02,1.23727141857800E+02,1.25835993607800E+02,1.66051130699900E+02,1.67469579803900E+02,1.81921167770800E+02,1.74948615211900E+02,2.13256453241600E+02,
MNP,,,,,,,,,,,,,,,,,,,,,,,,,,,,,,,,,,,,,,,,,1.00000000000000E+02,1.02942277440400E+02,1.03908197495900E+02,1.00476475440800E+02,9.43732419678000E+01,8.31412544610000E+01,8.01181461552000E+01,8.01866202795000E+01,7.61625391133000E+01,8.88706845392000E+01,9.51256357019000E+01,
MOZ,,,,,,,,,,,,,,,,,,,,,2.40277777777800E+02,2.54666666666700E+02,2.23287671232900E+02,2.25714285714300E+02,2.20634920634900E+02,2.15384615384600E+02,2.20833333333300E+02,2.16049382716000E+02,1.95454545454500E+02,1.83516483516500E+02,1.75000000000000E+02,1.78000000000000E+02,1.41414141414100E+02,1.35051546391800E+02,1.62195121951200E+02,1.51063829787200E+02,1.15151515151500E+02,1.15841584158400E+02,1.16666666666700E+02,1.17708333333300E+02,1.00000000000000E+02,9.70256572939000E+01,9.15964884369000E+01,9.51701042804000E+01,1.02685932757500E+02,1.06195313403500E+02,1.21679539813100E+02,1.16632739716800E+02,1.09230216245900E+02,9.62646895064000E+01,1.08101266195500E+02,
MRT,,,,,,,,,,,,,,,,,,,,,7.22627737226000E+01,7.93893129771000E+01,8.08000000000000E+01,7.70491803279000E+01,8.07017543860000E+01,8.80341880342000E+01,9.32773109244000E+01,9.37500000000000E+01,8.65248226950000E+01,9.71428571429000E+01,9.73154362416000E+01,1.04081632653100E+02,1.09803921568600E+02,1.20270270270300E+02,9.70370370370000E+01,1.02205882352900E+02,9.37500000000000E+01,1.02941176470600E+02,1.03333333333300E+02,1.03773584905700E+02,1.00000000000000E+02,9.80829189084000E+01,9.47258549739000E+01,9.18482048618000E+01,9.39236991885000E+01,1.21703094187900E+02,1.32943682982100E+02,1.24454028721800E+02,1.47010074655600E+02,1.49294345967500E+02,1.39530399828700E+02,
MUS,,,,,,,,,,,,,,,,,,,,,9.25000000000000E+01,8.24175824176000E+01,7.80487804878000E+01,7.97468354430000E+01,8.13333333333000E+01,8.02816901408000E+01,8.70129870130000E+01,9.63855421687000E+01,9.66292134831000E+01,9.33333333333000E+01,9.26315789474000E+01,9.41747572816000E+01,9.31372549020000E+01,9.05660377358000E+01,8.92156862745000E+01,8.84955752212000E+01,9.06779661017000E+01,9.13793103448000E+01,9.41747572816000E+01,9.69387755102000E+01,1.00000000000000E+02,9.45152757613000E+01,9.81330716349000E+01,1.04464256844300E+02,1.00867786647600E+02,9.19537238066000E+01,8.68649754102000E+01,8.64073929360000E+01,7.61629505908000E+01,8.09800086969000E+01,7.31604662672000E+01,
MWI,,,,,,,,,,,,,,,,,,,,,1.63333333333300E+02,1.95238095238100E+02,2.00000000000000E+02,1.85964912280700E+02,1.91071428571400E+02,1.67346938775500E+02,1.44827586206900E+02,1.37313432835800E+02,1.29333333333300E+02,1.38157894736800E+02,1.48235294117600E+02,1.57471264367800E+02,1.27777777777800E+02,1.14117647058800E+02,8.93203883495000E+01,1.05660377358500E+02,1.12380952381000E+02,1.17142857142900E+02,1.03092783505200E+02,1.06122448979600E+02,1.00000000000000E+02,1.00546254218500E+02,9.21715318633000E+01,8.74869616497000E+01,8.40862681134000E+01,8.24425655640000E+01,8.64620865294000E+01,8.45864336465000E+01,7.92044199867000E+01,9.78672829003000E+01,8.98642518726000E+01,
MYS,,,,,,,,,,,,,,,,,,,,,7.14285714286000E+01,6.22807017544000E+01,6.44859813084000E+01,7.05882352941000E+01,8.63157894737000E+01,8.02197802198000E+01,7.53086419753000E+01,8.75000000000000E+01,8.88888888889000E+01,9.42307692308000E+01,1.02727272727300E+02,1.09174311926600E+02,1.09090909090900E+02,1.08571428571400E+02,1.10185185185200E+02,1.08547008547000E+02,1.12068965517200E+02,1.11214953271000E+02,1.07000000000000E+02,1.05102040816300E+02,1.00000000000000E+02,9.95993997944000E+01,9.99461431607000E+01,1.02305515111300E+02,1.01867659395000E+02,1.02211532700600E+02,1.01606246803700E+02,1.01974212441000E+02,1.04337336490600E+02,9.96582363838000E+01,1.00912797801200E+02,
NAM,,,,,,,,,,,,,,,,,,,,,1.12230215827300E+02,9.55555555556000E+01,8.99224806202000E+01,8.77697841727000E+01,9.03508771930000E+01,1.07042253521100E+02,9.65517241379000E+01,8.98148148148000E+01,1.02830188679200E+02,1.03508771929800E+02,9.27536231884000E+01,7.60563380282000E+01,7.48344370861000E+01,7.92307692308000E+01,8.83720930233000E+01,8.26086956522000E+01,9.04000000000000E+01,9.19354838710000E+01,9.54128440367000E+01,9.42857142857000E+01,1.00000000000000E+02,1.00509100480900E+02,1.00139488368100E+02,9.81877789432000E+01,1.00065453189100E+02,1.05024382651400E+02,1.32242288185000E+02,1.40193423993700E+02,1.26180239569400E+02,1.26567945954900E+02,1.20493149435100E+02,
NER,,,,,,,,,,,,,,,,,,,,,2.30487804878000E+02,1.87323943662000E+02,2.21052631578900E+02,2.58333333333300E+02,2.27450980392200E+02,2.05882352941200E+02,2.26229508196700E+02,2.25352112676100E+02,2.01315789473700E+02,1.84931506849300E+02,1.65060240963900E+02,1.52439024390200E+02,1.43478260869600E+02,1.46031746031700E+02,1.19101123595500E+02,1.21428571428600E+02,1.06060606060600E+02,1.00000000000000E+02,9.90099009901000E+01,9.32692307692000E+01,1.00000000000000E+02,1.01067224388300E+02,1.01256225597400E+02,1.02378981738500E+02,1.12125449776800E+02,1.25129018178800E+02,1.36958370302600E+02,1.70876174652500E+02,1.50833317412100E+02,1.39985843743100E+02,1.44303411476500E+02,
NGA,,,,,,,,,,,,,,,,,,,,,1.81250000000000E+02,1.92000000000000E+02,1.63636363636400E+02,1.55172413793100E+02,1.54545454545500E+02,1.43478260869600E+02,7.02702702703000E+01,7.26027397260000E+01,6.09375000000000E+01,7.57142857143000E+01,8.85057471264000E+01,7.43902439024000E+01,6.50406504065000E+01,5.94059405941000E+01,5.61224489796000E+01,5.55555555556000E+01,8.69047619048000E+01,6.50943396226000E+01,4.38775510204000E+01,5.95959595960000E+01,1.00000000000000E+02,9.04886578480000E+01,9.16843302432000E+01,1.02352046632800E+02,1.20927142277800E+02,1.57332457720200E+02,1.77391163136300E+02,1.78618858449900E+02,2.16631779858900E+02,1.55062844307500E+02,1.87424454425800E+02,
NIC,,,,,,,,,,,,,,,,,,,,,1.62162162162200E+02,1.39759036144600E+02,1.23333333333300E+02,1.38356164383600E+02,1.76119402985100E+02,1.23376623376600E+02,1.49295774647900E+02,1.14814814814800E+02,1.25301204819300E+02,1.14457831325300E+02,1.55000000000000E+02,1.26506024096400E+02,9.30232558140000E+01,1.04651162790700E+02,1.22891566265100E+02,1.28888888888900E+02,1.13978494623700E+02,1.09000000000000E+02,1.13684210526300E+02,1.05376344086000E+02,1.00000000000000E+02,8.84081324207000E+01,8.69936244430000E+01,8.40517318995000E+01,8.24952650977000E+01,8.13702667235000E+01,7.93931055434000E+01,7.86368785236000E+01,7.51573844021000E+01,8.24168688730000E+01,8.16538137090000E+01,
NLD,,,,,,,,,,,,,,,,,,,,,9.21321500000000E+01,9.26117300000000E+01,9.37094000000000E+01,9.27125000000000E+01,9.48015900000000E+01,9.57689500000000E+01,9.86100900000000E+01,9.51216400000000E+01,9.55332300000000E+01,9.36993000000000E+01,9.57689500000000E+01,9.62520900000000E+01,9.60286200000000E+01,9.60539800000000E+01,9.65148200000000E+01,9.76084400000000E+01,9.80765900000000E+01,9.91834300000000E+01,9.99127700000000E+01,9.97421500000000E+01,1.00000000000000E+02,1.01590000000000E+02,1.03039200000000E+02,1.03831100000000E+02,1.03354600000000E+02,1.03933400000000E+02,1.03548900000000E+02,1.03352100000000E+02,1.03314300000000E+02,1.02507900000000E+02,1.01764300000000E+02,
NOR,,,,,,,,,,,,,,,,,,,,,7.74195300000000E+01,8.39314400000000E+01,8.57144900000000E+01,8.46827700000000E+01,9.13485600000000E+01,8.91313200000000E+01,6.70562800000000E+01,6.30331400000000E+01,6.12953900000000E+01,6.51099100000000E+01,6.71164900000000E+01,6.60864000000000E+01,6.20487700000000E+01,6.12657400000000E+01,5.88418100000000E+01,6.03018000000000E+01,6.55810500000000E+01,6.76197500000000E+01,6.05240800000000E+01,7.14692200000000E+01,1.00000000000000E+02,9.61606500000000E+01,9.01439100000000E+01,9.12961000000000E+01,1.01509600000000E+02,1.23042900000000E+02,1.40896600000000E+02,1.35639100000000E+02,1.55836400000000E+02,1.22021300000000E+02,1.40359900000000E+02,
NPL,,,,,,,,,,,,,,,,,,,,,,,,,,,,,,,,,,,,,,,,,1.00000000000000E+02,1.01542927378600E+02,1.01622527095400E+02,9.77100538454000E+01,9.40471932480000E+01,8.53970406357000E+01,8.47479926487000E+01,8.48816258667000E+01,7.72672580988000E+01,8.17597304362000E+01,7.82902148015000E+01,
NZL,,,,,,,,,,,,,,,,,,,,,8.84490500000000E+01,8.79010100000000E+01,8.69007700000000E+01,8.47703900000000E+01,8.45953800000000E+01,8.31011700000000E+01,8.31340500000000E+01,9.22599300000000E+01,9.85547500000000E+01,1.03566000000000E+02,1.02184400000000E+02,9.68751800000000E+01,9.81601200000000E+01,1.01249300000000E+02,1.00583900000000E+02,9.90368300000000E+01,9.80746800000000E+01,9.62418700000000E+01,9.62786700000000E+01,9.60938400000000E+01,1.00000000000000E+02,1.04495400000000E+02,9.86647400000000E+01,1.02403300000000E+02,1.08348800000000E+02,1.07488500000000E+02,1.09516100000000E+02,1.18063200000000E+02,1.21328700000000E+02,1.10986100000000E+02,1.24406600000000E+02,
OMN,,,,,,,,,,,,,,,,,,,,,,,,,,,,,,,,,,,,,,,,,1.00000000000000E+02,8.62725271157000E+01,9.73391177204000E+01,1.17359735378900E+02,1.12072894920000E+02,1.55590108345100E+02,1.80174556780900E+02,1.77020908686900E+02,2.52830792144800E+02,1.50137748598400E+02,1.94386301755300E+02,
PAK,,,,,,,,,,,,,,,,,,,,,1.29487179487200E+02,1.16666666666700E+02,1.12941176470600E+02,1.20779220779200E+02,1.22784810126600E+02,1.16438356164400E+02,1.50000000000000E+02,1.35064935064900E+02,1.24390243902400E+02,1.14117647058800E+02,1.08695652173900E+02,1.05555555555600E+02,1.04545454545500E+02,1.07142857142900E+02,1.07777777777800E+02,1.19191919191900E+02,1.20000000000000E+02,1.18556701030900E+02,1.36046511627900E+02,1.17204301075300E+02,1.00000000000000E+02,9.98542793476000E+01,9.48121021057000E+01,8.86783621420000E+01,8.45563490109000E+01,7.51858445664000E+01,7.00144627963000E+01,6.55391904665000E+01,5.76256944120000E+01,6.48306035450000E+01,6.23679569439000E+01,
PAN,,,,,,,,,,,,,,,,,,,,,,9.45945945946000E+01,8.69565217391000E+01,9.14285714286000E+01,9.00000000000000E+01,1.02898550724600E+02,1.00000000000000E+02,8.90243902439000E+01,8.00000000000000E+01,7.52808988764000E+01,6.87500000000000E+01,8.27586206897000E+01,1.04301075268800E+02,1.06818181818200E+02,1.10344827586200E+02,1.00000000000000E+02,1.02083333333300E+02,1.03125000000000E+02,1.03092783505200E+02,1.06315789473700E+02,1.00000000000000E+02,1.02662108032000E+02,1.01645585371900E+02,9.71830822271000E+01,9.53320273486000E+01,9.35161943095000E+01,9.08443123550000E+01,8.99791554546000E+01,8.58891408319000E+01,9.00227829411000E+01,8.74507176761000E+01,
PER,,,,,,,,,,,,,,,,,,,,,2.45588235294100E+02,2.01388888888900E+02,2.00000000000000E+02,1.93150684931500E+02,1.95714285714300E+02,1.70769230769200E+02,1.29166666666700E+02,1.28571428571400E+02,1.39759036144600E+02,1.19148936170200E+02,1.14141414141400E+02,1.07216494845400E+02,1.17525773195900E+02,1.10526315789500E+02,1.18556701030900E+02,1.23364485981300E+02,1.19444444444400E+02,1.27184466019400E+02,1.11224489795900E+02,1.03157894736800E+02,1.00000000000000E+02,9.55999835988000E+01,9.84452951559000E+01,1.02231563062300E+02,1.11318937995200E+02,1.19414752365900E+02,1.52073343047500E+02,1.57583175236100E+02,1.36650105633900E+02,1.29136648220000E+02,1.52468102697500E+02,
PHL,,,,,,,,,,,,,,,,,,,,,9.91176470588000E+01,7.06422018349000E+01,7.43772241993000E+01,7.19457013575000E+01,6.90322580645000E+01,8.01980198020000E+01,8.67469879518000E+01,9.40476190476000E+01,1.06024096385500E+02,9.77272727273000E+01,8.73684210526000E+01,9.34065934066000E+01,7.92079207921000E+01,7.76699029126000E+01,7.78846153846000E+01,8.01980198020000E+01,8.11320754717000E+01,8.24074074074000E+01,8.73873873874000E+01,1.02884615384600E+02,1.00000000000000E+02,9.92060039808000E+01,9.25023090475000E+01,9.56428747369000E+01,9.25349366063000E+01,8.62451593608000E+01,7.72661659221000E+01,7.57119614351000E+01,6.76561039468000E+01,7.20258745803000E+01,6.96431660640000E+01,
PLW,,,,,,,,,,,,,,,,,,,,,,,,,,,,,,,,,,,,,,,,,1.00000000000000E+02,9.95503118204000E+01,9.81255056884000E+01,9.46853633237000E+01,9.67576916267000E+01,1.03983113467300E+02,1.14986579756500E+02,9.36901854499000E+01,9.63978314553000E+01,1.08781037539400E+02,1.14134693921900E+02,
PNG,,,,,,,,,,,,,,,,,,,,,,,,,,,,,,,,,,,,,,,,,1.00000000000000E+02,9.26525760647000E+01,8.90147048981000E+01,9.76636995928000E+01,1.08402845226700E+02,1.16206296264000E+02,1.70148173273400E+02,1.70261706039300E+02,1.62646986242900E+02,1.24170362810800E+02,1.50456350679300E+02,
POL,,,,,,,,,,,,,,,,,,,,,,,,,,,,,,,,,,,,,,,,,1.00000000000000E+02,1.01837582097300E+02,1.05251238639600E+02,1.01662336765600E+02,1.06565742080500E+02,1.06753394469300E+02,1.06566541621400E+02,1.08723496933200E+02,1.06933128362800E+02,1.07149967792900E+02,9.99081204060000E+01,
PRK,,,,,,,,,,,,,,,,,,,,,,,,,,,,,,,,,,,,,,,,,1.00000000000000E+02,1.02810193115200E+02,9.84233022456000E+01,9.27061900505000E+01,8.75895154420000E+01,8.38603315701000E+01,8.12868420708000E+01,7.76225621445000E+01,7.57415979966000E+01,8.30730033944000E+01,7.89806068787000E+01,
PRT,,,,,,,,,,,,,,,,,,,,,,,,8.52135400000000E+01,8.24291200000000E+01,8.89444700000000E+01,1.00483300000000E+02,1.02609400000000E+02,1.05743500000000E+02,1.04044900000000E+02,1.03537400000000E+02,1.03406900000000E+02,1.06617000000000E+02,1.05274900000000E+02,1.06538100000000E+02,1.04737700000000E+02,1.01222100000000E+02,1.03630500000000E+02,1.06338700000000E+02,1.03103800000000E+02,1.00000000000000E+02,1.04538900000000E+02,1.05818100000000E+02,1.01621200000000E+02,1.01626800000000E+02,1.01606600000000E+02,1.03489700000000E+02,1.04988300000000E+02,1.00924400000000E+02,1.09367100000000E+02,1.03566600000000E+02,
PRY,,,,,,,,,,,,,,,,,,,,,6.81818181818000E+01,7.18518518519000E+01,7.43589743590000E+01,6.90265486726000E+01,9.35185185185000E+01,6.20000000000000E+01,5.80246913580000E+01,8.75000000000000E+01,1.00000000000000E+02,1.20987654321000E+02,1.03370786516900E+02,1.03488372093000E+02,9.44444444444000E+01,1.03448275862100E+02,1.25882352941200E+02,1.18279569892500E+02,1.18279569892500E+02,1.18279569892500E+02,1.09000000000000E+02,1.04123711340200E+02,1.00000000000000E+02,1.00197082882900E+02,9.66501665066000E+01,1.01436314738900E+02,1.04280362960700E+02,9.73938172430000E+01,9.55208955363000E+01,1.00069522125100E+02,1.07347216421500E+02,1.04961765483500E+02,1.02943293288500E+02,
PYF,,,,,,,,,,,,,,,,,,,,,,,,,,,,,,,,,,,,,,,,,1.00000000000000E+02,1.00237866064100E+02,9.82509814344000E+01,9.52533283307000E+01,9.14541699294000E+01,8.82127480621000E+01,8.74241814007000E+01,8.45176380926000E+01,8.05368076250000E+01,8.65494906446000E+01,8.28645022958000E+01,
QAT,,,,,,,,,,,,,,,,,,,,,,,,,,,,,,,,,,,,,,,,,1.00000000000000E+02,9.47202134470000E+01,8.69003788791000E+01,1.05770060282600E+02,1.21572427496400E+02,1.60167431374500E+02,1.88713402657000E+02,1.87662865903800E+02,2.51951306298900E+02,1.71109445250200E+02,1.90076295411900E+02,
ROM,,,,,,,,,,,,,,,,,,,,,,,,,,,,,,,,,,,,,,,,,1.00000000000000E+02,9.98842409524000E+01,9.98238699843000E+01,9.77778728282000E+01,9.79821237337000E+01,9.82056272594000E+01,9.73384346750000E+01,9.79220158566000E+01,9.79845548491000E+01,1.00856383383000E+02,9.93807951656000E+01,
RUS,,,,,,,,,,,,,,,,,,,,,,,,,,,,,,,,,,,,,,,,,1.00000000000000E+02,9.67174157421000E+01,9.31044554286000E+01,1.07020696085200E+02,1.23880498767300E+02,1.55575805797800E+02,1.77941348621600E+02,1.86428151553400E+02,2.38183140460300E+02,1.79574999869500E+02,2.02140622968900E+02,
RWA,,,,,,,,,,,,,,,,,,,,,5.68965517241000E+01,4.60606060606000E+01,6.78832116788000E+01,8.46153846154000E+01,8.80952380952000E+01,6.09022556391000E+01,7.89473684211000E+01,3.97435897436000E+01,4.87500000000000E+01,4.08284023669000E+01,4.02298850575000E+01,8.11111111111000E+01,6.91489361702000E+01,8.06818181818000E+01,9.04255319149000E+01,1.10101010101000E+02,9.23076923077000E+01,1.30612244898000E+02,1.10344827586200E+02,9.32584269663000E+01,1.00000000000000E+02,9.92320524049000E+01,9.54387436179000E+01,9.97848123396000E+01,1.15447763469700E+02,1.62045043532300E+02,1.68897162622600E+02,1.65881116613100E+02,2.19633654272600E+02,2.18070949381000E+02,2.30262910305300E+02,
SAU,,,,,,,,,,,,,,,,,,,,,,,,,,,,,,,,,,,,,,,,,1.00000000000000E+02,1.05479445231800E+02,1.04024576464400E+02,1.13666836288800E+02,1.29169321007500E+02,1.77559054607000E+02,2.01644793221600E+02,2.36153426235900E+02,2.66444620202500E+02,1.75987893317100E+02,2.23944710992200E+02,
SDN,,,,,,,,,,,,,,,,,,,,,9.11392405063000E+01,1.06329113924100E+02,1.00000000000000E+02,1.00000000000000E+02,1.00000000000000E+02,1.00000000000000E+02,1.00000000000000E+02,1.00000000000000E+02,1.00000000000000E+02,1.00000000000000E+02,1.00000000000000E+02,1.00000000000000E+02,1.00000000000000E+02,1.00000000000000E+02,1.00000000000000E+02,1.00000000000000E+02,1.00000000000000E+02,1.00000000000000E+02,1.00000000000000E+02,1.00000000000000E+02,1.00000000000000E+02,9.14125262757000E+01,8.92912250625000E+01,1.00052059655700E+02,1.17058411271500E+02,1.52167640232400E+02,1.73534411734900E+02,1.79961967815800E+02,2.24327647681600E+02,1.63972096991000E+02,1.98867538793400E+02,
SEN,,,,,,,,,,,,,,,,,,,,,1.58415841584200E+02,1.65591397849500E+02,1.43820224719100E+02,1.39759036144600E+02,1.61842105263200E+02,1.63636363636400E+02,1.72289156626500E+02,1.68750000000000E+02,1.66666666666700E+02,1.71875000000000E+02,1.72222222222200E+02,1.71428571428600E+02,1.72222222222200E+02,1.66666666666700E+02,1.33035714285700E+02,1.56250000000000E+02,1.65656565656600E+02,1.26315789473700E+02,1.30434782608700E+02,1.14851485148500E+02,1.00000000000000E+02,9.86615471608000E+01,9.70790244966000E+01,9.79074549355000E+01,9.77069548815000E+01,9.66031588012000E+01,9.92554850479000E+01,9.76821868327000E+01,9.75165601839000E+01,1.00156181127200E+02,1.01560113254500E+02,
SGP,,,,,,,,,,,,,,,,,,,,,1.26804123711300E+02,1.30303030303000E+02,1.31914893617000E+02,1.29032258064500E+02,1.25274725274700E+02,1.25581395348800E+02,1.22077922077900E+02,1.16279069767400E+02,1.15555555555600E+02,1.13978494623700E+02,1.16161616161600E+02,1.12871287128700E+02,1.09708737864100E+02,1.09803921568600E+02,1.05607476635500E+02,1.04347826087000E+02,1.04385964912300E+02,1.04672897196300E+02,1.04301075268800E+02,1.03225806451600E+02,1.00000000000000E+02,9.59152303274000E+01,9.43958393938000E+01,9.06774923089000E+01,8.93947434438000E+01,8.67603852339000E+01,8.60725845674000E+01,8.44808025802000E+01,8.30761278889000E+01,8.26223285750000E+01,8.31937936862000E+01,
SLB,,,,,,,,,,,,,,,,,,,,,1.98150530827900E+02,1.40877742946700E+02,1.44339568592600E+02,1.40490461017200E+02,1.99132688496300E+02,1.91395000000000E+02,1.16731814961900E+02,1.08428025508700E+02,8.49919856861000E+01,,,,,,,,,,,,1.00000000000000E+02,1.00686602081400E+02,1.06614504123900E+02,1.08998376048600E+02,1.09732396442300E+02,9.96959211478000E+01,1.00762521250100E+02,1.07130293092100E+02,8.98049083995000E+01,8.84093981265000E+01,9.33829139523000E+01,
SLE,,,,,,,,,,,,,,,,,,,,,,,,,,,,,,,,,,,,,,,,,1.00000000000000E+02,9.57197174551000E+01,9.71303985136000E+01,9.01699727601000E+01,8.56840152412000E+01,7.31548193443000E+01,7.12406704313000E+01,6.83448644552000E+01,6.33889489685000E+01,7.27024933871000E+01,7.10110896364000E+01,
SLV,,,,,,,,,,,,,,,,,,,,,9.39759036145000E+01,7.47368421053000E+01,6.69902912621000E+01,6.22222222222000E+01,5.90000000000000E+01,6.47727272727000E+01,1.28000000000000E+02,8.84615384615000E+01,8.84615384615000E+01,8.35294117647000E+01,8.42105263158000E+01,8.42857142857000E+01,7.43902439024000E+01,7.71084337349000E+01,9.76470588235000E+01,1.21111111111100E+02,1.13978494623700E+02,1.13684210526300E+02,1.11224489795900E+02,1.05208333333300E+02,1.00000000000000E+02,1.02452337099800E+02,1.01632729283700E+02,9.76859591893000E+01,9.67554832910000E+01,9.67555012810000E+01,9.54579665560000E+01,9.45574266546000E+01,9.19062539037000E+01,9.48710038780000E+01,9.13244654371000E+01,
SOM,,,,,,,,,,,,,,,,,,,,,,,,,,,,,,,,,,,,,,,,,1.00000000000000E+02,9.91088864913000E+01,9.68840023705000E+01,1.01606963049100E+02,1.04746202249600E+02,1.03738365739300E+02,1.07058104570500E+02,1.06298750527700E+02,1.01080508655000E+02,1.01764438869100E+02,1.08095064423700E+02,
STP,,,,,,,,,,,,,,,,,,,,,,,,,,,2.20238095238100E+02,2.00000000000000E+02,2.70666666666700E+02,1.07446808510600E+02,1.01020408163300E+02,1.03030303030300E+02,9.32038834951000E+01,1.04901960784300E+02,1.15887850467300E+02,1.00000000000000E+02,1.24347826087000E+02,1.36111111111100E+02,1.21875000000000E+02,1.13725490196100E+02,1.00000000000000E+02,1.04259245503200E+02,1.43458372009900E+02,1.35155836433200E+02,1.28793139091700E+02,1.13403425626700E+02,1.07355201074800E+02,1.09808911450700E+02,1.17192390989900E+02,1.35079919461700E+02,1.32682406623800E+02,
SUR,,,,,,,,,,,,,,,,,,,,,,,,,,,,,,,,,,,,,,,,,1.00000000000000E+02,9.19489645869000E+01,9.69369960488000E+01,1.04097051503800E+02,1.28284149029800E+02,1.28199874075000E+02,1.55031849273100E+02,1.53108181661900E+02,1.52192612531500E+02,1.53143246758100E+02,1.77887479869900E+02,
SVK,,,,,,,,,,,,,,,,,,,,,,,,,,,,,,,,,,,,,,,,,1.00000000000000E+02,9.90327709505000E+01,9.98216196482000E+01,9.82862069380000E+01,9.74975891903000E+01,9.57544105703000E+01,9.32873993381000E+01,9.29168112932000E+01,8.86472068854000E+01,8.99499999622000E+01,8.89027998800000E+01,
SVN,,,,,,,,,,,,,,,,,,,,,,,,,,,,,,,,,,,,,,,,,1.00000000000000E+02,1.01290313103700E+02,1.01980323192400E+02,9.97334729543000E+01,9.69821231958000E+01,9.26993838130000E+01,9.08330510594000E+01,9.08780080055000E+01,8.77915194106000E+01,9.08289361020000E+01,8.88498789425000E+01,
SWE,,,,,,,,,,,,,,,,,,,,,9.48642300000000E+01,9.24922900000000E+01,9.06371800000000E+01,8.98369100000000E+01,9.18043100000000E+01,9.26922800000000E+01,1.03986900000000E+02,1.05603300000000E+02,1.07487100000000E+02,1.09081300000000E+02,1.08502300000000E+02,1.08608800000000E+02,1.08367500000000E+02,1.04744000000000E+02,1.05510200000000E+02,1.10242000000000E+02,1.08583800000000E+02,1.07431600000000E+02,1.08081100000000E+02,1.03969900000000E+02,1.00000000000000E+02,9.70882000000000E+01,9.50722400000000E+01,9.48281900000000E+01,9.24376000000000E+01,8.97252200000000E+01,8.82340400000000E+01,8.95592800000000E+01,8.65890700000000E+01,8.96136800000000E+01,8.86225300000000E+01,
SWZ,,,,,,,,,,,,,,,,,,,,,1.00000000000000E+02,1.00000000000000E+02,1.00000000000000E+02,1.00000000000000E+02,1.00000000000000E+02,1.00000000000000E+02,1.00000000000000E+02,1.00000000000000E+02,1.00000000000000E+02,1.00000000000000E+02,1.00000000000000E+02,1.00000000000000E+02,1.00000000000000E+02,1.00000000000000E+02,1.00000000000000E+02,1.00000000000000E+02,1.00000000000000E+02,1.00000000000000E+02,1.00000000000000E+02,1.00000000000000E+02,1.00000000000000E+02,1.00749826498800E+02,9.74797222902000E+01,9.42417766660000E+01,9.13762878671000E+01,9.32662992420000E+01,9.80956036997000E+01,9.03155680063000E+01,9.97221079716000E+01,1.10236012573500E+02,1.07078112727600E+02,
SYC,,,,,,,,,,,,,,,,,,,,,,,,,,1.11538461538500E+02,8.36538461538000E+01,8.50877192982000E+01,8.79310344828000E+01,7.66355140187000E+01,7.79661016949000E+01,7.13043478261000E+01,8.49557522124000E+01,9.32038834951000E+01,9.43396226415000E+01,1.02803738317800E+02,1.02803738317800E+02,9.71962616822000E+01,1.09574468085100E+02,1.01834862385300E+02,1.00000000000000E+02,8.91264526256000E+01,8.73255350396000E+01,8.39715783712000E+01,8.16270801862000E+01,7.84221240924000E+01,7.39034334343000E+01,6.86023616284000E+01,6.75662249211000E+01,7.43022546152000E+01,7.61007947797000E+01,
SYR,,,,,,,,,,,,,,,,,,,,,,,,,,,,,,,,,,,,,,,,,1.00000000000000E+02,9.09565275188000E+01,9.17953122154000E+01,9.81219984901000E+01,1.07294118210800E+02,1.18567212717900E+02,1.21601794946100E+02,1.26025637362800E+02,1.42943447385300E+02,1.30211338140200E+02,1.36032897663700E+02,
TCA,,,,,,,,,,,,,,,,,,,,,,,,,,,,,,,,,,,,,,,,,1.00000000000000E+02,9.12227292753000E+01,8.92582940334000E+01,9.07041161563000E+01,8.51473127162000E+01,8.01086038224000E+01,7.68009188267000E+01,7.51698131962000E+01,7.28994290679000E+01,7.78610782466000E+01,7.71229470422000E+01,
TCD,,,,,,,,,,,,,,,,,,,,,1.08333333333300E+02,1.06097560975600E+02,1.28846153846200E+02,1.09523809523800E+02,1.08823529411800E+02,1.18965517241400E+02,1.08823529411800E+02,1.03750000000000E+02,1.15189873417700E+02,9.39024390244000E+01,1.11827956989200E+02,1.08421052631600E+02,1.02040816326500E+02,9.25531914894000E+01,7.75700934579000E+01,9.26229508197000E+01,9.18518518519000E+01,9.25619834711000E+01,1.00840336134500E+02,9.56140350877000E+01,1.00000000000000E+02,8.53865299116000E+01,8.26017166101000E+01,9.96737202072000E+01,1.17908743395800E+02,1.53913996228400E+02,1.74962836892600E+02,1.75871457384500E+02,2.13303079422700E+02,1.47560913985400E+02,1.81427511027700E+02,
TGO,,,,,,,,,,,,,,,,,,,,,1.18269230769200E+02,1.22727272727300E+02,1.25000000000000E+02,1.26315789473700E+02,1.36486486486500E+02,1.38028169014100E+02,1.36585365853700E+02,1.30434782608700E+02,1.33333333333300E+02,1.30927835051500E+02,1.33333333333300E+02,1.24761904761900E+02,1.27522935779800E+02,9.04761904762000E+01,9.50495049505000E+01,9.91228070175000E+01,9.23728813559000E+01,1.00000000000000E+02,1.14851485148500E+02,1.14141414141400E+02,1.00000000000000E+02,3.77126069209000E+01,3.04369160098000E+01,2.43504731449000E+01,2.95114194032000E+01,2.13967437615000E+01,2.12970385250000E+01,2.32277598714000E+01,3.25722609690000E+01,3.17466967509000E+01,3.10835803697000E+01,
THA,,,,,,,,,,,,,,,,,,,,,1.51562500000000E+02,1.32394366197200E+02,1.20289855072500E+02,1.29230769230800E+02,1.26562500000000E+02,1.18032786885200E+02,1.30508474576300E+02,1.29230769230800E+02,1.27397260274000E+02,1.22077922077900E+02,1.18518518518500E+02,1.17647058823500E+02,1.20000000000000E+02,1.19767441860500E+02,1.21590909090900E+02,1.16000000000000E+02,1.14414414414400E+02,1.15094339622600E+02,1.08163265306100E+02,1.07368421052600E+02,1.00000000000000E+02,9.21632356455000E+01,9.22342076903000E+01,9.43297856078000E+01,9.60178651511000E+01,9.68634336966000E+01,9.57871396896000E+01,9.61298501729000E+01,9.42276200873000E+01,9.71835932013000E+01,9.79374756778000E+01,
TJK,,,,,,,,,,,,,,,,,,,,,,,,,,,,,,,,,,,,,,,,,1.00000000000000E+02,9.51311347803000E+01,9.26707928112000E+01,9.62822485348000E+01,9.21054797245000E+01,8.72833919200000E+01,9.85318232931000E+01,9.43190477614000E+01,8.57077550187000E+01,7.35077105453000E+01,8.63095659006000E+01,
TKM,,,,,,,,,,,,,,,,,,,,,,,,,,,,,,,,,,,,,,,,,1.00000000000000E+02,1.03078820708000E+02,8.42586366417000E+01,1.15831503090800E+02,1.20438314312800E+02,1.57114534794600E+02,1.98017598925400E+02,1.87669204424700E+02,2.59359674177700E+02,1.93455173895900E+02,2.10305346565400E+02,
TON,,,,,,,,,,,,,,,,,,,,,,,,,,,,,,,,,,,,,,,,,1.00000000000000E+02,9.85712347973000E+01,1.03266994626600E+02,9.86700142191000E+01,9.69773416819000E+01,8.84107343794000E+01,7.98204043639000E+01,6.99232816747000E+01,6.41622367164000E+01,7.69217373695000E+01,7.22971978201000E+01,
TTO,,,,,,,,,,,,,,,,,,,,,1.75929105077600E+02,1.71691272621000E+02,1.45242737806500E+02,1.43095208644900E+02,1.42028806468800E+02,1.37007241199200E+02,9.82053192888000E+01,8.99642671482000E+01,7.71819696045000E+01,8.47388613322000E+01,1.00000000000000E+02,,,,,,,,,,1.00000000000000E+02,9.83657487843000E+01,9.25582879546000E+01,1.06347445007400E+02,1.11715933655900E+02,1.23732042315100E+02,1.36351615040100E+02,1.34056855689200E+02,1.57117817944200E+02,1.30946590802500E+02,1.31605891548200E+02,
TUN,,,,,,,,,,,,,,,,,,,,,1.23595505618000E+02,1.19277108433700E+02,1.18421052631600E+02,1.12500000000000E+02,1.12857142857100E+02,1.11428571428600E+02,1.16000000000000E+02,1.16250000000000E+02,1.19047619047600E+02,1.17857142857100E+02,1.09183673469400E+02,1.04040404040400E+02,9.71962616822000E+01,9.50980392157000E+01,9.33333333333000E+01,9.57983193277000E+01,9.91666666667000E+01,9.64601769912000E+01,9.64285714286000E+01,9.72727272727000E+01,1.00000000000000E+02,1.00223660137100E+02,1.00119856977700E+02,9.70548163061000E+01,9.39475729656000E+01,9.26469196386000E+01,8.96719768834000E+01,8.96540900728000E+01,9.50622981978000E+01,9.42711725658000E+01,9.01553067197000E+01,
TUR,,,,,,,,,,,,,,,,,,,,,1.09090909090900E+02,1.03246753246800E+02,9.59641255605000E+01,9.53237410072000E+01,1.07178217821800E+02,9.57142857143000E+01,1.10169491525400E+02,1.17460317460300E+02,1.14400000000000E+02,1.05769230769200E+02,1.09090909090900E+02,1.11214953271000E+02,1.15384615384600E+02,1.20408163265300E+02,1.09615384615400E+02,1.05737704918000E+02,1.06956521739100E+02,1.11428571428600E+02,1.10891089108900E+02,1.09375000000000E+02,1.00000000000000E+02,9.77308104291000E+01,9.71433184993000E+01,9.70737638476000E+01,9.76192140145000E+01,9.67413161047000E+01,9.21477967461000E+01,9.47061869802000E+01,9.11573604061000E+01,9.49795017345000E+01,9.17334727547000E+01,
TZA,,,,,,,,,,,,,,,,,,,,,,,,,,,,1.60377358490600E+02,1.27777777777800E+02,1.20000000000000E+02,1.07446808510600E+02,1.11458333333300E+02,9.80000000000000E+01,1.00000000000000E+02,1.07843137254900E+02,9.79797979798000E+01,9.52830188679000E+01,9.86842105263000E+01,9.84000000000000E+01,9.90825688073000E+01,1.00000000000000E+02,9.45060726326000E+01,9.61724275607000E+01,9.81288062012000E+01,9.98354747747000E+01,9.64080164052000E+01,1.08812194989700E+02,1.07878570306300E+02,1.05975239192000E+02,1.18331675220500E+02,1.24894916729000E+02,
UGA,,,,,,,,,,,,,,,,,,,,,,,1.65217391304300E+02,2.47169811320800E+02,2.95698924731200E+02,3.15625000000000E+02,2.95238095238100E+02,1.91715976331400E+02,1.91612903225800E+02,1.83076923076900E+02,1.45689655172400E+02,1.33962264150900E+02,1.20388349514600E+02,1.13461538461500E+02,1.31428571428600E+02,1.97169811320800E+02,1.57657657657700E+02,1.56000000000000E+02,1.39000000000000E+02,1.20618556701000E+02,1.00000000000000E+02,9.29130781915000E+01,9.44930831928000E+01,9.49134144644000E+01,9.32727830232000E+01,9.61292588522000E+01,9.85814971750000E+01,9.89338893215000E+01,1.00657238306400E+02,1.10955268462100E+02,1.16042331054300E+02,
UKR,,,,,,,,,,,,,,,,,,,,,,,,,,,,,,,,,,,,,,,,,1.00000000000000E+02,9.87620501150000E+01,1.05059958348500E+02,1.01750060366200E+02,1.08706371850900E+02,1.06821375558500E+02,1.03079305415600E+02,1.10338869769100E+02,1.13686742545900E+02,1.19806476041900E+02,1.18761830610800E+02,
URY,,,,,,,,,,,,,,,,,,,,,1.40697674418600E+02,1.02521008403400E+02,1.06666666666700E+02,1.00000000000000E+02,1.06122448979600E+02,9.89473684211000E+01,1.17857142857100E+02,1.27272727272700E+02,1.29670329670300E+02,1.24742268041200E+02,1.15841584158400E+02,1.13725490196100E+02,1.10679611650500E+02,1.09090909090900E+02,1.08910891089100E+02,1.16190476190500E+02,1.12264150943400E+02,1.11428571428600E+02,1.19387755102000E+02,1.10752688172000E+02,1.00000000000000E+02,1.04042689723000E+02,1.02602190810600E+02,1.03475108667600E+02,9.99230218466000E+01,9.07428034934000E+01,8.85822272504000E+01,8.87446402042000E+01,9.40906807817000E+01,9.68785039628000E+01,9.95948016830000E+01,
USA,,,,,,,,,,,,,,,,,,,,,9.05369900000000E+01,9.36963300000000E+01,9.63365200000000E+01,1.01529700000000E+02,1.01087900000000E+02,1.02891400000000E+02,1.07530000000000E+02,1.02000200000000E+02,1.04126900000000E+02,1.03704100000000E+02,1.01371500000000E+02,1.02283900000000E+02,1.01572700000000E+02,1.02377600000000E+02,1.02823200000000E+02,1.03339400000000E+02,1.02863000000000E+02,1.04028600000000E+02,1.07052700000000E+02,1.04800800000000E+02,1.00000000000000E+02,1.02799100000000E+02,1.04358200000000E+02,1.02977100000000E+02,1.01238100000000E+02,9.71664500000000E+01,9.59543500000000E+01,9.65617600000000E+01,9.18127600000000E+01,9.89534300000000E+01,9.71081200000000E+01,
UZB,,,,,,,,,,,,,,,,,,,,,,,,,,,,,,,,,,,,,,,,,1.00000000000000E+02,9.24808658337000E+01,9.10421525201000E+01,1.06403423895400E+02,1.09067202174300E+02,1.12661985888400E+02,1.28983647560300E+02,1.28316082976700E+02,1.50225958758400E+02,1.29781464998600E+02,1.49561203558800E+02,
VCT,,,,,,,,,,,,,,,,,,,,,,,,,,,,,,,,,,,,,,,,,1.00000000000000E+02,9.16086113494000E+01,9.48298579634000E+01,9.32377900791000E+01,8.96792272125000E+01,7.91201974181000E+01,8.17099177316000E+01,8.37510793935000E+01,9.39534532333000E+01,1.14055733408700E+02,1.14179672989400E+02,
VEN,,,,,,,,,,,,,,,,,,,,,1.54117647058800E+02,1.57954545454500E+02,1.45054945054900E+02,1.54545454545500E+02,1.44303797468400E+02,1.43055555555600E+02,7.63157894737000E+01,8.91566265060000E+01,6.73913043478000E+01,7.74193548387000E+01,8.95833333333000E+01,7.31958762887000E+01,6.90000000000000E+01,6.40000000000000E+01,6.33663366337000E+01,6.33928571429000E+01,7.33944954128000E+01,7.08737864078000E+01,5.09803921569000E+01,6.80000000000000E+01,1.00000000000000E+02,8.22247937574000E+01,8.75831146212000E+01,9.87077616441000E+01,1.18080268583300E+02,1.54412983542900E+02,1.84395981493000E+02,2.02126330163300E+02,2.49471593552700E+02,1.81656578183300E+02,2.16258159778500E+02,
VNM,,,,,,,,,,,,,,,,,,,,,,,,,,,,,,,,,,,,,,,,,1.00000000000000E+02,9.63373909418000E+01,9.66899937134000E+01,9.43766122933000E+01,9.35497617028000E+01,9.60297976254000E+01,9.47075662053000E+01,9.16864290134000E+01,9.46440990376000E+01,9.82013413457000E+01,9.96660358335000E+01,
VUT,,,,,,,,,,,,,,,,,,,,,,,,,,,,,,,,,,,,,,,,,1.00000000000000E+02,9.28188364642000E+01,9.79633348079000E+01,9.56062025611000E+01,9.36583258832000E+01,8.99780247375000E+01,9.58806535060000E+01,8.02223869385000E+01,8.12372043863000E+01,1.04336168384300E+02,1.05092693117100E+02,
WSM,,,,,,,,,,,,,,,,,,,,,,,,,,,,,,,,,,,,,,,,,1.00000000000000E+02,9.98675154645000E+01,1.03008211991200E+02,9.54862224132000E+01,8.78795656471000E+01,8.35898504594000E+01,8.49700705538000E+01,8.05310672826000E+01,7.28935633619000E+01,8.03900995149000E+01,8.10572062291000E+01,
YEM,,,,,,,,,,,,,,,,,,,,,,,,,,,,,,,,,,,,,,,,,1.00000000000000E+02,8.87499533098000E+01,9.14703808864000E+01,9.79116832228000E+01,1.13761022074600E+02,1.39157903180400E+02,1.52449173012400E+02,1.49371153224100E+02,1.67478296042600E+02,1.31683213553800E+02,1.51217772206600E+02,
ZAF,,,,,,,,,,,,,,,,,,,,,1.26315789473700E+02,1.10526315789500E+02,9.73214285714000E+01,9.82758620690000E+01,1.04123711340200E+02,1.06097560975600E+02,1.08602150537600E+02,1.11818181818200E+02,1.11111111111100E+02,1.05660377358500E+02,1.04347826087000E+02,1.05309734513300E+02,1.02586206896600E+02,1.03636363636400E+02,1.07272727272700E+02,1.06034482758600E+02,1.07476635514000E+02,1.06603773584900E+02,1.04040404040400E+02,1.02040816326500E+02,1.00000000000000E+02,1.01236293224100E+02,1.03604143564200E+02,1.07220305352900E+02,1.08378867980300E+02,1.08833880398300E+02,1.19441868740800E+02,1.22561619043800E+02,1.32519088525300E+02,1.39242153895800E+02,1.40669613069000E+02,
ZAR,,,,,,,,,,,,,,,,,,,,,8.41232227488000E+01,8.27493261456000E+01,8.10126582278000E+01,8.29508196721000E+01,7.78280542986000E+01,8.47826086957000E+01,8.47715736041000E+01,8.46153846154000E+01,9.66292134831000E+01,1.14814814814800E+02,8.62068965517000E+01,8.08888888889000E+01,9.70711297071000E+01,9.00000000000000E+01,6.64987405542000E+01,7.97619047619000E+01,5.37634408602000E+01,6.73015873016000E+01,6.55581947743000E+01,1.03738317757000E+02,1.00000000000000E+02,1.01984274247800E+02,9.91213716776000E+01,9.65549920333000E+01,9.65250969586000E+01,1.12183975679400E+02,1.25037676791200E+02,1.23256748900100E+02,1.42294781947000E+02,1.11499424139700E+02,1.33679930000200E+02,
ZMB,,,,,,,,,,,,,,,,,,,,,2.22471910112400E+02,1.63636363636400E+02,1.20183486238500E+02,1.54166666666700E+02,1.62352941176500E+02,1.86153846153800E+02,2.04000000000000E+02,2.55555555555600E+02,3.12307692307700E+02,1.66355140186900E+02,2.06862745098000E+02,1.52671755725200E+02,1.26490066225200E+02,1.23239436619700E+02,1.51282051282100E+02,1.89655172413800E+02,1.52252252252300E+02,1.41739130434800E+02,1.12871287128700E+02,8.71287128713000E+01,1.00000000000000E+02,9.31129359098000E+01,9.05363072377000E+01,9.50036721557000E+01,1.15357358162500E+02,1.28843964313800E+02,1.96518175591300E+02,1.94484406541400E+02,1.73440657764400E+02,1.59709534343300E+02,1.92571824422700E+02,
ZWE,,,,,,,,,,,,,,,,,,,,,8.48591549296000E+01,7.22972972973000E+01,7.33840304183000E+01,8.15533980583000E+01,9.51086956522000E+01,9.69135802469000E+01,9.77011494253000E+01,9.68085106383000E+01,9.75124378109000E+01,9.61165048544000E+01,9.75124378109000E+01,9.83606557377000E+01,1.00000000000000E+02,9.73154362416000E+01,9.79729729730000E+01,9.67532467532000E+01,9.76047904192000E+01,9.69325153374000E+01,9.73214285714000E+01,9.70873786408000E+01,1.00000000000000E+02,9.46006616823000E+01,9.35748358171000E+01,9.51520326853000E+01,9.96080985213000E+01,9.32295539912000E+01,9.41434856803000E+01,1.05278835598100E+02,9.59783081793000E+01,1.08264941389900E+02,1.11075060572700E+02,
