"Country Code",1960,1961,1962,1963,1964,1965,1966,1967,1968,1969,1970,1971,1972,1973,1974,1975,1976,1977,1978,1979,1980,1981,1982,1983,1984,1985,1986,1987,1988,1989,1990,1991,1992,1993,1994,1995,1996,1997,1998,1999,2000,2001,2002,2003,2004,2005,2006,2007,2008,2009,2010,2011ALB,,,,,,,,,,,,,,,,,,,,,,,,,,,,,,,7.58114723406144E+00,,,,,,,,,,4.61645879850439E+00,3.19594266335743E+00,5.72548486226930E+00,3.78992568280740E+00,4.61721848390419E+00,1.37824843639453E+01,1.72610505027185E+01,1.68559170701873E+01,1.14440022446972E+01,,,
ARG,,,,,,,,,,,,,,,,,,,,,,,,,,,,,,,1.16699996721110E+01,,,9.54967536655161E+00,1.35349880983632E+01,1.48726235172867E+01,1.48589850788688E+01,1.55810935075288E+01,1.45487910875521E+01,1.55255966484522E+01,1.52028464239162E+01,1.61666348170984E+01,1.60776108963584E+01,,,,,,,,,
AUS,,,,,,,,,,,,,,,,,,,,,,,,,,,,,,,7.30315983971807E+00,7.83464841777058E+00,,8.89888031320239E+00,,,,,,,,,7.53944105878251E+00,6.90120723448559E+00,6.98012933305092E+00,7.13180365789540E+00,7.30780046664138E+00,,,,,
AUT,,,,,,,,,,,,,,,,,,,,,,,,,,,,,,,7.49257567810090E+00,7.45874016192484E+00,7.32209478953572E+00,7.57487536814786E+00,7.48321725052230E+00,5.14858639796091E+00,5.18802753355302E+00,6.24593172007902E+00,6.54395350289390E+00,6.23910332596302E+00,6.85644199491733E+00,5.46034446448850E+00,6.18662804357363E+00,6.62952793375478E+00,6.29001117683620E+00,6.73781880203375E+00,7.01774009465300E+00,7.06288930680117E+00,,,,
AZE,,,,,,,,,,,,,,,,,,,,,,,,,,,,,,,,,,,,,,,,,,6.18705649613149E+00,6.66136901421063E+00,4.52613012427302E+00,5.12333912412348E+00,6.81930084513387E+00,4.19515803632783E+00,5.08662834358336E+00,3.81232153350194E+00,,,
BDI,,,,,,,,,,,,,,,,,,,,,,,,,,,,,,,1.67048685378579E+00,1.54274364043310E+00,,,,,,,,,,,,,,,,,,,,
BEL,,,,,,,,,,,,,,,,,,,,,,,,,,,,,,,1.33693025257506E+01,1.36240169680255E+01,1.39417954055835E+01,1.34464367053457E+01,1.40801003874080E+01,1.72012324858575E+01,1.77697284293474E+01,1.76176514031135E+01,1.76316135000607E+01,1.94846392235208E+01,2.00708143655108E+01,2.04443957936685E+01,,2.09733296700229E+01,2.07700193020754E+01,2.18399401652210E+01,2.27556134326745E+01,2.08558323178060E+01,,,,
BGD,,,,,,,,,,,,,,,,,,,,,,,,,,,,,,,1.70221269343529E+01,1.70410744197337E+01,1.59533658312783E+01,,,1.11148253152800E+01,,,1.14617119604198E+01,,,,,,,,,,,,,
BGR,,,,,,,,,,,,,,,,,,,,,,,,,,,,,,,,,,,,,1.60137158290857E+01,1.18086493677330E+01,8.54985682844598E+00,9.18012029813212E+00,1.13956834772209E+01,1.16596002369475E+01,1.09548916342772E+01,9.37957987732673E+00,7.03984819172310E+00,7.05200452115582E+00,7.13976634495360E+00,6.77781410305118E+00,4.62420353462442E+00,,,
BIH,,,,,,,,,,,,,,,,,,,,,,,,,,,,,,,7.31498051958786E+00,9.59804467136816E+00,,,,,,,,,,,,,,,,,,,,
BLZ,,,,,,,,,,,,,,,,,,,,,,,,,,,,,,,2.79239887267904E+00,1.34861321680193E+01,1.41156863405273E+01,,,,,,,,,,,,,,,,,,,
BOL,,,,,,,,,,,,,,,,,,,,,,,,,,,,,,,2.75149280496468E+00,2.32995236196730E+00,2.71678468103036E+00,3.15345952253569E+00,3.06683371270101E+00,3.44287249566673E+00,3.53259857034551E+00,3.07785495817586E+00,5.10526777031822E+00,6.21530843371484E+00,4.18232342728620E+00,4.58774561662178E+00,,,,,,,,,,
BRA,,,,,,,,,,,,,,,,,,,,,,,,,,,,,,,1.92396982008125E+01,,1.87081304002813E+01,2.16886389746529E+01,2.13647327280791E+01,2.10075760819130E+01,1.28574349772703E+01,1.26820639934997E+01,1.29218751697678E+01,1.44749402493959E+01,1.23814929349407E+01,1.20665042174359E+01,1.20049844670409E+01,1.20640733031385E+01,1.20485211799601E+01,1.12774639788282E+01,1.07489199062417E+01,1.11967062565380E+01,,,,
BRB,,,,,,,,,,,,,,,,,,,,,,,,,,,,,,,1.41462106392377E+01,2.82480786474989E+01,3.06467398991090E+01,3.25569109419426E+01,2.94339272755154E+01,2.90738814430666E+01,3.03549077003757E+01,3.03549051447818E+01,,,,,,,,,,,,,,
BWA,,,,,,,,,,,,,,,,,,,,,,,,,,,,,,,,,7.09599044866015E+00,3.74498431667133E+00,7.29783024733522E+00,4.17072381309901E+00,,4.59967871301891E+00,,,,,,,,,,,,,,
CAF,,,,,,,,,,,,,,,,,,,,,,,,,,,,,,,6.36724058046724E+00,7.87713747415912E+00,1.04978879096582E+01,9.24599164789916E+00,,,,,,,,,,,,,,,,,,
CAN,,,,,,,,,,,,,,,,,,,,,,,,,,,,,,,1.06344315394566E+01,1.05908927566026E+01,1.05339345437413E+01,1.02637960064904E+01,1.00339759957140E+01,1.02599511632526E+01,1.00191290236232E+01,9.46612754997445E+00,8.50148113176054E+00,7.87457532320366E+00,7.55973065543028E+00,8.22692951496670E+00,8.59048618976575E+00,8.99826886083197E+00,7.28593062721758E+00,7.67534425387150E+00,8.16210123258478E+00,7.85467508148015E+00,,,,
CHL,,,,,,,,,,,,,,,,,,,,,,,,,,,,,,,9.86233303588500E+00,1.07444610787548E+01,1.08638905037454E+01,1.13471673853854E+01,1.11667609244322E+01,1.00090496306121E+01,1.02006051383625E+01,1.23697349265393E+01,1.00314757142705E+01,1.33278500215106E+01,1.41597140544285E+01,1.67089144689481E+01,1.74126728232935E+01,2.28922480161990E+01,1.58000463567082E+01,2.06807523664848E+01,1.35358743629068E+01,,,,,
CHN,,,,,,,,,,,,,,,,,,,,,,,,,,,,,,,1.31073493442384E+01,1.28259657511198E+01,1.19765713233827E+01,9.77536134812296E+00,9.95014046289026E+00,1.14062272545442E+01,1.18676646164551E+01,1.15288408831238E+01,1.14096122191295E+01,1.19087529144769E+01,1.20281931532298E+01,1.15254178969461E+01,1.13085596546573E+01,1.09455976568913E+01,1.11238096737655E+01,1.09899536599691E+01,1.04352318848773E+01,1.07936022080506E+01,,,,
CIV,,,,,,,,,,,,,,,,,,,,,,,,,,,,,,,,,,,1.12172162726702E+01,1.08175826571559E+01,1.18812395717281E+01,1.20236984218453E+01,,,,,,,,,,,,,,
CMR,,,,,,,,,,,,,,,,,,,,,,,,,,,,,,,4.55044759372128E+00,5.49197773810534E+00,6.55193717917578E+00,6.12712115098524E+00,3.30621600698806E+00,4.36454483918130E+00,4.16587707951261E+00,5.65702092332959E+00,5.77418842465690E+00,4.02792214516096E+00,,2.15646909904298E+00,1.01589939820742E+01,,,,,,,,,
COL,,,,,,,,,,,,,,,,,,,,,,,,,,,,,,,1.41967769245170E+01,1.58632653784267E+01,1.54422700532589E+01,1.78707827163339E+01,1.59991602735402E+01,1.64445702745515E+01,1.53278205239000E+01,1.58702689309196E+01,1.65028847761032E+01,1.68723587141197E+01,1.60647279210436E+01,1.56482662308886E+01,1.54978590938651E+01,1.54694867952993E+01,1.39408719292314E+01,1.31208356700792E+01,,,,,,
CRI,,,,,,,,,,,,,,,,,,,,,,,,,,,,,,,8.64821991384898E+00,1.05216488603043E+01,1.11406561149713E+01,1.13228467150642E+01,1.03826786411227E+01,1.03114856957468E+01,1.09657279467394E+01,1.09086353563582E+01,1.06868349422420E+01,1.15907183055282E+01,1.23344045071156E+01,1.09546934297734E+01,1.11671197904992E+01,1.12288538917634E+01,1.07234812466706E+01,1.01646104205113E+01,9.67203654817515E+00,9.22420353059173E+00,8.68419064869716E+00,,,
CYP,,,,,,,,,,,,,,,,,,,,,,,,,,,,,,,3.87794172712756E+00,4.27979966360408E+00,4.34188007244365E+00,5.18761389980462E+00,5.68975587963305E+00,5.18814298686691E+00,4.91994948149383E+00,5.14894043052504E+00,5.43179392378610E+00,5.49787727336027E+00,6.27585980331110E+00,5.96615735407906E+00,5.67213722843668E+00,5.39835850728996E+00,5.65686588523120E+00,,,,6.25280553155340E+00,,,
CZE,,,,,,,,,,,,,,,,,,,,,,,,,,,,,,,,,,,,5.78911116558658E+00,6.56559287499855E+00,6.50420717856556E+00,6.40566042489457E+00,6.25500501760271E+00,6.67627432635855E+00,6.05769912559414E+00,5.47308190198784E+00,5.44792510575629E+00,5.63252489564656E+00,5.96599828976060E+00,5.49959041872793E+00,4.90332027554654E+00,,,,
DEU,,,,,,,,,,,,,,,,,,,,,,,,,,,,,,,,,,,,,,,1.02150935932921E+01,8.96240774519637E+00,9.76815769443771E+00,9.79395567750030E+00,1.01218689056205E+01,9.97986101147789E+00,9.92336174675683E+00,1.02994148615268E+01,9.98252041276465E+00,1.01612820009812E+01,,,,
DNK,,,,,,,,,,,,,,,,,,,,,,,,,,,,,,,1.15001019149183E+01,1.14657829329345E+01,1.16051302203964E+01,1.09998001821578E+01,1.11337272566115E+01,8.72905169271973E+00,9.11095402794110E+00,9.89599123734005E+00,9.83120384586106E+00,1.01532282921372E+01,1.04252452912392E+01,1.11441626069364E+01,1.16293555303392E+01,1.26987233052687E+01,1.28391636424192E+01,1.30839756001679E+01,1.26816173385012E+01,1.23163520153744E+01,,,,
DZA,,,,,,,,,,,,,,,,,,,,,,,,,,,,,,,1.02264279910577E+01,1.25028254952206E+01,9.65733728193849E+00,1.02840993263669E+01,1.06921991884223E+01,1.04601212705375E+01,1.12783254380032E+01,,,,,,,,,,,,,,,
ECU,,,,,,,,,,,,,,,,,,,,,,,,,,,,,,,7.75647121369425E+00,7.60667734065467E+00,5.81522707944322E+00,7.60851134131325E+00,3.11145042731094E+01,4.12694276799428E+00,6.54197259827292E+00,5.47991296121747E+00,2.92131102919796E+00,4.04776852728116E+00,4.76390924818087E+00,4.84638817028181E+00,6.26230641175967E+00,4.35132957292506E+00,3.19911167623665E+00,5.07084224372965E+00,4.75449286440101E+00,3.61823646045067E+00,,,,
EGY,,,,,,,,,,,,,,,,,,,,,,,,,,,,,,,1.37547522177016E+01,1.08125124086978E+01,8.38233125552309E+00,1.05558922085459E+01,1.22914592726865E+01,1.29285318720130E+01,1.55926272680915E+01,1.80976043616165E+01,2.08303718652257E+01,,,,2.19508030937968E+01,,1.52613602427688E+01,1.56869394429906E+01,1.40676062061347E+01,,,,,
ERI,,,,,,,,,,,,,,,,,,,,,,,,,,,,,,,,,1.80317141631177E+01,1.78867996297897E+01,2.00900792441854E+01,1.88520678761394E+01,1.25233722488311E+01,4.12583818353176E+00,6.49919802516412E+00,9.81111294353000E+00,6.37761137567384E+00,5.68829094511886E+00,8.33937895137150E+00,7.68344606665490E+00,7.13540397518290E+00,7.58794752119020E+00,1.00912931502343E+01,5.23655310563532E+00,1.06370905295361E+01,,,
ESP,,,,,,,,,,,,,,,,,,,,,,,,,,,,,,,1.03061015329707E+01,1.01025744223738E+01,1.01393851419961E+01,9.78466633267996E+00,1.02253886631019E+01,1.02889700816400E+01,9.68628765982282E+00,9.79965334479591E+00,9.50791274824168E+00,9.46303428131572E+00,9.52300355481931E+00,9.31804651308239E+00,9.01153726228565E+00,8.75794760345573E+00,8.69321939077922E+00,8.63421538778156E+00,8.45206617797463E+00,8.52106784840836E+00,,,,
EST,,,,,,,,,,,,,,,,,,,,,,,,,,,,,,,,,,,,,,,,,4.23084375720236E+00,4.59810938033064E+00,3.90246090596794E+00,4.10857708130607E+00,4.26686929827736E+00,4.93357793669977E+00,4.22070426226322E+00,4.25149582377041E+00,5.95619753365554E+00,,,
ETH,,,,,,,,,,,,,,,,,,,,,,,,,,,,,,,2.35434837267753E+00,2.00394062089457E+00,2.29435669313665E+00,4.04911598854398E+00,4.09806243501061E+00,3.80699101305104E+00,3.79552334900177E+00,4.58360276263611E+00,7.07715796473464E+00,4.18164474244317E+00,4.72185580962963E+00,4.68171770512820E+00,5.19587950335177E+00,5.20737513898321E+00,5.85263383895606E+00,5.16863027178435E+00,4.41603666521564E+00,4.90860378748600E+00,5.78907209954399E+00,,,
FIN,,,,,,,,,,,,,,,,,,,,,,,,,,,,,,,7.70252561355142E+00,6.58547924006826E+00,7.26311081431968E+00,7.04113155913561E+00,7.05713231801797E+00,6.40916406302075E+00,6.30751682123616E+00,6.19732595396721E+00,5.79122940230236E+00,6.05430457854080E+00,5.18409387348586E+00,5.30417821585618E+00,5.36845779488348E+00,5.64880899363301E+00,6.44994601958264E+00,6.25374027554104E+00,5.85384939595829E+00,5.89951647869371E+00,,,,
FJI,,,,,,,,,,,,,,,,,,,,,,,,,,,,,,,5.12428043564438E+00,6.51484462569223E+00,5.82169428139307E+00,6.35604912049271E+00,3.11249074458228E+00,,,,,,6.89674246200039E+00,4.57944768941593E+00,5.31442654404652E+00,4.73202458249594E+00,5.07685178518650E+00,,,,,,,
FRA,,,,,,,,,,,,,,,,,,,,,,,,,,,,,,,1.36328595851987E+01,1.31020624200773E+01,1.35471853662098E+01,1.44477161470053E+01,1.48426592003458E+01,,1.20299466891513E+01,1.23271590245845E+01,1.19804324306237E+01,1.18397058385281E+01,1.18285806651601E+01,1.19475454780579E+01,1.17446534349518E+01,1.23004899821266E+01,1.19747298609564E+01,1.21861186649559E+01,1.31505183727474E+01,1.30402561881320E+01,,,,
GAB,,,,,,,,,,,,,,,,,,,,,,,,,,,,,,,,6.84062412948724E+00,7.76046580553356E+00,6.16366395113157E+00,6.57109238358910E+00,4.78572044469523E+00,,,,,,,,,,,,,,,,
GBR,,,,,,,,,,,,,,,,,,,,,,,,,,,,,,,1.14029558032011E+01,1.19961167301307E+01,1.25506101235148E+01,1.09527075720629E+01,1.07453855756504E+01,1.13830745822479E+01,1.10023639299717E+01,9.78934409403789E+00,9.52338935212116E+00,9.68230361826655E+00,9.89703634367295E+00,1.02587865258490E+01,1.13935949903418E+01,1.06053942085089E+01,1.08147045567931E+01,1.13498507878897E+01,1.26138559206835E+01,1.15875019320330E+01,,,,
GEO,,,,,,,,,,,,,,,,,,,,,,,,,,,,,,,,,,,,,,,,,7.24171568212364E+00,4.96224115214021E+00,5.72732491627054E+00,5.14229423003193E+00,9.71892818871527E+00,1.27973461640600E+01,1.47653858102893E+01,8.16111360971691E+00,6.87459294802641E+00,,,
GHA,,,,,,,,,,,,,,,,,,,,,,,,,,,,,,,,,,9.70119486567940E+00,,,,,,,,,,,,,,,,,,
GMB,,,,,,,,,,,,,,,,,,,,,,,,,,,,,,,,,,,,8.84199372494531E+00,,,,,,,,,,,,,,,,
GRC,,,,,,,,,,,,,,,,,,,,,,,,,,,,,,,9.79873543084483E+00,9.70091251121962E+00,9.40555159472512E+00,1.05632349746598E+01,1.13410064782889E+01,1.02242539692919E+01,1.06115801410240E+01,9.25333711648377E+00,9.54432971785013E+00,,,,,5.15528436165945E+00,5.97699526994491E+00,5.80939033081821E+00,5.99684044217574E+00,6.46638905584294E+00,,,,
HKG,,,,,,,,,,,,,,,,,,,,,,,,,,,,,,,1.80464264169021E+00,2.12482843015887E+00,1.84785312487679E+00,2.09492146798028E+00,2.31219597784762E+00,2.22424922482765E+00,2.71078572243990E+00,2.58756823392579E+00,2.96263884887080E+00,3.34362218161317E+00,3.69733200955175E+00,3.62763015410512E+00,3.29191152174913E+00,4.18226549088791E+00,3.59490418171977E+00,4.37217361244519E+00,4.20341526904208E+00,4.74744937818809E+00,5.08603118493943E+00,,,
HND,,,,,,,,,,,,,,,,,,,,,,,,,,,,,,,5.49205385324935E+00,5.48069218702178E+00,4.76893347591074E+00,4.57107897104894E+00,4.57102413348162E+00,5.16927770579128E+00,5.16128712974446E+00,,,,,,,,,,,,,,,
HRV,,,,,,,,,,,,,,,,,,,,,,,,,,,,,,,7.77177027745588E+00,1.27048692952546E+01,1.08966150710014E+01,,,,,,,,,,,,,,,,,,,
HUN,,,,,,,,,,,,,,,,,,,,,,,,,,,,,,,1.20068528616934E+01,1.08344390563797E+01,9.44092590855175E+00,1.02324196240648E+01,1.15584118289977E+01,1.28180936666846E+01,1.11149736264431E+01,1.10450357978832E+01,1.05400522479336E+01,1.00281828458741E+01,1.00832254686295E+01,1.03261827960304E+01,9.66444118823490E+00,9.69585121770172E+00,9.56215667016115E+00,9.63666065493707E+00,1.04158159047189E+01,1.00760072205040E+01,,,,
IDN,,,,,,,,,,,,,,,,,,,,,,,,,,,,,,,8.94827423569535E+00,1.11961664136329E+01,9.21782417362228E+00,8.82910392314849E+00,9.05962081190503E+00,8.48135011079344E+00,9.43070924885405E+00,,1.34805179501284E+01,1.13928672789846E+01,1.05325953974962E+01,1.09541381999830E+01,8.88495367807394E+00,1.17260799816201E+01,9.48492946255751E+00,1.09463498291025E+01,1.13235342336076E+01,6.48532904872852E+00,,,,
IND,,,,,,,,,,,,,,,,,,,,,,,,,,,,,,,1.38670229938755E+01,1.49859115496319E+01,1.83570367594705E+01,1.83176256936163E+01,1.75234474463103E+01,2.01589294961883E+01,1.81589937564371E+01,1.82203065367095E+01,2.37009133712172E+01,2.29354594355823E+01,2.11458645172932E+01,2.03891310354783E+01,1.92715566974091E+01,1.80399611614231E+01,1.66269787993178E+01,1.61488323144040E+01,1.45403423300226E+01,1.36179330190486E+01,,,,
IRL,,,,,,,,,,,,,,,,,,,,,,,,,,,,,,,1.64878951470119E+01,1.80153143032939E+01,2.08869780704188E+01,2.26241226213852E+01,2.44127580023769E+01,2.49303621176292E+01,2.71856970795169E+01,3.16531653145739E+01,3.76802096978718E+01,3.65715117969279E+01,3.64515556590551E+01,3.73982752321409E+01,4.51443496611251E+01,4.13308122684030E+01,3.50761549459212E+01,3.51191348429283E+01,3.26835314673024E+01,3.55990127207150E+01,,,,
IRN,,,,,,,,,,,,,,,,,,,,,,,,,,,,,,,8.00663450297647E+00,6.34563456817197E+00,6.75971077339626E+00,1.01322162647433E+01,1.43421131760157E+01,1.67251185854289E+01,1.68584451710569E+01,1.46568737626136E+01,1.34184219234281E+01,1.33886172641549E+01,1.86070449903148E+01,1.69355669487965E+01,1.70763788785543E+01,1.33152730124803E+01,1.51429227740872E+01,1.31613191871404E+01,,,,,,
IRQ,,,,,,,,,,,,,,,,,,,,,,,,,,,,,,,,1.12425372361680E+01,1.06778502737753E+01,,1.10585332067069E+01,1.82353243635533E+01,8.25760072549050E+00,2.25309544383937E+01,,,,,,,,,,,,,,
ISL,,,,,,,,,,,,,,,,,,,,,,,,,,,,,,,3.77899608106287E+00,3.74607169902291E+00,4.16117801500848E+00,3.94914447362448E+00,3.17162662147985E+00,3.27975322848450E+00,3.16960314496039E+00,2.97308357365373E+00,3.09413184717556E+00,3.32029387925483E+00,3.56198567535823E+00,3.75901358230966E+00,4.28090747963343E+00,6.61793620997384E+00,8.12860904404818E+00,5.13824474905810E+00,,,,,,
ISR,,,,,,,,,,,,,,,,,,,,,,,,,,,,,,,9.00642273614834E+00,8.25910609138364E+00,1.08315889657103E+01,1.11621100283199E+01,1.10493357563180E+01,1.19667799146411E+01,1.19528283018734E+01,1.16834146813922E+01,1.23468845819551E+01,1.15643195379032E+01,1.02712425433788E+01,1.04938477617145E+01,1.26562878647022E+01,1.33560044252474E+01,1.64348948533547E+01,1.90381614221697E+01,2.03209578718837E+01,,,,,
ITA,,,,,,,,,,,,,,,,,,,,,,,,,,,,,,,6.82621562493719E+00,6.33026507172088E+00,9.85463433359487E+00,1.01887356936208E+01,1.01158617260405E+01,8.59283554434598E+00,8.41209120907363E+00,8.03249731270998E+00,7.78324349802385E+00,7.96011365463204E+00,7.85663910964564E+00,7.54116759701063E+00,7.84379402431365E+00,7.75632473503742E+00,7.24923895048565E+00,7.48560644069507E+00,7.07347731706089E+00,6.98324859840179E+00,,,,
JAM,,,,,,,,,,,,,,,,,,,,,,,,,,,,,,,2.88611897930818E+01,2.78309318368963E+01,2.40991969153043E+01,2.26868756664009E+01,2.09931405546607E+01,1.94001266084561E+00,1.87673030625445E+01,,,,,,,,,,,,,,,
JOR,,,,,,,,,,,,,,,,,,,,,,,,,,,,,,,1.48072906312892E+01,1.67366386081999E+01,1.64683247660715E+01,1.33257271653228E+01,1.36776660128481E+01,1.50201420337063E+01,1.52690767821156E+01,1.72345320038776E+01,2.06286411185720E+01,2.00468623373901E+01,1.75843397747181E+01,1.69022997898975E+01,1.67789300348796E+01,1.59448838078832E+01,1.57790960990389E+01,1.57429738475749E+01,1.48607943337202E+01,1.66872433787884E+01,1.80752292867926E+01,,,
JPN,,,,,,,,,,,,,,,,,,,,,,,,,,,,,,,9.51348337231300E+00,9.26242066099929E+00,9.77255479499155E+00,1.00285561024795E+01,1.01045265144421E+01,1.02029495101347E+01,9.95036555101324E+00,1.00936263956844E+01,9.98170683206128E+00,1.06108102091967E+01,1.04006170318898E+01,1.08562187705314E+01,1.12830881975200E+01,1.13445335550459E+01,1.12386564061569E+01,1.07257410054868E+01,1.01915979511022E+01,9.91540012338957E+00,,,,
KEN,,,,,,,,,,,,,,,,,,,,,,,,,,,,,,,9.19290994791287E+00,8.87176704083718E+00,8.86172651950245E+00,8.35543765889599E+00,8.52791883588594E+00,7.91429815937210E+00,8.93081756096289E+00,8.27894196500307E+00,8.18836235167453E+00,5.17336207423332E+00,5.15794818157781E+00,6.20583903116136E+00,6.01211023072091E+00,6.60505800901786E+00,6.63749317104591E+00,5.42900396789734E+00,5.21114902060687E+00,4.08119878728169E+00,,,,
KGZ,,,,,,,,,,,,,,,,,,,,,,,,,,,,,,,,,,,,,,,,,,,6.52797425226759E-01,3.22166693883824E-01,8.43836444883837E-01,1.40563275904783E+00,1.14870949477508E+00,1.56985976076598E+00,,,,
KHM,,,,,,,,,,,,,,,,,,,,,,,,,,,,,,,,,,1.08622954375648E+00,,3.17972483406726E-01,,,,,1.27966852329852E-01,,,,,,,,,,,
KOR,,,,,,,,,,,,,,,,,,,,,,,,,,,,,,,9.19816319318686E+00,9.09617210517117E+00,9.62527859346584E+00,9.87818138251446E+00,9.76537485254394E+00,9.31588981967651E+00,9.23571449079263E+00,9.82356351972363E+00,1.14723023824994E+01,9.46773832318205E+00,9.53811097209519E+00,9.48255656708215E+00,9.96904663649573E+00,9.62343586938399E+00,8.95969363587435E+00,8.64855878664986E+00,7.90927782046801E+00,,,,,
KWT,,,,,,,,,,,,,,,,,,,,,,,,,,,,,,,2.67424913525678E+00,2.36777819001101E+00,2.43685645479999E+00,3.78431595921910E+00,4.27435710348743E+00,5.35763700441288E+00,4.36877371526113E+00,2.88330310970366E+00,2.68364931377508E+00,2.16482117726465E+00,3.10523510603121E+00,3.14288280104720E+00,,,,,,,,,,
LAO,,,,,,,,,,,,,,,,,,,,,,,,,,,,,,,,,,,,,,,,2.72042157764477E+00,,,,,,,,,,,,
LBN,,,,,,,,,,,,,,,,,,,,,,,,,,,,,,,,,,,,,,,5.64414919330651E+00,,,,,,,,,,,,,
LCA,,,,,,,,,,,,,,,,,,,,,,,,,,,,,,,,2.55443450944865E+00,2.47712067125261E+00,3.38164235454737E+00,4.52196273811671E+00,4.06779556564206E+00,4.07239713969821E+00,3.55871853066704E+00,,,,,,,,,,,,,,
LKA,,,,,,,,,,,,,,,,,,,,,,,,,,,,,,,4.17990919690440E+00,4.28095087914708E+00,5.37906602297432E+00,6.70081513015746E+00,4.81902487487665E+00,5.59860684741812E+00,4.37843051387092E+00,5.24380854124263E+00,6.81464510342760E+00,4.48210656671132E+00,3.76058213585042E+00,5.83089208052674E+00,,,,,1.35926351444798E+01,3.94153447727268E+00,4.10725601324453E+00,,,
LTU,,,,,,,,,,,,,,,,,,,,,,,,,,,,,,,,,,,,,,,,,2.58411573944300E+00,3.94334495223869E+00,3.67732561898321E+00,3.68143453886847E+00,3.99227616356032E+00,5.98930738497602E+00,5.74440829986550E+00,9.23167797956217E+00,1.04932084408200E+01,,,
LUX,,,,,,,,,,,,,,,,,,,,,,,,,,,,,,,3.74853159345248E+00,4.74463589222682E+00,6.84458316487919E+00,7.03352002287702E+00,7.23560495402493E+00,5.44455982334167E+00,7.17104529200448E+00,7.02326642782701E+00,7.34319940921509E+00,6.27127808640458E+00,6.24431969648015E+00,4.54524992130395E+00,4.85070653666807E+00,4.01310401981955E+00,3.62095532521621E+00,2.77986477270874E+00,1.70537011409525E+00,1.31940626447487E+00,,,,
LVA,,,,,,,,,,,,,,,,,,,,,,,,,,,,,,,,,,5.35410318215863E+00,2.95306367603467E+00,3.83463711136342E+00,3.77564807195655E+00,5.36409440421911E+00,2.53313354895362E+00,3.31760904336972E+00,3.29525413808936E+00,3.66916954572046E+00,3.00653487809973E+00,3.40233433707387E+00,3.60320787607446E+00,4.08377147150891E+00,4.05994239808354E+00,3.66444960485798E+00,5.39202782575598E+00,,,
MAC,,,,,,,,,,,,,,,,,,,,,,,,,,,,,,,1.23270917317889E+00,1.05192140632151E+00,8.58918286744916E-01,1.02674769387378E+00,9.18185588505560E-01,1.20741985206511E+00,1.22298052907066E+00,9.68064115843728E-01,1.24151005767239E+00,2.00664607845343E+00,2.43826931014677E+00,2.30061903902477E+00,2.87063117309273E+00,2.41814332906708E+00,,,,,,,,
MAR,,,,,,,,,,,,,,,,,,,,,,,,,,,,,,,1.22454576515121E+01,1.22267881718998E+01,1.41833249419204E+01,1.03248423775329E+01,1.47353043198544E+01,1.49885583541692E+01,1.57671224023488E+01,1.62920909870721E+01,1.53023829815243E+01,1.56505022654470E+01,1.22084716414691E+01,1.26183297972081E+01,1.29566190750412E+01,1.41698043119973E+01,1.40008096985692E+01,1.41917168179441E+01,1.31629672840152E+01,1.64383054386593E+01,1.80529042508743E+01,,,
MDG,,,,,,,,,,,,,,,,,,,,,,,,,,,,,,,,,,,,,,,5.72967301090368E+00,,,1.83579736334306E+00,2.10918670702379E+00,1.75169742369956E+00,1.73747525766487E+00,1.63854675601354E+00,2.05970873959773E+00,,,,,
MEX,,,,,,,,,,,,,,,,,,,,,,,,,,,,,,,1.75562802406499E+01,1.70186095294906E+01,1.68610291948802E+01,1.65927060121102E+01,1.47524801213631E+01,1.65368811081693E+01,1.56938587368745E+01,1.56252927303722E+01,1.53187723125391E+01,1.56769817827359E+01,1.53607559691905E+01,1.64979517100197E+01,1.71708984485564E+01,1.44533776426864E+01,1.86087787301303E+01,1.87793866629499E+01,1.85259027285572E+01,,,,,
MKD,,,,,,,,,,,,,,,,,,,,,,,,,,,,,,,8.90636011284781E+00,7.20499586135035E+00,8.80822994409899E+00,3.88146380108132E+00,9.58949486686165E+00,6.23386364714111E+00,1.05734915000560E+01,8.38108273965789E+00,8.27793874610515E+00,7.06922348743857E+00,5.53695790708808E+00,6.67373951402987E+00,,6.53013546203600E+00,6.16635614940396E+00,5.29074743997555E+00,5.71020603244058E+00,5.73437916458434E+00,,,,
MLT,,,,,,,,,,,,,,,,,,,,,,,,,,,,,,,3.16156301101216E+00,3.47167188847536E+00,4.05221323554744E+00,4.11855992622443E+00,4.06668327088426E+00,4.30040057183276E+00,4.93397335655580E+00,4.77237618353187E+00,4.56071472179856E+00,2.23993533446706E+00,2.22902131527379E+00,3.43184664411369E+00,2.51910345758783E+00,3.83061451475606E+00,3.41396446316886E+00,3.54406559792593E+00,1.23858392061741E+01,1.61410777466226E+01,1.77112941933387E+01,,,
MNG,,,,,,,,,,,,,,,,,,,,,,,,,,,,,,,1.37950997385336E+00,1.01518603871420E+00,1.04273102161257E+00,7.24160435067794E-01,1.49726280167586E+00,1.46927272847879E+00,2.45877146805902E+00,2.07151116479345E+00,2.38167825069228E+00,3.14112896360953E+00,2.01145938079171E+00,,,3.07619134654397E+00,3.32928366668163E+00,2.74833838038268E+00,3.59835926587842E+00,3.20106236964455E+00,4.69571793665419E+00,,,
MUS,,,,,,,,,,,,,,,,,,,,,,,,,,,,,,,4.19639327145956E+00,4.57343385538191E+00,4.10566882158930E+00,4.30512039893146E+00,4.03195579071518E+00,4.63461031334402E+00,4.25966284306894E+00,,,,,,,,,,,,,,,
MWI,,,,,,,,,,,,,,,,,,,,,,,,,,,,,,,1.76048766112794E+01,8.50273209672661E+00,9.22988496483046E+00,2.19392063692278E+01,2.46794555589412E+01,2.04514973731508E+01,2.01344727226329E+01,1.52105656909165E+01,1.55528609723619E+01,7.81457307677862E+00,9.01459959485896E+00,8.38997567086290E+00,,,,,,,,,,
MYS,,,,,,,,,,,,,,,,,,,,,,,,,,,,,,,1.08006522634006E+01,1.22235067467920E+01,1.11199749275972E+01,1.02872530963670E+01,8.16986998352735E+00,8.00129467061150E+00,7.79469487876051E+00,8.58876488589423E+00,,1.05730721049993E+01,7.93466194526802E+00,8.23434181834373E+00,9.21402550076216E+00,1.03083902820916E+01,1.19450508790147E+01,1.27383470082484E+01,1.46569162308610E+01,1.21660860887934E+01,,,,
NGA,,,,,,,,,,,,,,,,,,,,,,,,,,,,,,,,4.13820682805668E+00,5.70099393298901E+00,1.89681137557674E+00,1.75965906210963E+00,2.54656053051546E+01,2.57061817342601E+01,,,,,,,,,,,,,,,
NLD,,,,,,,,,,,,,,,,,,,,,,,,,,,,,,,1.64905151055193E+01,1.45732266620990E+01,1.35437215041420E+01,1.33882172908582E+01,,1.69139300387677E+01,1.46613303121862E+01,1.50872231339844E+01,1.33204416283460E+01,1.31507416147359E+01,1.37356506702965E+01,1.30657888966028E+01,1.48769165108629E+01,1.53609347390531E+01,1.61363314953835E+01,1.82764543613227E+01,1.43211149550290E+01,1.42935687577517E+01,,,,
NOR,,,,,,,,,,,,,,,,,,,,,,,,,,,,,,,8.91701661703583E+00,8.21486846719184E+00,8.40777224602941E+00,8.81253195883803E+00,8.54827179656311E+00,9.37639101030707E+00,8.96551724391968E+00,8.33206738611569E+00,7.71206686288015E+00,1.07754881474252E+01,1.19218786694567E+01,7.99233760421425E+00,,8.44594148478124E+00,9.32812731884830E+00,8.89339993178462E+00,9.41094130422595E+00,,,,,
NPL,,,,,,,,,,,,,,,,,,,,,,,,,,,,,,,4.99241655111360E+00,3.58451842120203E+00,,4.41329096943147E+00,4.80847232554047E+00,,5.87405486110677E+00,,,,,,1.04000408207917E+01,,,,,,,,,
OMN,,,,,,,,,,,,,,,,,,,,,,,,,,,,,,,,,,4.76585609453124E+00,6.33645704436268E+00,5.72267262575507E+00,8.09929194698701E+00,6.13526021798319E+00,6.72401205096420E+00,6.57767516903686E+00,5.33750924032748E+00,2.72557289950508E+00,4.58140056697381E+00,4.65611099398485E+00,4.25138888470731E+00,1.31481041649628E+01,1.08584756638354E+01,1.21380242425992E+01,,,,
PAK,,,,,,,,,,,,,,,,,,,,,,,,,,,,,,,1.49655507085868E+01,1.50360808083807E+01,,,,,1.62619796418887E+01,,,,,1.66245433624078E+01,,,,,1.40349772253327E+01,,,,,
PAN,,,,,,,,,,,,,,,,,,,,,,,,,,,,,,,8.25794687199751E+00,8.62378041140735E+00,5.92050166661429E+00,7.40747961266501E+00,7.27287275100565E+00,,6.88978430710064E+00,6.87035758198447E+00,6.68127281422908E+00,5.94863565662324E+00,6.72799528996173E+00,4.59124699507553E+00,,,,,,,,,,
PER,,,,,,,,,,,,,,,,,,,,,,,,,,,,,,,9.01734140939680E+00,8.44076389174123E+00,9.64951018714739E+00,,8.69905869609507E+00,9.42697803966932E+00,9.67532981334216E+00,,,,,1.11180875846151E+01,1.13720589882018E+01,1.13994183540065E+01,1.05513614603429E+01,1.07846507399120E+01,1.10085985914327E+01,1.15815607371545E+01,,,,
PHL,,,,,,,,,,,,,,,,,,,,,,,,,,,,,,,1.18019608815412E+01,1.40974267023072E+01,1.50660904255772E+01,1.40024188722169E+01,1.30336547069013E+01,1.17101953478949E+01,1.06165733998292E+01,1.04505213446968E+01,9.72096164660376E+00,9.92626594164052E+00,,9.37767995971713E+00,,8.89183478408888E+00,,7.86843020043974E+00,6.46232675032348E+00,,,,,
POL,,,,,,,,,,,,,,,,,,,,,,,,,,,,,,,7.40876246281223E+00,7.36057811545997E+00,5.94341147920380E+00,5.91802715583412E+00,7.87907340107880E+00,8.51976084174014E+00,7.72727968460264E+00,7.31201346924684E+00,6.74403094494083E+00,6.58923607955183E+00,7.52594177816114E+00,,,7.13468331838475E+00,7.26415683278285E+00,7.26130187819393E+00,8.08995492054112E+00,7.86760106411896E+00,,,,
PRI,,,,,,,,,,,,,,,,,,,,,,,,,,,,,,,4.43096537960382E+01,4.85795297481301E+01,4.85902036960001E+01,5.19094748041270E+01,5.26182829973963E+01,5.41092516930654E+01,5.50328940226241E+01,5.69604186094705E+01,6.16596286905885E+01,5.95002466593741E+01,5.98668527239956E+01,6.00599928366762E+01,6.18076426964206E+01,6.19986617237125E+01,6.16429428810456E+01,6.20383991659910E+01,6.18064449183667E+01,,,,,
PRT,,,,,,,,,,,,,,,,,,,,,,,,,,,,,,,6.08596336959581E+00,5.69860094321547E+00,5.90834029726407E+00,5.46495927790106E+00,5.11499039346667E+00,,6.23341700611372E+00,6.52446758313467E+00,5.88383349639877E+00,5.58232736517209E+00,5.36794448369454E+00,5.33040826789541E+00,5.44808947694740E+00,5.66369421666221E+00,,5.94273365702714E+00,,6.12234580557779E+00,,,,
PRY,,,,,,,,,,,,,,,,,,,,,,,,,,,,,,,,,,,,,,,,,,1.02690175268877E+01,1.22185320485412E+01,,,,,,,,,
QAT,,,,,,,,,,,,,,,,,,,,,,,,,,,,,,,2.80594406018092E+01,3.58751125506905E+01,2.49223119595964E+01,2.45132128392925E+01,3.00779925852990E+01,,,,,,2.14457632088415E+01,1.97104919423886E+01,1.45460921562939E+01,1.81451674186604E+01,3.51462220661605E+01,2.19131667390508E+01,1.72851487728322E+01,,,,,
ROM,,,,,,,,,,,,,,,,,,,,,,,,,,,,,,,3.93525864907386E+00,6.46453088881715E+00,8.47738444035727E+00,6.73422748800332E+00,7.26999125217602E+00,7.68553690174342E+00,6.16298838384189E+00,4.95720432270503E+00,5.40700851317533E+00,5.26529009318881E+00,5.44861990665513E+00,4.87974984349287E+00,4.73300160184169E+00,5.70641789366898E+00,5.51425882098156E+00,6.06702281150750E+00,5.48531906280116E+00,4.85807789266866E+00,5.08166395981958E+00,,,
RUS,,,,,,,,,,,,,,,,,,,,,,,,,,,,,,,,,,7.77605336889184E+00,8.96798285338883E+00,8.51099792695181E+00,8.18623058220060E+00,7.81659492904339E+00,9.36531484114895E+00,,,8.49282015199479E+00,5.47019100649779E+00,1.06345502970344E+01,9.04832902139685E+00,8.80492566654495E+00,8.43530046731427E+00,7.99839050036584E+00,1.03513544779051E+01,,,
RWA,,,,,,,,,,,,,,,,,,,,,,,,,,,,,,,,,,,,,,,,6.44462591280916E+00,,,,,,,,,,,,
SAU,,,,,,,,,,,,,,,,,,,,,,,,,,,,,,,,,,,,,,,,,,,,,,,2.71966131836192E+01,,,,,
SDN,,,,,,,,,,,,,,,,,,,,,,,,,,,,,,,,,,,,,,,,,,4.08550272716301E+00,,,,,,,,,,
SEN,,,,,,,,,,,,,,,,,,,,,,,,,,,,,,,8.69720826650388E+00,1.52667619720164E+01,1.59076362458650E+01,1.35585122933208E+01,2.32319588804783E+01,2.41025859169887E+01,2.82877618635612E+01,2.61992636754563E+01,2.93014347864130E+01,3.07761837227931E+01,2.88076195958931E+01,2.95863604272944E+01,2.85846395660272E+01,,,,,,,,,
SGP,,,,,,,,,,,,,,,,,,,,,,,,,,,,,,,9.93361355557401E+00,1.06128386994236E+01,9.49920335671725E+00,8.86643693517274E+00,8.78657959013892E+00,9.12556657311772E+00,9.25020146927112E+00,1.01625137221904E+01,1.31656261528721E+01,1.23621979313893E+01,1.41616284399545E+01,1.65320313603933E+01,2.15691232584681E+01,2.44167685256913E+01,2.88966527118757E+01,2.53151814719105E+01,2.86003068466961E+01,3.16461195488140E+01,2.10996880647053E+01,,,
SLE,,,,,,,,,,,,,,,,,,,,,,,,,,,,,,,,,,2.02072721258752E+01,,,,,,,,,,,,,,,,,,
SLV,,,,,,,,,,,,,,,,,,,,,,,,,,,,,,,,2.37763915008034E+01,,2.03275668324380E+01,1.56657939099916E+01,5.89325906121221E+00,1.86847033385212E+01,7.10424555119536E+00,1.60562067664686E+01,,,,,,,,,,,,,
SVK,,,,,,,,,,,,,,,,,,,,,,,,,,,,,,,,,,7.95894805463586E+00,8.67754370222479E+00,1.09427609366111E+01,1.01827676363911E+01,1.01920815356578E+01,8.59344892536839E+00,7.68514203244555E+00,6.53808434310065E+00,6.33587785470764E+00,5.47536086446428E+00,4.13038624778195E+00,3.43597445677368E+00,3.59577368407845E+00,4.09221901815076E+00,3.50318471488458E+00,,,,
SVN,,,,,,,,,,,,,,,,,,,,,,,,,,,,,,,9.40570333503622E+00,1.00931425304811E+01,8.94840248718111E+00,9.86873766968892E+00,1.33992551620910E+01,9.42668136670106E+00,1.14829597796246E+01,1.20689655159837E+01,1.08141245734944E+01,1.16521739127813E+01,1.10589812372787E+01,1.20682019495311E+01,1.16005316172574E+01,1.47026831055191E+01,1.32451468780817E+01,1.34976728163438E+01,1.41946517394746E+01,3.99771559530260E+00,1.52602699140883E+01,,,
SWE,,,,,,,,,,,,,,,,,,,,,,,,,,,,,,,7.19329890405761E+00,8.25915352825649E+00,9.36789023212061E+00,1.02244693370888E+01,9.65594280579943E+00,8.11550991711793E+00,7.61277326741822E+00,7.92512901151743E+00,8.55391915008854E+00,9.03617946527801E+00,8.87321437683270E+00,1.19898844917490E+01,1.31688247613592E+01,1.36215243946569E+01,1.17659748429956E+01,1.20742499830617E+01,1.25011285679384E+01,1.12852978463584E+01,,,,
SWZ,,,,,,,,,,,,,,,,,,,,,,,,,,,,,,,8.12179394679797E-01,6.51303918222521E-03,6.09751358147526E-03,8.30179006477024E-03,6.98047836630050E-03,6.91261747091817E-03,,,,,,,,,,,,,,,,
THA,,,,,,,,,,,,,,,,,,,,,,,,,,,,,,,1.59370230803443E+00,2.77473228571755E+00,,2.01835648612277E+00,2.31085337522198E+00,,5.89904863480741E+00,,4.37999307020305E+00,,6.16073353519074E+00,,5.84604304533872E+00,,,,6.32084672755918E+00,,,,,
TTO,,,,,,,,,,,,,,,,,,,,,,,,,,,,,,,1.93557087921854E+01,2.45723156214734E+01,1.51305310998180E+01,2.36189714810531E+01,3.68177734897664E+01,3.79220222272201E+01,,,2.55755243928411E+01,2.18206981007426E+01,2.67707392405183E+01,2.68417221962802E+01,2.20178802452721E+01,2.87672458499041E+01,3.28212051433356E+01,3.56149984285677E+01,3.86651242480764E+01,,,,,
TUN,,,,,,,,,,,,,,,,,,,,,,,,,,,,,,,4.05400607715956E+00,5.44200302965505E+00,5.11654189771324E+00,5.90744671886664E+00,7.11630227810519E+00,9.31966173659955E+00,9.99131661530539E+00,1.04862360577348E+01,1.07873919837328E+01,1.04408300097315E+01,1.01879079988252E+01,9.61974216945400E+00,1.00109269776514E+01,9.67000521377823E+00,9.59805422601722E+00,9.82947796362813E+00,9.32296288405581E+00,,,,,
TUR,,,,,,,,,,,,,,,,,,,,,,,,,,,,,,,9.94143504132696E+00,9.37590888989305E+00,9.62514382711124E+00,1.00919330610945E+01,1.16671930302292E+01,1.15136233895006E+01,1.03530425561106E+01,1.01346263192141E+01,8.40010386778824E+00,1.05342932086807E+01,1.00788108652350E+01,1.03053224387392E+01,8.73380989069482E+00,9.72412615769952E+00,8.84308309123517E+00,6.74123021546928E+00,6.82578907389358E+00,,,,,
TZA,,,,,,,,,,,,,,,,,,,,,,,,,,,,,,,1.09909760542338E+01,7.62861153840627E+00,,,6.42738581902470E+00,7.13641389594815E+00,7.13672954459217E+00,7.13792236780877E+00,7.13788797530943E+00,7.13761874668721E+00,,,,6.76716843989078E+00,3.59987249592279E+00,2.16207599796194E+00,,,,,,
UGA,,,,,,,,,,,,,,,,,,,,,,,,,,,,,,,,,,9.03377048694010E+00,7.49643309028302E+00,7.22690255156338E+00,7.53856387701888E+00,7.63854203620997E+00,1.00162045729429E+01,1.07238113917902E+01,1.10671569561495E+01,,,,,,,,,,,
URY,,,,,,,,,,,,,,,,,,,,,,,,,,,,,,,9.63996646282640E+00,7.82441200553545E+00,8.63689084823668E+00,1.02879358319124E+01,1.01663590001683E+01,1.01563751412366E+01,9.89862352234721E+00,7.92568125007082E+00,7.98559416909860E+00,9.54484336361550E+00,8.32617044218918E+00,8.74019607254009E+00,9.27100852113290E+00,1.02461931544485E+01,8.79355333201035E+00,8.79239693118346E+00,,7.96572412501513E+00,,,,
USA,,,,,,,,,,,,,,,,,,,,,,,,,,,,,,,1.17425932789254E+01,1.20082151828184E+01,1.17896859816511E+01,1.17400553705521E+01,1.15848257583700E+01,1.17608869327457E+01,,1.24204135646397E+01,1.22970164537656E+01,1.17649966066184E+01,1.18375757870555E+01,1.22514939892520E+01,1.32894720158243E+01,1.36305608566111E+01,1.44664453564870E+01,1.49371964457067E+01,1.52432843097178E+01,1.55045641363254E+01,,,,
VEN,,,,,,,,,,,,,,,,,,,,,,,,,,,,,,,9.07801368974724E+00,1.26630112819906E+01,1.24185473116239E+01,1.10008102723892E+01,1.05356446059393E+01,1.22994174849190E+01,1.29241975127802E+01,1.10128160173358E+01,3.42824658493588E+01,,,,,,,,,,,,,
VNM,,,,,,,,,,,,,,,,,,,,,,,,,,,,,,,,,,,,,,,6.90361146498897E+00,,6.25825372653058E+00,,,,,,,,,,,
WBG,,,,,,,,,,,,,,,,,,,,,,,,,,,,,,,,,,,3.43038649091114E+00,7.16156424063340E+00,6.79625177339670E+00,5.27488562633970E+00,5.45234921871899E+00,4.21578668534961E+00,4.28198689793751E+00,5.06981049365931E+00,6.66250356630295E+00,7.00160532257076E+00,5.75475528654518E+00,6.06351943219415E+00,5.68262215676238E+00,4.39319071514952E+00,,,,
YEM,,,,,,,,,,,,,,,,,,,,,,,,,,,,,,,,,,,,,,,2.23490511383708E+00,1.79471667751825E+00,4.66880624046352E+00,1.66655380382762E+00,1.11672887831932E+00,1.21002836747316E+00,2.67878672902483E+00,3.13426493866923E+00,3.75770024395389E+00,,,,,
ZAF,,,,,,,,,,,,,,,,,,,,,,,,,,,,,,,9.43500091939417E+00,1.13907603266926E+01,,9.80120832233833E+00,,,1.06368071223034E+01,,1.11370257870006E+01,6.21155179369167E+00,6.52519320202656E+00,6.58311994454252E+00,6.62436487791117E+00,6.59321819684018E+00,6.44349440719272E+00,6.45501175148487E+00,6.67816627939559E+00,6.56872555834011E+00,6.44612487498523E+00,,,
ZMB,,,,,,,,,,,,,,,,,,,,,,,,,,,,,,,8.58792588155062E+00,,,,1.57703252750591E+01,,,,,,,,,,,,,,,,,
