"Country Code",1960,1961,1962,1963,1964,1965,1966,1967,1968,1969,1970,1971,1972,1973,1974,1975,1976,1977,1978,1979,1980,1981,1982,1983,1984,1985,1986,1987,1988,1989,1990,1991,1992,1993,1994,1995,1996,1997,1998,1999,2000,2001,2002,2003,2004,2005,2006,2007,2008,2009,2010,2011ADO,,,,,,,,,,,,,,,,,,,,,,,,,,,,,,,1.00000000000000E+02,,,,,1.00000000000000E+02,,,,,1.00000000000000E+02,,,,,1.00000000000000E+02,,,1.00000000000000E+02,,,
AFG,,,,,,,,,,,,,,,,,,,,,,,,,,,,,,,,,,,,2.70000000000000E+01,,,,,2.80000000000000E+01,,,,,2.90000000000000E+01,,,3.00000000000000E+01,,,
AGO,,,,,,,,,,,,,,,,,,,,,,,,,,,,,,,6.00000000000000E+00,,,,,7.00000000000000E+00,,,,,1.10000000000000E+01,,,,,1.50000000000000E+01,,,1.80000000000000E+01,,,
ALB,,,,,,,,,,,,,,,,,,,,,,,,,,,,,,,,,,,,8.10000000000000E+01,,,,,8.50000000000000E+01,,,,,9.60000000000000E+01,,,9.80000000000000E+01,,,
ARB,,,,,,,,,,,,,,,,,,,,,,,,,,,,,,,4.44471805078438E+01,,,,,4.87456596169060E+01,,,,,5.46833717104188E+01,,,,,6.08225448927284E+01,,,6.26857557203747E+01,,,
ARE,,,,,,,,,,,,,,,,,,,,,,,,,,,,,,,9.50000000000000E+01,,,,,9.50000000000000E+01,,,,,9.50000000000000E+01,,,,,9.50000000000000E+01,,,9.50000000000000E+01,,,
ARG,,,,,,,,,,,,,,,,,,,,,,,,,,,,,,,7.30000000000000E+01,,,,,7.50000000000000E+01,,,,,7.70000000000000E+01,,,,,7.70000000000000E+01,,,7.70000000000000E+01,,,
ARM,,,,,,,,,,,,,,,,,,,,,,,,,,,,,,,,,,,,7.50000000000000E+01,,,,,7.70000000000000E+01,,,,,7.90000000000000E+01,,,8.00000000000000E+01,,,
ATG,,,,,,,,,,,,,,,,,,,,,,,,,,,,,,,,,,,,9.40000000000000E+01,,,,,9.40000000000000E+01,,9.40000000000000E+01,,9.40000000000000E+01,,,,,,,
AUS,,,,,,,,,,,,,,,,,,,,,,,,,,,,,,,1.00000000000000E+02,,,,,1.00000000000000E+02,,,,,1.00000000000000E+02,,,,,1.00000000000000E+02,,,1.00000000000000E+02,,,
AUT,,,,,,,,,,,,,,,,,,,,,,,,,,,,,,,1.00000000000000E+02,,,,,1.00000000000000E+02,,,,,1.00000000000000E+02,,,,,1.00000000000000E+02,,,1.00000000000000E+02,,,
AZE,,,,,,,,,,,,,,,,,,,,,,,,,,,,,,,,,,,,2.00000000000000E+01,,,,,2.40000000000000E+01,,,,,3.40000000000000E+01,,,3.90000000000000E+01,,,
BDI,,,,,,,,,,,,,,,,,,,,,,,,,,,,,,,4.40000000000000E+01,,,,,4.50000000000000E+01,,,,,4.50000000000000E+01,,,,,4.60000000000000E+01,,,4.60000000000000E+01,,,
BEL,,,,,,,,,,,,,,,,,,,,,,,,,,,,,,,1.00000000000000E+02,,,,,1.00000000000000E+02,,,,,1.00000000000000E+02,,,,,1.00000000000000E+02,,,1.00000000000000E+02,,,
BEN,,,,,,,,,,,,,,,,,,,,,,,,,,,,,,,1.00000000000000E+00,,,,,2.00000000000000E+00,,,,,3.00000000000000E+00,,,,,3.00000000000000E+00,,,4.00000000000000E+00,,,
BFA,,,,,,,,,,,,,,,,,,,,,,,,,,,,,,,2.00000000000000E+00,,,,,3.00000000000000E+00,,,,,4.00000000000000E+00,,,,,6.00000000000000E+00,,,6.00000000000000E+00,,,
BGD,,,,,,,,,,,,,,,,,,,,,,,,,,,,,,,3.40000000000000E+01,,,,,3.70000000000000E+01,,,,,4.30000000000000E+01,,,,,4.80000000000000E+01,,,5.20000000000000E+01,,,
BGR,,,,,,,,,,,,,,,,,,,,,,,,,,,,,,,9.80000000000000E+01,,,,,9.90000000000000E+01,,,,,1.00000000000000E+02,,,,,1.00000000000000E+02,,,1.00000000000000E+02,,,
BHS,,,,,,,,,,,,,,,,,,,,,,,,,,,,,,,1.00000000000000E+02,,,,,1.00000000000000E+02,,,,,1.00000000000000E+02,,1.00000000000000E+02,,1.00000000000000E+02,1.00000000000000E+02,,,1.00000000000000E+02,,,
BIH,,,,,,,,,,,,,,,,,,,,,,,,,,,,,,,,,,,,9.30000000000000E+01,,,,,9.30000000000000E+01,,,,,9.20000000000000E+01,,,9.20000000000000E+01,,,
BLR,,,,,,,,,,,,,,,,,,,,,,,,,,,,,,,,,,,,9.60000000000000E+01,,,,,9.60000000000000E+01,,,,,9.70000000000000E+01,,,9.70000000000000E+01,,,
BLZ,,,,,,,,,,,,,,,,,,,,,,,,,,,,,,,7.50000000000000E+01,,,,,7.80000000000000E+01,,,,,8.10000000000000E+01,,2.50000000000000E+01,,2.50000000000000E+01,8.40000000000000E+01,,,8.60000000000000E+01,,,
BOL,,,,,,,,,,,,,,,,,,,,,,,,,,,,,,,6.00000000000000E+00,,,,,7.00000000000000E+00,,,,,8.00000000000000E+00,,,,,9.00000000000000E+00,,,9.00000000000000E+00,,,
BRA,,,,,,,,,,,,,,,,,,,,,,,,,,,,,,,3.50000000000000E+01,,,,,3.50000000000000E+01,,,,,3.60000000000000E+01,,,,,3.70000000000000E+01,,,3.70000000000000E+01,,,
BRB,,,,,,,,,,,,,,,,,,,,,,,,,,,,,,,1.00000000000000E+02,,,,,1.00000000000000E+02,,,,,1.00000000000000E+02,,1.00000000000000E+02,,1.00000000000000E+02,1.00000000000000E+02,,,1.00000000000000E+02,,,
BTN,,,,,,,,,,,,,,,,,,,,,,,,,,,,,,,,,,,,,,,,,5.40000000000000E+01,,,,,5.40000000000000E+01,,,5.40000000000000E+01,,,
BWA,,,,,,,,,,,,,,,,,,,,,,,,,,,,,,,2.00000000000000E+01,,,,,2.50000000000000E+01,,,,,3.10000000000000E+01,,,,,3.60000000000000E+01,,,3.90000000000000E+01,,,
CAF,,,,,,,,,,,,,,,,,,,,,,,,,,,,,,,5.00000000000000E+00,,,,,9.00000000000000E+00,,,,,1.60000000000000E+01,,,,,2.30000000000000E+01,,,2.80000000000000E+01,,,
CAN,,,,,,,,,,,,,,,,,,,,,,,,,,,,,,,9.90000000000000E+01,,,,,9.90000000000000E+01,,,,,9.90000000000000E+01,,,,,9.90000000000000E+01,,,9.90000000000000E+01,,,
CHE,,,,,,,,,,,,,,,,,,,,,,,,,,,,,,,1.00000000000000E+02,,,,,1.00000000000000E+02,,,,,1.00000000000000E+02,,,,,1.00000000000000E+02,,,1.00000000000000E+02,,,
CHL,,,,,,,,,,,,,,,,,,,,,,,,,,,,,,,4.80000000000000E+01,,,,,5.90000000000000E+01,,,,,7.10000000000000E+01,,,,,8.30000000000000E+01,,,8.30000000000000E+01,,,
CHN,,,,,,,,,,,,,,,,,,,,,,,,,,,,,,,3.80000000000000E+01,,,,,4.20000000000000E+01,,,,,4.60000000000000E+01,,,,,5.00000000000000E+01,,,5.20000000000000E+01,,,
CIV,,,,,,,,,,,,,,,,,,,,,,,,,,,,,,,8.00000000000000E+00,,,,,9.00000000000000E+00,,,,,1.00000000000000E+01,,,,,1.10000000000000E+01,,,1.10000000000000E+01,,,
CMR,,,,,,,,,,,,,,,,,,,,,,,,,,,,,,,3.50000000000000E+01,,,,,3.50000000000000E+01,,,,,3.50000000000000E+01,,,,,3.50000000000000E+01,,,3.50000000000000E+01,,,
COG,,,,,,,,,,,,,,,,,,,,,,,,,,,,,,,,,,,,,,,,,2.90000000000000E+01,,,,,2.90000000000000E+01,,,2.90000000000000E+01,,,
COL,,,,,,,,,,,,,,,,,,,,,,,,,,,,,,,4.30000000000000E+01,,,,,4.60000000000000E+01,,,,,5.00000000000000E+01,,,,,5.30000000000000E+01,,,5.50000000000000E+01,,,
COM,,,,,,,,,,,,,,,,,,,,,,,,,,,,,,,1.10000000000000E+01,,,,,1.70000000000000E+01,,,,,2.30000000000000E+01,,,,,2.90000000000000E+01,,,3.00000000000000E+01,,,
CPV,,,,,,,,,,,,,,,,,,,,,,,,,,,,,,,,,,,,1.70000000000000E+01,,,,,2.40000000000000E+01,,,,,3.40000000000000E+01,,,3.80000000000000E+01,,,
CRI,,,,,,,,,,,,,,,,,,,,,,,,,,,,,,,9.10000000000000E+01,,,,,9.20000000000000E+01,,,,,9.40000000000000E+01,,,,,9.50000000000000E+01,,,9.60000000000000E+01,,,
CUB,,,,,,,,,,,,,,,,,,,,,,,,,,,,,,,6.40000000000000E+01,,,,,6.90000000000000E+01,,,,,7.30000000000000E+01,,,,,7.80000000000000E+01,,,8.10000000000000E+01,,,
CYP,,,,,,,,,,,,,,,,,,,,,,,,,,,,,,,1.00000000000000E+02,,,,,1.00000000000000E+02,,,,,1.00000000000000E+02,,,,,1.00000000000000E+02,,,1.00000000000000E+02,,,
CZE,,,,,,,,,,,,,,,,,,,,,,,,,,,,,,,9.80000000000000E+01,,,,,9.80000000000000E+01,,,,,9.70000000000000E+01,,,,,9.70000000000000E+01,,,9.70000000000000E+01,,,
DEU,,,,,,,,,,,,,,,,,,,,,,,,,,,,,,,1.00000000000000E+02,,,,,1.00000000000000E+02,,,,,1.00000000000000E+02,,,,,1.00000000000000E+02,,,1.00000000000000E+02,,,
DJI,,,,,,,,,,,,,,,,,,,,,,,,,,,,,,,4.50000000000000E+01,,,,,4.20000000000000E+01,,,,,3.00000000000000E+01,,,,,1.80000000000000E+01,,,1.00000000000000E+01,,,
DMA,,,,,,,,,,,,,,,,,,,,,,,,,,,,,,,,,,,,8.40000000000000E+01,,,,,8.40000000000000E+01,,7.50000000000000E+01,,7.50000000000000E+01,8.40000000000000E+01,,,,,,
DNK,,,,,,,,,,,,,,,,,,,,,,,,,,,,,,,1.00000000000000E+02,,,,,1.00000000000000E+02,,,,,1.00000000000000E+02,,,,,1.00000000000000E+02,,,1.00000000000000E+02,,,
DOM,,,,,,,,,,,,,,,,,,,,,,,,,,,,,,,6.10000000000000E+01,,,,,6.50000000000000E+01,,,,,6.90000000000000E+01,,,,,7.20000000000000E+01,,,7.40000000000000E+01,,,
DZA,,,,,,,,,,,,,,,,,,,,,,,,,,,,,,,7.70000000000000E+01,,,,,7.80000000000000E+01,,,,,8.20000000000000E+01,,,,,8.60000000000000E+01,,,8.80000000000000E+01,,,
EAP,,,,,,,,,,,,,,,,,,,,,,,,,,,,,,,3.73848741363566E+01,,,,,4.18518617789366E+01,,,,,4.69294131743050E+01,,,,,5.18131841856036E+01,,,5.41836268342133E+01,,,
EAS,,,,,,,,,,,,,,,,,,,,,,,,,,,,,,,4.06205634236669E+01,,,,,4.46039505785038E+01,,,,,4.94259066082307E+01,,,,,5.41240812606495E+01,,,5.64004324050922E+01,,,
ECA,,,,,,,,,,,,,,,,,,,,,,,,,,,,,,,7.46048797540486E+01,,,,,7.54343546489268E+01,,,,,7.73056891698361E+01,,,,,7.90920418622887E+01,,,8.01599290850673E+01,,,
ECS,,,,,,,,,,,,,,,,,,,,,,,,,,,,,,,8.50111119317918E+01,,,,,8.48649890864092E+01,,,,,8.54335725885727E+01,,,,,8.65178181390976E+01,,,8.71430138506368E+01,,,
ECU,,,,,,,,,,,,,,,,,,,,,,,,,,,,,,,4.80000000000000E+01,,,,,5.90000000000000E+01,,,,,7.00000000000000E+01,,,,,8.10000000000000E+01,,,8.40000000000000E+01,,,
EGY,,,,,,,,,,,,,,,,,,,,,,,,,,,,,,,5.70000000000000E+01,,,,,6.80000000000000E+01,,,,,7.90000000000000E+01,,,,,9.00000000000000E+01,,,9.20000000000000E+01,,,
EMU,,,,,,,,,,,,,,,,,,,,,,,,,,,,,,,9.85228956843785E+01,,,,,9.89926955421574E+01,,,,,9.94006724848903E+01,,,,,9.95658715906414E+01,,,9.96910753388597E+01,,,
ERI,,,,,,,,,,,,,,,,,,,,,,,,,,,,,,,0.00000000000000E+00,,,,,1.00000000000000E+00,,,,,2.00000000000000E+00,,,,,4.00000000000000E+00,,,4.00000000000000E+00,,,
ESP,,,,,,,,,,,,,,,,,,,,,,,,,,,,,,,1.00000000000000E+02,,,,,1.00000000000000E+02,,,,,1.00000000000000E+02,,,,,1.00000000000000E+02,,,1.00000000000000E+02,,,
EST,,,,,,,,,,,,,,,,,,,,,,,,,,,,,,,,,,,,9.40000000000000E+01,,,,,9.40000000000000E+01,,,,,9.40000000000000E+01,,,9.40000000000000E+01,,,
ETH,,,,,,,,,,,,,,,,,,,,,,,,,,,,,,,1.00000000000000E+00,,,,,2.00000000000000E+00,,,,,5.00000000000000E+00,,,,,7.00000000000000E+00,,,8.00000000000000E+00,,,
EUU,,,,,,,,,,,,,,,,,,,,,,,,,,,,,,,9.35576748157085E+01,,,,,9.42078100406379E+01,,,,,9.25122879698850E+01,,,,,9.27247603949252E+01,,,9.28114134726420E+01,,,
FIN,,,,,,,,,,,,,,,,,,,,,,,,,,,,,,,1.00000000000000E+02,,,,,1.00000000000000E+02,,,,,1.00000000000000E+02,,,,,1.00000000000000E+02,,,1.00000000000000E+02,,,
FRA,,,,,,,,,,,,,,,,,,,,,,,,,,,,,,,1.00000000000000E+02,,,,,1.00000000000000E+02,,,,,1.00000000000000E+02,,,,,1.00000000000000E+02,,,1.00000000000000E+02,,,
FSM,,,,,,,,,,,,,,,,,,,,,,,,,,,,,,,2.00000000000000E+01,,,,,1.80000000000000E+01,,,,,1.60000000000000E+01,,,,,1.50000000000000E+01,,,,,,
GAB,,,,,,,,,,,,,,,,,,,,,,,,,,,,,,,,,,,,2.90000000000000E+01,,,,,3.00000000000000E+01,,,,,3.00000000000000E+01,,,3.00000000000000E+01,,,
GBR,,,,,,,,,,,,,,,,,,,,,,,,,,,,,,,1.00000000000000E+02,,,,,1.00000000000000E+02,,,,,1.00000000000000E+02,,,,,1.00000000000000E+02,,,1.00000000000000E+02,,,
GEO,,,,,,,,,,,,,,,,,,,,,,,,,,,,,,,9.50000000000000E+01,,,,,9.50000000000000E+01,,,,,9.40000000000000E+01,,,,,9.40000000000000E+01,,,9.30000000000000E+01,,,
GHA,,,,,,,,,,,,,,,,,,,,,,,,,,,,,,,4.00000000000000E+00,,,,,5.00000000000000E+00,,,,,5.00000000000000E+00,,,,,6.00000000000000E+00,,,7.00000000000000E+00,,,
GIN,,,,,,,,,,,,,,,,,,,,,,,,,,,,,,,6.00000000000000E+00,,,,,8.00000000000000E+00,,,,,9.00000000000000E+00,,,,,1.00000000000000E+01,,,1.10000000000000E+01,,,
GMB,,,,,,,,,,,,,,,,,,,,,,,,,,,,,,,,,,,,5.80000000000000E+01,,,,,6.10000000000000E+01,,,,,6.30000000000000E+01,,,6.50000000000000E+01,,,
GNB,,,,,,,,,,,,,,,,,,,,,,,,,,,,,,,,,,,,6.00000000000000E+00,,,,,7.00000000000000E+00,,,,,8.00000000000000E+00,,,9.00000000000000E+00,,,
GNQ,,,,,,,,,,,,,,,,,,,,,,,,,,,,,,,,,,,,4.60000000000000E+01,,,,,4.60000000000000E+01,,,,,4.60000000000000E+01,,,,,,
GRC,,,,,,,,,,,,,,,,,,,,,,,,,,,,,,,9.20000000000000E+01,,,,,9.40000000000000E+01,,,,,9.60000000000000E+01,,,,,9.70000000000000E+01,,,9.70000000000000E+01,,,
GRD,,,,,,,,,,,,,,,,,,,,,,,,,,,,,,,9.70000000000000E+01,,,,,9.70000000000000E+01,,,,,9.70000000000000E+01,,9.70000000000000E+01,,9.70000000000000E+01,9.70000000000000E+01,,,9.70000000000000E+01,,,
GTM,,,,,,,,,,,,,,,,,,,,,,,,,,,,,,,5.10000000000000E+01,,,,,5.70000000000000E+01,,,,,6.30000000000000E+01,,,,,6.90000000000000E+01,,,7.30000000000000E+01,,,
GUM,,,,,,,,,,,,,,,,,,,,,,,,,,,,,,,9.80000000000000E+01,,,,,9.80000000000000E+01,,,,,9.80000000000000E+01,,,,,9.80000000000000E+01,,,9.80000000000000E+01,,,
GUY,,,,,,,,,,,,,,,,,,,,,,,,,,,,,,,,,,,,7.60000000000000E+01,,,,,7.70000000000000E+01,,6.00000000000000E+01,,6.00000000000000E+01,7.80000000000000E+01,,,8.00000000000000E+01,,,
HIC,,,,,,,,,,,,,,,,,,,,,,,,,,,,,,,9.90044455274197E+01,,,,,9.90592497152992E+01,,,,,9.79571841641029E+01,,,,,9.80783783282730E+01,,,9.81774393515506E+01,,,
HND,,,,,,,,,,,,,,,,,,,,,,,,,,,,,,,2.80000000000000E+01,,,,,3.70000000000000E+01,,,,,4.70000000000000E+01,,,,,5.60000000000000E+01,,,6.20000000000000E+01,,,
HPC,,,,,,,,,,,,,,,,,,,,,,,,,,,,,,,1.43919488338708E+01,,,,,1.69008956923578E+01,,,,,1.87913719468278E+01,,,,,2.07071249342202E+01,,,2.17532938255685E+01,,,
HRV,,,,,,,,,,,,,,,,,,,,,,,,,,,,,,,,,,,,9.80000000000000E+01,,,,,9.80000000000000E+01,,,,,9.80000000000000E+01,,,9.80000000000000E+01,,,
HTI,,,,,,,,,,,,,,,,,,,,,,,,,,,,,,,1.90000000000000E+01,,,,,1.80000000000000E+01,,,,,1.50000000000000E+01,,,,,1.20000000000000E+01,,,1.00000000000000E+01,,,
HUN,,,,,,,,,,,,,,,,,,,,,,,,,,,,,,,1.00000000000000E+02,,,,,1.00000000000000E+02,,,,,1.00000000000000E+02,,,,,1.00000000000000E+02,,,1.00000000000000E+02,,,
IDN,,,,,,,,,,,,,,,,,,,,,,,,,,,,,,,2.20000000000000E+01,,,,,2.60000000000000E+01,,,,,3.00000000000000E+01,,,,,3.30000000000000E+01,,,3.60000000000000E+01,,,
IND,,,,,,,,,,,,,,,,,,,,,,,,,,,,,,,7.00000000000000E+00,,,,,1.00000000000000E+01,,,,,1.40000000000000E+01,,,,,1.80000000000000E+01,,,2.10000000000000E+01,,,
IRL,,,,,,,,,,,,,,,,,,,,,,,,,,,,,,,9.80000000000000E+01,,,,,9.80000000000000E+01,,,,,9.80000000000000E+01,,,,,9.80000000000000E+01,,,9.80000000000000E+01,,,
IRN,,,,,,,,,,,,,,,,,,,,,,,,,,,,,,,7.80000000000000E+01,,,,,7.80000000000000E+01,,,,,7.80000000000000E+01,,,,,,,,,,,
IRQ,,,,,,,,,,,,,,,,,,,,,,,,,,,,,,,,,,,,4.60000000000000E+01,,,,,5.40000000000000E+01,,,,,6.10000000000000E+01,,,6.60000000000000E+01,,,
ISL,,,,,,,,,,,,,,,,,,,,,,,,,,,,,,,1.00000000000000E+02,,,,,1.00000000000000E+02,,,,,1.00000000000000E+02,,,,,1.00000000000000E+02,,,1.00000000000000E+02,,,
ISR,,,,,,,,,,,,,,,,,,,,,,,,,,,,,,,1.00000000000000E+02,,,,,1.00000000000000E+02,,,,,1.00000000000000E+02,,,,,1.00000000000000E+02,,,1.00000000000000E+02,,,
JAM,,,,,,,,,,,,,,,,,,,,,,,,,,,,,,,8.30000000000000E+01,,,,,8.30000000000000E+01,,,,,8.30000000000000E+01,,6.80000000000000E+01,,6.90000000000000E+01,8.40000000000000E+01,,,8.40000000000000E+01,,,
JOR,,,,,,,,,,,,,,,,,,,,,,,,,,,,,,,,,,,,9.50000000000000E+01,,,,,9.60000000000000E+01,,,,,9.60000000000000E+01,,,9.70000000000000E+01,,,
JPN,,,,,,,,,,,,,,,,,,,,,,,,,,,,,,,1.00000000000000E+02,,,,,1.00000000000000E+02,,,,,1.00000000000000E+02,,,,,1.00000000000000E+02,,,1.00000000000000E+02,,,
KAZ,,,,,,,,,,,,,,,,,,,,,,,,,,,,,,,9.70000000000000E+01,,,,,9.70000000000000E+01,,,,,9.70000000000000E+01,,,,,9.80000000000000E+01,,,9.80000000000000E+01,,,
KEN,,,,,,,,,,,,,,,,,,,,,,,,,,,,,,,2.70000000000000E+01,,,,,2.80000000000000E+01,,,,,3.00000000000000E+01,,,,,3.10000000000000E+01,,,3.20000000000000E+01,,,
KGZ,,,,,,,,,,,,,,,,,,,,,,,,,,,,,,,,,,,,9.30000000000000E+01,,,,,9.30000000000000E+01,,,,,9.30000000000000E+01,,,9.30000000000000E+01,,,
KHM,,,,,,,,,,,,,,,,,,,,,,,,,,,,,,,5.00000000000000E+00,,,,,6.00000000000000E+00,,,,,1.00000000000000E+01,,,,,1.50000000000000E+01,,,1.80000000000000E+01,,,
KIR,,,,,,,,,,,,,,,,,,,,,,,,,,,,,,,2.10000000000000E+01,,,,,2.10000000000000E+01,,,,,2.20000000000000E+01,,,,,2.20000000000000E+01,,,,,,
KNA,,,,,,,,,,,,,,,,,,,,,,,,,,,,,,,9.60000000000000E+01,,,,,9.60000000000000E+01,,,,,9.60000000000000E+01,,9.60000000000000E+01,,9.60000000000000E+01,9.60000000000000E+01,,,9.60000000000000E+01,,,
KOR,,,,,,,,,,,,,,,,,,,,,,,,,,,,,,,1.00000000000000E+02,,,,,1.00000000000000E+02,,,,,1.00000000000000E+02,,,,,1.00000000000000E+02,,,1.00000000000000E+02,,,
KWT,,,,,,,,,,,,,,,,,,,,,,,,,,,,,,,1.00000000000000E+02,,,,,1.00000000000000E+02,,,,,1.00000000000000E+02,,,,,1.00000000000000E+02,,,1.00000000000000E+02,,,
LAC,,,,,,,,,,,,,,,,,,,,,,,,,,,,,,,3.79050370516400E+01,,,,,4.25137608977925E+01,,,,,4.71400337401089E+01,,,,,5.19525390017718E+01,,,5.46838845739650E+01,,,
LAO,,,,,,,,,,,,,,,,,,,,,,,,,,,,,,,,,,,,1.00000000000000E+01,,,,,1.60000000000000E+01,,,,,3.00000000000000E+01,,,3.80000000000000E+01,,,
LBN,,,,,,,,,,,,,,,,,,,,,,,,,,,,,,,,,,,,8.70000000000000E+01,,,,,8.70000000000000E+01,,,,,8.70000000000000E+01,,,,,,
LBR,,,,,,,,,,,,,,,,,,,,,,,,,,,,,,,3.00000000000000E+00,,,,,4.00000000000000E+00,,,,,4.00000000000000E+00,,,,,4.00000000000000E+00,,,4.00000000000000E+00,,,
LBY,,,,,,,,,,,,,,,,,,,,,,,,,,,,,,,9.60000000000000E+01,,,,,9.60000000000000E+01,,,,,9.60000000000000E+01,,,,,9.60000000000000E+01,,,9.60000000000000E+01,,,
LCA,,,,,,,,,,,,,,,,,,,,,,,,,,,,,,,,,,,,8.90000000000000E+01,,,,,8.90000000000000E+01,,8.90000000000000E+01,,8.90000000000000E+01,,,,,,,
LCN,,,,,,,,,,,,,,,,,,,,,,,,,,,,,,,3.84929667702001E+01,,,,,4.30506042056442E+01,,,,,4.76360133290389E+01,,,,,5.24079476755359E+01,,,5.51208851418742E+01,,,
LDC,,,,,,,,,,,,,,,,,,,,,,,,,,,,,,,1.82057454142890E+01,,,,,2.13484427967047E+01,,,,,2.55118487454922E+01,,,,,2.92322580357846E+01,,,3.07268994456288E+01,,,
LIC,,,,,,,,,,,,,,,,,,,,,,,,,,,,,,,1.90808861195597E+01,,,,,2.40624070213838E+01,,,,,2.80073928771260E+01,,,,,3.08597012132139E+01,,,3.22230962715436E+01,,,
LKA,,,,,,,,,,,,,,,,,,,,,,,,,,,,,,,6.70000000000000E+01,,,,,7.40000000000000E+01,,,,,8.10000000000000E+01,,,,,8.80000000000000E+01,,,9.20000000000000E+01,,,
LMC,,,,,,,,,,,,,,,,,,,,,,,,,,,,,,,1.83541461916241E+01,,,,,2.20263382280295E+01,,,,,2.62251478821900E+01,,,,,3.02564740918665E+01,,,3.30718420892856E+01,,,
LMY,,,,,,,,,,,,,,,,,,,,,,,,,,,,,,,2.92805286231716E+01,,,,,3.26218389608454E+01,,,,,3.62939699119264E+01,,,,,3.92845157212750E+01,,,4.12150036351817E+01,,,
LSO,,,,,,,,,,,,,,,,,,,,,,,,,,,,,,,3.20000000000000E+01,,,,,3.10000000000000E+01,,,,,2.80000000000000E+01,,,,,2.50000000000000E+01,,,2.50000000000000E+01,,,
LUX,,,,,,,,,,,,,,,,,,,,,,,,,,,,,,,1.00000000000000E+02,,,,,1.00000000000000E+02,,,,,1.00000000000000E+02,,,,,1.00000000000000E+02,,,1.00000000000000E+02,,,
LVA,,,,,,,,,,,,,,,,,,,,,,,,,,,,,,,,,,,,,,,,,7.10000000000000E+01,,,,,7.10000000000000E+01,,,7.10000000000000E+01,,,
MAR,,,,,,,,,,,,,,,,,,,,,,,,,,,,,,,2.70000000000000E+01,,,,,3.50000000000000E+01,,,,,4.30000000000000E+01,,,,,5.00000000000000E+01,,,5.20000000000000E+01,,,
MDA,,,,,,,,,,,,,,,,,,,,,,,,,,,,,,,,,,,,,,,,,7.40000000000000E+01,,,,,7.40000000000000E+01,,,7.40000000000000E+01,,,
MDG,,,,,,,,,,,,,,,,,,,,,,,,,,,,,,,6.00000000000000E+00,,,,,7.00000000000000E+00,,,,,8.00000000000000E+00,,,,,9.00000000000000E+00,,,1.00000000000000E+01,,,
MDV,,,,,,,,,,,,,,,,,,,,,,,,,,,,,,,5.80000000000000E+01,,,,,6.00000000000000E+01,,,,,7.40000000000000E+01,,,,,8.80000000000000E+01,,,9.60000000000000E+01,,,
MEA,,,,,,,,,,,,,,,,,,,,,,,,,,,,,,,5.71027435061528E+01,,,,,6.16433416570459E+01,,,,,6.76804778941125E+01,,,,,7.33192034707161E+01,,,7.58592090010592E+01,,,
MEX,,,,,,,,,,,,,,,,,,,,,,,,,,,,,,,3.00000000000000E+01,,,,,4.10000000000000E+01,,,,,5.10000000000000E+01,,,,,6.10000000000000E+01,,,6.80000000000000E+01,,,
MHL,,,,,,,,,,,,,,,,,,,,,,,,,,,,,,,4.10000000000000E+01,,,,,4.40000000000000E+01,,,,,4.80000000000000E+01,,,,,5.10000000000000E+01,,,5.30000000000000E+01,,,
MIC,,,,,,,,,,,,,,,,,,,,,,,,,,,,,,,3.07371647689632E+01,,,,,3.41848765604868E+01,,,,,3.79155800424341E+01,,,,,4.10448603174688E+01,,,4.31771605706102E+01,,,
MKD,,,,,,,,,,,,,,,,,,,,,,,,,,,,,,,,,,,,,,,,,8.20000000000000E+01,,,,,8.20000000000000E+01,,,8.20000000000000E+01,,,
MLI,,,,,,,,,,,,,,,,,,,,,,,,,,,,,,,2.30000000000000E+01,,,,,2.50000000000000E+01,,,,,2.80000000000000E+01,,,,,3.10000000000000E+01,,,3.20000000000000E+01,,,
MLT,,,,,,,,,,,,,,,,,,,,,,,,,,,,,,,1.00000000000000E+02,,,,,1.00000000000000E+02,,,,,1.00000000000000E+02,,,,,1.00000000000000E+02,,,1.00000000000000E+02,,,
MMR,,,,,,,,,,,,,,,,,,,,,,,,,,,,,,,,,,,,3.90000000000000E+01,,,,,5.90000000000000E+01,,,,,7.90000000000000E+01,,,7.90000000000000E+01,,,
MNA,,,,,,,,,,,,,,,,,,,,,,,,,,,,,,,5.66998440797175E+01,,,,,6.13049858194207E+01,,,,,6.74007600811251E+01,,,,,7.29694805876094E+01,,,7.54683488793090E+01,,,
MNE,,,,,,,,,,,,,,,,,,,,,,,,,,,,,,,,,,,,,,,,,8.60000000000000E+01,,,,,8.60000000000000E+01,,,8.60000000000000E+01,,,
MNG,,,,,,,,,,,,,,,,,,,,,,,,,,,,,,,,,,,,2.50000000000000E+01,,,,,2.60000000000000E+01,,,,,3.00000000000000E+01,,,3.20000000000000E+01,,,
MNP,,,,,,,,,,,,,,,,,,,,,,,,,,,,,,,7.80000000000000E+01,,,,,8.60000000000000E+01,,,,,9.30000000000000E+01,,,,,9.60000000000000E+01,,,9.60000000000000E+01,,,
MOZ,,,,,,,,,,,,,,,,,,,,,,,,,,,,,,,4.00000000000000E+00,,,,,4.00000000000000E+00,,,,,4.00000000000000E+00,,,,,4.00000000000000E+00,,,4.00000000000000E+00,,,
MRT,,,,,,,,,,,,,,,,,,,,,,,,,,,,,,,8.00000000000000E+00,,,,,9.00000000000000E+00,,,,,9.00000000000000E+00,,,,,9.00000000000000E+00,,,9.00000000000000E+00,,,
MUS,,,,,,,,,,,,,,,,,,,,,,,,,,,,,,,9.00000000000000E+01,,,,,9.00000000000000E+01,,,,,9.00000000000000E+01,,,,,9.00000000000000E+01,,,9.00000000000000E+01,,,
MWI,,,,,,,,,,,,,,,,,,,,,,,,,,,,,,,4.10000000000000E+01,,,,,4.60000000000000E+01,,,,,5.00000000000000E+01,,,,,5.50000000000000E+01,,,5.70000000000000E+01,,,
MYS,,,,,,,,,,,,,,,,,,,,,,,,,,,,,,,8.10000000000000E+01,,,,,8.50000000000000E+01,,,,,9.00000000000000E+01,,,,,9.50000000000000E+01,,,9.50000000000000E+01,,,
NAC,,,,,,,,,,,,,,,,,,,,,,,,,,,,,,,9.90000000000000E+01,,,,,9.90000000000000E+01,,,,,9.90000000000000E+01,,,,,9.90000000000000E+01,,,9.90000000000000E+01,,,
NAM,,,,,,,,,,,,,,,,,,,,,,,,,,,,,,,9.00000000000000E+00,,,,,1.10000000000000E+01,,,,,1.30000000000000E+01,,,,,1.50000000000000E+01,,,1.70000000000000E+01,,,
NER,,,,,,,,,,,,,,,,,,,,,,,,,,,,,,,2.00000000000000E+00,,,,,2.00000000000000E+00,,,,,3.00000000000000E+00,,,,,4.00000000000000E+00,,,4.00000000000000E+00,,,
NGA,,,,,,,,,,,,,,,,,,,,,,,,,,,,,,,3.60000000000000E+01,,,,,3.40000000000000E+01,,,,,3.20000000000000E+01,,,,,2.90000000000000E+01,,,2.80000000000000E+01,,,
NIC,,,,,,,,,,,,,,,,,,,,,,,,,,,,,,,2.60000000000000E+01,,,,,2.90000000000000E+01,,,,,3.20000000000000E+01,,,,,3.50000000000000E+01,,,3.70000000000000E+01,,,
NLD,,,,,,,,,,,,,,,,,,,,,,,,,,,,,,,1.00000000000000E+02,,,,,1.00000000000000E+02,,,,,1.00000000000000E+02,,,,,1.00000000000000E+02,,,1.00000000000000E+02,,,
NOR,,,,,,,,,,,,,,,,,,,,,,,,,,,,,,,1.00000000000000E+02,,,,,1.00000000000000E+02,,,,,1.00000000000000E+02,,,,,1.00000000000000E+02,,,1.00000000000000E+02,,,
NPL,,,,,,,,,,,,,,,,,,,,,,,,,,,,,,,8.00000000000000E+00,,,,,1.30000000000000E+01,,,,,1.90000000000000E+01,,,,,2.40000000000000E+01,,,2.70000000000000E+01,,,
NZL,,,,,,,,,,,,,,,,,,,,,,,,,,,,,,,8.80000000000000E+01,,,,,8.80000000000000E+01,,,,,,,,,,,,,,,,
OEC,,,,,,,,,,,,,,,,,,,,,,,,,,,,,,,9.91522869910241E+01,,,,,9.92966876818875E+01,,,,,9.81712424317736E+01,,,,,9.82063055810831E+01,,,9.82267786754553E+01,,,
OED,,,,,,,,,,,,,,,,,,,,,,,,,,,,,,,8.96533782536084E+01,,,,,9.08156750134436E+01,,,,,9.13738029734042E+01,,,,,9.25350917755728E+01,,,9.33379215322858E+01,,,
OMN,,,,,,,,,,,,,,,,,,,,,,,,,,,,,,,6.10000000000000E+01,,,,,6.10000000000000E+01,,,,,6.10000000000000E+01,,,,,,,,,,,
PAK,,,,,,,,,,,,,,,,,,,,,,,,,,,,,,,8.00000000000000E+00,,,,,1.40000000000000E+01,,,,,2.00000000000000E+01,,,,,2.50000000000000E+01,,,2.90000000000000E+01,,,
PAN,,,,,,,,,,,,,,,,,,,,,,,,,,,,,,,4.00000000000000E+01,,,,,4.30000000000000E+01,,,,,4.70000000000000E+01,,,,,5.10000000000000E+01,,,5.10000000000000E+01,,,
PER,,,,,,,,,,,,,,,,,,,,,,,,,,,,,,,1.60000000000000E+01,,,,,2.20000000000000E+01,,,,,2.70000000000000E+01,,,,,3.30000000000000E+01,,,3.60000000000000E+01,,,
PHL,,,,,,,,,,,,,,,,,,,,,,,,,,,,,,,4.60000000000000E+01,,,,,5.20000000000000E+01,,,,,5.90000000000000E+01,,,,,6.50000000000000E+01,,,6.90000000000000E+01,,,
PLW,,,,,,,,,,,,,,,,,,,,,,,,,,,,,,,5.40000000000000E+01,,,,,5.30000000000000E+01,,,,,5.20000000000000E+01,,,,,5.20000000000000E+01,,,,,,
PNG,,,,,,,,,,,,,,,,,,,,,,,,,,,,,,,4.20000000000000E+01,,,,,4.20000000000000E+01,,,,,4.20000000000000E+01,,,,,4.20000000000000E+01,,,4.10000000000000E+01,,,
POL,,,,,,,,,,,,,,,,,,,,,,,,,,,,,,,,,,,,,,,,,8.00000000000000E+01,,,,,8.00000000000000E+01,,,8.00000000000000E+01,,,
PRK,,,,,,,,,,,,,,,,,,,,,,,,,,,,,,,,,,,,6.00000000000000E+01,,,,,6.00000000000000E+01,,,,,,,,,,,
PRT,,,,,,,,,,,,,,,,,,,,,,,,,,,,,,,8.70000000000000E+01,,,,,9.20000000000000E+01,,,,,9.60000000000000E+01,,,,,9.80000000000000E+01,,,1.00000000000000E+02,,,
PRY,,,,,,,,,,,,,,,,,,,,,,,,,,,,,,,1.50000000000000E+01,,,,,2.30000000000000E+01,,,,,3.10000000000000E+01,,,,,3.90000000000000E+01,,,4.00000000000000E+01,,,
PYF,,,,,,,,,,,,,,,,,,,,,,,,,,,,,,,9.70000000000000E+01,,,,,9.70000000000000E+01,,,,,9.70000000000000E+01,,,,,9.70000000000000E+01,,,9.70000000000000E+01,,,
QAT,,,,,,,,,,,,,,,,,,,,,,,,,,,,,,,1.00000000000000E+02,,,,,1.00000000000000E+02,,,,,1.00000000000000E+02,,,,,1.00000000000000E+02,,,1.00000000000000E+02,,,
ROM,,,,,,,,,,,,,,,,,,,,,,,,,,,,,,,5.20000000000000E+01,,,,,5.30000000000000E+01,,,,,5.40000000000000E+01,,,,,5.40000000000000E+01,,,5.40000000000000E+01,,,
RUS,,,,,,,,,,,,,,,,,,,,,,,,,,,,,,,7.00000000000000E+01,,,,,7.00000000000000E+01,,,,,7.00000000000000E+01,,,,,7.00000000000000E+01,,,7.00000000000000E+01,,,
RWA,,,,,,,,,,,,,,,,,,,,,,,,,,,,,,,2.20000000000000E+01,,,,,3.10000000000000E+01,,,,,4.00000000000000E+01,,,,,4.90000000000000E+01,,,5.50000000000000E+01,,,
SAS,,,,,,,,,,,,,,,,,,,,,,,,,,,,,,,1.09232328039979E+01,,,,,1.45644918320722E+01,,,,,1.89893771693902E+01,,,,,2.31891209885921E+01,,,2.63294089129175E+01,,,
SDN,,,,,,,,,,,,,,,,,,,,,,,,,,,,,,,2.30000000000000E+01,,,,,2.10000000000000E+01,,,,,2.00000000000000E+01,,,,,1.90000000000000E+01,,,1.80000000000000E+01,,,
SEN,,,,,,,,,,,,,,,,,,,,,,,,,,,,,,,2.20000000000000E+01,,,,,2.60000000000000E+01,,,,,3.10000000000000E+01,,,,,3.60000000000000E+01,,,3.80000000000000E+01,,,
SLB,,,,,,,,,,,,,,,,,,,,,,,,,,,,,,,,,,,,1.80000000000000E+01,,,,,1.80000000000000E+01,,,,,1.80000000000000E+01,,,,,,
SLE,,,,,,,,,,,,,,,,,,,,,,,,,,,,,,,,,,,,4.00000000000000E+00,,,,,5.00000000000000E+00,,,,,6.00000000000000E+00,,,6.00000000000000E+00,,,
SLV,,,,,,,,,,,,,,,,,,,,,,,,,,,,,,,6.20000000000000E+01,,,,,6.80000000000000E+01,,,,,7.40000000000000E+01,,,,,7.90000000000000E+01,,,8.30000000000000E+01,,,
SOM,,,,,,,,,,,,,,,,,,,,,,,,,,,,,,,,,,,,1.20000000000000E+01,,,,,1.00000000000000E+01,,,,,7.00000000000000E+00,,,6.00000000000000E+00,,,
SRB,,,,,,,,,,,,,,,,,,,,,,,,,,,,,,,,,,,,,,,,,8.80000000000000E+01,,,,,8.80000000000000E+01,,,8.80000000000000E+01,,,
SSA,,,,,,,,,,,,,,,,,,,,,,,,,,,,,,,2.12857063351624E+01,,,,,2.14035392689833E+01,,,,,2.25393032040746E+01,,,,,2.35299007541279E+01,,,2.41651028476302E+01,,,
SSF,,,,,,,,,,,,,,,,,,,,,,,,,,,,,,,2.12857063351624E+01,,,,,2.14199333447987E+01,,,,,2.25559455759065E+01,,,,,2.35468956257328E+01,,,2.41651028476302E+01,,,
STP,,,,,,,,,,,,,,,,,,,,,,,,,,,,,,,,,,,,1.40000000000000E+01,,,,,1.50000000000000E+01,,,,,1.70000000000000E+01,,,1.90000000000000E+01,,,
SUR,,,,,,,,,,,,,,,,,,,,,,,,,,,,,,,,,,,,6.40000000000000E+01,,,,,6.50000000000000E+01,,7.60000000000000E+01,,7.60000000000000E+01,6.60000000000000E+01,,,6.60000000000000E+01,,,
SVK,,,,,,,,,,,,,,,,,,,,,,,,,,,,,,,1.00000000000000E+02,,,,,1.00000000000000E+02,,,,,1.00000000000000E+02,,,,,9.90000000000000E+01,,,9.90000000000000E+01,,,
SVN,,,,,,,,,,,,,,,,,,,,,,,,,,,,,,,1.00000000000000E+02,,,,,1.00000000000000E+02,,,,,1.00000000000000E+02,,,,,1.00000000000000E+02,,,1.00000000000000E+02,,,
SWE,,,,,,,,,,,,,,,,,,,,,,,,,,,,,,,1.00000000000000E+02,,,,,1.00000000000000E+02,,,,,1.00000000000000E+02,,,,,1.00000000000000E+02,,,1.00000000000000E+02,,,
SWZ,,,,,,,,,,,,,,,,,,,,,,,,,,,,,,,,,,,,4.50000000000000E+01,,,,,4.60000000000000E+01,,,,,5.00000000000000E+01,,,5.30000000000000E+01,,,
SYR,,,,,,,,,,,,,,,,,,,,,,,,,,,,,,,7.20000000000000E+01,,,,,7.30000000000000E+01,,,,,8.20000000000000E+01,,,,,9.00000000000000E+01,,,9.50000000000000E+01,,,
TCA,,,,,,,,,,,,,,,,,,,,,,,,,,,,,,,,,,,,9.40000000000000E+01,,,,,9.40000000000000E+01,,,,,,,,,,,
TCD,,,,,,,,,,,,,,,,,,,,,,,,,,,,,,,2.00000000000000E+00,,,,,2.00000000000000E+00,,,,,3.00000000000000E+00,,,,,4.00000000000000E+00,,,4.00000000000000E+00,,,
TGO,,,,,,,,,,,,,,,,,,,,,,,,,,,,,,,8.00000000000000E+00,,,,,7.00000000000000E+00,,,,,5.00000000000000E+00,,,,,4.00000000000000E+00,,,3.00000000000000E+00,,,
THA,,,,,,,,,,,,,,,,,,,,,,,,,,,,,,,7.40000000000000E+01,,,,,8.30000000000000E+01,,,,,9.20000000000000E+01,,,,,9.60000000000000E+01,,,9.60000000000000E+01,,,
TJK,,,,,,,,,,,,,,,,,,,,,,,,,,,,,,,,,,,,8.70000000000000E+01,,,,,8.90000000000000E+01,,,,,9.20000000000000E+01,,,9.40000000000000E+01,,,
TKM,,,,,,,,,,,,,,,,,,,,,,,,,,,,,,,9.70000000000000E+01,,,,,9.70000000000000E+01,,,,,9.70000000000000E+01,,,,,9.70000000000000E+01,,,9.70000000000000E+01,,,
TMP,,,,,,,,,,,,,,,,,,,,,,,,,,,,,,,,,,,,,,,,,2.50000000000000E+01,,,,,3.50000000000000E+01,,,4.00000000000000E+01,,,
TON,,,,,,,,,,,,,,,,,,,,,,,,,,,,,,,9.60000000000000E+01,,,,,9.60000000000000E+01,,,,,9.60000000000000E+01,,,,,9.60000000000000E+01,,,9.60000000000000E+01,,,
TTO,,,,,,,,,,,,,,,,,,,,,,,,,,,,,,,9.30000000000000E+01,,,,,9.20000000000000E+01,,,,,9.20000000000000E+01,,1.00000000000000E+02,,1.00000000000000E+02,9.20000000000000E+01,,,9.20000000000000E+01,,,
TUN,,,,,,,,,,,,,,,,,,,,,,,,,,,,,,,4.40000000000000E+01,,,,,5.10000000000000E+01,,,,,5.70000000000000E+01,,,,,6.40000000000000E+01,,,6.40000000000000E+01,,,
TUR,,,,,,,,,,,,,,,,,,,,,,,,,,,,,,,6.60000000000000E+01,,,,,6.80000000000000E+01,,,,,7.10000000000000E+01,,,,,7.30000000000000E+01,,,7.50000000000000E+01,,,
TUV,,,,,,,,,,,,,,,,,,,,,,,,,,,,,,,7.60000000000000E+01,,,,,7.80000000000000E+01,,,,,7.90000000000000E+01,,,,,8.00000000000000E+01,,,8.10000000000000E+01,,,
TZA,,,,,,,,,,,,,,,,,,,,,,,,,,,,,,,2.30000000000000E+01,,,,,2.30000000000000E+01,,,,,2.20000000000000E+01,,,,,2.20000000000000E+01,,,2.10000000000000E+01,,,
UGA,,,,,,,,,,,,,,,,,,,,,,,,,,,,,,,4.00000000000000E+01,,,,,4.30000000000000E+01,,,,,4.50000000000000E+01,,,,,4.80000000000000E+01,,,4.90000000000000E+01,,,
UKR,,,,,,,,,,,,,,,,,,,,,,,,,,,,,,,9.10000000000000E+01,,,,,9.10000000000000E+01,,,,,9.10000000000000E+01,,,,,9.00000000000000E+01,,,9.00000000000000E+01,,,
UMC,,,,,,,,,,,,,,,,,,,,,,,,,,,,,,,4.37693969822489E+01,,,,,4.78716642706770E+01,,,,,5.20589756633293E+01,,,,,5.55338619572767E+01,,,5.74578698599571E+01,,,
URY,,,,,,,,,,,,,,,,,,,,,,,,,,,,,,,8.30000000000000E+01,,,,,8.40000000000000E+01,,,,,9.00000000000000E+01,,,,,9.60000000000000E+01,,,9.90000000000000E+01,,,
USA,,,,,,,,,,,,,,,,,,,,,,,,,,,,,,,9.90000000000000E+01,,,,,9.90000000000000E+01,,,,,9.90000000000000E+01,,,,,9.90000000000000E+01,,,9.90000000000000E+01,,,
UZB,,,,,,,,,,,,,,,,,,,,,,,,,,,,,,,7.60000000000000E+01,,,,,7.80000000000000E+01,,,,,8.70000000000000E+01,,,,,9.60000000000000E+01,,,1.00000000000000E+02,,,
VCT,,,,,,,,,,,,,,,,,,,,,,,,,,,,,,,9.60000000000000E+01,,,,,9.60000000000000E+01,,,,,9.60000000000000E+01,,9.60000000000000E+01,,9.60000000000000E+01,9.60000000000000E+01,,,9.60000000000000E+01,,,
VEN,,,,,,,,,,,,,,,,,,,,,,,,,,,,,,,4.50000000000000E+01,,,,,5.00000000000000E+01,,,,,5.40000000000000E+01,,,,,5.70000000000000E+01,,,,,,
VNM,,,,,,,,,,,,,,,,,,,,,,,,,,,,,,,2.90000000000000E+01,,,,,4.00000000000000E+01,,,,,5.00000000000000E+01,,,,,6.10000000000000E+01,,,6.70000000000000E+01,,,
VUT,,,,,,,,,,,,,,,,,,,,,,,,,,,,,,,,,,,,3.00000000000000E+01,,,,,3.60000000000000E+01,,,,,4.30000000000000E+01,,,4.80000000000000E+01,,,
wbg,,,,,,,,,,,,,,,,,,,,,,,,,,,,,,,,,,,,8.40000000000000E+01,,,,,8.40000000000000E+01,,,,,8.40000000000000E+01,,,8.40000000000000E+01,,,
WLD,,,,,,,,,,,,,,,,,,,,,,,,,,,,,,,3.46446789062613E+01,,,,,3.73335848909087E+01,,,,,4.07150152170079E+01,,,,,4.33797234238847E+01,,,4.51094665191713E+01,,,
WSM,,,,,,,,,,,,,,,,,,,,,,,,,,,,,,,9.80000000000000E+01,,,,,9.90000000000000E+01,,,,,1.00000000000000E+02,,,,,1.00000000000000E+02,,,1.00000000000000E+02,,,
YEM,,,,,,,,,,,,,,,,,,,,,,,,,,,,,,,6.00000000000000E+00,,,,,1.40000000000000E+01,,,,,2.10000000000000E+01,,,,,2.90000000000000E+01,,,3.30000000000000E+01,,,
ZAF,,,,,,,,,,,,,,,,,,,,,,,,,,,,,,,5.80000000000000E+01,,,,,5.90000000000000E+01,,,,,6.10000000000000E+01,,,,,6.40000000000000E+01,,,6.50000000000000E+01,,,
ZAR,,,,,,,,,,,,,,,,,,,,,,,,,,,,,,,4.00000000000000E+00,,,,,7.00000000000000E+00,,,,,1.30000000000000E+01,,,,,1.90000000000000E+01,,,2.30000000000000E+01,,,
ZMB,,,,,,,,,,,,,,,,,,,,,,,,,,,,,,,3.60000000000000E+01,,,,,3.80000000000000E+01,,,,,4.00000000000000E+01,,,,,4.10000000000000E+01,,,4.30000000000000E+01,,,
ZWE,,,,,,,,,,,,,,,,,,,,,,,,,,,,,,,3.70000000000000E+01,,,,,3.70000000000000E+01,,,,,3.70000000000000E+01,,,,,3.70000000000000E+01,,,3.70000000000000E+01,,,
