"Country Code",1960,1961,1962,1963,1964,1965,1966,1967,1968,1969,1970,1971,1972,1973,1974,1975,1976,1977,1978,1979,1980,1981,1982,1983,1984,1985,1986,1987,1988,1989,1990,1991,1992,1993,1994,1995,1996,1997,1998,1999,2000,2001,2002,2003,2004,2005,2006,2007,2008,2009,2010,2011ADO,,,,,,,,,,,,,,,,,,,,,,,,,,,,,,,,,,,,0.00000000000000E+00,0.00000000000000E+00,0.00000000000000E+00,0.00000000000000E+00,0.00000000000000E+00,0.00000000000000E+00,0.00000000000000E+00,0.00000000000000E+00,0.00000000000000E+00,0.00000000000000E+00,0.00000000000000E+00,0.00000000000000E+00,0.00000000000000E+00,0.00000000000000E+00,0.00000000000000E+00,,
AFG,,,,,,,,,,,,,,,,,,,,,,,,,,,,,,,,,,,,,,,1.19724181370865E+00,4.56371584203708E-01,6.11455552271179E-01,9.89846113285016E-01,1.63084807488520E+01,1.62670259418094E+01,1.97763653334293E+01,2.07681910286733E+01,2.26498936593752E+01,2.01525437361524E+01,1.73029918865105E+01,1.75162671862896E+01,,
AGO,,,,,,,,,,,,,,,,,,,,,,,,,,,,,,,,,,,,5.72408871745419E+00,5.95053620103392E+00,2.00594663520275E+01,1.31659633080797E+01,3.76733841790800E+00,3.55898169425343E+00,9.09046697783175E+00,1.30289102932934E+01,3.91506332979881E+00,7.95926588804030E+00,7.21807104295439E+00,9.12697296821432E+00,4.09853099154059E+00,3.03624453734342E+00,2.73313636362976E+00,,
ALB,,,,,,,,,,,,,,,,,,,,,,,,,,,,,,,,,,,,1.49338377163573E+01,2.79598317592013E+00,2.64457100169628E+00,5.41996932495450E-01,9.72830909721737E+00,6.01731039916195E+00,5.22114204457186E+00,2.86420570859646E+00,3.82683839830500E+00,4.36726484094978E+00,3.50219644195633E+00,3.79545225972316E+00,4.21245824371937E+00,2.13977611064164E+00,2.65419949525682E+00,,
ARB,,,,,,,,,,,,,,,,,,,,,,,,,,,,,,,,,,,,7.78559969208380E-01,8.30604756181145E-01,7.12850961938517E-01,1.16888330812538E+00,1.15951939019895E+00,1.11246265662843E+00,9.91897703411763E-01,8.12250649066565E-01,8.63850594127982E-01,9.39998972253260E-01,1.00647093962687E+00,1.79222293594885E+00,1.74539044924707E+00,1.04919644851529E+00,8.05222771636591E-01,,
ARE,,,,,,,,,,,,,,,,,,,,,,,,,,,,,,,,,,,,0.00000000000000E+00,0.00000000000000E+00,0.00000000000000E+00,0.00000000000000E+00,0.00000000000000E+00,0.00000000000000E+00,0.00000000000000E+00,0.00000000000000E+00,0.00000000000000E+00,0.00000000000000E+00,0.00000000000000E+00,0.00000000000000E+00,0.00000000000000E+00,0.00000000000000E+00,0.00000000000000E+00,,
ARG,,,,,,,,,,,,,,,,,,,,,,,,,,,,,,,,,,,,1.16577290743763E-02,5.21978021978022E-02,4.59616429198178E-02,5.07532425682752E-02,0.00000000000000E+00,0.00000000000000E+00,0.00000000000000E+00,0.00000000000000E+00,0.00000000000000E+00,0.00000000000000E+00,0.00000000000000E+00,0.00000000000000E+00,0.00000000000000E+00,0.00000000000000E+00,0.00000000000000E+00,,
ARM,,,,,,,,,,,,,,,,,,,,,,,,,,,,,,,,,,,,3.78435762760718E+00,4.71822606100968E+00,5.19928174586722E+00,6.29576677531121E+00,1.41494761208657E+01,8.32467605903009E+00,1.63402978544947E+01,1.02950341109162E+01,7.43351469879322E+00,6.63373897954296E+00,1.40808980089012E+01,1.62089815803632E+01,1.73025247910434E+01,1.03766645186327E+01,8.43551354871943E+00,,
ATG,,,,,,,,,,,,,,,,,,,,,,,,,,,,,,,,,,,,0.00000000000000E+00,0.00000000000000E+00,0.00000000000000E+00,0.00000000000000E+00,0.00000000000000E+00,0.00000000000000E+00,0.00000000000000E+00,0.00000000000000E+00,9.87166831194472E-01,0.00000000000000E+00,0.00000000000000E+00,0.00000000000000E+00,0.00000000000000E+00,0.00000000000000E+00,0.00000000000000E+00,,
AUS,,,,,,,,,,,,,,,,,,,,,,,,,,,,,,,,,,,,0.00000000000000E+00,0.00000000000000E+00,0.00000000000000E+00,0.00000000000000E+00,0.00000000000000E+00,0.00000000000000E+00,0.00000000000000E+00,0.00000000000000E+00,0.00000000000000E+00,0.00000000000000E+00,0.00000000000000E+00,0.00000000000000E+00,0.00000000000000E+00,0.00000000000000E+00,0.00000000000000E+00,,
AUT,,,,,,,,,,,,,,,,,,,,,,,,,,,,,,,,,,,,0.00000000000000E+00,0.00000000000000E+00,0.00000000000000E+00,0.00000000000000E+00,0.00000000000000E+00,0.00000000000000E+00,0.00000000000000E+00,0.00000000000000E+00,0.00000000000000E+00,0.00000000000000E+00,0.00000000000000E+00,0.00000000000000E+00,0.00000000000000E+00,0.00000000000000E+00,0.00000000000000E+00,,
AZE,,,,,,,,,,,,,,,,,,,,,,,,,,,,,,,,,,,,6.39820995406020E-01,4.81475134031306E-01,1.43811499995955E-01,4.32120635473535E-01,1.51849987113961E-01,4.00280895058748E+00,3.92595410947499E+00,1.55836900656635E+00,1.04856203754210E+00,7.28938215128610E-01,3.07209370279582E-01,6.13467829647964E-01,7.04870060125550E-01,5.81929509123884E-01,5.93675157757934E-01,,
BDI,,,,,,,,,,,,,,,,,,,,,,,,,,,,,,,,,,,,1.28699292700074E+01,1.97253117475154E+01,2.02730778327992E+01,2.09037220225463E+01,2.04492550202568E+01,1.81117033835578E+01,1.65939662489241E+01,1.59327881096507E+01,1.51978308121015E+01,2.63283498823268E+01,3.00356248469142E+01,3.65883324522008E+01,4.00308888749054E+01,3.45475398300515E+01,4.52219256532711E+01,,
BEL,,,,,,,,,,,,,,,,,,,,,,,,,,,,,,,,,,,,0.00000000000000E+00,0.00000000000000E+00,0.00000000000000E+00,0.00000000000000E+00,0.00000000000000E+00,0.00000000000000E+00,0.00000000000000E+00,0.00000000000000E+00,0.00000000000000E+00,0.00000000000000E+00,0.00000000000000E+00,0.00000000000000E+00,0.00000000000000E+00,0.00000000000000E+00,0.00000000000000E+00,,
BEN,,,,,,,,,,,,,,,,,,,,,,,,,,,,,,,,,,,,1.96007183423620E+01,1.20038082117481E+01,1.83280411606560E+01,1.44467890914269E+01,1.30761536060515E+01,1.71594416444049E+01,1.72163974984009E+01,1.90073518742478E+01,1.65456783612810E+01,1.69533112734194E+01,1.54671577930830E+01,2.01346568257875E+01,2.40266576013261E+01,1.76581071766843E+01,2.26343074122817E+01,,
BFA,,,,,,,,,,,,,,,,,,,,,,,,,,,,,,,,,,,,1.65638121519101E+01,1.67949684833492E+01,1.38948385896638E+01,1.10582488646873E+01,1.04768758811288E+01,1.39279219207524E+01,1.29645689697393E+01,1.45050073462100E+01,2.04192861806662E+01,2.66733950799062E+01,3.57089387684214E+01,2.96200000000000E+01,2.99804778283908E+01,2.91875472677009E+01,2.19242477047795E+01,,
BGD,,,,,,,,,,,,,,,,,,,,,,,,,,,,,,,,,,,,2.99887561901768E+00,3.09748361534825E+00,4.62087712284100E+00,5.25334363902312E+00,6.08374552853776E+00,6.85916169297535E+00,7.48501409970848E+00,8.01285938508522E+00,8.77184330357877E+00,8.87914175667594E+00,8.18417160696134E+00,7.45334228961296E+00,7.58444280267534E+00,5.75250204979782E+00,8.00156080857018E+00,,
BGR,,,,,,,,,,,,,,,,,,,,,,,,,,,,,,,,,,,,0.00000000000000E+00,1.42839506172840E+00,2.08482642882291E-01,1.18362193977651E-01,4.87636696667135E-01,1.99154413002378E+00,1.53631744575547E+00,1.35370182398541E+00,1.05173293275266E+00,0.00000000000000E+00,0.00000000000000E+00,1.55660452889345E-01,0.00000000000000E+00,0.00000000000000E+00,0.00000000000000E+00,,
BHR,,,,,,,,,,,,,,,,,,,,,,,,,,,,,,,,,,,,0.00000000000000E+00,0.00000000000000E+00,0.00000000000000E+00,0.00000000000000E+00,6.98249327757411E-03,6.45243347962657E-03,0.00000000000000E+00,8.41077683325328E-03,0.00000000000000E+00,0.00000000000000E+00,0.00000000000000E+00,0.00000000000000E+00,0.00000000000000E+00,0.00000000000000E+00,0.00000000000000E+00,,
BHS,,,,,,,,,,,,,,,,,,,,,,,,,,,,,,,,,,,,0.00000000000000E+00,0.00000000000000E+00,0.00000000000000E+00,3.37952010814464E-02,3.20307495195388E-02,3.06020962435927E-02,2.40529164161155E-01,2.28767515012868E-01,2.18815388192175E-01,2.04355322817549E-01,1.96579999459405E-01,0.00000000000000E+00,0.00000000000000E+00,0.00000000000000E+00,0.00000000000000E+00,,
BIH,,,,,,,,,,,,,,,,,,,,,,,,,,,,,,,,,,,,6.33928642728193E-01,4.94120130450012E-02,2.08439116430453E+01,1.00872176931339E+01,2.21925532845247E+00,9.15211748588955E+00,2.02896036480018E+00,1.79635441677671E+00,1.88635258109891E+00,1.58998310203289E+00,7.03906627968363E-01,8.88526033614533E-01,1.83399061503142E+00,1.29520259103253E+00,1.02884152239953E+00,,
BLR,,,,,,,,,,,,,,,,,,,,,,,,,,,,,,,,,,,,4.80146313811208E-02,5.49898839523788E-02,4.98703242227642E-02,4.35606416108144E-02,6.99071892292249E-02,8.37994027718691E-02,1.56629723598397E-01,1.43255074085937E-01,1.09757077267317E-01,8.85060789058705E-02,7.43147663277508E-02,2.11400894462585E-01,1.74779096116456E-01,2.39989185672593E-01,2.41881924738471E-01,,
BLZ,,,,,,,,,,,,,,,,,,,,,,,,,,,,,,,,,,,,6.57854161955471E+00,7.57091821042421E+00,6.83512399342119E+00,4.20770775557043E+00,4.16666666666667E+00,3.55987055016181E+00,8.25236671649228E+00,7.90953831731896E+00,1.37786596119929E+00,1.39505036131804E+00,1.26710593005575E+00,2.32793640077753E+00,1.76046997929080E+00,1.64932904237336E+00,7.50555975183443E-01,,
BOL,,,,,,,,,,,,,,,,,,,,,,,,,,,,,,,,,,,,6.91035864169351E+00,5.20015266875619E+00,7.44132608254388E+00,6.03024553342070E+00,5.66353887399464E+00,6.02218700475436E+00,7.09867452135493E+00,6.92783572007566E+00,9.87366604852826E+00,1.26800084946642E+01,1.02070559251488E+01,8.99453074062490E+00,7.90937178166838E+00,9.12256717877022E+00,7.44404413449815E+00,,
BRA,,,,,,,,,,,,,,,,,,,,,,,,,,,,,,,,,,,,1.83206343643206E-01,1.06397702501644E-01,2.25978981608908E-01,3.39145891833979E-01,4.69160121765932E-01,5.36923140464277E-01,4.82188807556799E-01,4.64437167614226E-01,6.09593885706338E-02,5.02744871424444E-02,2.55952754199848E-02,2.16427601235876E-02,1.53647457023248E-02,1.11969720864217E-02,1.40676625024276E-02,,
BRB,,,,,,,,,,,,,,,,,,,,,,,,,,,,,,,,,,,,5.40084388185654E+00,5.20748576078112E+00,4.88363220144983E+00,4.54545454545454E+00,4.21052631578947E+00,3.97515527950311E+00,4.46402349486050E+00,4.21052631578947E+00,2.16403954047555E+00,2.53549695740365E-02,2.39005736137667E-02,1.32284464512488E-01,6.74169682243456E-01,1.44869215291750E+00,1.87634455561940E+00,,
BRN,,,,,,,,,,,,,,,,,,,,,,,,,,,,,,,,,,,,0.00000000000000E+00,0.00000000000000E+00,0.00000000000000E+00,0.00000000000000E+00,0.00000000000000E+00,0.00000000000000E+00,0.00000000000000E+00,0.00000000000000E+00,0.00000000000000E+00,0.00000000000000E+00,0.00000000000000E+00,0.00000000000000E+00,0.00000000000000E+00,0.00000000000000E+00,0.00000000000000E+00,,
BTN,,,,,,,,,,,,,,,,,,,,,,,,,,,,,,,,,,,,0.00000000000000E+00,4.00566975041425E+01,4.04697824168755E+01,3.51607376204595E+01,2.58650901137185E+01,2.13218715449274E+01,2.05855114074500E+01,2.82761710824852E+01,1.62039185122463E+01,1.31931882245283E+01,1.27673357450216E+01,6.83512113390228E+00,1.59934958679758E+01,2.26458643223639E+01,7.58859704855703E+00,,
BWA,,,,,,,,,,,,,,,,,,,,,,,,,,,,,,,,,,,,1.32273636377918E+00,8.46980493718806E-01,7.56859779504285E-01,9.78383829877036E-01,6.51550364907467E-01,4.66419804137777E-01,3.87745169642956E-01,4.73332016298718E-01,2.55832610649229E+00,1.83608999162427E+00,3.77362875157916E+00,2.31571307942844E+00,3.00530931659520E+00,4.20246385644463E+00,1.87889945073931E+01,,
CAF,,,,,,,,,,,,,,,,,,,,,,,,,,,,,,,,,,,,9.15060232472801E+00,1.50800052179680E+01,1.11559103830572E+00,6.15241747668252E+00,2.21179355841236E+01,2.28885715275029E+01,2.52894074107206E+01,2.47108140547846E+01,3.00354493248294E+01,2.59075064164426E+01,2.29864268089054E+01,2.93128014961771E+01,2.88815634275792E+01,3.14954715649897E+01,4.04307394132549E+01,,
CAN,,,,,,,,,,,,,,,,,,,,,,,,,,,,,,,,,,,,0.00000000000000E+00,0.00000000000000E+00,0.00000000000000E+00,0.00000000000000E+00,0.00000000000000E+00,0.00000000000000E+00,0.00000000000000E+00,0.00000000000000E+00,0.00000000000000E+00,0.00000000000000E+00,0.00000000000000E+00,0.00000000000000E+00,0.00000000000000E+00,0.00000000000000E+00,0.00000000000000E+00,,
CHE,,,,,,,,,,,,,,,,,,,,,,,,,,,,,,,,,,,,0.00000000000000E+00,0.00000000000000E+00,0.00000000000000E+00,0.00000000000000E+00,0.00000000000000E+00,0.00000000000000E+00,0.00000000000000E+00,0.00000000000000E+00,0.00000000000000E+00,0.00000000000000E+00,0.00000000000000E+00,0.00000000000000E+00,0.00000000000000E+00,0.00000000000000E+00,0.00000000000000E+00,,
CHL,,,,,,,,,,,,,,,,,,,,,,,,,,,,,,,,,,,,1.11148591444959E+00,9.35762627424563E-01,2.31052557088308E-01,5.64119391812386E-02,7.01914661546098E-02,5.44944250097132E-02,5.68248897766765E-02,2.53318737470660E-02,5.59842099580826E-02,1.11655019803067E-01,1.31019601679601E-01,1.26711899625197E-01,4.08763718530808E-02,4.93907404021788E-02,2.31566103580653E-02,,
CHN,,,,,,,,,,,,,,,,,,,,,,,,,,,,,,,,,,,,1.63513285693456E-01,8.10060846464866E-02,1.35407830768178E-01,5.27900750744457E-02,1.13833103829780E-01,1.19183490292601E-01,3.26526853774586E-02,3.28547242435447E-02,7.30972613374721E-02,9.56196609347745E-02,1.44103280638345E-01,1.03522787996757E-01,1.46965920304143E-01,1.60093572571492E-01,0.00000000000000E+00,,
CIV,,,,,,,,,,,,,,,,,,,,,,,,,,,,,,,,,,,,3.02041414521950E+00,4.13826758918488E+00,3.70534820505620E+00,3.16408261706546E+00,3.55884639457762E+00,5.37653189843515E+00,4.40476799356481E+00,8.00077760699182E+00,1.13688520532049E+01,5.20161643199732E+00,5.33638830629246E+00,4.85102824149146E+00,4.08464757506572E+00,5.87044119441007E+00,1.06318096140975E+01,,
CMR,,,,,,,,,,,,,,,,,,,,,,,,,,,,,,,,,,,,4.56369333729761E+00,2.79872275010277E+00,3.06133200979082E+00,3.29569247081125E+00,2.32635057447958E+00,4.11394374271180E+00,4.84449892838349E+00,5.78598235546468E+00,6.54298503267346E+00,6.44938356882207E+00,5.50687657570122E+00,5.58785868441305E+00,5.91009345645589E+00,5.47430749325987E+00,8.12530480839026E+00,,
COG,,,,,,,,,,,,,,,,,,,,,,,,,,,,,,,,,,,,6.38241286665258E+00,5.65034077956727E+00,5.95205774849859E+00,5.59417916554457E+00,5.31486404223217E+00,4.62250188250971E+00,4.29663901573165E+00,4.47958606381816E+00,4.54338592233010E+00,8.35758976732722E+00,8.26885878375914E+00,5.92802368129764E+00,6.72824616020155E+00,4.69286138127074E+00,7.16151718404747E+00,,
COL,,,,,,,,,,,,,,,,,,,,,,,,,,,,,,,,,,,,1.15609414777787E-01,3.06491865451232E-01,2.56235190044182E-01,2.84997802215664E-01,3.27683198474677E-01,2.92568493069053E-01,1.59922523502327E-01,3.71399562096645E-02,3.10748935845731E-02,6.08407248514432E-02,3.03707588825257E-02,4.60092739397891E-02,7.38107726730615E-02,5.08835681095939E-02,5.31212571008097E-02,,
COM,,,,,,,,,,,,,,,,,,,,,,,,,,,,,,,,,,,,3.43665769789236E+01,3.24636119383202E+01,3.36594726159641E+01,3.15547514844508E+01,3.14391052772489E+01,2.63587595413327E+01,2.41618202362162E+01,3.04124156653437E+01,4.91099169768654E+01,5.05039425688189E+01,3.63825093202325E+01,3.40465860182826E+01,2.07395227070137E+01,2.02973247349084E+01,1.53060628778393E+01,,
CPV,,,,,,,,,,,,,,,,,,,,,,,,,,,,,,,,,,,,3.67708788885976E+00,1.17154181403291E+00,6.64820003296889E+00,7.58757324115837E+00,8.36003693652184E+00,1.34946180398781E+01,1.51016654741403E+01,1.53081184298783E+01,1.00933437378753E+01,2.13178925644241E+01,1.87624634592057E+01,2.63083730373117E+01,2.07703250241237E+01,1.40803710544040E+01,7.35028824100737E+00,,
CRI,,,,,,,,,,,,,,,,,,,,,,,,,,,,,,,,,,,,4.37544283583476E-04,1.01945827335711E+00,1.87970498280083E+00,1.09560111305317E+00,9.49380798912088E-01,9.89382435023932E-01,1.84850997034754E+00,1.53310953168697E+00,8.00841370342994E-01,6.85698371204715E-01,1.49384508731066E-01,6.69170419997873E-02,1.32156309177803E-01,1.19976299369975E-01,1.55855622315956E-01,,
CUB,,,,,,,,,,,,,,,,,,,,,,,,,,,,,,,,,,,,4.44128422398107E-02,2.07673034037264E-02,1.44456387631644E-01,9.84560673336122E-02,2.08151123266188E-01,1.46912235365154E-01,2.94323247840079E-01,1.68326553513817E-01,1.77359996452800E-01,4.75244102652726E-01,3.02061570216729E-01,1.72839506172839E-01,1.30676249591637E-01,1.72780435938331E-01,1.13553205985516E-01,,
CYP,,,,,,,,,,,,,,,,,,,,,,,,,,,,,,,,,,,,0.00000000000000E+00,0.00000000000000E+00,0.00000000000000E+00,1.21402461268678E-03,1.29943458774458E-03,6.61372351493580E-03,1.63951890629482E+00,1.49924518245675E+00,1.33173891785424E+00,1.27898225650166E+00,1.28587756547629E+00,0.00000000000000E+00,0.00000000000000E+00,0.00000000000000E+00,0.00000000000000E+00,,
CZE,,,,,,,,,,,,,,,,,,,,,,,,,,,,,,,,,,,,0.00000000000000E+00,0.00000000000000E+00,0.00000000000000E+00,0.00000000000000E+00,0.00000000000000E+00,0.00000000000000E+00,0.00000000000000E+00,0.00000000000000E+00,0.00000000000000E+00,0.00000000000000E+00,0.00000000000000E+00,0.00000000000000E+00,0.00000000000000E+00,0.00000000000000E+00,0.00000000000000E+00,,
DEU,,,,,,,,,,,,,,,,,,,,,,,,,,,,,,,,,,,,0.00000000000000E+00,0.00000000000000E+00,0.00000000000000E+00,0.00000000000000E+00,0.00000000000000E+00,0.00000000000000E+00,0.00000000000000E+00,0.00000000000000E+00,0.00000000000000E+00,0.00000000000000E+00,0.00000000000000E+00,0.00000000000000E+00,0.00000000000000E+00,0.00000000000000E+00,0.00000000000000E+00,,
DJI,,,,,,,,,,,,,,,,,,,,,,,,,,,,,,,,,,,,4.91251417637448E+01,5.05859668263258E+01,4.46303035538000E+01,3.75841310755156E+01,3.09240658178712E+01,3.25723794796346E+01,3.39361796489325E+01,3.27825360038623E+01,2.96202523821256E+01,3.51214398920039E+01,2.91710386900751E+01,2.87798957822277E+01,2.36152127469442E+01,3.31331141096278E+01,3.02297256763992E+01,,
DMA,,,,,,,,,,,,,,,,,,,,,,,,,,,,,,,,,,,,5.01264155691636E-02,4.70920649870497E+00,6.14250614250614E+00,3.89294403892944E+00,3.26340326340326E+00,3.67816091954023E+00,3.61173814898420E+00,2.69058295964126E+00,3.30396475770925E+00,3.03109032649173E+00,2.46979644760944E+00,7.73142633064032E-01,3.85746248297741E+00,4.93689008837033E-01,4.61533686049431E-01,,
DNK,,,,,,,,,,,,,,,,,,,,,,,,,,,,,,,,,,,,0.00000000000000E+00,0.00000000000000E+00,0.00000000000000E+00,0.00000000000000E+00,0.00000000000000E+00,0.00000000000000E+00,0.00000000000000E+00,0.00000000000000E+00,0.00000000000000E+00,0.00000000000000E+00,0.00000000000000E+00,0.00000000000000E+00,0.00000000000000E+00,0.00000000000000E+00,0.00000000000000E+00,,
DOM,,,,,,,,,,,,,,,,,,,,,,,,,,,,,,,,,,,,9.27126804016372E-01,1.60238049646555E+00,1.20354607089911E+00,2.50170863837130E+00,2.46054527430295E+00,1.98215066430242E+00,1.52483820052935E+00,3.26886314314287E+00,8.79291297468284E+00,6.84469409841568E+00,2.55650546162595E+00,3.63268657338447E+00,3.24139442212614E+00,1.57661974780730E+00,1.38029602835054E+00,,
DZA,,,,,,,,,,,,,,,,,,,,,,,,,,,,,,,,,,,,4.97903927422450E-02,4.91640663413134E-02,2.73150237980024E-02,3.21921315332281E-02,7.11284500677200E-02,1.02723796293504E-01,1.30257555069797E-01,4.92774541032723E-02,8.85305543936158E-02,4.46144711264557E-02,8.10321459020120E-02,6.67447343231405E-02,6.10903454547331E-02,3.08377795779357E-02,3.60685611037720E-02,,
EAP,,,,,,,,,,,,,,,,,,,,,,,,,,,,,,,,,,,,5.46460967964524E-01,5.24609068053864E-01,6.75895734284320E-01,4.85218028213235E-01,5.50979273139078E-01,5.08730597723325E-01,4.57394522677192E-01,4.63664598649818E-01,5.25066229306924E-01,5.78632008505877E-01,6.31264485509038E-01,5.59343059179122E-01,4.74679259115341E-01,4.51284489863466E-01,3.21772292932417E-01,,
EAS,,,,,,,,,,,,,,,,,,,,,,,,,,,,,,,,,,,,5.06553359005370E-02,6.18615022243492E-02,9.19692513736862E-02,7.11655242411916E-02,7.73871729025688E-02,7.28314958787048E-02,7.46931622648696E-02,8.55818422938583E-02,9.97111504657126E-02,1.12601810075167E-01,1.31976374242188E-01,1.34166583591220E-01,1.25637381084432E-01,1.33589931288972E-01,1.06443304805280E-01,,
ECA,,,,,,,,,,,,,,,,,,,,,,,,,,,,,,,,,,,,6.39517400648974E-01,4.83112531037471E-01,5.24991335609298E-01,6.95121341277997E-01,1.40808423157856E+00,1.08993292704988E+00,1.10387626959695E+00,6.80408018057357E-01,5.96288909510479E-01,4.14445214987381E-01,3.18103105930359E-01,3.13649240037651E-01,3.11835919111403E-01,2.70618865568240E-01,2.40398252435383E-01,,
ECS,,,,,,,,,,,,,,,,,,,,,,,,,,,,,,,,,,,,2.85617313786414E-02,2.74294342034605E-02,3.66290865424422E-02,3.93577268224584E-02,6.31181973041560E-02,5.45194612198463E-02,5.66460907617518E-02,3.75603832241571E-02,3.25859934843725E-02,2.53592987651268E-02,2.30316309926158E-02,2.48290857428604E-02,2.78408896854480E-02,3.28497774158460E-02,2.22250732525054E-02,,
ECU,,,,,,,,,,,,,,,,,,,,,,,,,,,,,,,,,,,,5.08006496137569E-01,5.45986617423325E-01,2.05700171654900E+00,2.40558450611959E+00,3.17055781378966E+00,4.08188543895055E+00,1.83278824800609E+00,1.10358781831486E+00,1.03835647795933E+00,7.78970773620203E-01,4.15178413822512E-01,7.28180006461687E-01,8.60239753056986E-01,1.09942967085824E+00,8.90496932252923E-01,,
EGY,,,,,,,,,,,,,,,,,,,,,,,,,,,,,,,,,,,,2.72634594535636E+00,2.14805877343466E+00,1.60687100869391E+00,1.37190526886044E+00,1.18682876135011E+00,1.02967542401310E+00,8.94473143974712E-01,7.79282733640487E-01,6.25654337185437E-01,1.00146549388038E+00,1.30916233846137E+00,1.52462556035256E+00,2.01926964621884E+00,6.17798193054710E-01,1.45956808311507E+00,,
EMU,,,,,,,,,,,,,,,,,,,,,,,,,,,,,,,,,,,,5.96970580740595E-03,5.52035966815121E-03,5.84933626157722E-03,7.14944202146619E-03,7.38685100874609E-03,2.99416266705027E-03,4.23606274911738E-03,2.89249936322057E-03,2.40872510502540E-03,2.83698770721733E-03,1.58552995704178E-03,5.60428971130567E-04,1.15846017758025E-03,1.16652722370775E-02,3.91086495398287E-03,,
ERI,,,,,,,,,,,,,,,,,,,,,,,,,,,,,,,,,,,,1.63863231197605E+01,2.20682945403727E+01,8.24374656132531E+00,2.13653758356730E+01,2.70583037227683E+01,2.56555489223693E+01,3.27855158325700E+01,3.59261892038306E+01,6.61275404778294E+01,9.19715478516934E+01,8.32913099933573E+01,7.49806573415458E+01,6.75412293853073E+01,6.07679395427990E+01,6.56128088904581E+01,,
ESP,,,,,,,,,,,,,,,,,,,,,,,,,,,,,,,,,,,,0.00000000000000E+00,0.00000000000000E+00,0.00000000000000E+00,0.00000000000000E+00,0.00000000000000E+00,0.00000000000000E+00,0.00000000000000E+00,0.00000000000000E+00,0.00000000000000E+00,0.00000000000000E+00,0.00000000000000E+00,0.00000000000000E+00,0.00000000000000E+00,0.00000000000000E+00,0.00000000000000E+00,,
EST,,,,,,,,,,,,,,,,,,,,,,,,,,,,,,,,,,,,2.69664581926058E+00,1.60308794255312E+00,1.40371385936303E+00,1.49055827351287E+00,3.56415478615071E+00,9.06593406593407E-01,0.00000000000000E+00,0.00000000000000E+00,5.99089841456254E-02,4.69168759085503E-01,2.88965201465201E-01,6.01588811721054E-01,1.13172684579259E+00,1.54016116454380E+00,3.88609325453255E+00,,
ETH,,,,,,,,,,,,,,,,,,,,,,,,,,,,,,,,,,,,9.13725802103952E+00,1.01527375249823E+01,1.18236788725035E+01,1.00775692235678E+01,1.31181561639432E+01,1.64521507592456E+01,1.97526039837669E+01,1.04539912185079E+01,2.10772049317276E+01,4.05013045209326E+01,3.79540025381626E+01,3.87357401125403E+01,4.19844660728782E+01,4.07491323421374E+01,3.94742245409887E+01,,
EUU,,,,,,,,,,,,,,,,,,,,,,,,,,,,,,,,,,,,1.28877405873203E-02,9.02891502105958E-03,8.04691474183698E-03,1.38930910398617E-02,1.46320989975337E-02,2.22234931684886E-02,2.87427315373690E-02,1.83908629955961E-02,1.24684613086316E-02,6.89686485885267E-03,9.14244208501790E-03,4.15810158099120E-03,5.56140766667368E-03,1.18233020065573E-02,3.10118983054581E-03,,
FIN,,,,,,,,,,,,,,,,,,,,,,,,,,,,,,,,,,,,0.00000000000000E+00,0.00000000000000E+00,0.00000000000000E+00,0.00000000000000E+00,0.00000000000000E+00,0.00000000000000E+00,0.00000000000000E+00,0.00000000000000E+00,1.65094005874651E-03,7.10301356923000E-04,1.20498686827904E-03,1.38938691250800E-03,1.25796504366737E-03,0.00000000000000E+00,0.00000000000000E+00,,
FJI,,,,,,,,,,,,,,,,,,,,,,,,,,,,,,,,,,,,5.63640671644497E+00,2.30591852421214E-01,0.00000000000000E+00,6.96454413892909E-01,7.43619109947644E+00,7.12406535585710E+00,8.77151982550440E+00,7.83282590644893E+00,6.36658031088083E+00,1.24620228691377E+01,8.74331992727674E+00,6.38263140711721E+00,5.97131809505164E+00,7.02307095773556E+00,3.33056555032752E+00,,
FRA,,,,,,,,,,,,,,,,,,,,,,,,,,,,,,,,,,,,0.00000000000000E+00,0.00000000000000E+00,0.00000000000000E+00,0.00000000000000E+00,0.00000000000000E+00,0.00000000000000E+00,0.00000000000000E+00,0.00000000000000E+00,0.00000000000000E+00,0.00000000000000E+00,0.00000000000000E+00,0.00000000000000E+00,0.00000000000000E+00,0.00000000000000E+00,0.00000000000000E+00,,
FSM,,,,,,,,,,,,,,,,,,,,,,,,,,,,,,,,,,,,7.01340208501842E+01,7.01223063482819E+01,7.46417445482866E+01,7.34774066797642E+01,7.29016786570743E+01,7.15616438356164E+01,7.28255528255528E+01,7.23449001051525E+01,7.27584727584728E+01,7.28444802578566E+01,7.14332892998679E+01,7.01272605492297E+01,7.22059302704464E+01,6.71995263469509E+01,6.87131367292225E+01,,
GAB,,,,,,,,,,,,,,,,,,,,,,,,,,,,,,,,,,,,9.08866686911972E+00,3.99036804581871E+00,2.59884593881610E+00,2.30054401562095E+00,2.73689972111865E+00,2.63509113776925E+00,2.33591601563975E+00,1.82183724102497E+00,1.56344762944297E+00,1.93375249174189E+00,2.50135843301091E+00,2.97131571143585E+00,2.68365034218802E+00,2.25291408622117E+00,1.71256547040531E+00,,
GBR,,,,,,,,,,,,,,,,,,,,,,,,,,,,,,,,,,,,0.00000000000000E+00,0.00000000000000E+00,0.00000000000000E+00,0.00000000000000E+00,0.00000000000000E+00,0.00000000000000E+00,0.00000000000000E+00,0.00000000000000E+00,0.00000000000000E+00,0.00000000000000E+00,0.00000000000000E+00,0.00000000000000E+00,0.00000000000000E+00,0.00000000000000E+00,0.00000000000000E+00,,
GEO,,,,,,,,,,,,,,,,,,,,,,,,,,,,,,,,,,,,2.64183070685496E+00,1.72368620637350E+00,1.89037983955354E+00,1.82800353048502E+00,3.20174246010471E+00,5.34483446176443E+00,8.89444074496973E+00,1.21296272280270E+01,7.41323356297883E+00,6.05933115696121E+00,2.74324924553226E+00,5.07283148168988E+00,9.21299557024126E+00,1.04786108042522E+01,5.77157745456944E+00,,
GHA,,,,,,,,,,,,,,,,,,,,,,,,,,,,,,,,,,,,5.63077428592804E+00,5.22528245755507E+00,4.82675309390122E+00,4.93628481236831E+00,4.89082420566093E+00,9.51789921728862E+00,1.41854210396114E+01,1.57637305908460E+01,2.91245875758885E+01,3.17517476523465E+01,2.27232670109066E+01,2.11758445191511E+01,1.55294473492031E+01,1.40182583232836E+01,1.67884109819446E+01,,
GIN,,,,,,,,,,,,,,,,,,,,,,,,,,,,,,,,,,,,5.75562682218814E+00,5.44607076701623E+00,5.67142427602446E+00,6.87976855369056E+00,9.61539718858314E+00,9.00951473625752E+00,7.80953874977782E+00,7.48556580927898E+00,1.07345052288479E+01,1.01056602851449E+01,1.00180247981070E+01,1.41546112073112E+01,1.65855980350446E+01,1.01495858172785E+01,1.55949065695321E+01,,
GMB,,,,,,,,,,,,,,,,,,,,,,,,,,,,,,,,,,,,2.78913307858421E+00,3.35619148603628E+00,3.76888791966129E+00,1.11806274203321E+01,2.16085048781217E+01,2.22388747851098E+01,1.89165229471390E+01,2.21256248860156E+01,2.10065733422666E+01,1.96819022095219E+01,5.55718358494935E+01,5.62173663033672E+01,4.13548965885285E+01,3.79702647172933E+01,2.62790004334834E+01,,
GNB,,,,,,,,,,,,,,,,,,,,,,,,,,,,,,,,,,,,4.33120779679940E+00,3.54080280519974E+01,2.61897433807238E+01,4.82691772164086E+01,1.52406660316160E+01,4.92365469339144E+01,1.92359054545850E+01,3.85978077930995E+01,3.93327605488223E+01,4.37440981786360E+01,5.71727677600186E+01,5.81880937809657E+01,6.50117062818089E+01,7.72862109140638E+01,4.19678446030663E+01,,
GNQ,,,,,,,,,,,,,,,,,,,,,,,,,,,,,,,,,,,,3.33722281743996E+00,3.42603897488038E+00,7.71693685999460E+00,1.66898666168504E+01,1.86131114988191E+01,9.45597138506540E+00,1.00670677634270E+01,8.24029132038048E+00,4.59247867577071E+00,3.22271307976432E+00,2.86892233461061E+00,5.08753621267696E+00,5.59335749317539E+00,2.71733885298408E+00,3.23925223404593E+00,,
GRC,,,,,,,,,,,,,,,,,,,,,,,,,,,,,,,,,,,,0.00000000000000E+00,0.00000000000000E+00,0.00000000000000E+00,0.00000000000000E+00,0.00000000000000E+00,0.00000000000000E+00,0.00000000000000E+00,0.00000000000000E+00,0.00000000000000E+00,0.00000000000000E+00,0.00000000000000E+00,0.00000000000000E+00,0.00000000000000E+00,0.00000000000000E+00,0.00000000000000E+00,,
GRD,,,,,,,,,,,,,,,,,,,,,,,,,,,,,,,,,,,,2.99790146897172E+00,2.74599542334096E+00,8.40336134453782E-01,7.50469043151970E-01,0.00000000000000E+00,0.00000000000000E+00,0.00000000000000E+00,1.02731145076422E+01,0.00000000000000E+00,1.35153399107988E+00,1.13378684807256E+00,1.90222560395663E+00,1.72711571675302E+00,2.44897959183673E+00,7.98082782975856E-01,,
GTM,,,,,,,,,,,,,,,,,,,,,,,,,,,,,,,,,,,,9.71742743894643E-01,3.16206677081525E+00,4.65396139299573E+00,3.19272630234642E+00,2.38865195044602E+00,3.39013712507688E+00,2.51508493291248E+00,2.52875010492739E+00,3.75460284061021E+00,1.66935041797999E+00,1.61102742024868E+00,1.41724549217709E+00,1.48305693674015E+00,1.78605198461894E+00,2.31371704646051E+00,,
GUY,,,,,,,,,,,,,,,,,,,,,,,,,,,,,,,,,,,,3.93653100775194E+00,3.58129791406668E+00,4.69854305681684E+00,3.75334608030593E+00,4.48253254659549E+00,4.23370025402202E+00,5.52493818975400E+00,5.16984811165846E+00,5.49576249155098E+00,1.33363192992933E+01,3.40782563025210E+01,2.40696342673895E+01,2.70684716059091E+01,2.36571242235698E+01,3.08396078588703E+01,,
HIC,,,,,,,,,,,,,,,,,,,,,,,,,,,,,,,,,,,,9.06705459340069E-03,1.23404659806656E-02,1.21889137155851E-02,1.28257919910989E-02,1.31941209046845E-02,1.15422140661171E-02,1.04349044897613E-02,9.59917936210038E-03,8.22966668116368E-03,8.32110998879679E-03,7.83656844104278E-03,7.55360548615591E-03,7.62525066082967E-03,3.97545126545351E-03,1.57864924984145E-03,,
HND,,,,,,,,,,,,,,,,,,,,,,,,,,,,,,,,,,,,7.85972806416903E+00,9.97132227561618E+00,7.81030829378936E+00,1.01020793950851E+01,1.31389521640091E+01,3.06537656903766E+00,0.00000000000000E+00,0.00000000000000E+00,2.80210157618214E+00,4.35531731597588E+00,7.69769047110484E+00,9.41167832712612E+00,4.24012383691700E+00,1.04480606450836E+01,7.88028853152534E+00,,
HPC,,,,,,,,,,,,,,,,,,,,,,,,,,,,,,,,,,,,9.06310500095846E+00,8.98952529322760E+00,1.08290246270692E+01,1.09136873755620E+01,1.14709737020568E+01,1.20570600502121E+01,1.28466941426983E+01,1.35248552560852E+01,1.75853608732122E+01,1.98355187850970E+01,2.24524656535281E+01,2.34368797096156E+01,2.04050638952869E+01,2.03292910368234E+01,2.24738321688724E+01,,
HRV,,,,,,,,,,,,,,,,,,,,,,,,,,,,,,,,,,,,8.86354410507777E-02,6.87844267442638E-01,7.29267275409586E-01,5.81626712351256E-01,5.31250442016969E-01,4.34313025046897E-01,4.31226548956960E-01,5.19196397283983E-01,4.20380753222503E-01,6.68821528562419E-02,2.14739228197150E-02,8.30379745846160E-02,4.58512443854669E-02,1.49323587848991E-02,0.00000000000000E+00,,
HTI,,,,,,,,,,,,,,,,,,,,,,,,,,,,,,,,,,,,2.53531598513011E+01,1.47322913202527E+01,2.77784413257689E+01,2.33112582781457E+01,1.26724578436382E+01,9.38297872340426E+00,8.93493576460837E+00,7.91691995947315E+00,5.38543516873890E+00,1.25403908293584E+01,9.26951120712936E+00,2.39176083281431E+01,3.76932270916335E+01,3.46928682977616E+01,3.74561053565762E+01,,
HUN,,,,,,,,,,,,,,,,,,,,,,,,,,,,,,,,,,,,2.75172106768351E-02,4.63429377392706E-03,1.01078167115903E-02,1.21991387408049E-02,1.19335444775136E-02,1.17097389899179E-02,1.09718599222644E-02,1.03097542585440E-02,0.00000000000000E+00,0.00000000000000E+00,0.00000000000000E+00,0.00000000000000E+00,0.00000000000000E+00,0.00000000000000E+00,0.00000000000000E+00,,
IDN,,,,,,,,,,,,,,,,,,,,,,,,,,,,,,,,,,,,0.00000000000000E+00,0.00000000000000E+00,0.00000000000000E+00,0.00000000000000E+00,0.00000000000000E+00,0.00000000000000E+00,0.00000000000000E+00,9.63756801919500E-01,1.30503224640327E+00,1.40862515094725E+00,1.82993349244788E+00,1.63804493522844E+00,1.51665043784175E+00,1.66419442610404E+00,1.81612975114474E+00,,
IND,,,,,,,,,,,,,,,,,,,,,,,,,,,,,,,,,,,,1.26958572294859E+00,2.31361434240778E-01,1.54347697040158E+00,1.55077073144131E+00,1.23744176552888E+00,5.24039060539875E-01,2.25137444396263E+00,2.57802138287290E-01,2.18328812682227E+00,2.27956110293685E+00,1.43787704380500E+00,1.26968214387881E+00,1.30980054642809E+00,1.59079297521881E+00,1.13444941874163E+00,,
IRL,,,,,,,,,,,,,,,,,,,,,,,,,,,,,,,,,,,,0.00000000000000E+00,0.00000000000000E+00,0.00000000000000E+00,0.00000000000000E+00,0.00000000000000E+00,0.00000000000000E+00,0.00000000000000E+00,0.00000000000000E+00,0.00000000000000E+00,0.00000000000000E+00,0.00000000000000E+00,0.00000000000000E+00,0.00000000000000E+00,0.00000000000000E+00,0.00000000000000E+00,,
IRN,,,,,,,,,,,,,,,,,,,,,,,,,,,,,,,,,,,,1.67739434512561E-01,2.88397617268071E-02,2.58356740727260E-02,1.57568383163212E-02,3.08758301480663E-02,4.65660697083710E-02,7.20034375834717E-02,8.84297674001773E-02,8.46962817311883E-02,1.97776286168647E-02,1.50327825132164E-02,2.69471881982923E-02,2.40604555347028E-02,2.06735731320462E-02,4.67196970872337E-02,,
IRQ,,,,,,,,,,,,,,,,,,,,,,,,,,,,,,,,,,,,,6.36305062621028E+00,3.76009411098047E+00,6.26586744802738E+01,4.95336649763183E+01,2.77819949445582E+01,2.50917103777263E+01,1.47644448494437E+01,1.90564644412844E+01,3.12111937575189E+00,4.92777924096749E+00,2.76961993397554E+01,2.01074100371959E+01,8.15763166106984E+00,3.10558180845779E+00,,
ISL,,,,,,,,,,,,,,,,,,,,,,,,,,,,,,,,,,,,0.00000000000000E+00,0.00000000000000E+00,0.00000000000000E+00,0.00000000000000E+00,0.00000000000000E+00,0.00000000000000E+00,0.00000000000000E+00,0.00000000000000E+00,0.00000000000000E+00,0.00000000000000E+00,0.00000000000000E+00,0.00000000000000E+00,0.00000000000000E+00,0.00000000000000E+00,0.00000000000000E+00,,
ISR,,,,,,,,,,,,,,,,,,,,,,,,,,,,,,,,,,,,2.19835784127652E+00,2.95403709022316E+00,2.70847457627119E+00,2.67636216934565E+00,3.10160629355987E+00,2.65155393789621E+00,2.28344061359377E+00,2.51887188140292E+00,2.33351686746988E+00,2.54749633524909E+00,2.39754649265905E+00,2.42819757761515E+00,2.36603582472737E+00,0.00000000000000E+00,0.00000000000000E+00,,
ITA,,,,,,,,,,,,,,,,,,,,,,,,,,,,,,,,,,,,0.00000000000000E+00,0.00000000000000E+00,0.00000000000000E+00,0.00000000000000E+00,0.00000000000000E+00,0.00000000000000E+00,0.00000000000000E+00,0.00000000000000E+00,0.00000000000000E+00,0.00000000000000E+00,0.00000000000000E+00,0.00000000000000E+00,0.00000000000000E+00,0.00000000000000E+00,0.00000000000000E+00,,
JAM,,,,,,,,,,,,,,,,,,,,,,,,,,,,,,,,,,,,1.06338405464703E+01,8.60444655024092E+00,2.33529950485193E+00,2.56695051215599E+00,2.61251779855135E+00,1.78360792968304E+00,3.26295585412668E+00,4.37655914919690E-01,1.16317598373181E+00,1.06679593474191E+00,1.45447139340607E+00,1.59511777950904E+00,1.71142717980518E+00,1.50896193552473E+00,1.82723505383746E+00,,
JOR,,,,,,,,,,,,,,,,,,,,,,,,,,,,,,,,,,,,2.70895564745276E+00,2.55783514209209E+00,2.21375625080693E+00,1.80896991118326E+00,3.44460985643885E+00,4.42751440108878E+00,4.64955065920603E+00,2.89061063837062E+00,3.06824830728756E+00,5.36377613558267E+00,5.51790373883022E+00,5.14257390455152E+00,4.75241902050293E+00,1.83659508303443E+00,1.72640431251553E+00,,
JPN,,,,,,,,,,,,,,,,,,,,,,,,,,,,,,,,,,,,0.00000000000000E+00,0.00000000000000E+00,0.00000000000000E+00,0.00000000000000E+00,0.00000000000000E+00,0.00000000000000E+00,0.00000000000000E+00,0.00000000000000E+00,0.00000000000000E+00,0.00000000000000E+00,0.00000000000000E+00,0.00000000000000E+00,0.00000000000000E+00,0.00000000000000E+00,0.00000000000000E+00,,
KAZ,,,,,,,,,,,,,,,,,,,,,,,,,,,,,,,,,,,,6.79593370662966E-01,3.34156476371278E-01,2.38625028689946E-01,2.97780687847047E-01,2.15417731763050E+00,7.35420536585276E+00,5.62068120802483E-01,1.34391450720868E+00,7.39977727478052E-01,9.36445666387075E-01,4.63618848441407E-01,3.58921840108613E-01,8.71668177454251E-01,2.00241000316524E-01,3.31900985850149E-01,,
KEN,,,,,,,,,,,,,,,,,,,,,,,,,,,,,,,,,,,,4.93173723496622E+00,8.20219128621658E+00,1.11502968158495E+01,1.08147265403352E+01,1.43555011706894E+01,8.79879950069198E+00,1.59115655765457E+01,1.70570490639695E+01,1.17591274834796E+01,1.81979621992795E+01,2.24232881101495E+01,2.13010450390364E+01,2.67253013025842E+01,2.67956786652381E+01,3.60664777201557E+01,,
KGZ,,,,,,,,,,,,,,,,,,,,,,,,,,,,,,,,,,,,9.81286055916502E-01,4.37946877784800E+00,1.31392981851744E+01,1.56026671626927E+00,8.08943000675193E+00,9.93325576989761E+00,8.10086658898725E+00,1.59849498986717E+01,1.32893541378282E+01,2.17759829059637E+01,1.27326742347002E+01,1.59969406295785E+01,1.12430601702000E+01,1.26200378498534E+01,1.21156309010849E+01,,
KHM,,,,,,,,,,,,,,,,,,,,,,,,,,,,,,,,,,,,1.66411443185938E+01,3.26874800604225E+01,2.72363224345982E+01,1.79950712887280E+01,1.22036886804730E+01,9.40946062663629E+00,1.80673961669389E+01,1.85975019324215E+01,2.62894057648127E+01,2.66612309565366E+01,2.55641004345520E+01,2.33187212378150E+01,1.64109838703225E+01,1.70825546293078E+01,9.09103510450037E+00,,
KIR,,,,,,,,,,,,,,,,,,,,,,,,,,,,,,,,,,,,2.85437788406065E+01,2.84472049689441E+01,2.85227272727273E+01,2.80632411067194E+01,2.84102564102564E+01,2.82515991471215E+01,2.84277879341865E+01,2.84053156146179E+01,2.83154121863799E+01,2.85220994475138E+01,1.05882352941176E+01,1.86826347305389E+01,3.30677290836653E+01,2.77298120873540E+01,2.70175438596491E+01,,
KNA,,,,,,,,,,,,,,,,,,,,,,,,,,,,,,,,,,,,7.71513353115727E+00,7.24233983286908E+00,6.87830687830688E+00,6.61577608142494E+00,5.90909090909091E+00,5.40540540540541E+00,5.10204081632653E+00,4.52898550724638E+00,5.34759358288770E+00,9.01830282861897E-02,0.00000000000000E+00,5.36649214659686E-03,8.37264150943396E-03,2.13808463251670E-02,0.00000000000000E+00,,
KOR,,,,,,,,,,,,,,,,,,,,,,,,,,,,,,,,,,,,0.00000000000000E+00,0.00000000000000E+00,0.00000000000000E+00,0.00000000000000E+00,0.00000000000000E+00,0.00000000000000E+00,0.00000000000000E+00,0.00000000000000E+00,0.00000000000000E+00,0.00000000000000E+00,0.00000000000000E+00,0.00000000000000E+00,0.00000000000000E+00,0.00000000000000E+00,0.00000000000000E+00,,
KWT,,,,,,,,,,,,,,,,,,,,,,,,,,,,,,,,,,,,0.00000000000000E+00,0.00000000000000E+00,0.00000000000000E+00,0.00000000000000E+00,0.00000000000000E+00,0.00000000000000E+00,0.00000000000000E+00,0.00000000000000E+00,0.00000000000000E+00,0.00000000000000E+00,0.00000000000000E+00,0.00000000000000E+00,0.00000000000000E+00,0.00000000000000E+00,0.00000000000000E+00,,
LAC,,,,,,,,,,,,,,,,,,,,,,,,,,,,,,,,,,,,4.01344352983888E-01,4.20362733428881E-01,4.47240702999161E-01,5.97063075515101E-01,7.18395182045423E-01,6.63175053651783E-01,6.21542759368943E-01,6.19067277312066E-01,3.45414227479403E-01,3.33220432955492E-01,2.47247806937083E-01,2.47639508081383E-01,2.26464170782949E-01,2.27113791528837E-01,2.48235423245739E-01,,
LAO,,,,,,,,,,,,,,,,,,,,,,,,,,,,,,,,,,,,1.60415269294750E+00,2.04565537501429E+01,3.26664197143091E+01,1.65064076809688E+01,2.30146621348560E+01,3.03197488855695E+01,1.04170301961064E+01,1.24661927856937E+01,1.75397597856557E+01,1.42457426938217E+01,1.34053703556070E+01,2.20996068972684E+01,1.44823032075116E+01,1.60644577355187E+01,0.00000000000000E+00,,
LBN,,,,,,,,,,,,,,,,,,,,,,,,,,,,,,,,,,,,1.69399923222068E+00,3.15678242910202E+00,1.84399800117582E+00,1.95701501048549E+00,2.06211672756598E+00,2.12468180856253E+00,2.12424028269501E+00,2.18874098685678E+00,2.21294549730559E+00,2.18767259839449E+00,2.31383064479216E+00,1.99193740736685E+00,5.08821512165577E+00,4.76965380056094E+00,1.34658058696082E+00,,
LBR,,,,,,,,,,,,,,,,,,,,,,,,,,,,,,,,,,,,,,,5.94978226812872E+00,1.09323995460087E+01,5.47665219803819E+00,8.04612903389051E+00,7.25850182658152E+00,9.60486450429619E+00,1.93485476406105E+01,2.73383564264156E+01,2.46191934139100E+01,5.68157247399424E+01,4.70000000000000E+01,4.70000000000000E+01,,
LBY,,,,,,,,,,,,,,,,,,,,,,,,,,,,,,,,,,,,0.00000000000000E+00,0.00000000000000E+00,0.00000000000000E+00,0.00000000000000E+00,0.00000000000000E+00,0.00000000000000E+00,0.00000000000000E+00,0.00000000000000E+00,0.00000000000000E+00,0.00000000000000E+00,0.00000000000000E+00,0.00000000000000E+00,3.86055544527250E-02,5.66988637740045E-02,1.04359672719526E+00,,
LCA,,,,,,,,,,,,,,,,,,,,,,,,,,,,,,,,,,,,5.52486187845304E-01,4.72813238770686E-01,4.88997555012225E-01,4.46428571428571E-01,4.14078674948240E-01,3.86100386100386E-01,4.46827524575514E-01,8.65800865800866E-02,8.68055555555556E-02,5.62700964630225E-01,2.97176820208024E-01,6.20732464307883E-01,2.43605359317905E+00,1.06837606837607E+00,1.94404181194027E+00,,
LCN,,,,,,,,,,,,,,,,,,,,,,,,,,,,,,,,,,,,4.04918840315446E-01,4.23505489428130E-01,4.49881032767779E-01,6.09696389795967E-01,7.30813529425580E-01,6.79582406236908E-01,6.34597061837584E-01,6.34312586483219E-01,3.58606789476177E-01,3.41771265119975E-01,2.54365883641306E-01,2.54655151731286E-01,2.26339585715569E-01,2.27865347761992E-01,2.49120916933893E-01,,
LDC,,,,,,,,,,,,,,,,,,,,,,,,,,,,,,,,,,,,8.25668338791830E+00,9.77602990880442E+00,1.26784709677381E+01,1.34705269923677E+01,1.31322036391189E+01,1.30654522349413E+01,1.41728710612611E+01,1.46417571509962E+01,1.68132524802828E+01,1.96197992175170E+01,2.18337351688254E+01,2.26593164533620E+01,1.93299003025336E+01,1.82678980712552E+01,1.87202177021231E+01,,
LIC,,,,,,,,,,,,,,,,,,,,,,,,,,,,,,,,,,,,8.79211839654760E+00,9.29051325600010E+00,1.18040248730238E+01,1.24963311292244E+01,1.33751942651569E+01,1.19124815088461E+01,1.39944735255320E+01,1.55496276177790E+01,1.83481015958693E+01,2.18727939886867E+01,2.47529658659183E+01,2.61114457285712E+01,2.52432072223459E+01,2.50197516821259E+01,2.72069235025614E+01,,
LKA,,,,,,,,,,,,,,,,,,,,,,,,,,,,,,,,,,,,7.51693778530483E-02,2.24040433619494E-01,2.02015869324597E+00,1.31124645258423E+00,1.98465969806475E-01,2.75789642109869E-01,2.21725489276358E+00,1.43515569014989E+00,1.73755800578735E+00,1.26070869455207E+00,1.19661764386636E+00,1.13644575120371E+00,1.64610818563525E+00,1.84027166988967E+00,1.95240165148248E+00,,
LMC,,,,,,,,,,,,,,,,,,,,,,,,,,,,,,,,,,,,1.70047260956149E+00,1.36928216857813E+00,2.10900942334816E+00,2.83793511680393E+00,3.14424689503215E+00,2.56077481185396E+00,2.88753813502510E+00,2.06716023084498E+00,3.05439833228725E+00,3.23350419175909E+00,2.97851785689926E+00,3.25967253685155E+00,2.81477857151740E+00,2.84335328210331E+00,2.77053527179763E+00,,
LMY,,,,,,,,,,,,,,,,,,,,,,,,,,,,,,,,,,,,7.56889939953388E-01,6.77344546619694E-01,8.32750176987307E-01,1.05064767438644E+00,1.20344045924017E+00,1.07907300451265E+00,1.12616853696078E+00,1.01164835379404E+00,1.15592586017315E+00,1.22339216432380E+00,1.16413302765349E+00,1.22548793339552E+00,1.12023742519326E+00,1.08971744407011E+00,1.11568697343432E+00,,
LSO,,,,,,,,,,,,,,,,,,,,,,,,,,,,,,,,,,,,5.73637022314050E+00,3.47696192117183E+00,2.28285822083873E+00,2.93585506011204E+00,3.67767682936370E+00,3.05319357972552E+00,6.14429092174515E+00,5.24005911696560E+00,1.24808682343120E+01,1.33211678832117E+01,1.70955882352941E+01,1.23726346433770E+01,1.32358381978130E+01,1.93403550229378E+01,3.04022794931981E+01,,
LTU,,,,,,,,,,,,,,,,,,,,,,,,,,,,,,,,,,,,2.00414651002073E-02,2.12539851222104E-03,8.60215053763441E-04,1.23538011695906E-02,1.46950771491550E-02,1.68293503870751E+00,1.63398692810458E+00,1.49324872386964E+00,1.97926445316741E+00,7.04205449918365E-01,2.47036820168683E+00,1.88229741700934E+00,2.59980568906029E+00,1.12677172451588E+00,0.00000000000000E+00,,
LUX,,,,,,,,,,,,,,,,,,,,,,,,,,,,,,,,,,,,0.00000000000000E+00,0.00000000000000E+00,0.00000000000000E+00,0.00000000000000E+00,0.00000000000000E+00,0.00000000000000E+00,0.00000000000000E+00,0.00000000000000E+00,0.00000000000000E+00,0.00000000000000E+00,0.00000000000000E+00,3.27985320868572E-03,5.13639677314571E-03,3.43006188321657E+00,0.00000000000000E+00,,
LVA,,,,,,,,,,,,,,,,,,,,,,,,,,,,,,,,,,,,1.76433011506415E-01,6.18967346209997E-02,1.81130641162198E-01,7.26501302870317E-01,6.56455142231948E-01,5.33259877668065E-01,4.92146440609813E-01,4.36796174703414E-01,3.82725310390227E-01,3.11515361673710E-01,2.86602356818254E-01,2.32034056891514E-01,1.74781110964016E-01,0.00000000000000E+00,0.00000000000000E+00,,
MAR,,,,,,,,,,,,,,,,,,,,,,,,,,,,,,,,,,,,7.45218247383083E-01,6.57217898393022E-01,6.12271663579502E-01,5.23988862866260E-01,5.00502632214840E-01,4.71543563847341E-01,4.09478990902205E-01,3.24983484200429E-01,3.03444932568379E-01,2.84507161689510E-01,2.78029228451261E-01,2.45588651002714E-01,2.29566114204694E-01,2.02150243600810E-01,1.96354996683488E-01,,
MCO,,,,,,,,,,,,,,,,,,,,,,,,,,,,,,,,,,,,0.00000000000000E+00,0.00000000000000E+00,0.00000000000000E+00,0.00000000000000E+00,0.00000000000000E+00,0.00000000000000E+00,0.00000000000000E+00,0.00000000000000E+00,0.00000000000000E+00,0.00000000000000E+00,0.00000000000000E+00,0.00000000000000E+00,0.00000000000000E+00,0.00000000000000E+00,0.00000000000000E+00,,
MDA,,,,,,,,,,,,,,,,,,,,,,,,,,,,,,,,,,,,0.00000000000000E+00,0.00000000000000E+00,0.00000000000000E+00,5.16249256398592E-01,1.85278142190740E+00,1.59220291155816E+01,2.73940524357709E+01,6.30182486009497E+00,4.48022546380945E+00,3.35004994803386E+00,5.03841872211742E+00,4.47247052998206E+00,4.69111391851204E+00,4.67017974488156E+00,3.92111120539413E+00,,
MDG,,,,,,,,,,,,,,,,,,,,,,,,,,,,,,,,,,,,9.13438268290988E+00,7.30035883005092E+00,4.58798071453918E+00,8.89042411066353E+00,1.92390569467578E+01,2.01003293995699E+01,2.95866340541244E+01,3.07936401941604E+01,3.65955283164828E+01,3.76756328669599E+01,4.02188938657672E+01,3.87755942141543E+01,1.78037143530622E+01,1.60771079522929E+01,2.83116702267695E+01,,
MDV,,,,,,,,,,,,,,,,,,,,,,,,,,,,,,,,,,,,5.63084348729149E+00,5.00741495091889E+00,4.19298729026240E+00,8.14852766298741E+00,4.90920748782083E+00,2.20486019228412E+00,1.25785299279486E+00,2.43685564814984E+00,1.02413265978958E+00,1.21447656060238E+00,6.28667225481978E+00,1.24245651402201E+00,1.27244675605605E+00,1.50538262562302E+00,1.21911791496755E+00,,
MEA,,,,,,,,,,,,,,,,,,,,,,,,,,,,,,,,,,,,1.00143330440469E+00,1.17218016249684E+00,1.00040728045333E+00,1.21902242958539E+00,1.18671689851765E+00,1.02676163838825E+00,8.48542430299349E-01,9.71840188265778E-01,9.45896657318608E-01,9.79028086500442E-01,9.18739843762470E-01,1.38251995779555E+00,1.34778942576589E+00,5.50808935332004E-01,4.48667858973936E-01,,
MEX,,,,,,,,,,,,,,,,,,,,,,,,,,,,,,,,,,,,3.20126507824779E-01,3.42000432325603E-01,2.48829127363428E-01,8.75120621851103E-01,1.19458971485494E+00,1.00555511883238E+00,8.84366082406839E-01,6.53922925792517E-01,2.32321943770486E-02,2.70647310927983E-02,1.75064316142380E-02,1.37756273437699E-02,1.25696504257586E-02,2.47711832321609E-02,1.21993611732375E-02,,
MHL,,,,,,,,,,,,,,,,,,,,,,,,,,,,,,,,,,,,3.11705484043567E+01,3.08230231307154E+01,2.90928609769189E+01,3.05142857142857E+01,3.62361192285213E+01,3.69266055045872E+01,3.86892177589852E+01,3.91052631578947E+01,4.79859894921191E+01,4.60470085470086E+01,5.03474078033137E+01,6.60568127106403E+01,6.60454545454545E+01,6.97652582159624E+01,5.76758647493199E+01,,
MIC,,,,,,,,,,,,,,,,,,,,,,,,,,,,,,,,,,,,5.67383485178299E-01,4.76962964157869E-01,6.06119420683546E-01,7.95962524029999E-01,9.26207148749058E-01,8.38374259489199E-01,8.49380753086669E-01,6.95812551435107E-01,7.86434386438479E-01,7.84274755951837E-01,6.93076081218894E-01,7.26285122696760E-01,6.53828092362760E-01,6.30251929375921E-01,5.94158801771354E-01,,
MKD,,,,,,,,,,,,,,,,,,,,,,,,,,,,,,,,,,,,1.42502883253712E+00,1.10684989706268E+00,2.91733520402867E+00,2.49656664656615E+00,1.30221177723730E+00,2.75396214887988E+00,8.94009711723318E-01,1.93783965693474E+00,1.15453986051603E+00,1.59422118326365E+00,9.34401363953129E-01,1.02430742058776E+00,1.31678031411834E+00,1.76872665196127E+00,1.01243784499900E+00,,
MLI,,,,,,,,,,,,,,,,,,,,,,,,,,,,,,,,,,,,3.25763510133106E+00,2.92006325581549E+00,2.73350938076221E+00,5.12309537952578E+00,8.04181745074387E+00,7.81685196514737E+00,1.78205218867124E+01,1.48134431997037E+01,1.17378693464832E+01,1.37939379272793E+01,1.52107637648391E+01,2.17596864096271E+01,2.20079776312886E+01,2.22074606463784E+01,2.55981545836181E+01,,
MLT,,,,,,,,,,,,,,,,,,,,,,,,,,,,,,,,,,,,0.00000000000000E+00,0.00000000000000E+00,0.00000000000000E+00,0.00000000000000E+00,0.00000000000000E+00,0.00000000000000E+00,0.00000000000000E+00,0.00000000000000E+00,0.00000000000000E+00,0.00000000000000E+00,0.00000000000000E+00,0.00000000000000E+00,0.00000000000000E+00,0.00000000000000E+00,0.00000000000000E+00,,
MMR,,,,,,,,,,,,,,,,,,,,,,,,,,,,,,,,,,,,1.27012723484869E-01,1.38822172888752E-01,3.52223014639126E-01,1.20725448296347E+00,9.35162312723178E-01,1.06971844976222E+00,6.14832789046308E+00,6.76077902446527E+00,6.69551784727549E+00,1.31430384060053E+01,9.09272493381052E+00,1.25640684957879E+01,7.84222874991822E+00,1.06681098697754E+01,1.01613538104470E+01,,
MNA,,,,,,,,,,,,,,,,,,,,,,,,,,,,,,,,,,,,9.85101564671839E-01,9.63159105765492E-01,7.61886325184313E-01,1.19078017773027E+00,1.10894152622308E+00,9.72271307830103E-01,7.87323581188762E-01,9.69797525539847E-01,1.03454197473445E+00,1.03145976728561E+00,1.01978193945316E+00,1.98025112754278E+00,1.87711817261742E+00,1.00421003708964E+00,8.22755597065402E-01,,
MNE,,,,,,,,,,,,,,,,,,,,,,,,,,,,,,,,,,,,0.00000000000000E+00,0.00000000000000E+00,0.00000000000000E+00,0.00000000000000E+00,0.00000000000000E+00,0.00000000000000E+00,0.00000000000000E+00,0.00000000000000E+00,0.00000000000000E+00,8.88933655141028E-01,1.78872997668439E+00,1.26765887431233E+00,1.84146066501459E+00,1.93656427834431E+00,1.08667551096589E+00,,
MNG,,,,,,,,,,,,,,,,,,,,,,,,,,,,,,,,,,,,8.25115825132334E+00,4.33441740495682E+00,4.83721823359427E+00,1.20317568090277E+01,2.02729032795946E+01,2.75175275392983E+01,2.46425529695485E+01,1.36624884426129E+01,4.38033982475096E+00,5.24671504603187E+00,4.08114841730867E+00,4.71661836491028E+00,2.65992683705868E+00,7.47550944643539E+00,0.00000000000000E+00,,
MOZ,,,,,,,,,,,,,,,,,,,,,,,,,,,,,,,,,,,,3.46366455619179E+01,3.24111226101894E+01,3.05894600774566E+01,2.51930940686600E+01,2.66939901339943E+01,2.63921060172003E+01,2.40732023250019E+01,3.08153731057877E+01,4.16468279022087E+01,5.03821895574111E+01,5.55546555919297E+01,6.14783087515284E+01,6.45124400359103E+01,8.07910116870324E+01,7.19524603622819E+01,,
MRT,,,,,,,,,,,,,,,,,,,,,,,,,,,,,,,,,,,,1.83637484099479E+01,1.07358626679193E+01,1.12416507627173E+01,1.07170393132388E+01,1.52365489338161E+01,1.72217458882199E+01,3.22839942415914E+01,1.90130324549102E+01,3.65927610384688E+01,2.59978806075592E+01,3.13317336147310E+01,1.73355273700676E+01,1.71129097295085E+01,2.73798742759792E+01,2.55649109725701E+01,,
MUS,,,,,,,,,,,,,,,,,,,,,,,,,,,,,,,,,,,,1.69953588836136E+00,1.53645344174101E+00,2.02245865255013E+00,1.64960428794439E+00,1.57874702349632E+00,1.37604016434028E+00,1.40774677866773E+00,1.56623995091477E+00,1.52266392491402E+00,1.15284972880456E+00,1.01106320239338E+00,9.55397339250330E-01,1.36077888208992E+00,1.99642299531219E+00,1.64227911159715E+00,,
MWI,,,,,,,,,,,,,,,,,,,,,,,,,,,,,,,,,,,,2.96668409813445E+01,2.62017918586899E+01,2.99154658638327E+01,4.86487437278798E+01,4.03703544815657E+01,2.71226556980086E+01,6.59082363094252E+01,6.76512479377023E+01,9.14023877868802E+01,7.16763828438983E+01,6.90932207524198E+01,5.98389053585616E+01,6.91068100997110E+01,8.70163855343627E+01,9.91422245073791E+01,,
MYS,,,,,,,,,,,,,,,,,,,,,,,,,,,,,,,,,,,,7.41988908980998E-01,6.38030738131023E-01,6.67639844983068E-01,8.51847250302133E-01,7.61151002739144E-01,6.45224491524975E-01,6.04778162551934E-01,5.61410295045886E-01,3.99919708032944E-02,3.62256632409516E-02,4.59802294283666E-02,3.55951308121057E-02,1.53919440987393E-02,1.35555991370857E-02,0.00000000000000E+00,,
NAC,,,,,,,,,,,,,,,,,,,,,,,,,,,,,,,,,,,,0.00000000000000E+00,0.00000000000000E+00,0.00000000000000E+00,0.00000000000000E+00,0.00000000000000E+00,0.00000000000000E+00,0.00000000000000E+00,0.00000000000000E+00,0.00000000000000E+00,0.00000000000000E+00,0.00000000000000E+00,0.00000000000000E+00,0.00000000000000E+00,0.00000000000000E+00,0.00000000000000E+00,,
NAM,,,,,,,,,,,,,,,,,,,,,,,,,,,,,,,,,,,,3.43294377392350E+00,2.02106704787098E+00,2.31890306737815E+00,2.49112229212428E+00,2.42739459893744E+00,3.79878067401205E+00,3.66718947622233E+00,3.13985571262197E+00,2.95226641639223E+00,9.66290263602825E+00,1.69057460421635E+01,2.24129229739274E+01,1.97717829571654E+01,2.14463863188281E+01,1.49179586421665E+01,,
NER,,,,,,,,,,,,,,,,,,,,,,,,,,,,,,,,,,,,2.58671986056988E+01,2.22013957306306E+01,2.61899902877315E+01,2.87100686803691E+01,3.38188675500451E+01,3.80272049484501E+01,2.48814121135004E+01,2.14127474304562E+01,2.25621487495700E+01,2.14984723056278E+01,3.48842350642922E+01,3.27575013275828E+01,3.20124342439703E+01,2.62790971669442E+01,3.26425870105705E+01,,
NGA,,,,,,,,,,,,,,,,,,,,,,,,,,,,,,,,,,,,4.65319471801856E-01,2.27705507495766E-01,3.21407405937308E-01,1.30830465654218E+01,1.38483514142663E+01,1.62163418011917E+01,5.56768362151559E+00,6.13635707255155E+00,4.22531903476925E+00,4.46810718572656E+00,3.70399880574124E+00,2.90616973525410E+00,4.09319868649118E+00,4.60546402383719E+00,4.85884550656456E+00,,
NIC,,,,,,,,,,,,,,,,,,,,,,,,,,,,,,,,,,,,1.58321554044794E+01,1.22069557750107E+01,9.85586822237474E+00,9.05829921373963E+00,8.51377952755906E+00,7.82421986830804E+00,8.52375385269423E+00,1.07517277043863E+01,1.10905466970387E+01,1.19171808971480E+01,1.17837344042942E+01,8.48556144533630E+00,1.09548622010170E+01,1.03235760659461E+01,1.17753305692585E+01,,
NLD,,,,,,,,,,,,,,,,,,,,,,,,,,,,,,,,,,,,0.00000000000000E+00,0.00000000000000E+00,0.00000000000000E+00,0.00000000000000E+00,0.00000000000000E+00,0.00000000000000E+00,0.00000000000000E+00,0.00000000000000E+00,0.00000000000000E+00,0.00000000000000E+00,0.00000000000000E+00,0.00000000000000E+00,0.00000000000000E+00,0.00000000000000E+00,0.00000000000000E+00,,
NOR,,,,,,,,,,,,,,,,,,,,,,,,,,,,,,,,,,,,0.00000000000000E+00,0.00000000000000E+00,0.00000000000000E+00,0.00000000000000E+00,0.00000000000000E+00,0.00000000000000E+00,0.00000000000000E+00,0.00000000000000E+00,0.00000000000000E+00,0.00000000000000E+00,0.00000000000000E+00,0.00000000000000E+00,0.00000000000000E+00,0.00000000000000E+00,0.00000000000000E+00,,
NPL,,,,,,,,,,,,,,,,,,,,,,,,,,,,,,,,,,,,1.24711199498923E+01,1.28061033275186E+01,1.09782315753793E+01,2.54860753118397E+01,2.03808238158993E+01,1.52087359357945E+01,1.37308964316333E+01,1.81347337328277E+01,8.42145424451190E+00,1.95617248221395E+01,1.86409520568402E+01,1.95685882300675E+01,1.30714864207291E+01,1.10369725811986E+01,1.37424784977970E+01,,
NZL,,,,,,,,,,,,,,,,,,,,,,,,,,,,,,,,,,,,0.00000000000000E+00,0.00000000000000E+00,0.00000000000000E+00,0.00000000000000E+00,0.00000000000000E+00,0.00000000000000E+00,0.00000000000000E+00,0.00000000000000E+00,0.00000000000000E+00,0.00000000000000E+00,0.00000000000000E+00,0.00000000000000E+00,0.00000000000000E+00,0.00000000000000E+00,0.00000000000000E+00,,
OEC,,,,,,,,,,,,,,,,,,,,,,,,,,,,,,,,,,,,8.76670815769474E-03,1.16376598790274E-02,1.14907151004508E-02,1.14486614021934E-02,1.19227013753997E-02,1.01658642840799E-02,8.90475917296946E-03,7.98844701230499E-03,6.92446434780019E-03,7.41414077584525E-03,6.96714823157123E-03,6.84587030210711E-03,7.27635460879637E-03,3.64432339490102E-03,1.09571747809837E-03,,
OED,,,,,,,,,,,,,,,,,,,,,,,,,,,,,,,,,,,,1.61165253571515E-02,1.60464478925916E-02,1.42798874363584E-02,1.97295876611506E-02,2.44380104749567E-02,2.26969128293961E-02,2.17833393220149E-02,1.66722028025439E-02,8.03050413071840E-03,7.84401957046696E-03,7.38992312229248E-03,7.35350468753903E-03,7.58820358008060E-03,4.00868610438305E-03,1.27500762123370E-03,,
OMN,,,,,,,,,,,,,,,,,,,,,,,,,,,,,,,,,,,,0.00000000000000E+00,0.00000000000000E+00,0.00000000000000E+00,0.00000000000000E+00,2.30479977872330E-03,1.34073302788300E-03,5.50495132904369E-02,3.82504480186749E-02,0.00000000000000E+00,0.00000000000000E+00,0.00000000000000E+00,0.00000000000000E+00,0.00000000000000E+00,0.00000000000000E+00,0.00000000000000E+00,,
PAK,,,,,,,,,,,,,,,,,,,,,,,,,,,,,,,,,,,,7.66398054459817E-01,7.50153083063217E-01,7.47170187093904E-01,6.87798097266728E-01,6.68506645088530E-01,7.52560440850984E-01,1.11861807152073E+00,1.38804451839863E+00,1.49522062558967E+00,1.86413356706690E+00,2.65325042046727E+00,2.63827340582720E+00,3.43055178659055E+00,4.84228797420438E+00,3.69692356477149E+00,,
PAN,,,,,,,,,,,,,,,,,,,,,,,,,,,,,,,,,,,,1.52359108781127E+00,1.38888888888889E+00,1.29526462395543E+00,1.16174002839809E+00,1.14605883101999E+00,9.97561516293505E-01,5.48426017330262E-01,1.01481631824640E+00,2.13523131672598E-01,1.22100122100122E-01,1.64175235461851E-01,1.66708343752605E-01,1.51148730350665E-01,1.90908006204510E-01,9.80248002744694E-02,,
PER,,,,,,,,,,,,,,,,,,,,,,,,,,,,,,,,,,,,1.40000000000000E+00,1.10000000000000E+00,1.20000000000000E+00,1.20000000000000E+00,1.30000000000000E+00,1.10000000000000E+00,1.35535453137939E+00,9.00000000000000E-01,2.10000000000000E+00,2.80000000000000E+00,2.60000000000000E+00,1.64165477050103E+00,1.12928065841364E+00,8.46891518783973E-01,9.58299384556769E-01,,
PHL,,,,,,,,,,,,,,,,,,,,,,,,,,,,,,,,,,,,1.82551427680910E+00,2.53348473257387E+00,2.02149479879154E+00,2.76671686031080E+00,3.65243652375471E+00,3.47273457320967E+00,3.72598149461895E+00,2.77304798041279E+00,3.31227311603573E+00,3.65954695464159E+00,4.39426708761936E+00,4.08560439895212E+00,2.10768143306325E+00,1.49009404486997E+00,4.30000024190304E+00,,
PLW,,,,,,,,,,,,,,,,,,,,,,,,,,,,,,,,,,,,4.83175799488179E+01,4.53638583319383E+01,4.61247373052071E+01,4.29318524355574E+01,4.21870910001104E+01,3.49996981090304E+01,3.41143984058043E+01,3.60289992365832E+01,4.31649860460945E+01,4.46511201400388E+01,4.74050004418645E+01,4.31999284004687E+01,3.97718712404853E+01,4.19999999989789E+01,4.60000000000000E+01,,
PNG,,,,,,,,,,,,,,,,,,,,,,,,,,,,,,,,,,,,6.65761028570198E+00,5.99053692655832E+00,3.38617215321810E+01,2.03518686715780E+01,2.42080509060728E+01,2.38494263246100E+01,2.37525557924044E+01,3.53503184713376E+01,3.96705601710948E+01,4.84775313814960E+01,3.70922559760956E+01,2.83128049775972E+01,2.96802030456853E+01,2.05523553784630E+01,1.99994089572528E+01,,
POL,,,,,,,,,,,,,,,,,,,,,,,,,,,,,,,,,,,,7.56038990577277E-02,5.55107960038672E-02,4.84973968429798E-02,4.81140973259320E-02,3.68050505579714E-02,3.54962041948513E-02,3.25014471811713E-02,2.19976189082109E-02,3.79996960024320E-02,5.23058146630634E-02,9.82047420254721E-02,4.46017905374130E-02,2.71644556019216E-02,3.69797566749486E-02,0.00000000000000E+00,,
PRT,,,,,,,,,,,,,,,,,,,,,,,,,,,,,,,,,,,,0.00000000000000E+00,0.00000000000000E+00,0.00000000000000E+00,0.00000000000000E+00,0.00000000000000E+00,0.00000000000000E+00,0.00000000000000E+00,0.00000000000000E+00,0.00000000000000E+00,0.00000000000000E+00,0.00000000000000E+00,0.00000000000000E+00,0.00000000000000E+00,0.00000000000000E+00,0.00000000000000E+00,,
PRY,,,,,,,,,,,,,,,,,,,,,,,,,,,,,,,,,,,,1.15817271987415E-01,2.01685501644791E+00,1.12356333459303E+00,1.56156903088484E+00,5.24582497764249E+00,2.82361870656210E+00,1.63383979073212E+00,3.34527458197583E+00,2.02393036058430E+00,2.20996701215806E+00,5.59297552516976E-01,1.09928461684302E+00,1.03009467355231E+00,1.55059977452101E+00,1.71943978527363E+00,,
QAT,,,,,,,,,,,,,,,,,,,,,,,,,,,,,,,,,,,,0.00000000000000E+00,0.00000000000000E+00,0.00000000000000E+00,0.00000000000000E+00,0.00000000000000E+00,0.00000000000000E+00,0.00000000000000E+00,0.00000000000000E+00,0.00000000000000E+00,0.00000000000000E+00,0.00000000000000E+00,0.00000000000000E+00,0.00000000000000E+00,0.00000000000000E+00,0.00000000000000E+00,,
ROM,,,,,,,,,,,,,,,,,,,,,,,,,,,,,,,,,,,,4.34492510829768E+00,1.86178293760852E+00,1.09200980384137E+00,2.84210734966490E+00,3.14247387743575E+00,5.66621727729300E+00,7.19056830637307E+00,3.87801097685287E+00,2.02240789973414E+00,9.02914489557276E-01,8.05705401373476E-01,0.00000000000000E+00,0.00000000000000E+00,0.00000000000000E+00,0.00000000000000E+00,,
RUS,,,,,,,,,,,,,,,,,,,,,,,,,,,,,,,,,,,,1.18453567003961E-01,5.19404149043214E-01,3.76708736529389E-01,6.06453676408662E-01,7.63037661446894E-01,1.98101021282504E-01,1.97349694758621E-01,1.85185185185185E-01,1.53703199298056E-01,1.30193592211027E-01,3.76690047056734E-02,9.90217802367112E-02,0.00000000000000E+00,0.00000000000000E+00,0.00000000000000E+00,,
RWA,,,,,,,,,,,,,,,,,,,,,,,,,,,,,,,,,,,,4.96880081174185E+00,9.21002612788777E+00,1.86235911463843E+01,4.89739106674753E+01,4.26751938024695E+01,5.19607519136454E+01,3.41527726603188E+01,3.34343260198125E+01,4.16288083378605E+01,3.09249197908596E+01,6.30802674619266E+01,5.25499284177949E+01,4.66635338830039E+01,4.26162804269420E+01,5.31907840389490E+01,,
SAS,,,,,,,,,,,,,,,,,,,,,,,,,,,,,,,,,,,,1.44380444746331E+00,6.62179789827981E-01,1.78385111103961E+00,1.98433385035587E+00,1.66202076993688E+00,1.03625140105922E+00,2.55347602681348E+00,1.26615794394994E+00,2.76300342270396E+00,3.10226846762304E+00,2.42219057505799E+00,2.23536788606841E+00,2.20938341376658E+00,2.40897928640591E+00,2.14795006836651E+00,,
SAU,,,,,,,,,,,,,,,,,,,,,,,,,,,,,,,,,,,,0.00000000000000E+00,0.00000000000000E+00,0.00000000000000E+00,0.00000000000000E+00,2.53344162064969E-03,2.31059014156617E-03,4.10038527213056E-04,6.18807184658540E-04,0.00000000000000E+00,2.88282169336449E-03,2.38534299565670E-03,1.96606680963894E-03,1.81053887521178E-03,1.56535832039270E-03,0.00000000000000E+00,,
SDN,,,,,,,,,,,,,,,,,,,,,,,,,,,,,,,,,,,,3.17260138452516E-01,1.65547226399327E+00,1.68949086064041E+00,9.19926451361333E-01,2.06863586824091E+00,4.38654821505662E+00,4.46739332568965E+00,3.49224830500597E+00,3.91998065410440E+00,4.98633842636426E+00,6.82383572253070E+00,8.72751228100152E+00,5.96635016294726E+00,4.26110631699264E+00,3.15109262804482E+00,,
SEN,,,,,,,,,,,,,,,,,,,,,,,,,,,,,,,,,,,,9.35220147536556E+00,1.27035718988543E+01,1.02284140710703E+01,1.15562358432198E+01,1.71626607784748E+01,1.73682046428854E+01,1.59811608000144E+01,1.53998403424063E+01,1.29917658223655E+01,1.71789898579739E+01,1.83040937456531E+01,1.87868416832509E+01,8.63270867327150E+00,1.14174474824175E+01,1.39962224420676E+01,,
SGP,,,,,,,,,,,,,,,,,,,,,,,,,,,,,,,,,,,,0.00000000000000E+00,0.00000000000000E+00,0.00000000000000E+00,0.00000000000000E+00,0.00000000000000E+00,0.00000000000000E+00,0.00000000000000E+00,0.00000000000000E+00,0.00000000000000E+00,0.00000000000000E+00,0.00000000000000E+00,0.00000000000000E+00,0.00000000000000E+00,0.00000000000000E+00,0.00000000000000E+00,,
SLB,,,,,,,,,,,,,,,,,,,,,,,,,,,,,,,,,,,,1.62118943066731E+01,8.80481513327601E+00,4.84459360863855E+00,1.66687094006618E+00,3.02860347728547E+00,1.47486033519553E+01,4.88081113148528E+01,5.71460128120168E+01,3.81255261434852E+01,5.85443289149933E+01,5.72153325817362E+01,5.63030377567335E+01,4.36122498191464E+01,3.35258381459536E+01,2.93808334428816E+01,,
SLE,,,,,,,,,,,,,,,,,,,,,,,,,,,,,,,,,,,,1.16132369534944E+00,8.23555987645424E-01,6.41938969274534E+00,5.47734234974756E+00,4.77308255151925E+00,6.60943136780274E+00,5.63240107399259E+00,8.99061401229820E+00,1.15655718695605E+01,1.15863749499038E+01,1.37303659525323E+01,2.09935747985755E+01,1.69882705895912E+01,1.69733294455126E+01,2.03815431855549E+01,,
SLV,,,,,,,,,,,,,,,,,,,,,,,,,,,,,,,,,,,,3.26732673267327E+00,4.88678521171805E+00,3.41899194882541E+00,2.89752650176678E+00,1.50996577410912E+00,9.05883474778297E-01,2.15740740740741E+00,1.74927113702624E+00,1.16331909479233E+00,1.70648464163823E+00,1.70366123351626E+00,3.19131702575733E+00,3.65430149960537E+00,3.54727190741019E+00,7.94349400156172E+00,,
SMR,,,,,,,,,,,,,,,,,,,,,,,,,,,,,,,,,,,,0.00000000000000E+00,0.00000000000000E+00,0.00000000000000E+00,0.00000000000000E+00,0.00000000000000E+00,0.00000000000000E+00,0.00000000000000E+00,0.00000000000000E+00,0.00000000000000E+00,0.00000000000000E+00,0.00000000000000E+00,0.00000000000000E+00,0.00000000000000E+00,0.00000000000000E+00,0.00000000000000E+00,,
SRB,,,,,,,,,,,,,,,,,,,,,,,,,,,,,,,,,,,,0.00000000000000E+00,0.00000000000000E+00,1.16933989057073E-02,8.30028143863266E-03,6.73254571171560E-02,1.07928057588751E+00,1.23067250379585E+00,4.78662485097215E-01,1.73674717345911E+00,1.24909213365405E+00,8.80173659450650E-01,8.11800303466866E-01,7.65168068433164E-01,4.42186574206149E-01,4.34148212678849E-01,,
SSA,,,,,,,,,,,,,,,,,,,,,,,,,,,,,,,,,,,,2.67283757120480E+00,2.79743884258678E+00,3.41507637326254E+00,4.95217761786269E+00,5.22206609024149E+00,5.84153942357103E+00,5.60568286305238E+00,6.21788790305014E+00,6.11512154614706E+00,6.58374674008014E+00,7.53514057785962E+00,8.60747954452906E+00,8.28720729164087E+00,9.28240234744344E+00,1.05549071367418E+01,,
SSF,,,,,,,,,,,,,,,,,,,,,,,,,,,,,,,,,,,,2.67313416430175E+00,2.79783972271770E+00,3.41887451035968E+00,4.96411330167457E+00,5.23434550851708E+00,5.84532586458713E+00,5.61283115693235E+00,6.22609350058726E+00,6.11143907357656E+00,6.57371407869323E+00,7.51990993748793E+00,8.59483170230694E+00,8.27600312872991E+00,9.24318715895496E+00,1.04988302606193E+01,,
STP,,,,,,,,,,,,,,,,,,,,,,,,,,,,,,,,,,,,3.25711933483333E+01,4.04217994770409E+01,4.79319368610122E+01,3.20578309496654E+01,3.50522584897423E+01,2.61177779011392E+01,4.30634968402046E+01,4.80770828141872E+01,3.69775567800027E+01,3.97581883316274E+01,2.76897414512093E+01,3.16487191820923E+01,3.03555059945170E+01,2.50995398297647E+01,3.87114406047183E+01,,
SUR,,,,,,,,,,,,,,,,,,,,,,,,,,,,,,,,,,,,2.27146534753420E+01,1.87265917602996E+01,2.01067739027941E+01,2.15166138997326E+01,1.80878552971576E+01,1.08859219415362E+01,1.32499627810034E+01,7.18232044198895E+00,6.84931506849315E+00,8.24372759856631E+00,6.47590361445783E+00,8.28404902606982E+00,1.90428878721609E+00,2.84250693340835E+00,3.26675365404542E+00,,
SVK,,,,,,,,,,,,,,,,,,,,,,,,,,,,,,,,,,,,2.81694949977806E+00,2.38138192314631E+00,2.53525819793847E+00,3.17550402680936E+00,2.90600615825986E+00,7.81429331926760E-01,8.51197848171840E-01,3.39426670639216E-01,2.94524784260596E-01,3.68437212158428E-01,0.00000000000000E+00,0.00000000000000E+00,0.00000000000000E+00,0.00000000000000E+00,0.00000000000000E+00,,
SVN,,,,,,,,,,,,,,,,,,,,,,,,,,,,,,,,,,,,5.94588082901554E-04,2.79110197368421E-03,6.24358238636364E-03,3.54539507221750E-04,3.44843745261562E-03,2.29877932899023E-01,1.97551338954469E-01,1.75768071035518E-01,8.94313218603543E-03,8.01937696911600E-03,9.33263961141636E-04,1.46292096204161E-02,1.79065192887515E-02,3.66682298038498E-02,0.00000000000000E+00,,
SWE,,,,,,,,,,,,,,,,,,,,,,,,,,,,,,,,,,,,0.00000000000000E+00,0.00000000000000E+00,0.00000000000000E+00,0.00000000000000E+00,0.00000000000000E+00,0.00000000000000E+00,0.00000000000000E+00,0.00000000000000E+00,0.00000000000000E+00,0.00000000000000E+00,0.00000000000000E+00,0.00000000000000E+00,0.00000000000000E+00,0.00000000000000E+00,0.00000000000000E+00,,
SWZ,,,,,,,,,,,,,,,,,,,,,,,,,,,,,,,,,,,,1.93371761385346E+00,1.61507178503943E+00,1.47971007963534E+00,1.87500000000000E+01,1.02611940298507E+01,5.45144804088586E+00,1.61800879824571E+00,1.75976532559989E+00,2.59074934860235E+00,6.51122580273021E+00,2.89236724574873E+00,1.24707926244597E+01,7.90166524370051E+00,1.10712914283211E+01,1.22110822295033E+01,,
SYC,,,,,,,,,,,,,,,,,,,,,,,,,,,,,,,,,,,,8.59239222554923E-01,1.73933913353970E+00,0.00000000000000E+00,1.91546803967639E+00,5.72903266266412E+00,5.57461812240200E+00,4.50037441131493E+00,5.04051706089676E+00,5.01360505460173E+00,4.60735973718230E+00,4.84081177873361E+00,3.78328412141626E+00,2.35731498169161E+00,1.64421765134848E+00,1.43081177149002E+00,,
SYR,,,,,,,,,,,,,,,,,,,,,,,,,,,,,,,,,,,,1.87301587301587E-01,1.23684210526316E-01,3.03797468354430E-01,2.41975308641975E-01,1.51162790697674E-01,1.32584269662921E-01,1.97957410189474E-01,4.25757444534605E-01,5.87753616595396E-01,3.10192283966936E-01,4.79727623254423E-01,1.14186938426674E+00,3.51240698381813E-01,5.32372812556048E-01,1.01524964658472E+00,,
TCD,,,,,,,,,,,,,,,,,,,,,,,,,,,,,,,,,,,,2.27219765852030E+01,1.92929515839623E+01,1.15202473439615E+01,2.00247092266234E+01,2.15571647053335E+01,2.48803624713447E+01,2.51700612571233E+01,1.36662334073471E+01,1.96937551405943E+01,1.70308958001364E+01,2.03263708826332E+01,1.72562212825405E+01,1.04275707394102E+01,5.34154836011279E+00,6.88067038161566E+00,,
TGO,,,,,,,,,,,,,,,,,,,,,,,,,,,,,,,,,,,,5.31542849154765E-01,1.68262652760725E+00,5.88915595164788E+00,5.66124469062023E+00,7.05362169722679E+00,6.57902871843994E+00,8.84252941500305E+00,9.39064435688199E+00,4.45934337678110E+00,1.83565989602264E+01,2.09334537313801E+01,1.15127240001160E+01,1.01320563073471E+01,1.41004398858377E+01,1.74110774079075E+01,,
THA,,,,,,,,,,,,,,,,,,,,,,,,,,,,,,,,,,,,6.01038208164863E-02,1.94486156338375E-02,5.08297126270499E-02,4.75073854617368E-02,2.54397923113039E-02,4.29317598357605E-02,1.09990557596977E-01,2.81526330268436E-01,2.55706936630192E-01,2.49349275089688E-01,3.14508657855996E-01,2.87252176167388E-01,2.78472635069190E-01,2.69612758071035E-01,5.36413228874890E-01,,
TJK,,,,,,,,,,,,,,,,,,,,,,,,,,,,,,,,,,,,1.73167677419355E+01,2.31840591060986E+00,1.66690575554848E+00,1.82276584897903E+00,1.40383925154346E+01,2.28148874942604E+00,7.86225745155096E+00,7.81549044932311E+00,1.46380817847574E+01,1.13111465831324E+01,1.46304913134799E+01,1.07308465965731E+01,9.77531368543916E+00,1.04915041623902E+01,1.16955729958765E+01,,
TKM,,,,,,,,,,,,,,,,,,,,,,,,,,,,,,,,,,,,8.34781810473815E-01,2.37035629209866E+00,5.38605738161560E-01,3.81766997307121E+00,8.25321022382671E-01,1.37058930982177E+00,7.01439410841121E-01,5.20470155097890E-01,4.43498314706404E-01,3.78515462356637E-01,3.50483667461096E-01,3.37279503524571E-01,2.96463194094453E-01,3.14749144931490E-01,6.23676764653928E-01,,
TMP,,,,,,,,,,,,,,,,,,,,,,,,,,,,,,,,,,,,0.00000000000000E+00,0.00000000000000E+00,4.16158679337943E+01,9.37831939691748E+01,4.75390744026652E+01,5.56486619106934E+01,5.45394080478883E+01,4.62746274627463E+01,4.73285718664746E+01,4.36895959285630E+01,4.81465042621907E+01,4.15821131976186E+01,3.26393673936339E+01,2.18326892272614E+01,0.00000000000000E+00,,
TON,,,,,,,,,,,,,,,,,,,,,,,,,,,,,,,,,,,,2.02978079969558E+00,1.86393289841566E+00,7.25730442978322E+00,2.35294117647059E+01,2.48403122782115E+01,2.62812089356110E+01,3.47111817700053E+01,3.55084284937466E+01,3.84694932781799E+01,3.78818737270876E+01,4.01096163428002E+01,3.26307255776247E+01,1.68377042949449E+01,5.08896797153025E+00,4.18250950570342E+00,,
TTO,,,,,,,,,,,,,,,,,,,,,,,,,,,,,,,,,,,,6.72515264711127E-02,6.67645493713254E-02,4.02158189700084E-02,6.69645308969198E+00,5.14833967298364E+00,6.83151387214645E+00,4.12762894666735E+00,3.61280261399079E+00,2.75712161079968E+00,2.42416769420469E+00,1.77854162071966E+00,2.09175686227180E+00,1.96789929913373E-01,2.62776494076141E-01,2.31982257512735E-01,,
TUN,,,,,,,,,,,,,,,,,,,,,,,,,,,,,,,,,,,,8.58514483927965E-01,6.44887170423963E-01,5.94280569375977E-01,5.42968758787947E-01,9.84650931334181E-01,8.82276298056881E-01,9.55677151853084E-01,1.31389828798620E+00,2.10381097150845E-01,2.29041720590722E-01,8.58770620048704E-02,3.10023215784613E-01,1.35192344285235E+00,5.46901946498799E-01,1.20188881159772E+00,,
TUR,,,,,,,,,,,,,,,,,,,,,,,,,,,,,,,,,,,,1.52671755725191E+00,1.27481554592721E-01,7.00171209876543E-02,4.44726523979390E-02,1.50205983951856E-02,6.06207565470417E-02,2.66214908034850E-01,5.32679912640494E-03,1.77107788623914E-01,6.66200326438160E-03,1.13125371192624E-02,2.49608568381402E-02,2.55382681125255E-02,0.00000000000000E+00,0.00000000000000E+00,,
TUV,,,,,,,,,,,,,,,,,,,,,,,,,,,,,,,,,,,,5.47516290090548E+00,2.50000000000000E+01,0.00000000000000E+00,4.70588235294118E+00,3.68421052631579E+00,4.38931297709924E+01,9.10638297872340E+01,9.59641255605381E+01,4.47098976109215E+01,1.78707224334601E+01,3.51145038167939E+01,1.65745856353591E+01,6.12244897959184E+00,2.33236151603499E+00,1.59891598915989E+01,,
TZA,,,,,,,,,,,,,,,,,,,,,,,,,,,,,,,,,,,,9.29031593543607E+00,7.74817278510085E+00,1.49563295081902E+01,1.77648466942199E+01,3.14165573075833E+01,2.78109880380316E+01,1.90638294421762E+01,1.22572515034871E+01,2.97961538075164E+01,3.05731936000681E+01,3.64794738537289E+01,4.26917691487645E+01,4.79266283948431E+01,5.92121440584467E+01,5.64694164872180E+01,,
UGA,,,,,,,,,,,,,,,,,,,,,,,,,,,,,,,,,,,,1.39901302941798E+01,1.70642267562597E+01,2.60428505509872E+01,3.08959670246646E+01,2.76207243368638E+01,2.83271890340508E+01,2.73518556712408E+01,2.13346260318664E+01,1.61950833869201E+01,2.27457460279874E+01,3.23086452518255E+01,2.79730184469974E+01,2.98547540627817E+01,2.79391084395804E+01,2.08980437386147E+01,,
UKR,,,,,,,,,,,,,,,,,,,,,,,,,,,,,,,,,,,,2.24275211187853E-01,2.75402887478756E-01,5.56109196474015E-01,3.14002700076751E-01,2.35672734256729E-01,5.45415886370660E-01,5.44524088634921E-01,5.71055745195307E-01,4.59582239126652E-01,6.86163915464429E-01,2.98369854413655E-01,2.79201546233058E-01,2.66267198022621E-01,4.00510779326773E-01,5.20737684416606E-01,,
UMC,,,,,,,,,,,,,,,,,,,,,,,,,,,,,,,,,,,,3.31622852297781E-01,2.99298329763520E-01,3.13633394637231E-01,3.98980784126586E-01,4.67006143983736E-01,4.94583723826318E-01,4.38003654560517E-01,3.86001709809744E-01,2.52505651814857E-01,2.37675801309052E-01,2.17265769750448E-01,1.99432009630198E-01,2.03806652544978E-01,1.82882057486980E-01,1.70021682663372E-01,,
URY,,,,,,,,,,,,,,,,,,,,,,,,,,,,,,,,,,,,2.95546393094279E-01,4.82827081850944E-01,0.00000000000000E+00,0.00000000000000E+00,0.00000000000000E+00,0.00000000000000E+00,0.00000000000000E+00,0.00000000000000E+00,3.95143912324739E-02,5.40589242274079E-02,5.42934704957851E-02,6.62150460958590E-02,4.55684666210982E-02,1.96695515342250E-01,3.58801186623466E-02,,
USA,,,,,,,,,,,,,,,,,,,,,,,,,,,,,,,,,,,,0.00000000000000E+00,0.00000000000000E+00,0.00000000000000E+00,0.00000000000000E+00,0.00000000000000E+00,0.00000000000000E+00,0.00000000000000E+00,0.00000000000000E+00,0.00000000000000E+00,0.00000000000000E+00,0.00000000000000E+00,0.00000000000000E+00,0.00000000000000E+00,0.00000000000000E+00,0.00000000000000E+00,,
UZB,,,,,,,,,,,,,,,,,,,,,,,,,,,,,,,,,,,,1.04705605251134E-01,4.61584313023540E-01,4.53272697704080E-01,3.24125285588665E+00,2.34588787359731E+01,6.24192854068015E+00,6.01028497964431E+00,1.73377342949681E+00,2.59050826862971E+00,1.45241392889465E+00,1.88791302473942E+00,2.24206849812736E+00,1.64350029559633E+00,2.35684705368098E+00,1.81812424150271E+00,,
VCT,,,,,,,,,,,,,,,,,,,,,,,,,,,,,,,,,,,,2.42718446601942E-01,2.34741784037559E-01,2.06611570247934E-01,2.08333333333333E-01,1.96078431372549E-01,1.94863400756070E-01,1.87758167480285E-01,1.65837479270315E-01,0.00000000000000E+00,0.00000000000000E+00,1.42857142857143E-01,1.26595098237796E+00,2.50000000000000E+00,2.43340131041892E+00,2.25094325549684E+00,,
VEN,,,,,,,,,,,,,,,,,,,,,,,,,,,,,,,,,,,,3.11595998342483E-01,1.48609804050629E+00,1.81773378702399E+00,1.34847372090542E+00,8.85628366051895E-01,6.81962349993422E-01,5.63239011507263E-01,1.18048039936230E-01,1.27234301125777E-02,1.68756319924181E-02,1.21171033216312E-02,2.21317104120579E-02,1.06254510682397E-02,1.38728352054535E-02,1.18708074380382E-02,,
VNM,,,,,,,,,,,,,,,,,,,,,,,,,,,,,,,,,,,,3.57636298602332E+00,9.91220134942604E-01,4.79972329728008E+00,2.69474119022180E+00,3.20255277756198E+00,2.48951661794380E+00,2.63774792461258E+00,3.25423559943721E+00,2.52676925348046E+00,1.98832415785179E+00,2.30320310886023E+00,2.18727247173986E+00,1.62406422199264E+00,1.69728731921944E+00,1.70000000083677E+00,,
VUT,,,,,,,,,,,,,,,,,,,,,,,,,,,,,,,,,,,,6.80583686086059E+01,1.33723821627894E+00,6.93019844601992E-01,9.40189271065119E+00,5.58722667090912E+01,2.70394207562349E+00,1.56471054718477E+01,9.64518633540373E+00,1.78084291187739E+01,2.39078853404388E+01,1.71464560495676E+01,2.31318970047294E+01,1.50783434450013E+01,1.21489394392735E+01,1.39999777141393E+01,,
WLD,,,,,,,,,,,,,,,,,,,,,,,,,,,,,,,,,,,,7.98281784008971E-02,8.13148263256306E-02,1.07619071331491E-01,1.29264470076206E-01,1.38534012217885E-01,1.29978261169022E-01,1.33734366056156E-01,1.09054000294507E-01,1.23757545720345E-01,1.38277083981441E-01,1.46676733784951E-01,1.69311109685086E-01,1.70452186139125E-01,1.77511418881083E-01,1.83545332829960E-01,,
WSM,,,,,,,,,,,,,,,,,,,,,,,,,,,,,,,,,,,,1.36184329831986E+01,1.19148936170213E+01,1.08974358974359E+01,1.66708136352326E+01,5.83506224066390E+00,1.73171301706006E+01,1.80335848138233E+01,2.25424122705089E+01,2.01705136202953E+01,1.94159004867496E+01,1.10006119951040E+01,1.88877498718606E+01,9.87754158964880E+00,7.05090350773592E+00,1.25856759709943E+01,,
YEM,,,,,,,,,,,,,,,,,,,,,,,,,,,,,,,,,,,,1.02988124804121E+00,9.98238063916629E-01,2.84992220678265E+00,6.44053962073783E+00,6.72332568130785E+00,7.96038601454414E+00,8.65670901378849E+00,6.68675409801351E+00,6.92949097827792E+00,9.15110816263202E+00,6.34338476452697E+00,7.25801802214474E+00,5.05273228895625E+00,4.55147817277496E+00,5.25024505683241E+00,,
ZAF,,,,,,,,,,,,,,,,,,,,,,,,,,,,,,,,,,,,7.11263021759790E-02,7.87265571032127E-02,7.88268812231059E-02,1.71573620298552E-01,1.20681035339749E-01,3.04633982106816E-01,2.04829831628341E-01,3.80773703939784E-01,3.53985230291433E-01,4.93982134113361E-01,4.89635207340623E-01,6.72369206286055E-01,7.59376302060410E-01,1.19283985787512E+00,1.90324213878036E+00,,
ZAR,,,,,,,,,,,,,,,,,,,,,,,,,,,,,,,,,,,,5.78151845908865E+00,2.71891729234923E+00,7.90155085412201E+00,5.08265462785195E+00,3.98861277623266E+00,3.21419855394945E+00,4.23746618528301E+00,8.09994186758849E+00,1.53496323877097E+01,2.12671511629705E+01,2.08437794963557E+01,3.24446196490293E+01,2.45362289271813E+01,1.88456662359109E+01,3.57966145777085E+01,,
ZMB,,,,,,,,,,,,,,,,,,,,,,,,,,,,,,,,,,,,1.15281224409675E+01,1.86623636623278E+01,2.28429346762813E+01,2.41639258079765E+01,8.75021648131924E+00,1.78379837939866E+01,1.34226953799295E+01,2.60382232066737E+01,3.19869996347057E+01,3.42395036615338E+01,4.25117035621399E+01,4.46962236392190E+01,3.08949164886726E+01,3.84336677333475E+01,5.03020946463129E+01,,
ZWE,,,,,,,,,,,,,,,,,,,,,,,,,,,,,,,,,,,,5.98647539419919E+00,3.56481376355415E+00,4.89354125581605E+00,3.14844934545689E+00,3.93179155601315E+00,1.29761411019456E+00,5.48388741260197E+00,,,,,,,,,,
