"Country Code",1960,1961,1962,1963,1964,1965,1966,1967,1968,1969,1970,1971,1972,1973,1974,1975,1976,1977,1978,1979,1980,1981,1982,1983,1984,1985,1986,1987,1988,1989,1990,1991,1992,1993,1994,1995,1996,1997,1998,1999,2000,2001,2002,2003,2004,2005,2006,2007,2008,2009,2010,2011ADO,,,,,,,,,,,,,,,,,,,,,,,,,,,,,,,,,,,,2.67857142857143E+01,2.60642391348374E+01,2.51826011119590E+01,1.86641027091228E+01,2.51283867540287E+01,2.65714285714286E+01,2.18750000000000E+01,2.20183486238532E+01,2.23140495867769E+01,2.18045112781955E+01,2.20589433520535E+01,2.16943071490139E+01,2.25889308127541E+01,2.25302230230259E+01,2.38368328236908E+01,,
AFG,,,,,,,,,,,,,,,,,,,,,,,,,,,,,,,,,,,,,,,9.69216170615043E+01,7.79400086479924E+01,7.16791867323253E+01,6.58027260670957E+01,7.95656532969199E+01,7.98384641596021E+01,7.58120215694804E+01,7.49669392860814E+01,7.28914990610072E+01,7.55920976207655E+01,7.76726289865660E+01,7.76726289865660E+01,,
AGO,,,,,,,,,,,,,,,,,,,,,,,,,,,,,,,,,,,,1.32111861137898E+01,2.30973377933818E+01,2.21168362196920E+01,2.69493309122530E+01,2.58001560987783E+01,2.07558316155528E+01,1.44934187109967E+01,2.11496268099375E+01,1.89427573925949E+01,2.39597398147540E+01,2.55115908086755E+01,2.07024067262018E+01,2.03930709593875E+01,1.49636335024137E+01,1.09588937717999E+01,,
ALB,,,,,,,,,,,,,,,,,,,,,,,,,,,,,,,,,,,,4.99603640588981E+01,6.02735205321419E+01,6.07000127727795E+01,6.03713339463695E+01,5.66430088905432E+01,6.38191726905902E+01,6.16885918042271E+01,6.37262437049177E+01,6.04411791534212E+01,5.61544952387473E+01,5.65036344661105E+01,5.46562407693333E+01,5.77974407823440E+01,5.85616907994808E+01,5.89983488444048E+01,,
ARB,,,,,,,,,,,,,,,,,,,,,,,,,,,,,,,,,,,,3.80336086549683E+01,3.82567947548854E+01,3.97794907633747E+01,4.00995564968091E+01,3.79704591560725E+01,3.61791123981767E+01,3.41647768402479E+01,3.56868368305381E+01,3.36671280121696E+01,3.34666890655517E+01,3.25775355548657E+01,3.11682685042576E+01,3.22081702608496E+01,3.14194712071983E+01,3.17020206099657E+01,,
ARE,,,,,,,,,,,,,,,,,,,,,,,,,,,,,,,,,,,,1.49320200141461E+01,1.43043565549086E+01,1.52820227841067E+01,1.53451772544467E+01,1.57881365730575E+01,1.62667974894936E+01,1.50865145348276E+01,1.85123528818166E+01,1.83933791751209E+01,2.12418411668560E+01,2.24820031670046E+01,2.24527175751991E+01,2.05138181353175E+01,2.17084257481718E+01,2.02770287739710E+01,,
ARG,,,,,,,,,,,,,,,,,,,,,,,,,,,,,,,,,,,,2.79785497785032E+01,2.97619047619048E+01,2.79906405381691E+01,2.82848626440023E+01,2.78199566160521E+01,2.81872862365845E+01,2.93227500364031E+01,2.98149380415365E+01,3.07406967195655E+01,3.05708914616359E+01,2.94420257142931E+01,2.83777107145500E+01,2.49965027338447E+01,2.21763930276078E+01,1.98809668357153E+01,,
ARM,,,,,,,,,,,,,,,,,,,,,,,,,,,,,,,,,,,,6.56593635018106E+01,6.79279585635150E+01,7.06929014212284E+01,6.54891001214130E+01,6.03338813681307E+01,7.39700046903539E+01,6.06321521735207E+01,6.52606378664228E+01,6.78153577455454E+01,6.76813093952362E+01,6.66150314337716E+01,5.77089498794835E+01,5.48857819525386E+01,5.18238233700061E+01,5.25192828507631E+01,,
ATG,,,,,,,,,,,,,,,,,,,,,,,,,,,,,,,,,,,,2.72206303724928E+01,2.79627163781624E+01,2.80312907431552E+01,2.71589486858573E+01,2.67314702308627E+01,2.69005847953216E+01,2.58964143426295E+01,2.60869565217391E+01,2.96150049358342E+01,3.21637426900585E+01,3.11942959001783E+01,2.64853256979241E+01,2.65109890109890E+01,2.67973856209150E+01,2.15425939641846E+01,,
AUS,,,,,,,,,,,,,,,,,,,,,,,,,,,,,,,,,,,,1.60877942095397E+01,1.69506661517668E+01,1.68720271800679E+01,1.99032190195666E+01,1.86100266107259E+01,1.97959291196150E+01,1.92532372699834E+01,1.88202205389961E+01,1.82649328203584E+01,1.82629707041280E+01,1.86195093192305E+01,1.86572597714513E+01,1.80350035514043E+01,1.79056419365367E+01,1.85566678987797E+01,,
AUT,,,,,,,,,,,,,,,,,,,,,,,,,,,,,,,,,,,,1.52056277056277E+01,1.56458601709802E+01,1.54567654567655E+01,1.54447651535030E+01,1.51500024958818E+01,1.53134386202887E+01,1.60462729732251E+01,1.62013192373724E+01,1.64531800198082E+01,1.59841058640579E+01,1.57260667270751E+01,1.58456970072737E+01,1.54327634376172E+01,1.51171503004140E+01,1.47211325917435E+01,,
AZE,,,,,,,,,,,,,,,,,,,,,,,,,,,,,,,,,,,,6.55960480015137E+01,6.43201747104000E+01,6.17573831923455E+01,6.65802830430769E+01,6.42856245695735E+01,6.32022352312995E+01,6.32804525573956E+01,6.52668573982313E+01,7.74624938343054E+01,7.92211268705968E+01,8.30489330989138E+01,7.94773864787350E+01,7.39098550245247E+01,7.33002425006057E+01,6.94083045837284E+01,,
BDI,,,,,,,,,,,,,,,,,,,,,,,,,,,,,,,,,,,,4.92990919517077E+01,4.14705537657424E+01,4.48596322309785E+01,4.48152725018775E+01,4.35797862433912E+01,4.89800929795220E+01,4.92914422715790E+01,5.22046212315888E+01,5.04851780523147E+01,4.32493173057442E+01,4.39279440944960E+01,4.21276493393277E+01,3.76800829829266E+01,3.80546862184953E+01,3.56617200401629E+01,,
BEL,,,,,,,,,,,,,,,,,,,,,,,,,,,,,,,,,,,,1.75141242937853E+01,1.70563144538632E+01,1.91245330667649E+01,1.92101974506373E+01,1.89391443497906E+01,1.85946947963102E+01,1.79615140621696E+01,1.94296471342172E+01,1.95736871225221E+01,1.90281199443655E+01,1.84599746136828E+01,1.80305087598439E+01,1.96609574429798E+01,2.04548728977256E+01,1.95542344210502E+01,,
BEN,,,,,,,,,,,,,,,,,,,,,,,,,,,,,,,,,,,,5.49586000722784E+01,5.56607354938808E+01,5.78563100892278E+01,5.57073086186418E+01,5.39395554612801E+01,5.61188994863360E+01,5.12740359383235E+01,5.57477232574334E+01,5.21859900480330E+01,5.20661043902116E+01,4.77249157173274E+01,4.72062859911680E+01,4.59958377154312E+01,4.46969252939878E+01,4.15530354850431E+01,,
BFA,,,,,,,,,,,,,,,,,,,,,,,,,,,,,,,,,,,,5.77091078668453E+01,5.80882226053764E+01,5.55327685133020E+01,5.66413391369684E+01,5.55031545827153E+01,5.69579482880247E+01,5.90969477028149E+01,5.28780413856715E+01,4.94125130214435E+01,4.40758890488633E+01,3.81327503224386E+01,3.93787039881443E+01,3.72362182764711E+01,3.80600917603014E+01,3.56050026891397E+01,,
BGD,,,,,,,,,,,,,,,,,,,,,,,,,,,,,,,,,,,,6.12152981500574E+01,6.12434113369667E+01,5.53962803948238E+01,5.67452475512566E+01,5.78533187178275E+01,5.80122065509639E+01,5.74781361931316E+01,5.79121957684009E+01,5.96855769810349E+01,5.87244418207096E+01,6.26433007754532E+01,6.11690776188093E+01,6.33265166590257E+01,6.61738519060256E+01,6.58954703101633E+01,,
BGR,,,,,,,,,,,,,,,,,,,,,,,,,,,,,,,,,,,,2.66666666666667E+01,3.08641975308642E+01,2.96913507804248E+01,3.08794677130427E+01,3.43833497398397E+01,4.03732390071355E+01,4.37061292083028E+01,3.97960452680015E+01,3.80608295889220E+01,3.82166368348749E+01,3.78865154245095E+01,4.17930124139214E+01,3.87000815406143E+01,3.65436739300279E+01,3.52556294977362E+01,,
BHR,,,,,,,,,,,,,,,,,,,,,,,,,,,,,,,,,,,,2.16300776721867E+01,2.20069730736135E+01,2.13627124855494E+01,2.26556009034552E+01,2.21712485796304E+01,2.22845616174515E+01,2.27478593534647E+01,2.26532503442410E+01,2.22858990118043E+01,2.27176004459603E+01,2.19201012889250E+01,2.11050759319010E+01,1.91638435165089E+01,1.72371069373801E+01,1.81401378276219E+01,,
BHS,,,,,,,,,,,,,,,,,,,,,,,,,,,,,,,,,,,,2.41791044776119E+01,2.41075010028079E+01,2.34191176470588E+01,2.21696519094289E+01,2.14285714285714E+01,2.10848443118354E+01,2.11365003006615E+01,2.07034601086646E+01,2.05139426430164E+01,2.04355322817549E+01,2.06408999432375E+01,2.09406870051745E+01,2.13315426214354E+01,2.19956354060664E+01,2.33086538042508E+01,,
BIH,,,,,,,,,,,,,,,,,,,,,,,,,,,,,,,,,,,,5.29292340241565E+01,5.58543364167933E+01,5.55224937738735E+01,5.70034651257542E+01,4.55537460305245E+01,4.23610460672174E+01,3.93209452587807E+01,3.67171057996097E+01,3.08154013178368E+01,4.27970419600426E+01,4.50284751124242E+01,4.45229380498069E+01,4.34472376700943E+01,4.18135354776269E+01,3.86546429433142E+01,,
BLR,,,,,,,,,,,,,,,,,,,,,,,,,,,,,,,,,,,,1.82273107298429E+01,1.44332205142720E+01,8.59206154770042E+00,1.29671715438804E+01,1.27374463026262E+01,1.33883144705042E+01,1.76239694056439E+01,2.00654569468205E+01,1.77039254732178E+01,1.67939915332909E+01,1.61746348708546E+01,1.75731036816352E+01,1.77011491698868E+01,1.98610541633633E+01,1.98401912016618E+01,,
BLZ,,,,,,,,,,,,,,,,,,,,,,,,,,,,,,,,,,,,3.28927080977736E+01,3.78545910521210E+01,3.67387914646389E+01,3.40441809314335E+01,3.56060606060606E+01,4.17475728155340E+01,4.23891380169407E+01,4.28755565971409E+01,4.21296296296296E+01,4.41979855472782E+01,4.04460212873796E+01,3.68209700510982E+01,2.96692243273326E+01,2.97600240724456E+01,2.69819752078062E+01,,
BOL,,,,,,,,,,,,,,,,,,,,,,,,,,,,,,,,,,,,2.77801708062070E+01,2.77753030961969E+01,2.84825289971683E+01,3.10911482190851E+01,3.50871313672922E+01,3.25515055467512E+01,3.16936671575847E+01,2.93164009727101E+01,3.12336026291553E+01,2.87767857453756E+01,2.76881057279898E+01,2.60926245541713E+01,2.82595262615860E+01,3.00679964658067E+01,3.00273048956116E+01,,
BRA,,,,,,,,,,,,,,,,,,,,,,,,,,,,,,,,,,,,3.87396204552524E+01,4.08117366181101E+01,3.81583885900163E+01,3.83698569313510E+01,3.84231672725559E+01,3.79526672133334E+01,3.61219003732843E+01,3.46117613774879E+01,3.48305869091220E+01,3.31854955215256E+01,3.76866203405483E+01,3.63782457921001E+01,3.43493364211276E+01,3.19350260211323E+01,3.10012138282590E+01,,
BRB,,,,,,,,,,,,,,,,,,,,,,,,,,,,,,,,,,,,2.43037974683544E+01,2.40032546786005E+01,2.63639832125143E+01,2.64914772727273E+01,2.66447368421053E+01,2.63975155279503E+01,2.49632892804699E+01,2.43767313019391E+01,2.72508682874699E+01,2.83975659229209E+01,2.86806883365201E+01,2.86616339777057E+01,2.90735675467490E+01,2.91750503018109E+01,2.87836937635709E+01,,
BRN,,,,,,,,,,,,,,,,,,,,,,,,,,,,,,,,,,,,1.33342576041909E-01,1.04358901825551E-01,1.05715137452342E-01,9.08123212028474E-02,8.42679030135957E-02,8.26443622325881E-02,8.28840125391849E-02,8.21336979632131E-02,8.81225437005652E-02,9.72578996586892E-02,9.03723172065797E-02,8.62631748480478E-02,1.02530586722160E-01,1.07917510756264E-01,9.23663782047198E-02,,
BTN,,,,,,,,,,,,,,,,,,,,,,,,,,,,,,,,,,,,3.49228517022907E+01,2.82161282268289E+01,3.08709522249667E+01,3.11466397684968E+01,2.30784059060816E+01,2.07415400510808E+01,2.15912304728915E+01,1.61936692197714E+01,2.58835872316495E+01,2.75387973978492E+01,2.35656246813656E+01,1.90627380213088E+01,1.83279452853884E+01,1.74540805241255E+01,1.80673386390855E+01,,
BWA,,,,,,,,,,,,,,,,,,,,,,,,,,,,,,,,,,,,1.77848750878720E+01,1.63723320782706E+01,1.50697527195813E+01,1.59589912114247E+01,1.53030807846832E+01,1.38818967505093E+01,1.02809649737499E+01,8.64013609977119E+00,9.30305975228133E+00,7.00052951817892E+00,7.71571229477391E+00,8.18625855664401E+00,7.12691274812463E+00,7.20073731813247E+00,6.79875097108535E+00,,
CAF,,,,,,,,,,,,,,,,,,,,,,,,,,,,,,,,,,,,5.72706388960534E+01,6.58222146206924E+01,5.94529483840120E+01,6.33884677286191E+01,5.85118204251212E+01,5.56334738239349E+01,5.81518000969236E+01,5.58801719520951E+01,5.71611325631899E+01,5.89097247440162E+01,5.37137363784948E+01,5.84950913244082E+01,6.19815248803723E+01,5.76967959401808E+01,5.82540155453541E+01,,
CAN,,,,,,,,,,,,,,,,,,,,,,,,,,,,,,,,,,,,1.58564040988416E+01,1.61211317537854E+01,1.67627002848782E+01,1.61502097665365E+01,1.62325336748462E+01,1.59103082497506E+01,1.52268875006054E+01,1.51664622709566E+01,1.53100205304380E+01,1.53100205304380E+01,1.53100205304380E+01,1.56898027124606E+01,1.54233529144216E+01,1.55306427862699E+01,1.55140332765120E+01,,
CHE,,,,,,,,,,,,,,,,,,,,,,,,,,,,,,,,,,,,3.30956375838926E+01,3.14953695054578E+01,3.24051295472389E+01,3.28745447695592E+01,3.33755017637757E+01,3.29769852014378E+01,3.17885590152064E+01,3.15628429138178E+01,3.16241934092689E+01,3.18612879495952E+01,3.06305934799975E+01,3.07931310238336E+01,3.05656417697993E+01,3.07743922371522E+01,3.03118811881188E+01,,
CHL,,,,,,,,,,,,,,,,,,,,,,,,,,,,,,,,,,,,2.69499253920884E+01,2.45392247245996E+01,2.58859503255971E+01,2.48383011559256E+01,2.39618439271625E+01,2.33382933375727E+01,2.27562819491582E+01,2.26244179068996E+01,3.89139524474879E+01,3.88607143862797E+01,3.89689592164137E+01,3.79493245510683E+01,3.65988562382561E+01,3.65090851905064E+01,3.43731919325306E+01,,
CHN,,,,,,,,,,,,,,,,,,,,,,,,,,,,,,,,,,,,4.64000283409901E+01,5.06435369505003E+01,5.28383725227524E+01,5.48458710876153E+01,5.58505867603112E+01,5.89795278454407E+01,5.99667206799240E+01,5.77222132391637E+01,5.58719231806227E+01,5.36389961898639E+01,5.22057991431772E+01,4.93080600690416E+01,4.51631704728852E+01,4.34734329721661E+01,4.11737883245908E+01,,
CIV,,,,,,,,,,,,,,,,,,,,,,,,,,,,,,,,,,,,7.62003689545995E+01,7.51751950850981E+01,7.54103876180221E+01,7.85065476988722E+01,7.57121877078062E+01,7.23317947653427E+01,7.40531031008378E+01,6.82544346500880E+01,7.23952677754224E+01,7.30282295961633E+01,7.85249009724161E+01,7.93266630046049E+01,7.62483207664913E+01,7.56365481539039E+01,8.02170385436872E+01,,
CMR,,,,,,,,,,,,,,,,,,,,,,,,,,,,,,,,,,,,7.19847423985860E+01,8.22727874725054E+01,7.84442900634858E+01,8.06904891164523E+01,7.91806364850823E+01,7.36244779313710E+01,7.05976361386901E+01,6.81862828883077E+01,6.79668394755785E+01,7.04533192975834E+01,7.06849453488255E+01,7.08971184415541E+01,7.11590036170294E+01,7.35327683122329E+01,6.84640943893508E+01,,
COG,,,,,,,,,,,,,,,,,,,,,,,,,,,,,,,,,,,,4.03693533299134E+01,3.94908085244835E+01,4.01819425791248E+01,4.12166356300434E+01,4.25171914585595E+01,4.22795636724238E+01,4.49957591178965E+01,4.73280655545800E+01,5.00815382281553E+01,4.61609942700205E+01,4.05236213344339E+01,4.09944975600509E+01,4.05901159439606E+01,5.01035070016246E+01,4.61748002654912E+01,,
COL,,,,,,,,,,,,,,,,,,,,,,,,,,,,,,,,,,,,3.50320497139518E+01,3.00500250207587E+01,3.01666662990244E+01,2.26132553999547E+01,1.71508762017406E+01,1.12481074986285E+01,1.16797477348560E+01,9.95162684030747E+00,7.51198128608979E+00,7.52537710152515E+00,7.53338433401178E+00,7.46117524155809E+00,7.68290384542068E+00,7.86650236577911E+00,7.90985396627216E+00,,
COM,,,,,,,,,,,,,,,,,,,,,,,,,,,,,,,,,,,,2.87670139987064E+01,3.03918474931784E+01,3.31145062930889E+01,3.63388182783947E+01,3.93983042377249E+01,4.59097496688715E+01,5.25859178271265E+01,4.30453733501478E+01,4.29533118435358E+01,4.61662423380519E+01,4.65876219935281E+01,4.55241373745392E+01,4.38189565057417E+01,3.95982098630040E+01,3.84189572277619E+01,,
CPV,,,,,,,,,,,,,,,,,,,,,,,,,,,,,,,,,,,,1.92293577981651E+01,1.78076169487046E+01,1.78281170932176E+01,2.47034906669017E+01,2.60396511554734E+01,2.64022343642793E+01,2.41181877232402E+01,2.43243247686861E+01,2.59913133552522E+01,2.20176194644440E+01,2.26596636110145E+01,2.19524767269671E+01,2.48900138316825E+01,2.68238451861945E+01,2.59075885801312E+01,,
CRI,,,,,,,,,,,,,,,,,,,,,,,,,,,,,,,,,,,,2.06035227696623E+01,2.08556506006791E+01,2.14077602729203E+01,2.09262456843629E+01,2.09267660935531E+01,2.04243907762828E+01,2.21938662806563E+01,2.30627057726815E+01,2.32230085852792E+01,2.51085511740546E+01,2.53443598369955E+01,2.69383362127535E+01,2.87182907357602E+01,2.92506799697444E+01,2.85462038920713E+01,,
CUB,,,,,,,,,,,,,,,,,,,,,,,,,,,,,,,,,,,,8.88256844796214E+00,8.65304308488601E+00,8.53605926914261E+00,8.61490589169106E+00,8.00581243331492E+00,8.32502667069206E+00,9.47820628637542E+00,9.15041847851499E+00,9.19168181616636E+00,8.83954030934071E+00,5.58058750975407E+00,7.18518518518519E+00,4.98203201568115E+00,4.12014885699096E+00,6.93936258800373E+00,,
CYP,,,,,,,,,,,,,,,,,,,,,,,,,,,,,,,,,,,,6.32697140718395E+01,6.48643647172967E+01,6.36016636594386E+01,5.70537508865776E+01,5.45589166421449E+01,5.58601831268411E+01,5.51853020190573E+01,5.27692170817473E+01,4.34258295407056E+01,4.64891766974466E+01,4.70374173560915E+01,4.66262122652803E+01,4.77828990353805E+01,4.88307020935490E+01,4.86079422197279E+01,,
CZE,,,,,,,,,,,,,,,,,,,,,,,,,,,,,,,,,,,,9.11127561754851E+00,9.33247151116975E+00,9.71447515643778E+00,9.56973237701511E+00,9.51846965699209E+00,9.68088595493465E+00,1.02345931027466E+01,9.52642887838419E+00,9.96135487758912E+00,1.03522849297198E+01,1.06959940930890E+01,1.12943535482284E+01,1.31824052205579E+01,1.57336087599061E+01,1.49199703892982E+01,,
DEU,,,,,,,,,,,,,,,,,,,,,,,,,,,,,,,,,,,,9.60051891799166E+00,9.39140259873658E+00,1.02347801650359E+01,1.09737548464062E+01,1.08275246617303E+01,1.10729824131381E+01,1.12141148325359E+01,1.13793965551272E+01,1.05584664646153E+01,1.20524488085259E+01,1.19493943337671E+01,1.21644432122121E+01,1.20604383676273E+01,1.18378062123883E+01,1.14118461440448E+01,,
DJI,,,,,,,,,,,,,,,,,,,,,,,,,,,,,,,,,,,,3.93001134109958E+01,4.09925673775516E+01,3.78628098875816E+01,3.33807007930158E+01,2.87538141078885E+01,3.17070832893442E+01,3.45841967830594E+01,3.49756042401634E+01,3.06967641137749E+01,3.50671913249042E+01,2.71582600193847E+01,2.67131178947535E+01,2.29032107065782E+01,2.31319977621420E+01,2.27892576731552E+01,,
DMA,,,,,,,,,,,,,,,,,,,,,,,,,,,,,,,,,,,,2.79618600229287E+01,2.69471260759229E+01,2.57985257985258E+01,2.62773722627737E+01,2.68065268065268E+01,2.75862068965517E+01,2.77652370203160E+01,2.80269058295964E+01,2.84140969162996E+01,2.83623451978869E+01,3.12840883363863E+01,2.89928487399012E+01,3.12103782713627E+01,3.15960965655701E+01,3.03646885698443E+01,,
DNK,,,,,,,,,,,,,,,,,,,,,,,,,,,,,,,,,,,,1.62974855445975E+01,1.62318807574498E+01,1.63280653950954E+01,1.65577342047930E+01,1.60854127146262E+01,1.59816711086174E+01,1.59378852661123E+01,1.58292104934935E+01,1.45529532615856E+01,1.47039931871161E+01,1.47522846727838E+01,1.43316593175887E+01,1.38062871707732E+01,1.35866284647148E+01,1.20902529408150E+01,,
DOM,,,,,,,,,,,,,,,,,,,,,,,,,,,,,,,,,,,,5.70367380642930E+01,5.95997413757879E+01,5.27748827993025E+01,4.92876241508698E+01,4.67106106770097E+01,4.70860174280780E+01,5.00947799964532E+01,4.78152020844530E+01,4.69578043831185E+01,4.90630263739523E+01,4.56020463378905E+01,4.05046744302144E+01,4.18226829047648E+01,4.17661690663887E+01,3.85311208545293E+01,,
DZA,,,,,,,,,,,,,,,,,,,,,,,,,,,,,,,,,,,,2.39007047758910E+01,2.15710936896791E+01,2.48040938603343E+01,2.54815023341670E+01,2.63407361139223E+01,2.57945138865976E+01,2.16685247077195E+01,2.30205664234382E+01,2.09539773712700E+01,2.48734424465506E+01,2.28653147959072E+01,1.78314169107539E+01,1.74177428611375E+01,1.32001714809893E+01,1.30691384038399E+01,,
EAP,,,,,,,,,,,,,,,,,,,,,,,,,,,,,,,,,,,,4.60236779465789E+01,4.83911349054622E+01,4.97018161622227E+01,5.21536488602443E+01,5.27309907240038E+01,5.52259150859743E+01,5.59918114492625E+01,5.41106202729043E+01,5.22590330770638E+01,5.10706018200880E+01,4.99025999217273E+01,4.71547327565946E+01,4.34085873791078E+01,4.22840182978841E+01,4.05934272490669E+01,,
EAS,,,,,,,,,,,,,,,,,,,,,,,,,,,,,,,,,,,,2.01924678618217E+01,2.17357638023520E+01,2.31981512520554E+01,2.39756597315965E+01,2.36115173083983E+01,2.41870271749838E+01,2.46283059554628E+01,2.59147476546109E+01,2.44972243842648E+01,2.44298046011047E+01,2.43758497990960E+01,2.54153103290664E+01,2.49675535289525E+01,2.49659155807392E+01,2.53135056509083E+01,,
ECA,,,,,,,,,,,,,,,,,,,,,,,,,,,,,,,,,,,,2.40243461206414E+01,2.47041549505773E+01,2.38662219729440E+01,2.89286159781976E+01,3.17332133912040E+01,3.19617327639567E+01,3.11462256537482E+01,3.00436260110372E+01,2.91825716939295E+01,3.02999400546226E+01,3.04659819919958E+01,2.99004018087540E+01,2.95782946853836E+01,2.83186742639421E+01,2.77467086023699E+01,,
ECS,,,,,,,,,,,,,,,,,,,,,,,,,,,,,,,,,,,,1.46839556786137E+01,1.47481449437277E+01,1.56019134623273E+01,1.61059823422043E+01,1.59673239895933E+01,1.59285594748847E+01,1.57815623675660E+01,1.57653200451031E+01,1.53154659358292E+01,1.56582198491426E+01,1.57038378891347E+01,1.56466758556479E+01,1.58294315108499E+01,1.57898043007383E+01,1.51175921416255E+01,,
ECU,,,,,,,,,,,,,,,,,,,,,,,,,,,,,,,,,,,,3.25521071920670E+01,3.00324766694997E+01,3.47293153051304E+01,4.81849923507380E+01,5.10341836370449E+01,5.86393148205422E+01,5.70200788268561E+01,5.34099354034868E+01,5.14179273817552E+01,5.00735316662752E+01,5.10616876304936E+01,4.82419254280868E+01,4.95845121460804E+01,5.04019789734075E+01,4.50347490547818E+01,,
EGY,,,,,,,,,,,,,,,,,,,,,,,,,,,,,,,,,,,,4.79505842050097E+01,5.42807060277632E+01,5.83534657991603E+01,5.76699067148626E+01,5.77500908912903E+01,5.79968547467820E+01,5.83191096496109E+01,5.87718213007307E+01,5.86972419686409E+01,5.86061109532191E+01,5.83901152674843E+01,5.48316116778279E+01,5.76306717863676E+01,5.64771390090299E+01,5.69564931734370E+01,,
EMU,,,,,,,,,,,,,,,,,,,,,,,,,,,,,,,,,,,,1.36858113650695E+01,1.36999952762346E+01,1.42636458595856E+01,1.46283763008715E+01,1.45962507081331E+01,1.43843036511698E+01,1.41716660390469E+01,1.42659105108132E+01,1.38727031404469E+01,1.42142988101153E+01,1.42260063266077E+01,1.40989812804626E+01,1.41711020681992E+01,1.41722120272861E+01,1.35660949355873E+01,,
ERI,,,,,,,,,,,,,,,,,,,,,,,,,,,,,,,,,,,,5.20958083832335E+01,6.27329192546584E+01,5.78227148719671E+01,5.68723612789418E+01,5.72219232355540E+01,5.23696542764490E+01,4.73180532290143E+01,5.07300352208916E+01,5.28117558764917E+01,5.37869320025528E+01,5.40468055956896E+01,5.44254715886470E+01,5.47226386806597E+01,5.51310944720869E+01,5.54162237250490E+01,,
ESP,,,,,,,,,,,,,,,,,,,,,,,,,,,,,,,,,,,,2.35364791397591E+01,2.31909057489466E+01,2.30971128608924E+01,2.32456251424519E+01,2.33042658496347E+01,2.35774325573208E+01,2.39329422987153E+01,2.37148693119492E+01,2.26652674705194E+01,2.26409673161473E+01,2.23616974359740E+01,2.14279909231202E+01,2.10396803315358E+01,2.07425181220962E+01,1.90432153284597E+01,,
EST,,,,,,,,,,,,,,,,,,,,,,,,,,,,,,,,,,,,1.02347261333497E+01,1.14923697346572E+01,1.06028039806614E+01,1.31886973618033E+01,1.41140529531568E+01,1.99372056514914E+01,1.89918821974703E+01,2.00711985082217E+01,2.02583675866119E+01,2.19241443108233E+01,2.05357142857143E+01,2.50880030444296E+01,2.18800523519901E+01,1.96581752014557E+01,2.03145689825224E+01,,
ETH,,,,,,,,,,,,,,,,,,,,,,,,,,,,,,,,,,,,3.55747102527644E+01,3.88725200139045E+01,3.61820531793906E+01,3.59669587510136E+01,3.71720025331633E+01,3.67682613812718E+01,3.45474557359193E+01,3.74121736192231E+01,3.43514157902026E+01,3.48331284115443E+01,3.15187414493012E+01,3.60807140767001E+01,3.47865532732116E+01,3.84655408652134E+01,4.19766201747822E+01,,
EUU,,,,,,,,,,,,,,,,,,,,,,,,,,,,,,,,,,,,1.36124766308552E+01,1.36540304498469E+01,1.45039469982820E+01,1.49351187620667E+01,1.47528581164437E+01,1.45929556560897E+01,1.45290812469399E+01,1.45111307410327E+01,1.40448992868093E+01,1.43213913381824E+01,1.42466715601198E+01,1.40761607753440E+01,1.41758390915123E+01,1.41601898016598E+01,1.35358151196943E+01,,
FIN,,,,,,,,,,,,,,,,,,,,,,,,,,,,,,,,,,,,2.18426156574887E+01,2.19280000047300E+01,2.15813042681732E+01,2.18686772352527E+01,2.21714693287057E+01,2.22744439242210E+01,2.16478277554652E+01,2.11473968398017E+01,2.08847876318309E+01,2.04825851266248E+01,2.00774309499220E+01,1.90055891508031E+01,1.88520137402422E+01,1.84680798619670E+01,1.77866126356152E+01,,
FJI,,,,,,,,,,,,,,,,,,,,,,,,,,,,,,,,,,,,1.72715267821467E+01,1.52703089930822E+01,1.41752394466123E+01,1.44573082489146E+01,1.40477748691099E+01,1.27236222653005E+01,1.47020331853237E+01,1.32396900083034E+01,1.30686528497409E+01,1.15290283378446E+01,1.19453473637816E+01,1.45627815866797E+01,1.54764818168469E+01,1.54953470337340E+01,1.61642955992250E+01,,
FRA,,,,,,,,,,,,,,,,,,,,,,,,,,,,,,,,,,,,7.60357131324873E+00,7.32257354790043E+00,7.19166988044736E+00,7.11504028648165E+00,7.16354466858790E+00,7.10005372566847E+00,7.17148170460201E+00,6.97136334065718E+00,6.65109105672718E+00,6.56502493686012E+00,6.62087239460342E+00,7.01546788711090E+00,7.05233228660996E+00,7.39710403247253E+00,7.20446043662500E+00,,
FSM,,,,,,,,,,,,,,,,,,,,,,,,,,,,,,,,,,,,9.82519996405141E+00,1.01589982527665E+01,6.17570093457944E+00,6.94171578258022E+00,6.38609112709832E+00,6.14794520547945E+00,5.59017199017199E+00,6.06256572029443E+00,5.10210210210210E+00,4.66639806607575E+00,6.38044914134742E+00,7.30743469524447E+00,6.70576735092864E+00,9.39609236234458E+00,9.37080965147453E+00,,
GAB,,,,,,,,,,,,,,,,,,,,,,,,,,,,,,,,,,,,6.21461036858394E+01,5.97261548035894E+01,6.00016743826526E+01,5.96530128348818E+01,6.43846242544315E+01,5.80291306781830E+01,5.79713765606246E+01,6.36868925747844E+01,5.62269454293534E+01,5.42827127469194E+01,5.77156389827275E+01,5.73324011250556E+01,5.61198285817303E+01,5.62964780191713E+01,5.20849532743463E+01,,
GBR,,,,,,,,,,,,,,,,,,,,,,,,,,,,,,,,,,,,1.09072395479775E+01,1.09919069958694E+01,1.40872439343310E+01,1.41369098274160E+01,1.36537623700753E+01,1.33848882169957E+01,1.34356902356902E+01,1.32075240487715E+01,1.27722627243738E+01,1.23218767501193E+01,1.17686266554612E+01,1.13738668473174E+01,1.16745203064615E+01,1.10751496695710E+01,1.04358644636543E+01,,
GEO,,,,,,,,,,,,,,,,,,,,,,,,,,,,,,,,,,,,9.47846588328249E+01,8.82306705828817E+01,8.32071289534975E+01,8.16420860574730E+01,8.31692655161007E+01,8.19672131147541E+01,7.23476525393642E+01,7.11432083589428E+01,7.71917636388197E+01,7.75597829881096E+01,7.69455843542584E+01,7.20909967744453E+01,7.09194274500750E+01,6.65229963116560E+01,6.71152006859932E+01,,
GHA,,,,,,,,,,,,,,,,,,,,,,,,,,,,,,,,,,,,4.43329959967810E+01,4.43292255344504E+01,4.69841406445139E+01,4.59898147729506E+01,4.79331970104081E+01,4.66209737726758E+01,4.76132562236514E+01,5.06820603506164E+01,4.94017002138219E+01,5.13435968105462E+01,4.52693196100177E+01,4.15614708375574E+01,3.69575333220219E+01,3.94330388224386E+01,4.32277948271600E+01,,
GIN,,,,,,,,,,,,,,,,,,,,,,,,,,,,,,,,,,,,8.62411698987589E+01,8.73343572691482E+01,8.64160651659806E+01,8.79863855492018E+01,8.73902627547452E+01,8.71424084050188E+01,8.04623745415569E+01,8.22015949694014E+01,8.08331469049402E+01,8.45226295040970E+01,8.59780853735718E+01,8.58862204773897E+01,8.80047994595446E+01,8.58928178737573E+01,8.42688689766012E+01,,
GMB,,,,,,,,,,,,,,,,,,,,,,,,,,,,,,,,,,,,3.83164036849283E+01,3.80484001357271E+01,3.79432173485385E+01,3.47120918069203E+01,3.49828927352708E+01,3.56773696349425E+01,3.36818671404200E+01,3.36492519810851E+01,2.54644324052676E+01,2.04160330156420E+01,2.07153941671103E+01,2.35033056861535E+01,2.52219424248718E+01,2.51306741306408E+01,2.42151726778918E+01,,
GNB,,,,,,,,,,,,,,,,,,,,,,,,,,,,,,,,,,,,3.72109446792361E+01,3.73741439346275E+01,3.77819099391459E+01,4.18177667181796E+01,4.39449530696324E+01,4.85912961751923E+01,5.20739815329068E+01,3.96871638131034E+01,3.65710785582921E+01,3.75987095836932E+01,3.63738210323387E+01,4.19140819120197E+01,3.89350755129846E+01,4.06500656082470E+01,4.16755519197875E+01,,
GNQ,,,,,,,,,,,,,,,,,,,,,,,,,,,,,,,,,,,,3.58824900909303E+01,5.14055023923445E+01,4.55377013273263E+01,4.59555389501214E+01,5.06112814696737E+01,4.48835775613779E+01,3.29587734364773E+01,1.90490217929698E+01,2.99377619335619E+01,3.84713496336987E+01,3.60334470771510E+01,2.63013265467078E+01,2.03968430858846E+01,1.84772730563705E+01,1.09581120897941E+01,,
GRC,,,,,,,,,,,,,,,,,,,,,,,,,,,,,,,,,,,,4.59308372334893E+01,4.50041582511584E+01,4.51349586417066E+01,4.59434914228052E+01,4.46601048661577E+01,3.77910225367852E+01,3.69482584749050E+01,3.96771929824561E+01,3.80170118823453E+01,3.87365541254741E+01,3.79047823289728E+01,3.60047199960667E+01,3.74823002786279E+01,3.69743782266537E+01,3.53165652178295E+01,,
GRD,,,,,,,,,,,,,,,,,,,,,,,,,,,,,,,,,,,,4.39692215449186E+01,4.50800915331808E+01,4.53781512605042E+01,4.55909943714822E+01,3.53741496598639E+01,3.16384180790960E+01,2.85971628011709E+01,3.55800551240291E+01,3.75592872708627E+01,4.10866333288282E+01,3.62811791383220E+01,4.10880730454632E+01,4.74956822107081E+01,4.97959183673469E+01,4.78849669785513E+01,,
GTM,,,,,,,,,,,,,,,,,,,,,,,,,,,,,,,,,,,,5.91356604014832E+01,6.07533414337789E+01,5.79596247359890E+01,4.74620208527915E+01,4.42517692271641E+01,5.40226973961914E+01,5.57110831037598E+01,5.70930915806262E+01,5.54294732095889E+01,5.61189529943812E+01,5.65108455552347E+01,5.96828737809584E+01,5.89601356594717E+01,5.74068626420962E+01,5.62926695370940E+01,,
GUY,,,,,,,,,,,,,,,,,,,,,,,,,,,,,,,,,,,,1.76356589147287E+01,1.75432340880727E+01,1.60974454139851E+01,1.72466539196941E+01,1.72333052355531E+01,1.55489697996049E+01,1.73773118413238E+01,1.68565270935961E+01,1.74309780065512E+01,1.36160047775455E+01,1.29901960784314E+01,1.22165381385050E+01,1.22956805032860E+01,1.26753377898629E+01,1.02763343712963E+01,,
HIC,,,,,,,,,,,,,,,,,,,,,,,,,,,,,,,,,,,,1.51650792720147E+01,1.51142135830847E+01,1.56016620533724E+01,1.58419964917888E+01,1.56942991156300E+01,1.55276195528380E+01,1.49701643916385E+01,1.48430657717156E+01,1.47477489804156E+01,1.47016238399682E+01,1.45038279623414E+01,1.43125803735568E+01,1.43288633678353E+01,1.42170977980170E+01,1.38442283148829E+01,,
HND,,,,,,,,,,,,,,,,,,,,,,,,,,,,,,,,,,,,4.05947373569402E+01,4.14664393117346E+01,4.11854239412660E+01,4.11081259735350E+01,4.21412300683371E+01,3.76569037656904E+01,3.71862410907964E+01,3.57006247609333E+01,3.39316987740806E+01,3.15880156982866E+01,3.18389918765629E+01,3.40720823236311E+01,3.32049501748370E+01,3.45402003028017E+01,3.60392520962394E+01,,
HPC,,,,,,,,,,,,,,,,,,,,,,,,,,,,,,,,,,,,5.39154852214744E+01,5.48757362309606E+01,5.40802395342555E+01,5.62932013228688E+01,5.54464709383825E+01,5.26068636103668E+01,4.98028958794988E+01,5.04646436360908E+01,4.96267045140209E+01,5.03946770251026E+01,4.78922640126488E+01,4.66482702452105E+01,4.81037034469647E+01,4.88293910379982E+01,4.95424996159214E+01,,
HRV,,,,,,,,,,,,,,,,,,,,,,,,,,,,,,,,,,,,1.35424583578985E+01,1.24218927872229E+01,1.55226198065863E+01,1.29623768194362E+01,1.26591070171476E+01,1.38612500323654E+01,1.43898941023308E+01,1.86323652236969E+01,1.66833892322209E+01,1.81678723634634E+01,1.34056938016770E+01,1.33608323760903E+01,1.24453821258318E+01,1.45144498252425E+01,1.45144498252425E+01,,
HTI,,,,,,,,,,,,,,,,,,,,,,,,,,,,,,,,,,,,4.55390334572491E+01,5.15463917525773E+01,5.22544042997910E+01,4.86092715231788E+01,5.09708737864078E+01,5.03829787234042E+01,5.30045586406962E+01,5.49746707193516E+01,5.89520426287744E+01,5.87628865979381E+01,5.75209289765055E+01,4.15517394786013E+01,4.40637450199203E+01,4.73711608537220E+01,4.73711608537220E+01,,
HUN,,,,,,,,,,,,,,,,,,,,,,,,,,,,,,,,,,,,1.60390848427073E+01,1.83961313721539E+01,1.87163072776280E+01,2.23040919977716E+01,2.48523223870908E+01,2.62713316847440E+01,2.76927001472972E+01,2.62791019742410E+01,2.36661739160900E+01,2.33957542799419E+01,2.38051060727116E+01,2.29941207842179E+01,2.42850850657494E+01,2.38518423709094E+01,2.32678527022571E+01,,
IDN,,,,,,,,,,,,,,,,,,,,,,,,,,,,,,,,,,,,4.66190622903686E+01,4.63553275161961E+01,4.72741108330984E+01,4.79866893976124E+01,4.86025365833612E+01,4.62178853089903E+01,4.15260721280964E+01,4.46751901614404E+01,4.44127067264305E+01,4.47094995949476E+01,3.36566972902377E+01,3.47064763826395E+01,3.16580077653757E+01,3.20946075817368E+01,3.52456451364679E+01,,
IND,,,,,,,,,,,,,,,,,,,,,,,,,,,,,,,,,,,,6.52890019225917E+01,6.56487919085311E+01,6.64460413424108E+01,6.58320021099104E+01,6.44405097959093E+01,6.68661480757888E+01,6.74338610519614E+01,6.92522432604760E+01,6.81535551353353E+01,6.93985330602130E+01,6.76502086226149E+01,5.98817701595702E+01,5.34393820218983E+01,5.03107036949656E+01,5.00125633952957E+01,,
IRL,,,,,,,,,,,,,,,,,,,,,,,,,,,,,,,,,,,,1.53977272727273E+01,1.55905511811024E+01,1.53092182030338E+01,1.44608352378974E+01,1.50447325178017E+01,1.52038593215064E+01,1.49614265840395E+01,1.45100162425555E+01,1.59706109822119E+01,1.55927721463200E+01,1.54835011872595E+01,1.45031808542866E+01,1.41060574303081E+01,1.44007549543882E+01,1.48959740416655E+01,,
IRN,,,,,,,,,,,,,,,,,,,,,,,,,,,,,,,,,,,,5.35943254786748E+01,5.11284017874939E+01,4.96743483956958E+01,4.98818136120902E+01,5.54162805396891E+01,5.61636598946423E+01,5.37095124369162E+01,5.34728613088964E+01,5.13968374241421E+01,5.41417786506510E+01,5.31964989736839E+01,5.17892811575944E+01,5.34908767692135E+01,5.56019505281680E+01,5.89134689103387E+01,,
IRQ,,,,,,,,,,,,,,,,,,,,,,,,,,,,,,,,,,,,,8.38555781375604E+01,8.44514298440473E+01,3.39408127801855E+01,4.59861568835486E+01,6.98806838384152E+01,7.11766330052179E+01,8.48533628969859E+01,3.96892540592574E+01,2.07107223030842E+01,2.66248863936534E+01,2.94464285953120E+01,3.31108690089853E+01,2.98416033636875E+01,2.78486500387948E+01,,
ISL,,,,,,,,,,,,,,,,,,,,,,,,,,,,,,,,,,,,1.60680732270360E+01,1.67474813456272E+01,1.79392716350666E+01,1.90499164965671E+01,1.68546122942810E+01,1.84437651712667E+01,1.85657090299194E+01,1.76259922032784E+01,1.66742349997089E+01,1.72067792126519E+01,1.69503584028431E+01,1.63386518486082E+01,1.56634117022500E+01,1.50607318779741E+01,1.61056105211909E+01,,
ISR,,,,,,,,,,,,,,,,,,,,,,,,,,,,,,,,,,,,2.71750303709934E+01,2.25597828256617E+01,2.14469297026952E+01,2.50917605366409E+01,2.73309204032186E+01,2.47367572794671E+01,2.68225313209036E+01,2.92033265035555E+01,2.75927710843374E+01,2.65234893082346E+01,2.67993474714519E+01,3.01870835662071E+01,2.78312974451852E+01,3.04846938775510E+01,2.95454697084966E+01,,
ITA,,,,,,,,,,,,,,,,,,,,,,,,,,,,,,,,,,,,2.66074130105900E+01,2.65278565448702E+01,2.63645649086968E+01,2.66962316503427E+01,2.61074597623902E+01,2.45002082465639E+01,2.21478931611846E+01,2.23921920865241E+01,2.23848321160024E+01,2.11898256948539E+01,2.12946534457344E+01,2.06608563822387E+01,2.08597815244403E+01,2.02313316391104E+01,1.94094169566090E+01,,
JAM,,,,,,,,,,,,,,,,,,,,,,,,,,,,,,,,,,,,2.93603113197998E+01,2.42013830041602E+01,3.03987753383003E+01,2.75638652350981E+01,3.45570482263357E+01,3.07922072980480E+01,3.92210102523290E+01,2.63293798415686E+01,3.20064773632336E+01,2.75608451457609E+01,3.25763667711929E+01,2.88510886255897E+01,3.40351908098725E+01,3.51627319652923E+01,3.13276390412437E+01,,
JOR,,,,,,,,,,,,,,,,,,,,,,,,,,,,,,,,,,,,2.43699605732127E+01,2.69312081349902E+01,2.85205790669658E+01,2.97638850612218E+01,3.36880631702927E+01,3.87226018436667E+01,3.80588548091437E+01,3.86622590072329E+01,4.04860290493290E+01,3.87957266520080E+01,3.97998721508383E+01,3.88142672212185E+01,3.49082151695970E+01,3.07982867770389E+01,2.95317477529046E+01,,
JPN,,,,,,,,,,,,,,,,,,,,,,,,,,,,,,,,,,,,1.53096616712832E+01,1.56062018216846E+01,1.68291818413907E+01,1.75184654905139E+01,1.71347623328449E+01,1.68670679354652E+01,1.64707028888978E+01,1.72766345216131E+01,1.53338068376350E+01,1.52512216498000E+01,1.42685750897177E+01,1.51399948139672E+01,1.46108086067580E+01,1.44835307378468E+01,1.49059729790277E+01,,
KAZ,,,,,,,,,,,,,,,,,,,,,,,,,,,,,,,,,,,,3.55420479571438E+01,3.59501171115726E+01,3.52520131203464E+01,3.55055287103637E+01,4.70134360653756E+01,4.85244606457580E+01,4.27243120347029E+01,4.59033671190297E+01,4.48901770683618E+01,4.13707039867341E+01,3.74968878612928E+01,4.09518356951377E+01,4.72001916793968E+01,4.09772927726843E+01,4.02954986918430E+01,,
KEN,,,,,,,,,,,,,,,,,,,,,,,,,,,,,,,,,,,,4.54045340390564E+01,5.14569811397062E+01,5.41132027076868E+01,4.31775726901735E+01,4.86396094960824E+01,4.38172020041977E+01,4.63811205051658E+01,4.66506964776861E+01,4.68582156878714E+01,4.70877228806925E+01,4.60297103800478E+01,4.46845310821554E+01,4.85170118975229E+01,4.91566102683585E+01,5.12166988881931E+01,,
KGZ,,,,,,,,,,,,,,,,,,,,,,,,,,,,,,,,,,,,3.92334220032695E+01,4.68524825191870E+01,4.47496391923701E+01,4.69049386103155E+01,4.59008030115633E+01,4.97562890509994E+01,5.33103311745242E+01,5.50395546440082E+01,5.77307116446944E+01,5.58194131012400E+01,5.59905668898476E+01,5.04813635436401E+01,4.71372532207241E+01,4.49862842201351E+01,3.98914780191221E+01,,
KHM,,,,,,,,,,,,,,,,,,,,,,,,,,,,,,,,,,,,7.73408703341455E+01,6.07591903187503E+01,6.57121980265074E+01,7.54836753305297E+01,7.73540730020349E+01,7.53022688909292E+01,6.79914653187617E+01,6.53825675447470E+01,5.96632533912265E+01,5.92635227356307E+01,6.03938227774695E+01,6.26724996571216E+01,6.01477824550666E+01,6.44470307557490E+01,6.15485015324613E+01,,
KIR,,,,,,,,,,,,,,,,,,,,,,,,,,,,,,,,,,,,1.13767230086598E-01,1.23158881987578E-01,1.15435795454545E-01,1.48786956521739E-01,1.23134153846154E-01,1.38673560767591E-01,1.24443510054845E-01,1.26671843853821E-01,1.33055268817204E-01,1.16888604972376E-01,1.24775555555556E-01,1.14438023952096E-01,9.13097609561753E-02,9.44641950228542E-02,9.87218045112782E-02,,
KNA,,,,,,,,,,,,,,,,,,,,,,,,,,,,,,,,,,,,3.85756676557863E+01,3.89972144846797E+01,3.96825396825397E+01,3.81679389312977E+01,4.09090909090909E+01,3.74220374220374E+01,3.67346938775510E+01,3.44202898550725E+01,3.38680926916221E+01,3.49417637271215E+01,3.50157728706625E+01,3.63874345549738E+01,3.98584905660377E+01,3.97550111358575E+01,3.84119134207444E+01,,
KOR,,,,,,,,,,,,,,,,,,,,,,,,,,,,,,,,,,,,5.45545555649973E+01,5.19414903496076E+01,4.89026892790032E+01,4.43175102647703E+01,4.38910215823044E+01,4.52388756347902E+01,3.93264727950885E+01,4.02778847958642E+01,4.03650415658645E+01,4.00048680253862E+01,3.88400888895367E+01,3.64857896212061E+01,3.55436113111903E+01,3.49853743756348E+01,3.47806308790110E+01,,
KWT,,,,,,,,,,,,,,,,,,,,,,,,,,,,,,,,,,,,1.70098393354274E+01,1.92778469713746E+01,1.88679937556746E+01,1.97016846432333E+01,2.12128618710951E+01,2.46150867583533E+01,1.92032980475377E+01,2.07920933110077E+01,1.98031076593944E+01,2.03043005034581E+01,2.02189401717572E+01,1.89959330797974E+01,2.10856950539058E+01,2.17336875339329E+01,1.47162318360505E+01,,
LAC,,,,,,,,,,,,,,,,,,,,,,,,,,,,,,,,,,,,3.80116412786681E+01,3.90240770464635E+01,3.77498443401443E+01,3.73083540513264E+01,3.67613035675413E+01,3.74491865570308E+01,3.84069486013288E+01,3.97276641266683E+01,3.99886266656354E+01,3.87596979767343E+01,3.91569459283577E+01,3.82614237709868E+01,3.62177226130647E+01,3.43384764232852E+01,3.32333305726308E+01,,
LAO,,,,,,,,,,,,,,,,,,,,,,,,,,,,,,,,,,,,4.91054545008533E+01,5.54445665749409E+01,5.65805671397455E+01,6.72003010943022E+01,6.51444097481995E+01,6.19971982494697E+01,4.98463643363285E+01,5.00938517008089E+01,5.59324146635651E+01,6.24304688725298E+01,6.23862132481188E+01,6.19978149953664E+01,6.17251028373491E+01,6.25938169898198E+01,6.12991870119108E+01,,
LBN,,,,,,,,,,,,,,,,,,,,,,,,,,,,,,,,,,,,5.53057695951494E+01,5.52965219202333E+01,5.63069347174375E+01,5.96125883759921E+01,5.79769068498176E+01,5.56889073031256E+01,5.19052680300094E+01,4.98580362709873E+01,4.69942277279995E+01,4.24439077891809E+01,4.18753968186496E+01,4.02170198966611E+01,4.11907857110666E+01,4.06873300580277E+01,4.05298541473048E+01,,
LBR,,,,,,,,,,,,,,,,,,,,,,,,,,,,,,,,,,,,,,,4.42912675064694E+01,4.38668372577574E+01,4.47527503549214E+01,4.37651837573406E+01,4.62899546457169E+01,4.56252014604004E+01,4.48614720604374E+01,4.35231086641165E+01,4.20877232984141E+01,3.87468211599435E+01,3.50000000000000E+01,3.15169275783765E+01,,
LBY,,,,,,,,,,,,,,,,,,,,,,,,,,,,,,,,,,,,5.04083147233016E+01,5.12265265601373E+01,5.49081650459516E+01,4.79754686688972E+01,4.97972393355689E+01,4.27887633645029E+01,3.54110651889452E+01,3.52388577386086E+01,3.64595743320769E+01,3.69477622117157E+01,3.82168751773815E+01,3.89489493402257E+01,3.41195890253183E+01,2.96767522879517E+01,3.38501034433054E+01,,
LCA,,,,,,,,,,,,,,,,,,,,,,,,,,,,,,,,,,,,3.45303867403315E+01,3.42789598108747E+01,3.78973105134474E+01,3.68303571428571E+01,3.83022774327122E+01,3.95752895752896E+01,4.02144772117962E+01,4.15584415584416E+01,4.25347222222222E+01,4.09967845659164E+01,4.30906389301635E+01,4.22098075729361E+01,4.32399512789281E+01,3.89957264957265E+01,3.16950777194378E+01,,
LCN,,,,,,,,,,,,,,,,,,,,,,,,,,,,,,,,,,,,3.79863213635257E+01,3.89951298519638E+01,3.77255503054083E+01,3.72889763356373E+01,3.67380946094395E+01,3.74245997922547E+01,3.83672120690793E+01,3.96587801614151E+01,3.99388451203118E+01,3.87341645283035E+01,3.91036248271636E+01,3.82129852514117E+01,3.62050625416885E+01,3.43436820358016E+01,3.32552583983546E+01,,
LDC,,,,,,,,,,,,,,,,,,,,,,,,,,,,,,,,,,,,5.70494857954204E+01,5.57326428022806E+01,5.31663336228207E+01,5.53534734844892E+01,5.54401020442954E+01,5.38237866249496E+01,5.04231305247425E+01,5.14833678468909E+01,5.07532463228483E+01,5.13800004910231E+01,4.97074189469559E+01,4.70655160568866E+01,4.88059035470349E+01,4.77630331568013E+01,4.67995155720338E+01,,
LIC,,,,,,,,,,,,,,,,,,,,,,,,,,,,,,,,,,,,5.32641919617381E+01,5.37186059429622E+01,5.14140848960343E+01,5.31938478547933E+01,5.39882901024689E+01,5.21023593514989E+01,5.03198701461032E+01,5.40202203407385E+01,5.27033995764096E+01,5.24591028164098E+01,5.16860018952056E+01,4.87408297963631E+01,5.02417166603184E+01,5.03944585600846E+01,5.01167870123413E+01,,
LKA,,,,,,,,,,,,,,,,,,,,,,,,,,,,,,,,,,,,4.62709281450986E+01,4.74387550412373E+01,4.67812849593187E+01,4.42959548120488E+01,4.43750779237176E+01,4.30837743177849E+01,4.58466331986239E+01,4.69851871892314E+01,4.90810206807175E+01,4.61131549170770E+01,4.59392300176832E+01,4.53849501585362E+01,4.45092576526484E+01,4.88000115065283E+01,4.75209689228101E+01,,
LMC,,,,,,,,,,,,,,,,,,,,,,,,,,,,,,,,,,,,5.69042232596822E+01,5.69966857996751E+01,5.85677874939357E+01,5.87966049315823E+01,5.79525698821824E+01,5.84693309706755E+01,5.83199710272960E+01,5.93792026710710E+01,5.92408714894987E+01,5.85501776068983E+01,5.75714317208872E+01,5.34731653603728E+01,5.06498009012405E+01,4.91052208906176E+01,4.95803529146981E+01,,
LMY,,,,,,,,,,,,,,,,,,,,,,,,,,,,,,,,,,,,3.97188581110376E+01,4.06597240231573E+01,4.00505172631975E+01,4.17187063993554E+01,4.28149889950494E+01,4.40117216421779E+01,4.46789634249415E+01,4.50088200043447E+01,4.41013249059190E+01,4.31157659420383E+01,4.25459102971718E+01,4.06616663696076E+01,3.85506250338737E+01,3.72149136874197E+01,3.68134336580332E+01,,
LSO,,,,,,,,,,,,,,,,,,,,,,,,,,,,,,,,,,,,4.04958677685950E+01,3.77329577464789E+01,3.97801720587905E+01,3.76350153151701E+01,3.75428928925766E+01,3.58973340670937E+01,3.01380888217687E+01,3.07375612036833E+01,2.97620704048977E+01,2.93795620437956E+01,3.23529411764706E+01,2.83842794759825E+01,2.62219435994409E+01,2.53011452311087E+01,2.18981292341272E+01,,
LTU,,,,,,,,,,,,,,,,,,,,,,,,,,,,,,,,,,,,2.23911541119558E+01,2.61894941532888E+01,2.44576772732254E+01,2.30263157894737E+01,2.49816311535636E+01,2.61191518007405E+01,2.65359477124183E+01,2.46288978271439E+01,2.31678475534080E+01,3.19378591225343E+01,3.17540599215943E+01,2.99849929685271E+01,2.66974656599163E+01,2.67878829533471E+01,2.67878829533471E+01,,
LUX,,,,,,,,,,,,,,,,,,,,,,,,,,,,,,,,,,,,6.18311533888228E+00,7.16685330347145E+00,7.39934711643090E+00,7.59878419452887E+00,7.33390854184642E+00,1.17933130699088E+01,1.24476361460203E+01,1.18062563067608E+01,1.22250443138423E+01,1.16427605681541E+01,1.15944504979556E+01,1.15431770225812E+01,1.22394573959830E+01,1.23939795413139E+01,1.16294793779581E+01,,
LVA,,,,,,,,,,,,,,,,,,,,,,,,,,,,,,,,,,,,3.37256976590398E+01,4.14868029954522E+01,4.33128113108313E+01,3.96264704822822E+01,4.04814004376368E+01,4.41440296082835E+01,4.64930715899060E+01,4.51674961314876E+01,4.56718870399004E+01,4.08151391998560E+01,4.18226262539119E+01,3.55981697606059E+01,3.93408263670589E+01,3.87030983937827E+01,3.82068137171592E+01,,
MAR,,,,,,,,,,,,,,,,,,,,,,,,,,,,,,,,,,,,5.27297798753580E+01,5.27806285842949E+01,5.55527258125076E+01,5.43486948690229E+01,5.45724466704826E+01,5.40504925823476E+01,5.18281896085185E+01,6.05088487164796E+01,5.99697083549035E+01,5.90712738887143E+01,5.95402977233578E+01,5.79985439142233E+01,5.49564669642940E+01,5.49882294463427E+01,5.66347217102774E+01,,
MCO,,,,,,,,,,,,,,,,,,,,,,,,,,,,,,,,,,,,7.00000000000000E+00,7.00000000000000E+00,7.00000000000000E+00,7.00000000000000E+00,7.00000000000000E+00,7.00000000000000E+00,7.00000000000000E+00,7.00000000000000E+00,7.00000000000000E+00,7.00000000000000E+00,7.00000000000000E+00,7.00000000000000E+00,7.00000000000000E+00,7.00000000000000E+00,7.00000000000000E+00,,
MDA,,,,,,,,,,,,,,,,,,,,,,,,,,,,,,,,,,,,2.92559687644685E+01,2.90400377432967E+01,2.99620607343413E+01,3.84771646493399E+01,4.57427452725263E+01,4.64231039215268E+01,5.03785000015768E+01,4.28055075307453E+01,4.54497179580170E+01,4.42721209246945E+01,4.87680906499290E+01,5.02769907659645E+01,4.96325833281578E+01,4.82986706661197E+01,4.52943881669988E+01,,
MDG,,,,,,,,,,,,,,,,,,,,,,,,,,,,,,,,,,,,2.46553080301807E+01,2.16850560726906E+01,2.05399468937983E+01,2.09876059895107E+01,2.05465159180920E+01,1.76988787888038E+01,1.61072150231203E+01,1.74011521460397E+01,1.90084373689971E+01,1.98960126624521E+01,2.06444109893915E+01,2.14674076386391E+01,2.29399067891869E+01,2.01523614665779E+01,2.22916648716921E+01,,
MDV,,,,,,,,,,,,,,,,,,,,,,,,,,,,,,,,,,,,4.46663915074860E+01,4.26336598044490E+01,4.36104934831556E+01,4.30063063270614E+01,4.20384145334033E+01,3.92606622347542E+01,3.93163220268894E+01,3.88365091858750E+01,3.65304769844719E+01,3.46125819771678E+01,2.80804694048617E+01,2.75115370962016E+01,2.61424186031716E+01,1.80769313622871E+01,2.53068724806355E+01,,
MEA,,,,,,,,,,,,,,,,,,,,,,,,,,,,,,,,,,,,3.68861887455750E+01,3.61953559282848E+01,3.70670467817773E+01,3.86503313731149E+01,4.00993734046597E+01,3.96611999927658E+01,3.91599825207747E+01,3.66988521610978E+01,3.44231281281579E+01,3.47714737575778E+01,3.46752354230616E+01,3.37278950812876E+01,3.44173745196334E+01,3.43310003506705E+01,3.49313568906399E+01,,
MEX,,,,,,,,,,,,,,,,,,,,,,,,,,,,,,,,,,,,5.61542392656375E+01,5.66215298150264E+01,5.30729799082443E+01,5.17866581322161E+01,5.00268490847964E+01,5.09416843539554E+01,5.24273130670905E+01,5.32637454618014E+01,5.28719030964458E+01,5.19110483889884E+01,5.16942202190738E+01,5.12970348387316E+01,5.08545062963218E+01,4.92981732659820E+01,4.77686319006736E+01,,
MHL,,,,,,,,,,,,,,,,,,,,,,,,,,,,,,,,,,,,2.95204767556996E+00,2.36686390532544E+00,2.22758990874933E+00,2.48571428571429E+00,2.51315020455874E+00,2.04128440366972E+00,2.32558139534884E+00,2.42105263157895E+00,2.74372446001167E+00,2.64957264957265E+00,2.78834847675040E+00,2.62590274434280E+00,2.57000000000000E+00,2.81005723004695E+00,2.48981383598912E+00,,
MIC,,,,,,,,,,,,,,,,,,,,,,,,,,,,,,,,,,,,3.93993988435560E+01,4.03559136050223E+01,3.98157821640736E+01,4.14633648392713E+01,4.25604961505745E+01,4.38319623039886E+01,4.45576312190311E+01,4.48130476978170E+01,4.39164505016529E+01,4.29170763185462E+01,4.23633873352338E+01,4.04996014362855E+01,3.83245817941150E+01,3.69618615476646E+01,3.65475177998824E+01,,
MKD,,,,,,,,,,,,,,,,,,,,,,,,,,,,,,,,,,,,4.12973522511270E+01,4.11195862852463E+01,3.96696934340689E+01,3.58199851674546E+01,4.00571367216150E+01,4.30557246274817E+01,4.17126647507680E+01,4.17100064034635E+01,4.11583040239121E+01,4.01686951939764E+01,3.80243531188015E+01,3.48288038228560E+01,3.54647723757686E+01,3.15599174161557E+01,3.32529348707662E+01,,
MLI,,,,,,,,,,,,,,,,,,,,,,,,,,,,,,,,,,,,4.77192025038734E+01,6.04070846915152E+01,6.38669094407108E+01,6.55290769075261E+01,6.96896589538327E+01,6.65020782239205E+01,5.50385404143979E+01,5.95884996403467E+01,5.51027755432126E+01,5.04930727811725E+01,5.29166475993307E+01,5.12256809261491E+01,5.13752019257033E+01,5.25936810785876E+01,5.18052245161053E+01,,
MLT,,,,,,,,,,,,,,,,,,,,,,,,,,,,,,,,,,,,3.11404437603076E+01,3.03679733841956E+01,2.93787622507517E+01,2.86800753782350E+01,2.91978909044827E+01,2.66727320867586E+01,2.75374749704149E+01,2.47934053425775E+01,2.32991980100178E+01,2.53199126243607E+01,2.24130481956793E+01,2.18233175096786E+01,2.13312610796765E+01,2.26408810866101E+01,2.20703125000000E+01,,
MMR,,,,,,,,,,,,,,,,,,,,,,,,,,,,,,,,,,,,8.06823976135951E+01,8.33624223804064E+01,8.46960900543402E+01,8.92173883598830E+01,8.88355839621181E+01,8.58876417305242E+01,8.75091002074872E+01,8.33823768502731E+01,8.60806225169325E+01,8.49520374595211E+01,9.02847359291869E+01,8.12617452593398E+01,8.39865075032724E+01,8.71020978216915E+01,8.62143204390227E+01,,
MNA,,,,,,,,,,,,,,,,,,,,,,,,,,,,,,,,,,,,4.74971082895451E+01,4.83139963146106E+01,4.97371498558573E+01,4.94978706295233E+01,5.23296162480622E+01,5.27751549172199E+01,5.07673690168875E+01,5.02437106416316E+01,4.79548692890883E+01,4.74586527577662E+01,4.77027980127837E+01,4.55473592308393E+01,4.63849320781219E+01,4.42823723919445E+01,4.65605069180529E+01,,
MNE,,,,,,,,,,,,,,,,,,,,,,,,,,,,,,,,,,,,2.71044466875789E+01,2.72623238350118E+01,2.69864547346286E+01,2.70990054696031E+01,2.76167347712134E+01,2.81824446614059E+01,2.68766394328140E+01,2.85978487960791E+01,2.46214983391263E+01,2.55721575885683E+01,2.53608351544134E+01,2.85939681635592E+01,3.00759651628905E+01,3.00671572386270E+01,2.50129553076819E+01,,
MNG,,,,,,,,,,,,,,,,,,,,,,,,,,,,,,,,,,,,1.83112452594501E+01,1.70096648568647E+01,1.53910652643322E+01,1.61802499849133E+01,1.53312824195607E+01,1.40612591566350E+01,1.62005548400556E+01,1.71776720787652E+01,1.68817841946251E+01,1.60317820205224E+01,1.61535778653939E+01,1.41448226458428E+01,1.32142653634130E+01,1.46361450879731E+01,1.15422528625676E+01,,
MOZ,,,,,,,,,,,,,,,,,,,,,,,,,,,,,,,,,,,,1.37350412075679E+01,1.67511581260929E+01,1.45942362771525E+01,1.48670657485243E+01,1.37671438411649E+01,1.27232180101670E+01,1.24610886817401E+01,1.16873370991272E+01,1.32320893225365E+01,1.51128967010730E+01,1.28526658287771E+01,1.35916571804329E+01,9.71715993972606E+00,7.00476006680429E+00,1.16894969462420E+01,,
MRT,,,,,,,,,,,,,,,,,,,,,,,,,,,,,,,,,,,,2.32160368522438E+01,3.42099316233585E+01,3.37648343170377E+01,2.73345153664303E+01,1.96137598068799E+01,2.10716435881999E+01,3.01007721502421E+01,2.25658169661513E+01,2.84252416145537E+01,2.47262451430590E+01,2.78678831646598E+01,3.01441424118462E+01,3.27424112375296E+01,3.85828162644988E+01,3.74279252443535E+01,,
MUS,,,,,,,,,,,,,,,,,,,,,,,,,,,,,,,,,,,,3.07261621714051E+01,3.14814730708439E+01,3.03529766224173E+01,3.33030771863714E+01,3.35834699446151E+01,3.57772099739950E+01,3.56351505162248E+01,3.63015849405854E+01,3.64236764031905E+01,3.65795409314051E+01,4.44827289989395E+01,4.95935732852354E+01,5.53851312628559E+01,5.78448545364717E+01,5.59659524125204E+01,,
MWI,,,,,,,,,,,,,,,,,,,,,,,,,,,,,,,,,,,,2.91793488606949E+01,3.41990580087376E+01,3.06004768119185E+01,2.68327038701812E+01,2.52422859519516E+01,2.21938265906192E+01,2.42132793781754E+01,1.67575069119406E+01,1.19553809500829E+01,9.59300520640933E+00,8.90952813791180E+00,8.84782509872536E+00,1.10598019336041E+01,1.15907042969023E+01,1.19466197518366E+01,,
MYS,,,,,,,,,,,,,,,,,,,,,,,,,,,,,,,,,,,,4.04031013755360E+01,3.77580892242820E+01,3.87638523535354E+01,3.67275150502050E+01,3.65878707240565E+01,3.59046654558227E+01,3.24814940812149E+01,3.28129481949261E+01,3.15560131444727E+01,3.75399534160612E+01,4.18156554338017E+01,4.05590776260388E+01,4.07219370476612E+01,4.09385922707982E+01,4.04671357721840E+01,,
NAC,,,,,,,,,,,,,,,,,,,,,,,,,,,,,,,,,,,,1.47008764339313E+01,1.45314509820468E+01,1.47645353371591E+01,1.50499779183660E+01,1.48614570414301E+01,1.45771378704772E+01,1.39128991461320E+01,1.35263371396845E+01,1.39180865196248E+01,1.36472957560782E+01,1.34710842614604E+01,1.30666346914264E+01,1.30893947060717E+01,1.29114358276186E+01,1.26240983365458E+01,,
NAM,,,,,,,,,,,,,,,,,,,,,,,,,,,,,,,,,,,,6.30040612324503E+00,6.05926128660623E+00,6.13054975557722E+00,6.02251016248474E+00,5.66834783624161E+00,5.64213772981617E+00,2.97561689436248E+00,3.92928161325933E+00,5.08849927635371E+00,3.74749738424610E+00,3.71971389183388E+00,3.24143858376283E+00,8.51671871511702E+00,8.13483618990033E+00,5.95195976562211E+00,,
NER,,,,,,,,,,,,,,,,,,,,,,,,,,,,,,,,,,,,4.79883102812143E+01,5.05016040885240E+01,4.45583776490596E+01,4.43704434199417E+01,4.38009981778941E+01,4.32074881680022E+01,4.07221194329079E+01,4.08597684772823E+01,4.29125036043948E+01,4.07719563680654E+01,4.75487494330569E+01,4.37055525965753E+01,4.64440966205918E+01,4.06929041419770E+01,4.08232608583928E+01,,
NGA,,,,,,,,,,,,,,,,,,,,,,,,,,,,,,,,,,,,7.02999214132611E+01,7.49832506205938E+01,7.23532991064555E+01,7.01669805702339E+01,6.71586863968190E+01,6.16520408897245E+01,6.27398175036060E+01,6.72975435377656E+01,7.46608268621733E+01,6.41693778315203E+01,6.78555519197705E+01,6.51208685088870E+01,6.55712071296097E+01,6.04085207240638E+01,6.08194352244156E+01,,
NIC,,,,,,,,,,,,,,,,,,,,,,,,,,,,,,,,,,,,3.50682242209219E+01,4.03134392443109E+01,4.98741706703272E+01,4.97409326424871E+01,5.18536745406824E+01,4.26452905811623E+01,4.21219045594643E+01,4.54256969583000E+01,3.84782785551578E+01,4.10912884346765E+01,3.98941929895121E+01,4.20077353042465E+01,4.18115805553812E+01,4.18273856475422E+01,3.98619564912190E+01,,
NLD,,,,,,,,,,,,,,,,,,,,,,,,,,,,,,,,,,,,9.63970561325728E+00,8.12297004730347E+00,7.67281379897078E+00,8.44940282673420E+00,8.98585056661758E+00,8.98048765821833E+00,8.69986541049798E+00,8.02151996898023E+00,7.32233571365558E+00,7.16425442815589E+00,7.12115634523577E+00,5.63153704000582E+00,5.51629702905227E+00,5.74227388533276E+00,5.74227388533276E+00,,
NOR,,,,,,,,,,,,,,,,,,,,,,,,,,,,,,,,,,,,1.78442540054332E+01,1.78442540054285E+01,1.78442540054293E+01,1.69937306156516E+01,1.66466320168118E+01,1.67307090656762E+01,1.57405352625272E+01,1.57647294188256E+01,1.54900436374580E+01,1.56304449955102E+01,1.56593950151783E+01,1.54050550180536E+01,1.53735003093395E+01,1.54548267845632E+01,1.54551568409732E+01,,
NPL,,,,,,,,,,,,,,,,,,,,,,,,,,,,,,,,,,,,6.95640379043531E+01,6.95632693878353E+01,6.87311269873417E+01,5.70150859626973E+01,6.46332799323522E+01,6.84922243257259E+01,6.91990761738216E+01,6.14221205517803E+01,6.60685574549629E+01,5.16744323276833E+01,5.11189017072686E+01,4.70932746183944E+01,4.66093316190749E+01,4.51297909309638E+01,4.68393799360885E+01,,
NZL,,,,,,,,,,,,,,,,,,,,,,,,,,,,,,,,,,,,1.61507402422611E+01,1.62910865508827E+01,1.56338217502352E+01,1.62596561176177E+01,1.59145176695320E+01,1.53596961572833E+01,1.69861609431061E+01,1.60580524344569E+01,1.55992561390930E+01,1.70467212131878E+01,1.68433733452223E+01,1.65736096782922E+01,1.49445129469790E+01,1.40407061226197E+01,1.40414995621609E+01,,
OEC,,,,,,,,,,,,,,,,,,,,,,,,,,,,,,,,,,,,1.50767460134226E+01,1.50230295452309E+01,1.55107885724644E+01,1.57661348627023E+01,1.56284865328857E+01,1.54610235450053E+01,1.49045248334773E+01,1.47566819842527E+01,1.46696714122646E+01,1.46178030867228E+01,1.44230841233438E+01,1.42307637164008E+01,1.42309163585116E+01,1.41057792314581E+01,1.37460455606621E+01,,
OED,,,,,,,,,,,,,,,,,,,,,,,,,,,,,,,,,,,,1.54128131935556E+01,1.53852172446288E+01,1.59133951062641E+01,1.61699851168277E+01,1.60663024445899E+01,1.59714175676526E+01,1.54550085031723E+01,1.53066196355992E+01,1.51931704929716E+01,1.51488016833102E+01,1.50044031752237E+01,1.48289829911164E+01,1.48371631429050E+01,1.46564116582102E+01,1.42149026050319E+01,,
OMN,,,,,,,,,,,,,,,,,,,,,,,,,,,,,,,,,,,,1.01374580467872E+01,1.01132961770020E+01,1.07218808857203E+01,1.18851838773142E+01,1.19178124507567E+01,1.17495169534305E+01,1.12711639201961E+01,1.01535636224865E+01,1.05961207874708E+01,1.11789887234998E+01,1.05778590214873E+01,1.16062562733680E+01,1.20454006761807E+01,1.43571223673644E+01,1.34764415751228E+01,,
PAK,,,,,,,,,,,,,,,,,,,,,,,,,,,,,,,,,,,,7.25827501099594E+01,7.11879526049908E+01,7.32485820977190E+01,6.52275814109906E+01,6.64079319804410E+01,6.32635590330824E+01,6.17405506409278E+01,5.58032311889576E+01,6.17259634231078E+01,6.19931681272005E+01,6.08104133774993E+01,5.71427345538887E+01,5.71335699696485E+01,5.37085113707672E+01,5.67884430089492E+01,,
PAN,,,,,,,,,,,,,,,,,,,,,,,,,,,,,,,,,,,,2.69495412844037E+01,3.06600955794504E+01,2.64066852367688E+01,2.77397702336388E+01,2.76072838405705E+01,2.59476834404788E+01,2.71032137764616E+01,2.52689263243353E+01,2.76359938993391E+01,2.41583813012384E+01,2.46262853192776E+01,2.62565641410353E+01,2.92472793228537E+01,2.56532633337311E+01,2.40160760672450E+01,,
PER,,,,,,,,,,,,,,,,,,,,,,,,,,,,,,,,,,,,3.83062257528173E+01,3.89825368540418E+01,4.09253029639363E+01,3.68205905932656E+01,3.48131321466462E+01,3.35741588464179E+01,3.41253987565978E+01,3.47321090417230E+01,3.25682280847528E+01,3.26286649340649E+01,3.22120709450775E+01,3.11888064046471E+01,3.13491976391371E+01,3.05810740663535E+01,3.13583180048707E+01,,
PHL,,,,,,,,,,,,,,,,,,,,,,,,,,,,,,,,,,,,5.00141467814960E+01,4.82504960231701E+01,4.64821857542734E+01,4.63047818206900E+01,4.33181088538154E+01,4.04971298772115E+01,4.38535028116214E+01,4.67764957616151E+01,4.68823766764554E+01,4.93215821314538E+01,4.91748312063670E+01,5.22780984490529E+01,5.43466473063297E+01,5.38986297560863E+01,5.39452289958063E+01,,
PLW,,,,,,,,,,,,,,,,,,,,,,,,,,,,,,,,,,,,1.27599250924122E+01,1.15049564531316E+01,1.19145641740837E+01,1.62655861170960E+01,1.72366483342140E+01,1.98652434184624E+01,1.06240951452997E+01,7.76839608754124E+00,6.57032627841598E+00,7.42577565365111E+00,8.31246460508557E+00,7.73756576957120E+00,8.99472684138924E+00,9.09014477815057E+00,8.82669010416712E+00,,
PNG,,,,,,,,,,,,,,,,,,,,,,,,,,,,,,,,,,,,1.07665452543643E+01,8.22875951450319E+00,9.55441674628681E+00,7.90527130218320E+00,8.57656660672292E+00,1.02359159468867E+01,6.02286074737895E+00,7.84082404458599E+00,7.16780455704532E+00,6.44841361433162E+00,5.58671563745020E+00,7.47265405336768E+00,7.69881556683587E+00,8.21182138392019E+00,8.50714793356680E+00,,
POL,,,,,,,,,,,,,,,,,,,,,,,,,,,,,,,,,,,,2.71092819235351E+01,2.66113438607799E+01,2.80427859318748E+01,3.46163599988729E+01,2.88704353748625E+01,2.99698282154849E+01,2.81007115489874E+01,2.54386478521381E+01,2.64306885544916E+01,2.81105396216546E+01,2.61209228378172E+01,2.55907052041026E+01,2.42342112119553E+01,2.24313555985478E+01,2.24313555985478E+01,,
PRT,,,,,,,,,,,,,,,,,,,,,,,,,,,,,,,,,,,,2.39176506206479E+01,2.33310392291810E+01,2.28745711017918E+01,2.29600847756976E+01,2.36830926083263E+01,2.21914008321775E+01,2.31518021573270E+01,2.23380674821443E+01,2.11150015809423E+01,2.21845466136712E+01,2.27536918931689E+01,2.28935515237419E+01,2.17868687390820E+01,2.20600592229182E+01,2.03388749132190E+01,,
PRY,,,,,,,,,,,,,,,,,,,,,,,,,,,,,,,,,,,,5.78687742759048E+01,5.19923875296749E+01,5.25980909357399E+01,4.82867651058307E+01,4.71884192356720E+01,5.28636311869221E+01,5.60177868756839E+01,5.66535098374892E+01,5.63593728049287E+01,5.45355424405339E+01,5.13174533234862E+01,5.26779295389317E+01,5.11278059431157E+01,5.28442917892243E+01,5.06292249629071E+01,,
QAT,,,,,,,,,,,,,,,,,,,,,,,,,,,,,,,,,,,,3.50169505994237E+01,3.01269566043562E+01,2.82547157670675E+01,2.98601848301036E+01,2.89986913263766E+01,2.63575463199311E+01,2.47945054578489E+01,2.47310045066608E+01,1.57812848720581E+01,1.55845461854756E+01,1.54134424528248E+01,1.51971798201938E+01,1.50077249576527E+01,1.47879731782011E+01,1.61619739346834E+01,,
ROM,,,,,,,,,,,,,,,,,,,,,,,,,,,,,,,,,,,,2.97316269032949E+01,3.34341045530598E+01,3.04692101302271E+01,3.78659573475680E+01,3.45057893250494E+01,3.23066712099439E+01,3.41069146354670E+01,3.33314084506256E+01,1.48063045955184E+01,2.41300196864962E+01,1.84645017530387E+01,1.97736222712891E+01,1.72479562783404E+01,1.76087779579532E+01,1.70392549083892E+01,,
RUS,,,,,,,,,,,,,,,,,,,,,,,,,,,,,,,,,,,,1.68872546278630E+01,1.80551416678368E+01,1.80823283268450E+01,2.30136374107591E+01,2.74943907365994E+01,2.99671800050492E+01,3.04827586206897E+01,3.08641975308642E+01,3.28293736501080E+01,3.32389901505717E+01,3.13238036047234E+01,2.99670845297290E+01,2.97366802705876E+01,2.90669700875790E+01,2.87738608655181E+01,,
RWA,,,,,,,,,,,,,,,,,,,,,,,,,,,,,,,,,,,,2.62997745567661E+01,2.46887278524897E+01,2.48591372954042E+01,2.13400648048016E+01,2.24283526662619E+01,2.47757759649644E+01,2.32668885008134E+01,2.46854331905799E+01,1.73960811274191E+01,1.60513196065302E+01,1.51380091803837E+01,2.22423870395084E+01,2.38515224393831E+01,2.31502130902881E+01,2.51912463440346E+01,,
SAS,,,,,,,,,,,,,,,,,,,,,,,,,,,,,,,,,,,,6.52707711951794E+01,6.54117836309982E+01,6.59816648554526E+01,6.49777469421391E+01,6.38704326092521E+01,6.55238241963432E+01,6.59899318387016E+01,6.71212166035714E+01,6.69383796956374E+01,6.75600349172357E+01,6.62328631348605E+01,5.93714538650618E+01,5.41224957410520E+01,5.15225264683833E+01,5.16096317306681E+01,,
SAU,,,,,,,,,,,,,,,,,,,,,,,,,,,,,,,,,,,,3.49317259385747E+01,3.27250058457051E+01,3.05420544904787E+01,3.03584288808047E+01,2.23444063915674E+01,1.89233603376639E+01,1.84872430442254E+01,1.89113977307282E+01,1.83995703555665E+01,1.81745702061882E+01,1.64726136804421E+01,1.53973926877031E+01,1.68289588450935E+01,1.69662502576161E+01,1.71452324924404E+01,,
SDN,,,,,,,,,,,,,,,,,,,,,,,,,,,,,,,,,,,,8.02812895287325E+01,7.05877552551370E+01,7.20019440773738E+01,7.12929783122121E+01,7.44957226470958E+01,6.61127065580000E+01,6.59501608978603E+01,6.54463247149924E+01,6.44067665147324E+01,6.24706000924288E+01,5.97746354677546E+01,6.21295259351950E+01,6.32922284763273E+01,6.40803239380818E+01,6.97841101525799E+01,,
SEN,,,,,,,,,,,,,,,,,,,,,,,,,,,,,,,,,,,,6.41893691707182E+01,5.96447343458710E+01,6.06430710815561E+01,5.99490747029291E+01,5.82563917261114E+01,5.78702606600232E+01,5.72248850037805E+01,5.55920224427905E+01,5.49686939691596E+01,5.52824582032948E+01,3.40725232824903E+01,3.33094907640538E+01,3.49981470619867E+01,3.50061110153509E+01,3.48715216943873E+01,,
SGP,,,,,,,,,,,,,,,,,,,,,,,,,,,,,,,,,,,,4.76954459229741E+01,4.90489432550405E+01,4.94033999192014E+01,4.36154534542939E+01,4.76707293580432E+01,5.27500150655183E+01,5.44866232269523E+01,6.50197531233411E+01,5.81152434860113E+01,6.19514939260531E+01,6.19630542918424E+01,6.12171757396571E+01,6.41946227835510E+01,6.21030773542724E+01,5.54163365366326E+01,,
SLB,,,,,,,,,,,,,,,,,,,,,,,,,,,,,,,,,,,,8.59514879110280E+00,8.69269131556320E+00,7.76769298117613E+00,7.44870694938105E+00,7.25630959057768E+00,5.58893854748603E+00,5.54427785567900E+00,5.93549812237685E+00,5.89159105789917E+00,5.77569648384792E+00,5.77508455467869E+00,5.66271061370065E+00,5.09872196768749E+00,4.42183786844671E+00,4.16966515051926E+00,,
SLE,,,,,,,,,,,,,,,,,,,,,,,,,,,,,,,,,,,,8.79707738303207E+01,8.82345048861161E+01,8.65486024575621E+01,8.80208109549876E+01,8.63530763677124E+01,8.78972464865760E+01,8.55895829901452E+01,8.21696103699927E+01,6.29715169286273E+01,8.14279018786670E+01,7.21379796494877E+01,7.69145342496593E+01,8.41641670452175E+01,8.37321163421468E+01,8.31231630572259E+01,,
SLV,,,,,,,,,,,,,,,,,,,,,,,,,,,,,,,,,,,,6.07260726072607E+01,5.75156709735192E+01,5.97992720855851E+01,5.55779909136800E+01,5.35635192268975E+01,5.18356059883665E+01,5.07962962962963E+01,4.98268950437318E+01,4.91956739071162E+01,4.68539424170823E+01,4.33532639855844E+01,3.37194232949943E+01,3.62983425414365E+01,3.58409739966932E+01,3.47909420032654E+01,,
SMR,,,,,,,,,,,,,,,,,,,,,,,,,,,,,,,,,,,,1.27101916720133E+01,1.29351332941285E+01,1.40538936464933E+01,1.40030188353264E+01,1.34159238505346E+01,1.34590698552082E+01,1.34203366371363E+01,1.03727080363002E+01,1.37170044872362E+01,1.28104414058299E+01,1.36433055538363E+01,1.39918183435110E+01,1.39150270886798E+01,1.39150270886798E+01,1.39150270886798E+01,,
SRB,,,,,,,,,,,,,,,,,,,,,,,,,,,,,,,,,,,,2.46539444088691E+01,2.46536391858245E+01,2.38790890638149E+01,2.53605503988899E+01,2.54051566004201E+01,2.53085032378225E+01,2.66667806658525E+01,2.31393855683912E+01,2.50198562879557E+01,2.73477504275758E+01,3.00994319119035E+01,3.33029715861883E+01,3.52879530987234E+01,3.54528297746275E+01,3.45443594790221E+01,,
SSA,,,,,,,,,,,,,,,,,,,,,,,,,,,,,,,,,,,,2.96302481740011E+01,3.14664539731026E+01,2.97246140081727E+01,3.18325540463832E+01,3.18228135733802E+01,3.14723939752014E+01,3.13597210283708E+01,3.28897176263888E+01,3.41665671147842E+01,3.37355366673650E+01,3.44593291715769E+01,3.45076189929163E+01,3.51453280125578E+01,3.64724463629352E+01,3.53831931901081E+01,,
SSF,,,,,,,,,,,,,,,,,,,,,,,,,,,,,,,,,,,,2.96330392832311E+01,3.14791697966129E+01,2.97385754729279E+01,3.18469152619773E+01,3.18400423594097E+01,3.14864433904749E+01,3.13622831244010E+01,3.28335610857750E+01,3.41563398583547E+01,3.37496730351271E+01,3.44644671275131E+01,3.44781321852313E+01,3.50839866460486E+01,3.63649555345989E+01,3.51959669929514E+01,,
STP,,,,,,,,,,,,,,,,,,,,,,,,,,,,,,,,,,,,4.13076350652677E+01,4.73448012218774E+01,4.44573486324242E+01,5.01190983058796E+01,4.30437253890516E+01,4.14765625970408E+01,2.94613301233825E+01,2.60320624636598E+01,2.33167585002016E+01,2.46801432958035E+01,2.64039477342230E+01,2.91453137320871E+01,3.16777466703443E+01,3.63466193206729E+01,4.04447494784634E+01,,
SUR,,,,,,,,,,,,,,,,,,,,,,,,,,,,,,,,,,,,7.57155115844733E+00,1.45651269246775E+01,1.73334257782708E+01,2.15166138997326E+01,2.41171403962102E+01,2.25189169574915E+01,2.77653714455858E+01,2.20994475138122E+01,1.96347031963470E+01,1.64874551971326E+01,1.47590361445783E+01,1.15376420088808E+01,1.20467399241819E+01,1.23115111618555E+01,1.22503262026703E+01,,
SVK,,,,,,,,,,,,,,,,,,,,,,,,,,,,,,,,,,,,8.40731382524670E+00,8.29009561609237E+00,8.32144176511919E+00,8.41441003189017E+00,1.03565113086921E+01,1.14777317060067E+01,1.21087149891685E+01,1.16461062103766E+01,1.82896618528227E+01,1.91814553269880E+01,2.26052610864130E+01,2.54029466124817E+01,2.60370236003880E+01,2.48758156296619E+01,2.49503608711584E+01,,
SVN,,,,,,,,,,,,,,,,,,,,,,,,,,,,,,,,,,,,1.12189372202073E+01,1.17979783333333E+01,1.16686678693182E+01,1.18533367238743E+01,1.23810394655042E+01,1.14574685048860E+01,1.04653889207420E+01,1.15057111260630E+01,1.19215982467034E+01,1.17324099879702E+01,1.25079175627393E+01,1.18088097633768E+01,1.33218984097648E+01,1.27756603703675E+01,1.22328945214295E+01,,
SWE,,,,,,,,,,,,,,,,,,,,,,,,,,,,,,,,,,,,1.33356461405030E+01,1.30568912101140E+01,1.41476902848230E+01,1.35981939660943E+01,1.33884768967484E+01,1.37708102857451E+01,1.58666213193204E+01,1.55411528483599E+01,1.53792508812416E+01,1.59389008111758E+01,1.62828021510785E+01,1.62380228136882E+01,1.58476195940204E+01,1.56337215384667E+01,1.54045460188447E+01,,
SWZ,,,,,,,,,,,,,,,,,,,,,,,,,,,,,,,,,,,,1.41100595902614E+01,1.53747813828071E+01,1.48351644428990E+01,1.51515151515152E+01,1.67910447761194E+01,1.75468483816014E+01,1.63359026491029E+01,1.52734102697250E+01,1.68864253132104E+01,1.34938482478351E+01,1.29720588271812E+01,1.44568981496068E+01,1.58274065472632E+01,1.65527096568983E+01,1.55045840570072E+01,,
SYC,,,,,,,,,,,,,,,,,,,,,,,,,,,,,,,,,,,,1.34932351617489E+01,1.14689953596758E+01,1.26105314059625E+01,1.43019111875353E+01,1.44590327405684E+01,1.55762815611569E+01,1.32150642350536E+01,1.13944623357541E+01,9.03746604865003E+00,7.08993285544548E+00,5.78107962640682E+00,4.71414925021647E+00,7.98681284052884E+00,7.79041533646923E+00,7.17544367670349E+00,,
SYR,,,,,,,,,,,,,,,,,,,,,,,,,,,,,,,,,,,,6.03174603174603E+01,6.44736842105263E+01,6.45569620253165E+01,6.17283950617284E+01,6.16279069767442E+01,5.95505617977528E+01,5.57894736842105E+01,5.42284323233123E+01,5.17532526612683E+01,5.20294682669769E+01,4.94959379103882E+01,5.22520212339009E+01,5.72865052050887E+01,6.12181757300767E+01,6.89529515581710E+01,,
TCD,,,,,,,,,,,,,,,,,,,,,,,,,,,,,,,,,,,,6.30127654957866E+01,6.04195364925488E+01,6.23460890913708E+01,6.67109611487767E+01,6.35843493846118E+01,5.53153626175508E+01,5.79313100994835E+01,6.35059590868359E+01,4.99090778756503E+01,5.55040921105479E+01,5.62899066679997E+01,5.09997733289639E+01,5.08310089622584E+01,4.77827779597487E+01,4.33402476949839E+01,,
TGO,,,,,,,,,,,,,,,,,,,,,,,,,,,,,,,,,,,,5.77676692870853E+01,5.99799394897327E+01,6.23429940101884E+01,5.59477699666857E+01,6.06390599331986E+01,6.07637795685471E+01,6.68170217307541E+01,6.84156017921412E+01,6.35917032124273E+01,6.81819060606770E+01,6.44664923522948E+01,6.20448634416445E+01,6.31366280142191E+01,6.35433962137593E+01,6.04307165073214E+01,,
THA,,,,,,,,,,,,,,,,,,,,,,,,,,,,,,,,,,,,4.25850921330531E+01,4.24866770439069E+01,3.68779109384154E+01,3.53708660426145E+01,3.45127726659072E+01,3.37201238237349E+01,3.30697571312109E+01,2.71986426442368E+01,2.68494591756842E+01,2.60851835947928E+01,2.72344672056467E+01,2.26347471293260E+01,1.89817040191931E+01,1.75173112239412E+01,1.64529543883945E+01,,
TJK,,,,,,,,,,,,,,,,,,,,,,,,,,,,,,,,,,,,5.80645161290322E+01,5.69757727652464E+01,5.43378995433790E+01,6.62875154172948E+01,7.09509455517458E+01,7.88102384234016E+01,7.86338567941124E+01,7.89166097559892E+01,7.76416537816946E+01,7.58404021149338E+01,7.36564530939530E+01,7.45744634722012E+01,7.30668222935512E+01,6.87649674991447E+01,6.52003831100412E+01,,
TKM,,,,,,,,,,,,,,,,,,,,,,,,,,,,,,,,,,,,3.96508728179551E+01,3.03372661847632E+01,2.82265552460539E+01,2.72024959144258E+01,3.09025270758123E+01,2.04114524080394E+01,2.40373831775701E+01,3.00788202390033E+01,2.86411211637396E+01,3.23403611037511E+01,3.67376980232721E+01,4.20047893689500E+01,4.44427974266995E+01,5.08571668380301E+01,4.75722816741883E+01,,
TMP,,,,,,,,,,,,,,,,,,,,,,,,,,,,,,,,,,,,1.03056658027752E+01,1.50638656320461E+01,9.31311251566133E+00,5.07684963625490E+00,9.85852212532364E+00,7.77563884799758E+00,7.08347189890256E+00,7.10071007100710E+00,6.52913588572480E+00,8.75939641412646E+00,6.10976501404352E+00,5.20388198888153E+00,6.10615741395107E+00,6.79185743990133E+00,7.42042541146276E+00,,
TON,,,,,,,,,,,,,,,,,,,,,,,,,,,,,,,,,,,,3.00641879374743E+01,2.90354147250699E+01,2.69057492931197E+01,2.64172549019608E+01,2.39212207239177E+01,2.32838370565046E+01,2.00185479597244E+01,1.63132137030995E+01,1.24270941054809E+01,2.03665987780041E+01,1.99302441454908E+01,2.16315362788812E+01,2.09045990117826E+01,2.08262125622776E+01,1.79168489324364E+01,,
TTO,,,,,,,,,,,,,,,,,,,,,,,,,,,,,,,,,,,,4.57310380003567E+01,4.67351845599278E+01,4.63554339994297E+01,5.22580347724364E+01,4.82814474550521E+01,4.91675988675643E+01,4.53643142976478E+01,4.27001336699837E+01,4.60016016474088E+01,4.73489519112207E+01,3.89911047619309E+01,3.75925048730808E+01,4.14469867771397E+01,4.18340178569216E+01,4.25707162083600E+01,,
TUN,,,,,,,,,,,,,,,,,,,,,,,,,,,,,,,,,,,,3.78639227991590E+01,4.00751313049177E+01,4.04959759417630E+01,4.05675229780137E+01,4.03706881847014E+01,3.61728870821831E+01,3.71290096982758E+01,3.80263538925265E+01,3.79832999529803E+01,4.02818880586992E+01,4.08688938081178E+01,4.07899873061802E+01,4.14115496705300E+01,3.99560127971476E+01,4.00492635395419E+01,,
TUR,,,,,,,,,,,,,,,,,,,,,,,,,,,,,,,,,,,,2.97709923664122E+01,3.08492201039861E+01,2.82558413168724E+01,2.79544102259215E+01,2.90672016048144E+01,2.76430649854510E+01,2.28460793804453E+01,1.98423267458584E+01,1.84603978747065E+01,1.92365344259019E+01,2.27636528182358E+01,2.19746306927772E+01,2.18155744145843E+01,1.73991435654722E+01,1.60410585526319E+01,,
TUV,,,,,,,,,,,,,,,,,,,,,,,,,,,,,,,,,,,,2.03097232800203E-01,,,,,1.98473282442748E-01,,,1.97952218430034E-01,1.97718631178707E-01,2.10948854961832E-01,1.59137292817680E-01,1.75759183673469E-01,1.90760932944606E-01,1.83853387533875E-01,,
TZA,,,,,,,,,,,,,,,,,,,,,,,,,,,,,,,,,,,,5.00052804517666E+01,4.63604714302226E+01,4.80214120341650E+01,5.13316543559146E+01,4.87576531831883E+01,4.72639663602587E+01,4.65496039270827E+01,4.61926676353108E+01,4.41063988779543E+01,4.51213479633242E+01,3.99785017916350E+01,2.23326049001491E+01,1.76904783122987E+01,1.82814297700225E+01,1.71950027956421E+01,,
UGA,,,,,,,,,,,,,,,,,,,,,,,,,,,,,,,,,,,,5.56881463802705E+01,5.65850898288301E+01,5.45404963185165E+01,5.07258781787057E+01,4.27338200710040E+01,4.14858877544037E+01,3.76470293582283E+01,3.67259555049350E+01,3.70944315812123E+01,4.28945345767593E+01,4.72449712925073E+01,5.19376739992995E+01,5.23076756648358E+01,5.40459599647006E+01,5.30371386150425E+01,,
UKR,,,,,,,,,,,,,,,,,,,,,,,,,,,,,,,,,,,,3.59358026286882E+01,3.28793614305225E+01,4.02683083935235E+01,4.31778893142733E+01,4.64366280377234E+01,4.43134696319526E+01,4.19132076362642E+01,4.04394310067420E+01,3.86099547301464E+01,3.84727277839029E+01,4.17867326384708E+01,4.00417084033583E+01,3.91937074763216E+01,4.08859758949219E+01,4.20554257249310E+01,,
UMC,,,,,,,,,,,,,,,,,,,,,,,,,,,,,,,,,,,,3.57571888937828E+01,3.70427470846108E+01,3.61664281938920E+01,3.80936686276973E+01,3.93739514171439E+01,4.09103487410422E+01,4.17799325489799E+01,4.15223729748349E+01,4.03087438086710E+01,3.94282088824819E+01,3.91971967050614E+01,3.78015685563622E+01,3.57578349379686E+01,3.45071284615079E+01,3.40076497138520E+01,,
URY,,,,,,,,,,,,,,,,,,,,,,,,,,,,,,,,,,,,1.30772740307203E+01,1.55144047722309E+01,1.92357501458519E+01,1.74428365369487E+01,1.43323650712392E+01,1.41575325725426E+01,1.41951037361802E+01,1.43371547364996E+01,1.60489219774971E+01,1.64218998708592E+01,1.58965566509501E+01,1.46640859776906E+01,1.35953520164046E+01,1.21479150275374E+01,1.19720222440961E+01,,
USA,,,,,,,,,,,,,,,,,,,,,,,,,,,,,,,,,,,,1.46389324142434E+01,1.44492299120903E+01,1.46629260099473E+01,1.49973559338246E+01,1.47966496898638E+01,1.45129520864368E+01,1.38521339728957E+01,1.34525408606692E+01,1.38391079973861E+01,1.35521420421554E+01,1.33652711580713E+01,1.29045048749313E+01,1.29360573694318E+01,1.27347740989381E+01,1.24385732251961E+01,,
UZB,,,,,,,,,,,,,,,,,,,,,,,,,,,,,,,,,,,,2.93477042542679E+01,3.04803678314689E+01,3.50367013231826E+01,5.27403817397463E+01,5.16903490563862E+01,5.42509685751184E+01,5.35854581815585E+01,5.48026123491959E+01,5.33173347697864E+01,5.26361736012807E+01,5.10683641717369E+01,5.25044593238601E+01,5.28398187103631E+01,4.85332104117495E+01,5.15755310708718E+01,,
VCT,,,,,,,,,,,,,,,,,,,,,,,,,,,,,,,,,,,,3.39805825242718E+01,3.28638497652582E+01,3.61570247933884E+01,3.95833333333333E+01,3.92156862745098E+01,3.60497291398730E+01,3.56740518212542E+01,3.31674958540630E+01,3.25242718446602E+01,3.67952522255193E+01,3.71428571428571E+01,3.54466275065829E+01,3.87500000000000E+01,3.81498125041890E+01,4.33674196792185E+01,,
VEN,,,,,,,,,,,,,,,,,,,,,,,,,,,,,,,,,,,,5.06400579238909E+01,5.15711774196223E+01,5.79623475602605E+01,6.17185929897603E+01,5.63057893797445E+01,5.31686895367483E+01,5.46689303904924E+01,5.62258490664976E+01,5.72936057969373E+01,5.33354349120375E+01,5.06919017460443E+01,5.13190101034799E+01,4.71061664025296E+01,4.92955098213250E+01,5.43371727022754E+01,,
VNM,,,,,,,,,,,,,,,,,,,,,,,,,,,,,,,,,,,,6.12955137508806E+01,6.30946771602504E+01,6.26880512045759E+01,6.20739047881037E+01,6.03987291068651E+01,6.41133011235520E+01,6.35579784645571E+01,6.32955597933419E+01,6.14790758860088E+01,6.51685397678110E+01,6.63515935883675E+01,6.10320262857801E+01,5.47506499080853E+01,5.55032824262801E+01,5.53410896625322E+01,,
VUT,,,,,,,,,,,,,,,,,,,,,,,,,,,,,,,,,,,,1.85882900290984E+01,2.61159722605957E+01,2.18247361316313E+01,1.93212871862238E+01,1.94503720987785E+01,1.83179324215607E+01,1.80514115781126E+01,1.82775155279503E+01,1.89512030651341E+01,1.94367076457625E+01,1.85590930755090E+01,1.34361225309882E+01,7.61276707992614E+00,1.03790604960335E+01,1.19607722860465E+01,,
WLD,,,,,,,,,,,,,,,,,,,,,,,,,,,,,,,,,,,,1.74884275117969E+01,1.77637894697844E+01,1.84450217086308E+01,1.87452311473317E+01,1.85502556847331E+01,1.86877574026567E+01,1.82532662453888E+01,1.78370501528768E+01,1.77024998875969E+01,1.77406127936313E+01,1.78709292943018E+01,1.78120813655030E+01,1.78736342361067E+01,1.78928773661483E+01,1.75957756555091E+01,,
WSM,,,,,,,,,,,,,,,,,,,,,,,,,,,,,,,,,,,,2.29393248707819E+01,2.12765957446809E+01,2.03962703962704E+01,2.19293281910923E+01,2.59404445280083E+01,2.36290751110072E+01,2.87966617668532E+01,1.95511828956542E+01,1.25618631732169E+01,1.15323598341446E+01,1.04196756425949E+01,9.03254741158380E+00,9.24584103512015E+00,9.59309039801583E+00,7.98628578523890E+00,,
YEM,,,,,,,,,,,,,,,,,,,,,,,,,,,,,,,,,,,,6.55108260473327E+01,5.44361649210365E+01,5.25206615722440E+01,4.95342294545149E+01,4.75329899021875E+01,4.36526253944633E+01,4.42868468954326E+01,4.62308020916375E+01,5.21248449963977E+01,6.04574345958584E+01,6.47811028158704E+01,6.32652761632096E+01,6.91560833488457E+01,6.88908799015012E+01,7.10118341893451E+01,,
ZAF,,,,,,,,,,,,,,,,,,,,,,,,,,,,,,,,,,,,1.38892273203538E+01,1.30357376323215E+01,1.15397764642950E+01,1.26817102653640E+01,1.39444864831112E+01,1.48801397969972E+01,1.42824460106089E+01,1.41834114260666E+01,1.40243625155296E+01,1.82773389621943E+01,1.84010399454854E+01,1.80564949273921E+01,1.75783290200290E+01,1.79053498309727E+01,1.77385272292190E+01,,
ZAR,,,,,,,,,,,,,,,,,,,,,,,,,,,,,,,,,,,,7.35396287797618E+01,7.61293397766454E+01,7.24560549028785E+01,8.22468178447681E+01,8.06655449668902E+01,8.40525518967493E+01,8.04322790078531E+01,7.74068779502538E+01,6.47168811537295E+01,6.19332672641681E+01,5.68782597095705E+01,5.03693587723842E+01,4.91381739606905E+01,3.91679712315864E+01,3.73945270329538E+01,,
ZMB,,,,,,,,,,,,,,,,,,,,,,,,,,,,,,,,,,,,3.49515466079881E+01,3.51048498085031E+01,3.18551091511162E+01,3.32569064279651E+01,4.11831518397001E+01,3.92072614891018E+01,3.19487624487146E+01,2.78188079575585E+01,2.89987869757263E+01,3.04740177914701E+01,2.73861085694886E+01,2.63906529829838E+01,2.99134518744588E+01,2.83221748545923E+01,3.50329221447716E+01,,
ZWE,,,,,,,,,,,,,,,,,,,,,,,,,,,,,,,,,,,,3.01851208769795E+01,2.98978564031157E+01,3.05011319297569E+01,3.32172567227704E+01,2.29583688369889E+01,2.26267964397876E+01,3.09770812765712E+01,,,,,,,,,,
