"Country Code",1960,1961,1962,1963,1964,1965,1966,1967,1968,1969,1970,1971,1972,1973,1974,1975,1976,1977,1978,1979,1980,1981,1982,1983,1984,1985,1986,1987,1988,1989,1990,1991,1992,1993,1994,1995,1996,1997,1998,1999,2000,2001,2002,2003,2004,2005,2006,2007,2008,2009,2010,2011ADO,,,,,,,,,,,,,,,,,,,,,,,,,,,,,,,,,,,,1.58835208471211E-01,2.79195544296786E+00,2.71346763212060E+00,2.75296253376987E+00,2.48856356987426E+00,2.66838209881264E+00,2.12256808609938E+00,2.19739530609916E+00,2.23612558937864E+00,2.19229155011128E+00,2.22940824044911E+00,2.20115181427959E+00,2.28152628782931E+00,2.27303990035387E+00,2.46654080055288E+00,,
AFG,,,,,,,,,,,,,,,,,,,,,,,,,,,,,,,,,,,,,,,6.00933774374197E+00,6.00933774374197E+00,6.00933774374197E+00,6.00933774374197E+00,6.00933774374197E+00,6.81639784083858E+00,6.66070172629273E+00,6.63507995432629E+00,5.77478948822751E+00,5.77478948822750E+00,5.77478948822750E+00,5.77478948822750E+00,,
AGO,,,,,,,,,,,,,,,,,,,,,,,,,,,,,,,,,,,,5.00000000000000E-01,5.00000000000000E-01,5.00000000000000E-01,5.00000000000000E-01,5.00000000000000E-01,5.00000000000000E-01,5.00000000000000E-01,5.00000000000000E-01,5.00000000000000E-01,5.00000000000000E-01,5.00000000000000E-01,5.00000000000000E-01,5.00000000000000E-01,5.00000000000000E-01,5.00000000000000E-01,,
ALB,,,,,,,,,,,,,,,,,,,,,,,,,,,,,,,,,,,,1.60907419438720E+00,2.43980345213453E+00,2.92233912562375E+00,3.22755353923380E+00,3.30915341148991E+00,4.05767025878200E+00,3.73554940640147E+00,3.99609539091951E+00,3.94879368619417E+00,4.14839681943437E+00,4.09264044402955E+00,4.07981665242416E+00,4.25414736422864E+00,4.12391543043451E+00,4.06758373364837E+00,,
ARE,,,,,,,,,,,,,,,,,,,,,,,,,,,,,,,,,,,,8.51448353102887E-01,7.82136856922308E-01,8.29299430820788E-01,9.03206076870389E-01,8.55971445204195E-01,7.52111540555463E-01,8.05550748123790E-01,9.17612366962794E-01,8.81517317685671E-01,9.21289785224896E-01,8.79127471486641E-01,8.58845288988552E-01,8.35563503098838E-01,8.26909089741422E-01,8.62050414470393E-01,,
ARG,,,,,,,,,,,,,,,,,,,,,,,,,,,,,,,,,,,,3.34454799236768E+00,3.39335227396993E+00,3.61880770138151E+00,3.68023424432325E+00,3.95523435355472E+00,3.98798403899767E+00,4.30995668573927E+00,3.86098783733536E+00,3.96504112671305E+00,3.97183632922538E+00,3.87107216227279E+00,3.74001422905787E+00,3.42866508051139E+00,3.16093856555449E+00,3.19650183319172E+00,,
ARM,,,,,,,,,,,,,,,,,,,,,,,,,,,,,,,,,,,,4.47838324880156E+00,4.29231731970706E+00,4.44988419629806E+00,4.31188826840940E+00,4.72335647551987E+00,5.40157635847372E+00,5.24477593680608E+00,4.32789314996636E+00,4.15545847886028E+00,4.40555152271161E+00,3.38198654423677E+00,2.59042700489374E+00,2.26841523696393E+00,2.09054850161708E+00,2.63017361694714E+00,,
ATG,,,,,,,,,,,,,,,,,,,,,,,,,,,,,,,,,,,,1.63558063112405E+00,1.64992777287135E+00,1.57766990291262E+00,1.48733969285539E+00,1.43747549757675E+00,1.47773087453786E+00,1.59054397667911E+00,1.60917750266033E+00,1.68683823565573E+00,1.70947942714253E+00,1.71860140814438E+00,1.55026169893918E+00,1.42972088386243E+00,1.46071587250385E+00,1.27962931538197E+00,,
AUS,,,,,,,,,,,,,,,,,,,,,,,,,,,,,,,,,,,,2.47056059395705E+00,2.57465221900368E+00,2.47111649090300E+00,2.56803089795165E+00,2.45139463175606E+00,2.66501525626720E+00,2.73694553769474E+00,2.76443039878860E+00,2.52080005260389E+00,2.56459091983272E+00,2.52067586089747E+00,2.52803983242420E+00,2.47371375434737E+00,2.47371375434737E+00,2.47371375434737E+00,,
AUT,,,,,,,,,,,,,,,,,,,,,,,,,,,,,,,,,,,,2.48148763265049E+00,2.50846516791563E+00,2.38827120122084E+00,2.39506211652022E+00,2.35277478924532E+00,2.30425627261732E+00,2.41177605541673E+00,2.44781766340108E+00,2.51901012977940E+00,2.52983478103977E+00,2.48209044070858E+00,2.23230498208556E+00,2.19650560106654E+00,2.19385383886727E+00,2.23561951531696E+00,,
AZE,,,,,,,,,,,,,,,,,,,,,,,,,,,,,,,,,,,,4.46743072240565E+00,4.71627545775942E+00,4.25976586419201E+00,4.58455999162555E+00,4.41225183019868E+00,3.80867876144448E+00,3.63151608128620E+00,3.67528769383042E+00,5.72441793299383E+00,6.87358806268061E+00,6.91707851554713E+00,5.22273620480945E+00,4.02221861705020E+00,3.45671373233647E+00,4.46689440864308E+00,,
BDI,,,,,,,,,,,,,,,,,,,,,,,,,,,,,,,,,,,,3.78646246790077E+00,3.68910189423676E+00,3.67101770891237E+00,3.99777691499013E+00,3.87453581914806E+00,4.40513508649566E+00,4.41853518084781E+00,4.74572464054261E+00,5.04502965350479E+00,6.01512313469667E+00,6.92699175867500E+00,8.56701711990638E+00,8.65257818938822E+00,7.79837915674035E+00,7.08386949977319E+00,,
BEL,,,,,,,,,,,,,,,,,,,,,,,,,,,,,,,,,,,,1.76835170550587E+00,1.72851770382459E+00,1.91453965154022E+00,1.98963820801950E+00,2.05600895338456E+00,2.06489675516224E+00,2.04214575632244E+00,2.22026720744364E+00,2.49895456696021E+00,2.52017116727241E+00,2.41804929393584E+00,2.29828909891167E+00,2.63808002274084E+00,2.80833343273103E+00,2.84837949589037E+00,,
BEN,,,,,,,,,,,,,,,,,,,,,,,,,,,,,,,,,,,,2.77887365174137E+00,2.71261288176638E+00,2.49744724011533E+00,2.44589074944681E+00,2.47694743453567E+00,2.42126025119609E+00,2.37841296498766E+00,2.38576639351012E+00,2.41935160899637E+00,2.38663537644014E+00,2.38138367557340E+00,2.35910242940967E+00,2.19309206553625E+00,1.98263981339499E+00,1.89997523399322E+00,,
BFA,,,,,,,,,,,,,,,,,,,,,,,,,,,,,,,,,,,,2.63508306451238E+00,2.78400586267923E+00,2.67171793937199E+00,2.81302327598185E+00,3.09593072908678E+00,3.09656373027878E+00,3.09274815701175E+00,2.81011279622082E+00,2.95862106922183E+00,2.83066457793047E+00,2.70804476522585E+00,2.69719869462470E+00,2.51333580347113E+00,2.43068538898081E+00,2.44027137155093E+00,,
BGD,,,,,,,,,,,,,,,,,,,,,,,,,,,,,,,,,,,,2.24860281616790E+00,2.21139193653003E+00,1.58917602788999E+00,1.61800559552358E+00,1.65926263086026E+00,1.71680445419268E+00,1.79084993098008E+00,1.86614202049780E+00,1.89287377736376E+00,1.91248197981740E+00,2.08880496358241E+00,2.15834796622808E+00,2.26871547399835E+00,2.27745859971088E+00,2.28947634792647E+00,,
BGR,,,,,,,,,,,,,,,,,,,,,,,,,,,,,,,,,,,,1.36317164602976E+00,1.41948671360436E+00,1.45130387893946E+00,1.61455057958798E+00,2.01156754177396E+00,2.41617303010727E+00,3.06796616378812E+00,2.93773803210722E+00,2.87174024131778E+00,2.87004067939614E+00,2.85552878167611E+00,2.96740249231892E+00,2.63678748384138E+00,2.66546050539861E+00,2.68204527189326E+00,,
BHR,,,,,,,,,,,,,,,,,,,,,,,,,,,,,,,,,,,,1.38886531397852E+00,1.40111550809651E+00,1.39203247752497E+00,1.46732231162276E+00,1.43509599428029E+00,1.28184251767450E+00,1.40579303997030E+00,1.46714370096898E+00,1.40385527070046E+00,1.29484005056268E+00,1.14758974742546E+00,1.06445276499431E+00,1.06482008642449E+00,1.10279648235880E+00,1.42209008711733E+00,,
BHS,,,,,,,,,,,,,,,,,,,,,,,,,,,,,,,,,,,,4.10906969962088E+00,4.13410917151566E+00,3.76240088771436E+00,3.45556258599581E+00,3.22712929764878E+00,3.09684860677779E+00,3.08541067254318E+00,3.03942109050569E+00,3.11319895668704E+00,3.18649771245354E+00,3.13730314616512E+00,3.42368695937844E+00,3.46698600753335E+00,3.77505403870174E+00,3.94330131689572E+00,,
BIH,,,,,,,,,,,,,,,,,,,,,,,,,,,,,,,,,,,,5.62511433293640E+00,6.32930257407179E+00,4.38804488069544E+00,4.44197689103856E+00,3.97679408345926E+00,3.00188134143212E+00,2.83401217668126E+00,2.59550709065914E+00,2.47770675629093E+00,3.92180573926264E+00,4.10857837332866E+00,4.16451865780179E+00,4.24590992647059E+00,4.31281677596956E+00,4.22779861632075E+00,,
BLR,,,,,,,,,,,,,,,,,,,,,,,,,,,,,,,,,,,,1.94630692816487E+00,1.53897799717471E+00,1.16524411852902E+00,1.36773867628168E+00,1.44757944274181E+00,1.50239385241150E+00,1.88481057412404E+00,1.90957548110220E+00,1.72352484202406E+00,1.66383834190559E+00,1.59765612935664E+00,1.57259142724113E+00,1.56872051049891E+00,1.55439775869850E+00,1.70354529681704E+00,,
BLZ,,,,,,,,,,,,,,,,,,,,,,,,,,,,,,,,,,,,1.29025646155684E+00,1.24752184979298E+00,1.31458647199102E+00,1.29196627136470E+00,1.28308728272049E+00,1.55034573886857E+00,1.56129429780497E+00,1.56924737773831E+00,1.54705667926692E+00,1.49966339278384E+00,1.43155112587003E+00,1.30384487997856E+00,1.31999151295089E+00,1.32801321410171E+00,1.32801321410172E+00,,
BOL,,,,,,,,,,,,,,,,,,,,,,,,,,,,,,,,,,,,1.61729682488300E+00,1.65109168530691E+00,1.50444179011084E+00,1.97760887209927E+00,2.59364454122411E+00,2.42448788393117E+00,2.56737612114846E+00,2.42756435407125E+00,2.09685863953119E+00,1.96785712707530E+00,1.83110205379869E+00,1.62387688841176E+00,1.60859445788175E+00,1.60661224318703E+00,1.76882566590283E+00,,
BRA,,,,,,,,,,,,,,,,,,,,,,,,,,,,,,,,,,,,3.79088007793463E+00,4.07244071612771E+00,3.88437751285601E+00,3.86530851905747E+00,4.05868544600939E+00,4.27670791076083E+00,4.19487672562620E+00,3.98275299731632E+00,3.90835484379522E+00,3.77744401487923E+00,4.89028002937726E+00,4.94580254603956E+00,4.92822423557421E+00,4.72398066037660E+00,4.91496811153153E+00,,
BRB,,,,,,,,,,,,,,,,,,,,,,,,,,,,,,,,,,,,2.03246591738648E+00,1.95075475774743E+00,2.06599380189160E+00,2.05223093247345E+00,2.11493134763651E+00,2.14940301183292E+00,2.16819721323468E+00,2.30200709947390E+00,2.39389827174945E+00,2.47875354107649E+00,2.47920133111481E+00,2.50705108116578E+00,2.50806688178351E+00,2.44465571098737E+00,2.44465571098737E+00,,
BRN,,,,,,,,,,,,,,,,,,,,,,,,,,,,,,,,,,,,6.48630007303021E-01,6.70447857894879E-01,6.99825038880249E-01,7.17320743582178E-01,9.10723447922011E-01,4.05953991880920E-01,6.02092675635277E-01,5.50033451209022E-01,5.06652661064426E-01,4.92613095793527E-01,4.16547663449402E-01,3.67370240316032E-01,3.73712552142586E-01,3.28595007941955E-01,3.71545508409387E-01,,
BTN,,,,,,,,,,,,,,,,,,,,,,,,,,,,,,,,,,,,1.21593393474735E+00,1.26205479906885E+00,1.58734181056721E+00,1.66687486382453E+00,1.55438944531139E+00,1.39314141748344E+00,1.33277856038425E+00,1.28200060662477E+00,1.34907716924213E+00,1.23570939789579E+00,1.10946954785279E+00,1.02194432805939E+00,9.55015035670131E-01,9.64296269003968E-01,9.93088194970171E-01,,
BWA,,,,,,,,,,,,,,,,,,,,,,,,,,,,,,,,,,,,1.98819347297786E+00,1.97424002377652E+00,1.92218613119200E+00,1.72771126595310E+00,1.62596764832989E+00,1.79208975063854E+00,1.56498003909896E+00,1.66394263447639E+00,1.87356119102198E+00,1.81990319087173E+00,1.84731034351445E+00,1.66134042375747E+00,1.65190351526734E+00,1.65129078244133E+00,2.05260438016806E+00,,
CAF,,,,,,,,,,,,,,,,,,,,,,,,,,,,,,,,,,,,2.19093747730786E+00,2.50346973230743E+00,2.36129125603373E+00,2.31621818841017E+00,2.16059573505034E+00,2.25327815724079E+00,2.34762983220857E+00,2.30731063284668E+00,2.43680461001637E+00,2.49360559428816E+00,2.41297762830068E+00,2.44024683039969E+00,2.67299097019715E+00,2.63006164909060E+00,2.61460416596267E+00,,
CAN,,,,,,,,,,,,,,,,,,,,,,,,,,,,,,,,,,,,2.59752278431343E+00,2.57843568369532E+00,2.62514259691209E+00,2.66018778696202E+00,2.67140723972228E+00,2.62164248353810E+00,2.79699074408329E+00,2.92513259982392E+00,3.19095842290354E+00,2.99881477496520E+00,2.81777855923048E+00,2.86949636708149E+00,2.88236826885327E+00,2.99893558528475E+00,3.41317353507165E+00,,
CHE,,,,,,,,,,,,,,,,,,,,,,,,,,,,,,,,,,,,4.44514037778474E+00,4.52859642183008E+00,4.48265714561018E+00,4.56759170476366E+00,4.57673855256920E+00,4.52396917047929E+00,4.56171090883317E+00,4.61200484504603E+00,4.68775905107475E+00,4.70203722145027E+00,4.54869671913911E+00,4.39738723412579E+00,4.32578169963421E+00,4.38479440854738E+00,4.57702354345496E+00,,
CHL,,,,,,,,,,,,,,,,,,,,,,,,,,,,,,,,,,,,2.76216451212473E+00,3.06442890464971E+00,3.12767647108844E+00,3.31882921802529E+00,3.29915208429458E+00,3.17004170458667E+00,3.13708015531682E+00,3.06270420998563E+00,4.56487812916523E+00,4.24875398372141E+00,4.14414325130865E+00,3.83356402458638E+00,3.91899459164563E+00,4.19833540975429E+00,4.35242112423575E+00,,
CHN,,,,,,,,,,,,,,,,,,,,,,,,,,,,,,,,,,,,1.75474398393704E+00,2.03309795635082E+00,2.25691058969521E+00,2.53615126602000E+00,2.66802784657399E+00,2.85312990886921E+00,2.95301170022353E+00,3.08748188044329E+00,3.09149953954698E+00,2.94472659648580E+00,2.89424863891277E+00,2.70053718205941E+00,2.32338158726337E+00,2.27728424270407E+00,2.27728422616862E+00,,
CIV,,,,,,,,,,,,,,,,,,,,,,,,,,,,,,,,,,,,3.93466500900913E+00,4.32958612204575E+00,4.71641246829162E+00,5.23337945828239E+00,4.27051628877786E+00,3.66410531528740E+00,2.99783655734121E+00,2.42222844839078E+00,2.80072388616669E+00,3.15057522907185E+00,3.44657042284768E+00,3.79369386719856E+00,4.52153834437135E+00,4.47858177282498E+00,4.13708063094694E+00,,
CMR,,,,,,,,,,,,,,,,,,,,,,,,,,,,,,,,,,,,2.96097427428400E+00,4.30212277445693E+00,3.67990990558033E+00,3.65264298549556E+00,3.61420349232468E+00,3.56030338773448E+00,3.58528055271063E+00,3.58651749886012E+00,3.65573702154952E+00,3.61479993114541E+00,3.64501716064004E+00,3.62337458453816E+00,3.65745353154553E+00,4.10049323182980E+00,4.03252320105105E+00,,
COG,,,,,,,,,,,,,,,,,,,,,,,,,,,,,,,,,,,,1.26661617117970E+00,1.12064322535970E+00,1.16965405325662E+00,1.50108686201200E+00,1.29690195266680E+00,8.92693565976009E-01,1.08778011033540E+00,1.15245379828020E+00,1.29988187813761E+00,1.17086081928496E+00,9.75052169308874E-01,1.03509931056845E+00,1.15621397304273E+00,1.37049593105551E+00,1.37049593105551E+00,,
COL,,,,,,,,,,,,,,,,,,,,,,,,,,,,,,,,,,,,3.03627955145761E+00,3.09305127347613E+00,3.36162633065648E+00,2.62300716379699E+00,2.21263787112335E+00,1.29845694170351E+00,1.34239984368019E+00,1.17878527073420E+00,1.05621455751761E+00,1.02053080880572E+00,9.95007083032896E-01,9.71100965170429E-01,9.56709520861313E-01,9.48386392624509E-01,1.01518857480902E+00,,
COM,,,,,,,,,,,,,,,,,,,,,,,,,,,,,,,,,,,,1.16298438003963E+00,1.18494662565587E+00,1.27977726557956E+00,1.24610288182323E+00,1.27531162863000E+00,1.29243122073344E+00,1.21396097782638E+00,1.23974258678303E+00,1.32954333697955E+00,1.38075445809075E+00,1.38911244964648E+00,1.42325566723035E+00,1.39568794772806E+00,1.36753557026028E+00,1.31744176350244E+00,,
CPV,,,,,,,,,,,,,,,,,,,,,,,,,,,,,,,,,,,,9.74801061007958E-01,8.23206235011990E-01,8.10956521739131E-01,1.25125000000000E+00,1.16828478964401E+00,1.22945736434109E+00,1.21757925072046E+00,1.21914572024902E+00,1.19212600031639E+00,1.12598069234683E+00,1.04027999694396E+00,1.08631571816281E+00,1.15775263740660E+00,1.18006465737514E+00,1.01318963217878E+00,,
CRI,,,,,,,,,,,,,,,,,,,,,,,,,,,,,,,,,,,,1.53035091344225E+00,1.58527976782761E+00,1.51155496414774E+00,1.49556592089548E+00,1.46796531517618E+00,1.51168543610166E+00,1.76137374135381E+00,1.94218084173918E+00,1.99896206690333E+00,2.14513078191348E+00,2.27402589387054E+00,2.42587188449139E+00,2.74433823773526E+00,3.11782167781305E+00,3.41381897809701E+00,,
CUB,,,,,,,,,,,,,,,,,,,,,,,,,,,,,,,,,,,,5.41212278457134E-01,5.37634408602151E-01,5.51952532082241E-01,5.90596307995975E-01,5.74653885612147E-01,6.05251621092855E-01,6.56517992696237E-01,6.39168812610708E-01,6.33128232839662E-01,5.90523356559887E-01,5.71480831824705E-01,5.95343052213861E-01,5.61397042512602E-01,5.34249371658948E-01,8.19760320653148E-01,,
CYP,,,,,,,,,,,,,,,,,,,,,,,,,,,,,,,,,,,,3.01185233077870E+00,3.40122664397997E+00,3.54693403241914E+00,3.21530111245308E+00,3.18986639661907E+00,3.32263502924154E+00,3.30822160492666E+00,3.34227617257302E+00,3.42589029274224E+00,3.45372819490106E+00,3.48165158851014E+00,3.43724183087176E+00,3.33252514311264E+00,3.37608274678510E+00,3.34103712251625E+00,,
CZE,,,,,,,,,,,,,,,,,,,,,,,,,,,,,,,,,,,,6.37835641060959E-01,6.26155476662342E-01,6.47177893582553E-01,6.34215267547983E-01,6.24135847946724E-01,6.33710782493266E-01,6.84206454004610E-01,6.74638212780876E-01,7.58669750224088E-01,7.79414636121988E-01,9.18881034042459E-01,9.24194063435938E-01,1.00043372008169E+00,1.24154107976212E+00,1.26480078102677E+00,,
DEU,,,,,,,,,,,,,,,,,,,,,,,,,,,,,,,,,,,,1.84619546106197E+00,1.84166764382948E+00,1.95000991866693E+00,2.03009087301184E+00,2.04453280318091E+00,2.07781818181818E+00,2.12738268753904E+00,2.20331470058511E+00,2.16392457713282E+00,2.31145687276675E+00,2.33471590402283E+00,2.32777084856565E+00,2.30100485956676E+00,2.31745332158025E+00,2.39907766111195E+00,,
DJI,,,,,,,,,,,,,,,,,,,,,,,,,,,,,,,,,,,,1.61011181971931E+00,1.66919009023026E+00,1.73374292486707E+00,1.79319188770091E+00,1.81884128626745E+00,1.87206355783225E+00,1.90541866608659E+00,1.94860342602147E+00,1.90088019091332E+00,1.92412118652402E+00,1.87319111552154E+00,1.74720277762821E+00,1.61498263052255E+00,1.62267362897399E+00,1.60744926901384E+00,,
DMA,,,,,,,,,,,,,,,,,,,,,,,,,,,,,,,,,,,,1.75235585398477E+00,1.77005012531328E+00,1.76308373894305E+00,1.73404609946365E+00,1.78447918107622E+00,1.84388444990781E+00,1.98995282559385E+00,2.12175378936507E+00,2.17008384414852E+00,2.09066472749938E+00,2.27725590663251E+00,2.17064814380251E+00,2.30159498381355E+00,2.25532672562170E+00,2.29824738681185E+00,,
DNK,,,,,,,,,,,,,,,,,,,,,,,,,,,,,,,,,,,,1.41994713328004E+00,1.44396197058780E+00,1.44459912174485E+00,1.49869028958007E+00,1.50699685942744E+00,1.45197238872179E+00,1.48418963305933E+00,1.49489669179165E+00,1.49287957569453E+00,1.53569138850619E+00,1.54436465908260E+00,1.52801535124680E+00,1.51081424936387E+00,1.51435981629437E+00,1.52271045264353E+00,,
DOM,,,,,,,,,,,,,,,,,,,,,,,,,,,,,,,,,,,,4.37040373492000E+00,4.09945888801980E+00,4.16449186823742E+00,4.03608776328149E+00,3.92631026518763E+00,4.15578883337939E+00,4.27046798368024E+00,4.29455487988874E+00,3.98337873058885E+00,3.80380832987179E+00,3.74943425601126E+00,3.50524311988408E+00,3.43989315430326E+00,3.59549745471170E+00,3.43449248176522E+00,,
DZA,,,,,,,,,,,,,,,,,,,,,,,,,,,,,,,,,,,,1.02793017456359E+00,8.46887159533074E-01,1.04129199338177E+00,1.06610139551316E+00,1.05058365758755E+00,9.30462859221535E-01,8.66150363133117E-01,8.77784912001415E-01,7.98792909772861E-01,9.77595317453866E-01,8.55613198056023E-01,8.01892322666125E-01,8.02464650605825E-01,7.46137502330922E-01,7.99691960903189E-01,,
ECU,,,,,,,,,,,,,,,,,,,,,,,,,,,,,,,,,,,,1.83446659648561E+00,1.82193032253891E+00,2.05975421882335E+00,2.61892644907200E+00,2.86624539533882E+00,2.85418323388129E+00,3.02772433290160E+00,3.07612577559348E+00,2.98677375525254E+00,3.01999431881728E+00,3.09140073934794E+00,2.96734447982112E+00,3.11323212236970E+00,3.07318812327445E+00,3.13711540963161E+00,,
EGY,,,,,,,,,,,,,,,,,,,,,,,,,,,,,,,,,,,,2.06715686274510E+00,2.48785441485104E+00,3.04635208115347E+00,3.04146190071253E+00,3.18292411647157E+00,3.23208590040717E+00,3.44188724971323E+00,3.66442365600008E+00,3.46979609518611E+00,3.25875646180120E+00,3.11518337887681E+00,2.94563163744830E+00,2.89650381155280E+00,2.78040385303016E+00,2.92585298743294E+00,,
ERI,,,,,,,,,,,,,,,,,,,,,,,,,,,,,,,,,,,,2.35179628578380E+00,2.29097672730572E+00,2.42782284985939E+00,2.44146852509793E+00,2.67070239472981E+00,2.75482093663912E+00,2.40471169178540E+00,2.22728960067879E+00,2.18709984952005E+00,2.02468258077479E+00,1.62204199533385E+00,1.66006701187938E+00,1.72764708666635E+00,1.69048522406307E+00,1.19242300354320E+00,,
ESP,,,,,,,,,,,,,,,,,,,,,,,,,,,,,,,,,,,,2.07108596728570E+00,2.06265629781262E+00,2.01936414636421E+00,2.03487348306651E+00,2.04658396874170E+00,2.04612994892608E+00,2.08497997584761E+00,2.08157914224513E+00,2.35960902648899E+00,2.37760855854999E+00,2.39766959304219E+00,2.35480679996830E+00,2.33276111880539E+00,2.41540902901419E+00,2.39526927082245E+00,,
EST,,,,,,,,,,,,,,,,,,,,,,,,,,,,,,,,,,,,6.46899273162460E-01,7.64622750954460E-01,6.70253712421227E-01,7.58335852229286E-01,1.11042330863208E+00,1.19111231006272E+00,1.03694494564978E+00,1.11117777447201E+00,1.14571719477412E+00,1.14556003104098E+00,1.14542954179389E+00,1.31156930126002E+00,1.21988497304422E+00,1.26063874744013E+00,1.45798405347233E+00,,
ETH,,,,,,,,,,,,,,,,,,,,,,,,,,,,,,,,,,,,1.76898037974894E+00,1.81908647652884E+00,1.82829599647377E+00,2.03515435496123E+00,2.07905684636604E+00,1.99677775234066E+00,2.02872278870472E+00,2.16722143047897E+00,2.06689974608264E+00,1.85412280026347E+00,1.60715632255374E+00,1.87016344356707E+00,2.06918520024072E+00,2.07263424978966E+00,2.23385725986154E+00,,
FIN,,,,,,,,,,,,,,,,,,,,,,,,,,,,,,,,,,,,2.20240451732544E+00,2.26114167465805E+00,2.13303265245266E+00,2.08154580087174E+00,2.11500384546154E+00,2.09295284232836E+00,2.08911047572523E+00,2.15826836931608E+00,2.14556926335479E+00,2.12585837474038E+00,2.13803899381464E+00,2.02793054943463E+00,1.97269127083148E+00,2.16094125823248E+00,2.29406959002336E+00,,
FJI,,,,,,,,,,,,,,,,,,,,,,,,,,,,,,,,,,,,8.52097601499627E-01,8.41812580847347E-01,8.40224942110486E-01,7.71567436208991E-01,7.13202614379085E-01,8.13597102256896E-01,7.92547568710359E-01,7.54155296452493E-01,7.32297852900868E-01,7.01353637901861E-01,6.86921529175050E-01,7.95637829912023E-01,9.56401766004415E-01,8.54984894259819E-01,9.01543793320731E-01,,
FRA,,,,,,,,,,,,,,,,,,,,,,,,,,,,,,,,,,,,2.10656286623137E+00,2.11928937112294E+00,2.08233228790658E+00,2.07410697961854E+00,2.08513954294186E+00,2.07649378508810E+00,2.10281294562796E+00,2.13999502762253E+00,2.19794577925702E+00,2.23271784116146E+00,2.25291662900882E+00,2.29643842877111E+00,2.30233433191490E+00,2.38534003726948E+00,2.44137681316250E+00,,
FSM,,,,,,,,,,,,,,,,,,,,,,,,,,,,,,,,,,,,8.40719023358646E-01,8.42250120714631E-01,5.21409784324040E-01,5.20117762512267E-01,5.23697148475910E-01,5.03590664272891E-01,5.01366240634641E-01,5.00477430555555E-01,5.05010615711253E-01,5.04442508710801E-01,8.33125260091552E-01,9.27130506381227E-01,8.77657440834336E-01,1.28464271614686E+00,1.32937041156841E+00,,
GAB,,,,,,,,,,,,,,,,,,,,,,,,,,,,,,,,,,,,1.85801440287653E+00,1.76173733177698E+00,1.51450017690007E+00,2.09728412098299E+00,1.92542319749216E+00,1.44789451804224E+00,1.65694058818421E+00,2.03802076440126E+00,1.87834365182859E+00,1.62707871383930E+00,1.49924396334420E+00,1.60191697191225E+00,1.61357698543148E+00,1.47923325999235E+00,1.84867541447745E+00,,
GBR,,,,,,,,,,,,,,,,,,,,,,,,,,,,,,,,,,,,1.10232848652467E+00,1.16741671634307E+00,1.30298496314875E+00,1.31304444762951E+00,1.34064798165236E+00,1.46026811177912E+00,1.45797531482794E+00,1.52822147264133E+00,1.55227568247662E+00,1.49249016589135E+00,1.49522589864265E+00,1.53409840887920E+00,1.52114331301711E+00,1.50504939619205E+00,1.52864329992880E+00,,
GEO,,,,,,,,,,,,,,,,,,,,,,,,,,,,,,,,,,,,4.85762252910913E+00,6.61675284384695E+00,6.49852908891328E+00,5.35205097570689E+00,5.15343094020109E+00,5.75872910805891E+00,5.72070722205574E+00,6.24463519313305E+00,6.57169546940682E+00,6.67567182410423E+00,6.67326391876775E+00,6.15663524292966E+00,5.90843827233141E+00,6.00036697247706E+00,7.22914925622597E+00,,
GHA,,,,,,,,,,,,,,,,,,,,,,,,,,,,,,,,,,,,3.86634392346822E+00,3.79227449340776E+00,4.19461039129847E+00,4.00943623029425E+00,4.30050038588113E+00,4.23419704508375E+00,4.18713276646651E+00,4.16053132694030E+00,4.10376468062195E+00,4.05994863961203E+00,4.09280572310705E+00,3.30137122039608E+00,3.79319947285411E+00,3.89033220683395E+00,3.78137511289457E+00,,
GIN,,,,,,,,,,,,,,,,,,,,,,,,,,,,,,,,,,,,4.40831340510047E+00,4.54798953524428E+00,4.43029671143520E+00,4.69272488026008E+00,4.58987524233534E+00,4.59868643015678E+00,4.91671441087472E+00,5.05116649813130E+00,4.16394160522495E+00,4.42075954441197E+00,4.42797547306680E+00,4.61927152836921E+00,4.94828291526899E+00,4.77083418394976E+00,4.85520697722474E+00,,
GMB,,,,,,,,,,,,,,,,,,,,,,,,,,,,,,,,,,,,4.41748916042434E+00,3.90964673451109E+00,3.64512817153175E+00,3.74679175502411E+00,3.75332665946903E+00,3.83950503576649E+00,3.63718380372637E+00,3.66518509403619E+00,2.90374894374626E+00,2.65295052342971E+00,2.63197785830619E+00,3.19728082443345E+00,2.83208342316594E+00,2.84033272045762E+00,2.97570827902815E+00,,
GNB,,,,,,,,,,,,,,,,,,,,,,,,,,,,,,,,,,,,4.84302172960084E+00,4.75102169617784E+00,4.63548046597978E+00,5.02359903743842E+00,4.71128417747223E+00,4.83650586701434E+00,5.20227294464609E+00,4.96752109713249E+00,4.66218236606687E+00,4.16506549638492E+00,4.11245045509080E+00,4.60193003618818E+00,4.30908096280088E+00,4.43822957198444E+00,4.54086430370684E+00,,
GNQ,,,,,,,,,,,,,,,,,,,,,,,,,,,,,,,,,,,,1.85421686746988E+00,2.45571428571429E+00,1.76661237785016E+00,2.36902382782475E+00,1.50637199910254E+00,9.55123464153644E-01,7.50824949698189E-01,8.13012966180992E-01,8.18183937521856E-01,9.09510565288062E-01,6.99397840531562E-01,5.68643595411638E-01,4.47731582265879E-01,4.45287725367849E-01,5.15071761832588E-01,,
GRC,,,,,,,,,,,,,,,,,,,,,,,,,,,,,,,,,,,,4.11925632293004E+00,4.02451294246776E+00,3.97939128997300E+00,4.01273670163347E+00,4.01410962704609E+00,3.15084274403622E+00,3.45494503092992E+00,3.82210666653045E+00,3.59157947725207E+00,3.54841913447505E+00,3.81893328569933E+00,3.67902934220022E+00,3.84899319187991E+00,3.95221129514955E+00,3.96790304295861E+00,,
GRD,,,,,,,,,,,,,,,,,,,,,,,,,,,,,,,,,,,,2.35924932975871E+00,2.47624314947961E+00,2.62346043681743E+00,2.64073027602695E+00,2.02926949638620E+00,1.93126086981944E+00,2.22750720523271E+00,2.40561266039641E+00,2.25974077596397E+00,2.39901023737917E+00,2.24685233130664E+00,2.93966690299935E+00,3.43475780709526E+00,3.41717978951046E+00,3.63054795113454E+00,,
GTM,,,,,,,,,,,,,,,,,,,,,,,,,,,,,,,,,,,,2.34990337165864E+00,2.38095341085202E+00,2.37176210902519E+00,2.16355843850118E+00,2.44672491371490E+00,3.33484652570424E+00,3.77737318152810E+00,3.69855292209311E+00,3.69078871389493E+00,3.91944763734109E+00,3.97908042645968E+00,4.07581750647527E+00,4.36434962895790E+00,4.15182063608150E+00,4.47755616764950E+00,,
GUY,,,,,,,,,,,,,,,,,,,,,,,,,,,,,,,,,,,,8.24732890659157E-01,7.94838375936188E-01,7.64356275250460E-01,8.35169712119658E-01,7.43945345815813E-01,8.47460206085193E-01,9.64593475185045E-01,9.53915812672192E-01,9.32259949962373E-01,8.77746884967850E-01,9.00086733425121E-01,8.73915071000409E-01,1.00619623492463E+00,1.02093120787600E+00,8.27761736405659E-01,,
HND,,,,,,,,,,,,,,,,,,,,,,,,,,,,,,,,,,,,2.58511744474365E+00,2.61792600967276E+00,2.62666949332203E+00,2.70805531105369E+00,2.78224551208882E+00,2.33089800300510E+00,2.32654865964796E+00,2.48477478617519E+00,2.58098008917891E+00,2.46688303026012E+00,2.35648122746849E+00,2.41347572023569E+00,2.45068143374190E+00,2.60311017233539E+00,2.57956253997426E+00,,
HRV,,,,,,,,,,,,,,,,,,,,,,,,,,,,,,,,,,,,1.08710749933931E+00,1.03691223455978E+00,1.06588598751323E+00,1.00415540245923E+00,9.29601336856830E-01,1.08377637191792E+00,1.21952065900822E+00,1.25503267582747E+00,1.12995747159832E+00,1.26859578288529E+00,9.84706665487500E-01,9.95861926863425E-01,9.90578278961120E-01,1.18462573362092E+00,1.18462573363783E+00,,
HTI,,,,,,,,,,,,,,,,,,,,,,,,,,,,,,,,,,,,3.90385229197869E+00,3.98962397633238E+00,3.75705953152486E+00,3.96050605584393E+00,3.95500620902764E+00,4.37870585202372E+00,4.15869311551925E+00,4.05517505423916E+00,3.73169224602949E+00,3.58224052084595E+00,3.46892016544172E+00,4.34517951891568E+00,4.37508518468039E+00,4.77672692445828E+00,4.77672692445828E+00,,
HUN,,,,,,,,,,,,,,,,,,,,,,,,,,,,,,,,,,,,1.17119901542711E+00,1.28344495180896E+00,1.26041201291769E+00,1.77989301489595E+00,1.98875380534568E+00,2.05627193196031E+00,2.21656068265467E+00,2.24687208524400E+00,2.22459016106270E+00,2.16778395723528E+00,2.27449801509095E+00,2.19473704393723E+00,2.16142524982629E+00,2.05991296864278E+00,2.02985463514698E+00,,
IDN,,,,,,,,,,,,,,,,,,,,,,,,,,,,,,,,,,,,1.15640256402479E+00,1.17049365890456E+00,1.14940931596670E+00,1.25966930299986E+00,1.40489316045525E+00,1.24950781976464E+00,1.26909128295156E+00,1.38435298200154E+00,1.51842308583522E+00,1.43287719253313E+00,1.06076792290442E+00,1.16688927731126E+00,1.13637052288818E+00,1.03319599624182E+00,1.13703115296774E+00,,
IND,,,,,,,,,,,,,,,,,,,,,,,,,,,,,,,,,,,,3.03787461015713E+00,2.97480011253507E+00,3.25226425899700E+00,3.27825456356501E+00,3.07518366305247E+00,3.34153532100221E+00,3.52871720389119E+00,3.57997962634900E+00,3.40197152553844E+00,3.20040619599546E+00,3.10269454406621E+00,2.98415511032378E+00,2.88387985920628E+00,2.82348173164934E+00,2.80359835710057E+00,,
IRL,,,,,,,,,,,,,,,,,,,,,,,,,,,,,,,,,,,,1.80750112968821E+00,1.83261232414756E+00,1.56475402596638E+00,1.53180110778634E+00,1.48708756555799E+00,1.51197176380807E+00,1.61719304547126E+00,1.67053079273442E+00,1.74438156021265E+00,1.74650230050034E+00,1.76197321257812E+00,1.76907540775859E+00,1.75176942414006E+00,2.01687420249043E+00,1.98939580937335E+00,,
IRN,,,,,,,,,,,,,,,,,,,,,,,,,,,,,,,,,,,,2.11815299213898E+00,1.94421339536509E+00,2.10237199637297E+00,2.32196268701541E+00,2.64501941279338E+00,2.68179700605823E+00,2.86558511074265E+00,2.85554333553116E+00,2.63210185205262E+00,2.78579477565233E+00,3.16298057268443E+00,2.96128812577543E+00,3.04201573816135E+00,3.18209298218534E+00,3.36755862782489E+00,,
IRQ,,,,,,,,,,,,,,,,,,,,,,,,,,,,,,,,,,,,,5.51057139327955E-01,5.51057139327955E-01,5.51057139327955E-01,5.51057139327955E-01,9.07407422760032E-01,9.06182851339303E-01,1.09282222894731E+00,1.08504877970780E+00,1.07507525571147E+00,1.16917850514535E+00,9.70715987085869E-01,1.14290294805888E+00,9.68144966633547E-01,1.09698444583156E+00,,
ISL,,,,,,,,,,,,,,,,,,,,,,,,,,,,,,,,,,,,1.31846503006083E+00,1.36735881086962E+00,1.45253230815649E+00,1.74482992582178E+00,1.71822012256194E+00,1.80022780362555E+00,1.77822458668197E+00,1.83856986675727E+00,1.90376084394818E+00,1.85917896101461E+00,1.75805712961105E+00,1.64750167982055E+00,1.58973990187523E+00,1.52193291175002E+00,1.45297362004198E+00,,
ISR,,,,,,,,,,,,,,,,,,,,,,,,,,,,,,,,,,,,2.27601917884934E+00,2.17865765905063E+00,2.51551972697049E+00,2.61893073100641E+00,2.49348066876564E+00,2.65180856961981E+00,2.89921998326741E+00,2.75241866198498E+00,2.78670360110803E+00,2.87121485299162E+00,3.04612085562917E+00,2.90298196225614E+00,3.22385501107125E+00,3.14793516304393E+00,3.10494887337029E+00,,
ITA,,,,,,,,,,,,,,,,,,,,,,,,,,,,,,,,,,,,2.12014917574385E+00,2.17030060431689E+00,2.23147966276557E+00,2.29090099426313E+00,2.27852054536856E+00,2.21660256394110E+00,2.08201190407545E+00,2.12611544240156E+00,2.12894857842939E+00,2.08037196467198E+00,2.12776822884422E+00,2.11145049371304E+00,2.05804380740368E+00,2.06237710088522E+00,2.15587131049991E+00,,
JAM,,,,,,,,,,,,,,,,,,,,,,,,,,,,,,,,,,,,1.93981595354186E+00,1.87089383007416E+00,2.61603151294194E+00,2.09936164759204E+00,2.33037697871773E+00,2.58886989751155E+00,2.88821129814770E+00,2.07740815958456E+00,2.26145625769066E+00,2.08856960391182E+00,2.09880706208190E+00,1.90121835299300E+00,2.32733141453103E+00,2.35487293577840E+00,2.23452982870575E+00,,
JOR,,,,,,,,,,,,,,,,,,,,,,,,,,,,,,,,,,,,3.13882241285392E+00,3.46784886504478E+00,3.85311234172015E+00,4.00755130323448E+00,4.36787378045777E+00,5.01933077166719E+00,5.11583384141551E+00,4.90231142194035E+00,4.75234645894487E+00,4.42141865874939E+00,4.17616862480171E+00,3.74559476959121E+00,3.41347764783943E+00,3.51111498405951E+00,3.27606844950508E+00,,
JPN,,,,,,,,,,,,,,,,,,,,,,,,,,,,,,,,,,,,1.16742705101683E+00,1.21139887824164E+00,1.29081157055878E+00,1.40186739280675E+00,1.42655265392705E+00,1.43956568511614E+00,1.45708598634935E+00,1.47558008940140E+00,1.49775695825362E+00,1.46919121368559E+00,1.41293173308428E+00,1.51491649322145E+00,1.47157157781393E+00,1.49127690671132E+00,1.54464893427472E+00,,
KAZ,,,,,,,,,,,,,,,,,,,,,,,,,,,,,,,,,,,,1.66248770296485E+00,1.58253231168672E+00,1.66808737760817E+00,1.73612192988026E+00,2.07805770832713E+00,2.03982003312139E+00,1.50425518736293E+00,1.68100743657876E+00,1.68063648268083E+00,1.65653508647946E+00,1.54763136739947E+00,1.63598018105562E+00,1.63617212164072E+00,1.60744217977136E+00,1.82552381457569E+00,,
KEN,,,,,,,,,,,,,,,,,,,,,,,,,,,,,,,,,,,,2.62175266610000E+00,2.74952921374771E+00,2.80098427522319E+00,2.21436511777860E+00,2.22509485128378E+00,2.32063887043451E+00,2.43574676467158E+00,2.59519999072798E+00,2.52409366305576E+00,2.50005999110433E+00,2.53704229749512E+00,2.64302639879342E+00,2.72200253216437E+00,2.69212357561713E+00,2.86900078323486E+00,,
KGZ,,,,,,,,,,,,,,,,,,,,,,,,,,,,,,,,,,,,2.91190403655836E+00,3.17476527043671E+00,2.67203453752570E+00,3.33976845951357E+00,3.08509211307769E+00,2.60626090149637E+00,2.81688615784416E+00,3.28499210529807E+00,3.37108927890118E+00,3.29772125361681E+00,3.44170867048236E+00,3.45729349736380E+00,3.34338750369984E+00,2.94270261500489E+00,3.35446121952926E+00,,
KHM,,,,,,,,,,,,,,,,,,,,,,,,,,,,,,,,,,,,4.64534735928430E+00,5.08433087879973E+00,4.75869403728851E+00,4.89310111468911E+00,4.54500400556273E+00,4.46478294571656E+00,4.38068802396150E+00,4.34075564472568E+00,4.45855143435674E+00,4.24112680249641E+00,4.84485893885253E+00,4.36904266648113E+00,4.21714952658272E+00,4.32000000000000E+00,4.32000000594456E+00,,
KIR,,,,,,,,,,,,,,,,,,,,,,,,,,,,,,,,,,,,4.57549629419939E-01,4.84261501210654E-01,4.61472418974029E-01,4.49396123958431E-01,4.66093949917748E-01,4.67289719626168E-01,4.70130501742725E-01,4.76120714913566E-01,5.47888203065400E-01,5.15168860904408E-01,5.81802887985420E-01,1.49684152705301E+00,2.32492997198880E+00,1.95606760777363E+00,1.86437579967099E+00,,
KNA,,,,,,,,,,,,,,,,,,,,,,,,,,,,,,,,,,,,2.19903691813804E+00,2.24736048265460E+00,2.12938005390836E+00,2.03870967741935E+00,2.30946873234107E+00,2.17077522815871E+00,2.05518718428539E+00,2.13167819651126E+00,2.05482191257181E+00,2.04841868565671E+00,1.97545038580377E+00,2.23528248952687E+00,2.58347585749028E+00,2.45553404617443E+00,2.44678248103744E+00,,
KOR,,,,,,,,,,,,,,,,,,,,,,,,,,,,,,,,,,,,2.50679737085734E+00,2.49612676182833E+00,2.39352208499755E+00,2.25847651905830E+00,2.34502185364355E+00,2.60642534596742E+00,2.53244804044363E+00,2.50902463294839E+00,2.42612815974998E+00,2.39680682826200E+00,2.48971343136923E+00,2.50470660740684E+00,2.54779723839580E+00,2.61546404864280E+00,2.58998615697444E+00,,
KWT,,,,,,,,,,,,,,,,,,,,,,,,,,,,,,,,,,,,6.82130440758383E-01,7.12205577106319E-01,7.43168062887910E-01,9.32037643531665E-01,8.49576059090379E-01,6.77470417744305E-01,7.55238021910433E-01,8.08933890470997E-01,7.15119777171072E-01,6.26097016051180E-01,5.37958929675110E-01,4.77995149811550E-01,4.97116359276273E-01,4.63362707631105E-01,5.31661846698514E-01,,
LAO,,,,,,,,,,,,,,,,,,,,,,,,,,,,,,,,,,,,1.65735670740233E+00,1.93250970620618E+00,2.66163718884734E+00,3.61652139050045E+00,2.56896539705284E+00,2.15581257544168E+00,2.90422613967825E+00,2.86048803697662E+00,3.66579698726061E+00,3.66767823362831E+00,3.52968209556745E+00,3.22102727403671E+00,3.24478243161373E+00,3.28986361482385E+00,3.28292999709880E+00,,
LBN,,,,,,,,,,,,,,,,,,,,,,,,,,,,,,,,,,,,7.64504541847442E+00,7.53839311172414E+00,7.99023917525773E+00,8.29727577345214E+00,7.80090205733489E+00,7.41637550878710E+00,6.85283404453613E+00,5.98371788103207E+00,5.40855554768440E+00,4.73349479888366E+00,4.72106863919718E+00,4.63887707121507E+00,4.54698806589834E+00,4.38651961848134E+00,4.12966862136478E+00,,
LBR,,,,,,,,,,,,,,,,,,,,,,,,,,,,,,,,,,,,,,,7.99353489227417E+00,7.99353489227417E+00,7.99353489227417E+00,7.99353489227417E+00,7.99353489227417E+00,7.99353489227417E+00,7.99353489227417E+00,7.99353489227417E+00,7.99353489227417E+00,7.99353489227417E+00,7.99353489227417E+00,7.99353489227417E+00,,
LBY,,,,,,,,,,,,,,,,,,,,,,,,,,,,,,,,,,,,1.76292134831461E+00,1.67709359605911E+00,1.77425966499399E+00,1.90048657981479E+00,1.80649267982177E+00,1.40386226257046E+00,1.40133412982875E+00,1.70965501273443E+00,1.33528012055449E+00,1.15342926555784E+00,9.65811349983338E-01,9.21372796878144E-01,9.53463885316786E-01,8.97479423868313E-01,1.31565010099793E+00,,
LCA,,,,,,,,,,,,,,,,,,,,,,,,,,,,,,,,,,,,1.73690229322034E+00,1.99450693172901E+00,1.99765922380836E+00,1.95456626378884E+00,2.08046979040203E+00,2.25093174265025E+00,2.54443324366722E+00,2.62672641593687E+00,2.56875946979199E+00,2.49775248616736E+00,2.65458077047588E+00,2.86449734039379E+00,2.90778606118724E+00,2.89963942307692E+00,2.70063363832950E+00,,
LKA,,,,,,,,,,,,,,,,,,,,,,,,,,,,,,,,,,,,1.86505640915456E+00,1.85923052798342E+00,1.83707636633532E+00,1.85824509593904E+00,1.90327256753789E+00,1.92218357070612E+00,2.04259069329974E+00,2.12965843682019E+00,2.24256338108543E+00,2.23364665223228E+00,2.15926242120172E+00,2.22334517538487E+00,2.20659079528587E+00,2.28993472302600E+00,2.16906190173674E+00,,
LSO,,,,,,,,,,,,,,,,,,,,,,,,,,,,,,,,,,,,4.05686067053268E+00,3.85017626146908E+00,3.63362383821848E+00,3.50726133083356E+00,3.42477331834555E+00,3.29360222816143E+00,3.13636097563804E+00,3.01721170225881E+00,2.99140225454923E+00,2.80844531076192E+00,2.92557296536051E+00,2.75578387693470E+00,2.58962354690046E+00,2.80361967494064E+00,2.61905441521598E+00,,
LTU,,,,,,,,,,,,,,,,,,,,,,,,,,,,,,,,,,,,1.38906943490130E+00,1.65250516222438E+00,1.57719752486122E+00,1.46169601165803E+00,1.55632624973226E+00,1.96778086792255E+00,1.72091560111767E+00,1.61321298252353E+00,1.56349083733326E+00,1.84927860307698E+00,1.88854072417028E+00,1.89845567347644E+00,1.68902008382564E+00,1.80374125950597E+00,1.80374125950597E+00,,
LUX,,,,,,,,,,,,,,,,,,,,,,,,,,,,,,,,,,,,4.23560555923230E-01,4.05140216496803E-01,4.20193654466841E-01,4.30663221360896E-01,5.93352441293307E-01,1.11358574610245E+00,1.16516037568669E+00,1.19623207735912E+00,1.20911008748161E+00,1.24573426573427E+00,1.19749785351034E+00,1.14340966325037E+00,1.13202023167672E+00,1.08748551387618E+00,1.14525924550097E+00,,
LVA,,,,,,,,,,,,,,,,,,,,,,,,,,,,,,,,,,,,1.95023161868460E+00,2.57001782222451E+00,2.75535060501740E+00,2.56428851840464E+00,2.67760592956068E+00,2.71880938528521E+00,2.97566775174409E+00,2.98116205667447E+00,2.89273301841547E+00,2.82201646280951E+00,2.71925952361425E+00,2.37414668483998E+00,2.57123906870251E+00,2.63154643505763E+00,2.57576657353404E+00,,
MAR,,,,,,,,,,,,,,,,,,,,,,,,,,,,,,,,,,,,2.64149113180161E+00,2.61923980087041E+00,2.94630897782245E+00,2.73596264162233E+00,2.83607268545495E+00,2.95077545687260E+00,3.01077387066665E+00,3.92953038215102E+00,3.85678198653728E+00,3.78601823708207E+00,3.61910789339924E+00,3.51956545837490E+00,3.29593802909269E+00,3.38640880432842E+00,3.60938508862643E+00,,
MCO,,,,,,,,,,,,,,,,,,,,,,,,,,,,,,,,,,,,3.17123599605171E-01,3.09000797695736E-01,3.39145510198428E-01,3.68772510064451E-01,4.19090308776967E-01,4.18423253832975E-01,4.14386681169852E-01,4.28107724288363E-01,4.59138380572146E-01,4.74151463079871E-01,4.63910218755941E-01,4.51448949337394E-01,4.20705456414858E-01,4.39866345539573E-01,4.63808175175247E-01,,
MDA,,,,,,,,,,,,,,,,,,,,,,,,,,,,,,,,,,,,2.65024691358025E+00,2.99113490638625E+00,2.82080856790400E+00,2.94430607322956E+00,2.72312855055997E+00,2.91502496878901E+00,3.45017845895444E+00,3.42921173967015E+00,3.71023208660705E+00,3.55230706793207E+00,4.20522683550893E+00,5.02347582321069E+00,5.09440681915800E+00,5.26158974851171E+00,5.52843112473964E+00,,
MDG,,,,,,,,,,,,,,,,,,,,,,,,,,,,,,,,,,,,1.29872498166353E+00,1.28879125693484E+00,1.30303559810596E+00,1.26305181222213E+00,1.24480959634650E+00,1.24493888007774E+00,1.17852261328317E+00,1.26524420310065E+00,1.26600182928628E+00,1.26205976226415E+00,1.24078339662256E+00,1.30587354456676E+00,1.39687449581023E+00,1.31373843762206E+00,1.36013518313896E+00,,
MDV,,,,,,,,,,,,,,,,,,,,,,,,,,,,,,,,,,,,5.13571175811825E+00,4.92682032109945E+00,5.12303532799787E+00,4.92882408961975E+00,4.95355198587735E+00,4.63089011877475E+00,4.48520970925590E+00,4.29331509207103E+00,4.06396899469706E+00,3.86457390079485E+00,3.80747949858809E+00,3.61598989536928E+00,3.38186587236313E+00,2.80708480403899E+00,2.81313888420863E+00,,
MEX,,,,,,,,,,,,,,,,,,,,,,,,,,,,,,,,,,,,2.97980986656100E+00,2.74115880756811E+00,2.65634370485823E+00,2.63971679105752E+00,2.66261235498348E+00,2.70980753071637E+00,3.00909604027473E+00,3.15656959171196E+00,3.22833986010488E+00,3.27702377149278E+00,3.22721318206560E+00,3.11318309365847E+00,3.18669599890496E+00,3.11852737851950E+00,3.34709609796092E+00,,
MHL,,,,,,,,,,,,,,,,,,,,,,,,,,,,,,,,,,,,4.06983152593246E-01,4.04597701149425E-01,3.92843619840969E-01,4.04839460214053E-01,4.12470023980815E-01,4.13684112670819E-01,3.98262128892107E-01,3.85614888087853E-01,3.79675256482753E-01,3.79378919993881E-01,3.79197557784562E-01,3.79039544096185E-01,3.77789656554858E-01,3.93777756578947E-01,4.10002624000000E-01,,
MKD,,,,,,,,,,,,,,,,,,,,,,,,,,,,,,,,,,,,3.53534661436475E+00,3.62040496135258E+00,3.67699230809481E+00,3.65259715947383E+00,3.51856508841295E+00,3.75742714908651E+00,3.53534575696904E+00,3.89318443867271E+00,3.85115861423004E+00,3.53214209687957E+00,3.08989601832897E+00,2.73725000702995E+00,2.45380764899764E+00,2.16666658570707E+00,2.30722957786493E+00,,
MLI,,,,,,,,,,,,,,,,,,,,,,,,,,,,,,,,,,,,2.50061140549153E+00,4.73744160968972E+00,4.49081055985842E+00,4.06489373281714E+00,4.22859669485436E+00,4.22297565336056E+00,3.52027992260538E+00,3.77823667292024E+00,3.49289804568890E+00,3.18799723410560E+00,3.21711926020280E+00,3.04937424143370E+00,3.01973266595737E+00,2.97695997980494E+00,2.90378725855527E+00,,
MLT,,,,,,,,,,,,,,,,,,,,,,,,,,,,,,,,,,,,1.88842594142683E+00,1.96444075121635E+00,1.99658539688371E+00,1.95961442794152E+00,1.98861465521040E+00,1.87602115999295E+00,2.01952115308397E+00,1.96130232832819E+00,1.96396900350925E+00,2.29130569994225E+00,2.06549590650584E+00,1.96460935825229E+00,1.75462608124384E+00,1.81735875337338E+00,1.84253091465642E+00,,
MMR,,,,,,,,,,,,,,,,,,,,,,,,,,,,,,,,,,,,1.74192466952800E+00,1.78961307669259E+00,1.56199838354871E+00,1.65193119779398E+00,1.60931963754155E+00,1.83274204196835E+00,1.83158374928702E+00,2.01280734295601E+00,1.99686222820988E+00,1.97217066902935E+00,1.92991469954052E+00,1.76216794308089E+00,1.72344378615239E+00,1.82925912122955E+00,1.82199998030464E+00,,
MNE,,,,,,,,,,,,,,,,,,,,,,,,,,,,,,,,,,,,2.02471798611415E+00,2.04093174997691E+00,2.01264616065329E+00,2.02416043246075E+00,2.07758686223540E+00,2.44009455129535E+00,2.61325891265634E+00,2.81872066311316E+00,2.58534046585858E+00,2.54879001756587E+00,2.43439941047355E+00,2.69531124574916E+00,2.67904504855650E+00,2.76459951289705E+00,2.54578719794792E+00,,
MNG,,,,,,,,,,,,,,,,,,,,,,,,,,,,,,,,,,,,1.17898496529647E+00,8.67574343563387E-01,9.08216795814738E-01,9.27053449197632E-01,1.01009352177456E+00,9.76209144976309E-01,1.27845829313971E+00,1.29115562287195E+00,1.01986749031863E+00,9.20454822351782E-01,7.76905624690663E-01,6.79562051403462E-01,6.93326883356887E-01,6.98634694928487E-01,7.01204795402754E-01,,
MOZ,,,,,,,,,,,,,,,,,,,,,,,,,,,,,,,,,,,,1.67356420380999E+00,1.68034769811085E+00,1.61096250202344E+00,1.59679144248414E+00,1.63068686621925E+00,1.66198152636382E+00,1.52249300105724E+00,1.50243889430605E+00,1.55500219940920E+00,1.55677804237958E+00,1.49607571701951E+00,1.48538912432033E+00,1.29745140550332E+00,1.15696856324064E+00,1.51666762508194E+00,,
MRT,,,,,,,,,,,,,,,,,,,,,,,,,,,,,,,,,,,,6.09821758810767E-01,5.78410657388663E-01,6.57616609516652E-01,8.02954873936085E-01,7.80418304211057E-01,8.17639203074323E-01,8.37347138639202E-01,8.67924406998685E-01,8.90688739912950E-01,9.15547301097349E-01,8.62386564556073E-01,6.26703500472589E-01,8.73475702930449E-01,9.98467484341677E-01,9.49503423511443E-01,,
MUS,,,,,,,,,,,,,,,,,,,,,,,,,,,,,,,,,,,,1.49552358836699E+00,1.49696241130537E+00,1.44391928819172E+00,1.62203007971951E+00,1.60430380614414E+00,1.81465041715165E+00,1.86206552947021E+00,2.06058224081300E+00,1.83575612793372E+00,1.94308558802257E+00,2.42935326951320E+00,2.57118367015435E+00,3.41769041657542E+00,3.59350269902474E+00,3.59107673283049E+00,,
MWI,,,,,,,,,,,,,,,,,,,,,,,,,,,,,,,,,,,,2.99761459275805E+00,3.33942900661346E+00,3.49866900467942E+00,3.57816189495359E+00,4.17129647368354E+00,3.22345016039321E+00,2.78743777972650E+00,1.84491288978741E+00,1.68374111073485E+00,1.95893238185189E+00,2.04937378542572E+00,2.75345687634746E+00,2.68187533056518E+00,2.65183697886060E+00,2.62046030443844E+00,,
MYS,,,,,,,,,,,,,,,,,,,,,,,,,,,,,,,,,,,,1.59529464671337E+00,1.53227915781697E+00,1.51028533999339E+00,1.59403926483318E+00,1.61745877003598E+00,1.51378363135906E+00,1.53941102561412E+00,1.55206112527498E+00,2.02659939011722E+00,2.23492979613879E+00,2.28087358477926E+00,2.39080775919546E+00,2.50141254933507E+00,2.40502519209563E+00,2.65456305623029E+00,,
NAM,,,,,,,,,,,,,,,,,,,,,,,,,,,,,,,,,,,,1.79395359040474E+00,1.82652141434240E+00,1.91854292543246E+00,1.88417798179786E+00,1.85922436666022E+00,1.89998674285714E+00,2.70481248460219E+00,2.59049465709186E+00,2.80169270645314E+00,3.26486093863493E+00,3.73909088940382E+00,4.07016732064855E+00,3.15554628188049E+00,3.11779874903983E+00,1.98348450898884E+00,,
NER,,,,,,,,,,,,,,,,,,,,,,,,,,,,,,,,,,,,1.85290364428545E+00,1.80248556357946E+00,1.81663597620563E+00,1.87583101994940E+00,1.87522699760722E+00,1.70278540014413E+00,1.71762495688801E+00,1.73457988784533E+00,1.75867928774768E+00,1.86746630716983E+00,2.91956016549824E+00,2.73868259669820E+00,2.56115425572148E+00,2.47622820613193E+00,2.57933192950124E+00,,
NGA,,,,,,,,,,,,,,,,,,,,,,,,,,,,,,,,,,,,3.30316890157704E+00,3.54258610781854E+00,3.50015594319998E+00,4.10159050575184E+00,3.97048253740872E+00,3.03559490830834E+00,3.58359360964786E+00,2.91005012062647E+00,5.85476165693468E+00,4.68385585385118E+00,4.67668752991112E+00,3.76363306289693E+00,3.62797010461016E+00,3.27869535219532E+00,3.70628378865343E+00,,
NIC,,,,,,,,,,,,,,,,,,,,,,,,,,,,,,,,,,,,2.99426117281818E+00,3.39180326112958E+00,3.49296620588042E+00,3.70379187662844E+00,3.73864762499491E+00,3.25452434336963E+00,3.14403148926758E+00,3.52828483945990E+00,3.44343391140844E+00,3.55052870048176E+00,3.45258965874389E+00,3.68304541211092E+00,4.18637937727428E+00,4.24651091125834E+00,4.13963061508882E+00,,
NLD,,,,,,,,,,,,,,,,,,,,,,,,,,,,,,,,,,,,1.93244469486767E+00,2.33960375912808E+00,2.18474332114879E+00,2.53763132338660E+00,2.63831814662617E+00,2.54474112355249E+00,2.71122616035075E+00,2.91500255796257E+00,3.00612334755580E+00,3.12541919117887E+00,3.08776954735717E+00,1.57508607668044E+00,1.60278195911821E+00,1.62304445671382E+00,1.64496987699809E+00,,
NOR,,,,,,,,,,,,,,,,,,,,,,,,,,,,,,,,,,,,1.65588281063282E+00,1.57673240264611E+00,1.52237138963969E+00,1.59765337261917E+00,1.57832873545056E+00,1.43190743437429E+00,1.39925706964793E+00,1.56443845782862E+00,1.57206621048973E+00,1.52784702138389E+00,1.44368448427211E+00,1.34827579340916E+00,1.38985742250970E+00,1.33557816683588E+00,1.52132593188837E+00,,
NPL,,,,,,,,,,,,,,,,,,,,,,,,,,,,,,,,,,,,3.63917237237848E+00,3.72265599880877E+00,3.75206541529230E+00,3.77790735791560E+00,3.82790025226992E+00,3.79692355793636E+00,3.76634211121152E+00,3.96027728880405E+00,3.95663323765874E+00,4.73053961092988E+00,4.49491236298718E+00,4.07390509972403E+00,3.81400178949207E+00,3.71543486042831E+00,3.75972320052548E+00,,
NZL,,,,,,,,,,,,,,,,,,,,,,,,,,,,,,,,,,,,1.63453613213303E+00,1.65882340931595E+00,1.66210710700860E+00,1.78253636645002E+00,1.72017511856986E+00,1.69792763101134E+00,1.84524048297164E+00,1.80219377590510E+00,1.72718112892046E+00,1.94732745562158E+00,2.02461583757246E+00,2.08305955120763E+00,1.90452578434908E+00,1.92502254382299E+00,1.92502254382299E+00,,
OMN,,,,,,,,,,,,,,,,,,,,,,,,,,,,,,,,,,,,5.84542909403884E-01,5.71035940052778E-01,5.71023315223735E-01,6.82606589161263E-01,6.49845122075485E-01,5.60725220602697E-01,5.54469211544017E-01,5.26843918748476E-01,5.45078607375866E-01,5.39979224348112E-01,4.59177585707601E-01,4.54119326210183E-01,4.89299856704624E-01,4.93080195821127E-01,6.39889693173868E-01,,
PAK,,,,,,,,,,,,,,,,,,,,,,,,,,,,,,,,,,,,2.42133922916055E+00,2.43625645484307E+00,2.50146969292992E+00,2.88333468459218E+00,3.01491080722411E+00,2.38439293957532E+00,2.26113127687079E+00,2.15560514514985E+00,2.23013013703685E+00,2.21606465969970E+00,2.08550644561678E+00,1.91562932912676E+00,1.85422078953301E+00,1.77827161556899E+00,1.75844282729566E+00,,
PAN,,,,,,,,,,,,,,,,,,,,,,,,,,,,,,,,,,,,2.47403903315162E+00,2.55414552514991E+00,2.24514081713606E+00,2.35902126686485E+00,2.31139198519592E+00,2.47923927541844E+00,2.54160491213212E+00,2.48525145855741E+00,2.55775832740544E+00,2.39786167159169E+00,2.27809139524207E+00,2.27986228628115E+00,2.36435283419218E+00,2.22135955831608E+00,2.34713285581320E+00,,
PER,,,,,,,,,,,,,,,,,,,,,,,,,,,,,,,,,,,,2.04125825016609E+00,2.03932586085208E+00,2.08451679009657E+00,1.98010884192963E+00,2.11281727562968E+00,1.93894029581082E+00,1.96864983578668E+00,2.04015885928795E+00,1.86346371846666E+00,1.79901420979134E+00,1.81036691460019E+00,1.76109507598148E+00,1.77072383824042E+00,1.81363242408456E+00,1.91464098003110E+00,,
PHL,,,,,,,,,,,,,,,,,,,,,,,,,,,,,,,,,,,,2.08563481432629E+00,2.09045490583916E+00,2.06116881762923E+00,2.02271806263274E+00,1.96473685412764E+00,1.79574946165531E+00,1.79257265782434E+00,1.77357120170096E+00,2.04511859646066E+00,2.18546206614492E+00,2.21710715226084E+00,2.31804369374574E+00,2.29897905387061E+00,2.40199030960672E+00,2.48981950539791E+00,,
PLW,,,,,,,,,,,,,,,,,,,,,,,,,,,,,,,,,,,,1.39755137184078E+00,1.30964391005795E+00,1.31422716472490E+00,1.51451073985680E+00,1.75001806406133E+00,2.10809340663925E+00,9.90867667821846E-01,2.00821564605919E+00,1.68188025552441E+00,2.11709943096736E+00,2.16863877657673E+00,2.00961727559477E+00,2.36260492181461E+00,2.37394986608823E+00,2.35000000000000E+00,,
PNG,,,,,,,,,,,,,,,,,,,,,,,,,,,,,,,,,,,,7.10495560936239E-01,5.27888153053716E-01,6.15677966101695E-01,6.42362890825218E-01,6.67401343408900E-01,7.27519613139931E-01,6.66971263676806E-01,6.69654138378342E-01,5.62474039950157E-01,6.40672248928250E-01,5.74572532080796E-01,5.87518125055485E-01,5.85475359605073E-01,6.36230798398210E-01,6.52015223788777E-01,,
POL,,,,,,,,,,,,,,,,,,,,,,,,,,,,,,,,,,,,1.48448203260760E+00,1.56378717722921E+00,1.57193224838121E+00,2.04442654542671E+00,1.65558039201548E+00,1.65467007353791E+00,1.64643313441873E+00,1.82752931689954E+00,1.84402411890564E+00,1.91048934711175E+00,1.83210549759891E+00,1.80079224098163E+00,1.77370567934891E+00,1.82455630645848E+00,1.80922216293084E+00,,
PRT,,,,,,,,,,,,,,,,,,,,,,,,,,,,,,,,,,,,2.89999765087270E+00,2.78870376099350E+00,2.75797258370957E+00,2.62258446168003E+00,2.67444304329550E+00,2.42823259998364E+00,2.51105886720079E+00,2.49641891991671E+00,2.50320748726386E+00,2.68825141540853E+00,2.76827987634369E+00,2.73454704527617E+00,2.93771312219415E+00,3.00987323225716E+00,2.96247811359095E+00,,
PRY,,,,,,,,,,,,,,,,,,,,,,,,,,,,,,,,,,,,4.26154234825996E+00,3.96034214618974E+00,4.12880912948970E+00,3.85670744138634E+00,4.22973827507465E+00,5.52419784528935E+00,5.81190673210986E+00,5.59576903915202E+00,4.69800933091089E+00,4.21859134916430E+00,4.06760667099848E+00,3.91120719341879E+00,3.66014394470504E+00,3.57679953043293E+00,4.04366410072115E+00,,
QAT,,,,,,,,,,,,,,,,,,,,,,,,,,,,,,,,,,,,1.38410640739991E+00,1.19784085395439E+00,9.96984729111954E-01,1.13849450843825E+00,9.53204318237237E-01,7.14123297538085E-01,7.81041658791356E-01,8.16195204605868E-01,7.85220556485538E-01,6.91966857396753E-01,6.15488992012396E-01,5.22433144225542E-01,4.69141429631485E-01,4.14507877391257E-01,5.08199808332340E-01,,
ROM,,,,,,,,,,,,,,,,,,,,,,,,,,,,,,,,,,,,0.00000000000000E+00,0.00000000000000E+00,0.00000000000000E+00,1.73735032424686E+00,1.77107302949373E+00,1.68293416279144E+00,1.83524813939962E+00,1.88632955524711E+00,8.10676926630319E-01,1.36153423239869E+00,1.05296818254494E+00,1.02704013862155E+00,9.28446361934468E-01,9.76471731105498E-01,9.44889575919021E-01,,
RUS,,,,,,,,,,,,,,,,,,,,,,,,,,,,,,,,,,,,1.39430513451220E+00,1.57842976231532E+00,2.06487429329634E+00,2.30091613396416E+00,2.20054062471202E+00,2.16543220677711E+00,2.33546467676468E+00,2.44518106289998E+00,2.29365074472607E+00,2.08483162356701E+00,1.97134415101914E+00,1.94280824012695E+00,1.92644556030821E+00,1.72131174768011E+00,1.93417633649391E+00,,
RWA,,,,,,,,,,,,,,,,,,,,,,,,,,,,,,,,,,,,2.82949075947768E+00,2.75590580315826E+00,2.76098500319556E+00,2.71539898127874E+00,2.54305320832369E+00,2.56789758831361E+00,2.21127051421833E+00,1.99417408042660E+00,2.99560092024169E+00,2.93245120713026E+00,2.91746583404664E+00,5.76599082741958E+00,4.86892254442165E+00,4.91329553320622E+00,5.13177488715058E+00,,
SAU,,,,,,,,,,,,,,,,,,,,,,,,,,,,,,,,,,,,1.42024148113654E+00,1.34455027589882E+00,1.30405429586833E+00,1.39714042785201E+00,1.32317723540269E+00,1.20759921839142E+00,1.25756320252377E+00,1.20709335803319E+00,1.12745785034585E+00,1.04724541573779E+00,9.65716325176939E-01,1.01678457645418E+00,1.12163603145493E+00,1.13859861315460E+00,1.64295999624567E+00,,
SDN,,,,,,,,,,,,,,,,,,,,,,,,,,,,,,,,,,,,2.90905208045835E+00,3.00209156317267E+00,2.90982955786704E+00,3.06222432436052E+00,3.05019107108535E+00,2.44943276440719E+00,2.55089963634704E+00,2.57011622747154E+00,2.70598011549005E+00,2.78520347033085E+00,2.61652828347209E+00,3.24541575126039E+00,4.02388273695069E+00,4.61799892555695E+00,5.31024617658000E+00,,
SEN,,,,,,,,,,,,,,,,,,,,,,,,,,,,,,,,,,,,2.65450729768916E+00,2.60024318692586E+00,2.65528330229628E+00,2.65496635156734E+00,2.74867847099553E+00,2.73596934543727E+00,2.84342470313966E+00,3.11369679366128E+00,3.30831480940984E+00,3.56755892807437E+00,2.41175336348718E+00,2.49524506782788E+00,2.51327840960320E+00,2.53961874703966E+00,2.51050321461300E+00,,
SGP,,,,,,,,,,,,,,,,,,,,,,,,,,,,,,,,,,,,1.48428583217702E+00,1.50167272896941E+00,1.48384155799072E+00,1.45813915758189E+00,1.53306292085954E+00,1.54430919842543E+00,1.69080220290278E+00,2.28201937015058E+00,2.32451997286301E+00,2.14517843174278E+00,2.02430307567839E+00,1.93410501619892E+00,2.07623652850490E+00,2.19973371080789E+00,2.30019554218154E+00,,
SLB,,,,,,,,,,,,,,,,,,,,,,,,,,,,,,,,,,,,5.00491143317230E-01,4.97218358831711E-01,4.96047430830039E-01,4.97682502896871E-01,4.97553017944535E-01,4.35793143521209E-01,4.36579841449604E-01,4.36147186147186E-01,3.78378378378378E-01,3.88944294058983E-01,3.94648185580903E-01,3.97375766120910E-01,3.54624994130576E-01,3.48741848233225E-01,3.35861360425793E-01,,
SLE,,,,,,,,,,,,,,,,,,,,,,,,,,,,,,,,,,,,1.29890610105322E+01,1.32177267689419E+01,1.20156776137145E+01,1.20437983380955E+01,1.41750426564811E+01,1.35490898416770E+01,1.28284591288795E+01,1.27022945395139E+01,5.51244831814971E+00,1.20729996637271E+01,1.26600239718906E+01,9.78793642472550E+00,1.19084226263118E+01,1.24631841545123E+01,1.21887307197259E+01,,
SLV,,,,,,,,,,,,,,,,,,,,,,,,,,,,,,,,,,,,3.92190238578960E+00,4.47189262256777E+00,5.00327064906983E+00,4.74167364836682E+00,4.51195797483014E+00,4.37409423243821E+00,4.26562598165460E+00,4.09388608134650E+00,3.85599500222640E+00,3.66241937423647E+00,3.38250284120866E+00,2.50943517605181E+00,2.53674052403719E+00,2.42916444339938E+00,2.51374484088067E+00,,
SMR,,,,,,,,,,,,,,,,,,,,,,,,,,,,,,,,,,,,1.04596377688964E+00,1.02564017083989E+00,1.11497730711044E+00,1.08308650013831E+00,1.04172463832709E+00,1.05409982640000E+00,1.02770595115258E+00,1.00172787711230E+00,1.04544866836583E+00,1.01820568708765E+00,1.06912322513562E+00,1.05337318531170E+00,1.02798053527981E+00,1.02798053527981E+00,1.02798053527981E+00,,
SRB,,,,,,,,,,,,,,,,,,,,,,,,,,,,,,,,,,,,2.12677036436750E+00,2.12673791328463E+00,2.03373746626115E+00,2.21343056936251E+00,2.21951278891393E+00,2.21072468780096E+00,2.37973248806054E+00,2.41806894675904E+00,2.55163211468770E+00,2.68787070366593E+00,3.02854261076589E+00,3.37680580073881E+00,3.82250828647511E+00,3.76332296403879E+00,3.64078152753108E+00,,
STP,,,,,,,,,,,,,,,,,,,,,,,,,,,,,,,,,,,,7.49407191064248E+00,7.28716429955525E+00,6.73638400724162E+00,5.37043782190405E+00,5.59596356222039E+00,7.53512831471813E+00,9.45589157013130E+00,1.02937012212783E+01,8.46187265680818E+00,8.56293769016376E+00,5.92016383533284E+00,5.44070745309674E+00,5.38463773551006E+00,4.80617612137468E+00,4.18395983664868E+00,,
SUR,,,,,,,,,,,,,,,,,,,,,,,,,,,,,,,,,,,,2.51031013714613E+00,3.91176232507642E+00,4.41046346096684E+00,4.02116402116402E+00,3.71643723615659E+00,4.07588980750388E+00,4.19381696504276E+00,3.59081304293784E+00,3.26641122121135E+00,3.52817085167349E+00,3.33633947130552E+00,3.74721649888593E+00,3.73346328497258E+00,3.70008591034932E+00,3.87464621557471E+00,,
SVK,,,,,,,,,,,,,,,,,,,,,,,,,,,,,,,,,,,,6.96205807754025E-01,7.28885048821502E-01,4.81325992776758E-01,4.75853873811225E-01,5.95892433411244E-01,9.86429141902230E-01,1.06162119405452E+00,1.06130133915836E+00,1.89746872845464E+00,1.89123897841962E+00,1.66700463558164E+00,2.10423213854530E+00,2.26105109251889E+00,2.24785956157016E+00,2.39624619552202E+00,,
SVN,,,,,,,,,,,,,,,,,,,,,,,,,,,,,,,,,,,,1.67082754534063E+00,1.82872360148995E+00,1.95433952207515E+00,1.92396336453093E+00,1.90994121427041E+00,2.15900912844210E+00,2.29976324542589E+00,2.30019240331193E+00,2.21217098267898E+00,2.15233847514535E+00,2.21144748299107E+00,2.13016111814985E+00,2.11944533461389E+00,2.17091420461765E+00,2.27092722787325E+00,,
SWE,,,,,,,,,,,,,,,,,,,,,,,,,,,,,,,,,,,,1.06318199801520E+00,1.07300285299002E+00,1.14167039871801E+00,1.16028549404575E+00,1.17802926687794E+00,1.24440718990821E+00,1.63048711705391E+00,1.66910322828235E+00,1.55052382561676E+00,1.56935485591421E+00,1.59405941318023E+00,1.57457106512364E+00,1.55049793594492E+00,1.58234087674307E+00,1.64968128201399E+00,,
SWZ,,,,,,,,,,,,,,,,,,,,,,,,,,,,,,,,,,,,2.12801759462169E+00,2.34553228461646E+00,2.30575593217800E+00,2.65174611114044E+00,2.34625704932768E+00,2.35056267243036E+00,2.25874182346048E+00,2.13287445285518E+00,2.07473953302537E+00,2.17942626040823E+00,2.25447042842624E+00,2.25236841755292E+00,2.22307324982831E+00,2.28195174180986E+00,2.30578996614182E+00,,
SYC,,,,,,,,,,,,,,,,,,,,,,,,,,,,,,,,,,,,1.21675894554169E+00,1.05053995680346E+00,1.27438507209500E+00,1.30694405397807E+00,1.33834089475107E+00,1.30979193705633E+00,1.18444382112557E+00,1.02852785265492E+00,9.49456813030335E-01,9.12981782987347E-01,7.86694414503615E-01,6.79355993403624E-01,1.11603887263038E+00,1.05068182152140E+00,9.36106091153479E-01,,
SYR,,,,,,,,,,,,,,,,,,,,,,,,,,,,,,,,,,,,3.32764131529401E+00,3.54632000544252E+00,3.42020658047746E+00,3.16277939993219E+00,3.23528980871502E+00,2.93159753259051E+00,2.72071687296203E+00,2.69547082202023E+00,2.66486142083466E+00,2.33711227575724E+00,2.05138675967518E+00,2.03949247851404E+00,1.84107646205993E+00,1.87174981818456E+00,2.02160375769845E+00,,
TCD,,,,,,,,,,,,,,,,,,,,,,,,,,,,,,,,,,,,3.77399461638277E+00,3.44942072013411E+00,3.59339393916807E+00,3.75210350563954E+00,3.87662174677878E+00,3.60916733988467E+00,3.62789410334333E+00,5.52679878352698E+00,3.07239631692399E+00,3.28668909720083E+00,2.78633741828971E+00,2.73354815428563E+00,3.21993595684958E+00,3.16924026406882E+00,3.14202293626443E+00,,
TGO,,,,,,,,,,,,,,,,,,,,,,,,,,,,,,,,,,,,2.99861667506766E+00,3.13768699243346E+00,3.21127347692456E+00,2.95573613117804E+00,3.22720668199423E+00,3.25605058667970E+00,4.05007083031299E+00,4.15834669956817E+00,4.22858516140883E+00,4.68806490256272E+00,4.42086043789926E+00,4.58663182866075E+00,4.48092823263507E+00,4.41850358909366E+00,4.21384059161292E+00,,
THA,,,,,,,,,,,,,,,,,,,,,,,,,,,,,,,,,,,,1.87141164811768E+00,2.02874811954155E+00,1.84063110359949E+00,1.68753136861332E+00,1.57732475697330E+00,1.48902436147273E+00,1.44613055959616E+00,1.34988734356662E+00,1.29695716434956E+00,1.23296812129315E+00,1.26351236371393E+00,1.18616222556566E+00,1.03766900090459E+00,1.04207064012941E+00,1.04011552928850E+00,,
TJK,,,,,,,,,,,,,,,,,,,,,,,,,,,,,,,,,,,,1.81428571428571E+00,1.81038961038961E+00,2.03359073359073E+00,2.41804878048781E+00,2.83643122676580E+00,3.69401231113598E+00,3.63572542901716E+00,3.57357037037037E+00,3.54881109010712E+00,3.35735014508843E+00,3.69303270002075E+00,3.76248025942913E+00,4.16822867853796E+00,3.58050488507370E+00,3.54639159529774E+00,,
TKM,,,,,,,,,,,,,,,,,,,,,,,,,,,,,,,,,,,,1.22307692307692E+00,9.85045161290323E-01,1.36813681368137E+00,1.30832440157199E+00,1.06706556968337E+00,8.24430403982386E-01,8.91693246429067E-01,1.04597701149425E+00,1.08711387930309E+00,1.15740991601192E+00,1.17366476318441E+00,1.11941036357917E+00,1.11044444444444E+00,1.10967653320514E+00,1.07945172246482E+00,,
TMP,,,,,,,,,,,,,,,,,,,,,,,,,,,,,,,,,,,,1.04384955252301E+00,1.04017649633052E+00,1.05047109521028E+00,3.16957042122162E+00,3.16957042159862E+00,2.10626185958254E+00,2.26420222886654E+00,2.42644916982231E+00,2.48138218647602E+00,4.34880751173709E+00,3.88342253521127E+00,3.60966666666667E+00,3.48061032863850E+00,3.65789984260302E+00,3.58272561432604E+00,,
TON,,,,,,,,,,,,,,,,,,,,,,,,,,,,,,,,,,,,1.66338383838384E+00,1.56164383561644E+00,1.49528301886792E+00,1.72687224669604E+00,1.61475409836066E+00,1.56657005539861E+00,1.66730215952026E+00,1.19211792467286E+00,8.29219061127629E-01,1.18928360432560E+00,1.14953403661479E+00,1.31116687578419E+00,1.30784708249497E+00,1.23835125448029E+00,1.31516716993488E+00,,
TTO,,,,,,,,,,,,,,,,,,,,,,,,,,,,,,,,,,,,2.45984642229487E+00,2.34570617959345E+00,2.23302029433074E+00,2.22697438806844E+00,2.36237397528517E+00,2.21196743159188E+00,2.17135211390509E+00,2.35068395807426E+00,2.52560749290961E+00,2.62441967057989E+00,2.66909712743940E+00,2.29419877775738E+00,2.53949409378032E+00,2.38238678751578E+00,2.95261218350251E+00,,
TUN,,,,,,,,,,,,,,,,,,,,,,,,,,,,,,,,,,,,2.97010321369927E+00,2.67771425574321E+00,2.67226050339745E+00,2.72275386729312E+00,2.78184176394293E+00,2.68321451352670E+00,2.69542095564436E+00,2.76972054622560E+00,2.79463129679633E+00,2.98543422457463E+00,2.99029593761258E+00,2.96806767719427E+00,2.93355562567241E+00,2.82951077344760E+00,2.86656698495907E+00,,
TUR,,,,,,,,,,,,,,,,,,,,,,,,,,,,,,,,,,,,7.47484427407762E-01,8.96409326685804E-01,8.90023991951088E-01,1.00850391008931E+00,1.85284332096830E+00,1.83489541456156E+00,1.64762887971227E+00,1.57043563610632E+00,1.49896323725046E+00,1.54409489243032E+00,1.75241781881615E+00,1.83981613705859E+00,1.94193871282220E+00,1.63297683197024E+00,1.67241877785228E+00,,
TUV,,,,,,,,,,,,,,,,,,,,,,,,,,,,,,,,,,,,1.51238263280610E-02,0.00000000000000E+00,0.00000000000000E+00,0.00000000000000E+00,0.00000000000000E+00,4.72813238770686E-02,0.00000000000000E+00,0.00000000000000E+00,3.45303867403315E-02,3.34672021419009E-02,3.44234079173838E-02,3.15955766192733E-02,2.97176820208024E-02,2.83125707814270E-02,2.68889486421081E-02,,
TZA,,,,,,,,,,,,,,,,,,,,,,,,,,,,,,,,,,,,2.25934285208978E+00,2.21311934686467E+00,2.25188875665860E+00,2.42863090892434E+00,2.33048821372725E+00,2.14436513499411E+00,2.04154695120323E+00,1.94133626549694E+00,2.14716093116763E+00,2.27043440734340E+00,2.00270709659757E+00,2.68423459351257E+00,1.30642103840161E+00,1.27230701226026E+00,1.35194908711439E+00,,
UGA,,,,,,,,,,,,,,,,,,,,,,,,,,,,,,,,,,,,3.78785938127076E+00,4.01103326839502E+00,3.66980568158434E+00,3.79052848353405E+00,4.35074160478149E+00,4.81690284352661E+00,5.32633362839692E+00,5.31260559851607E+00,5.25383994146781E+00,5.40446217855586E+00,5.88641871883262E+00,6.82056476889211E+00,6.56283893632298E+00,6.94019774797582E+00,6.66368238502338E+00,,
UKR,,,,,,,,,,,,,,,,,,,,,,,,,,,,,,,,,,,,2.59679454950325E+00,2.19511121025949E+00,2.62680930359227E+00,3.03098396546857E+00,2.91688205351876E+00,2.66038312687389E+00,2.56593668551444E+00,2.72631931207453E+00,2.90804028774798E+00,2.75598321878418E+00,3.09706597587377E+00,2.96076239202975E+00,2.89576832652445E+00,3.02230081482898E+00,3.16587326303641E+00,,
URY,,,,,,,,,,,,,,,,,,,,,,,,,,,,,,,,,,,,8.75034646140225E+00,7.28236344990712E+00,5.78654110243987E+00,6.31999301323625E+00,4.83267555476142E+00,5.10768939428288E+00,5.14454569597152E+00,5.13426437239161E+00,4.76174228416124E+00,4.29375433736549E+00,4.09699863019249E+00,3.88205222034488E+00,3.55404390683083E+00,2.87314899680287E+00,2.75040779318408E+00,,
USA,,,,,,,,,,,,,,,,,,,,,,,,,,,,,,,,,,,,7.47058823529412E+00,7.42807590025566E+00,7.38813127347836E+00,7.55128703809633E+00,7.60122567465864E+00,7.61645856063361E+00,7.85851923509122E+00,8.28627410247210E+00,8.05584805585615E+00,8.01723752097390E+00,8.01719601500831E+00,7.93819368785711E+00,7.94073968581380E+00,7.92049557044831E+00,8.32941704227458E+00,,
UZB,,,,,,,,,,,,,,,,,,,,,,,,,,,,,,,,,,,,1.57292750349255E+00,1.73287161582050E+00,1.90585874717197E+00,3.47583569477688E+00,3.20311134704462E+00,3.19265266003195E+00,3.13524049296490E+00,3.07255387774825E+00,2.83637505079236E+00,2.62293445069733E+00,2.47782350503033E+00,2.78155678843450E+00,2.68761560976648E+00,2.42057230168465E+00,2.74073461338545E+00,,
VCT,,,,,,,,,,,,,,,,,,,,,,,,,,,,,,,,,,,,1.94579560491250E+00,1.84186299031656E+00,2.21157856158930E+00,2.21393631052426E+00,2.23204321235659E+00,2.02110691109315E+00,2.01371445529024E+00,2.00172148047321E+00,1.92384999712858E+00,2.18365603895361E+00,2.16120961239537E+00,2.08280643289644E+00,2.07161091137515E+00,1.99631581491809E+00,2.44934868544086E+00,,
VEN,,,,,,,,,,,,,,,,,,,,,,,,,,,,,,,,,,,,2.42985848756782E+00,2.01088105796566E+00,2.47481930959360E+00,3.04684663079477E+00,3.56104312776563E+00,3.32996278533366E+00,3.53586927451698E+00,3.43178245849510E+00,3.62258384965509E+00,3.26561376423913E+00,3.07826401483405E+00,3.34606245067605E+00,3.10486397205770E+00,2.97031970172352E+00,3.60625743110059E+00,,
VNM,,,,,,,,,,,,,,,,,,,,,,,,,,,,,,,,,,,,3.28606987632582E+00,3.32312036274611E+00,3.20379590782564E+00,3.32738264403061E+00,3.28762695590861E+00,3.80238267752906E+00,3.91397916039020E+00,3.65615814484790E+00,3.66864180327815E+00,4.14769521792115E+00,4.42333839707402E+00,4.43468496656178E+00,4.31189443307803E+00,4.45688999742768E+00,4.42004580951755E+00,,
VUT,,,,,,,,,,,,,,,,,,,,,,,,,,,,,,,,,,,,7.69555677857274E-01,9.59661227320848E-01,9.63946037099494E-01,9.31530086666872E-01,9.48856446186610E-01,9.44893351553681E-01,9.34167621397726E-01,1.00488907901974E+00,1.01067719760129E+00,9.59200282125709E-01,9.32414232191395E-01,7.09559463694933E-01,5.06733358984225E-01,6.48654247605692E-01,7.25995204451757E-01,,
WSM,,,,,,,,,,,,,,,,,,,,,,,,,,,,,,,,,,,,1.48340020766129E+00,1.50000000000000E+00,1.46009915240684E+00,1.55824508320726E+00,1.50433526011561E+00,1.63899868247694E+00,1.46714456391876E+00,1.22146892655367E+00,8.99581589958159E-01,9.67289719626168E-01,9.25423728813559E-01,8.85508406725380E-01,8.93960674157303E-01,8.94612934496607E-01,8.94018887722980E-01,,
YEM,,,,,,,,,,,,,,,,,,,,,,,,,,,,,,,,,,,,3.08027632912635E+00,2.67373719646638E+00,2.55681006571046E+00,2.87221756537492E+00,2.33252398393274E+00,2.06093105814579E+00,2.23580266293334E+00,2.27889992800265E+00,3.10909795669749E+00,3.31369643857259E+00,3.22742905379123E+00,3.59641175258150E+00,3.73247872699106E+00,3.71193828383728E+00,4.05576123872551E+00,,
ZAF,,,,,,,,,,,,,,,,,,,,,,,,,,,,,,,,,,,,4.54479097976527E+00,5.09787896446766E+00,5.05322579846093E+00,5.20041652878915E+00,5.50125302666568E+00,5.03867590940362E+00,5.31697267577224E+00,5.34685283574392E+00,5.36236221074798E+00,5.68327060692929E+00,5.43768146347752E+00,5.12712866536685E+00,4.99865648836797E+00,4.97232053447224E+00,5.09267646120637E+00,,
ZAR,,,,,,,,,,,,,,,,,,,,,,,,,,,,,,,,,,,,3.02391899521755E+00,2.87993015647940E+00,3.32683297081073E+00,3.98239544080900E+00,3.47212427301730E+00,4.03071199694501E+00,3.53697188114077E+00,3.41012161497547E+00,3.47653817775141E+00,3.71873015811143E+00,3.54215063389881E+00,3.64417355334312E+00,3.45606615418769E+00,3.36184911839120E+00,4.68164892983077E+00,,
ZMB,,,,,,,,,,,,,,,,,,,,,,,,,,,,,,,,,,,,2.20558445921205E+00,2.23409044620295E+00,2.15600647744794E+00,2.47000129439305E+00,2.92871522048189E+00,2.75977428296093E+00,2.54438957411953E+00,2.39644586576943E+00,2.52688739555519E+00,2.83296931990061E+00,3.16946433816761E+00,2.48935926947865E+00,2.57691539427899E+00,2.23040633921720E+00,2.24542567285336E+00,,
ZWE,,,,,,,,,,,,,,,,,,,,,,,,,,,,,,,,,,,,3.97585276178575E-03,3.85730314306681E-03,4.75145480361573E-03,4.76452363215765E-03,3.79715802464975E-03,4.72021339247769E-03,4.98934883328604E-03,,,,,,,,,,
