"Country Code",1960,1961,1962,1963,1964,1965,1966,1967,1968,1969,1970,1971,1972,1973,1974,1975,1976,1977,1978,1979,1980,1981,1982,1983,1984,1985,1986,1987,1988,1989,1990,1991,1992,1993,1994,1995,1996,1997,1998,1999,2000,2001,2002,2003,2004,2005,2006,2007,2008,2009,2010,2011ADO,,,,,,,,,,,,,,,,,,,,,,,,,,,,,,,,,,,,7.50000000000000E+01,7.49563191613279E+01,7.44920993227991E+01,6.67610762694720E+01,7.42387778591608E+01,7.55329949238579E+01,7.00000000000000E+01,7.05882352941177E+01,7.10526315789474E+01,7.07317073170732E+01,7.14801985823829E+01,7.33661979704332E+01,7.47814753608540E+01,7.47814753608540E+01,7.47814753608540E+01,,
AFG,,,,,,,,,,,,,,,,,,,,,,,,,,,,,,,,,,,,,,,9.89405016096223E+01,9.89405016096223E+01,9.89405016096223E+01,9.89405016096223E+01,9.89405016096223E+01,9.89405016096223E+01,9.89405016096223E+01,9.89405016096223E+01,9.89405016096223E+01,9.89405016096223E+01,9.89405016096223E+01,9.89405016096223E+01,,
AGO,,,,,,,,,,,,,,,,,,,,,,,,,,,,,,,,,,,,1.00000000000000E+02,1.00000000000000E+02,1.00000000000000E+02,1.00000000000000E+02,1.00000000000000E+02,1.00000000000000E+02,1.00000000000000E+02,1.00000000000000E+02,1.00000000000000E+02,1.00000000000000E+02,1.00000000000000E+02,1.00000000000000E+02,1.00000000000000E+02,1.00000000000000E+02,1.00000000000000E+02,,
ALB,,,,,,,,,,,,,,,,,,,,,,,,,,,,,,,,,,,,9.98147868090706E+01,9.98517745406359E+01,9.98345411247256E+01,9.98591735947349E+01,9.98569744804501E+01,9.98736993043358E+01,9.98242788581465E+01,9.98241301426239E+01,9.43448196249207E+01,9.31774192841970E+01,9.44414576553524E+01,9.38224871425618E+01,9.35553816237845E+01,9.65635444111552E+01,9.97893093094227E+01,,
ARB,,,,,,,,,,,,,,,,,,,,,,,,,,,,,,,,,,,,8.28217134411483E+01,8.35958138524066E+01,8.48705593527383E+01,8.55049445547643E+01,8.52395040702706E+01,8.45756142541088E+01,8.40915608878119E+01,8.46400257880314E+01,8.33255063647688E+01,8.33967247627275E+01,8.30023019810698E+01,8.26197616556089E+01,8.32724199653226E+01,8.22908892466563E+01,8.21618533242828E+01,,
ARE,,,,,,,,,,,,,,,,,,,,,,,,,,,,,,,,,,,,7.10014947683109E+01,6.89404934687954E+01,7.05580500320718E+01,6.93897944308599E+01,6.94152343725235E+01,6.94125554211887E+01,6.94335937500000E+01,6.91398426143332E+01,6.74577537577483E+01,6.77776437392713E+01,6.79071499188080E+01,6.79184913255213E+01,6.63767654007271E+01,6.60435922222950E+01,6.60435922222950E+01,,
ARG,,,,,,,,,,,,,,,,,,,,,,,,,,,,,,,,,,,,6.95249130938586E+01,7.03844071467244E+01,6.32100396301189E+01,6.38247591347028E+01,6.40449438202247E+01,6.32609846479619E+01,6.40116080256587E+01,6.42157975011517E+01,6.44080880011800E+01,6.40619532929248E+01,6.42976517421762E+01,6.41441767104721E+01,6.15108434503441E+01,5.92436405183311E+01,5.92442486907334E+01,,
ARM,,,,,,,,,,,,,,,,,,,,,,,,,,,,,,,,,,,,9.49275119477582E+01,9.35833961598174E+01,9.30530310639421E+01,9.04720937221153E+01,8.09300927434609E+01,8.95475401739472E+01,7.90303702666849E+01,8.57882760838814E+01,9.25651551071456E+01,8.90923259037184E+01,9.57353119756312E+01,9.30505813702547E+01,9.39349282302484E+01,9.34104140988311E+01,9.28753060554718E+01,,
ATG,,,,,,,,,,,,,,,,,,,,,,,,,,,,,,,,,,,,8.71559633027523E+01,8.71369294605809E+01,8.70445344129555E+01,8.71485943775101E+01,8.69565217391304E+01,8.67924528301887E+01,8.69565217391304E+01,8.70967741935484E+01,8.74635568513120E+01,8.77659574468085E+01,8.68486352357320E+01,8.80952380952381E+01,8.65470852017937E+01,8.54166666666667E+01,8.54166666666667E+01,,
AUS,,,,,,,,,,,,,,,,,,,,,,,,,,,,,,,,,,,,4.70100426049909E+01,4.87742204319744E+01,5.09612095505234E+01,5.91582765305484E+01,5.88730490352710E+01,5.96654668642812E+01,5.71009191972665E+01,5.68762367332254E+01,6.00373789210942E+01,6.08230449005676E+01,6.22705807107407E+01,6.24192188795370E+01,6.20187698487427E+01,6.15739211301456E+01,6.38126691959737E+01,,
AUT,,,,,,,,,,,,,,,,,,,,,,,,,,,,,,,,,,,,5.83660281560120E+01,5.91281256915247E+01,6.35554541305340E+01,6.43841610150952E+01,6.51567196221554E+01,6.61020493517357E+01,6.71219512195122E+01,6.69404517453799E+01,6.72177777777778E+01,6.57666836474783E+01,6.59113463446907E+01,7.30709289553925E+01,7.24546082102201E+01,7.22377198302001E+01,7.22377198302001E+01,,
AZE,,,,,,,,,,,,,,,,,,,,,,,,,,,,,,,,,,,,8.60313887019792E+01,8.45799421030157E+01,7.95697962085610E+01,7.97060199017252E+01,7.86431488584863E+01,7.75876856751975E+01,7.80310342190073E+01,7.93281960164983E+01,8.86896483507701E+01,9.10770016497896E+01,9.36245553794724E+01,9.26281778689070E+01,9.19224070412164E+01,9.07876359680659E+01,9.08292419810315E+01,,
BDI,,,,,,,,,,,,,,,,,,,,,,,,,,,,,,,,,,,,7.37979833017248E+01,6.81549002373278E+01,6.87197613618197E+01,6.85414488493478E+01,6.84112307675109E+01,7.24096490701775E+01,7.37567215873406E+01,7.55686772178698E+01,7.65248130336023E+01,6.90706632596285E+01,6.79272891021358E+01,6.44281665129344E+01,6.04850135072262E+01,6.34140504949260E+01,6.60577652037458E+01,,
BEL,,,,,,,,,,,,,,,,,,,,,,,,,,,,,,,,,,,,8.44226579520697E+01,8.64532019704433E+01,8.58323494687131E+01,8.40919037199125E+01,8.20387359836901E+01,8.08947772657450E+01,8.01623254058135E+01,8.14472800537273E+01,7.92216592257237E+01,7.92946283567196E+01,7.84299600232531E+01,7.78184168689985E+01,8.03220380696601E+01,8.09841710616244E+01,8.09841710616244E+01,,
BEN,,,,,,,,,,,,,,,,,,,,,,,,,,,,,,,,,,,,9.98965607116997E+01,9.98940844566704E+01,9.98907598547886E+01,9.98874434287442E+01,9.98865888354186E+01,9.98868745327511E+01,9.98801006917400E+01,9.98799938644798E+01,9.98826821808959E+01,9.95233395037541E+01,9.48708749544176E+01,9.48324476429488E+01,9.38389516485785E+01,9.26315853314736E+01,9.26642379363692E+01,,
BFA,,,,,,,,,,,,,,,,,,,,,,,,,,,,,,,,,,,,9.41970615377514E+01,9.42605262229593E+01,9.42133299509264E+01,9.42721100115318E+01,9.43736682656249E+01,9.43738746936550E+01,9.43726291165532E+01,9.42709589384361E+01,9.22329028180501E+01,9.51470489835377E+01,9.42465813591113E+01,9.12810493493557E+01,9.37298903696077E+01,9.29475085933347E+01,9.29588594701742E+01,,
BGD,,,,,,,,,,,,,,,,,,,,,,,,,,,,,,,,,,,,9.59397389991543E+01,9.59458417398558E+01,9.60129535482972E+01,9.58901994689063E+01,9.62061776485434E+01,9.51280035379097E+01,9.57033056577180E+01,9.60006276602005E+01,9.57202615298088E+01,9.59169571908665E+01,9.62212005372456E+01,9.63111145783414E+01,9.65192648567963E+01,9.65192648567963E+01,9.65192648567964E+01,,
BGR,,,,,,,,,,,,,,,,,,,,,,,,,,,,,,,,,,,,1.00000000000000E+02,1.00000000000000E+02,1.00000000000000E+02,1.00000000000000E+02,1.00000000000000E+02,1.00000000000000E+02,9.99397564439089E+01,9.84615384615385E+01,9.76255786795071E+01,9.73825252316472E+01,9.69450332344474E+01,9.70892475854363E+01,9.68996937502363E+01,9.68996937502363E+01,9.68996937502363E+01,,
BHR,,,,,,,,,,,,,,,,,,,,,,,,,,,,,,,,,,,,7.12494807531670E+01,7.14632391350575E+01,7.14235545219908E+01,7.26527112316932E+01,7.20841869691265E+01,6.86517011412263E+01,6.89033270534929E+01,6.77371341556233E+01,6.73980577457870E+01,6.92870201096892E+01,7.07926320195979E+01,7.02950419922617E+01,6.54133390707017E+01,5.71369814844287E+01,5.78995106729204E+01,,
BHS,,,,,,,,,,,,,,,,,,,,,,,,,,,,,,,,,,,,4.02413058907026E+01,4.02815013404826E+01,4.02654867256637E+01,4.02701043585021E+01,4.02527075812274E+01,4.02453271028037E+01,4.02634593356243E+01,4.02893711741792E+01,4.05405405405405E+01,4.16233090530697E+01,4.11361410381978E+01,4.03568394222600E+01,4.06698564593301E+01,4.20168067226891E+01,4.23905533429084E+01,,
BIH,,,,,,,,,,,,,,,,,,,,,,,,,,,,,,,,,,,,1.00000000000000E+02,1.00000000000000E+02,1.00000000000000E+02,1.00000000000000E+02,1.00000000000000E+02,1.00000000000000E+02,1.00000000000000E+02,1.00000000000000E+02,1.00000000000000E+02,9.99979054953222E+01,9.99981572490773E+01,9.99983826692429E+01,1.00000000000000E+02,1.00000000000000E+02,1.00000000000000E+02,,
BLR,,,,,,,,,,,,,,,,,,,,,,,,,,,,,,,,,,,,6.45061630429032E+01,5.98436505033262E+01,4.97816685830858E+01,5.83346410136291E+01,5.62170521089515E+01,5.71323263404708E+01,6.42604317199861E+01,6.94207078704094E+01,6.96440926662604E+01,6.83230971781983E+01,6.89455656349597E+01,6.94265799180432E+01,7.01647723334430E+01,7.14131958095590E+01,6.74068221961690E+01,,
BLZ,,,,,,,,,,,,,,,,,,,,,,,,,,,,,,,,,,,,1.00000000000000E+02,1.00000000000000E+02,1.00000000000000E+02,1.00000000000000E+02,1.00000000000000E+02,1.00000000000000E+02,1.00000000000000E+02,1.00000000000000E+02,1.00000000000000E+02,1.00000000000000E+02,1.00000000000000E+02,1.00000000000000E+02,1.00000000000000E+02,1.00000000000000E+02,1.00000000000000E+02,,
BOL,,,,,,,,,,,,,,,,,,,,,,,,,,,,,,,,,,,,7.67826089964008E+01,7.78761654109071E+01,8.37534366640534E+01,8.01808903254684E+01,8.38270616493195E+01,8.15726767275616E+01,7.79145546705286E+01,7.88517441860465E+01,8.50507329558064E+01,8.29840734645718E+01,8.36651162495114E+01,8.25574696489881E+01,8.28002414001207E+01,8.15892147688211E+01,8.18686842066900E+01,,
BRA,,,,,,,,,,,,,,,,,,,,,,,,,,,,,,,,,,,,6.79813084112150E+01,6.86354378818737E+01,6.68859649122807E+01,6.68921060974321E+01,6.70908039329092E+01,6.35767103463315E+01,6.25926807388829E+01,6.25233613102722E+01,6.26068633353402E+01,6.26433411963621E+01,6.29592594708874E+01,6.23918423073641E+01,5.88058586274465E+01,5.70623458964424E+01,5.70623473853943E+01,,
BRB,,,,,,,,,,,,,,,,,,,,,,,,,,,,,,,,,,,,7.57894736842105E+01,7.58354755784062E+01,7.58507135016465E+01,7.64344262295082E+01,7.71428571428571E+01,7.72727272727273E+01,7.69230769230769E+01,7.71929824561404E+01,7.90697674418605E+01,8.00000000000000E+01,8.05369127516778E+01,8.12500000000000E+01,8.07017543859649E+01,8.05555555555556E+01,8.05555555555556E+01,,
BRN,,,,,,,,,,,,,,,,,,,,,,,,,,,,,,,,,,,,5.61497883697171E-01,5.61496895560369E-01,5.61497078622554E-01,5.61497326203209E-01,3.78873239436620E-01,6.11666666666667E-01,4.37603442568686E-01,4.65508253692441E-01,5.39219073946095E-01,5.39161690532785E-01,5.39183491875172E-01,5.39152798292633E-01,6.31309470656794E-01,7.46275799325035E-01,7.46275805932494E-01,,
BTN,,,,,,,,,,,,,,,,,,,,,,,,,,,,,,,,,,,,1.00000000000000E+02,1.00000000000000E+02,1.00000000000000E+02,1.00000000000000E+02,1.00000000000000E+02,1.00000000000000E+02,1.00000000000000E+02,1.00000000000000E+02,1.00000000000000E+02,1.00000000000000E+02,1.00000000000000E+02,1.00000000000000E+02,1.00000000000000E+02,1.00000000000000E+02,1.00000000000000E+02,,
BWA,,,,,,,,,,,,,,,,,,,,,,,,,,,,,,,,,,,,3.73352294754499E+01,3.44652367770755E+01,3.46452030869822E+01,3.66444738180907E+01,3.62282471404838E+01,3.66990291262136E+01,3.48103560809341E+01,3.10268483582276E+01,2.95770564550595E+01,3.15426414007394E+01,3.14669080953550E+01,3.23913905202465E+01,3.30605697781240E+01,3.30588666267371E+01,3.39565959400274E+01,,
CAF,,,,,,,,,,,,,,,,,,,,,,,,,,,,,,,,,,,,9.49772815835795E+01,9.49772815835795E+01,9.49772815835795E+01,9.49772815835795E+01,9.49772815835795E+01,9.49772815835795E+01,9.49772815835795E+01,9.49772815835795E+01,9.49772815835795E+01,9.49772815835795E+01,9.49772815835795E+01,9.49772815835795E+01,9.49772815835795E+01,9.49772815835795E+01,9.49772815835795E+01,,
CAN,,,,,,,,,,,,,,,,,,,,,,,,,,,,,,,,,,,,5.52040283121942E+01,5.52136435258133E+01,5.61170327536357E+01,5.48808545603944E+01,5.40903029148409E+01,5.36741780045352E+01,5.07259938048529E+01,4.98724943660301E+01,5.09924305515482E+01,5.09924305515482E+01,5.09924305515482E+01,5.20540705532419E+01,5.12766293397652E+01,5.09499177424720E+01,4.95837170042971E+01,,
CHE,,,,,,,,,,,,,,,,,,,,,,,,,,,,,,,,,,,,7.12651291624014E+01,6.91816156642045E+01,7.19340033695463E+01,7.24991691591891E+01,7.43980477223427E+01,7.39918298942076E+01,7.38003056546103E+01,7.46804473736769E+01,7.59253463290254E+01,7.65723186373601E+01,7.55616245540053E+01,7.53348292482637E+01,7.50387600237963E+01,7.52883239329910E+01,7.49755102040816E+01,,
CHL,,,,,,,,,,,,,,,,,,,,,,,,,,,,,,,,,,,,5.20075766761928E+01,4.64481256650790E+01,4.89683878144175E+01,4.78679990711814E+01,4.77930520138217E+01,4.87227147632817E+01,4.89769811634859E+01,4.97343534012879E+01,6.35906215581519E+01,6.46261040869383E+01,6.49880282131707E+01,6.55691870958228E+01,6.44282212119195E+01,6.51701835496440E+01,6.46040060334579E+01,,
CHN,,,,,,,,,,,,,,,,,,,,,,,,,,,,,,,,,,,,9.37385618758337E+01,9.48212763615255E+01,9.47676510842427E+01,9.42565305549456E+01,9.44807140486749E+01,9.55647286556070E+01,9.30748106407093E+01,8.99572381831640E+01,8.76089734720026E+01,8.64776400919290E+01,8.52567620319192E+01,8.30855718599571E+01,8.25570927084548E+01,8.25570924948655E+01,8.25570930943160E+01,,
CIV,,,,,,,,,,,,,,,,,,,,,,,,,,,,,,,,,,,,9.84064350670332E+01,9.84777812480633E+01,9.86004651854564E+01,9.86760006917666E+01,9.84119709525716E+01,9.81134914291006E+01,9.77144891769873E+01,9.74599615686278E+01,9.76255759022518E+01,9.78635671816625E+01,9.79674547674361E+01,9.82063696495043E+01,9.13363116757604E+01,9.10396462290991E+01,9.87985911629946E+01,,
CMR,,,,,,,,,,,,,,,,,,,,,,,,,,,,,,,,,,,,9.37604390360296E+01,9.53654736199816E+01,9.45653167715390E+01,9.45332282892589E+01,9.44871692018626E+01,9.44209098013863E+01,9.44518619279314E+01,9.44533835689126E+01,9.45368935147670E+01,9.44878913504052E+01,9.45241680946487E+01,9.44982469816615E+01,9.45389242349059E+01,9.51031851977655E+01,9.49411906329641E+01,,
COG,,,,,,,,,,,,,,,,,,,,,,,,,,,,,,,,,,,,1.00000000000000E+02,1.00000000000000E+02,1.00000000000000E+02,1.00000000000000E+02,1.00000000000000E+02,1.00000000000000E+02,1.00000000000000E+02,1.00000000000000E+02,1.00000000000000E+02,1.00000000000000E+02,1.00000000000000E+02,1.00000000000000E+02,1.00000000000000E+02,1.00000000000000E+02,1.00000000000000E+02,,
COL,,,,,,,,,,,,,,,,,,,,,,,,,,,,,,,,,,,,8.47079854750400E+01,8.53757890430759E+01,8.59047184262882E+01,8.03441033045350E+01,7.23616463302686E+01,5.90361380576798E+01,5.90975612852587E+01,5.58648716054159E+01,4.71711572207586E+01,4.74051468141243E+01,4.75743038685713E+01,4.74051472683826E+01,4.86803285533270E+01,4.87402850661747E+01,5.00223507870056E+01,,
COM,,,,,,,,,,,,,,,,,,,,,,,,,,,,,,,,,,,,1.00000000000000E+02,1.00000000000000E+02,1.00000000000000E+02,1.00000000000000E+02,1.00000000000000E+02,1.00000000000000E+02,1.00000000000000E+02,1.00000000000000E+02,1.00000000000000E+02,1.00000000000000E+02,1.00000000000000E+02,1.00000000000000E+02,1.00000000000000E+02,1.00000000000000E+02,1.00000000000000E+02,,
CPV,,,,,,,,,,,,,,,,,,,,,,,,,,,,,,,,,,,,9.98095238095238E+01,9.97086900666226E+01,9.97319322324684E+01,9.98451161241859E+01,9.97229916897507E+01,9.96216897856242E+01,9.95266272189349E+01,9.97746575572039E+01,9.96835642178955E+01,9.96754225130935E+01,9.96784354660767E+01,9.97341945657256E+01,9.97001865319532E+01,9.97001865319532E+01,9.97001865319532E+01,,
CRI,,,,,,,,,,,,,,,,,,,,,,,,,,,,,,,,,,,,8.76770397586922E+01,8.74965382129999E+01,8.71189732424937E+01,8.75763567149644E+01,8.82256686461632E+01,8.81652607336157E+01,8.98758156177647E+01,9.08978927829622E+01,8.96851349754118E+01,9.05009908992969E+01,8.45247161610704E+01,8.66769551007202E+01,8.77195919202644E+01,8.83307157202961E+01,8.75826527576631E+01,,
CUB,,,,,,,,,,,,,,,,,,,,,,,,,,,,,,,,,,,,9.30232558139535E+01,9.29368029739777E+01,9.28571428571429E+01,9.21052631578947E+01,9.20245398773006E+01,9.18918918918919E+01,9.13461538461538E+01,9.11504424778761E+01,9.12010558732952E+01,9.06914893617021E+01,9.09725071809602E+01,9.26751592356688E+01,9.27051671732523E+01,9.25373134328358E+01,1.00000000000000E+02,,
CYP,,,,,,,,,,,,,,,,,,,,,,,,,,,,,,,,,,,,9.86069803503461E+01,9.84212660289875E+01,9.81950933802697E+01,9.81586630336737E+01,9.51571309015984E+01,9.57366811701077E+01,9.57337214647164E+01,9.59124935380896E+01,8.56200863359979E+01,8.54936135776112E+01,8.56614805859630E+01,8.51465407704774E+01,8.65133462465158E+01,8.67312381933711E+01,8.67312381933711E+01,,
CZE,,,,,,,,,,,,,,,,,,,,,,,,,,,,,,,,,,,,1.00000000000000E+02,1.00000000000000E+02,1.00000000000000E+02,1.00000000000000E+02,1.00000000000000E+02,1.00000000000000E+02,1.00000000000000E+02,1.00000000000000E+02,9.76741012596619E+01,9.54197353923098E+01,8.42885670371099E+01,8.51081176307950E+01,8.90328067900834E+01,9.01477316564491E+01,9.01477316564491E+01,,
DEU,,,,,,,,,,,,,,,,,,,,,,,,,,,,,,,,,,,,5.24790482330188E+01,5.29215987034411E+01,5.36247791401189E+01,5.53322138399459E+01,5.45653442240373E+01,5.48150740870377E+01,5.50550550550551E+01,5.49416573134834E+01,5.26771031330756E+01,5.51463681903569E+01,5.47231083688323E+01,5.51244387783382E+01,5.46865212177617E+01,5.38719549093172E+01,5.38719549093172E+01,,
DJI,,,,,,,,,,,,,,,,,,,,,,,,,,,,,,,,,,,,9.82980043707913E+01,9.82622968084077E+01,9.83597073593709E+01,9.83420979275037E+01,9.84004393421255E+01,9.83633685640084E+01,9.84578107171854E+01,9.86322123778379E+01,9.86322123778379E+01,9.86322123778379E+01,9.86322123778378E+01,9.86322123778379E+01,9.86322123778379E+01,9.86322123778379E+01,9.86322123778379E+01,,
DMA,,,,,,,,,,,,,,,,,,,,,,,,,,,,,,,,,,,,9.43396226415094E+01,9.11504424778761E+01,8.97435897435898E+01,8.92561983471074E+01,8.91472868217054E+01,8.88888888888889E+01,8.60139860139860E+01,8.56164383561644E+01,8.37662337662338E+01,8.13664596273292E+01,8.26086956521739E+01,8.10810810810811E+01,8.31775700934579E+01,8.42105263157895E+01,8.42105263157895E+01,,
DNK,,,,,,,,,,,,,,,,,,,,,,,,,,,,,,,,,,,,9.32582717413829E+01,9.23071941980185E+01,9.21284053871226E+01,9.19548139228167E+01,9.04194236342757E+01,9.09623163721524E+01,9.19537910507996E+01,9.27683836070367E+01,9.06506747773856E+01,9.04867649671345E+01,9.06597286343178E+01,9.00810203754211E+01,8.90236744277049E+01,8.90236744277050E+01,8.90236744277049E+01,,
DOM,,,,,,,,,,,,,,,,,,,,,,,,,,,,,,,,,,,,7.21085217910255E+01,7.76025203684578E+01,7.16349439784060E+01,7.12563796165238E+01,7.05256552676926E+01,7.19259773513143E+01,7.26859820068959E+01,7.06005846132211E+01,7.01523880499618E+01,6.87885012095974E+01,6.66504474323764E+01,6.42635446647931E+01,6.52923775876471E+01,6.63498116482974E+01,6.57487225040278E+01,,
DZA,,,,,,,,,,,,,,,,,,,,,,,,,,,,,,,,,,,,9.70402717127608E+01,9.64851826326671E+01,9.67184801381693E+01,9.71169141039236E+01,9.70017636684303E+01,9.67238012787653E+01,9.60123499161856E+01,9.57167847140093E+01,9.53402455011322E+01,9.45781429307965E+01,9.46179534931663E+01,9.46232756196223E+01,9.46831466181931E+01,9.46831466181931E+01,9.46831466181931E+01,,
EAP,,,,,,,,,,,,,,,,,,,,,,,,,,,,,,,,,,,,8.75669919851340E+01,8.88076089137450E+01,8.98825077367473E+01,9.12456595786489E+01,9.08754218983052E+01,9.22467921189306E+01,9.05519413795227E+01,8.77797640609892E+01,8.56792777673179E+01,8.49030416451185E+01,8.38259782836510E+01,8.17826242474107E+01,8.13807463992133E+01,8.15765871657115E+01,8.17927795811984E+01,,
EAS,,,,,,,,,,,,,,,,,,,,,,,,,,,,,,,,,,,,8.51075044623560E+01,8.52284511951339E+01,8.58843533461098E+01,8.73361443841698E+01,8.72023066023449E+01,8.75176146000098E+01,8.66422755917058E+01,8.68520301948353E+01,8.25734206011597E+01,8.24380708934543E+01,8.17426184577947E+01,8.03537292628991E+01,7.99581200349297E+01,7.98704481649691E+01,8.03300503677210E+01,,
ECA,,,,,,,,,,,,,,,,,,,,,,,,,,,,,,,,,,,,8.10677380607654E+01,7.92414930683668E+01,7.68254677202840E+01,8.25761965240392E+01,8.04481293931597E+01,8.03275612015542E+01,7.97220952614629E+01,7.96538113176430E+01,8.10154832681642E+01,8.26223210085740E+01,8.33349766682767E+01,8.27653363976533E+01,8.30552950254073E+01,8.26284900137767E+01,8.24316010040658E+01,,
ECS,,,,,,,,,,,,,,,,,,,,,,,,,,,,,,,,,,,,6.53590843563317E+01,6.48008592711590E+01,6.64702278226135E+01,6.68280132620605E+01,6.62776473808061E+01,6.58528878952167E+01,6.56983056489605E+01,6.53725666349776E+01,6.45912140048700E+01,6.53099901478933E+01,6.53006177192216E+01,6.67998849505950E+01,6.71772702942648E+01,6.72240958605478E+01,6.71570413396997E+01,,
ECU,,,,,,,,,,,,,,,,,,,,,,,,,,,,,,,,,,,,7.29232777099168E+01,7.25830152581718E+01,7.42941273052243E+01,7.89337599459238E+01,8.42000481883961E+01,8.52874584080017E+01,8.70387696096872E+01,8.56801978425433E+01,8.41819916147541E+01,8.52269147551314E+01,8.52472352547614E+01,8.55349919213814E+01,8.59329813939312E+01,8.72902534808997E+01,8.72924483726931E+01,,
EGY,,,,,,,,,,,,,,,,,,,,,,,,,,,,,,,,,,,,8.96350960398388E+01,9.28836831052742E+01,9.51996674407227E+01,9.60405170914420E+01,9.68435094945803E+01,9.74211181695647E+01,9.79657170622595E+01,9.83855585891825E+01,9.84388179321668E+01,9.84297434015712E+01,9.83735239100015E+01,9.82354336484481E+01,9.80310830506448E+01,9.77021953159384E+01,9.77243345166144E+01,,
EMU,,,,,,,,,,,,,,,,,,,,,,,,,,,,,,,,,,,,6.12226855493532E+01,6.06983629009798E+01,6.16826947001333E+01,6.16139893332108E+01,6.12952718468330E+01,6.10820313802801E+01,6.04777079141816E+01,6.03064933363161E+01,5.93086673521648E+01,5.96185053311057E+01,5.94054280353382E+01,6.14211895145777E+01,6.13195964097038E+01,6.14642753995994E+01,6.16893009838356E+01,,
ERI,,,,,,,,,,,,,,,,,,,,,,,,,,,,,,,,,,,,1.00000000000000E+02,1.00000000000000E+02,1.00000000000000E+02,1.00000000000000E+02,1.00000000000000E+02,1.00000000000000E+02,1.00000000000000E+02,1.00000000000000E+02,1.00000000000000E+02,1.00000000000000E+02,1.00000000000000E+02,1.00000000000000E+02,1.00000000000000E+02,1.00000000000000E+02,1.00000000000000E+02,,
ESP,,,,,,,,,,,,,,,,,,,,,,,,,,,,,,,,,,,,8.46037572878428E+01,8.39062819725803E+01,8.38836477987421E+01,8.36126799052651E+01,8.33094616227146E+01,8.30877791563275E+01,8.30890642615558E+01,8.26075499044733E+01,7.82864776312769E+01,7.80000478182221E+01,7.72651089132104E+01,7.60399252846870E+01,7.61767867122982E+01,7.70112961426281E+01,7.70112961426281E+01,,
EST,,,,,,,,,,,,,,,,,,,,,,,,,,,,,,,,,,,,1.00000000000000E+02,9.88505747126437E+01,9.78723404255319E+01,9.66169820800536E+01,7.44360902255639E+01,8.85017421602788E+01,8.89478337754200E+01,8.75739644970414E+01,8.82917466410749E+01,9.55645161290323E+01,8.95209580838323E+01,9.59606986899563E+01,9.40748096656736E+01,9.52156122127793E+01,9.73750790638836E+01,,
ETH,,,,,,,,,,,,,,,,,,,,,,,,,,,,,,,,,,,,7.83290654643348E+01,7.85656731966640E+01,7.85321559711763E+01,7.94873320634684E+01,7.95997878946090E+01,7.91704000840245E+01,8.05744788785869E+01,8.13633757133027E+01,8.16092268953293E+01,8.13588621924496E+01,8.06291538653793E+01,8.07015526688961E+01,8.03931329832470E+01,7.99560610045274E+01,8.00646384995035E+01,,
EUU,,,,,,,,,,,,,,,,,,,,,,,,,,,,,,,,,,,,6.36311726337764E+01,6.30748798555672E+01,6.48264896099055E+01,6.49505785017323E+01,6.43866580949996E+01,6.37204685832879E+01,6.36929627619536E+01,6.31781616846512E+01,6.20949568887431E+01,6.26819987024660E+01,6.23628248355689E+01,6.38657502329430E+01,6.40679918239140E+01,6.41466127413601E+01,6.41764381691842E+01,,
FIN,,,,,,,,,,,,,,,,,,,,,,,,,,,,,,,,,,,,7.80510879848628E+01,7.80803571428571E+01,7.75884665792923E+01,7.75762572135202E+01,7.77176015473888E+01,7.69620253164557E+01,7.68569463548831E+01,7.63718528082634E+01,7.94694296572341E+01,7.93471906051444E+01,7.92651232351704E+01,7.85939790868158E+01,7.82798951122500E+01,7.53015075376884E+01,7.53015075376884E+01,,
FJI,,,,,,,,,,,,,,,,,,,,,,,,,,,,,,,,,,,,6.29371165721020E+01,6.29439112871287E+01,6.29291338582677E+01,6.29291338582677E+01,6.29472140762463E+01,6.29383561643836E+01,6.29309769923308E+01,6.29407894736842E+01,6.29382407985028E+01,6.29402895054282E+01,6.35090802577622E+01,6.16527988942640E+01,6.08193883439123E+01,6.27601099332548E+01,6.12283068320811E+01,,
FRA,,,,,,,,,,,,,,,,,,,,,,,,,,,,,,,,,,,,3.74289688058812E+01,3.58299050328732E+01,3.53288875416793E+01,3.47381073796168E+01,3.48583648857103E+01,3.44403608419646E+01,3.47870279198297E+01,3.42768339418812E+01,3.29594629549238E+01,3.23593877909111E+01,3.26234099615055E+01,3.38664197580957E+01,3.37876947921835E+01,3.45916513548835E+01,3.45916513548835E+01,,
FSM,,,,,,,,,,,,,,,,,,,,,,,,,,,,,,,,,,,,1.00000000000000E+02,1.00000000000000E+02,1.00000000000000E+02,1.00000000000000E+02,1.00000000000000E+02,1.00000000000000E+02,1.00000000000000E+02,1.00000000000000E+02,1.00000000000000E+02,1.00000000000000E+02,9.65034965034965E+01,9.68916518650089E+01,9.40585009140768E+01,9.75414874001229E+01,9.74897582135111E+01,,
GAB,,,,,,,,,,,,,,,,,,,,,,,,,,,,,,,,,,,,1.00000000000000E+02,1.00000000000000E+02,1.00000000000000E+02,1.00000000000000E+02,1.00000000000000E+02,1.00000000000000E+02,1.00000000000000E+02,1.00000000000000E+02,1.00000000000000E+02,1.00000000000000E+02,1.00000000000000E+02,1.00000000000000E+02,1.00000000000000E+02,1.00000000000000E+02,1.00000000000000E+02,,
GBR,,,,,,,,,,,,,,,,,,,,,,,,,,,,,,,,,,,,6.75862922182358E+01,6.44422529037914E+01,7.17178254437870E+01,7.19570302347743E+01,7.04762669665087E+01,6.45722300140253E+01,6.69620083232649E+01,6.55715763217132E+01,6.40685055392268E+01,6.61746685975270E+01,6.49725347981441E+01,6.27366143861547E+01,6.47351849241036E+01,6.37322812973072E+01,6.37322812973072E+01,,
GEO,,,,,,,,,,,,,,,,,,,,,,,,,,,,,,,,,,,,1.00000000000000E+02,1.00000000000000E+02,9.99324342585336E+01,9.98883845524220E+01,9.98288538685872E+01,9.94252873563218E+01,9.87427972760608E+01,9.94415807560137E+01,9.95024875621891E+01,9.89603823011872E+01,9.90328820116054E+01,9.84687868080094E+01,9.79005656919767E+01,9.62806993019212E+01,9.40996948118006E+01,,
GHA,,,,,,,,,,,,,,,,,,,,,,,,,,,,,,,,,,,,7.89208528922196E+01,7.87774496892793E+01,7.94954381335866E+01,7.91828840049536E+01,7.96620724884151E+01,7.95587096238914E+01,7.94833525196128E+01,7.94400053503830E+01,7.93456249171983E+01,7.92709714299379E+01,7.90735642083237E+01,7.74566237111275E+01,7.86150377766579E+01,7.88014983682153E+01,7.85916851350683E+01,,
GIN,,,,,,,,,,,,,,,,,,,,,,,,,,,,,,,,,,,,9.94561989327034E+01,9.95064161248897E+01,9.94967552980319E+01,9.94953746082353E+01,9.94882367810382E+01,9.94976515437964E+01,9.95183992772055E+01,9.94957223965984E+01,9.93556529468644E+01,9.93650583883441E+01,9.93658629895802E+01,9.93725020101658E+01,9.93826473305750E+01,9.93776064812037E+01,9.93800492368309E+01,,
GMB,,,,,,,,,,,,,,,,,,,,,,,,,,,,,,,,,,,,5.40158400189336E+01,5.40143474111245E+01,5.38396809257994E+01,5.35788332086923E+01,5.35902820115215E+01,5.37120548591210E+01,5.36796593168706E+01,5.37204230313779E+01,5.11799082865043E+01,4.82291259293013E+01,4.81633382423743E+01,4.86709666425067E+01,4.84112656998418E+01,4.84178692026810E+01,4.85210059341624E+01,,
GNB,,,,,,,,,,,,,,,,,,,,,,,,,,,,,,,,,,,,5.87034683785150E+01,5.79037914811254E+01,5.68545264147225E+01,6.01879054220892E+01,5.75487292920405E+01,5.86478326504205E+01,6.15552659139445E+01,5.97384699351453E+01,5.71016351793366E+01,5.19815474273836E+01,5.13671952564388E+01,5.65399737876802E+01,5.35863907579028E+01,5.49369863013699E+01,5.59555215431709E+01,,
GNQ,,,,,,,,,,,,,,,,,,,,,,,,,,,,,,,,,,,,1.00000000000000E+02,1.00000000000000E+02,9.43394486954918E+01,9.57788520813731E+01,9.32319516227528E+01,8.95301493730329E+01,8.66813163254368E+01,8.80445237292734E+01,8.85998404376567E+01,8.99828433903367E+01,8.74625181842472E+01,8.20350093005783E+01,8.09897662260445E+01,8.08854330313594E+01,8.34751530222233E+01,,
GRC,,,,,,,,,,,,,,,,,,,,,,,,,,,,,,,,,,,,9.57712117104906E+01,9.56565656565657E+01,9.57073621047773E+01,9.58324563249842E+01,9.58728278041074E+01,9.45039590125757E+01,9.41490413125124E+01,9.44537253591714E+01,9.45422250928468E+01,9.47672649832674E+01,9.50268817204301E+01,9.48206655444775E+01,9.45282801520562E+01,9.45282801520562E+01,9.45282801520562E+01,,
GRD,,,,,,,,,,,,,,,,,,,,,,,,,,,,,,,,,,,,1.00000000000000E+02,1.00000000000000E+02,1.00000000000000E+02,1.00000000000000E+02,1.00000000000000E+02,1.00000000000000E+02,1.00000000000000E+02,1.00000000000000E+02,1.00000000000000E+02,1.00000000000000E+02,9.52380952380952E+01,9.64285714285714E+01,9.71731448763251E+01,9.74440894568690E+01,9.76901079557460E+01,,
GTM,,,,,,,,,,,,,,,,,,,,,,,,,,,,,,,,,,,,9.24491529658688E+01,9.23767210662913E+01,9.22415477819035E+01,9.27961838035255E+01,8.55744539439896E+01,8.97010232893446E+01,8.99691997334246E+01,9.05297484360442E+01,9.18612615978579E+01,8.77789984191206E+01,8.75908876441197E+01,9.08077756546431E+01,9.00005264728077E+01,8.93271973777781E+01,8.92213760554037E+01,,
GUY,,,,,,,,,,,,,,,,,,,,,,,,,,,,,,,,,,,,1.00000000000000E+02,1.00000000000000E+02,1.00000000000000E+02,1.00000000000000E+02,1.00000000000000E+02,1.00000000000000E+02,1.00000000000000E+02,1.00000000000000E+02,1.00000000000000E+02,1.00000000000000E+02,1.00000000000000E+02,1.00000000000000E+02,1.00000000000000E+02,1.00000000000000E+02,1.00000000000000E+02,,
HIC,,,,,,,,,,,,,,,,,,,,,,,,,,,,,,,,,,,,4.17979432598061E+01,4.09245208122570E+01,4.05254964883555E+01,3.99429040029592E+01,3.94110785395432E+01,3.83597838155175E+01,3.68772248088872E+01,3.63118312619367E+01,3.78133602703922E+01,3.83151726507633E+01,3.78443920703976E+01,3.76772851080928E+01,3.83452140248752E+01,3.91050183377029E+01,3.82849272664205E+01,,
HND,,,,,,,,,,,,,,,,,,,,,,,,,,,,,,,,,,,,8.56023102310231E+01,8.55726167626359E+01,8.56770348295772E+01,8.55027469462648E+01,8.62470862470862E+01,8.68865647626710E+01,8.71143375680581E+01,8.72410032715376E+01,8.40997259976669E+01,8.28271673108780E+01,8.29063512557483E+01,8.33292002801156E+01,8.33528919341763E+01,8.33968236560011E+01,8.34533214720304E+01,,
HPC,,,,,,,,,,,,,,,,,,,,,,,,,,,,,,,,,,,,8.74703844937274E+01,8.76589423865134E+01,8.71902410008781E+01,8.74030054527419E+01,8.58812451705933E+01,8.46117789762651E+01,8.38602404357394E+01,8.51737012579881E+01,8.56619595250710E+01,8.57095220519196E+01,8.43907442988571E+01,8.27082330581341E+01,8.45020607250886E+01,8.51092359018999E+01,8.52124765888462E+01,,
HRV,,,,,,,,,,,,,,,,,,,,,,,,,,,,,,,,,,,,1.00000000000000E+02,1.00000000000000E+02,1.00000000000000E+02,1.00000000000000E+02,1.00000000000000E+02,1.00000000000000E+02,8.60486940842060E+01,9.33817614168461E+01,9.59230596260375E+01,9.59230596260375E+01,9.59230596260375E+01,9.59230596260375E+01,9.59230596260375E+01,9.59230596260375E+01,9.59230596260375E+01,,
HTI,,,,,,,,,,,,,,,,,,,,,,,,,,,,,,,,,,,,7.70440251572327E+01,8.32885545405696E+01,8.62493839329719E+01,7.35470941883767E+01,7.28368017524644E+01,6.97085663821018E+01,7.17732884399551E+01,7.11513244164700E+01,7.42671738643992E+01,7.59395506064824E+01,7.30828615542975E+01,5.45178613121644E+01,5.74247144340602E+01,6.08187134502924E+01,6.08187134502924E+01,,
HUN,,,,,,,,,,,,,,,,,,,,,,,,,,,,,,,,,,,,1.00000000000000E+02,1.00000000000000E+02,1.00000000000000E+02,8.84425405663978E+01,8.99613382578457E+01,8.97741368710918E+01,8.92670936329367E+01,8.82207844200793E+01,8.85010622647991E+01,8.62974276302229E+01,8.71992244213620E+01,8.48930809825117E+01,8.37953798356162E+01,8.36202243382583E+01,8.36202243382583E+01,,
IDN,,,,,,,,,,,,,,,,,,,,,,,,,,,,,,,,,,,,7.25085382593351E+01,7.25525830538673E+01,7.26115619117731E+01,7.31518372562209E+01,7.34569731321194E+01,7.28958959602852E+01,7.35170320075405E+01,7.21687287041687E+01,7.41094842049836E+01,7.38799144100094E+01,6.53109191019211E+01,6.83951788862019E+01,6.91631628079226E+01,7.03475551916229E+01,7.31523471166674E+01,,
IND,,,,,,,,,,,,,,,,,,,,,,,,,,,,,,,,,,,,9.14214450200953E+01,9.10290546133482E+01,9.19709541535030E+01,9.19064503842177E+01,9.13313457366252E+01,9.22098220663463E+01,9.25448294076755E+01,9.23391847855482E+01,9.17679189646470E+01,8.95537041492128E+01,8.79135144512484E+01,8.26474704177504E+01,7.58832563510062E+01,7.43785299821159E+01,7.43785299821159E+01,,
IRL,,,,,,,,,,,,,,,,,,,,,,,,,,,,,,,,,,,,5.64583333333333E+01,5.52044609665428E+01,6.17121354656632E+01,5.78553615960100E+01,6.13095238095238E+01,6.16403785488959E+01,6.25594923320994E+01,6.15808823529412E+01,6.77604593929450E+01,6.79339477726574E+01,6.62114845938375E+01,6.12408058842341E+01,6.07400722021661E+01,6.24215980365421E+01,7.29313465221891E+01,,
IRN,,,,,,,,,,,,,,,,,,,,,,,,,,,,,,,,,,,,9.70143762224690E+01,9.72242645307548E+01,9.65230313581149E+01,9.69306245223176E+01,9.62168156458636E+01,9.62338027076063E+01,9.53824025414919E+01,9.55359988557584E+01,9.48572031815355E+01,9.57700324791189E+01,9.53482613849473E+01,9.65648418356423E+01,9.65673602138459E+01,9.65673602138459E+01,9.65673602138459E+01,,
IRQ,,,,,,,,,,,,,,,,,,,,,,,,,,,,,,,,,,,,,1.00000000000000E+02,1.00000000000000E+02,1.00000000000000E+02,1.00000000000000E+02,1.00000000000000E+02,1.00000000000000E+02,1.00000000000000E+02,1.00000000000000E+02,1.00000000000000E+02,1.00000000000000E+02,1.00000000000000E+02,1.00000000000000E+02,1.00000000000000E+02,1.00000000000000E+02,,
ISL,,,,,,,,,,,,,,,,,,,,,,,,,,,,,,,,,,,,1.00000000000000E+02,1.00000000000000E+02,1.00000000000000E+02,1.00000000000000E+02,1.00000000000000E+02,1.00000000000000E+02,1.00000000000000E+02,1.00000000000000E+02,9.26009107337910E+01,9.28050429575904E+01,9.25365350106029E+01,9.20289280325513E+01,9.17342818690562E+01,9.14312296464610E+01,9.08000000000000E+01,,
ISR,,,,,,,,,,,,,,,,,,,,,,,,,,,,,,,,,,,,8.83353584447145E+01,7.71256994677221E+01,6.56565656565657E+01,7.25128017556693E+01,7.98968170689052E+01,6.82755041518387E+01,7.24825058313895E+01,8.22080477709167E+01,7.58846918489066E+01,6.98339765974392E+01,6.71334386748760E+01,7.65720823331428E+01,6.53147042864894E+01,7.32904017172646E+01,7.19040896557157E+01,,
ITA,,,,,,,,,,,,,,,,,,,,,,,,,,,,,,,,,,,,9.10679611650485E+01,9.01813174202433E+01,9.04413964021707E+01,9.00487960963123E+01,8.92488610256610E+01,8.91254119162153E+01,8.73639266069162E+01,8.78132035732442E+01,8.77519434380386E+01,8.81446682096100E+01,8.59975013150973E+01,8.48770844625833E+01,8.48307721316112E+01,8.53997216638318E+01,8.55800902769306E+01,,
JAM,,,,,,,,,,,,,,,,,,,,,,,,,,,,,,,,,,,,6.19227857683573E+01,6.05779836752702E+01,6.93830371333622E+01,6.65921288014311E+01,6.94710640945862E+01,6.50078322689481E+01,6.92682926829268E+01,6.18103359704099E+01,6.47274505011000E+01,6.36405743399722E+01,6.36413528160801E+01,6.37303970637304E+01,7.09529931466463E+01,7.09534801987316E+01,7.09534801987316E+01,,
JOR,,,,,,,,,,,,,,,,,,,,,,,,,,,,,,,,,,,,6.42576312479492E+01,6.68552518975073E+01,6.85464595024608E+01,6.91308081442866E+01,7.24217443694171E+01,7.49414751201362E+01,7.43147055311226E+01,7.77399764623248E+01,8.06602697756225E+01,8.30200960622273E+01,8.51450460558194E+01,8.73736619261557E+01,8.83181918685596E+01,8.24768054036503E+01,8.34604863035491E+01,,
JPN,,,,,,,,,,,,,,,,,,,,,,,,,,,,,,,,,,,,9.02082178914912E+01,9.07528259642148E+01,9.11058586851845E+01,9.10823701030969E+01,9.06066319253003E+01,9.00939942299751E+01,8.98612614868528E+01,9.32878234355743E+01,8.27783818715753E+01,8.34824519247959E+01,8.24215210492987E+01,8.07529864670782E+01,8.05563820684462E+01,8.05563820684462E+01,8.05563820684462E+01,,
KAZ,,,,,,,,,,,,,,,,,,,,,,,,,,,,,,,,,,,,9.86842187077627E+01,9.86273065702881E+01,9.87068735963693E+01,9.87603468104237E+01,9.89599766560159E+01,9.89398917170491E+01,9.85574224635457E+01,9.86912111902046E+01,9.86931534088363E+01,9.86782456428167E+01,9.85902281864931E+01,9.86685808554233E+01,9.86687370132238E+01,9.86554910069553E+01,9.88146867555643E+01,,
KEN,,,,,,,,,,,,,,,,,,,,,,,,,,,,,,,,,,,,7.92543137852095E+01,8.29991754378379E+01,8.26633017472004E+01,7.96178343949045E+01,7.92864222001982E+01,8.01424755120214E+01,8.04828973843058E+01,7.82731671008560E+01,7.91186050413341E+01,7.82699024791478E+01,7.74468362805011E+01,7.34584929002904E+01,7.72433236603751E+01,7.72135739548764E+01,7.73806626146802E+01,,
KGZ,,,,,,,,,,,,,,,,,,,,,,,,,,,,,,,,,,,,9.25764725433815E+01,9.31615953773255E+01,9.27799640721459E+01,9.64610026139883E+01,8.90942748704379E+01,8.92920042268404E+01,9.05727464924082E+01,9.10493577833428E+01,9.29546579896725E+01,9.43305865453673E+01,9.47187300918556E+01,9.37627084180561E+01,9.27026685215632E+01,8.71829416442797E+01,8.13029925528816E+01,,
KHM,,,,,,,,,,,,,,,,,,,,,,,,,,,,,,,,,,,,9.54048110939938E+01,8.97659722672414E+01,9.19025805184236E+01,9.49151386198767E+01,9.64878108814993E+01,9.71031311937958E+01,9.45373531499965E+01,9.41455483328056E+01,9.11123068707274E+01,9.12434248004646E+01,7.94920283930770E+01,8.46941365367577E+01,8.46929060614143E+01,8.46296296296296E+01,8.46296295170805E+01,,
KIR,,,,,,,,,,,,,,,,,,,,,,,,,,,,,,,,,,,,2.34374901132422E+00,2.36054523809524E+00,2.36240697674419E+00,2.35269375000000E+00,2.35403529411765E+00,2.36501454545455E+00,2.34726206896552E+00,2.34635230769231E+00,2.34952025316456E+00,2.35075972222222E+00,2.30007951807229E+00,8.76658256880734E-01,5.52259036144578E-01,6.01941747572815E-01,6.43627450980392E-01,,
KNA,,,,,,,,,,,,,,,,,,,,,,,,,,,,,,,,,,,,9.48905109489051E+01,9.39597315436242E+01,9.49367088607595E+01,9.49367088607595E+01,9.47368421052632E+01,9.42408376963351E+01,9.47368421052632E+01,9.40594059405941E+01,9.45273631840796E+01,9.50226244343891E+01,9.48717948717949E+01,9.45578231292517E+01,9.44134078212290E+01,9.44444444444445E+01,9.44444444444444E+01,,
KOR,,,,,,,,,,,,,,,,,,,,,,,,,,,,,,,,,,,,8.55582675059844E+01,8.54117991342249E+01,8.37904643511738E+01,8.26527575444804E+01,8.33990658161501E+01,8.30698428584658E+01,8.24050598075233E+01,8.26374266317766E+01,8.95063499355773E+01,8.99535470468435E+01,8.93656547349253E+01,8.86791603251739E+01,8.84571909697164E+01,8.71194691898652E+01,8.71194691898652E+01,,
KWT,,,,,,,,,,,,,,,,,,,,,,,,,,,,,,,,,,,,9.37983990077438E+01,9.37983990077438E+01,9.37983990077439E+01,9.37983990077438E+01,9.39203526458488E+01,9.39203526458488E+01,9.39203526458488E+01,9.39203526458488E+01,9.15707875283230E+01,9.15707875283230E+01,9.15707875283230E+01,9.15707875283230E+01,9.15707875283230E+01,9.15707875283230E+01,9.15707875283230E+01,,
LAC,,,,,,,,,,,,,,,,,,,,,,,,,,,,,,,,,,,,7.34742843882884E+01,7.37292662933218E+01,7.26657017640968E+01,7.25127567887660E+01,7.42214770048689E+01,7.32414618184860E+01,7.49526443069851E+01,7.75759231564204E+01,7.71544387127528E+01,7.66953938087141E+01,7.41440893013772E+01,7.30574556109656E+01,7.03424655854751E+01,6.90547103996716E+01,6.87669263726416E+01,,
LAO,,,,,,,,,,,,,,,,,,,,,,,,,,,,,,,,,,,,8.89680923285811E+01,9.10243447242702E+01,9.05223709879469E+01,9.05306525547752E+01,9.18071060717388E+01,9.18073751021417E+01,6.89699816966860E+01,6.87558781945418E+01,7.66366263422281E+01,7.56938314965995E+01,7.54375645161794E+01,7.61212163270480E+01,7.61222070218001E+01,7.59219336840633E+01,7.58011898578142E+01,,
LBN,,,,,,,,,,,,,,,,,,,,,,,,,,,,,,,,,,,,7.71596779345515E+01,7.85850825049947E+01,8.07170398109446E+01,8.22619400087915E+01,8.11761317869008E+01,8.00612828520006E+01,7.88354260630826E+01,7.74115138050737E+01,7.59895876370897E+01,7.44574081837950E+01,7.44623725822319E+01,7.45802858008829E+01,7.63260482942901E+01,7.87156902347082E+01,7.98060897250661E+01,,
LBR,,,,,,,,,,,,,,,,,,,,,,,,,,,,,,,,,,,,,,,5.22388059701493E+01,5.22388059701493E+01,5.22388059701493E+01,5.22388059701493E+01,5.22388059701493E+01,5.22388059701493E+01,5.22388059701493E+01,5.22388059701493E+01,5.22388059701493E+01,5.22388059701493E+01,5.22388059701493E+01,5.22388059701493E+01,,
LBY,,,,,,,,,,,,,,,,,,,,,,,,,,,,,,,,,,,,1.00000000000000E+02,1.00000000000000E+02,1.00000000000000E+02,1.00000000000000E+02,1.00000000000000E+02,1.00000000000000E+02,1.00000000000000E+02,1.00000000000000E+02,1.00000000000000E+02,1.00000000000000E+02,1.00000000000000E+02,1.00000000000000E+02,1.00000000000000E+02,1.00000000000000E+02,1.00000000000000E+02,,
LCA,,,,,,,,,,,,,,,,,,,,,,,,,,,,,,,,,,,,9.50570342205323E+01,9.50819672131148E+01,9.50920245398773E+01,9.51008645533141E+01,9.51156812339332E+01,9.53488372093023E+01,9.53389830508474E+01,9.60000000000000E+01,9.57031250000000E+01,9.46196660482375E+01,9.43089430894309E+01,9.44444444444444E+01,9.44148936170213E+01,9.45595854922280E+01,9.45595854922280E+01,,
LCN,,,,,,,,,,,,,,,,,,,,,,,,,,,,,,,,,,,,7.34277515667483E+01,7.36810110298620E+01,7.26204507050540E+01,7.24677758411230E+01,7.41673808889377E+01,7.31982588312231E+01,7.48994179956303E+01,7.74974722982011E+01,7.71077478040313E+01,7.66684901192732E+01,7.41174383403916E+01,7.30263241298220E+01,7.03378466550131E+01,6.90667663110188E+01,6.87875064630334E+01,,
LDC,,,,,,,,,,,,,,,,,,,,,,,,,,,,,,,,,,,,8.97918584420033E+01,8.88247309894267E+01,8.78423769653044E+01,8.77812699557632E+01,8.68426754434993E+01,8.61986686600359E+01,8.57369667649149E+01,8.68226842406677E+01,8.72901286817276E+01,8.61581925295935E+01,8.48511271889839E+01,8.31337228648343E+01,8.59876511164082E+01,8.65682855788179E+01,8.65366511030628E+01,,
LIC,,,,,,,,,,,,,,,,,,,,,,,,,,,,,,,,,,,,8.61585836136018E+01,8.53282965244855E+01,8.32540880635680E+01,8.55995183703680E+01,8.33673132744183E+01,8.21293533818006E+01,8.08410850557097E+01,8.58244734758621E+01,8.60760051330083E+01,8.47691100919543E+01,8.38186236005194E+01,8.07051670762626E+01,8.31021611260563E+01,8.29405175752332E+01,8.26847764492884E+01,,
LKA,,,,,,,,,,,,,,,,,,,,,,,,,,,,,,,,,,,,8.67454787442261E+01,8.85292332591544E+01,8.70192023633678E+01,8.67531264474294E+01,8.56628508124077E+01,8.33373747171031E+01,8.48375204806117E+01,8.34395270076345E+01,8.41815512600930E+01,8.57607811228641E+01,8.60428231562252E+01,8.67333976154400E+01,8.67324325351096E+01,8.67324515531521E+01,8.67324515531521E+01,,
LMC,,,,,,,,,,,,,,,,,,,,,,,,,,,,,,,,,,,,8.92782770809642E+01,8.91696257468703E+01,9.01374920080276E+01,9.03757647849410E+01,8.92408127542708E+01,8.97955992564344E+01,8.99110226762184E+01,8.95360587865577E+01,8.96372609570541E+01,8.86182784752250E+01,8.80046358480162E+01,8.57726423906203E+01,8.30217590930321E+01,8.30623372180174E+01,8.34057822768651E+01,,
LMY,,,,,,,,,,,,,,,,,,,,,,,,,,,,,,,,,,,,7.73268723792172E+01,7.78297438510747E+01,7.77123773391651E+01,7.89805773711784E+01,8.01321292300602E+01,8.07497358792960E+01,8.14427822150510E+01,8.19330572453711E+01,8.07225295837842E+01,8.00530057891438E+01,7.89091206618013E+01,7.76552944199020E+01,7.63558682731522E+01,7.63029389225335E+01,7.64466967948583E+01,,
LSO,,,,,,,,,,,,,,,,,,,,,,,,,,,,,,,,,,,,7.48091603053435E+01,7.27272727272727E+01,7.18954248366013E+01,7.25000000000000E+01,7.27810650887574E+01,7.31843575418994E+01,7.18750000000000E+01,6.90140845070423E+01,6.88888888888889E+01,6.88034188034188E+01,6.87500000000000E+01,6.89045936395760E+01,6.88524590163934E+01,6.88524590163935E+01,6.88524590163934E+01,,
LTU,,,,,,,,,,,,,,,,,,,,,,,,,,,,,,,,,,,,8.66310160427807E+01,8.84894578033925E+01,8.89892013462428E+01,9.57446808510638E+01,9.95607613469985E+01,8.62222222222222E+01,9.70131421744325E+01,9.81755952380952E+01,9.65689934928219E+01,9.84426330601308E+01,9.85463189530381E+01,9.83638599579402E+01,9.83280177828014E+01,9.79243616269878E+01,9.79243616269878E+01,,
LUX,,,,,,,,,,,,,,,,,,,,,,,,,,,,,,,,,,,,8.12500000000000E+01,1.00000000000000E+02,9.85507246376812E+01,1.00000000000000E+02,7.20338983050847E+01,7.91836734693878E+01,7.90874524714829E+01,8.15331010452962E+01,7.74865660460716E+01,7.66484869110438E+01,7.69003516843649E+01,7.76936721075697E+01,7.71405303229466E+01,7.77397396330671E+01,7.95573230470295E+01,,
LVA,,,,,,,,,,,,,,,,,,,,,,,,,,,,,,,,,,,,1.00000000000000E+02,9.82318271119843E+01,9.79304693667496E+01,9.72179941669203E+01,9.71978984238179E+01,9.67761915084699E+01,9.52828548803492E+01,9.43698482509539E+01,9.67954749467355E+01,9.36751617501898E+01,9.47799417428148E+01,9.25484987637954E+01,9.47671141901263E+01,9.67136150234742E+01,9.67136150234742E+01,,
MAR,,,,,,,,,,,,,,,,,,,,,,,,,,,,,,,,,,,,7.78058332060117E+01,7.74672198852681E+01,7.71304407161317E+01,7.67891425294985E+01,7.66845334100861E+01,7.65760752046686E+01,7.64059822402243E+01,8.17404295798185E+01,8.16607111991416E+01,8.13754840491298E+01,8.34831263621371E+01,8.62500000000000E+01,8.63130417651694E+01,8.63130417651694E+01,8.63130417651694E+01,,
MCO,,,,,,,,,,,,,,,,,,,,,,,,,,,,,,,,,,,,6.69040129551596E+01,6.69376461723597E+01,6.49976178456234E+01,5.89025675755724E+01,5.62606610703042E+01,5.42640398781735E+01,5.55403145803061E+01,5.46103795104777E+01,5.89053672002918E+01,5.85881273193935E+01,5.92894082354330E+01,5.82013895359328E+01,5.52544465500208E+01,5.69572135724240E+01,5.82088503904792E+01,,
MDA,,,,,,,,,,,,,,,,,,,,,,,,,,,,,,,,,,,,9.34573997298179E+01,9.41834616870319E+01,9.44897557562373E+01,9.49810037694598E+01,9.44895436930905E+01,9.78577562116290E+01,9.72140240488767E+01,9.32428606335158E+01,9.40472066273132E+01,9.63967922662858E+01,9.71988535790674E+01,9.75035045416352E+01,9.75631525538185E+01,9.77746833854842E+01,9.77861328720827E+01,,
MDG,,,,,,,,,,,,,,,,,,,,,,,,,,,,,,,,,,,,5.31360050436871E+01,5.30778947519862E+01,5.31609456275496E+01,5.29230715176068E+01,5.28094673649297E+01,5.28102841985970E+01,5.23670541249020E+01,5.29365042132303E+01,5.29411353434976E+01,5.74718516480936E+01,6.15064753175976E+01,6.49960898202965E+01,6.79342198625286E+01,6.76122007584669E+01,6.77967681777607E+01,,
MDV,,,,,,,,,,,,,,,,,,,,,,,,,,,,,,,,,,,,7.37799594552408E+01,7.37799594552408E+01,7.37799594552408E+01,7.37799594552408E+01,7.37799594552408E+01,7.37799594552408E+01,7.37799594552408E+01,7.37799594552408E+01,7.35695924034136E+01,7.41994272324915E+01,7.33442802408320E+01,7.31649752183149E+01,7.20213838131545E+01,7.20213838131546E+01,7.20213838131545E+01,,
MEA,,,,,,,,,,,,,,,,,,,,,,,,,,,,,,,,,,,,8.59896964094871E+01,8.50621667665247E+01,8.40534628864603E+01,8.60818856617967E+01,8.79157286405117E+01,8.65512985268258E+01,8.71545127856285E+01,8.63137074009893E+01,8.40028704801364E+01,8.35121487125998E+01,8.31998416291412E+01,8.45464777282210E+01,8.32174469377779E+01,8.37179723532023E+01,8.37674139129146E+01,,
MEX,,,,,,,,,,,,,,,,,,,,,,,,,,,,,,,,,,,,9.70422582150237E+01,9.66336398851090E+01,9.59844657673543E+01,9.59429351732068E+01,9.58560425877739E+01,9.53287812293133E+01,9.49967911425098E+01,9.48316431517657E+01,9.46967740348547E+01,9.46616718230941E+01,9.40474510199281E+01,9.36374445468911E+01,9.31381053849112E+01,9.28872989185491E+01,9.23232353962737E+01,,
MHL,,,,,,,,,,,,,,,,,,,,,,,,,,,,,,,,,,,,1.00000000000000E+02,1.00000000000000E+02,1.00000000000000E+02,1.00000000000000E+02,1.00000000000000E+02,1.00000000000000E+02,1.00000000000000E+02,1.00000000000000E+02,1.00000000000000E+02,1.00000000000000E+02,1.00000000000000E+02,1.00000000000000E+02,1.00000000000000E+02,1.00000000000000E+02,1.00000000000000E+02,,
MIC,,,,,,,,,,,,,,,,,,,,,,,,,,,,,,,,,,,,7.70749706183964E+01,7.76185098189604E+01,7.75746410908437E+01,7.88066210482755E+01,8.00423842496394E+01,8.07139275585754E+01,8.14575094612430E+01,8.18358830048511E+01,8.05932477939579E+01,7.99374052833421E+01,7.87966720507943E+01,7.75845128429815E+01,7.61990754866763E+01,7.61434193917554E+01,7.62889373496645E+01,,
MKD,,,,,,,,,,,,,,,,,,,,,,,,,,,,,,,,,,,,9.95744302857050E+01,9.94249651494030E+01,9.96022541304379E+01,9.94608225019476E+01,9.92488865653270E+01,9.92252267061176E+01,9.91181335986389E+01,9.90910162274611E+01,9.92422262869088E+01,9.92280032357466E+01,9.95384345384345E+01,9.97463135564442E+01,9.92378849431362E+01,9.92097433708940E+01,9.91713398781502E+01,,
MLI,,,,,,,,,,,,,,,,,,,,,,,,,,,,,,,,,,,,9.99585086835398E+01,9.99792058491533E+01,9.99773062294240E+01,9.99757256719882E+01,9.96758508914101E+01,9.90981963927856E+01,9.99486323359445E+01,9.96308644915456E+01,9.85997666277713E+01,9.94637111190561E+01,9.95177173223936E+01,9.94980783649907E+01,9.94980783649907E+01,9.94980783649907E+01,9.94980783649907E+01,,
MLT,,,,,,,,,,,,,,,,,,,,,,,,,,,,,,,,,,,,9.58333333310974E+01,9.61538461513059E+01,9.64285714263811E+01,9.65517241358892E+01,9.67741935466002E+01,9.68749999979038E+01,9.71444571422049E+01,9.72245249976909E+01,9.45968351313641E+01,9.26611730489578E+01,9.22239031770045E+01,9.23221902589029E+01,9.13572542901716E+01,9.11860509676183E+01,8.95978855956202E+01,,
MMR,,,,,,,,,,,,,,,,,,,,,,,,,,,,,,,,,,,,9.94691091683511E+01,9.89460688303546E+01,9.90741122254982E+01,9.92313893427932E+01,9.92815453213154E+01,9.92219497161202E+01,9.92149390806226E+01,9.83738336709999E+01,9.81858480436868E+01,9.82226139624795E+01,9.91911686902496E+01,9.49019125748324E+01,9.51324689688433E+01,9.55009379026706E+01,9.55009379026706E+01,,
MNA,,,,,,,,,,,,,,,,,,,,,,,,,,,,,,,,,,,,8.94615181451747E+01,9.08359330234979E+01,9.17055785480610E+01,9.21746665286456E+01,9.27310478180816E+01,9.32840547341601E+01,9.29932725457332E+01,9.18433788777759E+01,9.09515700714979E+01,9.17103901965864E+01,9.25700688563675E+01,9.34655854540669E+01,9.42389882395166E+01,9.42327523759015E+01,9.44347869083127E+01,,
MNE,,,,,,,,,,,,,,,,,,,,,,,,,,,,,,,,,,,,1.00000000000000E+02,1.00000000000000E+02,1.00000000000000E+02,1.00000000000000E+02,1.00000000000000E+02,9.10746812386157E+01,9.10746812386157E+01,9.10746812386157E+01,9.10746812386157E+01,9.10746812386157E+01,9.10746812386157E+01,9.09918107370337E+01,9.09918107370337E+01,9.09918107370337E+01,9.09918107370337E+01,,
MNG,,,,,,,,,,,,,,,,,,,,,,,,,,,,,,,,,,,,7.60604183241817E+01,8.49042264920544E+01,7.35583234375455E+01,8.03194359215959E+01,7.43679866821585E+01,7.05795620017138E+01,7.66577959350796E+01,7.92014438448427E+01,7.87593545972722E+01,7.88114481252518E+01,7.87834289399714E+01,7.88422074971252E+01,7.90465346506710E+01,7.86478195957830E+01,7.80141843971631E+01,,
MOZ,,,,,,,,,,,,,,,,,,,,,,,,,,,,,,,,,,,,4.16111254026716E+01,4.16128269245179E+01,4.13536328390186E+01,4.25063812366368E+01,4.38738098559125E+01,4.52160555873649E+01,4.56749646167906E+01,4.66951088151517E+01,4.81103536938269E+01,4.93030842333632E+01,4.67796073582319E+01,4.53774737578332E+01,3.61846854142264E+01,2.81973145244009E+01,4.35575256361465E+01,,
MRT,,,,,,,,,,,,,,,,,,,,,,,,,,,,,,,,,,,,1.00000000000000E+02,1.00000000000000E+02,1.00000000000000E+02,1.00000000000000E+02,1.00000000000000E+02,1.00000000000000E+02,1.00000000000000E+02,1.00000000000000E+02,1.00000000000000E+02,1.00000000000000E+02,1.00000000000000E+02,1.00000000000000E+02,1.00000000000000E+02,1.00000000000000E+02,1.00000000000000E+02,,
MUS,,,,,,,,,,,,,,,,,,,,,,,,,,,,,,,,,,,,7.13904655695626E+01,7.15446837235113E+01,7.05319645154382E+01,7.34315326603507E+01,7.29974288967271E+01,7.46083770502267E+01,7.39909879412017E+01,7.48126702997275E+01,7.96021277994857E+01,8.08030480656506E+01,8.40157081707031E+01,8.57196678680480E+01,8.84877523545725E+01,8.87267717749577E+01,8.87236328801831E+01,,
MWI,,,,,,,,,,,,,,,,,,,,,,,,,,,,,,,,,,,,4.73357185986657E+01,4.71374015045194E+01,4.45983743196496E+01,4.07142755941056E+01,3.90079608083282E+01,4.13245093007602E+01,4.34547244345203E+01,4.32124563897223E+01,4.44649757269960E+01,3.75892857142857E+01,3.52826802273407E+01,2.87532856704991E+01,2.86035514465097E+01,2.85373278482197E+01,2.84664566881784E+01,,
MYS,,,,,,,,,,,,,,,,,,,,,,,,,,,,,,,,,,,,7.66274361674783E+01,7.66285376224613E+01,7.65845356171235E+01,7.47878085354971E+01,7.50164790010139E+01,7.54074240890876E+01,7.35319567989034E+01,7.35935336348504E+01,7.24276420829126E+01,7.51194500237856E+01,7.57072818682965E+01,7.31772316143116E+01,7.32174638886255E+01,7.32174511717829E+01,7.32531791215515E+01,,
NAC,,,,,,,,,,,,,,,,,,,,,,,,,,,,,,,,,,,,2.73500555780353E+01,2.70289611183181E+01,2.72925016063265E+01,2.72379306550858E+01,2.66716015531184E+01,2.62390073661703E+01,2.54376970539347E+01,2.46823656575039E+01,2.59211019183963E+01,2.55997600628667E+01,2.53548035388643E+01,2.50193174121770E+01,2.52627264097673E+01,2.54128324287482E+01,2.51612896707481E+01,,
NAM,,,,,,,,,,,,,,,,,,,,,,,,,,,,,,,,,,,,2.18144823740316E+01,2.18287463187007E+01,2.18664324118809E+01,2.18527894276261E+01,2.12528816682153E+01,1.81559799930227E+01,6.79852460903659E+00,9.35485436639629E+00,1.18490911778631E+01,7.42853862108066E+00,7.28078304181629E+00,5.73343701541134E+00,1.86673448626653E+01,1.79058512978443E+01,1.78423896493164E+01,,
NER,,,,,,,,,,,,,,,,,,,,,,,,,,,,,,,,,,,,8.89323428005961E+01,8.89323428005961E+01,8.89323428005961E+01,8.89323428005961E+01,8.89323428005961E+01,8.89323428005961E+01,8.89323428005961E+01,8.89323428005961E+01,8.89323428005961E+01,8.68476665738195E+01,9.70544975851397E+01,9.65181202164702E+01,9.62306668160084E+01,9.62306668160084E+01,9.62306668160084E+01,,
NGA,,,,,,,,,,,,,,,,,,,,,,,,,,,,,,,,,,,,9.44303007277844E+01,9.46280986376102E+01,9.45950171086780E+01,9.50000452507993E+01,9.47563082287861E+01,9.26547717586753E+01,9.13914239753149E+01,9.04285877917575E+01,9.62169538421071E+01,9.53373281536252E+01,9.57999176521022E+01,9.55700509626629E+01,9.55260243479809E+01,9.53959093338766E+01,9.55518326997345E+01,,
NIC,,,,,,,,,,,,,,,,,,,,,,,,,,,,,,,,,,,,9.85128561501042E+01,9.88315789473684E+01,9.76177682249686E+01,9.80431366947579E+01,9.56487533284919E+01,9.16282216891185E+01,9.14191799780866E+01,9.54603833234539E+01,8.86758846965081E+01,9.19886003799873E+01,9.16261058016840E+01,9.30413354064599E+01,9.20887680324469E+01,9.21512460613005E+01,9.19315109575166E+01,,
NLD,,,,,,,,,,,,,,,,,,,,,,,,,,,,,,,,,,,,4.15394671451093E+01,2.85091166370806E+01,2.79174668183763E+01,2.68427919112851E+01,2.75493178918441E+01,2.80838661150809E+01,2.66249279182799E+01,2.44082294816017E+01,2.38047421614076E+01,2.28499333520459E+01,2.26675687140935E+01,3.47612437707629E+01,3.35027018653030E+01,3.48965397728530E+01,3.77261764155887E+01,,
NOR,,,,,,,,,,,,,,,,,,,,,,,,,,,,,,,,,,,,9.83800915600662E+01,9.83800915600397E+01,9.83800915600423E+01,9.83423898128328E+01,9.83195423434467E+01,9.83309759547383E+01,9.89490816089282E+01,9.86150508927082E+01,9.86031289910600E+01,9.86970072471931E+01,9.86151655393378E+01,9.87601744685235E+01,9.87601744685324E+01,9.87601744685358E+01,9.87601744685369E+01,,
NPL,,,,,,,,,,,,,,,,,,,,,,,,,,,,,,,,,,,,9.46196877153234E+01,9.43141766195869E+01,9.38294404614985E+01,9.29250760470999E+01,9.23638703854166E+01,9.12140120057204E+01,9.10824121758401E+01,8.86540687670435E+01,8.94506107463255E+01,6.74258845810034E+01,6.71650952067210E+01,6.52435413303069E+01,7.28132901664245E+01,7.24439223828388E+01,7.24439223828388E+01,,
NZL,,,,,,,,,,,,,,,,,,,,,,,,,,,,,,,,,,,,7.07269155206287E+01,6.98461538461538E+01,6.88573120189461E+01,7.08084644601194E+01,7.06786850477200E+01,6.98678861788618E+01,7.20434782608696E+01,7.26387124099958E+01,7.20134464211833E+01,7.38167959610541E+01,7.36292674572562E+01,7.38055480456935E+01,7.17159763313609E+01,7.09735436309626E+01,7.09735436309626E+01,,
OEC,,,,,,,,,,,,,,,,,,,,,,,,,,,,,,,,,,,,4.15579044198070E+01,4.06732519652828E+01,4.02741487881368E+01,3.97162116592269E+01,3.91921758665096E+01,3.81330498528072E+01,3.66502488387750E+01,3.60556241466305E+01,3.75668551116668E+01,3.80625040767687E+01,3.75872187663382E+01,3.74069873526510E+01,3.80427052244172E+01,3.87780581681106E+01,3.79721002542452E+01,,
OED,,,,,,,,,,,,,,,,,,,,,,,,,,,,,,,,,,,,4.22978469972985E+01,4.14680889992354E+01,4.11638396130260E+01,4.06188216242917E+01,4.01454621879521E+01,3.92422632987569E+01,3.78415515464181E+01,3.72508207492806E+01,3.87213333627844E+01,3.92534279738516E+01,3.88847760939794E+01,3.87570080496930E+01,3.94197821563586E+01,4.00883866275733E+01,3.91274074529123E+01,,
OMN,,,,,,,,,,,,,,,,,,,,,,,,,,,,,,,,,,,,6.32063829322193E+01,6.29693289314668E+01,6.29691021135086E+01,6.44420131291028E+01,6.49875751505309E+01,6.43870415779094E+01,6.28194332200030E+01,6.15589844880534E+01,6.19276774064873E+01,6.18270794869380E+01,5.99348666225861E+01,5.97940162519915E+01,6.07133323478677E+01,6.08043122918697E+01,6.35060241590891E+01,,
PAK,,,,,,,,,,,,,,,,,,,,,,,,,,,,,,,,,,,,9.76660068907412E+01,9.76761170647043E+01,9.77344308656025E+01,8.16086779065371E+01,8.19696195185791E+01,8.02587475005222E+01,7.75572761779075E+01,7.75563958735848E+01,8.00713848353878E+01,8.14638685169634E+01,8.11917077069190E+01,8.14558701062936E+01,8.15542599588484E+01,7.93902831972837E+01,8.44836879114203E+01,,
PAN,,,,,,,,,,,,,,,,,,,,,,,,,,,,,,,,,,,,8.41002044989775E+01,8.62242755144897E+01,8.37455830388693E+01,8.33268708801861E+01,8.18731117824773E+01,8.12565081568900E+01,8.23392202599134E+01,8.16393442622951E+01,8.21644498186215E+01,8.14705882352941E+01,8.08969628157820E+01,8.06245200921423E+01,8.26923076923077E+01,8.34951456310680E+01,8.44827586206897E+01,,
PER,,,,,,,,,,,,,,,,,,,,,,,,,,,,,,,,,,,,8.40008312919013E+01,8.60801459475412E+01,8.53576604414582E+01,8.36929963284034E+01,8.01365132886629E+01,8.12850288875762E+01,8.11124003204350E+01,8.19533410668582E+01,7.88432008790336E+01,7.92028572723666E+01,7.93659205853301E+01,7.62352057110652E+01,7.53342785733113E+01,7.53690407771942E+01,7.56767016287120E+01,,
PHL,,,,,,,,,,,,,,,,,,,,,,,,,,,,,,,,,,,,8.27150454028310E+01,8.17513067954686E+01,8.16196625820409E+01,8.11343435364653E+01,7.76378438228618E+01,7.72475170772267E+01,7.85506326654102E+01,7.79690945264658E+01,7.84330964160627E+01,8.02331411404845E+01,8.09209434410002E+01,8.08697654478709E+01,8.33185917251934E+01,8.24925816023739E+01,8.28138913624221E+01,,
PLW,,,,,,,,,,,,,,,,,,,,,,,,,,,,,,,,,,,,1.00000000000000E+02,1.00000000000000E+02,1.00000000000000E+02,1.00000000000000E+02,1.00000000000000E+02,1.00000000000000E+02,1.00000000000000E+02,4.03229961557605E+01,4.03237574231955E+01,4.03239074295568E+01,4.03229365896719E+01,4.03242482068997E+01,4.12211773798789E+01,4.15027695205120E+01,4.20000000000000E+01,,
PNG,,,,,,,,,,,,,,,,,,,,,,,,,,,,,,,,,,,,5.22546756575001E+01,5.57568999163647E+01,5.04702913512274E+01,4.68781168960702E+01,4.87498034282120E+01,5.60496964563038E+01,3.99329391404673E+01,4.95500628930818E+01,4.67986036519871E+01,4.21192160500986E+01,4.13905223106192E+01,4.14974312481112E+01,4.13410866799927E+01,4.13408119630787E+01,4.05392374806365E+01,,
POL,,,,,,,,,,,,,,,,,,,,,,,,,,,,,,,,,,,,1.00000000000000E+02,1.00000000000000E+02,1.00000000000000E+02,1.00000000000000E+02,1.00000000000000E+02,1.00000000000000E+02,1.00000000000000E+02,8.82046423495973E+01,8.94713146385387E+01,9.12790434349382E+01,8.85869821644363E+01,8.81185435180426E+01,8.78543498609682E+01,8.62249407349733E+01,8.84221040975325E+01,,
PRT,,,,,,,,,,,,,,,,,,,,,,,,,,,,,,,,,,,,6.39935196435804E+01,6.71553090332805E+01,6.66666666666667E+01,6.98174006444683E+01,7.30189914865750E+01,8.08352980801617E+01,8.13058207576224E+01,8.04791481810115E+01,8.18530150663233E+01,8.23180814773844E+01,8.35736512939720E+01,8.31384341188272E+01,7.74530271398747E+01,7.74530271398747E+01,7.74530271398747E+01,,
PRY,,,,,,,,,,,,,,,,,,,,,,,,,,,,,,,,,,,,9.03665169771612E+01,8.91980589604780E+01,8.73415784152922E+01,8.85547698060418E+01,8.56132189087164E+01,8.81882617491254E+01,8.61731191087960E+01,8.66749812694252E+01,8.57969404350939E+01,8.67595775053543E+01,8.60882826219613E+01,8.65833687147449E+01,8.72091551313285E+01,8.82011499643603E+01,8.86830778371572E+01,,
QAT,,,,,,,,,,,,,,,,,,,,,,,,,,,,,,,,,,,,9.26829268292683E+01,9.11392405063291E+01,9.02439024390244E+01,8.94117647058823E+01,8.83720930232558E+01,8.44791912257948E+01,8.58089885250867E+01,8.64201957083959E+01,8.58845122548729E+01,8.39822225243682E+01,8.19919262795358E+01,7.87843262534116E+01,7.63743501591836E+01,7.32604089165924E+01,7.81901312031878E+01,,
ROM,,,,,,,,,,,,,,,,,,,,,,,,,,,,,,,,,,,,1.00000000000000E+02,1.00000000000000E+02,1.00000000000000E+02,1.00000000000000E+02,1.00000000000000E+02,1.00000000000000E+02,1.00000000000000E+02,1.00000000000000E+02,9.74320524835989E+01,9.68052256532066E+01,9.64109643068428E+01,9.81636861880950E+01,9.73979908864954E+01,9.80918840406693E+01,9.80918840406694E+01,,
RUS,,,,,,,,,,,,,,,,,,,,,,,,,,,,,,,,,,,,6.46638152070455E+01,6.32141823202249E+01,6.19046885017996E+01,6.59200796196446E+01,7.20942599081420E+01,7.47010698552549E+01,7.37368922783603E+01,7.51879699248120E+01,7.97115699770567E+01,8.22408963585434E+01,8.23914058851004E+01,8.15047619047619E+01,8.30185734353051E+01,8.13407015443587E+01,8.09263744765364E+01,,
RWA,,,,,,,,,,,,,,,,,,,,,,,,,,,,,,,,,,,,4.14088960208458E+01,4.13562006295804E+01,4.13604027234683E+01,4.13271677481234E+01,4.10251990238716E+01,4.07281814089991E+01,4.57104485706189E+01,5.17171239676462E+01,3.68116661205483E+01,3.68586944172242E+01,3.68554167148797E+01,3.87042236107885E+01,4.43517750649638E+01,4.43559056420640E+01,4.43752016612598E+01,,
SAS,,,,,,,,,,,,,,,,,,,,,,,,,,,,,,,,,,,,9.22679025653685E+01,9.19624396471471E+01,9.25612668200558E+01,9.10416731780561E+01,9.05569474660893E+01,9.11225383951520E+01,9.14126186083829E+01,9.12938527300982E+01,9.09795472860791E+01,8.89981159168817E+01,8.76675760718345E+01,8.32860195604402E+01,7.76761658957662E+01,7.64454386091611E+01,7.69392875782613E+01,,
SAU,,,,,,,,,,,,,,,,,,,,,,,,,,,,,,,,,,,,7.28875379232404E+01,7.20877768433714E+01,7.15918907564496E+01,7.26399524401709E+01,6.96852758221805E+01,6.67463113388406E+01,6.63600571760495E+01,6.73234802022547E+01,6.56677821802296E+01,6.41266030519148E+01,6.04724106936327E+01,5.76700140882425E+01,5.75678140488382E+01,5.34307472701388E+01,5.19000858245377E+01,,
SDN,,,,,,,,,,,,,,,,,,,,,,,,,,,,,,,,,,,,9.27903859882124E+01,9.29235593550469E+01,9.27915341266428E+01,9.30053259162378E+01,9.27859072550729E+01,9.08964760196150E+01,9.11230132865214E+01,9.11637033762127E+01,9.15985323709883E+01,9.19181643602275E+01,9.10849136755237E+01,9.29698274415340E+01,9.47749009001973E+01,9.58134063304187E+01,9.61716363209542E+01,,
SEN,,,,,,,,,,,,,,,,,,,,,,,,,,,,,,,,,,,,9.51383668910384E+01,9.36853281835498E+01,9.32129620369591E+01,9.26508945018461E+01,9.24695259574357E+01,9.16010680871752E+01,9.10681861550295E+01,9.04154676107596E+01,8.97230956014788E+01,8.83735042102318E+01,7.63014632990193E+01,7.72670307734660E+01,7.85310110852828E+01,7.85310110852828E+01,7.85310110852828E+01,,
SGP,,,,,,,,,,,,,,,,,,,,,,,,,,,,,,,,,,,,9.67671063878500E+01,9.64736165167621E+01,9.62539152576127E+01,9.54677546543017E+01,9.57544628469323E+01,9.57461827963524E+01,9.53348370057641E+01,9.64486021731958E+01,9.31617666160359E+01,9.29304347388725E+01,9.31749995858978E+01,9.34425306563727E+01,9.42723893549320E+01,9.42712058486744E+01,9.41385567957224E+01,,
SLB,,,,,,,,,,,,,,,,,,,,,,,,,,,,,,,,,,,,7.08177152877206E+01,7.06965034965035E+01,7.06932270916335E+01,7.07497089639115E+01,7.06994535519126E+01,6.66946666666667E+01,6.66679636835279E+01,6.66749379652606E+01,6.66529100529101E+01,6.66373626373626E+01,6.66341463414634E+01,6.66813902968863E+01,6.66595208070618E+01,6.66550189937818E+01,6.73789544344132E+01,,
SLE,,,,,,,,,,,,,,,,,,,,,,,,,,,,,,,,,,,,9.51800929395660E+01,9.51634804616697E+01,9.51800653967291E+01,9.51808860843136E+01,9.51803369900047E+01,9.48609117670147E+01,9.51762746249166E+01,9.51793594407517E+01,8.90502258394485E+01,9.15298653484049E+01,8.43927205985792E+01,8.85407052109678E+01,8.95441323700046E+01,8.95441323700046E+01,8.95441323700046E+01,,
SLV,,,,,,,,,,,,,,,,,,,,,,,,,,,,,,,,,,,,9.87654320987654E+01,9.74636895729460E+01,9.73254352898941E+01,9.66807165437302E+01,9.46123755334282E+01,9.46214099216710E+01,9.31093007467753E+01,9.33754481816630E+01,9.32954153740089E+01,9.25337020394055E+01,9.16695531693800E+01,8.89339884640034E+01,8.89899380804954E+01,8.87751303052867E+01,8.79260853964837E+01,,
SMR,,,,,,,,,,,,,,,,,,,,,,,,,,,,,,,,,,,,9.52693823915900E+01,9.52380952380952E+01,9.49796472184532E+01,9.57766898772884E+01,9.58748141114538E+01,9.59970523247932E+01,9.61291851665214E+01,9.60906516542792E+01,9.61333785234166E+01,9.53424532172679E+01,9.55642712783239E+01,9.56627482772598E+01,9.62524654832347E+01,9.62524654832347E+01,9.62524654832347E+01,,
SRB,,,,,,,,,,,,,,,,,,,,,,,,,,,,,,,,,,,,8.48156142479286E+01,8.48154821784252E+01,8.48155090025531E+01,8.48235537507681E+01,8.48095128745895E+01,8.47221034879975E+01,8.48230472707205E+01,8.48298864487352E+01,8.63046799220045E+01,8.80206324177890E+01,8.94753358831029E+01,9.18234660156419E+01,9.33339020370115E+01,9.46103167244156E+01,9.40178362344860E+01,,
SSA,,,,,,,,,,,,,,,,,,,,,,,,,,,,,,,,,,,,4.86092468574766E+01,4.91176334157407E+01,4.79013658593859E+01,5.16033597002983E+01,5.11924777982768E+01,5.24203847042270E+01,5.20482713037293E+01,5.38570860743708E+01,5.54495101457228E+01,5.48630715617204E+01,5.67455123652296E+01,5.84485827024231E+01,6.03127662467458E+01,6.38232931649304E+01,6.30587596784935E+01,,
SSF,,,,,,,,,,,,,,,,,,,,,,,,,,,,,,,,,,,,4.86227542641170E+01,4.91436746359954E+01,4.79332653113003E+01,5.16383074300319E+01,5.12261460981971E+01,5.24528517667597E+01,5.20833109602334E+01,5.39063582010937E+01,5.54935237256616E+01,5.49360274534017E+01,5.68136044458169E+01,5.84946819664628E+01,6.03500221306297E+01,6.38641806802462E+01,6.30955890441031E+01,,
STP,,,,,,,,,,,,,,,,,,,,,,,,,,,,,,,,,,,,5.59126829055982E+01,5.94170052755241E+01,6.27752085260155E+01,7.57681076744492E+01,7.10646007807067E+01,6.13609989998462E+01,4.06224066390041E+01,3.51266532167675E+01,3.86715702663546E+01,3.83004070286906E+01,4.88115122703328E+01,4.79410763441709E+01,5.10657515276289E+01,5.91519792664112E+01,6.85400790276745E+01,,
SUR,,,,,,,,,,,,,,,,,,,,,,,,,,,,,,,,,,,,1.94805194805195E+01,3.11111111111111E+01,3.04878048780488E+01,4.60526315789474E+01,4.94699646643110E+01,4.39583333333333E+01,5.34383954154728E+01,4.39560439560440E+01,3.98148148148148E+01,3.19444444444444E+01,3.02469135802469E+01,2.36005080941221E+01,2.36874468990619E+01,2.39011243130936E+01,2.40208620185170E+01,,
SVK,,,,,,,,,,,,,,,,,,,,,,,,,,,,,,,,,,,,7.32267657992565E+01,7.32139442992798E+01,1.00000000000000E+02,1.00000000000000E+02,1.00000000000000E+02,7.64160759575990E+01,7.90986682977008E+01,7.90517881371118E+01,7.25266026472878E+01,7.31451452389037E+01,9.55307942146046E+01,8.85757918259234E+01,8.91528175946084E+01,8.85435823214250E+01,8.85428732170632E+01,,
SVN,,,,,,,,,,,,,,,,,,,,,,,,,,,,,,,,,,,,5.03547647325581E+01,4.95841301382489E+01,4.66746714772727E+01,4.84422823750000E+01,5.08741154361371E+01,4.40782309649123E+01,3.91956355578947E+01,4.32329258289474E+01,4.65443081356384E+01,4.57293081524782E+01,4.76315386063631E+01,4.56399624567930E+01,4.89465308912835E+01,4.87935374719242E+01,4.87935374719242E+01,,
SWE,,,,,,,,,,,,,,,,,,,,,,,,,,,,,,,,,,,,9.98908580635102E+01,9.98842650832788E+01,9.97727272727273E+01,9.57208943716268E+01,9.38012069861316E+01,9.11389692489017E+01,8.73312592280110E+01,8.65858185868086E+01,9.33047848607621E+01,9.33924019905328E+01,9.35414325359510E+01,9.34997263273125E+01,9.30559649639955E+01,9.28060580563736E+01,9.28060580563736E+01,,
SWZ,,,,,,,,,,,,,,,,,,,,,,,,,,,,,,,,,,,,3.13692295780118E+01,3.37972405289076E+01,3.14685658910561E+01,3.49344978165939E+01,4.09090909090909E+01,4.23868312757202E+01,4.21533296620995E+01,4.18005786367637E+01,4.16232024908940E+01,4.19357909017083E+01,4.21420044690773E+01,4.21364154190517E+01,4.20574222026206E+01,4.22141274214750E+01,4.22752968907503E+01,,
SYC,,,,,,,,,,,,,,,,,,,,,,,,,,,,,,,,,,,,6.25000000000000E+01,6.25000000000000E+01,6.25000000000000E+01,6.25000000000000E+01,6.25000000000000E+01,6.29649249700886E+01,5.72940594499984E+01,5.37094777708811E+01,4.98136321250554E+01,4.37916450396010E+01,3.43519782361320E+01,3.09012170908127E+01,3.09012170908127E+01,3.09012170908127E+01,3.09012170908127E+01,,
SYR,,,,,,,,,,,,,,,,,,,,,,,,,,,,,,,,,,,,1.00000000000000E+02,1.00000000000000E+02,1.00000000000000E+02,1.00000000000000E+02,1.00000000000000E+02,1.00000000000000E+02,1.00000000000000E+02,1.00000000000000E+02,1.00000000000000E+02,1.00000000000000E+02,1.00000000000000E+02,1.00000000000000E+02,1.00000000000000E+02,1.00000000000000E+02,1.00000000000000E+02,,
TCD,,,,,,,,,,,,,,,,,,,,,,,,,,,,,,,,,,,,9.64828548351568E+01,9.61831168590317E+01,9.61799390749840E+01,9.62144034551478E+01,9.62217302698332E+01,9.61981593284534E+01,9.61990661734415E+01,9.63374208094888E+01,9.61988724894169E+01,9.66056874191383E+01,9.65699791197876E+01,9.66208966982164E+01,9.66950986564094E+01,9.66950986564094E+01,9.66950986564094E+01,,
TGO,,,,,,,,,,,,,,,,,,,,,,,,,,,,,,,,,,,,8.71943390901800E+01,8.72806357835457E+01,8.71498796190243E+01,8.63898188422899E+01,8.70037676974917E+01,8.66300673462211E+01,8.77945547328201E+01,8.41509560855384E+01,8.41690410832244E+01,8.41869433658419E+01,8.41717234270995E+01,8.41771493501598E+01,8.41731537363051E+01,8.41712290596967E+01,8.41645189300173E+01,,
THA,,,,,,,,,,,,,,,,,,,,,,,,,,,,,,,,,,,,8.03621823907016E+01,8.04360135397230E+01,8.00736855446034E+01,7.82920554676899E+01,7.65000031091681E+01,7.68916073737114E+01,7.58191246397218E+01,7.45526420154846E+01,7.41532212479963E+01,7.43440883446621E+01,7.64872698577699E+01,7.08082101959164E+01,6.85090464665684E+01,6.81199372996839E+01,6.81199372996840E+01,,
TJK,,,,,,,,,,,,,,,,,,,,,,,,,,,,,,,,,,,,9.92125984251968E+01,9.78479196556671E+01,9.71520789823429E+01,9.75791809562235E+01,9.69855832241153E+01,9.90001817851300E+01,9.91739969963527E+01,9.89387105332980E+01,9.75496998986073E+01,9.71504162460676E+01,9.64682481737618E+01,9.69535417874452E+01,9.38354881019299E+01,9.51104100946372E+01,9.75427064777778E+01,,
TKM,,,,,,,,,,,,,,,,,,,,,,,,,,,,,,,,,,,,1.00000000000000E+02,1.00000000000000E+02,1.00000000000000E+02,1.00000000000000E+02,1.00000000000000E+02,1.00000000000000E+02,1.00000000000000E+02,1.00000000000000E+02,1.00000000000000E+02,1.00000000000000E+02,1.00000000000000E+02,1.00000000000000E+02,1.00000000000000E+02,1.00000000000000E+02,1.00000000000000E+02,,
TMP,,,,,,,,,,,,,,,,,,,,,,,,,,,,,,,,,,,,9.39194385316558E+01,9.42510854074875E+01,9.33274263077277E+01,3.09309309309309E+01,3.09309309309309E+01,3.09309309309309E+01,2.55702280912365E+01,2.55702280912365E+01,2.55702280912365E+01,2.55702280912365E+01,2.55702280912365E+01,2.55702280912365E+01,2.55702280912365E+01,2.55702280912365E+01,2.55702280912365E+01,,
TON,,,,,,,,,,,,,,,,,,,,,,,,,,,,,,,,,,,,9.11583421891605E+01,9.10964912280702E+01,9.00536277602524E+01,8.59234693877551E+01,8.55456852791878E+01,8.29929742388759E+01,7.85343035343035E+01,7.71208226221080E+01,7.90592105263158E+01,8.63930885529158E+01,8.23045267489712E+01,8.51116427432217E+01,8.46153846153846E+01,8.46912551374819E+01,8.47271182572614E+01,,
TTO,,,,,,,,,,,,,,,,,,,,,,,,,,,,,,,,,,,,8.72130306528152E+01,8.62812769628991E+01,8.63420724094881E+01,8.63513035271912E+01,8.69127516778523E+01,8.63152336530846E+01,8.63111185532485E+01,8.69105199516324E+01,9.00358262427228E+01,9.01408450704225E+01,8.27224237730185E+01,8.12737216209671E+01,8.15059706811129E+01,8.18292152465177E+01,8.18292152465177E+01,,
TUN,,,,,,,,,,,,,,,,,,,,,,,,,,,,,,,,,,,,7.83742906674143E+01,8.52050699954753E+01,8.54151408633555E+01,8.51402575859074E+01,8.36325065274151E+01,8.02671221718255E+01,8.02740243148154E+01,8.03147249060925E+01,8.03278863395734E+01,8.36388064993783E+01,8.43142087069878E+01,8.56911023369652E+01,8.69422944049086E+01,8.70223069219425E+01,8.70425432241551E+01,,
TUR,,,,,,,,,,,,,,,,,,,,,,,,,,,,,,,,,,,,1.00000000000000E+02,1.00000000000000E+02,9.95097020289855E+01,9.96171991525424E+01,7.47678018575851E+01,7.45585349901897E+01,7.15512885295604E+01,6.76780523255814E+01,6.57473962153440E+01,6.69022242817423E+01,7.07791065775589E+01,6.94044291550204E+01,6.78209356296568E+01,6.46566164154104E+01,6.46566164154104E+01,,
TUV,,,,,,,,,,,,,,,,,,,,,,,,,,,,,,,,,,,,1.00000000000000E+02,,,,,5.20000000000000E+01,,,5.80000000000000E+01,5.20000000000000E+01,5.52686000000000E+01,5.76077000000000E+01,6.02854000000000E+01,6.54310000000000E+01,6.78419000000000E+01,,
TZA,,,,,,,,,,,,,,,,,,,,,,,,,,,,,,,,,,,,8.34744061215393E+01,8.34744061215393E+01,8.34744061215393E+01,8.34744061215393E+01,8.34744061215393E+01,8.34744061215393E+01,8.34744087315492E+01,8.34744057436105E+01,8.73118306658632E+01,7.94095678011899E+01,7.76425296146879E+01,5.43104105030813E+01,6.51201905447748E+01,6.51201905447749E+01,6.51201905447749E+01,,
UGA,,,,,,,,,,,,,,,,,,,,,,,,,,,,,,,,,,,,7.88999098286745E+01,7.78361548939482E+01,7.62921991226397E+01,7.12395278948340E+01,6.15456340131905E+01,5.67107641166289E+01,5.18049936370951E+01,5.20920641110208E+01,5.23776467149987E+01,5.82314925068347E+01,6.25245847183513E+01,6.54946947947816E+01,6.54409243003724E+01,6.54409243003724E+01,6.54409243003724E+01,,
UKR,,,,,,,,,,,,,,,,,,,,,,,,,,,,,,,,,,,,9.33309045149212E+01,9.13498726806873E+01,9.26702816014290E+01,9.36098531604068E+01,9.32755291270515E+01,9.25424813176163E+01,9.20949551870677E+01,9.25627517723739E+01,9.22832892762799E+01,9.24932756264805E+01,9.32160977785699E+01,9.25770921218979E+01,9.23917000909110E+01,9.26321678198770E+01,9.28678860130428E+01,,
UMC,,,,,,,,,,,,,,,,,,,,,,,,,,,,,,,,,,,,7.37375659920666E+01,7.46558154769176E+01,7.43106046303871E+01,7.58915244222718E+01,7.76049869091212E+01,7.84505275316057E+01,7.93554571700967E+01,7.96236197372842E+01,7.78746918638556E+01,7.74239233240429E+01,7.63537798455497E+01,7.54651924672720E+01,7.43956193584326E+01,7.43615865853412E+01,7.44831986034090E+01,,
URY,,,,,,,,,,,,,,,,,,,,,,,,,,,,,,,,,,,,2.33187202686317E+01,2.77078085642317E+01,3.09521991447770E+01,2.77477531099339E+01,3.31771132922468E+01,3.11701892945764E+01,3.08659217877095E+01,3.06397306397306E+01,3.26328800988875E+01,3.24164097699787E+01,3.19473956239591E+01,3.11142332216578E+01,2.98648648648649E+01,3.29105829691996E+01,3.24128061350602E+01,,
USA,,,,,,,,,,,,,,,,,,,,,,,,,,,,,,,,,,,,2.65715746030707E+01,2.62555474460129E+01,2.65011705926207E+01,2.65491820415782E+01,2.59884864000905E+01,2.55497136369304E+01,2.48089794872879E+01,2.40657616294772E+01,2.51450649165816E+01,2.48013051383236E+01,2.45415157226960E+01,2.40795320561628E+01,2.42971790005850E+01,2.44065829562557E+01,2.42066209313757E+01,,
UZB,,,,,,,,,,,,,,,,,,,,,,,,,,,,,,,,,,,,9.65166232031949E+01,9.55615194054500E+01,9.57028522318311E+01,9.74199205557014E+01,9.69494018701047E+01,9.69982682316721E+01,9.71700556922678E+01,9.80392156862745E+01,9.80392156862745E+01,9.80392156862745E+01,9.80392156862745E+01,9.80392156862745E+01,9.80392156862745E+01,9.80392156862745E+01,9.80392156862745E+01,,
VCT,,,,,,,,,,,,,,,,,,,,,,,,,,,,,,,,,,,,1.00000000000000E+02,1.00000000000000E+02,1.00000000000000E+02,1.00000000000000E+02,1.00000000000000E+02,1.00000000000000E+02,1.00000000000000E+02,1.00000000000000E+02,1.00000000000000E+02,1.00000000000000E+02,1.00000000000000E+02,1.00000000000000E+02,1.00000000000000E+02,1.00000000000000E+02,1.00000000000000E+02,,
VEN,,,,,,,,,,,,,,,,,,,,,,,,,,,,,,,,,,,,8.82190891979650E+01,8.95903580384739E+01,9.04609287784441E+01,9.14150925070861E+01,8.93868262462057E+01,9.08575135902671E+01,9.21462639109698E+01,9.26276221784142E+01,9.26063828933985E+01,9.10097722120860E+01,8.93853435598912E+01,8.79598222231394E+01,8.80718062017650E+01,8.95435176633640E+01,9.06365334079282E+01,,
VNM,,,,,,,,,,,,,,,,,,,,,,,,,,,,,,,,,,,,9.40851686348634E+01,9.40851685985107E+01,9.40851686500241E+01,9.43746957835380E+01,9.19437436728060E+01,9.16596612972100E+01,9.20948194230468E+01,9.04201108559362E+01,8.95651854370796E+01,8.90665195356717E+01,8.95433397281026E+01,9.01964899326885E+01,9.02344084948508E+01,9.02344085041810E+01,9.02255639097744E+01,,
VUT,,,,,,,,,,,,,,,,,,,,,,,,,,,,,,,,,,,,7.15856688967038E+01,7.19142954960438E+01,7.18411882019523E+01,7.15859351720028E+01,7.15846073775291E+01,7.15854686075392E+01,7.15812264150943E+01,7.15849905734963E+01,7.15812445730825E+01,7.15863853615770E+01,7.15858392205268E+01,6.66674846625767E+01,5.47835990888383E+01,6.30627687016337E+01,6.61161433487322E+01,,
WLD,,,,,,,,,,,,,,,,,,,,,,,,,,,,,,,,,,,,4.63772370572043E+01,4.61159101982846E+01,4.60955706895244E+01,4.55666225425355E+01,4.49647659594032E+01,4.44577328555178E+01,4.32839377545795E+01,4.21960612867396E+01,4.36291545671240E+01,4.43218162822293E+01,4.44581760227558E+01,4.46458292712788E+01,4.54937217473438E+01,4.66680672551333E+01,4.61587621872431E+01,,
WSM,,,,,,,,,,,,,,,,,,,,,,,,,,,,,,,,,,,,7.74702297095469E+01,7.79376498800959E+01,7.66703176341731E+01,8.55669611650485E+01,9.60867954851105E+01,8.12771803858521E+01,9.63562566775244E+01,7.78249213691027E+01,7.02441860465116E+01,6.18067632850242E+01,6.23653846153846E+01,6.37341772151899E+01,6.28688138256088E+01,6.28674120743034E+01,6.29091854460094E+01,,
YEM,,,,,,,,,,,,,,,,,,,,,,,,,,,,,,,,,,,,9.55862635091004E+01,9.52586137227339E+01,9.51450828342292E+01,9.31186884462448E+01,9.48954546212213E+01,9.45204429357035E+01,9.47723488079660E+01,9.48284932689041E+01,9.61814658611649E+01,9.72793260791137E+01,9.79511486458452E+01,9.24765788629823E+01,9.84368821636507E+01,9.85300012431284E+01,9.85715865120503E+01,,
ZAF,,,,,,,,,,,,,,,,,,,,,,,,,,,,,,,,,,,,2.28823765556002E+01,2.03450356304303E+01,1.88533427302581E+01,2.09180902880429E+01,2.29776264645755E+01,2.50000587516589E+01,2.35942746405855E+01,2.31322718249873E+01,2.31656408322383E+01,2.87503532161702E+01,2.98254364412979E+01,3.00503211282527E+01,2.97080176141548E+01,2.96753229598711E+01,2.96267785952744E+01,,
ZAR,,,,,,,,,,,,,,,,,,,,,,,,,,,,,,,,,,,,8.34204112466798E+01,8.39184714937200E+01,8.45398632776749E+01,8.66310710762111E+01,8.52616535148044E+01,8.71051283003808E+01,8.51001685931285E+01,8.45773476067520E+01,8.50004298889507E+01,8.60367092545280E+01,8.55156156805830E+01,8.56979495492882E+01,8.60370155996856E+01,8.54897986473206E+01,7.62388478672786E+01,,
ZMB,,,,,,,,,,,,,,,,,,,,,,,,,,,,,,,,,,,,8.87552538283208E+01,9.25167567506895E+01,9.17516791113163E+01,8.79049594864072E+01,8.14614429669489E+01,8.05065084638934E+01,7.42642751726147E+01,7.69622351323041E+01,7.55352566381728E+01,7.13636226187894E+01,6.06877291377648E+01,6.71539048203711E+01,6.76308523661700E+01,7.44979835406499E+01,7.44979835406499E+01,,
ZWE,,,,,,,,,,,,,,,,,,,,,,,,,,,,,,,,,,,,6.65306122448980E+01,6.15151515151515E+01,5.79381443298969E+01,7.52630040911748E+01,4.49619552686189E+01,4.79048638654611E+01,5.02679052045873E+01,,,,,,,,,,
