"Country Code",1960,1961,1962,1963,1964,1965,1966,1967,1968,1969,1970,1971,1972,1973,1974,1975,1976,1977,1978,1979,1980,1981,1982,1983,1984,1985,1986,1987,1988,1989,1990,1991,1992,1993,1994,1995,1996,1997,1998,1999,2000,2001,2002,2003,2004,2005,2006,2007,2008,2009,2010,2011ARB,,,,,,,,,,,,,,,,,,,,,,,,,,,,,,,,,,,,,,3.66636603840837E+01,3.20143379233056E+01,3.50113609639579E+01,3.00233042037159E+01,3.10899496160699E+01,3.57193565103572E+01,5.76686399189020E+01,9.24481157633213E+01,1.53406636974905E+02,8.99333113127941E+01,1.18921568032612E+02,5.38435842054290E+01,6.76006586990932E+01,6.53420421238335E+01,
ARE,,,,,,,,,,,,,,,,,,,,,,,,,,,,,,,,,,,,,,,1.86993859562067E+01,1.39273398591791E+01,8.11332882170107E+00,8.40690220031885E+00,2.70656781236248E+01,3.42781767975243E+01,9.05171378428667E+01,1.69600138028331E+02,8.48344934371856E+01,1.08240514880060E+02,3.74412066314368E+01,4.76085918999650E+01,,
ARG,,,,,,,,,,,,,,,,,,,,,,,,,,,,,1.60054745447028E+00,5.50648592012652E+00,2.31336776152668E+00,9.75121270898445E+00,8.13010301144554E+00,1.85847264147301E+01,1.43334392124478E+01,1.46427644025109E+01,1.64170640224785E+01,2.02322696660496E+01,1.51638228289094E+01,2.95875121030199E+01,5.84328295309367E+01,7.16418359676878E+01,1.01365759678804E+02,3.00371992033227E+01,3.03220643288440E+01,3.35588438227526E+01,3.72456737119231E+01,3.32417958596372E+01,1.60125884689864E+01,1.59346583540712E+01,1.73332576499309E+01,
ARM,,,,,,,,,,,,,,,,,,,,,,,,,,,,,,,,,,,,,,,,,,1.01361654312863E-01,4.29236862441051E-01,9.65867541964200E-01,5.06199491706893E-01,8.73391538534213E-01,9.42468198356920E-01,1.14052612730883E+00,1.50935651906808E+00,1.64509920891255E+00,3.02102310217222E-01,
AUS,,,,,,,,,,,,,,,,,,,,,,,,,,,,,5.78089778970290E+01,4.67114369260850E+01,3.46561310967383E+01,4.51562393119432E+01,4.40740524099062E+01,6.49227181641484E+01,6.70276060972400E+01,6.60804237355183E+01,7.72878859755463E+01,6.75810666837285E+01,8.19877482431760E+01,1.09603765254203E+02,8.94155791928202E+01,9.86076403697868E+01,9.53695998992943E+01,1.24976315355830E+02,1.26187720630663E+02,1.15522255093867E+02,1.46247692850546E+02,1.51541112648876E+02,6.49999094880432E+01,1.36072334701006E+02,,
AUT,,,,,,,,,,,,,,,,,,,,,,,,,,,,,6.70428147284379E+00,1.69048869133599E+01,6.97617449131257E+00,4.46660984199671E+00,1.12896904977391E+01,1.51028753800648E+01,1.50462879806427E+01,1.36429186143958E+01,1.45009670516777E+01,1.72681317378666E+01,1.60763069020262E+01,1.56566526412516E+01,1.56564606105192E+01,1.28903175550502E+01,1.54885647531495E+01,2.18564638672830E+01,2.98726675576885E+01,4.10633360440678E+01,5.93473404884240E+01,6.14323802322919E+01,1.74354799340076E+01,1.40593889622219E+01,1.79929950931663E+01,
AZE,,,,,,,,,,,,,,,,,,,,,,,,,,,,,,,,,,,,,,,6.74703704564875E-02,,,,,,,,,,,,,
BEL,,,,,,,,,,,,,,,,,,,,,,,,,,,,,3.67870331529351E+01,4.60474467202833E+01,3.22862222685253E+01,3.43328856657096E+01,2.77182913140598E+01,3.52142038855342E+01,3.48133975857777E+01,3.69392721441264E+01,4.35063707750893E+01,5.49093416876882E+01,9.62349987374287E+01,7.27615642967443E+01,7.85298622609192E+01,7.14363833822220E+01,5.05268565772993E+01,5.57702942595592E+01,7.56688427089878E+01,7.66070932395738E+01,9.92749812310755E+01,8.42444387723622E+01,3.31332621595998E+01,5.54860714301901E+01,5.76167385046069E+01,
BGD,,,,,,,,,,,,,,,,,,,,,,,,,,,,,1.67714888797180E+00,1.77444822053937E+00,1.06542660856666E+00,8.68934765194446E-01,9.90259388270625E-01,1.36583477131897E+00,3.10939183146438E+00,3.52664394366343E+00,1.11911627639402E+01,3.63195566299035E+00,2.34510969222264E+00,1.89390714142335E+00,2.51660875506937E+00,2.43586411008005E+00,2.50767639576722E+00,3.12347454139512E+00,5.86445609570263E+00,5.03570474795458E+00,5.83230188784539E+00,9.92938414131993E+00,8.38491167436089E+00,7.90918246521063E+00,4.69642446556915E+01,
BGR,,,,,,,,,,,,,,,,,,,,,,,,,,,,,,,,,,,,4.66750254561512E-01,7.87373736409928E-02,1.98936309765722E-02,7.59525483523408E+00,5.33904593644971E+00,4.78364608024769E+00,3.63980486656521E+00,4.58915500555765E+00,8.49189567290766E+00,1.10901974952941E+01,1.76001913716395E+01,3.10907324036479E+01,5.17480365345076E+01,1.70913105100330E+01,1.46251521258577E+01,1.52488445540418E+01,
BHR,,,,,,,,,,,,,,,,,,,,,,,,,,,,,,,,,,,,,,,1.09477110129853E+02,1.08068191208412E+02,8.31088557806342E+01,8.32333807490679E+01,8.07257344247625E+01,9.95299398274409E+01,1.20270341896887E+02,1.29004786008915E+02,1.33222743631423E+02,1.52294652873001E+02,9.66838130760979E+01,8.22202974136633E+01,,
BMU,,,,,,,,,,,,,,,,,,,,,,,,,,,,,,,,,,,,,,4.81105772689627E+01,4.79118728176142E+01,3.91044126923298E+01,6.11739793789041E+01,6.74444587097320E+01,5.54868312529386E+01,6.95876529770970E+01,4.14821026677561E+01,4.38447286060452E+01,5.01975340133055E+01,4.66000482873764E+01,3.15155264640243E+01,2.37991006596329E+01,,
BOL,,,,,,,,,,,,,,,,,,,,,,,,,,,,,,,,,,,4.01256000605610E-01,1.44449180244655E+00,1.54117533445411E+00,4.13841807336063E+00,6.70785582324062E+00,8.32421934898939E+00,2.07418958180508E+01,1.90996434767859E+01,1.85778225133705E+01,1.58618193298485E+01,2.26602463757451E+01,2.30385880705907E+01,1.94120084285496E+01,1.72477953693802E+01,1.60265515588105E+01,1.61040441610620E+01,1.71230780865676E+01,
BRA,,,,,,,,,,,,,,,,,,,,,,,,,,,,,9.71557327416921E+00,1.04324460304790E+01,3.55015407214080E+00,1.05072491594316E+01,1.15985351402739E+01,2.26785562129830E+01,3.46005964685198E+01,1.91996584154255E+01,2.58418875018843E+01,2.93248397232796E+01,1.90663601724745E+01,3.88442079556601E+01,3.50786129478873E+01,3.36423005059379E+01,2.45541545824869E+01,4.24566659144868E+01,4.97689797517175E+01,5.38035358858516E+01,6.53033911248187E+01,1.00321669418910E+02,3.56633502958772E+01,7.32105702719332E+01,7.40252595548151E+01,
BRB,,,,,,,,,,,,,,,,,,,,,,,,,,,,,,,1.64870250299016E+01,1.82554492575247E+01,1.63046902875355E+01,1.99850482071573E+01,2.99952042913621E+01,2.65713426966868E+01,3.88320819372990E+01,5.20442979015243E+01,1.02007143792829E+02,8.13345551389122E+01,6.60265165331017E+01,7.15687576664355E+01,1.38978712744204E+02,1.29607989145806E+02,1.85190292823893E+02,1.83457052316491E+02,1.55265268977404E+02,1.64240290977355E+02,1.35237718094230E+02,1.22095155050239E+02,1.36297086684358E+02,
BTN,,,,,,,,,,,,,,,,,,,,,,,,,,,,,,,,,,,,,1.09646487883864E+01,1.04997782377817E+01,1.09639001284903E+01,,,,,,,,,,,,,
BWA,,,,,,,,,,,,,,,,,,,,,,,,,,,,,,,,6.62098321255719E+00,7.11542163322934E+00,6.27359058557912E+00,8.68760454923710E+00,8.33729548320972E+00,6.79148791002161E+00,1.18540129529611E+01,1.39484422606094E+01,1.79343543257655E+01,1.73569267019040E+01,2.10257163628282E+01,2.82835930254144E+01,2.63483011270513E+01,2.53592994937639E+01,2.37603450443031E+01,3.50681335539118E+01,4.75678962287450E+01,2.63911757992970E+01,3.47844926171811E+01,2.74340342327234E+01,
CAN,,,,,,,,,,,,,,,,,,,,,,,,,,,,,4.85780979394204E+01,5.23839628093802E+01,4.15291781816431E+01,4.46332994263490E+01,4.19304049535825E+01,5.79287533747841E+01,5.58037836064319E+01,6.20378054998235E+01,7.92274990918476E+01,8.90356904069521E+01,8.81036925679774E+01,1.21118566270933E+02,1.16066120725224E+02,9.79491094970615E+01,7.83103029998135E+01,1.03242631519711E+02,1.18674265067825E+02,1.30617691002198E+02,1.33012174168501E+02,1.53542782946078E+02,6.68541128688315E+01,1.25813842316828E+02,1.37239962257785E+02,
CHE,,,,,,,,,,,,,,,,,,,,,,,,,,,,,7.29828062644923E+01,9.16732071447857E+01,6.71668703194130E+01,7.21986289218995E+01,7.76947538744452E+01,1.11316807574046E+02,1.05133173362551E+02,1.37247946486357E+02,1.31944851051431E+02,2.17449983436845E+02,2.52794205928324E+02,2.58425384309066E+02,3.17029456822598E+02,2.45427706216312E+02,1.98315957531528E+02,2.23649348750188E+02,2.27512549929426E+02,2.51995874968812E+02,3.09919187185776E+02,2.93588269447108E+02,1.71692171640926E+02,2.17654181009354E+02,2.34712088784237E+02,
CHL,,,,,,,,,,,,,,,,,,,,,,,,,,,,,2.77992945261471E+01,3.37854030069367E+01,4.30939866146584E+01,7.68720369608668E+01,6.65648009562377E+01,9.35128263656372E+01,1.23653263842891E+02,1.03519026996961E+02,8.70276668375415E+01,8.70026349957993E+01,6.53441470564302E+01,9.34683966927835E+01,8.03089469421054E+01,8.21220967903164E+01,7.07409866197118E+01,1.16626336926166E+02,1.22385251856505E+02,1.15387904130913E+02,1.18929367518706E+02,1.29574258472596E+02,7.75610294342136E+01,1.30222694896611E+02,1.67902060596564E+02,
CHN,,,,,,,,,,,,,,,,,,,,,,,,,,,,,,,,5.34958544423932E-01,4.32971194445192E+00,9.21677993380505E+00,7.77862613465735E+00,5.77672858230981E+00,1.32878202478143E+01,2.16622491595536E+01,2.26906716299804E+01,3.05280316095922E+01,4.84772990823565E+01,3.95493351816352E+01,3.18524666950244E+01,4.15125283602374E+01,3.31202122329297E+01,3.45944300963245E+01,8.94349443010429E+01,1.78197073227317E+02,6.17806179248719E+01,1.00328371728738E+02,8.10195126294796E+01,
CIV,,,,,,,,,,,,,,,,,,,,,,,,,,,,,4.26124793415722E+00,5.44199539309569E+00,5.08519769867995E+00,5.15598405716211E+00,4.33067141035502E+00,3.74827499157174E+00,5.14817368367054E+00,7.87264741608125E+00,7.52926948431755E+00,1.08853278557102E+01,1.42224875522139E+01,1.20587954957961E+01,1.13781252416843E+01,1.10442948474147E+01,1.15624515737733E+01,1.20118742840772E+01,1.34526678290890E+01,1.42230470840942E+01,2.39257591788100E+01,4.21954847561254E+01,3.01988049313514E+01,2.66528056704223E+01,3.11638643756529E+01,
COL,,,,,,,,,,,,,,,,,,,,,,,,,,,,,2.90723282609978E+00,2.88315019821220E+00,3.52583003009375E+00,9.79642082656336E+00,1.15260710070337E+01,1.65583869395182E+01,1.71351295622711E+01,1.93422619559004E+01,1.76378965837898E+01,1.83101350952023E+01,1.35681553413763E+01,1.34478884537013E+01,9.52492908229609E+00,1.33847290227660E+01,9.83792968640386E+00,1.50221157182780E+01,2.15233953228794E+01,3.13952989999588E+01,3.45218423835498E+01,4.91565559077138E+01,3.55748633449864E+01,5.65227663330714E+01,7.23489616991770E+01,
CRI,,,,,,,,,,,,,,,,,,,,,,,,,,,,,,,,,5.54025616651440E+00,4.50287267613786E+00,,,6.59448569921932E+00,6.39178056189881E+00,9.27927995520408E+00,1.45809091296235E+01,1.83344959887136E+01,1.85483640288215E+01,1.53523026482724E+01,1.26583613838568E+01,7.57695824422459E+00,7.40409295202021E+00,8.63131410207085E+00,7.74830704055319E+00,6.36146261884498E+00,4.96453534107821E+00,4.18036568617477E+00,
CYP,,,,,,,,,,,,,,,,,,,,,,,,,,,,,,,,2.23590773045949E+01,1.70669361492797E+01,1.48890402743702E+01,1.79582109399622E+01,2.71890241394531E+01,2.51865932193014E+01,2.25891380410843E+01,2.73974304447196E+01,7.10560747889210E+01,4.67055795182146E+01,6.39209511687779E+01,4.72654824836980E+01,3.60581328601966E+01,3.08425309676688E+01,3.87345505222420E+01,8.63010923021308E+01,1.35000302867023E+02,3.13518863436206E+01,1.99400946541271E+01,,
CZE,,,,,,,,,,,,,,,,,,,,,,,,,,,,,,,,,,,1.44559692830363E+01,2.83475160959058E+01,2.91514689009447E+01,2.23786333840209E+01,1.94755804331918E+01,1.95980127459875E+01,1.93971402851950E+01,1.50886633650963E+01,2.11125651155114E+01,1.93334722840701E+01,2.81790405808733E+01,3.07873063732785E+01,3.40818007257755E+01,4.21433881351351E+01,2.26071117795868E+01,2.77007199891986E+01,2.24071124608815E+01,
DEU,,,,,,,,,,,,,,,,,,,,,,,,,,,,,1.85841765776974E+01,2.69611540508732E+01,2.07061061455151E+01,2.17294731104121E+01,1.68756601458755E+01,2.31222378652842E+01,2.19223938390683E+01,2.28859496064270E+01,2.75168209766653E+01,3.81947805782061E+01,5.00787436220985E+01,6.68118214739344E+01,6.68471257832727E+01,5.66771639724242E+01,3.42663184487019E+01,4.41823294762391E+01,4.35126993050521E+01,4.37976821639749E+01,5.61176889702743E+01,6.32446320723959E+01,3.04842347996504E+01,3.89656327112555E+01,4.31978774816436E+01,
DNK,,,,,,,,,,,,,,,,,,,,,,,,,,,,,2.66711934126718E+01,3.65260582335169E+01,2.87842532082428E+01,3.27739394279035E+01,2.17050461441419E+01,2.97134335244586E+01,3.54175806277432E+01,3.08945397407667E+01,3.88688050356806E+01,5.50155464308780E+01,5.69416203283557E+01,6.05322754878205E+01,6.72565113558028E+01,5.50676040839670E+01,4.41611242380004E+01,5.71983838452453E+01,6.18410477359692E+01,6.90939759120607E+01,8.41960893780610E+01,8.91877540965058E+01,3.85178348491983E+01,6.04846651987145E+01,7.46593207448416E+01,
DOM,,,,,,,,,,,,,,,,,,,,,,,,,,,,,,,,,,,,,,7.14524500234856E-01,,,,,,,,,,,,,,
EAP,,,,,,,,,,,,,,,,,,,,,,,,,,,,,,,,1.63686863439298E+01,2.51987118537938E+01,5.50320083965462E+01,4.67794592482692E+01,4.20629480081030E+01,4.76781197120088E+01,2.55218432288996E+01,3.07387432987688E+01,4.24134263967531E+01,4.69080929268282E+01,4.20373136580740E+01,3.58286943703856E+01,4.65598220846293E+01,4.01683684747703E+01,4.01106048571442E+01,8.32289474992873E+01,1.54398744871341E+02,5.59476613118132E+01,9.07839296910712E+01,8.04096915621344E+01,
EAS,,,,,,,,,,,,,,,,,,,,,,,,,,,,,1.17019371138896E+02,1.26162547146226E+02,8.13259654176321E+01,7.33180787647034E+01,5.63722563878469E+01,7.18639541260441E+01,7.48536357112412E+01,6.63623723617082E+01,6.71008595834063E+01,5.13814415446265E+01,6.23808829245239E+01,9.87020700755513E+01,6.97904538838556E+01,6.15699515192811E+01,5.76415896739674E+01,7.52024542998915E+01,7.94127463803407E+01,9.14467257832484E+01,1.09921938986900E+02,1.37922437457451E+02,7.04018180183576E+01,1.01872155269522E+02,9.89505859017100E+01,
ECA,,,,,,,,,,,,,,,,,,,,,,,,,,,,,,,,2.41421066042101E+00,1.63862320942455E+00,6.09570592022476E+00,3.92246566852489E+00,5.89802615252728E+00,1.05353958218034E+01,2.63669040838415E+01,8.75878136181225E+00,3.27852440363205E+01,1.73520561294862E+01,1.98198129879146E+01,2.23466225641197E+01,3.30701612331337E+01,3.18929065733392E+01,4.86958620075920E+01,6.93007599992781E+01,8.06345159591274E+01,1.98366678838609E+01,5.05261865754328E+01,5.18759464122391E+01,
ECS,,,,,,,,,,,,,,,,,,,,,,,,,,,,,3.47042354332222E+01,4.19128255488493E+01,3.16708712319671E+01,3.16240266955725E+01,2.71008139289680E+01,3.82109466086206E+01,3.96849545272416E+01,4.22313310326838E+01,4.88218718434089E+01,6.27888654829906E+01,7.78103183861679E+01,1.00166828153230E+02,9.94414048002036E+01,7.99199630165351E+01,6.15246853596316E+01,7.04417881429380E+01,7.21743019096973E+01,7.59685165800033E+01,9.51925968092007E+01,9.60777611525429E+01,4.15770395769181E+01,6.34243735277167E+01,6.78224970647535E+01,
ECU,,,,,,,,,,,,,,,,,,,,,,,,,,,,,,,,,5.75155731731301E-01,7.30255515409139E+00,1.34539466175858E+01,1.30210875280946E+01,9.14551013354562E+00,8.99889936033361E+00,6.56318245661815E+00,2.48700686791475E+00,4.41698542610681E+00,6.66625854244858E+00,7.02653199879949E+00,7.51898603952122E+00,7.90580298983908E+00,8.64410953715958E+00,9.68715981297207E+00,9.37607134380577E+00,8.41590973555808E+00,8.16509173252034E+00,8.93387481283144E+00,
EGY,,,,,,,,,,,,,,,,,,,,,,,,,,,,,5.02216697737081E+00,4.31290586381019E+00,4.08064701834427E+00,7.16786605795293E+00,7.78870467399197E+00,8.17971626218233E+00,8.20841137749808E+00,1.34443177756141E+01,2.09567634840062E+01,2.65564882230741E+01,2.87414155459354E+01,3.62005382759629E+01,2.87878605926054E+01,2.49253707731817E+01,2.97024221438783E+01,3.26476825402352E+01,4.88500593326681E+01,8.88348286178900E+01,8.69685719427226E+01,1.06757039873550E+02,5.27433716703349E+01,4.75979258677963E+01,3.76839110170685E+01,
EMU,,,,,,,,,,,,,,,,,,,,,,,,,,,,,2.27277193912749E+01,2.99701079768318E+01,2.11392728503066E+01,2.25270414451575E+01,1.85529845180998E+01,2.60641864122781E+01,2.80844098471281E+01,2.93872832907022E+01,3.36793003007863E+01,4.47751053331252E+01,6.29352209907685E+01,8.31923833879968E+01,8.67995397971969E+01,6.81313368725746E+01,5.08764258624953E+01,5.82332946010812E+01,6.08780931514615E+01,6.26133764872706E+01,8.04019562101485E+01,8.47155946966311E+01,3.80362707115194E+01,4.94222771397013E+01,5.16188257405759E+01,
ESP,,,,,,,,,,,,,,,,,,,,,,,,,,,,,2.49431467359787E+01,3.05433931930927E+01,2.13064847422062E+01,2.64099030553851E+01,1.61610513797604E+01,2.33934071514527E+01,3.00609666984944E+01,3.31441569749891E+01,3.90051076173091E+01,5.07097422016546E+01,6.69364425488375E+01,6.98628091291888E+01,8.68335327030145E+01,7.68670138450192E+01,6.77596354550857E+01,8.21851817527264E+01,9.00769541107350E+01,8.49450922922677E+01,1.07152924268976E+02,1.24838461368805E+02,5.93579202733860E+01,8.86030278018296E+01,8.32464443900349E+01,
EST,,,,,,,,,,,,,,,,,,,,,,,,,,,,,,,,,,,,,,2.17946333482976E+01,9.27088921469416E+00,3.13605098541398E+01,3.25241506421530E+01,2.37596265640589E+01,3.31752006410638E+01,3.84988846227684E+01,5.15538066145661E+01,2.51384399936418E+01,3.59127314514666E+01,2.82329503343263E+01,8.29409270235649E+00,1.39059742791449E+01,1.21027372828680E+01,
EUU,,,,,,,,,,,,,,,,,,,,,,,,,,,,,3.42850466435302E+01,4.12419511081148E+01,3.10303434890231E+01,3.31261636240857E+01,2.76926596791201E+01,3.87159003056465E+01,4.00541495451591E+01,4.14654124737781E+01,4.88116135957716E+01,6.13390720542451E+01,7.81611784697823E+01,1.00420981225265E+02,1.00170676932639E+02,7.99446062889929E+01,6.08312119076435E+01,6.93624307971622E+01,7.16513592968582E+01,7.40636733741368E+01,9.22678323222722E+01,9.21352974808004E+01,4.14998804413665E+01,6.00929687427809E+01,6.47152338029731E+01,
FIN,,,,,,,,,,,,,,,,,,,,,,,,,,,,,2.81952706765474E+01,2.63081401193740E+01,1.63492059738375E+01,1.14177723991002E+01,1.10779424308002E+01,2.69826486380050E+01,3.80643894391633E+01,3.37704948638343E+01,4.91940269520012E+01,5.96554329431937E+01,1.19161871846793E+02,2.68327242617794E+02,2.41246848777534E+02,1.52900602020144E+02,1.02774483081489E+02,1.03751255287435E+02,9.72725261035245E+01,1.07094233359829E+02,1.27758014605591E+02,1.50097536824062E+02,5.70719167245436E+01,3.82459485332308E+01,4.94803205283950E+01,
FJI,,,,,,,,,,,,,,,,,,,,,,,,,,,,,,,,,,,1.75315072593923E+00,3.40041502760836E+00,3.85109103078983E+00,4.44127220402898E+00,5.31149254184768E+00,5.53577414372729E+00,1.44800473925267E+01,7.31565570240435E+00,2.02270893789443E+01,1.86967757908616E+01,1.97488237776585E+01,1.95128731131115E+01,2.05181344407834E+01,1.54498317349925E+01,1.59380320218426E+01,5.68883958159550E+01,4.66564986243868E+01,
FRA,,,,,,,,,,,,,,,,,,,,,,,,,,,,,2.44716365863236E+01,3.62459429446439E+01,2.52378447249497E+01,2.79426971235611E+01,2.55650528604462E+01,3.51665083018572E+01,3.29868765655750E+01,3.32081957245601E+01,3.75847002835544E+01,4.74408534746230E+01,6.74996652117975E+01,1.01306419711747E+02,1.09070085006746E+02,8.77550446052367E+01,6.65937461939238E+01,7.56564030991506E+01,7.58440708101335E+01,8.23157070867046E+01,1.07663523455055E+02,1.07312104924799E+02,5.26990092429566E+01,7.51395320990045E+01,7.52533902501031E+01,
GBR,,,,,,,,,,,,,,,,,,,,,,,,,,,,,9.05845617586298E+01,9.62283337529101E+01,8.38455298811191E+01,9.35743614274130E+01,8.49094301034403E+01,1.17383411013622E+02,1.14110960030531E+02,1.21658843707468E+02,1.42696761525138E+02,1.46886283963021E+02,1.63073913766548E+02,1.95219290941393E+02,1.74406184605129E+02,1.47170398844886E+02,1.15644978080450E+02,1.32203945232673E+02,1.27852021657578E+02,1.34124116396043E+02,1.55240571721879E+02,1.37265888700223E+02,6.96882734653597E+01,1.28681354704501E+02,1.38331635127267E+02,
GEO,,,,,,,,,,,,,,,,,,,,,,,,,,,,,,,,,,,,,,,,,7.91508368316233E-01,2.77373311868708E+00,3.07735015794008E+00,5.07594559164344E+00,4.02196047114632E+00,5.53177284641543E+00,8.62875838281742E+00,1.36539643637311E+01,2.55810287048540E+00,6.81088884784725E+00,9.08409367868562E+00,
GHA,,,,,,,,,,,,,,,,,,,,,,,,,,,,,,,,1.15158872252410E+00,1.30991596459350E+00,1.97797266888546E+00,3.43717145262030E+01,2.55364287436797E+01,2.15434770039844E+01,1.65310275136351E+01,1.85174807171817E+01,1.18787040739463E+01,1.00936440276218E+01,9.93698002190661E+00,1.20203247513405E+01,1.86988347434992E+01,2.97975443016133E+01,1.54899851275540E+01,1.58565319293889E+01,9.66293268345063E+00,1.18988729161093E+01,9.58193153867108E+00,1.12805835069800E+01,
GRC,,,,,,,,,,,,,,,,,,,,,,,,,,,,,5.83214251225902E+00,8.37440070184666E+00,1.61357389630533E+01,1.29472764151121E+01,8.48508727237892E+00,1.17651867640771E+01,1.32978400968367E+01,1.29518752966864E+01,1.73575964471826E+01,2.51414663238222E+01,5.85962798904699E+01,1.51935013478486E+02,8.82765382570016E+01,6.60434501165995E+01,4.66390226286743E+01,5.48999440363150E+01,5.44435724887129E+01,5.98543467816067E+01,7.85762471135361E+01,8.52481857461593E+01,2.60476575834391E+01,1.67594130350957E+01,2.38265622047851E+01,
GTM,,,,,,,,,,,,,,,,,,,,,,,,,,,,,,,,,,,,8.46016883253087E-01,1.06453219847358E+00,7.81396810815356E-01,8.86887216802069E-01,,,,,,,,,,,,,
GUY,,,,,,,,,,,,,,,,,,,,,,,,,,,,,,,,,,,,,,,,,,,,1.26956345963858E+01,1.62050654544182E+01,2.27113154010654E+01,1.28460723905441E+01,1.50762696604104E+01,1.50788690422211E+01,1.41693657709998E+01,1.52938613771785E+01,
HIC,,,,,,,,,,,,,,,,,,,,,,,,,,,,,6.29020661462961E+01,7.20561776861906E+01,5.10159808360196E+01,5.66583416476957E+01,5.03396807787896E+01,6.22424366935867E+01,6.21696032853267E+01,6.66952751827815E+01,7.51616229362274E+01,8.83544977835117E+01,1.05067966161212E+02,1.32768233128434E+02,1.15286617258487E+02,1.00543247366178E+02,8.04713098962368E+01,9.68581625682144E+01,1.03207213652992E+02,1.08943081743289E+02,1.21041836877309E+02,1.21036660371771E+02,6.46052982583167E+01,9.02878349455943E+01,9.84349068099972E+01,
HKG,,,,,,,,,,,,,,,,,,,,,,,,,,,,,1.24830225797873E+02,1.12723486395310E+02,1.08470823275986E+02,1.37335800586753E+02,1.65380919689369E+02,3.21151242629563E+02,1.98836991784832E+02,2.10569968648582E+02,2.82690419717751E+02,2.34426728730289E+02,2.05737551066294E+02,3.73027387903401E+02,3.68610492880001E+02,3.03777836513814E+02,2.82746326305848E+02,3.47625292416069E+02,4.01026502488898E+02,3.90099381049428E+02,4.71353425703391E+02,5.61389340057632E+02,6.17013744380330E+02,1.09496474453726E+03,1.20794772477371E+03,
HND,,,,,,,,,,,,,,,,,,,,,,,,,,,,,,,,1.30358463674108E+00,,,7.86631557064652E+00,8.64217346095396E+00,,,8.80394105454442E+00,,,,,,,,,,,,,
HRV,,,,,,,,,,,,,,,,,,,,,,,,,,,,,,,,,,,3.52576729735932E+00,2.63544564446771E+00,1.27455904771251E+01,1.80667964289428E+01,1.27059232775998E+01,1.12152258252393E+01,1.27598329284474E+01,1.43959897136385E+01,1.49882960533044E+01,1.79408857178523E+01,2.67260703455777E+01,2.88210262393273E+01,5.81798898664519E+01,1.11223233416395E+02,3.83202239608517E+01,4.04146288097895E+01,4.09384224374432E+01,
HUN,,,,,,,,,,,,,,,,,,,,,,,,,,,,,,,,1.51066276964631E+00,1.50854406046939E+00,2.10386221009986E+00,3.85342381758723E+00,5.37214155742572E+00,1.16755668582457E+01,3.27511553349432E+01,2.98155762902638E+01,3.39632882477725E+01,2.51029875581798E+01,1.94901348636787E+01,1.97130664975396E+01,1.98386581953402E+01,2.81273870271908E+01,2.95617124600818E+01,3.71790676528711E+01,3.45555669846039E+01,1.19524897642241E+01,2.19689052754616E+01,2.12457383340879E+01,
IDN,,,,,,,,,,,,,,,,,,,,,,,,,,,,,2.84949625374729E-01,2.21772754980060E+00,7.06130148003195E+00,5.32114080906850E+00,8.62587819201601E+00,2.08851701766677E+01,2.66829265836208E+01,3.29413399069390E+01,4.00299650607999E+01,1.34902222529340E+01,2.31587543464896E+01,4.57761458322622E+01,1.62610832643313E+01,1.43384778200084E+01,1.53282614428775E+01,2.32817172317262E+01,2.85202962508856E+01,2.84844565464092E+01,3.80958827157416E+01,4.89910659984349E+01,1.93562207881250E+01,3.30379458814027E+01,5.10061420317631E+01,
IND,,,,,,,,,,,,,,,,,,,,,,,,,,,,,8.05048712177110E+00,9.32003419709904E+00,1.21587585988878E+01,1.78302092743074E+01,2.65115702849285E+01,3.55024410387422E+01,3.95664819780973E+01,3.57000729997072E+01,3.15712430609807E+01,3.12633872644481E+01,2.52702421186855E+01,4.09798752298493E+01,3.21750567957593E+01,2.31026375628403E+01,2.58307403102877E+01,4.65572653625599E+01,5.37507675991893E+01,6.63129814251933E+01,8.60763998116783E+01,1.46415177167809E+02,5.31790329338707E+01,8.54121538505773E+01,9.34557795324086E+01,
IRL,,,,,,,,,,,,,,,,,,,,,,,,,,,,,,,,,,,,3.85026783306392E+01,4.69069618515635E+01,6.08165500444351E+01,7.56706984819147E+01,7.14206494547622E+01,8.46288763046807E+01,7.18361701382411E+01,4.91817724017377E+01,5.38342765170690E+01,6.15226250637143E+01,5.65434309404167E+01,7.34279262567105E+01,5.55679494287584E+01,1.87371866505023E+01,1.34740701189280E+01,1.65391105323426E+01,
IRN,,,,,,,,,,,,,,,,,,,,,,,,,,,,,,,,,,2.16348239952209E+00,4.12643153076566E+00,7.21351581623701E+00,1.53961024761372E+01,1.43967223678910E+01,1.44961029461813E+01,2.08857584132365E+01,7.25647437038958E+00,8.40602576770254E+00,1.23211875621419E+01,2.54365992833323E+01,2.87913036056300E+01,2.01670826705704E+01,1.70240653363606E+01,1.59316729902189E+01,1.45008658794715E+01,1.91226419127590E+01,,
ISL,,,,,,,,,,,,,,,,,,,,,,,,,,,,,,,,,,,7.68888179349489E+00,1.02591867350483E+01,1.65053299331824E+01,2.50438006996374E+01,3.74590294541875E+01,5.49836408040273E+01,5.10395283723142E+01,5.25199810274439E+01,7.09937041543289E+01,8.47327273730259E+01,1.33213102744460E+02,1.70526527484808E+02,2.16794659097224E+02,1.98526416415630E+02,3.29547293888025E+01,9.32732978997170E+00,1.58513741189151E+01,
ISR,,,,,,,,,,,,,,,,,,,,,,,,,,,,,1.24394878835046E+01,1.84530090871883E+01,6.32497504825805E+00,1.04444307195236E+01,4.50044893506760E+01,7.70565827686255E+01,4.37928534486699E+01,3.78900414359121E+01,3.41031021950045E+01,4.17640517950951E+01,3.60626377700081E+01,5.76039851729144E+01,5.13675831664832E+01,5.71030126267994E+01,4.01479660632774E+01,6.36807750598338E+01,7.52937211869624E+01,8.94720975933610E+01,1.18829875405112E+02,1.41542073068177E+02,6.65325910169618E+01,9.31950103271689E+01,1.00332241644739E+02,
ITA,,,,,,,,,,,,,,,,,,,,,,,,,,,,,1.57149884416128E+01,1.88879163213882E+01,1.31462085059884E+01,1.33024929241761E+01,1.01911822650744E+01,1.33353979090249E+01,1.70918362020795E+01,1.86069530134322E+01,2.04953468702328E+01,2.89070385364677E+01,4.68110513256144E+01,6.06479242236718E+01,7.00202860849720E+01,4.72002943206829E+01,3.94307390794893E+01,4.07943737089612E+01,4.56968966221901E+01,4.48990120123366E+01,5.50955282643699E+01,5.06894732517389E+01,2.26804128014513E+01,1.50304509383461E+01,1.55083486343642E+01,
JAM,,,,,,,,,,,,,,,,,,,,,,,,,,,,,2.07922863057427E+01,2.17256177914543E+01,1.98379506772210E+01,2.50839829268229E+01,9.13603062738182E+01,3.00538798795424E+01,3.54384981303883E+01,2.18458092515264E+01,2.89093379678777E+01,2.74471883048715E+01,2.44676557685571E+01,2.86505137537988E+01,3.97644270837901E+01,5.16526088377289E+01,6.03291721802617E+01,9.04374051587768E+01,1.42227156529620E+02,1.16825308433194E+02,1.02398931152881E+02,9.56645014164412E+01,5.32022654591889E+01,4.90158878416084E+01,4.73487212948411E+01,
JOR,,,,,,,,,,,,,,,,,,,,,,,,,,,,,3.68605903510588E+01,5.23200607057038E+01,4.97479293932466E+01,5.98568788186350E+01,6.32669094348458E+01,8.72314638299377E+01,7.35899231011240E+01,6.94170452054903E+01,6.56853000815554E+01,7.51374702240010E+01,7.37669035981419E+01,7.14775407449575E+01,5.84027947070040E+01,7.03299621874203E+01,7.39445777365226E+01,1.07503845238049E+02,1.61096931390781E+02,2.98989675245847E+02,1.90019773118276E+02,2.32004134721578E+02,1.57936014326997E+02,1.26990203912878E+02,1.11934933171400E+02,
JPN,,,,,,,,,,,,,,,,,,,,,,,,,,,,,1.31604065796904E+02,1.47678842096642E+02,9.54860527906414E+01,8.98194236852269E+01,6.32225415457075E+01,6.89597126685078E+01,7.78388778649732E+01,6.96623691681266E+01,6.65335588267442E+01,5.20126977190469E+01,6.47067388885324E+01,1.04079024533670E+02,6.76434230365063E+01,5.49828504727862E+01,5.42596524368823E+01,7.18986791110812E+01,7.98594242101246E+01,1.04048869254277E+02,1.08336318762420E+02,1.01725263331828E+02,6.59954220638038E+01,6.71151167679911E+01,7.45676748566817E+01,
KAZ,,,,,,,,,,,,,,,,,,,,,,,,,,,,,,,,,,,,,,6.05444353635731E+00,8.26998263722337E+00,1.34268839385973E+01,7.33818438872198E+00,5.43500607514736E+00,5.44294292732865E+00,7.86347588418349E+00,9.13221226471769E+00,1.84182582818063E+01,5.39336600787042E+01,3.94622123331316E+01,2.32874867039895E+01,5.00017814547111E+01,4.24808113340738E+01,
KEN,,,,,,,,,,,,,,,,,,,,,,,,,,,,,5.67299093670259E+00,6.03259536815722E+00,5.27322140162267E+00,5.55684693689741E+00,7.74871481536463E+00,1.84290564300255E+01,4.30881130658687E+01,2.08482290502823E+01,1.53247964526713E+01,1.39069657608184E+01,1.43615070940783E+01,1.09287803047747E+01,1.01100134089738E+01,8.08376694853370E+00,1.08224313170229E+01,2.80348395185645E+01,2.41733567155735E+01,3.40698921372442E+01,5.05640329307694E+01,4.92630915666551E+01,3.63504561241843E+01,3.66151641422510E+01,4.60410596320414E+01,
KGZ,,,,,,,,,,,,,,,,,,,,,,,,,,,,,,,,,,,,,,,,3.15655363639549E-01,2.82910327814359E-01,2.53259839165278E-01,4.57838911631242E-01,1.59886212292022E+00,1.53739349406842E+00,1.70714101269215E+00,3.27051434182395E+00,3.18206165427628E+00,1.82477568736738E+00,1.53175294309299E+00,1.71138059261843E+00,
KNA,,,,,,,,,,,,,,,,,,,,,,,,,,,,,,,,,,,,,,,,,,,,6.75593213318020E+01,6.25653813461388E+01,6.22098884811100E+01,6.25126410942812E+01,8.56778245176063E+01,1.04402270634931E+02,1.23141763047762E+02,1.18608161974905E+02,
KOR,,,,,,,,,,,,,,,,,,,,,,,,,,,,,,6.11784933175744E+01,4.20810033552085E+01,3.12799085203144E+01,3.24354596486989E+01,3.83833978779441E+01,4.53435278749895E+01,3.51863509517781E+01,2.48934979527254E+01,8.91991507830437E+00,3.50740103300373E+01,8.88335806053160E+01,3.21694723650949E+01,4.36092251133378E+01,4.33453878889537E+01,5.12014923184790E+01,5.93716746581509E+01,8.50055069655845E+01,8.77507230912497E+01,1.07090548958875E+02,5.31060308343999E+01,1.00287878247934E+02,1.07366642046360E+02,
KWT,,,,,,,,,,,,,,,,,,,,,,,,,,,,,5.70314999347754E+01,4.08409098505274E+01,,,,4.19733334602755E+01,4.36646338138954E+01,5.27845149592722E+01,6.93488824516172E+01,8.57088264559622E+01,6.98792493220612E+01,6.24616359187994E+01,5.50718322393703E+01,6.64678379529520E+01,8.05078859680177E+01,1.24089666713586E+02,1.16697634877505E+02,1.60993991054804E+02,1.26958049576518E+02,1.63914617108130E+02,7.20295707633476E+01,8.76448356614614E+01,,
LAC,,,,,,,,,,,,,,,,,,,,,,,,,,,,,7.64187970311586E+00,9.91655691820058E+00,7.62708830640971E+00,1.89289232557223E+01,2.09990929184238E+01,3.11275669307540E+01,2.98177874424417E+01,2.29775106026969E+01,2.59455120907803E+01,2.95602785266149E+01,1.94725684890986E+01,3.28032972587254E+01,3.17437079974395E+01,3.23517036982431E+01,2.53517258941343E+01,2.96895325447204E+01,3.55547716833901E+01,4.04701642632609E+01,4.90978746738484E+01,6.98888439684297E+01,3.11670773493063E+01,5.28942473614530E+01,5.77052917368438E+01,
LBN,,,,,,,,,,,,,,,,,,,,,,,,,,,,,,,,,,,,3.41332012364016E+00,,1.84359092783505E+01,1.38283480050810E+01,1.10479337870102E+01,9.17141679477325E+00,7.04327207125944E+00,7.31663809226933E+00,7.45185507844756E+00,1.06482725308830E+01,2.25682210224166E+01,3.68983176886235E+01,4.33337306409340E+01,3.20501508841456E+01,3.69170939698633E+01,3.21430884853741E+01,
LCN,,,,,,,,,,,,,,,,,,,,,,,,,,,,,7.63206078951956E+00,9.91451011522672E+00,7.67217187145681E+00,1.88963001272172E+01,2.09390275746334E+01,3.10435916434286E+01,2.97650939698574E+01,2.29755865528933E+01,2.59544406979705E+01,2.96535765312561E+01,1.97035068562584E+01,3.29910727289218E+01,3.18770342138822E+01,3.25203131369983E+01,2.57722656976111E+01,3.02367044162501E+01,3.63462753312955E+01,4.10484149924371E+01,4.94273416538268E+01,6.99978045274143E+01,3.13644274141193E+01,5.29795029454361E+01,5.77659252191025E+01,
LKA,,,,,,,,,,,,,,,,,,,,,,,,,,,,,6.74942562910506E+00,6.11111552219015E+00,1.14160492752903E+01,2.15546871852717E+01,1.48407530985250E+01,2.41810375026273E+01,2.45784031332242E+01,1.53342008949162E+01,1.32971275620730E+01,1.38882163111765E+01,1.07945737957104E+01,1.01174795389362E+01,6.57732212921758E+00,8.45618584713744E+00,9.82948588571041E+00,1.43581383267086E+01,1.76987557590462E+01,2.34370194742134E+01,2.74834158874052E+01,2.33474297116709E+01,1.06244578554893E+01,1.93332458614857E+01,4.02081750415080E+01,
LMC,,,,,,,,,,,,,,,,,,,,,,,,,,,,,6.23933465816301E+00,8.32622826609119E+00,9.63394925308988E+00,1.34538426953850E+01,1.76317329374617E+01,2.89079633923612E+01,3.40827528475419E+01,3.19931453632739E+01,3.37404275174366E+01,2.30052119847825E+01,2.32797302682398E+01,3.47695644568278E+01,2.42699662691005E+01,2.08421418750444E+01,2.23800148925852E+01,3.17013931575243E+01,3.87728344329222E+01,4.80470283353946E+01,6.01020167855145E+01,9.86484208313169E+01,3.64810672330248E+01,5.60590392352927E+01,6.58963225980938E+01,
LMY,,,,,,,,,,,,,,,,,,,,,,,,,,,,,,,,1.86808759223472E+01,2.01374628645947E+01,3.47773373214684E+01,3.47712100307639E+01,3.14782634727959E+01,3.41032501160975E+01,3.05987918357278E+01,2.41203680717798E+01,3.95282647960652E+01,3.59751549205868E+01,3.32009485348559E+01,3.07312454282845E+01,4.02707277582712E+01,4.24053061844051E+01,4.87888229534484E+01,7.20154276386804E+01,1.11914029778039E+02,4.22170127297846E+01,7.24379419947830E+01,7.25638368331783E+01,
LTU,,,,,,,,,,,,,,,,,,,,,,,,,,,,,,,,,,,,1.98611093872982E+00,1.06804642441791E+01,1.67148795008244E+01,9.54323110346942E+00,1.03764286609472E+01,1.38850990886988E+01,9.86419775931443E+00,1.03258631145001E+01,1.88633173769387E+01,2.86579502980966E+01,3.15180259118276E+01,3.38686419822537E+01,2.59160878279015E+01,7.67137272178281E+00,1.21491841505766E+01,1.55919890571059E+01,
LUX,,,,,,,,,,,,,,,,,,,,,,,,,,,,,4.79741752807674E+02,1.03490405109351E+02,8.28696348451002E+01,8.23796095546342E+01,7.73370332623912E+01,1.22459194884420E+02,1.62439262757263E+02,1.47235623382726E+02,1.58838674145069E+02,1.83033765917409E+02,1.82924783802097E+02,1.69627365011968E+02,1.67819971091697E+02,1.17743057348675E+02,1.09542473820243E+02,1.28036210888103E+02,1.47086274483238E+02,1.36100814060698E+02,1.86885223922550E+02,3.23710369809322E+02,1.14440607925874E+02,1.99580382838362E+02,1.83549313149202E+02,
LVA,,,,,,,,,,,,,,,,,,,,,,,,,,,,,,,,,,,,1.90995706850782E-01,2.70352881895907E+00,5.50280635156754E+00,5.77304583771042E+00,5.36264783735959E+00,7.19143468955257E+00,8.38489109531516E+00,7.67060185036447E+00,1.01977815552175E+01,1.20261718301035E+01,1.57539903954035E+01,1.35686666893221E+01,1.08164633630857E+01,4.77826524677243E+00,7.04714733253381E+00,5.21249675075709E+00,
MAR,,,,,,,,,,,,,,,,,,,,,,,,,,,,,2.00915486426761E+00,2.71805760196029E+00,3.74118067954997E+00,5.49636883748335E+00,6.71338326921533E+00,9.88766643610805E+00,1.44310299005301E+01,1.80408871786498E+01,2.37589894839290E+01,3.64419930998802E+01,3.91687562072826E+01,3.44666799633761E+01,2.94407900127357E+01,2.40877092579303E+01,2.12553088436688E+01,2.63981734226795E+01,4.40126137005832E+01,4.57294956592929E+01,7.52014091910542E+01,1.00356566221071E+02,7.39713923820632E+01,6.88483405735620E+01,7.58284417451138E+01,
MDA,,,,,,,,,,,,,,,,,,,,,,,,,,,,,,,,,,,,,2.77264791401503E+00,3.78224340767779E+00,3.04971547347259E+00,3.24568545452303E+00,,,,,,,,,,,,
MEA,,,,,,,,,,,,,,,,,,,,,,,,,,,,,,,,,,3.30620590923454E+01,2.43609493270523E+01,2.45021494928668E+01,2.80197679831774E+01,3.35175714308402E+01,2.98344296917260E+01,3.65957604264103E+01,3.06092679216394E+01,3.18989632288868E+01,3.27176464981878E+01,5.32839907985669E+01,7.93536953214081E+01,1.23661640428418E+02,8.09344082714865E+01,1.02589342836036E+02,4.83530073725602E+01,6.12616043084616E+01,7.24283600317341E+01,
MEX,,,,,,,,,,,,,,,,,,,,,,,,,,,,,7.53504273638353E+00,1.01355723666296E+01,1.24471953651152E+01,3.12287441594443E+01,3.82278496559728E+01,4.98517441266124E+01,3.08257722329741E+01,3.16339564174612E+01,3.20027412719628E+01,3.90044210207532E+01,2.17812857711910E+01,3.20122744357015E+01,2.15339113030793E+01,2.02957602228173E+01,1.58897629065866E+01,1.74964378861021E+01,2.26303445808704E+01,2.81675792635933E+01,3.65802532569234E+01,3.83930210852111E+01,2.12174938056249E+01,3.85783511568506E+01,4.37012674117881E+01,
MIC,,,,,,,,,,,,,,,,,,,,,,,,,,,,,,,,1.89063081970354E+01,2.03823439193231E+01,3.51488297178915E+01,3.50780830520395E+01,3.17684356647068E+01,3.43531488961552E+01,3.08937305434947E+01,2.43995863094866E+01,4.00772852102085E+01,3.64270383753885E+01,3.35507662211852E+01,3.08904503442210E+01,4.07225059523185E+01,4.28840860344940E+01,4.92906754919666E+01,7.24667399088242E+01,1.12668373800501E+02,4.24678874870711E+01,7.29439286887629E+01,7.28704727697070E+01,
MKD,,,,,,,,,,,,,,,,,,,,,,,,,,,,,,,,,,,,,2.21611165918180E+00,2.14172191508643E-01,2.24024173009746E-01,2.08894583095757E-01,1.97943396604406E-01,1.33839152814662E+00,4.80208532110037E+00,7.81246326354426E+00,7.69567862576665E+00,1.11093549648329E+01,1.72350113048067E+01,3.32762870963235E+01,8.37383960999853E+00,9.94127777136153E+00,2.90296830100363E+01,
MLT,,,,,,,,,,,,,,,,,,,,,,,,,,,,,,,,,,,1.73419789354257E+00,4.30800479127920E+00,1.28545651816207E+01,1.26766268164326E+01,2.06123625038926E+01,4.90183080745007E+01,5.25496610270450E+01,3.57199864365209E+01,3.26704991249347E+01,3.66419119501620E+01,5.06668684493349E+01,6.87507678436672E+01,6.96918181503127E+01,7.46350315873711E+01,4.24576682465635E+01,2.48165608201569E+01,,
MNA,,,,,,,,,,,,,,,,,,,,,,,,,,,,,,,,,,,,1.34215128366675E+01,2.01841470571396E+01,2.25921463384565E+01,2.38847351936674E+01,2.79027805977347E+01,1.98693357090448E+01,1.78592452286267E+01,2.02568880252673E+01,2.76332298328905E+01,,,,,,3.77723480539283E+01,,
MNE,,,,,,,,,,,,,,,,,,,,,,,,,,,,,,,,,,,,,,,,,,,,,1.71464561060358E+01,4.64554067415360E+01,6.50438165819782E+01,1.00821588178478E+02,6.33354728503598E+01,1.03569739759615E+02,9.00165734173867E+01,
MNG,,,,,,,,,,,,,,,,,,,,,,,,,,,,,,,,,,,,1.85929278167391E+00,1.93205205490029E+00,4.57265097448312E+00,3.55732556019888E+00,3.03615837282543E+00,3.24567900119142E+00,2.95426351412359E+00,2.28165610267761E+00,2.65718496240781E+00,1.24493819747228E+00,1.80787129350743E+00,3.31574860095630E+00,1.44560873469592E+01,7.23776574184364E+00,9.38509465856344E+00,1.79679664571744E+01,
MUS,,,,,,,,,,,,,,,,,,,,,,,,,,,,,,,1.00999215686275E+01,1.09209697085934E+01,1.29021620016350E+01,2.42387932032214E+01,4.24378595095376E+01,3.29427553503355E+01,3.79018124564523E+01,3.97623725375810E+01,4.43440051876224E+01,3.82651040608923E+01,2.90499044944268E+01,2.34257583799591E+01,2.78536933224401E+01,3.48549688205970E+01,3.72523771301638E+01,4.16520401122744E+01,5.52982620438258E+01,7.27095549903074E+01,3.57070781515524E+01,5.34643763456908E+01,6.68702525059010E+01,
MWI,,,,,,,,,,,,,,,,,,,,,,,,,,,,,,,,,,,,,,,,,,,,3.56594764319992E+00,6.05810662154277E+00,8.35752000660975E+00,1.88384890694802E+01,,4.34638471014236E+01,2.92544493373870E+01,2.66941316201442E+01,
MYS,,,,,,,,,,,,,,,,,,,,,,,,,,,,,6.60582833282277E+01,1.02449085465716E+02,1.10393879850449E+02,1.19266043980638E+02,1.58914537064812E+02,3.28876301436975E+02,2.67182892072366E+02,2.50729315359783E+02,3.04584594575513E+02,9.34502113598289E+01,1.36552235909165E+02,1.83762237244921E+02,1.24677648610445E+02,1.29340701595274E+02,1.22833776540280E+02,1.52788202558259E+02,1.52313690794939E+02,1.31474772466001E+02,1.50364603640757E+02,1.74485242465918E+02,8.43290196781228E+01,1.32553840934802E+02,1.72635612290655E+02,
NAC,,,,,,,,,,,,,,,,,,,,,,,,,,,,,5.45317162908427E+01,6.34005757806683E+01,5.21352837446710E+01,6.67339775311662E+01,6.91824340499555E+01,7.64384437153833E+01,7.12115862110213E+01,9.11091097121283E+01,1.07242670387600E+02,1.33504169790688E+02,1.49518211051291E+02,1.74975388593839E+02,1.50063309207097E+02,1.32912051520901E+02,1.03061324120532E+02,1.26789949670622E+02,1.36646950854015E+02,1.34520109584877E+02,1.44521072066361E+02,1.43511640840855E+02,8.06335408237538E+01,1.08929867079126E+02,1.19452008443238E+02,
NAM,,,,,,,,,,,,,,,,,,,,,,,,,,,,,,,,,7.40050586926974E-01,9.83624768866910E-01,6.18091623798389E+00,5.39523898158350E+00,1.31508477339077E+01,1.89534106501104E+01,1.26224590771196E+01,2.04229032701605E+01,7.96238672811060E+00,4.24346025871950E+00,,6.23622989491744E+00,6.69608099611831E+00,5.71025172705026E+00,6.78879580958022E+00,7.97200431694077E+00,6.89920931782322E+00,9.21675699918317E+00,9.66517491547239E+00,
NGA,,,,,,,,,,,,,,,,,,,,,,,,,,,,,4.20173089236659E+00,4.23595374663140E+00,4.81166526625153E+00,6.88308042934907E+00,3.72970417512642E+00,4.82373252832685E+00,1.14522906141706E+01,7.23260372840271E+00,1.00852286811439E+01,1.00636585771576E+01,8.98150923972374E+00,8.45288820430064E+00,9.21393708003385E+00,1.12578652143644E+01,9.70895812544659E+00,1.40322169905974E+01,1.64657644291574E+01,1.72435544006910E+01,2.23462623866886E+01,5.20409770582172E+01,2.40456348116943E+01,1.97695004096445E+01,2.62731956786488E+01,
NLD,,,,,,,,,,,,,,,,,,,,,,,,,,,,,4.69891922440104E+01,6.60263095867047E+01,4.06957477814772E+01,4.48304600388358E+01,4.01529632142766E+01,5.55354609098905E+01,8.06545860857899E+01,8.50852406956670E+01,9.06073603227471E+01,1.21266506660589E+02,1.49803687097201E+02,1.68962971208696E+02,1.66320046899225E+02,1.14368218305188E+02,9.16989351051344E+01,9.07738967949381E+01,8.83214612595706E+01,9.28634020133004E+01,1.15044231293031E+02,1.22222002011953E+02,4.44150019985313E+01,6.82784222788520E+01,8.44003749474183E+01,
NOC,,,,,,,,,,,,,,,,,,,,,,,,,,,,,,,,7.49406384641625E+01,7.09675105854717E+01,1.31880982808816E+02,1.06507682803423E+02,9.63106686245633E+01,1.20528563209795E+02,1.08722455350535E+02,9.64734039782259E+01,1.49318424058887E+02,1.18038088544017E+02,1.15123045647585E+02,1.05196564196045E+02,1.42949086203903E+02,1.68229092688352E+02,1.97142696910310E+02,1.68557327807279E+02,1.97981660674598E+02,1.24530892478447E+02,2.36237603919669E+02,3.59759962691818E+02,
NOR,,,,,,,,,,,,,,,,,,,,,,,,,,,,,1.42918422610313E+01,2.51065517775495E+01,2.21892579333051E+01,1.83858247345380E+01,1.38738435319305E+01,2.31703360199200E+01,2.92878415057111E+01,2.99402675960345E+01,3.58539021615913E+01,4.20311676190051E+01,3.10601191202778E+01,4.00489705310917E+01,3.86445785547389E+01,4.04006834464733E+01,3.50654105215208E+01,4.20589055882890E+01,5.46949049752590E+01,6.32266399724326E+01,8.34733474142947E+01,9.22288755562934E+01,2.82178339210666E+01,6.00170924075499E+01,6.05415454772802E+01,
NPL,,,,,,,,,,,,,,,,,,,,,,,,,,,,,,,,,,,6.49162953149464E+00,5.54406296338542E+00,4.57804534114329E+00,4.06612171271920E+00,5.49806378699995E+00,7.65964227449742E+00,1.43740762184839E+01,8.82839948939274E+00,6.89632399231243E+00,7.62573260433938E+00,1.17253788354053E+01,1.65301110001001E+01,1.98933393361283E+01,4.77681828514835E+01,3.89268006065247E+01,4.25272393358804E+01,3.08450548295297E+01,
NZL,,,,,,,,,,,,,,,,,,,,,,,,,,,,,2.98526821355092E+01,3.13981017247352E+01,1.98635743328689E+01,3.41939837689857E+01,3.75511634483511E+01,5.58545786387352E+01,5.01572110893961E+01,5.08795470024865E+01,5.61066526536246E+01,4.69946653010718E+01,4.53405484031437E+01,4.87128992281631E+01,3.65612723740807E+01,3.36256592394411E+01,3.32168239617327E+01,3.81055533954676E+01,4.27856076508254E+01,3.91151937310679E+01,4.06462084289503E+01,3.43081198211977E+01,2.05111811470511E+01,5.29377399426252E+01,,
OEC,,,,,,,,,,,,,,,,,,,,,,,,,,,,,6.23434152512672E+01,7.10318278031554E+01,5.05894282272816E+01,5.62031742323348E+01,4.97829791654309E+01,6.01831253409065E+01,6.08019445462320E+01,6.57901445720024E+01,7.36637781810316E+01,8.76242608726648E+01,1.05368613158600E+02,1.32185347463475E+02,1.15180467164203E+02,1.00013394180922E+02,7.95852090196705E+01,9.52353607821362E+01,1.00876003924215E+02,1.05428574156668E+02,1.19019253495778E+02,1.17653370107891E+02,6.17172077952098E+01,8.51183387256501E+01,9.20879490230587E+01,
OED,,,,,,,,,,,,,,,,,,,,,,,,,,,,,6.12452594732489E+01,6.96720446031003E+01,4.96952373133496E+01,5.54651781083157E+01,4.92739774232285E+01,5.97129901651481E+01,6.01242609069659E+01,6.51257352915100E+01,7.27159771967058E+01,8.63778413526173E+01,1.02769234874621E+02,1.29348013344921E+02,1.12093516151478E+02,9.74790696404995E+01,7.74797133536240E+01,9.27754802055218E+01,9.83053418765908E+01,1.02655897747767E+02,1.15696482266881E+02,1.14567133558777E+02,6.00068437664931E+01,8.35708215703979E+01,9.03657445207959E+01,
OMN,,,,,,,,,,,,,,,,,,,,,,,,,,,,,,,,,8.51250018889998E+00,8.72481048296828E+00,1.31590601373903E+01,1.43306324198295E+01,1.74240163203079E+01,4.48809586144594E+01,3.11812823438903E+01,2.73837350664882E+01,1.74306463703432E+01,1.30636261063235E+01,1.99364420496964E+01,2.32729032893990E+01,2.56365079097147E+01,4.94059360655963E+01,4.39030527092114E+01,5.50353119516201E+01,2.46244722196389E+01,3.69173661526834E+01,,
PAK,,,,,,,,,,,,,,,,,,,,,,,,,,,,,6.39413759326268E+00,6.12381744707249E+00,7.12314310627037E+00,1.61269165796049E+01,1.65106613075656E+01,2.25337427731030E+01,2.37017991883318E+01,1.53143166139849E+01,1.68019131752456E+01,1.75643332837790E+01,8.71173760184281E+00,1.10596288261116E+01,8.89947077789954E+00,6.83721179712547E+00,1.41061935016734E+01,1.99154899553864E+01,2.96007769165582E+01,4.19131021897810E+01,3.57001098039216E+01,4.90756789899213E+01,1.43330436210721E+01,2.05188817593749E+01,2.18356819948368E+01,
PAN,,,,,,,,,,,,,,,,,,,,,,,,,,,,,,,,,3.40289697955250E+00,5.77715885118645E+00,9.02520073960098E+00,1.05108713525000E+01,1.37200845303097E+01,2.23800079333598E+01,3.50798079121884E+01,3.27191152466329E+01,2.40471580396713E+01,2.20376879102265E+01,2.40336038590659E+01,2.37760183094671E+01,2.39856692502451E+01,3.28105831519590E+01,3.33526773819805E+01,3.14160856825301E+01,2.85539614635504E+01,3.34209575541630E+01,4.07701356756333E+01,
PER,,,,,,,,,,,,,,,,,,,,,,,,,,,,,,4.52454665673394E+00,3.08811337176940E+00,3.24219649138048E+00,7.28854765214979E+00,1.46692948025037E+01,1.82142061747981E+01,2.19752228080755E+01,2.19968819206182E+01,2.96946048726814E+01,2.05192164940989E+01,2.59993485598633E+01,1.98203089468223E+01,2.06421487277299E+01,2.35376774654992E+01,2.61704108173609E+01,2.88488305848162E+01,4.53419118333587E+01,6.46316767490981E+01,9.88126921655232E+01,4.38606513358997E+01,5.49565593685520E+01,6.48908846225448E+01,
PHL,,,,,,,,,,,,,,,,,,,,,,,,,,,,,1.12972025488927E+01,2.81854109705340E+01,1.33825014451389E+01,2.51004528141140E+01,2.88808042586084E+01,7.41242328916488E+01,8.86329202269181E+01,7.95059427783569E+01,9.73773786977092E+01,3.80845095381681E+01,4.89066004818193E+01,5.07846079431913E+01,3.20355510542785E+01,5.44484287716212E+01,4.79627622768141E+01,2.80843450266259E+01,3.16815345503710E+01,3.89589784697343E+01,5.59542161456271E+01,6.91111109296102E+01,3.00114805176680E+01,4.76032738962947E+01,7.88220532682144E+01,
PNG,,,,,,,,,,,,,,,,,,,,,,,,,,,,,,,,,,,,,,,,,,4.93475272887322E+01,4.74263027911948E+01,6.61451831306750E+01,7.49234675472930E+01,6.46006612572906E+01,1.18450058901301E+02,,,,1.02761852518271E+02,
POL,,,,,,,,,,,,,,,,,,,,,,,,,,,,,,,,1.88414611410235E-01,2.63265774218170E-01,3.15664557387730E+00,3.10609609399527E+00,3.28199583716241E+00,5.35472585420080E+00,7.72173029099266E+00,1.18339049019482E+01,1.76096300444567E+01,1.82625752426993E+01,1.36626498263516E+01,1.45069377185193E+01,1.71422965178694E+01,2.81292409903935E+01,3.08883080536270E+01,4.36251729335565E+01,4.87447546871785E+01,1.70442974042307E+01,3.14126381427026E+01,4.05977220568335E+01,
PRT,,,,,,,,,,,,,,,,,,,,,,,,,,,,,1.29108064290281E+01,1.77493525151665E+01,1.18588772679349E+01,1.09270252697790E+01,8.68532800594893E+00,1.32603647000821E+01,1.65381877353574E+01,1.57723396204912E+01,2.03824860237971E+01,3.37343057265171E+01,5.13676362642263E+01,5.27209035024077E+01,5.18572640985768E+01,3.86043197594103E+01,3.24870106541860E+01,3.61083196314957E+01,3.80106613472868E+01,3.50364714509634E+01,5.18257456382355E+01,5.70712759173053E+01,2.72753087720680E+01,4.21162715271892E+01,3.58784706610367E+01,
PRY,,,,,,,,,,,,,,,,,,,,,,,,,,,,,,,,,,3.49101461844442E-01,6.62758416372369E-01,1.78531321068366E+00,4.37994161695925E+00,4.38453343300673E+00,3.94181598976842E+00,5.80394910099759E+00,,3.46816450421170E+00,3.05491090626962E+00,3.69917325082457E+00,3.58595556763970E+00,3.44259986731205E+00,4.41023621104129E+00,,,,2.27337451082088E-01,
QAT,,,,,,,,,,,,,,,,,,,,,,,,,,,,,,,,,,,,,,2.29071110060651E+01,3.74140896977412E+01,4.43955589039985E+01,2.90091893395822E+01,,,1.13460071871280E+02,1.67253284112965E+02,2.02870172608933E+02,1.01763349768521E+02,1.18249632405018E+02,6.89237476668451E+01,8.93629816449758E+01,,
ROM,,,,,,,,,,,,,,,,,,,,,,,,,,,,,,,,,,,1.72914742234389E-01,2.81872320730745E-01,1.61319182485348E-01,1.77691430476235E+00,2.41241382168956E+00,2.45301565324980E+00,2.88586752261089E+00,5.28613877407093E+00,9.95421014139969E+00,9.38433724270183E+00,1.56128326603905E+01,2.08140166720444E+01,2.67318384529025E+01,2.65386334379539E+01,9.95774780668222E+00,1.88222901051708E+01,2.00371967357616E+01,
RUS,,,,,,,,,,,,,,,,,,,,,,,,,,,,,,,,4.79012161733781E-02,4.73701510291665E-02,4.13735918970828E-03,3.82194731177571E-02,4.01058342318538E+00,9.50420393918717E+00,3.16617927427962E+01,7.60205316397931E+00,3.68570555422126E+01,1.49867372686706E+01,2.48523501151662E+01,3.59878508659881E+01,5.36277275485420E+01,4.53383727053738E+01,7.18034558816180E+01,1.06794240752716E+02,1.15642396969977E+02,2.39144934148744E+01,7.04934905224475E+01,6.78815830224544E+01,
SAS,,,,,,,,,,,,,,,,,,,,,,,,,,,,,7.40199128359105E+00,8.35729735074340E+00,1.07896510245040E+01,1.62180800034876E+01,2.23134497024851E+01,3.03360252551148E+01,3.40022701101703E+01,2.96555862724699E+01,2.73716652561880E+01,2.67342240865907E+01,2.09092897069326E+01,3.35275632556334E+01,2.61480863129675E+01,1.91288599670147E+01,2.22235037157369E+01,3.95464692101676E+01,4.69753954972454E+01,5.87689171878675E+01,7.44922827687878E+01,1.27526762873731E+02,4.53393901656906E+01,7.30996819959399E+01,8.34064831755255E+01,
SAU,,,,,,,,,,,,,,,,,,,,,,,,,,,,,,,,3.66997856712902E+01,4.03509377643298E+01,3.99541720855357E+01,2.88102682975388E+01,2.87151943225478E+01,2.90732160005409E+01,3.59928548203346E+01,2.91981769710095E+01,3.75501879293050E+01,3.56456937234600E+01,3.99969852421988E+01,3.97002890618749E+01,7.33095014838787E+01,1.22333164850640E+02,2.04735240052685E+02,9.16548849452036E+01,1.33832846191386E+02,5.17183632640390E+01,8.55369715079259E+01,8.13070148850239E+01,
SGP,,,,,,,,,,,,,,,,,,,,,,,,,,,,,9.44098674694085E+01,1.19201632170736E+02,9.30993647568689E+01,1.10275559239109E+02,9.81583873522376E+01,2.28241829302868E+02,1.90320424161057E+02,1.75587764934014E+02,1.62302613880758E+02,1.10900925675486E+02,1.14647637222057E+02,2.40171106711708E+02,1.64831621009030E+02,1.36989266990291E+02,1.15360820451217E+02,2.46044416733228E+02,2.52593860900630E+02,2.52483011794340E+02,1.90136671586746E+02,1.99340924710113E+02,9.50563119106307E+01,1.69509293117653E+02,1.66184436996312E+02,
SLV,,,,,,,,,,,,,,,,,,,,,,,,,,,,,,,,,,,,,4.38173740596714E+00,4.48147918482142E+00,1.19499502725036E+01,1.71784424208646E+01,1.55384533859421E+01,9.71001846394870E+00,1.05463873569726E+01,1.40166946905302E+01,1.67269896128064E+01,2.12238286604726E+01,2.92960072050435E+01,3.30917175008711E+01,2.10622523386469E+01,2.10058529418734E+01,1.93937149594226E+01,
SRB,,,,,,,,,,,,,,,,,,,,,,,,,,,,,,,,,,,,,,,,,,,4.86032796253307E+00,7.20390198258023E+00,1.38360540427141E+01,2.14338425924665E+01,3.75927659985509E+01,6.07677754745815E+01,2.48996617505307E+01,2.76601674856135E+01,2.47646657913746E+01,
SSA,,,,,,,,,,,,,,,,,,,,,,,,,,,,,,,,,5.20591030625311E+01,,1.19288864183477E+02,1.26458965551540E+02,1.08401678017256E+02,1.00737237066522E+02,7.83015626276537E+01,1.16925228246854E+02,8.97621733999267E+01,6.70593223736818E+01,8.90147051066579E+01,9.15038899170347E+01,1.19724673082219E+02,1.28649998709044E+02,1.48901802824723E+02,,,,1.52735756963162E+02,
SSF,,,,,,,,,,,,,,,,,,,,,,,,,,,,,,,,,5.20591030625311E+01,,1.19288864183477E+02,1.26458965551540E+02,1.08401678017256E+02,1.00737237066522E+02,7.83015626276537E+01,1.16925228246854E+02,8.97621733999267E+01,6.70593223736818E+01,8.90147051066579E+01,9.15038899170347E+01,1.19724673082219E+02,1.28649998709044E+02,1.48901802824723E+02,,,,,
SVK,,,,,,,,,,,,,,,,,,,,,,,,,,,,,,,,,,,5.49582810308262E+00,4.89297625952933E+00,8.00192425679067E+00,6.75749354671416E+00,3.29820238165791E+00,3.54220583057143E+00,4.24030649914291E+00,5.14105770628121E+00,5.50005281633179E+00,6.06723406981572E+00,7.87077814485523E+00,7.16758699017593E+00,8.07154844697681E+00,8.27534402531266E+00,5.15821929254156E+00,5.33103869178077E+00,4.66071562257888E+00,
SVN,,,,,,,,,,,,,,,,,,,,,,,,,,,,,,,,,,,4.13610765905900E+00,1.49416253198936E+00,3.15597499954477E+00,8.01615917573374E+00,1.13463959652061E+01,9.83917401590654E+00,1.28082260893385E+01,1.39252834058646E+01,1.99662827948789E+01,2.45512734748546E+01,2.86941328721886E+01,2.20937013635654E+01,3.89755386055349E+01,6.12141262453058E+01,2.15426810318732E+01,2.39353628621386E+01,1.97397093693580E+01,
SWE,,,,,,,,,,,,,,,,,,,,,,,,,,,,,5.15780765533817E+01,5.82054664991178E+01,4.00335533942717E+01,3.91620655544474E+01,2.93443055517697E+01,5.31464913391894E+01,6.01890008877747E+01,7.01864764765207E+01,8.94235820951878E+01,1.07722669618228E+02,1.09415630594995E+02,1.44226476234567E+02,1.32790945981963E+02,1.04026601043899E+02,7.14595070182336E+01,9.21082847351743E+01,1.04057405820138E+02,1.09004362659638E+02,1.43644517756186E+02,1.32428093576584E+02,5.19464863832671E+01,1.07106625400373E+02,1.26892869317432E+02,
SWZ,,,,,,,,,,,,,,,,,,,,,,,,,,,,,,,1.52468829057416E+00,2.33115798268999E+00,8.63308393631788E+00,2.18564403946950E+01,2.38000180730128E+01,1.99532900961949E+01,2.91855422068745E+01,7.50797872709749E+00,5.44105866896907E+00,6.18104013020246E+00,4.90311160122819E+00,9.87908362087206E+00,1.22247681641138E+01,9.57749153337302E+00,9.84948437178941E+00,7.79528359731087E+00,7.48624315148668E+00,6.88486088250608E+00,,,,
THA,,,,,,,,,,,,,,,,,,,,,,,,,,,,,1.42863509460253E+01,3.54321595451808E+01,2.80045782756973E+01,3.64433276409649E+01,5.23091627396235E+01,1.04791037851087E+02,9.07780160417840E+01,8.42210540713810E+01,5.48663365153883E+01,1.55992934515305E+01,3.12024921250103E+01,4.75945368488752E+01,2.40282994341548E+01,3.14614770950099E+01,3.63915713630764E+01,8.49921289643260E+01,7.23286636935802E+01,7.08039716422518E+01,6.81316351307523E+01,7.93783197727489E+01,3.76384700157157E+01,5.24020088602501E+01,8.71050192111171E+01,
TTO,,,,,,,,,,,,,,,,,,,,,,,,,,,,,5.95978507713680E+00,9.50720854006563E+00,1.37330372495207E+01,1.25120659181370E+01,9.21889337154920E+00,1.05787880820652E+01,1.34015038482134E+01,2.11100542652347E+01,2.43943183838483E+01,5.43244177708466E+01,6.48939122293529E+01,6.41412738592836E+01,5.30966687439799E+01,5.70520381563824E+01,7.22176118230285E+01,9.43805380787021E+01,1.32334503156118E+02,1.06190951018057E+02,8.47601129270624E+01,7.17873620415838E+01,4.48070884229454E+01,5.67963071187264E+01,5.96042646908221E+01,
TUN,,,,,,,,,,,,,,,,,,,,,,,,,,,,,6.06163083389142E+00,6.31566710810332E+00,4.33665874608208E+00,5.43794892258579E+00,5.25253250448715E+00,6.54393507467776E+00,1.63761777687842E+01,2.17793071699175E+01,2.17640769315494E+01,1.22823683379430E+01,1.14472139605597E+01,1.30108888087518E+01,1.45434330698025E+01,1.15223874216286E+01,1.01264232134622E+01,9.85990089278783E+00,9.38904719566148E+00,9.92873171809333E+00,1.43606679333280E+01,1.50340848632549E+01,1.56048150819812E+01,2.09551589559295E+01,2.41172958165158E+01,
TUR,,,,,,,,,,,,,,,,,,,,,,,,,,,,,1.25477676446804E+00,6.32797120898862E+00,1.26761815792624E+01,1.03945113886033E+01,6.24155390490759E+00,2.07845700307348E+01,1.65276390874011E+01,1.22558838046118E+01,1.65421728305276E+01,3.21806373525608E+01,1.24944715085208E+01,4.51312025942198E+01,2.61318096318928E+01,2.40554019126192E+01,1.46034120204890E+01,2.25669977931054E+01,2.50655158968471E+01,3.34459985441427E+01,3.05893032758830E+01,4.42818168309125E+01,1.61473101350631E+01,3.67315590470662E+01,4.17078110355104E+01,
TZA,,,,,,,,,,,,,,,,,,,,,,,,,,,,,,,,,,,,,,,2.52964329675142E+00,1.86227121685386E+00,2.28676930535436E+00,3.83364662547679E+00,6.54625435414434E+00,5.65029103275263E+00,5.22069634105240E+00,4.15686721659863E+00,3.77594075984792E+00,,6.24336079759955E+00,,5.48217912059412E+00,
UGA,,,,,,,,,,,,,,,,,,,,,,,,,,,,,,,,,,,,,,,,,,6.01693638184157E-01,7.85493011055466E-01,7.46806668016479E-01,1.20574838084285E+00,1.11946191629175E+00,1.16611644901389E+00,,,,,
UKR,,,,,,,,,,,,,,,,,,,,,,,,,,,,,,,,,,,,,,7.31200551473915E+00,1.36092618398107E+00,3.54875370986640E+00,6.01576493097766E+00,3.59103798080219E+00,7.35828474115407E+00,8.58293740499132E+00,1.81532280818167E+01,2.89934581981733E+01,3.97850848015172E+01,7.83054689613739E+01,1.35053880467154E+01,1.43228265903802E+01,2.86070249499843E+01,
UMC,,,,,,,,,,,,,,,,,,,,,,,,,,,,,,,,2.02834960456552E+01,2.10420509027733E+01,3.66450965186287E+01,3.53258849807097E+01,3.17124808547553E+01,3.45112352256487E+01,3.29233428437117E+01,2.46575223592302E+01,4.14924182349282E+01,3.94995561956444E+01,3.68165875875602E+01,3.32157547038139E+01,4.32660627313438E+01,4.40051008920225E+01,4.96176306864980E+01,7.57098722435179E+01,1.16366054111350E+02,4.38942599819837E+01,7.71863741145017E+01,7.47084219698533E+01,
URY,,,,,,,,,,,,,,,,,,,,,,,,,,,,,,,,,,1.67309412723276E+00,9.72841776849239E-01,9.48301351746110E-01,1.29658279344687E+00,8.84448222642529E-01,8.23290755347088E-01,6.99403282766120E-01,7.05087417711596E-01,,,3.34970590161623E-01,6.18319423369938E-01,5.51241516707397E-01,6.31582656258437E-01,6.65919467320416E-01,,,3.89566552782610E-01,
USA,,,,,,,,,,,,,,,,,,,,,,,,,,,,,5.51176416507636E+01,6.45256152826075E+01,5.32099898493427E+01,6.89631923403308E+01,7.17046186489508E+01,7.80233472532774E+01,7.24552926230535E+01,9.34484628801919E+01,1.09461018436093E+02,1.36968194755647E+02,1.53888021965450E+02,1.78852962047092E+02,1.52584525397018E+02,1.35379632339577E+02,1.04795957866707E+02,1.28650089276052E+02,1.38192615324704E+02,1.34906750940483E+02,1.45662593500097E+02,1.42531502822437E+02,8.20992355685498E+01,1.07358253334188E+02,1.17531942615756E+02,
UZB,,,,,,,,,,,,,,,,,,,,,,,,,,,,,,,,,,,,,9.17635594439067E-01,3.15369613955345E+00,,6.96783892213881E-01,2.31897758516412E-01,2.44356997458292E-01,3.22200628361158E-01,1.38611826576222E-01,3.57439034336514E-02,2.57811459964580E-01,4.19997686243756E+00,,,,,
VEN,,,,,,,,,,,,,,,,,,,,,,,,,,,,,3.11492332607441E+00,3.48818139871962E+00,1.77768295346501E+01,2.16490536374266E+01,1.29980390031929E+01,1.37847820835989E+01,7.27048839600015E+00,4.88057335912404E+00,1.47307469543692E+01,1.69867708198652E+01,8.30646054652187E+00,7.62548185850102E+00,6.93829748914867E+00,5.05718283434741E+00,4.26478373837073E+00,4.56872743367614E+00,5.43957654328142E+00,3.44806520138007E+00,4.49675246563925E+00,,,2.71668319905128E+00,1.02900161016077E+00,
VNM,,,,,,,,,,,,,,,,,,,,,,,,,,,,,,,,,,,,,,,,,,,,3.90390703165487E-01,5.45809060144764E-01,8.71559375210104E-01,1.49221611056468E+01,2.74805513847206E+01,1.06225520256299E+01,2.18212667834701E+01,1.96820995084193E+01,
WBG,,,,,,,,,,,,,,,,,,,,,,,,,,,,,,,,,,,,,,1.41276461523257E+01,1.50792137633719E+01,2.03527306874329E+01,1.86097744961992E+01,2.16914321001878E+01,2.03386204087587E+01,2.06866127111063E+01,3.04010066409241E+01,1.11089721184409E+02,,,,,,
WLD,,,,,,,,,,,,,,,,,,,,,,,,,,,,,5.80738250784390E+01,6.64669430403041E+01,4.74755195907997E+01,5.13679896508643E+01,4.61936010154741E+01,5.82359791836502E+01,5.80635928563267E+01,6.12316079038930E+01,6.83115674882932E+01,7.79535504665797E+01,9.10036443818873E+01,1.17689353064563E+02,1.01710309613632E+02,8.88249054729883E+01,7.19743349364339E+01,8.69614545568530E+01,9.19639004753505E+01,9.67199616782118E+01,1.10115475674627E+02,1.18840087847059E+02,5.87514822605426E+01,8.53885841577539E+01,9.04187392572861E+01,
ZAF,,,,,,,,,,,,,,,,,,,,,,,,,,,,,1.09917842514514E+02,1.04876926674838E+02,1.23198974353710E+02,1.39737607013709E+02,7.96855231270066E+01,1.31895821688189E+02,1.66448250086827E+02,1.85639776006053E+02,1.68070433633188E+02,1.55945518966730E+02,1.26774112569170E+02,1.97079692134282E+02,1.54241373884075E+02,1.17953042139626E+02,1.66175278577129E+02,1.59164445635745E+02,2.07919175909485E+02,2.28850520476363E+02,2.73948645868566E+02,2.91278069952794E+02,1.78467035394373E+02,2.49269958690304E+02,2.78396311863346E+02,
ZMB,,,,,,,,,,,,,,,,,,,,,,,,,,,,,,,,,,,,5.46347194880983E-01,5.96274889697535E+00,1.80340524234094E+01,9.31016777112455E+00,8.94264269278128E+00,7.28224123419203E+00,6.97194902396979E+00,6.27241812875631E+00,1.71256252307532E+01,8.34746628105154E+00,1.37761958483586E+01,1.10772527817667E+01,2.03257765380814E+01,,,1.73948633360466E+01,
ZWE,,,,,,,,,,,,,,,,,,,,,,,,,,,,,9.90430439130436E+00,1.29128449233931E+01,2.73229746394675E+01,1.60852044603888E+01,9.30167497275835E+00,2.17861163272021E+01,2.65576304649989E+01,2.86587319607523E+01,4.24989792795299E+01,2.30843950724050E+01,2.04624572697015E+01,3.71275312072800E+01,3.68178977545965E+01,1.17948350567368E+02,2.48470521002066E+02,8.79361006900226E+01,3.42327599716442E+01,4.30151100072957E+01,5.10376470799007E+02,1.06268395679330E+02,,,1.53552090495436E+02,
