"Country Code",1960,1961,1962,1963,1964,1965,1966,1967,1968,1969,1970,1971,1972,1973,1974,1975,1976,1977,1978,1979,1980,1981,1982,1983,1984,1985,1986,1987,1988,1989,1990,1991,1992,1993,1994,1995,1996,1997,1998,1999,2000,2001,2002,2003,2004,2005,2006,2007,2008,2009,2010,2011are,,,,,,,,,,,,,,,,,,,,,,,,,,,,,,,,,,,,,,,,,,,,,,,-4.45861508174000E+01,5.21316033364226E+01,,2.45743671682000E+01,-6.78880167420000E+00,
ARG,,,,,,,,,,,,,,,,,,,,,,,,,,,,,,,,,,,,,1.87000007629000E+01,1.73803005219000E+01,-2.85112991333000E+01,3.34000015259000E+01,-2.51301326752000E+01,-3.16675872803000E+01,-5.14000015259000E+01,1.31389999389600E+02,2.46200008392000E+01,4.53879423329000E+01,5.76475466732000E+01,6.69030192131750E-01,-5.61607497870000E+01,9.78385758533000E+01,5.53178821686000E+01,
AUS,,,,,,,,,,,,,,,,,,,,,,,,,,,,,,,-2.24115388274438E+01,2.85554932230591E+01,-1.55935084655491E+01,3.42412000000000E+01,4.10455210471916E-01,9.84938297616626E+00,1.79306320592375E+01,-8.88396385252380E+00,1.01379592093271E+00,1.81843352953621E+01,-8.74607449057219E+00,-2.78196213139148E-01,-2.12706256975032E+00,4.71142700244307E+01,2.90921634563034E+01,1.17041905529075E+01,2.85832151425395E+01,2.51505157614917E+01,-5.40847414573636E+01,7.23744821747435E+01,1.24909207854943E+01,
AUT,,,,,,,,,,,,,,,,,,,,,,,,,,,,,,,8.33296032183433E+00,-1.92069590412596E+01,-2.00922455117812E+01,3.85882000000000E+01,-4.87826524913377E+00,-4.29857199749673E+00,2.16002117932035E+00,-1.67093530013757E+00,2.13363128421107E-01,-6.52710532925679E+00,-1.48616285818498E+01,-5.33618151308396E+00,1.82210790251795E+01,5.71492478593941E+01,6.13013164949202E+01,2.18768485139343E+01,3.71214172104393E+01,-4.19151054242950E-01,-6.53176795753793E+01,5.70214923356471E+01,1.09048297094477E+01,
BEL,,,,,,,,,,,,,,,,,,,,,,,,,,,,,,,-1.16493907175993E+01,7.58605789280637E+00,-6.59486925616824E+00,2.10500000000000E+01,5.69698471705908E+00,2.23705745070975E+01,1.22101188936472E+01,1.39582789037469E+01,6.38329360806040E+01,-1.36737505537224E+01,-1.65132061291922E+01,-1.59272786341013E+01,-1.73525155675776E+01,3.48841371761287E+01,4.00105705382579E+01,6.77123578728092E+00,4.38478360175731E+01,-3.13109730501218E+00,-6.55731620277421E+01,5.44694201872394E+01,5.02785693506080E-01,
BGD,,,,,,,,,,,,,,,,,,,,,,,,,,,,,,,,,,,,,,-6.76597976684570E+01,-3.84791984558105E+01,-1.75000000000000E+01,2.84874286652000E+01,-2.06722431183000E+01,-4.23999977110000E+00,1.53699998856000E+01,1.04300003051800E+02,-2.77493831512000E+01,1.28552262471000E+01,1.26391440613855E+02,4.25338934500000E+00,3.86369413514000E+01,3.76415050239000E+01,
BGR,,,,,,,,,,,,,,,,,,,,,,,,,,,,,,,,,,,,,,-7.05053024291992E+01,-3.00797004699707E+01,-2.37000007629394E+01,-2.99595146179000E+01,-7.51445102690000E+00,6.25000000000000E+01,1.89229995727500E+02,8.26999969482000E+01,1.64483260553000E+01,3.14375000000000E+01,3.90394674274845E+01,-7.02120383037000E+01,1.72226949347000E+01,-1.51638477266000E+01,
BHR,,,,,,,,,,,,,,,,,,,,,,,,,,,,,,,,,,,,,,,,3.50000000000000E+00,,-2.92468929290000E+00,7.44000005720000E+00,,3.54000015259000E+01,2.08011809703000E+01,-2.24407043270000E+00,3.49906244672993E+01,,-1.99687927902000E+01,9.96791011930000E+00,
BRA,,,,,,,,,,,,,,,,,,,,,,,,,,,,,,,,,,,,,2.97999992371000E+01,2.17630004883000E+01,-4.30027999878000E+01,6.69000015259000E+01,-1.03367166519000E+01,-2.25126304626000E+01,-3.29599990845000E+01,1.05370002746600E+02,3.36800003052000E+01,4.76437026314000E+01,4.30665943776000E+01,7.46716334873370E+01,-5.71782692388000E+01,1.25110058512400E+02,6.50041169400000E+00,
BWA,,,,,,,,,,,,,,,,,,,,,,,,,,,,,,,,,,,,,,9.97742004394531E+01,9.19250011444091E+00,4.55999984741210E+01,-6.91313123700000E+00,4.39385375977000E+01,3.11499996185000E+01,2.55699996948000E+01,2.11000003815000E+01,-3.24189526180000E+00,5.30178069353000E+01,3.72144300851351E+01,-3.84063146305000E+01,2.43338143668000E+01,-6.76803855780000E+00,
CAN,,,,,,,,,,,,,,,,,,,,,,,,,,,,,,,-1.70886817527296E+01,7.55628115755005E+00,-1.35588180378543E+01,2.35160000000000E+01,-7.46478189060527E+00,1.53231352333157E+01,2.52872516776105E+01,7.62350846703261E+00,-1.00600348843752E+01,3.31289337586479E+01,3.97284863749783E+00,-1.81290012044572E+01,-1.23554642863058E+01,5.36224106742450E+01,2.22693130847636E+01,2.59754548109717E+01,1.62632299884529E+01,2.64269936425428E+01,-4.90401766877494E+01,5.75330904314842E+01,2.20277327245699E+01,
CHE,,,,,,,,,,,,,,,,,,,,,,,,,,,,,,,-6.39279403429612E+00,8.52773460827485E+00,9.39542617723152E+00,4.07704000000000E+01,1.96063945261220E+00,3.98533690423771E+01,1.30930728069900E+00,4.24536155778684E+01,2.17306117038628E+01,-6.29072067657575E+00,9.43269188869897E+00,-2.33576553525541E+01,-1.18385927212232E+01,3.37806928766375E+01,1.41223116083943E+01,1.48043687166861E+01,2.69645467601576E+01,4.95553696952578E+00,-3.05979397772691E+01,2.45050489188570E+01,1.10387362749335E+01,
CHL,,,,,,,,,,,,,,,,,,,,,,,,,,,,,,,,,,,,,-1.71000003815000E+01,3.61680006980000E+00,-2.97670001984000E+01,3.57999992371000E+01,-1.52117872238000E+01,-8.32868289950000E+00,-1.48400001526000E+01,7.94700012207000E+01,1.82800006866000E+01,1.46522996180000E+01,2.86281420267000E+01,2.26305015353122E+01,-4.12428653060000E+01,8.39903475206000E+01,4.72403307768000E+01,
CHN,,,,,,,,,,,,,,,,,,,,,,,,,,,,,,,,,,,,,3.62999992371000E+01,-2.50000000000000E+01,-5.26497001648000E+01,1.02199996948200E+02,-9.80355072020000E+00,-1.94764404297000E+01,-1.45100002289000E+01,7.76699981689000E+01,-2.10999989510000E+00,1.33111771908000E+01,8.07193578265000E+01,6.66097206799351E+01,-5.27044347603000E+01,6.62637916011000E+01,6.91468273400000E+00,
CIV,,,,,,,,,,,,,,,,,,,,,,,,,,,,,,,,,,,,,,-1.05727996826171E+01,4.41900014877319E+00,-1.21000003814697E+01,-2.55789470673000E+01,-2.36916542050000E+00,1.73600006104000E+01,2.73600006104000E+01,4.10999984741000E+01,1.68660218623000E+01,3.55533790402000E+01,1.15556358381503E+02,-1.69392954111000E+01,-1.07101824561000E+01,1.93249243859000E+01,
COL,,,,,,,,,,,,,,,,,,,,,,,,,,,,,,,,,,,,,5.90000009536743E+00,3.03687000274658E+01,-4.67705993652343E+01,-1.97000007629394E+01,-4.37677230835000E+01,2.51919479370000E+01,9.72999954220000E+00,2.72700004578000E+01,1.15389999389600E+02,1.08056557221500E+02,1.26576396807000E+01,1.27362393504000E+01,,7.57217160445000E+01,4.40582676379000E+01,
CZE,,,,,,,,,,,,,,,,,,,,,,,,,,,,,,,,,,,,,1.68999996185000E+01,-2.20067996979000E+01,-7.25509977340000E+00,4.19999980930000E+00,-5.67322254200000E-01,-1.37124385834000E+01,3.89000015259000E+01,5.44399986267000E+01,7.63399963379000E+01,4.35180329779000E+01,3.09028905489000E+01,4.97208783029401E+01,-4.59255116414000E+01,2.30087296919000E+01,2.05950126200000E-01,
DEU,,,,,,,,,,,,,,,,,,,,,,,,,,,,,,,-1.18601246048201E+01,1.11624044967553E+01,-8.00097184183425E+00,3.66839993219018E+01,4.12874878993665E+00,1.56528316509426E+01,1.79822851560564E+01,2.80226596660390E+01,2.52398359017979E+01,2.00661110078307E+01,-1.34611452079545E+01,-2.45582984012907E+01,-3.35390062175837E+01,6.40304664509386E+01,1.67546801486211E+01,1.02614696264469E+01,3.59567181778216E+01,3.64105345182721E+01,-4.27978603444026E+01,2.58243109321428E+01,7.35079127959819E+00,
DNK,,,,,,,,,,,,,,,,,,,,,,,,,,,,,,,-2.73416290204360E+00,1.16332586639393E+01,-2.88676440252378E+01,3.35597000000000E+01,3.49154722569758E+00,1.81461117180209E+01,2.13246861243158E+01,2.86404238845926E+01,7.89604295447368E+00,-7.50546819176190E-02,1.42336907294979E+01,-1.67998221125221E+01,-1.22812445198656E+01,5.58245989883699E+01,3.03897645658543E+01,2.09624407245160E+01,3.82085385697677E+01,1.94662206018662E+01,-5.09941907074769E+01,4.06025195449770E+01,2.50633301866631E+01,
ECU,,,,,,,,,,,,,,,,,,,,,,,,,,,,,,,,,,,,,,-8.72439956665039E+00,-3.69025993347167E+01,-7.70999984741210E+01,3.30044860840000E+01,8.53675003052000E+01,2.33500003815000E+01,1.46300001144000E+01,4.67000007629000E+01,2.59985984583000E+01,3.19660734149000E+01,3.75092192603519E+00,-8.80471209510000E+00,-1.31474754638000E+01,9.69495483820000E+00,
EGY,,,,,,,,,,,,,,,,,,,,,,,,,,,,,,,,,,,,,,,-3.08591995239000E+01,2.42000007629000E+01,-4.56464691162000E+01,-4.55297622681000E+01,-5.78000020980000E+00,7.93099975586000E+01,1.26400001525900E+02,1.58047435190300E+02,1.02171682627000E+01,5.22379955007370E+01,-5.58496815287000E+01,3.55539014605000E+01,1.15016378315000E+01,
ESP,,,,,,,,,,,,,,,,,,,,,,,,,,,,,,,-1.32473304409051E+01,1.02141293276981E+01,-2.72341481410872E+01,2.15114000000000E+01,-6.22698775588133E+00,2.58357328849295E+01,3.34024022306627E+01,2.66294048052849E+01,4.70220814094053E+01,4.13601219635824E+00,-1.75849414388991E+01,-1.24237379418749E+01,-1.37691997015549E+01,5.49355481215130E+01,2.59844895598720E+01,3.37506606406033E+00,4.69773017686580E+01,1.82088865819161E+01,-4.28327799431936E+01,2.90175983922494E+01,-2.44961442427389E+01,
EST,,,,,,,,,,,,,,,,,,,,,,,,,,,,,,,,,,,,,,,-6.54199981689453E+01,4.22999992370605E+01,4.47063589100000E+00,-3.71523046490000E+00,6.62600021362000E+01,4.14799995422000E+01,7.05000000000000E+01,2.28374017001000E+01,3.03297191282000E+01,-1.55285499304353E+01,-6.54991596639000E+01,3.28901128749000E+01,5.60251493460000E+01,
FIN,,,,,,,,,,,,,,,,,,,,,,,,,,,,,,,-2.60481906624701E+01,-2.24974090838755E+01,-1.61102680193047E+01,7.83304000000000E+01,5.02253681929721E+01,2.15018803833558E+00,3.60822165492816E+01,1.56122348144305E+01,1.03225673834805E+02,1.38575475092312E+02,-1.05721930836202E+01,-3.76064266855471E+01,-2.80120098679347E+01,1.95890274540251E+01,6.20908954462522E+00,1.35790366705212E+01,2.85221205722893E+01,3.95592052237198E+01,-5.68471868955076E+01,1.75198608559826E+01,1.07226041550123E+01,
FRA,,,,,,,,,,,,,,,,,,,,,,,,,,,,,,,-1.48455200677567E+01,1.51665639259892E+01,-1.12087538595409E+00,1.39892305249145E+01,-7.98977390975711E+00,8.18812959501414E+00,1.70077786690029E+01,1.21834959340016E+01,3.98795788205964E+01,3.02242619079228E+01,-6.90674775525722E+00,-2.66013699252888E+01,-2.12494591840362E+01,3.88963870300760E+01,1.58791016875728E+01,7.71370671085581E+00,3.09971413657939E+01,1.20123517946531E+01,-4.51566339155847E+01,2.56372503679538E+01,-9.85056564563627E+00,
GBR,,,,,,,,,,,,,,,,,,,,,,,,,,,,,,,5.89151496906264E+00,1.27413799539017E+01,-7.80909972224940E+00,1.74676930088246E+01,-5.02489101549467E+00,1.91800128016160E+01,2.35707186161233E+01,1.98010937292679E+01,1.54861040085527E+01,1.44546527943409E+01,-1.69145143583685E+01,-1.83699655332899E+01,-1.63583170874068E+01,2.58128841139469E+01,1.55199931036965E+01,4.70329145024755E+00,2.60582353175824E+01,5.16378338697892E+00,-4.95176185001164E+01,3.52465623637037E+01,5.23844731605201E+00,
GHA,,,,,,,,,,,,,,,,,,,,,,,,,,,,,,,,,,,,,,-3.23880996704101E+01,1.72842006683349E+01,-3.35000000000000E+01,-5.08990631104000E+01,4.49218750000000E+00,2.75699996948000E+01,6.53799972534000E+01,3.27000007629000E+01,-3.39282735613000E+01,9.71976773540000E+00,2.15830648872527E+01,-1.04087812263000E+01,-4.27000932925000E+01,9.40622373378000E+01,
GRC,,,,,,,,,,,,,,,,,,,,,,,,,,,,,,,,,,,,1.15339079933375E+01,9.84129349753484E+00,3.84506541101153E+01,9.63914000000000E+01,5.00782111640326E+01,-4.87882399682161E+01,-3.24980671370905E+01,-2.63824153218169E+01,6.40896970989761E+01,3.64829006080578E+01,1.41269658901429E+01,3.60688043222559E+01,2.85600652294166E+01,-6.64959679968321E+01,2.21043881617709E+01,-4.37504282126150E+01,
HKG,,,,,,,,,,,,,,,,,,,,,,,,,,,,,,,2.11225769961492E+00,4.49926209001386E+01,2.81937879854218E+01,1.13202300000000E+02,-3.27857157263313E+01,2.04223376579876E+01,3.47253055460424E+01,-2.19198951881971E+01,-1.42326890162380E+01,5.81519519056611E+01,-1.25671568932040E+01,-1.89522343496126E+01,-1.89224845919400E+01,3.94362314394491E+01,1.92580234371356E+01,8.07599132659633E+00,2.82076646089523E+01,3.60896848880319E+01,-5.38814799819749E+01,6.71034738956805E+01,2.12860445327443E+01,
HRV,,,,,,,,,,,,,,,,,,,,,,,,,,,,,,,,,,,,,,,-3.37900009155273E+01,-1.81000003814697E+01,1.09040594101000E+01,-3.51023125650000E+00,4.41899986267000E+01,1.27899999619000E+01,-7.69999980930000E+00,7.41761396260000E+00,8.51523249599000E+01,6.80618901910975E+01,-5.92785984198000E+01,3.11147778051000E+01,-4.04287143300000E-01,
HUN,,,,,,,,,,,,,,,,,,,,,,,,,,,,,,,,,,,,,9.99000015259000E+01,5.99593009949000E+01,-1.08350000381000E+01,1.51999998093000E+01,-2.82285251617000E+01,-1.02874631882000E+01,3.45800018311000E+01,2.85699996948000E+01,9.36900024414000E+01,1.60887576509000E+01,3.13717016311000E+01,1.30759253341354E+01,-6.25355343873000E+01,7.29689789593000E+01,-1.07506563581000E+01,
IDN,,,,,,,,,,,,,,,,,,,,,,,,,,,,,,,,,,,,,1.63999996185000E+01,-7.36289978027000E+01,-2.80748996735000E+01,9.50999984741000E+01,-6.10417098999000E+01,-1.85326080322000E+01,3.32900009155000E+01,6.97200012207000E+01,3.93400001526000E+01,9.07936507940000E+00,6.79278230501000E+01,4.92663200462161E+01,-6.10728384550000E+01,1.30066675037900E+02,3.78942154062000E+01,
IND,,,,,,,,,,,,,,,,,,,,,,,,,,,,,,,,,,,,,-2.00000000000000E+00,5.80100011830000E+00,-2.29754009247000E+01,8.10000000000000E+01,-3.10816631317000E+01,-1.99150962830000E+01,6.82999992370000E+00,7.65199966431000E+01,2.00900001526000E+01,3.35628227194000E+01,4.67010309278000E+01,7.85804638088545E+01,-6.41370218794000E+01,9.41399682540000E+01,1.87224258612000E+01,
IRL,,,,,,,,,,,,,,,,,,,,,,,,,,,,,,,-2.12416638786662E+01,1.62568356305205E+01,-1.88017740188412E+01,3.62276000000000E+01,8.20391756149268E+00,2.86521496082863E+01,2.79235321631383E+01,2.99537700207963E+01,3.60874690093917E+01,-1.74345317871919E+01,9.14005586820863E+00,-5.44196501320475E+00,-2.12236318545416E+01,4.98537042039988E+01,3.80073966622330E+01,-1.01582462648099E+00,4.12002059318203E+01,-1.96200827705911E+01,-6.99427019276167E+01,4.47477815336482E+01,-7.68454663971130E+00,
ISR,,,,,,,,,,,,,,,,,,,,,,,,,,,,,,,,,,,,2.49581971244250E+01,-5.50234637440589E+00,2.24961781192427E+01,-7.78749999999999E+00,7.37613664091094E+01,8.58866989078804E+00,-3.46266738624288E+01,-3.05367584547391E+01,6.01974175486203E+01,1.38463945112793E+01,2.32668739330178E+01,-5.80379687330225E+00,3.30096745023342E+01,-3.46759285470998E+01,5.67785027153632E+01,7.36226143399128E+00,
ITA,,,,,,,,,,,,,,,,,,,,,,,,,,,,,,,-1.60274340275597E+01,-3.00880273548541E+00,-2.98840492522484E+01,2.35368000000000E+01,1.01586733669643E+01,-3.94807714211183E+00,9.36106926817926E+00,3.46065299800839E+01,5.31712156590872E+01,4.27530918777370E+00,-1.98878999494360E+00,-2.82002480575685E+01,-9.64163763348137E+00,3.71650215174263E+01,2.72909360870279E+01,-2.48618209708562E-01,3.06153292889596E+01,1.59618786429343E+00,-5.25990622935372E+01,2.30915862950327E+01,-1.73660745287075E+01,
JAM,,,,,,,,,,,,,,,,,,,,,,,,,,,,,,,,,,,,,,7.17399978637695E+00,-2.12626991271972E+01,1.89999997615814E+00,4.55856018066000E+01,4.34125852580000E+00,4.00400009155000E+01,-3.43000006680000E+00,1.07400001525900E+02,-1.40506450072000E+01,-1.54759522380000E+00,3.22966777333606E-01,-3.81900045025000E+01,-1.58318664926000E+01,2.23614923142000E+01,
JOR,,,,,,,,,,,,,,,,,,,,,,,,,,,,,,,,,,,,,1.10000002384185E+00,1.26252002716064E+01,2.99629998207092E+00,-3.59999990463256E+00,-2.44781684875000E+01,3.13696060181000E+01,-2.13000011440000E+00,6.54199981689000E+01,5.50000000000000E+01,1.17812677819500E+02,-3.59523909045000E+01,3.25871661418479E+01,,-1.38977553837000E+01,-8.57226171300000E+00,
JPN,,,,,,,,,,,,,,,,,,,,,,,,,,,,,,,-3.47805082435667E+01,3.55426732305109E+00,-2.57114597344298E+01,1.47264636899544E+01,2.71462286649479E+01,-3.09839112881909E+00,-1.29900046747252E+01,-2.97673469123785E+01,2.69922652321859E+00,5.33320702970988E+01,-3.48611286104772E+01,-3.32270502312133E+01,-9.85463243573297E+00,3.77408321588454E+01,1.17729428191400E+01,2.25003507127811E+01,5.92021395853009E+00,-6.18727128323616E+00,-2.77268491216425E+01,1.63986267525504E+01,9.61429239141556E+00,
KAZ,,,,,,,,,,,,,,,,,,,,,,,,,,,,,,,,,,,,,,,,,,,,,,,,,-4.70327532159000E+01,1.53229453990000E+00,-9.69608982100000E-01,
KEN,,,,,,,,,,,,,,,,,,,,,,,,,,,,,,,,,,,,,,-1.09618997573852E+01,1.38069000244140E+01,-2.75000000000000E+01,-8.11802864070000E+00,-2.27105102539000E+01,4.21899986267000E+01,1.86210006713900E+02,-1.50000000000000E+01,5.99861981713000E+01,6.03019410496000E+01,1.18127186294735E+01,-4.03056313172000E+01,5.55537979600000E-01,3.37982986502000E+01,
KOR,,,,,,,,,,,,,,,,,,,,,,,,,,,,,,,,,,,,,-3.87000007629000E+01,-6.89060974121000E+01,1.20691101074200E+02,1.06500000000000E+02,-5.70997810364000E+01,5.12247085571000E+01,5.76000022890000E+00,,2.57099990845000E+01,5.88305394455000E+01,1.33003201281000E+01,2.76632378261446E+01,-5.56178026766000E+01,6.72484420404000E+01,2.52581509200000E+01,
KWT,,,,,,,,,,,,,,,,,,,,,,,,,,,,,,,,,,,,,,,,,,,,,,,-4.58699874330000E+00,3.99389331258000E+01,,-1.04077822390000E+01,2.91240053302000E+01,
LBN,,,,,,,,,,,,,,,,,,,,,,,,,,,,,,,,,,,,,,,,-1.80000000000000E+01,-1.85853652954000E+01,-2.92240867615000E+01,5.69000005720000E+00,9.39999997600000E-01,5.35000000000000E+01,1.11771546711500E+02,-9.22570016470000E+00,4.05189218256369E+01,-2.52666826118000E+01,4.33573717752000E+01,-8.70705156490000E+00,
LKA,,,,,,,,,,,,,,,,,,,,,,,,,,,,,,,,,,,,,-8.60000038146972E+00,2.23495998382568E+01,-2.92014007568359E+01,-6.00000000000000E+00,-4.17301483154000E+01,3.65333976746000E+01,2.84099998474000E+01,3.56100006104000E+01,-5.92000007629000E+01,2.92938015736000E+01,4.52912801484000E+01,-1.05679844724000E+01,,1.18049293836800E+02,8.45905890544000E+01,
LTU,,,,,,,,,,,,,,,,,,,,,,,,,,,,,,,,,,,,,,8.65289974212646E+00,-3.91767997741699E+01,9.50000000000000E+00,4.90871906280000E+00,-2.36262550354000E+01,2.56700000763000E+01,1.17900001525900E+02,5.62000007629000E+01,6.19447513810000E+00,9.68305828980000E+00,1.43076689560961E+01,-7.30177436221000E+01,3.66708546954000E+01,4.39566745969000E+01,
LUX,,,,,,,,,,,,,,,,,,,,,,,,,,,,,,,,,,,,,,,,,,,,,,,2.43809112206794E+01,4.18737521725528E+01,-6.42614754412540E+01,7.67317182561847E+01,-3.34480581762927E+00,
LVA,,,,,,,,,,,,,,,,,,,,,,,,,,,,,,,,,,,,,,,-6.74000015258789E+01,-9.50000000000000E+00,4.11924133301000E+01,6.01007690430000E+01,-1.40900001526000E+01,6.25900001526000E+01,4.97999992371000E+01,3.28298374973000E+01,1.50902721640000E+00,1.86886116272897E+00,-5.87064158024000E+01,2.18965257380000E+00,3.94144284661000E+01,
MAR,,,,,,,,,,,,,,,,,,,,,,,,,,,,,,,,,,,,,,,2.86613006592000E+01,-7.80000019070000E+00,-1.91431522369000E+01,-1.72802944183000E+01,-8.11999988560000E+00,4.39900016785000E+01,1.82700004578000E+01,8.37919732860000E+00,7.85347483738000E+01,4.52668584212209E+01,-1.69578034936000E+01,-1.65381133520000E+00,1.30950428652000E+01,
MEX,,,,,,,,,,,,,,,,,,,,,,,,,,,,,,,,,,,,,1.68999996185000E+01,4.88030014038000E+01,-3.89000015259000E+01,7.85000000000000E+01,-2.14825077057000E+01,1.28221082687000E+01,-1.63799991608000E+01,3.03500003815000E+01,4.78899993896000E+01,4.38584197704000E+01,4.10606266567000E+01,1.28238794463784E+01,-4.50672446252000E+01,5.58148893614000E+01,2.65959493481000E+01,
MUS,,,,,,,,,,,,,,,,,,,,,,,,,,,,,,,,,,,,,,5.32469987869262E+00,1.35559999942779E+00,-6.69999980926513E+00,-1.93841285706000E+01,-2.18046035767000E+01,2.29099998474000E+01,4.36899986267000E+01,1.77999992371000E+01,1.04748288058000E+01,4.43430284041000E+01,9.39596998725874E+01,-4.92384798793000E+01,4.42173036783000E+01,8.19234470780000E+00,
MYS,,,,,,,,,,,,,,,,,,,,,,,,,,,,,,,,,,,,,2.41000003815000E+01,-7.29235992432000E+01,-2.88540005680000E+00,4.45000000000000E+01,-2.33307266235000E+01,4.16071796420000E+00,-2.56999993320000E+00,2.54599990845000E+01,1.27200002670000E+01,-2.86363959350000E+00,3.46232626189000E+01,4.46448948540999E+01,-4.36642999361000E+01,4.66528295680000E+01,3.50639559527000E+01,
NAM,,,,,,,,,,,,,,,,,,,,,,,,,,,,,,,,,,,,,,,,5.30000019073486E+00,-3.77564582825000E+01,-3.09781780243000E+01,2.24599990845000E+01,3.70999984741000E+01,3.67000007629000E+01,-1.11678059110000E+00,1.28419822802000E+01,3.93615185504745E+01,-9.88732045570000E+00,2.26231952954000E+01,2.42016899815000E+01,
NGA,,,,,,,,,,,,,,,,,,,,,,,,,,,,,,,,,,,,,,-1.88999998569488E+00,-2.84500007629394E+01,-1.03000001907348E+01,,2.51039733887000E+01,-2.80000001200000E-01,5.75400009155000E+01,2.38999996185000E+01,2.06932524065000E+01,3.39527757042000E+01,1.08303270274200E+02,,-3.53987413125000E+01,2.02921873395000E+01,
NLD,,,,,,,,,,,,,,,,,,,,,,,,,,,,,,,-6.57745081679391E+00,1.21765411075241E+01,-2.31284117240220E+00,3.07104000000000E+01,7.67521176585797E+00,2.46418464332431E+01,2.55803215404023E+01,2.00339630246974E+01,2.08380651575504E+01,8.00164363532576E+00,-6.74217633714156E+00,-2.33730388315547E+01,-2.09810663090758E+01,2.65421468128692E+01,1.13681505891055E+01,1.07942251938445E+01,3.07154503234449E+01,2.03922966759326E+01,-5.03942269980649E+01,4.16643020550650E+01,1.15279401953370E+00,
NOR,,,,,,,,,,,,,,,,,,,,,,,,,,,,,,,-7.16809692074710E+00,-1.04180500107935E+01,-2.37421263745482E+01,2.92152000000000E+01,1.96995399921990E+01,1.07623973621258E+01,2.86857868666244E+01,1.18253866014453E+01,-3.11268657987797E+01,3.92450092112269E+01,-7.58450775711844E+00,-1.67049663586673E+01,-1.06497161482315E+01,4.45748006171659E+01,5.04861988104601E+01,2.47287389200434E+01,4.16291187256716E+01,2.59035068883650E+01,-6.60652061608378E+01,9.14137648352825E+01,1.36894137488127E+01,
NZL,,,,,,,,,,,,,,,,,,,,,,,,,,,,,,,-3.95622238400550E+01,6.31835198727524E+00,-8.77627015360252E+00,6.00380000000000E+01,3.50473012659491E+00,1.17131078215167E+01,1.68188153102984E+01,-1.98425423412054E+01,-2.38736760459908E+01,8.65905948280046E+00,-2.65772057438433E+01,4.49083417902902E+00,1.99499112898752E+01,5.15200587098985E+01,3.02610037466376E+01,-2.74346562515124E+00,2.11883427996381E+01,2.87790815149307E+00,-5.24493062645739E+01,4.04371719395066E+01,5.23001913624110E+00,
OMN,,,,,,,,,,,,,,,,,,,,,,,,,,,,,,,,,,,,,,,,7.19999980926513E+00,,-2.69948883057000E+01,3.18199996948000E+01,4.69799995422000E+01,2.52000007629000E+01,3.79563417388000E+01,7.87977993000000E+00,6.70066593610000E+01,,2.19758668191000E+01,1.21776895795000E+01,
PAK,,,,,,,,,,,,,,,,,,,,,,,,,,,,,,,,,,,,,-1.92999992370605E+01,2.68890991210937E+01,-6.19221992492675E+01,3.75000000000000E+01,-1.66653842926000E+01,-3.27699279785000E+01,1.12029998779300E+02,5.03600006104000E+01,2.07000007629000E+01,5.84540435206000E+01,1.34664261700000E+00,4.17473960966731E+01,,5.67056671544000E+01,1.53202211457000E+01,
PAN,,,,,,,,,,,,,,,,,,,,,,,,,,,,,,,,,,,,,,,,,,,,,,,,,-1.57023082497000E+01,1.54470986228000E+01,1.28347232678000E+01,
PER,,,,,,,,,,,,,,,,,,,,,,,,,,,,,,,,,,,,,-2.00000003000000E-01,1.25324001312000E+01,-3.93125991821000E+01,1.97000007629000E+01,-2.80569725037000E+01,1.41696214676000E+01,3.35200004578000E+01,8.80500030518000E+01,-6.99999988100000E-01,2.97962158715000E+01,8.25260891946000E+01,6.63829350835812E+01,-4.11296535996000E+01,7.92925832468000E+01,5.12581349939000E+01,
PHL,,,,,,,,,,,,,,,,,,,,,,,,,,,,,,,,,,,,,1.31000003815000E+01,-6.15987014771000E+01,9.17959976200000E+00,8.99999976200000E-01,-4.35507240295000E+01,-2.99244041443000E+01,-1.97199993134000E+01,4.14300003052000E+01,2.50100002289000E+01,2.13107701133000E+01,5.03014540726000E+01,3.60154160767658E+01,-5.36517666108000E+01,7.15215469584000E+01,5.66690117862000E+01,
POL,,,,,,,,,,,,,,,,,,,,,,,,,,,,,,,,,,,,,7.18000030518000E+01,-1.85090999603000E+01,-1.22530002594000E+01,2.22999992371000E+01,-3.53472232820000E+00,-2.49485912323000E+01,2.19000005720000E+00,2.94899997711000E+01,5.92999992371000E+01,2.07877013777000E+01,3.81308680473000E+01,2.32217457717577E+01,-5.77975257013000E+01,4.19001677078000E+01,1.12590976909000E+01,
PRT,,,,,,,,,,,,,,,,,,,,,,,,,,,,,,,,,,,,-1.69949437778281E+00,2.90204824271830E+01,4.87568390956774E+01,3.31788000000000E+01,-8.35102884242836E+00,-1.04143965524304E+01,-2.26976876048854E+01,-1.46727775635126E+01,3.84341178134385E+01,2.35072537796273E+01,-4.64735896304754E+00,4.19605338467806E+01,2.37603737764590E+01,-5.34801914370315E+01,3.50155926616158E+01,-1.65614289820961E+01,
QAT,,,,,,,,,,,,,,,,,,,,,,,,,,,,,,,,,,,,,,,,,,,,,,,-4.03345820290000E+01,3.54433645824374E+01,,5.05770603260000E+00,2.77444003575000E+01,
ROM,,,,,,,,,,,,,,,,,,,,,,,,,,,,,,,,,,,,,,,-6.77399978637695E+01,-3.65000000000000E+01,-2.53424663544000E+01,-2.52948894501000E+01,9.66699981689000E+01,4.24599990845000E+01,9.93000030518000E+01,5.87441130298000E+01,5.42325949367000E+01,3.28353423954860E+01,-7.21774388184000E+01,2.61475689872000E+01,-6.58281668040000E+00,
RUS,,,,,,,,,,,,,,,,,,,,,,,,,,,,,,,,,,,,,,,-8.42300033569000E+01,2.84000000000000E+02,-3.21932258606000E+01,5.24238471985000E+01,3.47700004578000E+01,6.85000000000000E+01,1.27600002289000E+01,6.49448197726000E+01,6.19797496693000E+01,2.19424855899860E+01,-7.34306174493000E+01,1.06632618288300E+02,2.16731212730000E+01,
SAU,,,,,,,,,,,,,,,,,,,,,,,,,,,,,,,,,,,,,,,-2.67900009155273E+01,4.22999992370605E+01,,3.69006848340000E+00,3.83999991420000E+00,4.94500007629000E+01,8.35999984741000E+01,1.10988756230400E+02,-4.88572684320000E+01,3.55731012998174E+01,,2.84502300455000E+01,9.02481844170000E+00,
SGP,,,,,,,,,,,,,,,,,,,,,,,,,,,,,,,-1.24450711016463E+01,3.78523082999225E+01,8.80993718140521E-01,7.59264000000000E+01,6.96257071138828E-01,1.00766971509664E+01,1.22208814972953E+00,-4.69425803529542E+01,-3.47663844106042E+00,5.13163960406226E+01,-2.59056253701934E+01,-1.54036874686770E+01,-2.16062388008018E+01,3.72726075312093E+01,1.45722823079242E+01,9.96718604472140E+00,3.98793639413420E+01,2.59710991051238E+01,-5.29464358215628E+01,7.67498478393183E+01,1.84389278035342E+01,
SVK,,,,,,,,,,,,,,,,,,,,,,,,,,,,,,,,,,,,,,,-5.60261993408203E+01,-2.42000007629394E+01,4.23472464100000E-01,2.12564315796000E+01,2.35599994659000E+01,5.72200012207000E+01,4.10000000000000E+01,1.66465439179000E+01,2.39918920085000E+01,5.73947826086956E+01,-3.59859450620000E+01,-2.30971974884000E+01,5.36484975470000E+00,
SVN,,,,,,,,,,,,,,,,,,,,,,,,,,,,,,,,,,,,,,9.16889953613281E+00,1.89932003021240E+01,-3.70000004768371E+00,-9.51379108430000E+00,1.99776113030000E+00,7.82500000000000E+01,4.20600013733000E+01,1.28500000000000E+02,-6.94628333650000E+00,7.42746074496000E+01,9.49716435100815E+01,-6.68533570622000E+01,1.61436392694000E+01,-2.03131725170000E+01,
SWE,,,,,,,,,,,,,,,,,,,,,,,,,,,,,,,-1.89753056995237E+01,1.15089577822073E+01,-1.05778370746076E+01,3.02776000000000E+01,1.69899506899114E+01,3.11975392965238E+01,3.59579696779962E+01,1.00123923121318E+01,7.64736761155802E+00,7.14701079875100E+01,-2.04419598275316E+01,-2.92612838820420E+01,-2.91009413970064E+01,6.05145493595939E+01,3.38071449601680E+01,9.10189070079581E+00,4.44124328099557E+01,-3.06442667820038E+00,-5.31812660461098E+01,6.59998350558372E+01,3.25646983740088E+01,
THA,,,,,,,,,,,,,,,,,,,,,,,,,,,,,,,,,,,,,-4.10999984741000E+01,-7.87559967041000E+01,3.43185005188000E+01,4.22999992371000E+01,-5.40934371948000E+01,3.02883458140000E+00,1.83400001526000E+01,1.47179992675800E+02,-6.44000005720000E+00,3.78963650430000E+00,6.16823977480000E+00,3.93979567963815E+01,-5.05230769231000E+01,7.27679149069000E+01,5.21350369948000E+01,
TTO,,,,,,,,,,,,,,,,,,,,,,,,,,,,,,,,,,,,,,1.09290199279785E+02,1.75055999755859E+01,-3.29999995231628E+00,8.52839660640000E+00,1.61848497390000E+00,3.32200012207000E+01,4.67099990845000E+01,3.67999992371000E+01,-1.34935233660000E+00,-6.48959474260000E+00,-2.75813985916475E+00,-9.91009076960000E+00,-1.02179319820000E+01,8.39405844900000E-01,
TUN,,,,,,,,,,,,,,,,,,,,,,,,,,,,,,,,,,,,,,-4.70279998779296E+01,-6.37739992141723E+00,1.67999992370605E+01,9.00019168850000E+00,-2.89788722992000E+01,-2.50000000000000E+00,1.49200000763000E+01,4.19999980930000E+00,1.10993208829000E+01,4.79274116523000E+01,1.55991735537190E+01,-3.08310991960000E+00,4.05650950612000E+01,1.16628381557000E+01,
TUR,,,,,,,,,,,,,,,,,,,,,,,,,,,,,,,,,,,,,4.22999992371000E+01,1.09891700744600E+02,-5.31221008301000E+01,2.54500000000000E+02,-5.11952514648000E+01,-3.02101440430000E+01,-3.34700012207000E+01,1.13199996948200E+02,3.29099998474000E+01,4.94656259382000E+01,-3.99301022360000E+00,7.48216489884726E+01,-6.24008233309000E+01,9.96045440147000E+01,2.13688256185000E+01,
UKR,,,,,,,,,,,,,,,,,,,,,,,,,,,,,,,,,,,,,,,-8.22500000000000E+01,2.02000007629394E+01,7.51523666382000E+01,-3.62955017090000E+01,2.66800003052000E+01,4.02999992371000E+01,1.70300003051800E+02,5.28202885877000E+01,4.86466380544000E+01,1.12218971358177E+02,-8.21898922469000E+01,3.10764744535000E+01,5.38430605427000E+01,
USA,,,,,,,,,,,,,,,,,,,,,,,,,,,,,,,-6.55913978494622E+00,2.63067046211616E+01,4.46426430746363E+00,7.05515136214454E+00,-1.53928609711652E+00,3.41106538637403E+01,2.02636663257188E+01,3.10081810081810E+01,2.66685902125862E+01,1.95260447597276E+01,-1.01391866598605E+01,-1.30424558734511E+01,-2.33662492313519E+01,2.63800371027770E+01,8.99353954103466E+00,3.00158236936154E+00,1.36192001112410E+01,3.52920194755608E+00,-3.84852563340138E+01,2.34538173189184E+01,1.27820791594404E+01,
VEN,,,,,,,,,,,,,,,,,,,,,,,,,,,,,,,,,,,,,1.17699996948242E+02,2.56905994415283E+01,-5.04567985534667E+01,-1.23999996185302E+01,1.87352104187000E+01,-2.01183052063000E+01,-3.51300010681000E+01,1.43000001907000E+01,-5.04000015259000E+01,-2.19940062861000E+01,7.90432908545727E+01,,,,,
VNM,,,,,,,,,,,,,,,,,,,,,,,,,,,,,,,,,,,,,,,,,,,,,,,,1.07440623732480E+01,-6.81764538314000E+01,4.69332430068000E+01,4.80535164600000E-01,
ZAF,,,,,,,,,,,,,,,,,,,,,,,,,,,,,,,,,,,,,-1.92000007629000E+01,-1.38247995377000E+01,-3.03498992920000E+01,5.60999984741000E+01,-1.72560253143000E+01,-2.21349487305000E+01,4.49199981689000E+01,3.75999984741000E+01,5.00999984741000E+01,2.47863701502000E+01,1.72047126877000E+01,1.55428944694440E+01,-4.17082822953000E+01,5.37364303940000E+01,3.20866977540000E+01,
ZMB,,,,,,,,,,,,,,,,,,,,,,,,,,,,,,,,,,,,,,,,,,,,,,,,,,1.66780416883000E+01,1.73890813568000E+01,
ZWE,,,,,,,,,,,,,,,,,,,,,,,,,,,,,,,,,,,,,7.24000015258789E+01,-4.68391990661621E+01,-5.81469001770019E+01,1.40600006103515E+02,-2.45719242096000E+01,1.34276672363300E+02,9.79400024414000E+01,-7.47600021362000E+01,-2.67000007629000E+01,3.65822595145000E+01,9.12281279139900E+02,-8.37869617283215E+01,,,,
