"Country Code",1960,1961,1962,1963,1964,1965,1966,1967,1968,1969,1970,1971,1972,1973,1974,1975,1976,1977,1978,1979,1980,1981,1982,1983,1984,1985,1986,1987,1988,1989,1990,1991,1992,1993,1994,1995,1996,1997,1998,1999,2000,2001,2002,2003,2004,2005,2006,2007,2008,2009,2010,2011ARB,,,,,,,,,,,,,,,,,,,,,,,,,,,,,,1.56705416100970E+01,1.18213323065075E+01,1.02685624012638E+01,8.78402594847376E+00,1.03769000419730E+01,1.57574066165985E+01,2.32476145220186E+01,3.29733026907638E+01,5.32629686915729E+01,2.53784590844424E+01,2.48965656817093E+01,2.26225009015597E+01,2.63644634821099E+01,3.74501570527457E+01,8.84529802049681E+01,1.11112582532421E+02,1.49766527728155E+02,1.55750652056312E+02,9.74796420395429E+01,9.20332174611606E+01,7.42809392756251E+01,3.94083220372833E+01,
ARE,,,,,,,,,,,,,,,,,,,,,,,,,,,,,,,,,,,,,,,,,1.75931706535218E+00,2.52865209341990E+00,2.78002262099828E+00,3.95701750260308E+00,7.15942995448518E+00,8.95917577111981E+01,6.20734943669483E+01,8.27846089784190E+01,8.98469286531507E+01,6.33478895184990E+01,2.56093082690653E+01,
ARG,,,,,,,,,,,,,,,,,,,,,,,,,,,,,,6.14102564102564E+01,2.27503333895804E+01,4.43178688871239E+01,8.45229103858112E+01,3.30319490936570E+01,2.81137206529074E+01,1.23026659768553E+01,1.06279255899687E+01,4.94630475988877E+01,3.02359825594737E+01,1.20430360706333E+01,4.76601256220929E+00,2.33168896627707E+00,9.14260318594851E-01,6.90259220729229E+00,1.79060152278555E+01,3.04433312287942E+01,6.42093932355107E+00,9.91767489645290E+00,1.93098913344705E+01,5.39132836833685E+00,4.57642949771526E+00,
ARM,,,,,,,,,,,,,,,,,,,,,,,,,,,,,,,,,,,,,,,,,,,1.19469608212017E+01,3.94041408380233E+00,7.16034971291611E+00,3.65960754633030E+00,9.40090476611810E+00,6.05431383502522E+00,6.08177169878667E-01,1.67457522855465E-01,,
AUS,,,,,,,,,,,,,,,,,,,,,,,,,,,,,,3.21046586405426E+01,3.20904004898423E+01,3.63054269778441E+01,3.11367358480135E+01,3.87073871618640E+01,4.47104168309167E+01,4.25156232272808E+01,5.21877930361561E+01,5.64464158088405E+01,5.15675881142918E+01,5.13686931643126E+01,5.65475227856021E+01,6.43559016147622E+01,7.81610622782835E+01,7.67058604724016E+01,7.55205810170934E+01,7.79657754310434E+01,8.69805266734530E+01,1.10498237337692E+02,1.03108446209192E+02,7.87787900481498E+01,9.00772831745696E+01,
AUT,,,,,,,,,,,,,,,,,,,,,,,,,,,,,,7.51347894201216E+01,1.10112427018415E+02,7.33611257639279E+01,3.34418441167440E+01,2.61201902095758E+01,5.58006445431923E+01,8.20546308831727E+01,6.17699274817200E+01,3.48661102254718E+01,5.03770245871193E+01,3.48127800566750E+01,2.98127123794415E+01,2.66314912424026E+01,2.06200609692810E+01,2.48574464047398E+01,3.37010495277648E+01,4.35626993523907E+01,5.04125816141631E+01,5.78189566094463E+01,6.94468842574051E+01,4.05703488254608E+01,7.93617711585292E+01,
BEL,,,,,,,,,,,,,,,,,,,,,,,,,,,,,,1.15475660815973E+01,9.17857147141225E+00,9.08412584841809E+00,1.18523989592351E+01,1.57436364690635E+01,1.58105693018367E+01,1.61311312368931E+01,2.32393645653073E+01,2.31413261888814E+01,2.89371755936669E+01,2.74635610574673E+01,2.06917763746712E+01,2.36044602152019E+01,2.30450447564122E+01,2.83394457657862E+01,3.58383438917314E+01,4.47619050716713E+01,4.84624826457677E+01,6.53462057764708E+01,7.64815104420572E+01,5.95957317374444E+01,4.20006029147446E+01,
BGD,,,,,,,,,,,,,,,,,,,,,,,,,,,,,,1.10375275938190E+00,1.50564617314931E+00,1.01694915254237E+00,3.77358490566038E+00,3.91134289439374E+00,1.42381902860945E+01,1.32328308207705E+01,2.45202920699609E+01,1.26478318002628E+01,6.13768961493582E+01,8.30260745572044E+01,7.48345007171607E+01,6.36006710977426E+01,5.69491206379493E+01,2.32465428291241E+01,3.60547454788812E+01,3.14978008242580E+01,2.83770159773446E+01,9.22896066608417E+01,1.37258739353307E+02,2.12561601015736E+02,5.43502477931635E+01,
BGR,,,,,,,,,,,,,,,,,,,,,,,,,,,,,,,,,,,,,8.82352941176471E-02,0.00000000000000E+00,2.41448692152917E+00,6.30053307220470E+00,8.71760271214307E+00,1.24896394991311E+01,2.78523544140215E+01,1.58244354874359E+01,2.24119778551813E+01,3.51956702220025E+01,1.95840906598523E+01,3.42353517361153E+01,1.07710499709514E+01,5.01972417550224E+00,2.75398625214395E+00,
BHR,,,,,,,,,,,,,,,,,,,,,,,,,,,,,,,,,,,,,,,,6.38330123227228E+00,3.58424593358264E+00,2.96600011948091E+00,3.14878226621050E+00,3.30314350687199E+00,3.55891201190956E+00,4.60588104987842E+00,7.44402805229548E+00,6.60756989056952E+00,1.20004872599609E+01,4.49693805576892E+00,1.53925809401418E+00,
BMU,,,,,,,,,,,,,,,,,,,,,,,,,,,,,,,,,,,,,,,6.80178632772243E+00,4.96428571428571E+00,7.89343857918106E+00,9.57767232226050E+00,3.61757105943152E+00,1.99058313632782E+00,2.69093204292026E+00,3.72361558849119E+00,6.30269293230377E+00,6.28099978567293E+00,4.42172182692142E+00,3.06980553212815E+00,7.26458824098316E+00,
BOL,,,,,,,,,,,,,,,,,,,,,,,,,,,,,,,,,,,,1.65289256198347E+00,9.47867298578199E-01,4.52488687782805E-01,1.33630289532294E+00,5.31616815781508E-01,5.71910816910933E+00,7.71737914448740E-02,1.58058501109123E-01,1.62610947466144E-01,2.73487439261249E-01,8.10942555847873E-02,4.26109758408203E-02,,,,3.55961711463909E-01,
BRA,,,,,,,,,,,,,,,,,,,,,,,,,,,,,,4.38222227862030E+01,1.84144737951247E+01,4.51790521914975E+01,4.65947803941914E+01,7.93489981132924E+01,7.59348104289157E+01,4.70454723757732E+01,6.14920493875917E+01,8.56989256415249E+01,7.04588522089993E+01,4.48892601169098E+01,4.46061286150256E+01,3.15673814200840E+01,3.10943145550724E+01,3.37281833470855E+01,3.31311819287938E+01,3.83188479568517E+01,4.29287251117079E+01,5.62054289048883E+01,7.42736367787890E+01,7.39090574038576E+01,6.64311019638072E+01,
BRB,,,,,,,,,,,,,,,,,,,,,,,,,,,,,,,,3.05084745762712E+00,7.05467372134039E-01,1.36286201022147E+00,1.41843971631206E+00,5.92885375494071E-01,9.49367088607595E-01,2.40711669283098E+00,1.91387559808612E+00,4.56369430714771E-01,3.50537005246330E-01,5.68582483073904E-01,3.15479285688033E+01,5.67689578295306E+00,5.27333951908656E+00,1.69446095943051E+00,1.97917587273081E+01,5.53271426754281E+00,3.55035269034021E+00,,3.64745802264254E-01,
BWA,,,,,,,,,,,,,,,,,,,,,,,,,,,,,,,,,5.39568345323741E+00,7.19424460431655E+00,9.71786833855799E+00,9.80645161290323E+00,8.56353591160221E+00,1.25531914893617E+01,1.04633781763827E+01,4.22361823445551E+00,4.66250030421534E+00,5.78556546824083E+00,3.69913521933739E+00,4.50234199634104E+00,2.14619425601306E+00,1.80822467402207E+00,2.27422611616129E+00,2.23872021996728E+00,3.05346864515127E+00,2.73564030085710E+00,3.46966499154912E+00,
CAN,,,,,,,,,,,,,,,,,,,,,,,,,,,,,,3.38161367216224E+01,2.67459672766331E+01,3.07111991719803E+01,3.27247041483324E+01,4.99441629778809E+01,5.02103530926548E+01,5.39180125270754E+01,6.22463676326395E+01,5.59615374978156E+01,5.95035773143635E+01,5.23045176830213E+01,7.72946026450737E+01,5.98535978858417E+01,6.36430532252617E+01,6.36844502121314E+01,6.31355134577819E+01,6.35731032522757E+01,8.11067872279797E+01,8.46596077528291E+01,1.11054278302530E+02,9.24000182739357E+01,7.11058316517719E+01,
CHE,,,,,,,,,,,,,,,,,,,,,,,,,,,,,,,,4.12191619024709E+01,4.08710036581166E+01,7.19414306727188E+01,8.15836505776428E+01,8.66441034863208E+01,9.39981453229232E+01,1.01266775931462E+02,1.00802744403683E+02,7.79780015341203E+01,8.20142004300742E+01,4.24320316063611E+01,1.11464055661118E+02,8.99684075337611E+01,9.36556928919668E+01,1.00117140182857E+02,1.19635801699350E+02,1.42966140043159E+02,1.40865376784420E+02,8.22979589979126E+01,7.56016867971575E+01,
CHL,,,,,,,,,,,,,,,,,,,,,,,,,,,,,,1.05352801334588E+01,6.75291084920732E+00,9.13461538461538E+00,7.04513866666667E+00,7.53908333342304E+00,9.33156022773905E+00,1.55877796428071E+01,1.21030042918455E+01,1.07634107808038E+01,7.12925301827103E+00,1.14479944623026E+01,9.45844775107031E+00,7.23237474197906E+00,6.00643367711665E+00,9.77583813269007E+00,1.13999469207260E+01,1.48863828618455E+01,1.84908754459384E+01,2.29562875665258E+01,2.11727069728861E+01,2.19742316321054E+01,1.97124370181862E+01,
CHN,,,,,,,,,,,,,,,,,,,,,,,,,,,,,,,,,1.64436788957412E+02,1.47351440458571E+02,2.31928656931791E+02,1.16355561794881E+02,3.28615621590399E+02,2.30896361063473E+02,1.30124481365722E+02,1.34192824929991E+02,1.58285009561412E+02,8.12582483937624E+01,6.75497597346160E+01,8.33382572289811E+01,1.13291746615284E+02,8.25469278037865E+01,1.01969158517366E+02,1.80100179434983E+02,1.21298868213183E+02,2.29608785126769E+02,1.64372008026294E+02,
CIV,,,,,,,,,,,,,,,,,,,,,,,,,,,,,,1.03305785123967E+00,3.33333333333333E+00,1.28440366972477E+00,7.81250000000000E-01,1.33779264214047E+00,2.85035629453682E+00,2.16383307573416E+00,2.19101123595506E+00,2.19178082191781E+00,2.55332902391726E+00,5.13001284393879E+00,2.46349635554424E+00,7.13218804124413E-01,1.30376004396680E+00,1.64256430746709E+00,2.52575179157458E+00,1.41405895691610E+00,3.30143274962052E+00,2.51755855182421E+00,4.08489751282778E+00,2.01441839894055E+00,1.99388181112959E+00,
COL,,,,,,,,,,,,,,,,,,,,,,,,,,,,,,6.49122807017544E+00,5.54687500000000E+00,7.43589743589744E+00,1.13991769547325E+01,9.81233210295482E+00,1.88554218221181E+01,7.86379456307027E+00,7.76477305167000E+00,1.00964095291342E+01,9.27432229030149E+00,5.64151076371313E+00,3.75700984229722E+00,3.11735090591617E+00,2.38683386566389E+00,3.38923819265711E+00,7.40359501293775E+00,1.78648879049095E+01,2.21535971597089E+01,1.30724233083315E+01,1.32110531080644E+01,1.17529809924150E+01,1.34399414927849E+01,
CRI,,,,,,,,,,,,,,,,,,,,,,,,,,,,,,,,,,,,,,,,1.19894228176129E+01,,4.04485191827431E+00,2.12028568382902E+01,1.32081570417673E+00,2.34375927190494E+00,1.72349094016638E+00,3.11122730294692E+00,,,1.84421470553486E+00,2.78730942189499E+00,
CYM,,,,,,,,,,,,,,,,,,,,,,,,,,,,,,,,,,,,,,,,,,0.00000000000000E+00,0.00000000000000E+00,0.00000000000000E+00,0.00000000000000E+00,0.00000000000000E+00,1.06205040913020E+00,,,,,
CYP,,,,,,,,,,,,,,,,,,,,,,,,,,,,,,,,,7.20647773279352E+00,2.68394261915780E+00,7.34341252699784E+00,1.56363636363636E+01,1.89694107986040E+01,1.33760879523591E+01,2.66148196154677E+01,1.38989937634807E+02,1.63896784179475E+02,6.52051040166806E+01,1.11262374862016E+01,6.24484621560063E+00,3.63762947168768E+00,7.12842144079880E+00,3.82843724131088E+01,2.35276371096141E+01,1.21234772714085E+01,1.46291266061040E+01,1.06874615741470E+01,
CZE,,,,,,,,,,,,,,,,,,,,,,,,,,,,,,,,,,,,3.36048883819131E+01,4.99748080969740E+01,4.58218578880861E+01,3.87177318674238E+01,3.45616381545385E+01,5.77392136585086E+01,3.29418592070190E+01,4.82292778790266E+01,5.24305974639498E+01,7.28000102213921E+01,1.18599137298884E+02,7.56194752350217E+01,6.87311128854385E+01,7.03906096821929E+01,4.05879407273372E+01,2.94171953651065E+01,
DEU,,,,,,,,,,,,,,,,,,,,,,,,,,,,,,2.03769865500636E+02,1.39390276714840E+02,1.01439303762345E+02,1.20383000881110E+02,7.46750339864487E+01,9.86337179267007E+01,1.09468033891196E+02,1.23160589636660E+02,7.16126895631055E+01,7.93966220212120E+01,6.45044234934477E+01,7.91227943618696E+01,1.21228344779588E+02,1.39891628661413E+02,1.29617111380541E+02,1.23688465048342E+02,1.45970599883807E+02,1.73949045378399E+02,1.79684468493416E+02,1.93267371133403E+02,1.07158913443182E+02,1.03035982213268E+02,
DNK,,,,,,,,,,,,,,,,,,,,,,,,,,,,,,4.10880669090909E+01,2.80075681479122E+01,2.21430277339727E+01,4.08423773215595E+01,5.64334195162711E+01,5.70177982492607E+01,4.69020626365860E+01,5.42048768284198E+01,5.66659010963772E+01,7.32082571746547E+01,6.10098215419570E+01,8.59886427789428E+01,7.20101043612689E+01,6.24553051509402E+01,6.75308917803872E+01,7.14029713714396E+01,9.23236879450692E+01,8.63757970402380E+01,9.51999527129234E+01,1.04016821732948E+02,9.31706247698157E+01,6.90861410025107E+01,
EAP,,,,,,,,,,,,,,,,,,,,,,,,,,,,,,4.00557213683667E+01,4.69102075495670E+01,4.53522842740249E+01,7.51348617013583E+01,9.04933630245137E+01,7.02255944816066E+01,4.21529373141157E+01,8.68423125116545E+01,1.13385923918403E+02,8.85418649297187E+01,9.53633828042621E+01,1.16227408425725E+02,6.79582337995637E+01,5.85869501655528E+01,7.30071560907206E+01,9.01493281222668E+01,6.83872260750617E+01,8.79408564452996E+01,1.62412255252893E+02,1.12402784948683E+02,2.08456304677542E+02,1.46019016885245E+02,
EAS,,,,,,,,,,,,,,,,,,,,,,,,,,,,,,8.36512912574510E+01,5.90292880760110E+01,4.40822956034951E+01,3.58166625231810E+01,5.43075692946837E+01,5.65374845380698E+01,4.32172857352209E+01,5.35287179393548E+01,9.10137111643418E+01,7.03697769023233E+01,8.20768421547094E+01,9.84940579398401E+01,8.16312902587888E+01,9.03611143735863E+01,9.32801412518870E+01,9.77475500400064E+01,1.06544392316626E+02,1.14442883369509E+02,1.48184522977528E+02,1.32118631326712E+02,1.55259675433671E+02,1.18641243059342E+02,
ECA,,,,,,,,,,,,,,,,,,,,,,,,,,,,,,2.01515145001531E+01,4.51391021672635E+01,4.92586195862069E+01,6.39172846125083E+01,9.80054862912023E+01,7.41028224534286E+01,1.77177218217226E+02,7.56760405590156E+01,5.82236904654774E+01,6.23262882811577E+01,6.75822848746911E+01,1.30705469673959E+02,8.27649198049215E+01,7.17655446890586E+01,7.43454083630631E+01,7.74202805510549E+01,6.15576215543241E+01,6.98801221717871E+01,6.33103330091379E+01,6.09506617746811E+01,1.01335142471457E+02,9.10483927569624E+01,
ECS,,,,,,,,,,,,,,,,,,,,,,,,,,,,,,6.09165706036742E+01,4.83529702033544E+01,4.18555897879940E+01,4.78511056578811E+01,4.91318805050416E+01,6.03140795089580E+01,6.22710621133426E+01,6.52242771408252E+01,6.52736059481801E+01,7.67847263530246E+01,6.87885828637489E+01,8.40493779318688E+01,9.25480423803309E+01,1.05681854907813E+02,1.04175037311291E+02,1.14984535848126E+02,1.19930555289531E+02,1.25397971149684E+02,1.69591618709861E+02,1.52106388362223E+02,1.08814740746758E+02,8.29206016513573E+01,
ECU,,,,,,,,,,,,,,,,,,,,,,,,,,,,,,,,,,7.01454234388366E+00,4.05555555555556E+00,9.12102903917365E+00,5.24360935110334E+00,8.73834069710358E+00,7.60601915184678E+00,1.73954921266087E+00,1.96600175295865E+00,9.13840582443698E-01,1.22040964578431E+00,1.91610936018654E+00,4.17934158047725E+00,4.95521223928450E+00,7.99392377982800E+00,7.02511773940345E+00,3.55298914455717E+00,3.07162044020518E+01,3.76422829339999E+00,
EGY,,,,,,,,,,,,,,,,,,,,,,,,,,,,,,5.24495677233429E+00,7.26224783861671E+00,6.30385505825248E+00,6.59898491449578E+00,4.80905242087110E+00,1.87608429245834E+01,1.09653385163589E+01,2.21283859664885E+01,3.34771305316687E+01,2.22423746433390E+01,3.15926088238003E+01,3.61161569979690E+01,1.46856274676637E+01,1.01435049570762E+01,1.23306356415814E+01,1.71014222292966E+01,4.29693417474926E+01,5.48208949388185E+01,4.56087270010229E+01,6.18535874350615E+01,6.00700816713278E+01,4.30405895738702E+01,
EMU,,,,,,,,,,,,,,,,,,,,,,,,,,,,,,8.01674012440139E+01,6.17138788599819E+01,4.95192394634502E+01,5.60558512529020E+01,5.08030151717787E+01,7.13038409218822E+01,7.26261725519513E+01,7.95941027321979E+01,7.33481337742548E+01,8.75768799921372E+01,7.62027856527846E+01,9.00799393175304E+01,1.07392932351913E+02,1.14291390172659E+02,1.10828860046215E+02,1.10223536456742E+02,1.20515238781303E+02,1.36601912640754E+02,1.59204351721641E+02,1.47209667773245E+02,1.00531159895142E+02,7.49563221312599E+01,
ESP,,,,,,,,,,,,,,,,,,,,,,,,,,,,,,3.58608122140620E+01,3.50145301224567E+01,3.13444011364929E+01,3.23781372831288E+01,4.32100558652928E+01,4.48355124018003E+01,3.39099270256111E+01,1.13921832547603E+02,1.69935591808869E+02,2.01868710860961E+02,1.78525299928692E+02,2.10678313365656E+02,1.72476505320785E+02,2.17312569806209E+02,1.57007716462566E+02,1.43338036957096E+02,1.63860576888788E+02,1.69121678705298E+02,1.89685875073810E+02,1.77716834583895E+02,1.42578618566611E+02,7.59706765657521E+01,
EST,,,,,,,,,,,,,,,,,,,,,,,,,,,,,,,,,,,,,,,1.13827160493827E+02,2.46956014978001E+01,1.79519222434742E+01,1.32030691397636E+01,1.23331961671859E+01,1.81413638658191E+01,1.65650783802581E+01,5.11093901937269E+01,2.05474122254269E+01,3.49382028838654E+01,1.95926581445249E+01,1.62472518454550E+01,1.31046946408389E+01,
EUU,,,,,,,,,,,,,,,,,,,,,,,,,,,,,,6.09729015535171E+01,4.83015999125941E+01,4.17775321760834E+01,4.82868134942593E+01,4.66661649829855E+01,5.85526576890466E+01,5.88207424941851E+01,6.21811858297390E+01,6.18546114054190E+01,7.47201730618416E+01,6.78566338313988E+01,8.33409116096076E+01,9.74623125602649E+01,1.06304966523447E+02,1.06722679791308E+02,1.18397656460572E+02,1.25211422288494E+02,1.30339271356921E+02,1.84725663252443E+02,1.63634502470783E+02,1.11771608698577E+02,8.23273809937744E+01,
FIN,,,,,,,,,,,,,,,,,,,,,,,,,,,,,,2.41806234448315E+01,1.47303372626554E+01,8.37837849431702E+00,1.72981133746535E+01,4.53665903978224E+01,4.26714106258809E+01,4.61221118530607E+01,4.18258468885241E+01,5.33255131964809E+01,5.29503160112360E+01,4.50581483401526E+01,6.42703197273614E+01,7.39733124446901E+01,1.07180145319334E+02,1.05765891739524E+02,1.24304437938488E+02,1.39080532638008E+02,1.50239760245370E+02,1.71227846420887E+02,1.49142464967184E+02,7.43046239716764E+01,9.73957763052601E+01,
FJI,,,,,,,,,,,,,,,,,,,,,,,,,,,,,,,,,,,,,,2.28571428571429E+00,4.41988950276243E+00,2.54406073829932E+00,,,,5.71274479514985E-01,1.55000306036823E+00,7.95156451892702E-01,5.33600125742718E-01,3.45160402995395E-01,5.30022766770751E-01,,3.39856648278687E-01,
FRA,,,,,,,,,,,,,,,,,,,,,,,,,,,,,,3.51757392172128E+01,3.44309269878786E+01,3.43120851005738E+01,3.48618027172313E+01,4.31868721269268E+01,6.78190061073227E+01,7.49088678805504E+01,4.97854786664463E+01,6.36195753268889E+01,7.09849374374194E+01,6.38501639532410E+01,7.41433121714883E+01,8.22064460052282E+01,8.73047149993030E+01,9.50245484881590E+01,9.71408856220830E+01,9.19913774204935E+01,1.19633568482010E+02,1.31501124577135E+02,1.53182154722895E+02,7.88488373703791E+01,4.24792221234488E+01,
GBR,,,,,,,,,,,,,,,,,,,,,,,,,,,,,,4.00836055626858E+01,3.32625302111765E+01,3.43254230157861E+01,3.99995811171585E+01,4.07501811059537E+01,3.92977468838581E+01,3.89713137361015E+01,3.67518503117711E+01,4.43804327666400E+01,5.34210060272308E+01,5.19206912805725E+01,6.66129790519396E+01,7.85004618415507E+01,9.47990079012207E+01,1.02283371927051E+02,1.40530573285965E+02,1.41877466812712E+02,1.23811358886731E+02,2.69821643382210E+02,2.27195730636388E+02,1.46394337928573E+02,1.01861235989508E+02,
GEO,,,,,,,,,,,,,,,,,,,,,,,,,,,,,,,,,,,,,,,,,,1.12775330396476E+01,3.92156862745098E+00,5.21002930641485E-01,1.22322303612765E+01,1.35625153796500E+01,1.86047689215976E+01,4.39525560288762E+00,9.60921754013726E-01,3.49887773802976E-01,3.21215107346795E-01,
GHA,,,,,,,,,,,,,,,,,,,,,,,,,,,,,,,,,,4.95049504950495E+00,7.54527162977867E+00,1.25035521454959E+00,1.08245781598217E+00,3.72623574144487E+00,4.75812846946868E+00,2.14451034267510E+00,1.42430485990446E+00,2.57869084836599E+00,1.78237655465035E+00,4.19754112362248E+00,3.22321421988927E+00,3.15367851716239E+00,2.14449489727105E+00,3.88092141597335E+00,5.19326260813482E+00,1.95758126357054E+00,3.37464850604177E+00,
GRC,,,,,,,,,,,,,,,,,,,,,,,,,,,,,,1.03001873699017E+01,3.63670060560726E+01,1.72650179639631E+01,1.42098267100993E+01,2.48796369173585E+01,3.77753306365995E+01,3.80913668252352E+01,4.01716863087444E+01,7.20955743718076E+01,8.20543817232559E+01,1.32806836145821E+02,6.03748460135486E+01,3.78728347831021E+01,3.20324042525301E+01,4.39586261616191E+01,3.74736634317526E+01,4.82985834635051E+01,6.08427836210850E+01,6.40430884958656E+01,2.71094409058734E+01,7.12768463459178E+01,6.76999722668644E+01,
GTM,,,,,,,,,,,,,,,,,,,,,,,,,,,,,,,,,,,,,2.73972602739726E+00,4.56026058631922E+00,6.43086816720257E+00,,,,,,,,,,,,,
GUY,,,,,,,,,,,,,,,,,,,,,,,,,,,,,,,,,,,,,,,,,,,,,1.11958690297275E+00,2.55172196566012E+00,5.54897886155895E-01,3.59780453841829E-01,2.64343111523428E-01,,,
HIC,,,,,,,,,,,,,,,,,,,,,,,,,,,,,,7.16470297106814E+01,5.40044871549519E+01,4.93737179407936E+01,4.31815936585334E+01,5.80907199075279E+01,6.17599203758902E+01,6.48808588895253E+01,7.28100365977477E+01,8.81977866803056E+01,9.03619594199016E+01,9.77600412020644E+01,1.43020336291373E+02,1.45570893766298E+02,1.53893548681882E+02,1.11133616399218E+02,1.16330484488561E+02,1.22381343471634E+02,1.49880352597528E+02,1.82142822918073E+02,1.82268992665143E+02,2.08660839668444E+02,1.28466569668500E+02,
HKG,,,,,,,,,,,,,,,,,,,,,,,,,,,,,,4.55352196685664E+01,4.30490980831891E+01,3.75920154242519E+01,5.34680246736352E+01,4.72142536307478E+01,4.49505572306714E+01,3.72943389859765E+01,4.41965459456158E+01,1.13449108848458E+02,5.44240449203599E+01,5.19542084264405E+01,6.13175980199725E+01,3.47704448185658E+01,4.34732199518338E+01,4.80376219475999E+01,4.62911155318922E+01,4.32909185186805E+01,5.08420144697817E+01,8.91123904476802E+01,1.30540360253022E+02,8.22908423077646E+01,6.38645463107356E+01,
HPC,,,,,,,,,,,,,,,,,,,,,,,,,,,,,,1.03305785123967E+00,3.33333333333333E+00,1.28440366972477E+00,7.81250000000000E-01,2.00181983621474E+00,6.14840989399293E+00,1.49979732468585E+00,1.51515151515152E+00,2.65911324354009E+00,2.87674421378168E+00,3.35911407686557E+00,4.90734933315844E+00,2.63252415365716E+00,1.77405012937414E+00,2.19734779020161E+00,3.00573424641509E+00,1.89758378551315E+00,3.06079460176434E+00,4.29540804569458E+00,5.26368714979858E+00,2.67978968932280E+00,1.93179115856519E+00,
HRV,,,,,,,,,,,,,,,,,,,,,,,,,,,,,,,,,,,,8.58447488584475E+00,1.27671541057368E+01,9.50006924248719E+00,2.77030661646046E+00,2.58621634660868E+00,7.06566266099524E+00,3.87592806467580E+00,4.01743851279099E+00,4.70099769731697E+00,5.78461941891576E+00,6.68603567588893E+00,8.69610019363786E+00,8.60696047046903E+00,7.41643011260884E+00,5.41070087605584E+00,4.10386390077507E+00,
HUN,,,,,,,,,,,,,,,,,,,,,,,,,,,,,,,,,7.12277413308341E+00,1.44104803493450E+01,2.23880597014925E+01,1.77544386096524E+01,4.27789363920751E+01,7.38048202291584E+01,1.10623038995966E+02,9.48743007291971E+01,8.57514249184861E+01,4.30437452959346E+01,5.06149348688282E+01,5.56295159322761E+01,5.72649820930983E+01,7.80290906527710E+01,8.37020815542143E+01,1.06036177437753E+02,9.30136930757979E+01,1.10693854670926E+02,9.45277888987822E+01,
IDN,,,,,,,,,,,,,,,,,,,,,,,,,,,,,,4.32281284591292E+01,7.72894491668005E+01,3.92214754658186E+01,4.14771532103162E+01,4.07022209786564E+01,2.94289269575707E+01,2.53161659986157E+01,4.07890812875553E+01,7.14729314607770E+01,4.14407233103556E+01,4.61844239771916E+01,3.14792441794910E+01,3.87917622561540E+01,4.92172578760089E+01,3.49067334920803E+01,4.30951835552738E+01,5.41769018577599E+01,4.43280532446165E+01,6.43797681968301E+01,7.13005921706226E+01,8.32705274947747E+01,4.81067309007837E+01,
IND,,,,,,,,,,,,,,,,,,,,,,,,,,,,,,6.82200377604521E+01,6.65189661894775E+01,5.36477419127020E+01,3.67109912199990E+01,2.67063135682043E+01,2.42265492494515E+01,1.72116661899145E+01,7.69827544795119E+01,1.26101017481111E+02,1.26888393950029E+02,1.92432805399281E+02,3.06498561589922E+02,1.92910936304455E+02,1.63307690704907E+02,1.38892482694928E+02,1.13678151594109E+02,9.22283949183326E+01,9.30766827839296E+01,8.39695855532633E+01,8.51868568236364E+01,1.19349040414656E+02,7.56187569465547E+01,
IRL,,,,,,,,,,,,,,,,,,,,,,,,,,,,,,,,,,,,,4.05114280757064E+01,3.86515770606525E+01,7.31932360067950E+01,7.47468031824125E+01,1.91591069021122E+01,2.86727434358359E+01,4.85014627365380E+01,6.05134735704982E+01,4.44757590463863E+01,5.66943614876995E+01,5.76019840660895E+01,8.88911167448555E+01,3.84693618274062E+01,4.65955325519255E+01,5.28791745893679E+01,
IRN,,,,,,,,,,,,,,,,,,,,,,,,,,,,,,,,,2.05735288470588E+01,1.77714287014139E+00,2.08353814906459E+01,1.58978762105694E+01,2.22005429250085E+01,7.54347837230330E+00,9.24706180199391E+00,1.23570011895252E+01,7.38413179651957E+00,1.28594234992244E+01,1.59163614935992E+01,2.16896277571619E+01,3.26735936279697E+01,1.91030747458507E+01,1.27457080017194E+01,1.97285725737608E+01,3.25148037418861E+01,3.03747956099678E+01,2.28629404339589E+01,
ISL,,,,,,,,,,,,,,,,,,,,,,,,,,,,,,,,,,,,7.30897009966777E+00,9.53367875647668E+00,1.17953730856957E+01,7.17019133937563E+00,1.39450176509206E+01,5.13713779966662E+01,3.15341166696461E+01,6.43031857536163E+01,9.36180235331932E+01,7.77028480488096E+01,7.59136205476314E+01,9.81254643809112E+01,1.27036872025547E+02,6.64528526496181E+01,1.19836143096168E+01,9.61956539053490E+00,
ISR,,,,,,,,,,,,,,,,,,,,,,,,,,,,,,5.71073772468769E+01,9.58441558902120E+01,1.76610535117084E+02,8.21352695423876E+01,7.54402951585714E+01,6.01437107331264E+01,2.64982126111298E+01,2.22441883774461E+01,2.63784981989471E+01,2.65359969845458E+01,2.98944328389642E+01,3.65817382905569E+01,4.43473952885855E+01,9.55540651297256E+01,6.86396199990074E+01,5.40025866753804E+01,5.55480597979039E+01,6.05076575411565E+01,5.53911017499081E+01,5.88727379966344E+01,5.57804507112421E+01,6.66600356721516E+01,
ITA,,,,,,,,,,,,,,,,,,,,,,,,,,,,,,2.56092113006272E+01,2.67710705331740E+01,1.62279225598532E+01,1.95138887111111E+01,4.96090947814043E+01,7.45485105625253E+01,4.46053834674943E+01,4.37694843932416E+01,6.57686725003110E+01,1.04066728200911E+02,8.26615297388582E+01,1.04020663979244E+02,8.52241161128054E+01,1.07118848196878E+02,1.21082313716994E+02,1.14546411433277E+02,1.40480386281053E+02,1.49728790458508E+02,2.20401917156656E+02,8.39563411623662E+01,1.09697826249347E+02,1.69748538399417E+02,
JAM,,,,,,,,,,,,,,,,,,,,,,,,,,,,,,1.02681118083286E+01,3.42612419700214E+00,9.78876867594024E+00,1.81220651831868E+01,1.42978719510367E+01,9.81366459627329E+00,2.25827814569536E+01,2.47070003167564E+00,3.73184357541899E+00,1.95704057279236E+00,1.64828311267129E+00,2.47434252085964E+00,1.81196024116018E+00,2.70987438227596E+00,3.47534375076282E+00,4.16908321976079E+00,3.13576445509287E+00,2.34372746244911E+00,2.88480916377915E+00,3.64628998159102E+00,1.83976646208773E+00,3.28628683879500E+00,
JOR,,,,,,,,,,,,,,,,,,,,,,,,,,,,,,2.97038715712766E+01,1.95673076923077E+01,1.91574273942016E+01,4.48722285274880E+01,3.33818171482270E+01,1.32067510548523E+01,1.11663065411137E+01,6.44181759028305E+00,1.00230069020706E+01,1.15739099610067E+01,9.38761214980356E+00,7.71852726310277E+00,1.65757623395852E+01,1.99675295606344E+01,2.88865373961219E+01,3.63101684091871E+01,8.49898638415014E+01,5.95268782983804E+01,4.91294070552350E+01,7.26898815162602E+01,4.03038727763785E+01,3.01190635064383E+01,
JPN,,,,,,,,,,,,,,,,,,,,,,,,,,,,,,6.74866299452400E+01,4.38409840950314E+01,3.29236036975390E+01,2.29750832828678E+01,3.53475608873956E+01,3.33777699633530E+01,3.33428359705432E+01,3.70625128956733E+01,4.71864457382261E+01,4.02559514614036E+01,5.25147972460157E+01,6.99325261466378E+01,6.75251585504389E+01,7.18738643213658E+01,8.79854426840940E+01,1.02112135798835E+02,1.18777142104539E+02,1.32148672580120E+02,1.41554988178982E+02,1.53230908363741E+02,1.27080458628824E+02,1.14488333946401E+02,
KAZ,,,,,,,,,,,,,,,,,,,,,,,,,,,,,,,,,,,,,,,1.63465650002873E+00,9.35671749904250E-01,4.92304275698353E+00,5.96490573166793E+00,1.08386056224280E+01,1.38092066546315E+01,3.03685166261978E+01,1.48928506928979E+01,1.47238879237467E+01,2.09237379621458E+01,9.51457841598148E+00,9.09633490002232E+00,3.85612893634038E+00,
KEN,,,,,,,,,,,,,,,,,,,,,,,,,,,,,,,2.10084033613445E+00,2.42825607064018E+00,2.20183486238532E+00,1.64997053624042E+00,2.99516908212560E+00,2.61780104712042E+00,3.59056806002144E+00,5.77656675749319E+00,4.10602910602911E+00,4.31644492702674E+00,3.52612897223406E+00,3.41036225454265E+00,2.94071261327931E+00,7.45650994058501E+00,8.54262762759041E+00,9.82582900566036E+00,1.46324491063240E+01,1.06412250051788E+01,1.18307072933484E+01,4.58892663033790E+00,8.59836466816876E+00,
KGZ,,,,,,,,,,,,,,,,,,,,,,,,,,,,,,,,,,,,,,,,,5.80603226033669E+02,4.85945072697900E+02,4.19128391981840E+02,5.81361957865789E+01,2.05310972839075E+02,3.41310191566480E+01,1.48167150281354E+02,1.31175117072758E+02,1.04657001844104E+02,8.14887666905750E+01,1.19331979578321E+01,
KNA,,,,,,,,,,,,,,,,,,,,,,,,,,,,,,,,,,,,,,,,,,,,,1.92140208481105E+00,3.11210299261920E-01,2.83394934677518E-01,3.70334597222490E-01,1.19534655401741E+00,1.51482562379223E+00,7.32833891048805E-01,
KOR,,,,,,,,,,,,,,,,,,,,,,,,,,,,,,,6.02769825704474E+01,8.24146555747883E+01,1.14160275073995E+02,1.72121951439622E+02,1.72843495628813E+02,9.90480084502146E+01,1.10524908657863E+02,1.86097828624593E+02,1.74119876083225E+02,3.19579770339712E+02,3.76552469424774E+02,3.59499812387256E+02,3.37317749229020E+02,2.35718834294221E+02,1.68513886475667E+02,2.09791734578571E+02,1.72544085636259E+02,2.01551395733959E+02,1.81181776323982E+02,2.37622407052850E+02,1.68938363316374E+02,
KWT,,,,,,,,,,,,,,,,,,,,,,,,,,,,,,1.57294051130443E+01,,,,,1.86420400035670E+01,5.07003143346387E+01,1.06114440705682E+02,1.44509226171818E+02,4.22843421529540E+01,3.28109351739072E+01,2.12701460112161E+01,5.21291583669610E+01,8.03478852490805E+01,1.17025902467376E+02,7.55037376430569E+01,9.42714007045872E+01,4.31517506701670E+01,7.61572083756026E+01,8.31550474986201E+01,6.88629137597671E+01,3.87926456015226E+01,
LAC,,,,,,,,,,,,,,,,,,,,,,,,,,,,,,3.64345052572843E+01,2.68815154141863E+01,3.93025989655470E+01,3.80272918016896E+01,4.13220193057521E+01,4.95609727714582E+01,3.21165803183274E+01,4.02298360765245E+01,5.50312523858765E+01,4.16425041785119E+01,2.92213695475077E+01,2.70905667081181E+01,1.88206116973166E+01,1.61022899819361E+01,2.02936891003853E+01,2.49656663182654E+01,2.83939763518541E+01,3.08255806457015E+01,4.11392632817237E+01,5.21536332948958E+01,4.96257859932886E+01,4.60930063029784E+01,
LBN,,,,,,,,,,,,,,,,,,,,,,,,,,,,,,,,,,,,,,,1.24031007751938E+01,4.20541523726669E+00,6.72588335646063E+00,4.04580098650456E+00,8.96226771844109E+00,9.01772003381818E+00,1.03178324013567E+01,2.54872671248653E+01,3.08229529148457E+01,1.03541109498175E+01,6.88151529194774E+00,9.25042132773401E+00,1.47065416372979E+01,
LCN,,,,,,,,,,,,,,,,,,,,,,,,,,,,,,3.63109589272110E+01,2.67670601916874E+01,3.90946811778297E+01,3.78927191073684E+01,4.12421059180014E+01,4.94609562837935E+01,3.20434547069194E+01,4.00807279273907E+01,5.47351739392710E+01,4.12461166429192E+01,2.88654350149100E+01,2.68356286819126E+01,1.86480731361848E+01,1.60302518637161E+01,1.99135325159391E+01,2.43866474388415E+01,2.77701025007264E+01,3.04147082870193E+01,4.07206147171928E+01,5.16144825636816E+01,4.92772803250407E+01,4.57902146209003E+01,
LDC,,,,,,,,,,,,,,,,,,,,,,,,,,,,,,1.10375275938190E+00,1.50564617314931E+00,1.01694915254237E+00,3.77358490566038E+00,3.91134289439374E+00,1.42381902860945E+01,1.21546961325967E+01,2.22764723832774E+01,1.07618430810762E+01,3.93451055665957E+01,4.68288323389891E+01,4.07779869832377E+01,3.46855326264912E+01,2.87147169967138E+01,1.25568139072304E+01,2.13663894318159E+01,1.83809473804255E+01,1.50968752640530E+01,4.94319647134411E+01,8.25727077358482E+01,1.22991230155522E+02,4.41216618334677E+01,
LIC,,,,,,,,,,,,,,,,,,,,,,,,,,,,,,2.98181818181818E+00,2.56754167465032E+00,3.44305713204692E+00,2.32999187212138E+00,3.62671384343211E+00,7.75019656295631E+00,6.66666666666667E+00,1.33248650365195E+01,1.31270213710445E+01,2.08165272995573E+01,2.19084570651415E+01,2.10619860829151E+01,2.77366106008784E+01,2.12928431382059E+01,1.23499402940623E+01,1.32139247432006E+01,1.53314638988143E+01,1.13579189361009E+01,1.97387718099361E+01,4.66932501480327E+01,6.70028419423198E+01,3.43859424254875E+01,
LKA,,,,,,,,,,,,,,,,,,,,,,,,,,,,,,1.55902004454343E+00,5.80357142857143E+00,7.28036401820091E+00,6.74556213017752E+00,1.95431472081218E+01,2.60223048327138E+01,9.06109061090611E+00,6.96827873114924E+00,1.56693711967546E+01,1.47855827413838E+01,1.27040603373545E+01,1.08488692843298E+01,1.27532569024717E+01,2.11124499191736E+01,3.50255113076224E+01,1.82846321026118E+01,2.42727951370374E+01,1.48684393913784E+01,1.24219913562311E+01,1.72148857754549E+01,1.42008470029035E+01,2.35671440368652E+01,
LMC,,,,,,,,,,,,,,,,,,,,,,,,,,,,,,4.97228104147874E+01,5.05126622731941E+01,3.98927280349139E+01,3.04344623927001E+01,2.68665890434132E+01,2.62294866339595E+01,2.11973936712593E+01,5.25709977332634E+01,8.27556059529562E+01,7.92209152822335E+01,1.22029071667611E+02,1.87389104444001E+02,1.14932511226330E+02,9.89418120963784E+01,1.06222286472067E+02,9.24772451141005E+01,8.64262164983163E+01,8.00872958376681E+01,7.34695124848863E+01,7.24638864469524E+01,9.61501927448002E+01,6.27004494122143E+01,
LMY,,,,,,,,,,,,,,,,,,,,,,,,,,,,,,2.53461127499391E+01,2.73254850302665E+01,3.00477716072274E+01,3.88010473185603E+01,5.25245245367659E+01,4.80371230027457E+01,3.23124541901365E+01,5.69139236966584E+01,7.30751194326271E+01,6.06848208790524E+01,7.02234075123534E+01,9.34959678229836E+01,5.72954735515350E+01,5.26226865359071E+01,6.45582325014791E+01,6.96660267209771E+01,5.82592793021413E+01,6.84252047876236E+01,1.05690111765453E+02,8.69422580488640E+01,1.42427975540492E+02,1.00825933998687E+02,
LTU,,,,,,,,,,,,,,,,,,,,,,,,,,,,,,,,,,,,,8.89309366130558E+00,1.79714616274585E+01,1.59739790386700E+01,2.62262846908764E+01,1.48351837206657E+01,1.50746664944422E+01,1.36959233046327E+01,7.95130279502169E+00,9.30168664889206E+00,1.01127983831321E+01,2.27903878223689E+01,1.00724287926222E+01,7.10984209961195E+00,7.48483118932171E+00,5.84149211176387E+00,
LUX,,,,,,,,,,,,,,,,,,,,,,,,,,,,,,3.84754989137980E-01,8.36538461538461E-01,1.23853213918020E+00,1.01724137931034E+00,7.06854023768784E+00,1.12439387796629E+00,6.95457468524892E-01,1.69161320978855E+00,1.68809323561216E+00,3.38552565120139E+00,2.91828867403195E+00,3.44583567273898E+00,1.49482951887969E+00,1.10354713208341E+00,8.31561589738238E-01,8.35273325729751E-01,4.74309398049475E-01,3.52650014046647E-01,1.87035361919539E-01,1.42444914969598E+00,3.14510852023119E-01,1.69725663800219E-01,
LVA,,,,,,,,,,,,,,,,,,,,,,,,,,,,,,,,,,,,,1.49068322981366E+01,3.43909928352098E+01,2.36275191104934E+01,1.17304875838107E+01,4.78238683149999E+01,2.61625738882057E+01,1.75892996301911E+01,1.56430061392681E+01,7.86333590866169E+00,4.59229787050896E+00,4.26058121422360E+00,4.82295597754606E+00,1.78714317663454E+00,1.14489712149762E+00,1.77814382904188E+00,
MAR,,,,,,,,,,,,,,,,,,,,,,,,,,,,,,2.99906279287723E+00,7.81348456206679E+00,3.92628205128205E+00,4.06976744186047E+00,2.18421058762696E+01,2.24182072731820E+01,4.69654426460988E+01,5.89519650655022E+00,1.00418542285222E+01,9.98097152909920E+00,1.72251547672938E+01,8.89390044924000E+00,9.74223675671727E+00,6.64185934952635E+00,6.37984734284942E+00,8.77755152344872E+00,1.58615583616258E+01,3.52624229906533E+01,4.20911751895685E+01,3.10520540872862E+01,4.57284809052754E+01,1.62855053009363E+01,
MDA,,,,,,,,,,,,,,,,,,,,,,,,,,,,,,,,,,,,,,6.41833333333333E+01,1.32178861788618E+02,8.02045454545455E+01,,,,,,,,,,,,
MEA,,,,,,,,,,,,,,,,,,,,,,,,,,,,,,2.81114974496589E+01,5.60579818408505E+01,8.15794250579573E+01,2.40983346283275E+01,3.03368415730690E+01,3.19014095459982E+01,2.39326775924036E+01,2.92101865297510E+01,4.26818546341003E+01,2.42950862687579E+01,2.50286987376558E+01,2.52969754351195E+01,3.09036491875374E+01,5.01633853698227E+01,7.96430089869585E+01,9.75845694271791E+01,1.35097104740210E+02,1.39914405832863E+02,8.84421423146434E+01,8.47987971457678E+01,6.88434123867610E+01,4.29068300037817E+01,
MEX,,,,,,,,,,,,,,,,,,,,,,,,,,,,,,3.42417592050429E+01,4.41663645588895E+01,4.84690590153639E+01,3.75902169011523E+01,3.67376482589374E+01,5.01293036678653E+01,3.11535424809751E+01,4.36435908616161E+01,3.98213844604481E+01,2.75137814537269E+01,2.93275746695732E+01,3.24729772101441E+01,3.18478381727868E+01,2.41728023714553E+01,2.08173991897139E+01,2.90954121872246E+01,2.56579753515846E+01,2.72676868870315E+01,3.09935624385371E+01,3.43331129290145E+01,2.68897315630372E+01,2.73063358145871E+01,
MIC,,,,,,,,,,,,,,,,,,,,,,,,,,,,,,2.54496600414316E+01,2.75074162055998E+01,3.01975065121218E+01,3.89055291198299E+01,5.26408434125141E+01,4.81768157371461E+01,3.24213671138730E+01,5.71362171417664E+01,7.33620249037692E+01,6.08265087222298E+01,7.03782936455866E+01,9.37060145045854E+01,5.74295942012227E+01,5.28960797414649E+01,6.49417678759904E+01,6.98893616098319E+01,5.83997341014893E+01,6.87011545018906E+01,1.05975132781471E+02,8.70333284229818E+01,1.42624173827195E+02,1.01077579602624E+02,
MKD,,,,,,,,,,,,,,,,,,,,,,,,,,,,,,,,,,,,,,4.15815094339623E+01,1.09337500000000E+03,3.48267435702756E+02,1.61294226746902E+03,1.77117414085754E+02,2.50244216771188E+01,4.04279530175327E+00,8.53550362124759E+00,1.83363385562250E+01,2.23902274996852E+01,2.64524251378432E+01,8.82083556561531E+00,7.02362499872672E+00,2.01011030450464E+00,
MLT,,,,,,,,,,,,,,,,,,,,,,,,,,,,,,,,,,,,1.55339805825243E+01,4.47284345047923E+00,4.76036331092788E+00,8.91343775762207E+00,2.47787593813621E+01,9.34012215358299E+00,2.74746311087218E+00,3.82092519422213E+00,2.63521097496751E+00,4.02256957752118E+00,4.34179355121574E+00,5.92313481300265E+00,1.76500548150155E+00,1.60346559255015E+00,6.56798809251966E-01,1.24129129858890E+00,
MNA,,,,,,,,,,,,,,,,,,,,,,,,,,,,,,1.55448558524377E+01,1.18213323065075E+01,1.02685624012638E+01,2.03197822738805E+01,8.48014108786038E+00,1.79755021544757E+01,2.10438132406129E+01,1.56346272335182E+01,1.69754172518762E+01,1.44275048280353E+01,2.06518775346964E+01,2.14034018306318E+01,1.32627531873044E+01,1.19038733064401E+01,1.62479892493295E+01,2.35650912748345E+01,3.93347015697311E+01,4.24806907587108E+01,3.93536046043612E+01,4.81298393098358E+01,4.39164716560084E+01,2.76674592350135E+01,
MNE,,,,,,,,,,,,,,,,,,,,,,,,,,,,,,,,,,,,,,,,,,,,,,1.48074245546556E+01,2.05670607288781E+01,1.37709889853757E+01,3.20591631886498E+00,9.16274580744392E+00,7.85484360505953E-01,
MNG,,,,,,,,,,,,,,,,,,,,,,,,,,,,,,,,,,,,,3.01886792452830E+01,3.75000000000000E+01,2.72127659574468E+01,8.88708903454149E+00,2.31868600064344E+01,4.30338891877353E+00,3.46197453717728E+00,2.15474866203575E+00,2.32177407352285E+00,6.14037952771336E+00,1.35116344918948E+01,1.46572797261169E+01,1.01973446342595E+01,3.83896729300106E+00,6.43383535631499E+00,
MUS,,,,,,,,,,,,,,,,,,,,,,,,,,,,,,,,1.72413793103448E+00,2.74725274725275E+00,6.46230323115162E+00,7.38809213385485E+00,4.92784230904611E+00,5.18789491187230E+00,8.08141275067345E+00,5.74843483210017E+00,4.37980726098140E+00,5.07457963861244E+00,9.34522441989181E+00,4.75196499608883E+00,6.03860246527027E+00,4.40596937786679E+00,6.04507889106168E+00,4.42204943312628E+00,7.96646743301636E+00,8.85461378451485E+00,8.06010811062638E+00,6.35720926022372E+00,
MWI,,,,,,,,,,,,,,,,,,,,,,,,,,,,,,,,,,,,,,,,,,,,,5.07067104338165E+00,4.09014222049238E+00,3.49103728084319E+00,,,,1.45662574500121E+00,
MYS,,,,,,,,,,,,,,,,,,,,,,,,,,,,,,2.18320125897148E+01,2.45950230541324E+01,1.98824635223881E+01,2.84796869131376E+01,9.78732497719741E+01,6.03618165985173E+01,3.64319267964960E+01,6.55087298172513E+01,7.64954951133645E+01,3.11076418702677E+01,3.97637455901719E+01,4.45915885555456E+01,1.75331583961915E+01,2.26526118729482E+01,3.43099414098114E+01,3.34151583450002E+01,2.69232710281202E+01,3.21196858431786E+01,5.34749589964758E+01,3.32393773920246E+01,3.29422713580565E+01,2.70667143450564E+01,
NAC,,,,,,,,,,,,,,,,,,,,,,,,,,,,,,6.16321972440879E+01,5.13171884878796E+01,5.90695902011283E+01,4.76370958797570E+01,6.86009850166029E+01,6.87037284009972E+01,8.39644738063916E+01,9.12256732416912E+01,1.00838549231084E+02,1.04190252859707E+02,1.20417336493166E+02,1.94682800513543E+02,1.93424559895459E+02,1.96523437871598E+02,1.19344998374529E+02,1.22505039310874E+02,1.24343435479108E+02,1.74609869375435E+02,2.04590289325016E+02,2.19265973483240E+02,3.25243197314704E+02,1.76485036308141E+02,
NAM,,,,,,,,,,,,,,,,,,,,,,,,,,,,,,,,,,,1.57205240174673E+01,1.53846153846154E+00,1.26512668482706E+01,4.18061499272029E+00,2.32558139534884E+00,4.01255315115723E+00,4.39815313471633E+00,3.34401801957897E+00,8.83661594946949E-01,7.14584203928124E-01,4.71435237650823E+00,1.50060094050106E+00,3.78486888879595E+00,3.67267523195420E+00,2.84169501483685E+00,3.03031269138181E+00,1.82450389422575E+00,
NGA,,,,,,,,,,,,,,,,,,,,,,,,,,,,,,4.06091370558376E-01,9.24369747899160E-01,5.53846153846154E-01,9.03225806451613E-01,8.88888888888889E-01,9.62566811976323E-01,5.90343648415773E-01,2.57464688002861E+00,3.66361365528726E+00,4.89820909230063E+00,4.96963930709402E+00,7.32392502519132E+00,1.02910073490895E+01,8.53008692156240E+00,1.12703313208523E+01,1.39073864912268E+01,1.14568657013424E+01,1.36418948458275E+01,2.81525969612189E+01,2.93044697260379E+01,1.10064837068110E+01,1.25382251405379E+01,
NLD,,,,,,,,,,,,,,,,,,,,,,,,,,,,,,6.60647012573455E+01,2.89201429722013E+01,3.04460928000000E+01,3.35874546197954E+01,4.24046005661879E+01,7.33545903181151E+01,7.77219191494568E+01,9.23555703058479E+01,6.72291337495590E+01,7.84013329377807E+01,7.36967523650426E+01,1.01404296420668E+02,1.88129489887522E+02,1.07555134109493E+02,1.19068039710791E+02,1.45510725444499E+02,1.47715391836545E+02,1.59715530499860E+02,2.07756442914740E+02,1.70047835353145E+02,1.29865463705572E+02,9.83721360147800E+01,
NOC,,,,,,,,,,,,,,,,,,,,,,,,,,,,,,3.43661551564841E+02,2.70072436177416E+02,1.63802527101489E+02,9.31491055981135E+01,9.83012377475543E+01,1.27875431604797E+02,8.01699112896093E+01,8.55260936238496E+01,2.04100190760516E+02,1.38369224734114E+02,1.23139051910951E+02,1.20936408152498E+02,7.68853620052673E+01,9.43187913097707E+01,9.34755368946845E+01,9.34932264797507E+01,1.07399030706718E+02,1.16780753305700E+02,1.18435005072939E+02,1.24346820111837E+02,1.02084190550997E+02,7.07580863672164E+01,
NOR,,,,,,,,,,,,,,,,,,,,,,,,,,,,,,6.30757556214754E+01,5.44591433375633E+01,4.84074842007025E+01,5.10100499166546E+01,3.87383776113983E+01,2.76182887695766E+01,6.02546401479547E+01,7.03499656896383E+01,7.49172893500960E+01,7.51681401888106E+01,9.78579175704989E+01,9.34107613317295E+01,7.80574897073459E+01,7.17162679496018E+01,8.63978724156018E+01,1.14741990478183E+02,1.17211219343146E+02,1.48697772983921E+02,1.47810103421158E+02,1.52380861690062E+02,1.40312002472430E+02,9.08191225880194E+01,
NPL,,,,,,,,,,,,,,,,,,,,,,,,,,,,,,,,,,,,7.08661417322835E+00,2.21729490022173E+00,2.45700245700246E+00,1.71306209850107E+00,7.28210016259066E+00,5.39263358424650E+00,2.96008250840508E+00,4.33232962576046E+00,6.38497665998839E+00,9.31332884239210E+00,4.36565615999956E+00,4.40249775862403E+00,6.88438818287307E+00,7.46912769861939E+00,4.42848581834177E+00,1.91718345196399E+00,
NZL,,,,,,,,,,,,,,,,,,,,,,,,,,,,,,2.26741575653714E+01,1.73052816307141E+01,2.49956787553541E+01,2.14054054054054E+01,3.31809180700836E+01,2.71215959959184E+01,2.84178678531748E+01,2.51646810499922E+01,3.12152035654686E+01,3.71414022861750E+01,4.23483792031723E+01,4.59179844170560E+01,4.59988268726084E+01,3.78150636629964E+01,3.82525712122609E+01,4.01218932507128E+01,3.99940227140364E+01,4.47379874147898E+01,4.68722017555665E+01,8.82739618103535E+01,8.15690236933551E+01,2.07555063502779E+01,
OEC,,,,,,,,,,,,,,,,,,,,,,,,,,,,,,6.34860197035852E+01,4.76834016048824E+01,4.63034699019540E+01,4.13970404144834E+01,5.59809812017580E+01,5.78464694850492E+01,6.41315642068059E+01,7.21786537962230E+01,8.25439738063593E+01,8.85705181070754E+01,9.68425868318804E+01,1.43896358606212E+02,1.48353441952915E+02,1.56535855062819E+02,1.12015980473037E+02,1.17623238110563E+02,1.23392666729641E+02,1.52091033083706E+02,1.86436995317379E+02,1.87035727425817E+02,2.20321018657934E+02,1.35449816292670E+02,
OED,,,,,,,,,,,,,,,,,,,,,,,,,,,,,,6.33707626296652E+01,4.76216765797148E+01,4.62437147567182E+01,4.12851049263151E+01,5.56166187760255E+01,5.75684753238325E+01,6.39043209403488E+01,7.18719596616675E+01,8.21083693677407E+01,8.81360007834186E+01,9.64172968892911E+01,1.43275605103419E+02,1.47483582534233E+02,1.55572617112105E+02,1.11491762264382E+02,1.17009339313846E+02,1.22543207931647E+02,1.50615713437265E+02,1.84212894731842E+02,1.84575961146452E+02,2.16928479477631E+02,1.33580027276051E+02,
OMN,,,,,,,,,,,,,,,,,,,,,,,,,,,,,,,,,,1.00465116279070E+01,1.73476702508961E+01,1.14736269711800E+01,2.34913793103448E+01,7.94268167860798E+01,3.37913043478261E+01,1.21770980793316E+01,1.42377610540584E+01,1.45732551242338E+01,1.60748359896051E+01,2.77278553711441E+01,3.14942463859119E+01,2.97564321103768E+01,2.11373008642726E+01,2.76885097302752E+01,4.42423893545036E+01,3.62032079890952E+01,1.82165048939174E+01,
PAK,,,,,,,,,,,,,,,,,,,,,,,,,,,,,,7.84552845528455E+00,8.70056518148255E+00,1.21807468681995E+01,1.27604166666667E+01,1.87875699233414E+01,2.67615070606299E+01,2.97414987670794E+01,6.07678795483061E+01,1.06234667900949E+02,1.10327148437500E+02,3.40100188531966E+02,4.86838936830025E+02,2.16129676000882E+02,3.43772298862036E+02,4.97402491191578E+02,3.24136154726585E+02,3.76295101051603E+02,2.76770827866128E+02,1.73521752961029E+02,1.15961943676366E+02,8.29444351527829E+01,3.61812401106577E+01,
PAN,,,,,,,,,,,,,,,,,,,,,,,,,,,,,,,,,,2.17054263565891E+00,1.25335720680394E+01,1.17724002616089E+00,2.27488151658768E+00,3.14497426325018E+00,3.87399661846058E+00,1.36348651677985E+00,4.69523751299138E+00,1.66774761419439E+00,2.12191080048995E+00,1.48394057598141E+00,1.63594397776405E+00,1.76568292509740E+00,2.66633781913242E+00,1.97133464101145E+00,4.00632606147422E+00,7.36278355529149E-01,2.01425162115618E+00,
PER,,,,,,,,,,,,,,,,,,,,,,,,,,,,,,,1.13597246127367E+01,1.34575569358178E+01,2.22399992408747E+01,4.32041329379512E+01,4.63506400250476E+01,3.93992495662682E+01,3.15951174956406E+01,2.68768618000469E+01,1.93766891314016E+01,1.82856360293954E+01,1.26984294497762E+01,7.82989534389574E+00,9.25222042921426E+00,5.51758506308133E+00,6.23126531329953E+00,7.18775909132062E+00,8.94001299081328E+00,8.76880182004800E+00,6.32646672394027E+00,5.00243241915238E+00,4.67900377793237E+00,
PHL,,,,,,,,,,,,,,,,,,,,,,,,,,,,,,2.96068780343980E+01,1.35638595502607E+01,1.71609938709196E+01,2.25393260116181E+01,2.42697839289975E+01,3.07518015966807E+01,2.54506833412426E+01,3.65595096454213E+01,3.63976884091117E+01,3.03562153983073E+01,5.12125791220722E+01,2.40673141583413E+01,9.32995933058173E+00,7.70522357484353E+00,8.41942624961154E+00,1.39554714957549E+01,2.01170861428576E+01,2.07177927959055E+01,3.40908713459613E+01,2.21632620360787E+01,2.60085813019657E+01,2.25521438440881E+01,
PNG,,,,,,,,,,,,,,,,,,,,,,,,,,,,,,,,,,,,,,,,,,,1.36494081698328E-01,1.14048339897674E-01,1.46206196210266E-01,5.63345173271206E-01,5.04373985794023E-01,,,,,
POL,,,,,,,,,,,,,,,,,,,,,,,,,,,,,,,,,9.12568306010929E+01,1.48021812910371E+02,1.77954939830462E+02,7.26652675760755E+01,8.55025474756832E+01,7.74762484774665E+01,5.47183703521904E+01,4.45631485662842E+01,4.80853629716762E+01,2.59430158775593E+01,2.13339916455938E+01,2.57846687311612E+01,3.06073810554554E+01,3.63374892067209E+01,4.53145575837141E+01,4.74600438194454E+01,4.56753875232750E+01,4.94685984317236E+01,4.75951113018833E+01,
PRT,,,,,,,,,,,,,,,,,,,,,,,,,,,,,,2.15194155189885E+01,1.70404051275095E+01,2.99627837796008E+01,3.67162584804417E+01,4.47126242381790E+01,3.68031796367676E+01,2.44604316999066E+01,3.32248616986658E+01,6.58094130222907E+01,9.33724535855870E+01,6.30335865294154E+01,8.55148184650578E+01,5.09874460957685E+01,4.56001945644182E+01,4.29520563591353E+01,5.86120250305540E+01,6.06840679851476E+01,8.20530870461094E+01,1.22203218201074E+02,8.21534297943135E+01,5.47084675582500E+01,3.45577253623048E+01,
PRY,,,,,,,,,,,,,,,,,,,,,,,,,,,,,,,,,,,,2.31578947368421E+01,1.13851992409867E+01,5.18134715025907E+00,4.27960057061341E+00,3.49446197646384E+00,,,2.09650010982142E+00,1.81928897451588E+00,1.35689929827200E+00,6.16544596634647E-01,5.11848428603223E-01,,,,,
QAT,,,,,,,,,,,,,,,,,,,,,,,,,,,,,,,,,,,,,,,8.28015564202335E+00,7.23846236213727E+00,4.48657781115074E+00,,,,0.00000000000000E+00,3.99961288277265E+01,2.76270504832482E+01,3.80990457750609E+01,5.61305318443678E+01,3.10780955523196E+01,1.73185626807115E+01,
ROM,,,,,,,,,,,,,,,,,,,,,,,,,,,,,,,,,,,,1.31578947368421E+00,7.64331210191083E+00,7.83625730994152E+01,7.25502130249543E+01,3.35283906668920E+01,2.42723395001461E+01,1.60191651269846E+01,1.20610636782998E+01,8.72258975107039E+00,1.08629560269447E+01,2.09956233248460E+01,1.59628480605439E+01,2.08331558563107E+01,1.13327227458110E+01,7.50124898075996E+00,5.42779231945671E+00,
RUS,,,,,,,,,,,,,,,,,,,,,,,,,,,,,,,,,,,3.17159763313609E+02,5.80741850880480E+00,1.11427118452527E+01,1.96195530624951E+01,1.41057088135479E+01,6.11845956314286E+00,3.65567742016832E+01,3.97987487817039E+01,3.60599274036681E+01,4.56418770491794E+01,5.24669976373407E+01,3.90258046058939E+01,6.40642740336386E+01,5.89435666329595E+01,5.91760520703515E+01,1.08459540087175E+02,8.57137896384522E+01,
SAS,,,,,,,,,,,,,,,,,,,,,,,,,,,,,,6.09711218862658E+01,6.05145107090701E+01,4.77868858346593E+01,3.30146894725817E+01,2.56331447065601E+01,2.44416497550780E+01,1.79709655832338E+01,7.36423557151278E+01,1.20429184465676E+02,1.23290060223375E+02,1.95383153562633E+02,3.08849883334296E+02,1.90334886159108E+02,1.70579198809575E+02,1.58442112901839E+02,1.25348059593677E+02,1.11643970593827E+02,1.03190064920716E+02,8.71427384181049E+01,8.59645747139843E+01,1.17635086685440E+02,7.35276029572516E+01,
SAU,,,,,,,,,,,,,,,,,,,,,,,,,,,,,,,,,7.07945738080164E+00,8.58812663813880E+00,1.44961749850608E+01,1.55614457516448E+01,1.56117462659045E+01,3.14479272568339E+01,2.69016861371862E+01,2.87675623040467E+01,2.71343659361203E+01,3.16650613945350E+01,4.81896292966197E+01,1.37026249666067E+02,2.04076770264528E+02,2.31742778144082E+02,2.88399978790774E+02,1.61485317483614E+02,1.37820807253343E+02,1.19262325673874E+02,6.04611337310912E+01,
SGP,,,,,,,,,,,,,,,,,,,,,,,,,,,,,,4.57796325949433E+01,5.78148137094523E+01,4.41367498840654E+01,2.92199167917136E+01,8.99218930216154E+01,6.06559957347088E+01,4.28012178068298E+01,2.86628283241510E+01,4.98604462601157E+01,5.05363919795205E+01,6.69122713848369E+01,5.20935170792427E+01,4.69232286823556E+01,5.12037146844981E+01,5.30532678666631E+01,3.21187552396129E+01,4.03666287671065E+01,6.21867507079948E+01,1.22012016843032E+02,1.01555381488542E+02,1.02800327311299E+02,8.28785484260344E+01,
SLV,,,,,,,,,,,,,,,,,,,,,,,,,,,,,,,,,,,,,,3.15457413249211E+00,1.86142709410548E+00,2.68093784477614E+00,1.21996796451710E+00,1.37490029332896E+00,1.68136811154853E+00,5.66628615021463E-01,2.08404273901798E+01,2.33020989445426E+00,3.70544394572450E+00,,,,,
SRB,,,,,,,,,,,,,,,,,,,,,,,,,,,,,,,,,,,,,,,,,,,,4.97953493056160E+01,1.88455705436129E+01,1.53365801102054E+01,1.63469031678025E+01,1.46094251540763E+01,6.91709442514303E+00,4.74636062764251E+00,2.23463089816506E+00,
SSA,,,,,,,,,,,,,,,,,,,,,,,,,,,,,,5.45492060861555E+00,5.95777255236637E+00,5.17084034305985E+00,5.59112513583003E+00,9.26467441358267E+00,7.73787628244332E+00,6.58021651485075E+00,1.01521839977385E+01,1.82510272406320E+01,2.75466940597268E+01,3.20811142673292E+01,3.17427541203197E+01,3.82180099994288E+01,4.39624402972499E+01,4.14303371219004E+01,4.22123391550548E+01,3.73100074196873E+01,4.52288480813531E+01,5.04409710869076E+01,5.55456203613073E+01,5.20815229962828E+01,3.71263059316724E+01,
SSF,,,,,,,,,,,,,,,,,,,,,,,,,,,,,,5.45492060861555E+00,5.95777255236637E+00,5.17084034305985E+00,5.59112513583003E+00,9.26467441358267E+00,7.73787628244332E+00,6.58021651485075E+00,1.01521839977385E+01,1.82510272406320E+01,2.75466940597268E+01,3.20811142673292E+01,3.17427541203197E+01,3.82180099994288E+01,4.39624402972499E+01,4.14303371219004E+01,4.22123391550548E+01,3.73100074196873E+01,4.52288480813531E+01,5.04409710869076E+01,5.55456203613073E+01,5.20815229962828E+01,3.71263059316724E+01,
SVK,,,,,,,,,,,,,,,,,,,,,,,,,,,,,,,,,,,,7.15698924731183E+01,1.35850160959906E+02,1.07534930139721E+02,7.39519885345754E+01,4.67832098765432E+01,7.86570048309179E+01,6.96000374840963E+01,4.55930915531005E+01,2.83752704038814E+01,1.82284284365041E+01,1.56903195317896E+00,1.79858749778011E+00,4.78267142489333E-01,3.72985409901251E-01,3.59153025076570E+00,3.93716351903438E+00,
SVN,,,,,,,,,,,,,,,,,,,,,,,,,,,,,,,,,,,,7.61589403973510E+01,8.23408624229980E+01,3.06818181818182E+01,3.44539877300613E+01,3.16501625530786E+01,1.96703553888947E+01,2.94711164494313E+01,2.69547115074675E+01,1.24622670437123E+01,1.39181902272031E+01,8.96840524132752E+00,8.83009973744183E+00,1.22929158615565E+01,6.91267228794203E+00,8.67209533741969E+00,2.56761099359805E+00,
SWE,,,,,,,,,,,,,,,,,,,,,,,,,,,,,,1.59086753580671E+01,1.62019365374188E+01,2.17817982415496E+01,3.16555182709455E+01,4.69307118603649E+01,7.16757208978788E+01,6.03240249662343E+01,6.43822924945799E+01,6.77653683933170E+01,7.38760728786788E+01,7.30805548872968E+01,1.11181781221728E+02,1.06783802161883E+02,1.05095668333415E+02,1.12446729378894E+02,1.23730721973077E+02,1.18851067481582E+02,1.38584414348002E+02,1.63412924551176E+02,1.48375034649579E+02,1.13990073485489E+02,8.67523459984776E+01,
SWZ,,,,,,,,,,,,,,,,,,,,,,,,,,,,,,,,,,,6.29921259842520E-01,1.12338552437223E-01,4.93827160493827E-01,7.55313333333333E-02,2.13738317757009E-01,1.68230648332899E-01,2.73956707267119E-01,9.97330432027532E+00,1.34231664351477E-01,3.29867972873864E-02,2.01974039141840E-02,1.37492145362847E-02,3.06200019398353E-02,,,,,
THA,,,,,,,,,,,,,,,,,,,,,,,,,,,,,,7.81865742858575E+01,9.25010101397928E+01,1.00800675394051E+02,1.53156227104186E+02,9.18478650816971E+01,6.12122121332775E+01,4.18337876773114E+01,3.67663206745810E+01,3.92425789925912E+01,7.39823069420441E+01,8.92144879406173E+01,5.29474363055671E+01,1.08462695146749E+02,1.15393036381200E+02,1.15376543542900E+02,9.17182278655033E+01,7.39277513243925E+01,7.57992494657306E+01,6.41933292448647E+01,7.82001869175665E+01,1.12083266085249E+02,1.04802868672754E+02,
TTO,,,,,,,,,,,,,,,,,,,,,,,,,,,,,,1.03092783505155E+01,9.93676603432701E+00,1.17044623262619E+01,3.72565622353937E+00,1.12562814070352E+01,9.05923344947735E+00,1.53243847874720E+01,8.45849802371541E+00,5.92658115877930E+00,5.02912345503623E+00,2.24383921372014E+00,3.12290373936678E+00,3.71597233790809E+00,2.98345021329546E+00,4.72059810217579E+00,3.83735881640818E+00,3.70999798369675E+00,2.55285726050600E+00,2.25480343763221E+00,2.55290067075171E+00,2.01083567936046E+00,1.16892180466588E+00,
TUN,,,,,,,,,,,,,,,,,,,,,,,,,,,,,,5.12000000000000E+00,3.24508966695132E+00,4.82315112540193E+00,4.32786885245902E+00,5.19774011299435E+00,1.68373151308305E+01,2.04408817635271E+01,6.86202686202686E+00,7.89793438639125E+00,8.19350621050338E+00,1.69067237418703E+01,2.26136095800604E+01,1.23281477179264E+01,9.97454047703344E+00,7.13906466241329E+00,8.85671305001880E+00,1.64963813231688E+01,1.42571136712498E+01,1.33102619405680E+01,2.54831502205365E+01,1.62294227368112E+01,1.71675384840142E+01,
TUR,,,,,,,,,,,,,,,,,,,,,,,,,,,,,,2.01515145001531E+01,4.51391021672635E+01,4.92586195862069E+01,6.39172846125083E+01,9.80054862912023E+01,7.34077865100974E+01,2.42575285565940E+02,1.45026775870216E+02,1.29744857864120E+02,1.44525840229691E+02,1.11063729074145E+02,1.96528464508929E+02,1.33444061311145E+02,1.74253635653471E+02,1.94671496713120E+02,1.76899945223626E+02,1.54911709092734E+02,1.40530883146171E+02,1.34708971759381E+02,1.18522721896747E+02,1.41722357457998E+02,1.58373977899963E+02,
TZA,,,,,,,,,,,,,,,,,,,,,,,,,,,,,,,,,,,,,,,,3.35731414868106E+00,1.94010694637567E+01,2.53567861137722E+00,3.43756421431186E+00,2.89254994857256E+00,2.51558846868511E+00,2.29043200816421E+00,2.10116454766627E+00,,,,,
UGA,,,,,,,,,,,,,,,,,,,,,,,,,,,,,,,,,,,,,,,,,,,1.68244556690825E+00,3.63120199474596E-01,2.29408907267661E-01,3.13046091458676E+00,5.21802721307332E+00,,,,,
UKR,,,,,,,,,,,,,,,,,,,,,,,,,,,,,,,,,,,,,,,4.38989851309889E+00,1.46683148016723E+01,1.92034282297525E+01,1.39205989739798E+01,5.65258500731438E+00,2.84522120591140E+00,2.49607462106490E+00,3.59047415894686E+00,3.53413358645858E+00,2.60859656343378E+00,3.72632481895418E+00,2.87031827309752E+00,7.47718048650520E+00,
UMC,,,,,,,,,,,,,,,,,,,,,,,,,,,,,,2.15079861173768E+01,2.33216615307231E+01,2.84589217966910E+01,4.03756737768059E+01,5.75137134805584E+01,5.29022661020043E+01,3.51766651490363E+01,5.82840870429736E+01,7.13483700397602E+01,5.72302368415866E+01,5.89735883525718E+01,7.60414229979316E+01,4.88097320378637E+01,4.53568653478976E+01,5.67883789436672E+01,6.48045167847966E+01,5.14357190343175E+01,6.61396831322277E+01,1.13038473101457E+02,9.01628656232261E+01,1.51334320073005E+02,1.09033042431642E+02,
URY,,,,,,,,,,,,,,,,,,,,,,,,,,,,,,,,,,,5.70071258907363E+00,2.83286118980170E+00,1.78173719376392E+00,1.25523012552301E+00,1.90023752969121E+00,8.78101737384355E-01,,,,,7.58322601811262E-01,1.12695740774287E+00,1.60822793904194E+00,1.19689868606668E+01,,,,
USA,,,,,,,,,,,,,,,,,,,,,,,,,,,,,,6.39855243246338E+01,5.33105615184338E+01,6.10883903354145E+01,4.85234968103674E+01,6.97047964390109E+01,6.98665100327381E+01,8.56812761778279E+01,9.28361552608174E+01,1.03228056163901E+02,1.06206869422460E+02,1.23471463880138E+02,2.00777174061915E+02,2.00566917290318E+02,2.03354763041281E+02,1.22592698547594E+02,1.26543993134324E+02,1.29210054230586E+02,1.82805720835668E+02,2.16458264414884E+02,2.30187863795409E+02,3.48581423461299E+02,1.89064742241895E+02,
UZB,,,,,,,,,,,,,,,,,,,,,,,,,,,,,,,,,,,,,,1.45025295109612E+01,,,2.56709296931946E+01,4.01539233729296E+01,6.19555201876361E+01,1.08726339427612E+02,4.72248312069675E+01,1.84671153584678E+02,5.91945998039565E+00,,,,,
VEN,,,,,,,,,,,,,,,,,,,,,,,,,,,,,,5.65349544072948E+00,4.54120040691760E+01,3.31288343558282E+01,2.79893623829787E+01,2.40102500367272E+01,1.54455445544554E+01,1.31358658491448E+01,1.85995623632385E+01,3.13177463874006E+01,1.38217250090220E+01,1.02271217957232E+01,8.79181745042166E+00,5.49700149611470E+00,2.09171185706243E+00,3.78950939410255E+00,9.09477878911380E+00,4.47716421717435E+00,1.00454253225635E+01,,,,8.09275542759318E-01,
VNM,,,,,,,,,,,,,,,,,,,,,,,,,,,,,,,,,,,,,,,,,,,,,3.11845068463374E+01,2.47747939724279E+01,2.23980445314689E+01,8.78893608342167E+01,2.88022577408964E+01,4.32033123735806E+01,1.41389016632358E+02,
WBG,,,,,,,,,,,,,,,,,,,,,,,,,,,,,,,,,,,,,,,1.23469104665830E+01,2.08124619140631E+01,2.34215352370972E+01,1.00785450444048E+01,6.94412028635234E+00,9.75288343426356E+00,2.29554090173725E+01,7.54345692618364E+01,2.96902425182795E+01,3.12662880583160E+01,5.19909874775109E+01,2.22318209344208E+01,1.86943005181347E+01,
WLD,,,,,,,,,,,,,,,,,,,,,,,,,,,,,,7.03247176500393E+01,5.30857924113767E+01,4.84903591087853E+01,4.29275828800532E+01,5.76655092297226E+01,6.05458737917653E+01,6.21330739417498E+01,7.15132426865661E+01,8.70429613412276E+01,8.86589513638650E+01,9.63615129520599E+01,1.40189304385207E+02,1.40044620355177E+02,1.46942997237849E+02,1.07518796962759E+02,1.12442872380795E+02,1.16326348765433E+02,1.39584435663377E+02,1.67626992849172E+02,1.61973589155942E+02,1.94624504108019E+02,1.22004654427752E+02,
ZAF,,,,,,,,,,,,,,,,,,,,,,,,,,,,,,5.52140088301473E+00,6.06542743129189E+00,5.26209132495051E+00,5.71102963082630E+00,9.45579712523722E+00,7.84271366053471E+00,6.73134258550296E+00,1.04202858855730E+01,1.88843847648003E+01,2.90051973424206E+01,3.37007349463716E+01,3.31574794967104E+01,4.04267490628931E+01,4.86053544688412E+01,4.54533254085070E+01,4.50258298445467E+01,3.93200690039678E+01,4.88021097172261E+01,5.49857346748056E+01,6.06105445117229E+01,5.72696470643120E+01,3.95985669092414E+01,
ZMB,,,,,,,,,,,,,,,,,,,,,,,,,,,,,,,,,,,,,2.80373831775701E+00,1.76181766043221E+00,5.31311986172822E-01,4.14155489670457E+00,3.10196087741866E+00,2.16616678669628E+01,8.21938955346952E-01,2.21287670319377E+00,1.10648698491332E+00,1.95647777236540E+00,2.10698306399724E+00,4.07480719568327E+00,,,,
ZWE,,,,,,,,,,,,,,,,,,,,,,,,,,,,,,3.90455531453362E+00,2.93948126801153E+00,4.06332453825858E+00,1.98216055500496E+00,5.15063168124393E+00,1.07975460122699E+01,7.75594622543950E+00,8.98995240613432E+00,1.92362598144183E+01,1.13449222323879E+01,1.18659371878262E+01,1.12853382945211E+01,2.94024023850851E+01,2.10560074020161E+01,1.30505567134375E+01,3.92460751756213E+00,1.52720055444140E+01,6.19338200787131E+00,5.09491862818452E+00,,,,
