"Country Code",1960,1961,1962,1963,1964,1965,1966,1967,1968,1969,1970,1971,1972,1973,1974,1975,1976,1977,1978,1979,1980,1981,1982,1983,1984,1985,1986,1987,1988,1989,1990,1991,1992,1993,1994,1995,1996,1997,1998,1999,2000,2001,2002,2003,2004,2005,2006,2007,2008,2009,2010,2011ARB,,,,,,,,,,,,,,,,,,,,,,,,,,,,,,,,,,,,,,6.34064700000000E+10,3.34880000000000E+10,3.49652500000000E+10,3.62418563424947E+10,4.07192572865988E+10,6.32992289687869E+10,2.21246170480166E+11,5.41498954006095E+11,1.42944058710393E+12,1.68187538314627E+12,1.08709586910000E+12,9.74895046230045E+11,6.03495847887961E+11,3.55807998597451E+11,
ARE,,,,,,,,,,,,,,,,,,,,,,,,,,,,,,,,,,,,,,,,,1.18000000000000E+08,1.45409080802636E+08,3.63486742900705E+08,1.00388628954655E+09,4.44978635841705E+09,1.43127461352675E+11,1.13004610000000E+11,1.50339350000000E+11,1.44890029313676E+11,6.57143990184357E+10,2.74389095392061E+10,
ARG,,,,,,,,,,,,,,,,,,,,,,,,,,,,,5.93000000000000E+08,1.91600000000000E+09,8.52000000000000E+08,4.82400000000000E+09,1.56789995520000E+10,1.03390003200000E+10,1.13720002560000E+10,4.59400000000000E+09,4.38200000000000E+09,2.57037200000000E+10,1.58110000000000E+10,7.78097000000000E+09,5.95646000000000E+09,4.18034000000000E+09,1.35280000000000E+09,4.91331000000000E+09,7.64223000000000E+09,1.64256400000000E+10,4.53344000000000E+09,8.25223000000000E+09,1.34197557207660E+10,2.72913956188232E+09,2.58207244115743E+09,
ARM,,,,,,,,,,,,,,,,,,,,,,,,,,,,,,,,,,,,,,,,,,3.28352899324084E+04,7.37570722436775E+05,7.35135416938196E+05,1.61885838150289E+06,1.11443847788421E+06,4.84012556785959E+06,5.00000000000000E+06,8.54554079514175E+05,2.65027644492986E+05,,
AUS,,,,,,,,,,,,,,,,,,,,,,,,,,,,,3.74119997440000E+10,4.47859998720000E+10,4.01130004480000E+10,4.68339998720000E+10,4.57710018560000E+10,6.77120000000000E+10,9.47259965440000E+10,9.86540000000000E+10,1.45395000000000E+11,1.71531000000000E+11,1.61080000000000E+11,1.94336000000000E+11,2.26325182524047E+11,2.40667000000000E+11,2.94658000000000E+11,3.69845265190296E+11,5.14249034549296E+11,6.16115403391017E+11,8.26285328776954E+11,1.32282247300000E+12,1.01770506845600E+12,7.61820248213000E+11,1.22189952282999E+12,
AUT,,,,,,,,,,,,,,,,,,,,,,,,,,,,,2.02600000000000E+09,1.17060003840000E+10,1.86090004480000E+10,7.03900006400000E+09,4.93099980800000E+09,6.56099993600000E+09,1.63800002560000E+10,2.57590000000000E+10,2.05280000000000E+10,1.21468298109010E+10,1.75891381345927E+10,1.16850000000000E+10,9.38500000000000E+09,7.25000000000000E+09,5.81600000000000E+09,1.08111543012434E+10,2.38315944308902E+10,4.59005227427479E+10,7.95736894222568E+10,1.21422032000000E+11,1.04520078125000E+11,2.55345478246540E+10,4.81173888700565E+10,
BEL,,,,,,,,,,,,,,,,,,,,,,,,,,,,,8.36899993600000E+09,7.70800025600000E+09,6.42499993600000E+09,6.20899993600000E+09,8.03000012800000E+09,1.11989995520000E+10,1.28199997440000E+10,1.52490000000000E+10,2.61200000000000E+10,2.97130000000000E+10,5.53600000000000E+10,5.91289060000000E+10,3.80131700128937E+10,4.11100000000000E+10,3.38070000000000E+10,4.26663000515553E+10,8.00628688256461E+10,1.25727800934697E+11,1.65919855591688E+11,2.55693756000000E+11,2.11780519396884E+11,1.27795766124656E+11,1.11463429071181E+11,
BGD,,,,,,,,,,,,,,,,,,,,,,,,,,,,,4.00000000000000E+06,5.00000000000000E+06,6.00000000000000E+06,3.00000000000000E+06,1.10000000000000E+07,1.50000000000000E+07,1.07000000000000E+08,1.58000000000000E+08,7.22000000000000E+08,3.85000000000000E+08,7.89000000000000E+08,7.88500000000000E+08,7.67560000000000E+08,7.41110000000000E+08,6.65590000000000E+08,3.27130000000000E+08,8.90280000000000E+08,1.00043000000000E+09,9.42920000000000E+08,4.80067000000000E+09,9.24011560987064E+09,1.46010573453494E+10,1.46929181385550E+10,
BGR,,,,,,,,,,,,,,,,,,,,,,,,,,,,,,,,,,,,4.00000000000000E+06,3.00000000000000E+04,0.00000000000000E+00,1.20000000000000E+07,5.35000000000000E+07,5.76900000000000E+07,7.00700000000000E+07,1.72420000000000E+08,1.96890000000000E+08,5.10890000000000E+08,1.38839000000000E+09,1.50901000000000E+09,5.49785000000000E+09,1.65069243858521E+09,4.00594001772167E+08,1.98000000000000E+08,
BHR,,,,,,,,,,,,,,,,,,,,,,,,,,,,,,,,,,,,,,,5.77000000000000E+08,4.44450000000000E+08,2.46950000000000E+08,1.96110000000000E+08,2.11820000000000E+08,2.73440000000000E+08,4.13100000000000E+08,7.11090000000000E+08,1.43248000000000E+09,1.62731000000000E+09,2.95872563761512E+09,8.56885694022152E+08,2.87552659001509E+08,
BMU,,,,,,,,,,,,,,,,,,,,,,,,,,,,,,,,,,,,,,9.60000000000000E+07,9.90000000000000E+07,6.95000000000000E+07,1.36000000000000E+08,2.21000000000000E+08,8.40000000000000E+07,5.05210000000000E+07,6.39500000000000E+07,7.40400000000000E+07,1.52182000000000E+08,1.70700000000000E+08,1.02660000000000E+08,5.02300000000000E+07,1.05160000000000E+08,
BOL,,,,,,,,,,,,,,,,,,,,,,,,,,,,,,,,,,,,1.00000000000000E+06,1.00000000000000E+06,1.00000000000000E+06,6.00000000000000E+06,3.34830000000000E+06,6.95312500000000E+07,1.27216171834909E+06,2.38958136936559E+06,2.23645513365140E+06,4.47165761898750E+06,1.69814849448289E+06,9.42326141338336E+05,,,,1.10000000000000E+07,
BRA,,,,,,,,,,,,,,,,,,,,,,,,,,,,,1.79790008320000E+10,1.67620003840000E+10,5.59800012800000E+09,1.33729996800000E+10,2.05250007040000E+10,5.74089994240000E+10,1.09497999360000E+11,7.91860000000000E+10,1.12108000000000E+11,2.02450000000000E+11,1.46683000000000E+11,8.72758000000000E+10,1.01281520000000E+11,6.50904000000000E+10,4.82031900000000E+10,6.04353900000000E+10,9.35801200000000E+10,1.54232110000000E+11,2.54512990000000E+11,5.84951400000000E+11,7.27792742692099E+11,6.49187228923893E+11,9.01104896976683E+11,
BRB,,,,,,,,,,,,,,,,,,,,,,,,,,,,,,,1.00000000000000E+07,9.00000000000000E+06,2.00000000000000E+06,4.00000000000000E+06,6.00000000000000E+06,3.00000000000000E+06,6.00000000000000E+06,2.30000000000000E+07,3.40000000000000E+07,1.00850000000000E+07,6.48000000000000E+06,1.00000000000000E+07,8.31171190452261E+08,1.96819095477387E+08,2.29984924623116E+08,9.10150753768844E+07,1.03582582804500E+09,2.91951358290000E+08,1.87508246000000E+08,,1.59670648676471E+07,
BWA,,,,,,,,,,,,,,,,,,,,,,,,,,,,,,,,8.00000000000000E+06,1.50000000000000E+07,2.00000000000000E+07,3.10000000000000E+07,3.80000000000000E+07,3.10000000000000E+07,5.90000000000000E+07,7.00000000000000E+07,3.75100000000000E+07,4.73200000000000E+07,6.49800000000000E+07,5.53300000000000E+07,8.67500000000000E+07,5.02100000000000E+07,4.50700000000000E+07,7.25900000000000E+07,1.10080000000000E+08,1.44169283193386E+08,1.03227166186431E+08,1.39949168227673E+08,
CAN,,,,,,,,,,,,,,,,,,,,,,,,,,,,,6.66539991040000E+10,9.01200035840000E+10,7.12780021760000E+10,7.81600030720000E+10,8.34479964160000E+10,1.42222000128000E+11,1.61057996800000E+11,1.83686000000000E+11,2.65360000000000E+11,2.94890161267802E+11,3.30551000000000E+11,3.51567000000000E+11,6.34704456711997E+11,4.61512000000000E+11,4.06064000000000E+11,4.67847089382737E+11,6.53916062521379E+11,8.45016567692356E+11,1.29024644712473E+12,1.64546878842193E+12,1.77063019021155E+12,1.23962633355941E+12,1.36565390069380E+12,
CHE,,,,,,,,,,,,,,,,,,,,,,,,,,,,,,,,6.88359997440000E+10,7.54069995520000E+10,1.67879999488000E+11,2.26723004416000E+11,3.10928000000000E+11,3.92783000000000E+11,4.94912000000000E+11,6.37344000000000E+11,5.38955000000000E+11,6.09137000000000E+11,3.00871000000000E+11,6.56726700000000E+11,5.75572366480033E+11,7.27142124352932E+11,8.83269829179279E+11,1.28676191941713E+12,1.77780097949469E+12,1.50527202652488E+12,7.95556333962701E+11,8.69438320871173E+11,
CHL,,,,,,,,,,,,,,,,,,,,,,,,,,,,,6.10000000000000E+08,8.66000000000000E+08,7.83000000000000E+08,1.90000000000000E+09,2.02899993600000E+09,2.79699993600000E+09,5.26300006400000E+09,1.10720000000000E+10,8.46000000000000E+09,7.42600000000000E+09,4.41700000000000E+09,6.87415000000000E+09,6.08312000000000E+09,4.22047000000000E+09,3.12016000000000E+09,6.54373000000000E+09,1.15912500000000E+10,1.88692800000000E+10,2.87534500000000E+10,4.44739000000000E+10,3.65587765993476E+10,3.75653609500782E+10,5.43136359916156E+10,
CHN,,,,,,,,,,,,,,,,,,,,,,,,,,,,,,,,8.20000000000000E+08,1.67149998080000E+10,4.33949982720000E+10,9.75259975680000E+10,4.97740000000000E+10,2.56008000000000E+11,3.69573870000000E+11,2.84769620000000E+11,3.77098900000000E+11,7.21537720000000E+11,4.48928420000000E+11,3.33368700000000E+11,4.76813030000000E+11,7.48273990000000E+11,5.86300810000000E+11,1.63512060000000E+12,7.79170208000000E+12,5.47052915718200E+12,8.95618765929792E+12,8.02996943693786E+12,
CIV,,,,,,,,,,,,,,,,,,,,,,,,,,,,,9.00000000000000E+06,5.00000000000000E+06,1.80000000000000E+07,7.00000000000000E+06,4.00000000000000E+06,6.00000000000000E+06,1.20000000000000E+07,1.40000000000000E+07,1.95000000000000E+07,2.40000000000000E+07,3.95000000000000E+07,8.54700000000000E+07,3.32500000000000E+07,8.38000000000000E+06,1.62500000000000E+07,2.44600000000000E+07,4.71400000000000E+07,3.11800000000000E+07,1.07010000000000E+08,1.57450000000000E+08,3.15019938776678E+08,1.33072862154928E+08,1.32000000000000E+08,
COL,,,,,,,,,,,,,,,,,,,,,,,,,,,,,6.30000000000000E+07,7.40000000000000E+07,7.10000000000000E+07,2.03000000000000E+08,5.54000000000000E+08,7.32000000000000E+08,2.19100006400000E+09,1.25400000000000E+09,1.36000000000000E+09,1.85100000000000E+09,1.52500000000000E+09,7.03700000000000E+08,3.97300000000000E+08,3.55010000000000E+08,2.73060000000000E+08,4.05390000000000E+08,1.46152000000000E+09,6.36339000000000E+09,1.13227600000000E+10,1.03376900000000E+10,1.24836732434575E+10,1.29478893648454E+10,2.29690673019973E+10,
CRI,,,,,,,,,,,,,,,,,,,,,,,,,,,,,,,,,,,,1.60000000000000E+07,1.50000000000000E+07,,,2.16486000000000E+08,,1.20664000000000E+08,5.96712000000000E+08,3.17222487018037E+07,4.24978854856544E+07,2.48808165401727E+07,5.32416423985705E+07,,,3.07858936605978E+07,4.03675389050279E+07,
CYM,,,,,,,,,,,,,,,,,,,,,,,,,,,,,,,,,,,,,,,,,,0.00000000000000E+00,0.00000000000000E+00,0.00000000000000E+00,0.00000000000000E+00,0.00000000000000E+00,1.58478100000000E+06,,,,1.00000000000000E+06,
CYP,,,,,,,,,,,,,,,,,,,,,,,,,,,,,,,,6.50000000000000E+07,8.90000000000000E+07,2.90000000000000E+07,8.50000000000000E+07,3.01000000000000E+08,4.62000000000000E+08,2.92000000000000E+08,6.16000000000000E+08,6.64900000000000E+09,9.26100000000000E+09,3.43564264487370E+09,6.21790353438727E+08,3.05837638814656E+08,1.76144859524975E+08,4.08578852400983E+08,4.30379606678274E+09,5.33826879948682E+09,2.26909998807725E+09,9.47044322454553E+08,6.32000000000000E+08,
CZE,,,,,,,,,,,,,,,,,,,,,,,,,,,,,,,,,,,1.32800000000000E+09,3.63000000000000E+09,8.43100000000000E+09,7.07100000000000E+09,4.80700000000000E+09,4.12000000000000E+09,6.58189000000000E+09,3.34910000000000E+09,6.08265000000000E+09,8.79663000000000E+09,1.76633500000000E+10,4.10401700000000E+10,3.28753400000000E+10,4.19343400000000E+10,4.30335021113313E+10,2.06061856360845E+10,1.40825392298218E+10,
DEU,,,,,,,,,,,,,,,,,,,,,,,,,,,,,3.50273994752000E+11,6.28630028288000E+11,5.01804990464000E+11,3.79382988800000E+11,4.46019010560000E+11,3.02984986624000E+11,4.60616990720000E+11,5.73549000000000E+11,7.68745000000000E+11,5.35745272525027E+11,7.61888000000000E+11,8.14740000000000E+11,1.06912046417388E+12,1.41957900000000E+12,1.23305600000000E+12,1.14720911954195E+12,1.40605543093548E+12,1.76315494022657E+12,2.48666754853504E+12,3.36309253181371E+12,3.10528779321281E+12,1.28886740828795E+12,1.40503709712225E+12,
DNK,,,,,,,,,,,,,,,,,,,,,,,,,,,,,5.10599987200000E+09,1.44629995520000E+10,1.11050004480000E+10,9.28899993600000E+09,1.58060001280000E+10,2.09889996800000E+10,2.74209996800000E+10,2.59420000000000E+10,3.46670000000000E+10,4.68780000000000E+10,7.05167555996285E+10,6.22830000000000E+10,9.15601408537715E+10,7.05830000000000E+10,5.15750000000000E+10,6.69919936657951E+10,9.74502794261739E+10,1.52048167256113E+11,1.76661344523324E+11,2.42170104453461E+11,2.12855888477075E+11,1.48317420626003E+11,1.44596782949035E+11,
EAP,,,,,,,,,,,,,,,,,,,,,,,,,,,,,,,,4.59750013440000E+10,1.17417003008000E+11,2.99894999040000E+11,3.30902999040000E+11,2.12728000000000E+11,5.31610470000000E+11,6.10405100000000E+11,3.57024020000000E+11,5.06959849449661E+11,8.25809880000000E+11,5.18222058991347E+11,4.24751698499494E+11,6.40951918411194E+11,9.48563881063191E+11,7.74528568377054E+11,1.86400355663305E+12,8.20465534798906E+12,5.80465195499142E+12,9.30326887168706E+12,8.52390775920760E+12,
EAS,,,,,,,,,,,,,,,,,,,,,,,,,,,,,2.94877206496000E+12,4.00719812204800E+12,2.52928693427200E+12,1.59901698764800E+12,1.25106702540800E+12,2.10010299852800E+12,2.77984302745600E+12,2.28698649000000E+12,2.79450295000000E+12,4.06134070740000E+12,2.76965627180000E+12,4.64303150335396E+12,6.27761656983139E+12,4.10206033899135E+12,3.99104817849949E+12,4.90047671003840E+12,6.62902223194129E+12,8.73885603333831E+12,1.17854493226186E+13,2.05938816485091E+13,1.70404761751759E+13,1.86844391169195E+13,1.84358665221042E+13,
ECA,,,,,,,,,,,,,,,,,,,,,,,,,,,,,,,,,,,2.19630002560000E+10,5.18990000000000E+10,3.99273954000000E+10,7.60248182000000E+10,8.01683548954409E+10,8.50970833005628E+10,2.00816203343152E+11,1.01955133592279E+11,1.08148820276435E+11,1.82617785041087E+11,2.82112075632767E+11,3.68922729140570E+11,7.57212193155721E+11,1.08642376237801E+12,8.15656039480479E+11,9.34341414689373E+11,1.22824115837349E+12,
ECS,,,,,,,,,,,,,,,,,,,,,,,,,,,,,1.13482098707200E+12,1.29786103532800E+12,1.10434800121600E+12,1.05319200582400E+12,1.22312999756800E+12,1.38218198784000E+12,2.01733200729600E+12,2.44177125814063E+12,3.07369209162129E+12,3.70826164801090E+12,5.45451824862966E+12,6.22203084138591E+12,8.24684410030021E+12,7.94711910449359E+12,7.49609967447150E+12,8.10659582473457E+12,1.14408922399836E+13,1.37610970495770E+13,1.78938158663355E+13,3.03228972740077E+13,2.16950758592184E+13,1.17040122198925E+13,1.06813287551525E+13,
ECU,,,,,,,,,,,,,,,,,,,,,,,,,,,,,,,,,,4.10000000000000E+07,7.30000000000000E+07,2.34000000000000E+08,1.20000000000000E+08,1.78000000000000E+08,1.39000000000000E+08,1.68900000000000E+07,1.10000000000000E+07,9.69000000000000E+06,1.93200000000000E+07,3.73900000000000E+07,9.89200000000000E+07,1.43580000000000E+08,2.89960000000000E+08,2.91770000000000E+08,1.56839394250000E+08,1.35301413837000E+09,1.79000000000000E+08,
EGY,,,,,,,,,,,,,,,,,,,,,,,,,,,,,6.00000000000000E+07,9.10000000000000E+07,1.26000000000000E+08,1.39000000000000E+08,1.95000000000000E+08,1.70000000000000E+08,7.57000000000000E+08,6.77000000000000E+08,2.46300000000000E+09,5.85900000000000E+09,5.02800000000000E+09,9.03845000000000E+09,1.11200100000000E+10,3.89731000000000E+09,2.55763000000000E+09,3.27788000000000E+09,5.60829000000000E+09,2.53923200000000E+10,4.74610500000000E+10,5.30808800000000E+10,6.96392186321431E+10,5.28129834644851E+10,3.71111605559623E+10,
EMU,,,,,,,,,,,,,,,,,,,,,,,,,,,,,5.26841995136000E+11,9.32423027136000E+11,7.77094991296000E+11,6.17767990912000E+11,7.01979009472000E+11,6.91931983168000E+11,1.17591601184000E+12,1.41842425814063E+12,1.83914869622129E+12,2.01572702736917E+12,3.22278666431122E+12,3.83550877003813E+12,5.02415213188709E+12,5.24163366264487E+12,4.48118868035344E+12,4.70300087372952E+12,6.02100567523505E+12,7.41827419627358E+12,1.02510065705701E+13,1.52246225070442E+13,1.15038453117844E+13,5.68109476739750E+12,4.65646707012105E+12,
ESP,,,,,,,,,,,,,,,,,,,,,,,,,,,,,2.56079994880000E+10,3.83889981440000E+10,4.09670000640000E+10,4.05909995520000E+10,3.99869992960000E+10,4.71559987200000E+10,6.14520012800000E+10,5.97910000000000E+10,2.50951000000000E+11,4.53016000000000E+11,6.99034000000000E+11,7.44315000000000E+11,9.85856000000000E+11,8.38600000000000E+11,1.01398200000000E+12,9.35170766912656E+11,1.19466251398464E+12,1.55724613735064E+12,1.93061984225357E+12,2.96212220300000E+12,2.44023898340536E+12,1.59926161837489E+12,9.37797903361089E+11,
EST,,,,,,,,,,,,,,,,,,,,,,,,,,,,,,,,,,,,,,1.48400000000000E+09,9.22000000000000E+08,2.85020000000000E+08,3.26300000000000E+08,2.19740000000000E+08,2.41270000000000E+08,5.64220000000000E+08,8.27670000000000E+08,2.47821000000000E+09,9.71720000000000E+08,2.09639000000000E+09,7.82515808081537E+08,3.74040000000000E+08,3.21973478486213E+08,
EUU,,,,,,,,,,,,,,,,,,,,,,,,,,,,,1.12987098713600E+12,1.28457403539200E+12,1.08451100102400E+12,9.64143005888000E+11,1.12938099788800E+12,1.18230898841600E+12,1.75956400217600E+12,2.05449125814063E+12,2.60485972622129E+12,3.09098702736917E+12,4.69505641991085E+12,5.54425762003812E+12,7.37511258274086E+12,7.49123429090131E+12,6.67974735419507E+12,7.27190952412421E+12,1.02873483752254E+13,1.23018428110587E+13,1.54739457510980E+13,2.69488567664306E+13,1.89930581355386E+13,9.72716390730484E+12,8.36758425952175E+12,
FIN,,,,,,,,,,,,,,,,,,,,,,,,,,,,,7.07599974400000E+09,7.36299980800000E+09,3.93299993600000E+09,1.55000000000000E+09,2.29200000000000E+09,8.11200000000000E+09,1.31940003840000E+10,1.90060000000000E+10,2.24220000000000E+10,3.63680000000000E+10,6.03210000000000E+10,1.13530000000000E+11,2.06643028181986E+11,1.79049000000000E+11,1.76466000000000E+11,1.63469547270287E+11,2.20049054111828E+11,2.73480891538815E+11,3.56805132232777E+11,5.43344185461697E+11,3.90406863809260E+11,9.11675534896864E+10,1.01866711048689E+11,
FJI,,,,,,,,,,,,,,,,,,,,,,,,,,,,,,,,,,,,,,2.00000000000000E+06,4.00000000000000E+06,2.48700000000000E+06,,,,2.30145969903660E+06,7.53034815628227E+06,4.47414270917294E+06,3.26402304463573E+06,2.00000000000000E+06,2.88970162437551E+06,,5.11671482361379E+06,
FRA,,,,,,,,,,,,,,,,,,,,,,,,,,,,,6.55050014720000E+10,1.07286003712000E+11,1.16892999680000E+11,1.13573003264000E+11,1.21841999872000E+11,1.74282997760000E+11,3.07686014976000E+11,3.64550000000000E+11,2.77100000000000E+11,4.02550000000000E+11,5.91252000000000E+11,7.87573000000000E+11,1.08326763676552E+12,1.07734100000000E+12,9.34767000000000E+11,1.10365636007595E+12,1.41584541041849E+12,1.52605891224590E+12,2.50470381099714E+12,3.41889035804963E+12,3.26549443174895E+12,1.36580679272585E+12,8.28032289562737E+11,
GBR,,,,,,,,,,,,,,,,,,,,,,,,,,,,,5.79170992128000E+11,3.20268009472000E+11,2.78740008960000E+11,3.15279015936000E+11,3.82995988480000E+11,4.23526006784000E+11,4.64084992000000E+11,5.10131000000000E+11,5.78471000000000E+11,8.29131000000000E+11,1.16738200000000E+12,1.37785900000000E+12,1.83527800000000E+12,1.86113137825644E+12,1.90971578384163E+12,2.21153331591795E+12,3.70719089005111E+12,4.16701954069806E+12,4.24208216655340E+12,1.03244765638169E+13,6.48695945308600E+12,3.40249561645500E+12,3.00668000000000E+12,
GEO,,,,,,,,,,,,,,,,,,,,,,,,,,,,,,,,,,,,,,,,,3.00000000000000E+06,6.40000000000000E+06,3.80000000000000E+06,8.00000000000000E+05,2.50000000000000E+07,3.80297000000000E+07,9.51617000000000E+07,4.52125000000000E+07,8.24620000000000E+06,1.85550000000000E+06,2.88000000000000E+06,
GHA,,,,,,,,,,,,,,,,,,,,,,,,,,,,,,,,,,5.00000000000000E+06,7.50000000000000E+07,2.20000000000000E+07,1.70000000000000E+07,4.90000000000000E+07,6.00000000000000E+07,2.46600000000000E+07,1.01000000000000E+07,1.32800000000000E+07,1.13000000000000E+07,4.54600000000000E+07,6.55800000000000E+07,6.78700000000000E+07,5.24700000000000E+07,1.08920000000000E+08,1.49945129531641E+08,5.77673435427697E+07,1.01897766601730E+08,
GRC,,,,,,,,,,,,,,,,,,,,,,,,,,,,,3.13000000000000E+08,5.49000000000000E+08,3.92400000000000E+09,2.44300006400000E+09,1.60499993600000E+09,2.71299993600000E+09,5.14499993600000E+09,6.09100000000000E+09,8.28300000000000E+09,2.10310000000000E+10,4.68350000000000E+10,1.88721700000000E+11,9.51058800000000E+10,3.73760000000000E+10,2.48697000000000E+10,3.85924897913831E+10,4.34856611685838E+10,6.52644716563690E+10,1.07477590818327E+11,1.51534054773501E+11,4.81650930488021E+10,5.17160125357076E+10,4.31098398152275E+10,
GTM,,,,,,,,,,,,,,,,,,,,,,,,,,,,,,,,,,,,5.00000000000000E+06,4.00000000000000E+06,7.00000000000000E+06,1.00000000000000E+07,,,,,,,,,,,,,
GUY,,,,,,,,,,,,,,,,,,,,,,,,,,,,,,,,,,,,,,,,,,,,9.43005181347150E+03,1.24022960979533E+06,4.01513291210574E+06,1.03958653878839E+06,8.09022329685059E+05,7.29962422436312E+05,,,
HIC,,,,,,,,,,,,,,,,,,,,,,,,,,,,,5.86578201350400E+12,7.39228711206400E+12,5.41695088102400E+12,4.87048499404800E+12,4.53216799475200E+12,6.69406710348800E+12,8.20367511462400E+12,9.77851274833263E+12,1.27181971762213E+13,1.76601947960370E+13,2.13034746717108E+13,2.92368306635658E+13,4.60415616280225E+13,4.09959626781879E+13,3.68464032443543E+13,2.84553456897208E+13,3.74234663662169E+13,4.51449503687784E+13,6.33038051235070E+13,8.69865922450849E+13,7.13151037917701E+13,6.87198153055580E+13,5.16136262087428E+13,
HKG,,,,,,,,,,,,,,,,,,,,,,,,,,,,,2.34050007040000E+10,3.45839984640000E+10,3.46329989120000E+10,3.86069995520000E+10,7.85979965440000E+10,1.31550003200000E+11,1.47158007808000E+11,1.06888000000000E+11,1.66419000000000E+11,4.89365000000000E+11,2.05918000000000E+11,2.47427857695282E+11,3.77866071199405E+11,1.96361000000000E+11,2.10662000000000E+11,2.43627896226197E+11,2.81562209394113E+11,2.94104365904788E+11,4.03872569591947E+11,9.16884022395479E+11,1.62614313058282E+12,1.48963500000000E+12,1.59754338265674E+12,
HRV,,,,,,,,,,,,,,,,,,,,,,,,,,,,,,,,,,,2.52000000000000E+08,4.70000000000000E+07,2.27000000000000E+08,3.43000000000000E+08,1.03000000000000E+08,7.46700000000000E+07,1.88190000000000E+08,1.17460000000000E+08,1.46520000000000E+08,2.37430000000000E+08,4.94130000000000E+08,7.98200000000000E+08,1.82286000000000E+09,4.08756000000000E+09,3.44000620791103E+09,1.41834879794449E+09,1.03723508044184E+09,
HUN,,,,,,,,,,,,,,,,,,,,,,,,,,,,,,,,1.17000000000000E+08,3.80000000000000E+07,9.90000000000000E+07,2.70000000000000E+08,3.55000000000000E+08,1.64100000000000E+09,7.47200000000000E+09,1.60420000000000E+10,1.43950000000000E+10,1.21501600000000E+10,4.81822000000000E+09,5.94130000000000E+09,8.29959000000000E+09,1.30107700000000E+10,2.39108600000000E+10,3.11832900000000E+10,4.74966100000000E+10,3.08017231986452E+10,2.59396766456125E+10,2.64661222508471E+10,
IDN,,,,,,,,,,,,,,,,,,,,,,,,,,,,,4.00000000000000E+06,5.41000000000000E+08,3.99200000000000E+09,2.92199987200000E+09,3.90300006400000E+09,9.15799961600000E+09,1.18009999360000E+10,1.44030000000000E+10,3.21420000000000E+10,4.29270000000000E+10,1.06106900000000E+10,1.99034600000000E+10,1.43106900000000E+10,9.66688000000000E+09,1.30418400000000E+10,1.47743500000000E+10,2.75614600000000E+10,4.19000800000000E+10,4.88305600000000E+10,1.12851080000000E+11,1.10677616650766E+11,1.15309506142384E+11,1.29546386041381E+11,
IND,,,,,,,,,,,,,,,,,,,,,,,,,,,,,1.22410004480000E+10,1.73619998720000E+10,2.19179991040000E+10,2.31490007040000E+10,2.07049994240000E+10,2.17789992960000E+10,2.73760010240000E+10,2.19620000000000E+10,9.61530000000000E+10,1.58301542800000E+11,1.48239904000000E+11,2.78828000000000E+11,5.09811952500000E+11,2.49298340000000E+11,1.97117780000000E+11,2.84801640000000E+11,3.79084800000000E+11,4.33900088900000E+11,6.38484020000000E+11,1.10755013000000E+12,1.04974845030524E+12,1.08888867666512E+12,1.05680807809482E+12,
IRL,,,,,,,,,,,,,,,,,,,,,,,,,,,,,,,,,,,4.38000025600000E+09,1.29872581406323E+10,1.22696962212892E+10,1.62547274749721E+10,4.24400000000000E+10,5.05920000000000E+10,1.44321145699024E+10,2.25340000000000E+10,3.29040000000000E+10,4.40098321001665E+10,4.42880296014516E+10,6.46938456672783E+10,7.99204489447321E+10,1.36618492743463E+11,3.72051208218203E+10,1.84713362114693E+10,1.68167803982306E+10,
IRN,,,,,,,,,,,,,,,,,,,,,,,,,,,,,,,,5.21699993600000E+09,6.99499980800000E+09,3.11000000000000E+08,4.24000000000000E+08,7.41000000000000E+08,2.61700000000000E+09,1.21388011428571E+09,1.38897977142860E+09,2.26999228571429E+09,1.07838000000000E+09,1.09649800000000E+09,1.91380000000000E+09,5.29097292723170E+09,1.33044713644200E+10,8.18747007024260E+09,4.88588486072435E+09,8.23837000000000E+09,1.53817619000000E+10,1.70613546000000E+10,1.71375139631224E+10,
ISL,,,,,,,,,,,,,,,,,,,,,,,,,,,,,,,,,,,1.90000000000000E+07,4.40000000000000E+07,9.20000000000000E+07,1.81000000000000E+08,1.78000000000000E+08,5.51734623358673E+08,2.37491421619928E+09,1.35600000000000E+09,3.37100000000000E+09,7.31006662501945E+09,1.04596294331851E+10,1.72429678157666E+10,3.13499878163450E+10,4.86893153999920E+10,1.53215200367027E+10,4.00580301988284E+08,1.50275792577809E+08,
ISR,,,,,,,,,,,,,,,,,,,,,,,,,,,,,2.44700006400000E+09,3.90899993600000E+09,5.53500006400000E+09,8.38900019200000E+09,1.46939996160000E+10,3.03269990400000E+10,2.51099996160000E+10,9.15500000000000E+09,8.04500000000000E+09,1.07100000000000E+10,1.12640000000000E+10,1.54625700000000E+10,2.33941100000000E+10,2.97906200000000E+10,5.52502300000000E+10,4.15579300000000E+10,4.62326000000000E+10,5.98858800000000E+10,8.87705700000000E+10,1.13459350000000E+11,1.09157085852531E+11,8.82889340782552E+10,1.33370114942529E+11,
ITA,,,,,,,,,,,,,,,,,,,,,,,,,,,,,3.17210009600000E+10,3.89260001280000E+10,4.25660006400000E+10,2.49910005760000E+10,2.80999997440000E+10,6.57700003840000E+10,1.17893996544000E+11,8.69040000000000E+10,1.02351000000000E+11,1.98235000000000E+11,4.75791000000000E+11,5.36475117461986E+11,7.78405783753914E+11,5.52150000000000E+11,5.39893000000000E+11,6.63210650847284E+11,8.04347014351083E+11,1.11522436706208E+12,1.36613041939767E+12,2.31348296846791E+12,6.68941707350169E+11,4.59728035992902E+11,5.39339231999965E+11,
JAM,,,,,,,,,,,,,,,,,,,,,,,,,,,,,2.50000000000000E+07,9.00000000000000E+07,3.20000000000000E+07,9.50000000000000E+07,3.86000000000000E+08,3.36000000000000E+08,1.58000000000000E+08,3.41000000000000E+08,3.90000000000000E+07,7.34800000000000E+07,4.10000000000000E+07,3.84800000000000E+07,7.56200000000000E+07,7.50600000000000E+07,1.42820000000000E+08,2.49150000000000E+08,4.77670000000000E+08,4.30270000000000E+08,2.96540000000000E+08,3.55000000000000E+08,3.61851412961543E+08,1.26154757283853E+08,2.10774692060011E+08,
JOR,,,,,,,,,,,,,,,,,,,,,,,,,,,,,3.37000000000000E+08,6.52000000000000E+08,4.07000000000000E+08,4.32000000000000E+08,1.31699993600000E+09,1.37699993600000E+09,6.26000000000000E+08,5.17000000000000E+08,2.97000000000000E+08,5.01000000000000E+08,6.53000000000000E+08,5.47510000000000E+08,4.15630000000000E+08,9.33140000000000E+08,1.33812000000000E+09,2.60701000000000E+09,5.32786000000000E+09,2.38066000000000E+10,2.00511200000000E+10,1.74276500000000E+10,2.80085026835843E+10,1.36451573144927E+10,9.44672856772509E+09,
JPN,,,,,,,,,,,,,,,,,,,,,,,,,,,,,2.59763706265600E+12,2.80069511577600E+12,1.60238796800000E+12,9.95938992128000E+11,6.35261026304000E+11,9.54340999168000E+11,1.12143800729600E+12,1.23155200000000E+12,1.25199800000000E+12,1.25175000000000E+12,9.48522000000000E+11,1.84922812029692E+12,2.69385627767968E+12,1.82623000000000E+12,1.57327900000000E+12,2.27298943194409E+12,3.43041977111709E+12,4.99741446916389E+12,6.25247021648036E+12,6.49719263312453E+12,5.87943936251492E+12,4.19262414226453E+12,4.28042300000000E+12,
KAZ,,,,,,,,,,,,,,,,,,,,,,,,,,,,,,,,,,,,,,2.00000000000000E+06,2.59305952381000E+07,1.91616497829233E+07,8.88000000000000E+07,7.59421973227303E+07,1.37918872052160E+08,2.59996704867937E+08,9.66523594403684E+08,1.07689350000000E+09,3.99087555586862E+09,8.89947800000000E+09,3.44678406381365E+09,4.03560185413308E+09,2.28277248261319E+09,
KEN,,,,,,,,,,,,,,,,,,,,,,,,,,,,,,,1.00000000000000E+07,1.10000000000000E+07,1.20000000000000E+07,1.40000000000000E+07,6.20000000000000E+07,6.50000000000000E+07,6.70000000000000E+07,1.06000000000000E+08,7.90000000000000E+07,7.41000000000000E+07,4.74700000000000E+07,3.97800000000000E+07,3.63600000000000E+07,2.08830000000000E+08,3.44660000000000E+08,5.04800000000000E+08,1.29951000000000E+09,1.31763000000000E+09,1.43761731955539E+09,4.97268689632996E+08,1.08411860612927E+09,
KGZ,,,,,,,,,,,,,,,,,,,,,,,,,,,,,,,,,,,,,,,,5.43000000000000E+06,2.26950000000000E+07,1.88000000000000E+07,2.35000000000000E+07,1.10556487573144E+07,6.64000000000000E+07,1.29686873478901E+07,9.97798000000000E+07,1.40155300000000E+08,1.12397800000000E+08,6.74859000000000E+07,9.00000000000000E+06,
KNA,,,,,,,,,,,,,,,,,,,,,,,,,,,,,,,,,,,,,,,,,,,,3.24814814814815E+06,4.75555555555556E+06,8.13703703703704E+05,8.18229925925926E+05,1.37810645179657E+06,6.18572134074074E+06,9.41638390370370E+06,4.66037621851852E+06,
KOR,,,,,,,,,,,,,,,,,,,,,,,,,,,,,,1.21263996928000E+11,7.59489986560000E+10,8.54639984640000E+10,1.16100997120000E+11,2.11710001152000E+11,2.86055989248000E+11,1.85197490000000E+11,1.77266480000000E+11,1.72018597399999E+11,1.45572051800000E+11,8.25827921000000E+11,1.06799878030000E+12,7.03959550000000E+11,7.92164710000000E+11,6.82706060000000E+11,6.38890700000000E+11,1.20297610000000E+12,1.34012247000000E+12,1.97401518000000E+12,1.46599908011703E+12,1.58148673723919E+12,1.62660446624649E+12,
KWT,,,,,,,,,,,,,,,,,,,,,,,,,,,,,2.54300006400000E+09,1.70899993600000E+09,,,,2.61200000000000E+09,1.94800000000000E+09,6.38900019200000E+09,1.92030000000000E+10,3.45760000000000E+10,9.33300000000000E+09,6.06100000000000E+09,4.21000000000000E+09,1.14588082057962E+10,2.16521022258862E+10,5.27281913102055E+10,4.86148328031710E+10,9.40100371670540E+10,5.58858100000000E+10,1.20703810000000E+11,1.22742412546943E+11,6.99323610577600E+10,4.18106057863325E+10,
LAC,,,,,,,,,,,,,,,,,,,,,,,,,,,,,2.52800005760000E+10,2.61230003840000E+10,2.18789998720000E+10,5.54879994880000E+10,8.68039988480000E+10,1.37675001344000E+11,2.15616996416000E+11,1.35561000000000E+11,1.74677000000000E+11,2.98048520000000E+11,2.07315000000000E+11,1.42125162800000E+11,1.61600321250000E+11,1.15413684629895E+11,8.27625406819209E+10,9.71285306186531E+10,1.59874075147524E+11,2.51647726652906E+11,3.85118107417291E+11,7.71676948128781E+11,9.04349808144280E+11,7.84259442379078E+11,1.09418040599963E+12,
LBN,,,,,,,,,,,,,,,,,,,,,,,,,,,,,,,,,,,,,,6.40000000000000E+08,3.28000000000000E+08,9.05500000000000E+07,1.17850000000000E+08,5.71700000000000E+07,1.18500000000000E+08,1.30660000000000E+08,1.96970000000000E+08,9.23930000000000E+08,2.03548000000000E+09,9.90730000000000E+08,7.05306039690565E+08,1.04223321153527E+09,1.87352424839493E+09,
LCN,,,,,,,,,,,,,,,,,,,,,,,,,,,,,2.52950005760000E+10,2.61580003840000E+10,2.19439998720000E+10,5.55769994880000E+10,8.68279988480000E+10,1.37735001344000E+11,2.15674996416000E+11,1.35701000000000E+11,1.74790000000000E+11,2.98205520000000E+11,2.07526000000000E+11,1.42228247800000E+11,1.61742601250000E+11,1.15597674629895E+11,8.37658618723732E+10,9.77291997141305E+10,1.60634680072147E+11,2.52369861728283E+11,3.86570898026336E+11,7.72320379487072E+11,9.04891696899313E+11,7.84493731172415E+11,1.09433357215749E+12,
LKA,,,,,,,,,,,,,,,,,,,,,,,,,,,,,1.20000000000000E+07,7.00000000000000E+06,3.90000000000000E+07,1.04000000000000E+08,1.14000000000000E+08,3.85000000000000E+08,7.00000000000000E+08,2.21000000000000E+08,1.34000000000000E+08,3.09000000000000E+08,2.81000000000000E+08,2.08920000000000E+08,1.44190000000000E+08,1.53400000000000E+08,3.18020000000000E+08,7.69190000000000E+08,5.82190000000000E+08,1.13803000000000E+09,1.00279000000000E+09,9.51650000000000E+08,1.02247336738711E+09,8.84633088790140E+08,3.30611187182021E+09,
LMC,,,,,,,,,,,,,,,,,,,,,,,,,,,,,1.34160004480000E+10,2.06289997440000E+10,2.76129991040000E+10,2.84860006400000E+10,2.89939994240000E+10,4.06019987200000E+10,5.96570009600000E+10,5.77063802660000E+10,1.63136460000000E+11,2.40689909341461E+11,1.85278996766169E+11,3.52083803230683E+11,5.78591860092495E+11,2.80546212456532E+11,2.43506846656137E+11,3.74751927277788E+11,4.94901259102195E+11,6.59516088888248E+11,8.94519620366787E+11,1.46323674756818E+12,1.35323582670699E+12,1.34058183261420E+12,1.31495536312093E+12,
LMY,,,,,,,,,,,,,,,,,,,,,,,,,,,,,,,,1.47945001088000E+11,2.50674001152000E+11,5.00432999936000E+11,6.18854996928000E+11,4.48205380266000E+11,8.83160365400000E+11,1.21030048765575E+12,8.70962961433038E+11,1.12376289891696E+12,1.82491569757190E+12,1.07762525167110E+12,9.28586185247640E+11,1.39096364919236E+12,2.03686683692608E+12,2.24102243900631E+12,4.18155406422356E+12,1.18297126500089E+13,9.20171822767465E+12,1.26139566074558E+13,1.23610819037594E+13,
LTU,,,,,,,,,,,,,,,,,,,,,,,,,,,,,,,,,,,,3.70000000000000E+07,4.70000000000000E+07,2.33000000000000E+08,2.21000000000000E+08,2.90120000000000E+08,2.02210000000000E+08,2.10070000000000E+08,1.82290000000000E+08,1.97700000000000E+08,4.63830000000000E+08,7.40540000000000E+08,2.09368000000000E+09,1.02360000000000E+09,4.89127563359901E+08,3.03190255817995E+08,2.96087654858008E+08,
LUX,,,,,,,,,,,,,,,,,,,,,,,,,,,,,2.59000000000000E+08,1.06000000000000E+08,8.70000000000000E+07,1.35000000000000E+08,1.18000000000000E+08,1.10400000000000E+09,2.69000000000000E+08,2.05000000000000E+08,5.34000000000000E+08,5.62000000000000E+08,1.17300000000000E+09,1.04100000000000E+09,1.20529442899245E+09,4.32000000000000E+08,2.67700000000000E+08,2.58061395805597E+08,3.65335186644592E+08,2.40470124588417E+08,2.30595114507410E+08,2.29704000000000E+08,1.65634748109380E+09,2.70505478681304E+08,1.75400299399437E+08,
LVA,,,,,,,,,,,,,,,,,,,,,,,,,,,,,,,,,,,,,1.20000000000000E+07,8.40000000000000E+07,8.50000000000000E+07,4.53300000000000E+07,2.28160000000000E+08,1.64870000000000E+08,1.24140000000000E+08,1.45110000000000E+08,1.09920000000000E+08,9.60300000000000E+07,1.11460000000000E+08,1.40260000000000E+08,4.21787387006784E+07,1.96482442563472E+07,2.73390346486094E+07,
MAR,,,,,,,,,,,,,,,,,,,,,,,,,,,,,3.30000000000000E+07,1.60000000000000E+07,6.20000000000000E+07,4.90000000000000E+07,7.00000000000000E+07,4.98000000000000E+08,7.88000000000000E+08,2.42600000000000E+09,4.32000000000000E+08,1.04847000000000E+09,1.39000000000000E+09,2.52960000000000E+09,1.09369000000000E+09,9.73550000000000E+08,5.87060000000000E+08,6.93580000000000E+08,1.67724000000000E+09,4.14655000000000E+09,1.35019800000000E+10,2.62763800000000E+10,2.19293516705458E+10,2.94166600955556E+10,1.07535225667124E+10,
MDA,,,,,,,,,,,,,,,,,,,,,,,,,,,,,,,,,,,,,2.49000000000000E+06,3.85100000000000E+07,8.12900000000000E+07,3.52900000000000E+07,2.50000000000000E+07,2.20000000000000E+07,1.83000000000000E+07,3.45000000000000E+07,5.47700000000000E+07,1.68970000000000E+07,2.61505000000000E+07,1.01627600000000E+08,1.57377600000000E+08,1.28571000000000E+07,,
MEA,,,,,,,,,,,,,,,,,,,,,,,,,,,,,,,,,,4.00779991680000E+10,3.68259996160000E+10,2.69890001920000E+10,4.06700000000000E+10,7.53525476725543E+10,4.61965059480547E+10,5.30324388618540E+10,6.08993463424947E+10,7.16533752865988E+10,1.20515958968787E+11,2.68137406340257E+11,6.01129971615831E+11,1.49766456377118E+12,1.77578656019707E+12,1.20888304710000E+12,1.09950769674696E+12,7.08864376748074E+11,5.06342817258653E+11,
MEX,,,,,,,,,,,,,,,,,,,,,,,,,,,,,5.73199974400000E+09,6.23200000000000E+09,1.22119997440000E+10,3.17229998080000E+10,4.45819985920000E+10,6.24540016640000E+10,8.29639966720000E+10,3.43770000000000E+10,4.30400000000000E+10,5.23920000000000E+10,3.41640000000000E+10,3.60421000000000E+10,4.53400200000000E+10,4.00426500000000E+10,2.77256000000000E+10,2.34891500000000E+10,4.28389400000000E+10,5.27358900000000E+10,8.00951600000000E+10,1.15616800000000E+11,1.08201798648023E+11,7.70586750544393E+10,1.08530376533036E+11,
MIC,,,,,,,,,,,,,,,,,,,,,,,,,,,,,,,,1.47854001088000E+11,2.50631001152000E+11,5.00350999936000E+11,6.18495996928000E+11,4.47814380266000E+11,8.82111365400000E+11,1.20926548765575E+12,8.69904661433038E+11,1.12263720891696E+12,1.82372703843565E+12,1.07526875521352E+12,9.25336221361850E+11,1.38901492304545E+12,2.03534447410325E+12,2.23909916748018E+12,4.17821391850731E+12,1.18224106910746E+13,9.19050230873271E+12,1.25985609844843E+13,1.23440064514135E+13,
MKD,,,,,,,,,,,,,,,,,,,,,,,,,,,,,,,,,,,,,8.75400000000000E+05,2.20382000000000E+07,8.74700000000000E+07,2.72925000000000E+07,1.19142400000000E+08,4.70246734397678E+07,2.85355714173661E+07,1.09911751045053E+07,3.30672927590816E+07,9.71016042583771E+07,1.95285937323662E+08,5.04407260504054E+08,1.56074664864360E+08,6.13053666437612E+07,3.58724727166166E+07,
MLT,,,,,,,,,,,,,,,,,,,,,,,,,,,,,,,,,,,3.00000000000000E+06,1.60000000000000E+07,1.40000000000000E+07,2.21975582685904E+07,5.55261766261000E+07,3.34626576139670E+08,1.85000000000000E+08,4.70000000000000E+07,5.27000000000000E+07,4.23329328592395E+07,9.39462453153598E+07,1.50626597015168E+08,2.54722190078273E+08,8.94580000000000E+07,7.38027643819000E+07,1.82401818576696E+07,2.71897555507435E+07,
MNA,,,,,,,,,,,,,,,,,,,,,,,,,,,,,,,,,,,,5.02400000000000E+09,6.09000000000000E+09,9.54735011428571E+09,9.04497977142860E+09,1.50467722857143E+10,1.46402663424947E+10,7.34893800000000E+09,6.78137000000000E+09,1.22239558076456E+10,,,,,,1.15735673978417E+11,,
MNE,,,,,,,,,,,,,,,,,,,,,,,,,,,,,,,,,,,,,,,,,,,,3.03603139141892E+07,2.47301275760550E+07,1.03953517746621E+08,2.88154574123345E+08,3.75432600000000E+08,1.05179600000000E+08,3.27651200000000E+08,3.10000000000000E+07,
MNG,,,,,,,,,,,,,,,,,,,,,,,,,,,,,,,,,,,,2.00000000000000E+06,8.00000000000000E+06,1.50000000000000E+07,1.27900000000000E+07,3.20400000000000E+06,8.00000000000000E+06,1.60000000000000E+06,1.20000000000000E+06,8.00000000000000E+05,7.80000000000000E+05,2.16200000000000E+06,1.06890000000000E+07,5.31179890560876E+07,5.19655000000000E+07,1.60698000000000E+07,4.90000000000000E+07,
MUS,,,,,,,,,,,,,,,,,,,,,,,,,,,,,,,6.00000000000000E+06,5.00000000000000E+06,1.00000000000000E+07,3.90000000000000E+07,8.50000000000000E+07,7.00000000000000E+07,7.80000000000000E+07,1.35000000000000E+08,1.01000000000000E+08,7.64500000000000E+07,7.54400000000000E+07,1.11860000000000E+08,5.68000000000000E+07,9.91300000000000E+07,9.54800000000000E+07,1.51010000000000E+08,1.37430000000000E+08,3.69000000000000E+08,4.03240996733722E+08,3.29747754363419E+08,3.57443940688118E+08,
MWI,,,,,,,,,,,,,,,,,,,,,,,,,,,,,,,,,,,,,,,,,,,,8.34489311163895E+06,6.22421395348837E+06,7.96191715463023E+06,1.42691001260385E+07,,5.96685498261127E+07,,2.00000000000000E+07,
MYS,,,,,,,,,,,,,,,,,,,,,,,,,,,,,2.62300006400000E+09,6.88800000000000E+09,1.08710000640000E+10,1.06570004480000E+10,2.17300008960000E+10,1.53660997632000E+11,1.26458003456000E+11,7.68220000000000E+10,1.73568000000000E+11,1.53292000000000E+11,2.98890000000000E+10,4.85121500000000E+10,5.84996500000000E+10,2.07717300000000E+10,2.76225700000000E+10,5.01351600000000E+10,5.98777500000000E+10,4.99758169000000E+10,6.69039500000000E+10,1.50002300000000E+11,8.52139240070928E+10,7.29700635716623E+10,9.01979560298607E+10,
NAC,,,,,,,,,,,,,,,,,,,,,,,,,,,,,1.78638496153600E+12,2.10566395494400E+12,1.82252994560000E+12,2.26207000166400E+12,2.16510597529600E+12,3.49718311731200E+12,3.72537307955200E+12,5.29227700000000E+12,7.38684700000000E+12,1.05110601612678E+13,1.34791300000000E+13,1.89257365000000E+13,3.24973256812340E+13,2.95024720000000E+13,2.57774180000000E+13,1.60153287387721E+13,2.00088787006565E+13,2.23550700530074E+13,3.45580412063477E+13,4.42588457335769E+13,3.82381639502115E+13,4.79756112635594E+13,3.18205570606938E+13,
NAM,,,,,,,,,,,,,,,,,,,,,,,,,,,,,,,,,,,1.80000000000000E+07,3.00000000000000E+06,4.10000000000000E+07,2.40000000000000E+07,1.30000000000000E+07,2.24800000000000E+07,2.20500000000000E+07,7.72000000000000E+06,1.42000000000000E+06,1.71000000000000E+06,1.76800000000000E+07,6.43000000000000E+06,1.81000000000000E+07,2.28400000000000E+07,1.87649651445476E+07,2.21972132362940E+07,1.84512725322610E+07,
NGA,,,,,,,,,,,,,,,,,,,,,,,,,,,,,5.00000000000000E+06,4.00000000000000E+06,1.10000000000000E+07,9.00000000000000E+06,1.40000000000000E+07,1.00000000000000E+07,1.80000000000000E+07,1.40000000000000E+07,7.20000000000000E+07,1.32000000000000E+08,1.60000000000000E+08,1.44780000000000E+08,2.62800000000000E+08,4.96060000000000E+08,4.75270000000000E+08,8.58420000000000E+08,1.66597000000000E+09,1.93736000000000E+09,3.55883000000000E+09,1.67741900000000E+10,1.99489674732792E+10,4.57471942714657E+09,5.27908609028305E+09,
NLD,,,,,,,,,,,,,,,,,,,,,,,,,,,,,3.45549987840000E+10,8.98479964160000E+10,4.01990000640000E+10,3.89709987840000E+10,4.55110000640000E+10,6.71850004480000E+10,1.70596007936000E+11,2.48606000000000E+11,3.39500000000000E+11,2.84869000000000E+11,4.20199000000000E+11,4.78436000000000E+11,6.77211000000000E+11,1.03346800000000E+12,4.62318000000000E+11,5.29919431746577E+11,7.47423884854432E+11,8.35750967538209E+11,1.09608854190199E+12,1.80344453157239E+12,1.14304014886387E+12,6.04159207674795E+11,5.92070523882328E+11,
NOC,,,,,,,,,,,,,,,,,,,,,,,,,,,,,,,,4.24340995712000E+11,3.37216997056000E+11,5.67097999424000E+11,9.48778035456000E+11,5.63746000192000E+11,7.06688000000000E+11,1.90082620755827E+12,1.17406072617663E+12,1.28484820927142E+12,1.48543461119940E+12,8.43025639931472E+11,9.59061760512678E+11,1.13905339829633E+12,1.61134618284760E+12,2.50516947951076E+12,3.08802779762619E+12,3.57172644955326E+12,3.69942047279804E+12,3.31552241964829E+12,3.06873277700289E+12,
NOR,,,,,,,,,,,,,,,,,,,,,,,,,,,,,4.84899993600000E+09,1.24889999360000E+10,1.39960002560000E+10,1.16420003840000E+10,1.01510000640000E+10,8.75099955200000E+09,8.81700044800000E+09,2.44200000000000E+10,3.58820000000000E+10,4.64210000000000E+10,4.26380000000000E+10,5.41350000000000E+10,6.01240000000000E+10,5.23330000000000E+10,4.88940000000000E+10,6.99731753970803E+10,1.35457961584611E+11,1.94794648979712E+11,3.50951887038354E+11,4.71884738304371E+11,3.68258445430783E+11,2.47757892199458E+11,2.17127992756138E+11,
NPL,,,,,,,,,,,,,,,,,,,,,,,,,,,,,,,,,,,1.40000000000000E+07,1.80000000000000E+07,5.00000000000000E+06,5.00000000000000E+06,4.00000000000000E+06,2.37600000000000E+07,3.16900000000000E+07,1.90000000000000E+07,1.97400000000000E+07,2.87334550510042E+07,6.21963435667472E+07,4.79531781868704E+07,6.93223255697012E+07,2.31133634374656E+08,3.66119662684239E+08,2.29811036500299E+08,9.90000000000000E+07,
NZL,,,,,,,,,,,,,,,,,,,,,,,,,,,,,1.12400000000000E+09,3.02700006400000E+09,1.93299993600000E+09,2.89200000000000E+09,3.16800000000000E+09,6.78499993600000E+09,7.16199987200000E+09,8.40700000000000E+09,8.88200000000000E+09,1.07930000000000E+10,1.03140000000000E+10,1.12507549120993E+10,1.07842781282622E+10,8.42800000000000E+09,7.47300000000000E+09,1.04806144633859E+10,1.54034375551649E+10,1.74254821213421E+10,1.97626991627338E+10,2.16534430000000E+10,3.16107182780607E+10,3.72063784725745E+10,1.07260653285098E+10,
OEC,,,,,,,,,,,,,,,,,,,,,,,,,,,,,5.55972501107200E+12,6.37640810284800E+12,4.64695491398400E+12,4.44614399833600E+12,4.19495099769600E+12,6.12696910406400E+12,7.25489707916800E+12,9.21476674814063E+12,1.20115091762213E+13,1.57593685884787E+13,2.01294139455342E+13,2.79519824542944E+13,4.45561270168230E+13,4.01529370382564E+13,3.58873414838416E+13,2.73162922914245E+13,3.58121201833693E+13,4.26397808892677E+13,6.02157773258808E+13,8.34148657955317E+13,6.76156833189720E+13,6.54042928859097E+13,4.85448934317399E+13,
OED,,,,,,,,,,,,,,,,,,,,,,,,,,,,,5.56616801081600E+12,6.38430410284800E+12,4.66579091366400E+12,4.48833799795200E+12,4.24975299628800E+12,6.21546210604800E+12,7.36481607616000E+12,9.31160774814063E+12,1.20998401762213E+13,1.58782918584787E+13,2.02364539455342E+13,2.80761761642944E+13,4.47867593168230E+13,4.02751373482564E+13,3.59888539238416E+13,2.74459358314245E+13,3.60139767533693E+13,4.29126441992677E+13,6.05522410458808E+13,8.38773583955317E+13,6.80001572313741E+13,6.57624420605660E+13,4.91293270470265E+13,
OMN,,,,,,,,,,,,,,,,,,,,,,,,,,,,,,,,,1.02000000000000E+08,1.08000000000000E+08,2.42000000000000E+08,2.11000000000000E+08,5.45000000000000E+08,3.88000000000000E+09,1.94300000000000E+09,5.29340000000000E+08,5.52790000000000E+08,4.42240000000000E+08,5.30730000000000E+08,1.24923000000000E+09,1.78556000000000E+09,3.21286000000000E+09,3.32139519480519E+09,5.42949000000000E+09,8.40046546556042E+09,5.83161489486743E+09,3.42187194556014E+09,
PAK,,,,,,,,,,,,,,,,,,,,,,,,,,,,,1.77000000000000E+08,1.93000000000000E+08,2.31000000000000E+08,6.20000000000000E+08,9.80000000000000E+08,1.84400000000000E+09,3.19800012800000E+09,3.21000000000000E+09,6.05400000000000E+09,1.14760000000000E+10,9.03800000000000E+09,2.10567500000000E+10,3.29737100000000E+10,1.24548400000000E+10,2.60299400000000E+10,6.65980900000000E+10,7.38719100000000E+10,1.40995780000000E+11,1.26559550000000E+11,1.00451630000000E+11,5.43588398883318E+10,2.35268560443939E+10,1.29179904487827E+10,
PAN,,,,,,,,,,,,,,,,,,,,,,,,,,,,,,,,,1.00000000000000E+06,7.00000000000000E+06,7.00000000000000E+07,9.00000000000000E+06,2.40000000000000E+07,5.56000000000000E+07,1.18000000000000E+08,5.17000000000000E+07,1.53600000000000E+08,4.50000000000000E+07,5.89000000000000E+07,4.47000000000000E+07,5.29718660000000E+07,7.48213282300000E+07,1.43845013500000E+08,1.17631000000000E+08,2.56131796750000E+08,5.38060000000000E+07,1.91000000000000E+08,
PER,,,,,,,,,,,,,,,,,,,,,,,,,,,,,5.70000000000000E+07,9.00000000000000E+07,9.90000000000000E+07,1.30000000000000E+08,4.17000000000000E+08,1.67200000000000E+09,3.08000000000000E+09,3.93500000000000E+09,3.80500000000000E+09,4.01500000000000E+09,2.83200000000000E+09,2.28910000000000E+09,1.52092000000000E+09,8.49380000000000E+08,1.13323000000000E+09,8.11570000000000E+08,1.12691000000000E+09,2.01651000000000E+09,4.27566000000000E+09,7.26134000000000E+09,5.11132295286186E+09,3.13597135072227E+09,3.96741902178615E+09,
PHL,,,,,,,,,,,,,,,,,,,,,,,,,,,,,8.75000000000000E+08,2.40999987200000E+09,1.21600000000000E+09,1.48700006400000E+09,3.00899993600000E+09,6.74699980800000E+09,1.49299998720000E+10,1.47270000000000E+10,2.55194700000000E+10,2.03892300000000E+10,1.01199200000000E+10,1.98353384496608E+10,8.19564000000000E+09,3.14796000000000E+09,3.10308000000000E+09,2.63471000000000E+09,3.66421000000000E+09,6.95058000000000E+09,1.12430800000000E+10,2.92510500000000E+10,1.72125423230433E+10,1.71959593341535E+10,2.67753458990534E+10,
PNG,,,,,,,,,,,,,,,,,,,,,,,,,,,,,,,,,,,,,,,,,,4.98991346817434E+05,2.00849949380165E+06,2.14511778010702E+06,3.86096036633507E+06,1.72067764821810E+07,2.47095841472237E+07,,,,1.85774849920000E+07,
POL,,,,,,,,,,,,,,,,,,,,,,,,,,,,,,,,2.80000000000000E+07,1.67000000000000E+08,2.16999987200000E+09,5.13400012800000E+09,2.77000000000000E+09,5.53800000000000E+09,7.95100000000000E+09,8.91800000000000E+09,1.11492100000000E+10,1.46314700000000E+10,7.43215000000000E+09,5.84192000000000E+09,8.49791000000000E+09,1.65687900000000E+10,2.99739500000000E+10,5.50407700000000E+10,8.45681100000000E+10,6.79545875889241E+10,5.57782437112111E+10,7.74638881440680E+10,
PRT,,,,,,,,,,,,,,,,,,,,,,,,,,,,,1.13600000000000E+09,1.91200000000000E+09,1.68700006400000E+09,2.81799987200000E+09,3.45500006400000E+09,4.83499980800000E+09,5.27499980800000E+09,4.23300000000000E+09,7.14700000000000E+09,2.09320000000000E+10,4.75770000000000E+10,4.07960000000000E+10,5.43740000000000E+10,2.72830000000000E+10,2.03340000000000E+10,2.17188291229879E+10,3.76659862610402E+10,4.16362637362637E+10,7.02302071034960E+10,1.44480212362372E+11,8.25523975669310E+10,4.57809389196612E+10,3.12135492806934E+10,
PRY,,,,,,,,,,,,,,,,,,,,,,,,,,,,,,,,,,,,2.20000000000000E+07,3.00000000000000E+07,2.00000000000000E+07,1.50000000000000E+07,1.28461000000000E+07,,5.25846817691478E+06,3.95910055154858E+06,3.27018867924528E+06,3.08409805016765E+06,1.56136455843181E+06,1.70530522589919E+06,,,,2.00000000000000E+07,
QAT,,,,,,,,,,,,,,,,,,,,,,,,,,,,,,,,,,,,,,6.80000000000000E+07,2.66000000000000E+08,3.38000000000000E+08,2.39000000000000E+08,0.00000000000000E+00,0.00000000000000E+00,0.00000000000000E+00,0.00000000000000E+00,2.80559801812275E+10,2.05654400000000E+10,2.99174700000000E+10,4.82146274004098E+10,2.55093203549637E+10,1.83098249934184E+10,
ROM,,,,,,,,,,,,,,,,,,,,,,,,,,,,,,,,,,,3.00000000000000E+06,1.00000000000000E+06,6.00000000000000E+06,2.68000000000000E+08,5.96000000000000E+08,3.16690000000000E+08,2.35730000000000E+08,2.55770000000000E+08,4.03170000000000E+08,4.42490000000000E+08,9.43470000000000E+08,3.39855000000000E+09,4.25986000000000E+09,8.09468000000000E+09,3.67451249592747E+09,1.88458468006580E+09,1.70187079799632E+09,
RUS,,,,,,,,,,,,,,,,,,,,,,,,,,,,,,,,,,,2.68000000000000E+08,4.65000000000000E+08,2.95800000000000E+09,1.62290000000000E+10,1.04950000000000E+10,2.83906000000000E+09,2.03122100000000E+10,2.29081200000000E+10,3.61312900000000E+10,8.10105800000000E+10,1.30837760000000E+11,1.59329950000000E+11,5.14361760000000E+11,7.54536510000000E+11,5.62229865850821E+11,6.82539876599153E+11,7.99687858325214E+11,
SAS,,,,,,,,,,,,,,,,,,,,,,,,,,,,,1.24340004480000E+10,1.75669998720000E+10,2.21939991040000E+10,2.38760007040000E+10,2.18099994240000E+10,2.40229992960000E+10,3.13950011520000E+10,2.55690000000000E+10,1.03068000000000E+11,1.70476542800000E+11,1.58351904000000E+11,3.00905930000000E+11,5.43729102500000E+11,2.62666690000000E+11,2.24151070000000E+11,3.52524783455051E+11,4.54491376343567E+11,5.77082282078187E+11,7.67058602325570E+11,1.21398521363437E+12,1.11473599883352E+12,1.12813103418016E+12,1.08782409855398E+12,
SAU,,,,,,,,,,,,,,,,,,,,,,,,,,,,,,,,2.27399987200000E+09,3.65299993600000E+09,4.62900019200000E+09,6.63200000000000E+09,6.19400000000000E+09,6.77300000000000E+09,1.65490000000000E+10,1.37130000000000E+10,1.48156800000000E+10,1.73132300000000E+10,2.22242500000000E+10,3.56735200000000E+10,1.59058440000000E+11,4.72998720000000E+11,1.10350246000000E+12,1.40302666000000E+12,6.79837030000000E+11,5.24716763900000E+11,3.36976947489495E+11,2.03203552593885E+11,
SGP,,,,,,,,,,,,,,,,,,,,,,,,,,,,,4.47000012800000E+09,1.37109995520000E+10,2.02929991680000E+10,1.80739993600000E+10,1.40839997440000E+10,8.16229990400000E+10,8.10539991040000E+10,6.04610000000000E+10,4.27390000000000E+10,6.39540000000000E+10,5.07350000000000E+10,9.79850000000000E+10,9.14850000000000E+10,6.33850000000000E+10,5.61290000000000E+10,8.78637038032330E+10,8.13138782624344E+10,1.19820733438963E+11,1.84379747897920E+11,3.84226789000000E+11,2.70904093874430E+11,2.52265523044713E+11,2.82142137835962E+11,
SLV,,,,,,,,,,,,,,,,,,,,,,,,,,,,,,,,,,,,,1.00000000000000E+07,1.50000000000000E+07,1.80000000000000E+07,4.79383000000000E+07,2.55100000000000E+07,2.32500000000000E+07,2.39600000000000E+07,1.02500000000000E+07,4.95130000000000E+08,7.30000000000000E+07,1.68370000000000E+08,,,,,
SRB,,,,,,,,,,,,,,,,,,,,,,,,,,,,,,,,,,,,,,,1.26643002028000E+07,2.68691507798960E+07,4.85594315245478E+06,9.43886226619261E+05,1.10998262243286E+08,5.35720101754310E+08,4.42683459646896E+08,6.66320992739164E+08,1.33993246283791E+09,2.55070653943157E+09,1.24849270000000E+09,5.62127800000000E+08,2.37000000000000E+08,
SSA,,,,,,,,,,,,,,,,,,,,,,,,,,,,,,,,,,,1.60860000640000E+10,1.74243802660000E+10,2.77875000000000E+10,4.57981565414606E+10,5.90587027661686E+10,7.36281010810219E+10,7.83199241362500E+10,7.20187464575803E+10,8.19906857897902E+10,1.05516675858732E+11,1.65284002530104E+11,2.03832964284379E+11,3.18636731879738E+11,,,,3.48455286581545E+11,
SSF,,,,,,,,,,,,,,,,,,,,,,,,,,,,,,,,,,,1.60860000640000E+10,1.74243802660000E+10,2.77875000000000E+10,4.57981565414606E+10,5.90587027661686E+10,7.36281010810219E+10,7.83199241362500E+10,7.20187464575803E+10,8.19906857897902E+10,1.05516675858732E+11,1.65284002530104E+11,2.03832964284379E+11,3.18636731879738E+11,,,,,
SVK,,,,,,,,,,,,,,,,,,,,,,,,,,,,,,,,,,,1.20000000000000E+08,8.32000000000000E+08,2.32100000000000E+09,2.15500000000000E+09,1.03200000000000E+09,4.73680000000000E+08,8.95510000000000E+08,9.65530000000000E+08,7.89050000000000E+08,6.64380000000000E+08,6.55240000000000E+08,6.90600000000000E+07,8.96300000000000E+07,3.00000000000000E+07,2.24728630991517E+07,1.75108053331348E+08,1.73665277260026E+08,
SVN,,,,,,,,,,,,,,,,,,,,,,,,,,,,,,,,,,,,3.45000000000000E+08,4.01000000000000E+08,3.51000000000000E+08,7.02000000000000E+08,7.32720000000000E+08,4.64950000000000E+08,7.93750000000000E+08,1.00347000000000E+09,7.31560000000000E+08,1.16989000000000E+09,7.88130000000000E+08,1.01902000000000E+09,2.71336000000000E+09,1.40793552978354E+09,1.02061119894841E+09,2.72096897905326E+08,
SWE,,,,,,,,,,,,,,,,,,,,,,,,,,,,,1.87520000000000E+10,1.74199992320000E+10,1.75710003200000E+10,2.16619991040000E+10,2.83949998080000E+10,4.35929989120000E+10,8.54069985280000E+10,9.31970000000000E+10,1.36898000000000E+11,1.76172000000000E+11,2.03690000000000E+11,2.38237000000000E+11,3.90035000000000E+11,3.01586000000000E+11,2.18520000000000E+11,2.63807020810942E+11,4.12430510513041E+11,4.63952416830923E+11,6.77122259451246E+11,9.68832141116090E+11,6.41751158055710E+11,3.90323979651511E+11,4.39604559339423E+11,
SWZ,,,,,,,,,,,,,,,,,,,,,,,,,,,,,,,,,,,2.00000000000000E+06,3.80266000000000E+05,2.00000000000000E+06,2.26594000000000E+05,2.28700000000000E+05,1.51300000000000E+05,2.30000000000000E+05,1.00000000000000E+07,1.81904000000000E+05,5.20420000000000E+04,4.00635060567473E+04,2.89744527519777E+04,6.07209004874937E+04,,,,,
THA,,,,,,,,,,,,,,,,,,,,,,,,,,,,,5.59800012800000E+09,1.34520002560000E+10,2.28940001280000E+10,3.00890009600000E+10,7.20600023040000E+10,8.69340037120000E+10,8.01879982080000E+10,5.70000000000000E+10,4.43650000000000E+10,2.42060000000000E+10,2.16180000000000E+10,4.16043100000000E+10,2.32581800000000E+10,3.57049700000000E+10,4.76123000000000E+10,9.65732500000000E+10,1.09111560000000E+11,8.92895700000000E+10,1.00796764550257E+11,1.08210460000000E+11,1.16768644072716E+11,1.34938895330204E+11,2.17948529493292E+11,
TTO,,,,,,,,,,,,,,,,,,,,,,,,,,,,,1.50000000000000E+07,3.50000000000000E+07,5.50000000000000E+07,8.00000000000000E+07,2.20000000000000E+07,5.60000000000000E+07,5.20000000000000E+07,1.37000000000000E+08,1.07000000000000E+08,1.34000000000000E+08,1.77000000000000E+08,9.30000000000000E+07,1.35800000000000E+08,1.73990000000000E+08,1.72150000000000E+08,4.03850000000000E+08,5.30620000000000E+08,6.31120000000000E+08,4.15380000000000E+08,3.51480000000000E+08,3.54380509032533E+08,2.34288793336705E+08,1.36199092990811E+08,
TUN,,,,,,,,,,,,,,,,,,,,,,,,,,,,,1.30000000000000E+07,3.20000000000000E+07,1.90000000000000E+07,3.00000000000000E+07,3.30000000000000E+07,4.60000000000000E+07,2.96000000000000E+08,6.63000000000000E+08,2.81000000000000E+08,2.60000000000000E+08,1.88000000000000E+08,4.20480000000000E+08,6.25700000000000E+08,3.16270000000000E+08,2.21160000000000E+08,1.64040000000000E+08,2.26080000000000E+08,4.55070000000000E+08,5.21990000000000E+08,6.52300000000000E+08,1.49443873987718E+09,1.25728529234826E+09,1.69974514125242E+09,
TUR,,,,,,,,,,,,,,,,,,,,,,,,,,,,,1.01000000000000E+08,7.98000000000000E+08,5.84099993600000E+09,8.57099980800000E+09,8.19100006400000E+09,2.32420003840000E+10,2.16920002560000E+10,5.13920000000000E+10,3.68310000000000E+10,5.91052700000000E+10,6.84590000000000E+10,8.12774600000000E+10,1.79209160000000E+11,7.79371900000000E+10,7.06666800000000E+10,9.96106600000000E+10,1.47426380000000E+11,2.01258140000000E+11,2.27615110000000E+11,3.02401900000000E+11,2.39713337154691E+11,2.43525138651795E+11,4.21589602761917E+11,
TZA,,,,,,,,,,,,,,,,,,,,,,,,,,,,,,,,,,,,,,,3.00000000000000E+05,7.00000000000000E+06,4.01141362500000E+07,8.00000000000000E+06,1.90000000000000E+07,1.97581154614423E+07,1.67081649189563E+07,1.44005985632419E+07,1.18610698245005E+07,,,,2.60000000000000E+07,
UGA,,,,,,,,,,,,,,,,,,,,,,,,,,,,,,,,,,,,,,,,,,1.96457580300000E+05,7.03885790200000E+05,1.74034532800000E+05,1.64100394900000E+05,3.11714487980000E+06,5.73342073100000E+06,,,,,
UKR,,,,,,,,,,,,,,,,,,,,,,,,,,,,,,,,,,,,,,,9.30000000000000E+07,1.24000000000000E+08,2.88180000000000E+08,2.25900000000000E+08,1.26740000000000E+08,1.05590000000000E+08,2.00700000000000E+08,6.59820000000000E+08,1.19887000000000E+09,2.01679000000000E+09,2.53603205563575E+09,5.90538208091527E+08,2.10287484352676E+09,
UMC,,,,,,,,,,,,,,,,,,,,,,,,,,,,,,,,1.19368000448000E+11,2.21637001728000E+11,4.59749001216000E+11,5.58838995968000E+11,3.90108000000000E+11,7.18974905400000E+11,9.68575578314286E+11,6.84625664666870E+11,7.70553405686277E+11,1.24513517834315E+12,7.94722542756989E+11,6.81829374705713E+11,1.01426299576766E+12,1.54044321500105E+12,1.57958307859193E+12,3.28369429814052E+12,1.03591739435064E+13,7.83726648202572E+12,1.12579791518701E+13,1.10290510882925E+13,
URY,,,,,,,,,,,,,,,,,,,,,,,,,,,,,,,,,,1.40000000000000E+07,1.20000000000000E+07,5.00000000000000E+06,4.00000000000000E+06,3.00000000000000E+06,4.00000000000000E+06,1.65410000000000E+06,,1.00000000000000E+06,0.00000000000000E+00,5.64147938417979E+05,4.73855203876526E+05,1.01615846721884E+06,1.77531356048177E+06,1.70000000000000E+07,,,4.13512617001203E+06,
USA,,,,,,,,,,,,,,,,,,,,,,,,,,,,,1.71973096243200E+12,2.01554395136000E+12,1.75125194342400E+12,2.18390999859200E+12,2.08165797888000E+12,3.35496111718400E+12,3.56431508275200E+12,5.10859100000000E+12,7.12148700000000E+12,1.02160740000000E+13,1.31484800000000E+13,1.85741000000000E+13,3.18624852245220E+13,2.90407390000000E+13,2.53712700000000E+13,1.55474311283893E+13,1.93548986881351E+13,2.15099794453151E+13,3.32676425772230E+13,4.26132062451550E+13,3.64674311000000E+13,4.67359347000000E+13,3.04547980000000E+13,
UZB,,,,,,,,,,,,,,,,,,,,,,,,,,,,,,,,,,,,,7.00000000000000E+07,4.30000000000000E+07,,3.68800000000000E+07,1.93700000000000E+07,1.20000000000000E+07,1.83000000000000E+07,2.46059612722555E+07,4.33230000000000E+06,3.80297000000000E+07,2.22625000000000E+07,9.01525780755749E+07,8.48860000000000E+07,8.69430000000000E+06,3.90000000000000E+07,
VEN,,,,,,,,,,,,,,,,,,,,,,,,,,,,,2.21000000000000E+08,9.30000000000000E+07,2.23200000000000E+09,3.24000000000000E+09,2.63100006400000E+09,1.87400000000000E+09,9.36000000000000E+08,5.10000000000000E+08,1.27500000000000E+09,3.85772000000000E+09,1.53200000000000E+09,7.70000000000000E+08,6.85720000000000E+08,3.94240000000000E+08,1.06440000000000E+08,1.47450000000000E+08,4.51890000000000E+08,2.49250000000000E+08,6.66410000000000E+08,,,6.20000000000000E+07,5.20000000000000E+07,
VNM,,,,,,,,,,,,,,,,,,,,,,,,,,,,,,,,,,,,,,,,,,,,1.61718337145250E+07,6.27397546681522E+07,8.78685578628460E+07,1.06993947559847E+09,1.25832600000000E+10,4.19521555417730E+09,6.65071821073681E+09,2.93974106063355E+10,
WBG,,,,,,,,,,,,,,,,,,,,,,,,,,,,,,,,,,,,,,2.50000000000000E+07,6.90000000000000E+07,1.50190000000000E+08,1.89006342494715E+08,7.50000000000000E+07,4.51000000000000E+07,5.98128804139129E+07,2.00514844507319E+08,2.09622840296948E+09,1.06736795146685E+09,8.13469100000000E+08,1.19520420000000E+09,5.00000000000000E+08,4.51000000000000E+08,
WLD,,,,,,,,,,,,,,,,,,,,,,,,,,,,,5.91814001452800E+12,7.46799711251200E+12,5.51470588025600E+12,5.01842999513600E+12,4.78284199590400E+12,7.19450010342400E+12,8.82253011155200E+12,1.02267181285986E+13,1.36013575416213E+13,1.88704952836927E+13,2.21744376331439E+13,3.03605935624827E+13,4.78664773255944E+13,4.20735879298590E+13,3.77749894296020E+13,2.98463093389132E+13,3.94603332031430E+13,4.73859728077847E+13,6.74853591877305E+13,9.88163048950939E+13,8.05168220194447E+13,8.13337719130138E+13,6.39747081125022E+13,
ZAF,,,,,,,,,,,,,,,,,,,,,,,,,,,,,4.94699980800000E+09,7.09500006400000E+09,8.15800012800000E+09,8.05099980800000E+09,7.76700006400000E+09,1.30489999360000E+10,1.56070000640000E+10,1.70480000000000E+10,2.72020000000000E+10,4.47220000000000E+10,5.83470000000000E+10,7.29165600000000E+10,7.74940200000000E+10,6.96758800000000E+10,7.88310000000000E+10,1.02808020000000E+11,1.62831760000000E+11,2.00717980000000E+11,3.12439210000000E+11,4.25747170000000E+11,4.01493248703072E+11,3.42502170085474E+11,3.40025000000000E+11,
ZMB,,,,,,,,,,,,,,,,,,,,,,,,,,,,,,,,,,,,,3.00000000000000E+06,7.92994746059544E+06,2.67406616860000E+06,1.20397810218978E+07,8.00000000000000E+06,5.30000000000000E+07,2.00000000000000E+06,1.08667736263736E+07,6.65598733042733E+06,1.41156493287868E+07,2.29075681558813E+07,7.19487787225537E+07,,,1.26924135835755E+08,
ZWE,,,,,,,,,,,,,,,,,,,,,,,,,,,,,3.90000000000000E+07,3.60000000000000E+07,5.10000000000000E+07,7.70000000000000E+07,2.00000000000000E+07,5.30000000000000E+07,1.76000000000000E+08,1.50000000000000E+08,2.55000000000000E+08,5.39000000000000E+08,1.86000000000000E+08,2.26900000000000E+08,2.79130000000000E+08,1.52961000000000E+09,2.48507000000000E+09,1.34470000000000E+09,1.35730000000000E+08,3.31640000000000E+08,8.96750000000000E+08,8.12370000000000E+08,,,1.14441560124707E+09,
