"Country Code",1960,1961,1962,1963,1964,1965,1966,1967,1968,1969,1970,1971,1972,1973,1974,1975,1976,1977,1978,1979,1980,1981,1982,1983,1984,1985,1986,1987,1988,1989,1990,1991,1992,1993,1994,1995,1996,1997,1998,1999,2000,2001,2002,2003,2004,2005,2006,2007,2008,2009,2010,2011AGO,,,,,,,,,,,,,,,,,,,,,,,,,,,,,,,-2.72502862026368E+01,-3.35725403968291E+01,-1.34910775060548E+02,-1.04825184282315E+02,-1.37067553752887E+02,,4.32495749031329E+01,-3.68845375746086E+01,-3.31881106593902E+01,-5.62681658664985E+01,-3.25211119080478E+01,-5.13733056306137E+01,-3.44241037051037E+01,-3.63403793694764E+01,-3.64325739338691E+01,-3.41099367733821E+01,-1.83840974965036E+01,-2.36664103390953E+01,-3.90234197719851E+01,-2.91640776271977E+01,,
ALB,,,,,,,,,,,,,,,,,,,,,,,,,,,,,,,,,,,1.78116973438588E-01,1.24254157626157E+01,1.05210557454118E+01,-2.45863929624681E+00,5.99253152533409E+00,7.58366685819475E+00,1.47185011736138E+01,1.78732851039158E+01,6.22709504302969E+00,7.10098147840703E+00,9.93806649142094E+00,7.94659901407411E+00,8.05700399134459E+00,5.63908428606533E+00,3.28154884145775E+00,8.16835708590323E+00,,
ARB,,,,,,,,,,,,,,,,,,,,,,,,,,,,,,,-2.20560562640741E+00,-1.64435550666639E+01,,,,,,,,,,,2.33108482917229E+00,2.80123023728800E+00,1.36521185265531E+00,5.32865581441069E-01,3.15553445859647E+00,4.02368918930309E+00,7.55084901018592E-01,,,
ARG,,,,,,,,,,,,,,,,,,,,,,,,,,,,,,,1.42268063206925E+00,3.54464512513902E-01,1.51138796296422E+00,3.67044038822749E+00,4.24880424721035E+00,4.05566784193860E+00,2.84966225110282E+00,2.56642184932986E+00,4.02688061608508E+00,2.71918869220193E+00,8.21221212274288E-01,1.20975920146255E+00,5.07390382007199E+00,4.02829182882747E+00,3.82567782454062E+00,5.46459951947362E+00,9.10714299353376E+00,1.07084834627969E+01,7.82624581156074E+00,1.05751317902162E+01,,
ARM,,,,,,,,,,,,,,,,,,,,,,,,,,,,,,,,,,-1.62508550423789E+01,-1.84048554771424E+01,-2.44774640951376E+01,-1.49663011913927E+01,-1.54496660870327E+01,-1.67477671473790E+01,-1.32957636468788E+01,-1.16866067728548E+01,-5.34083155844065E+00,-3.13005041396234E-01,2.50869635714895E+00,1.09102903750896E+01,1.55963674045931E+01,2.10175732225682E+01,1.86414866262779E+01,1.80726138264829E+01,9.56261602124317E+00,,
AUS,,,,,,,,,,,,,,,,,,,,,,,,,,,,,,,7.35569515857079E+00,4.38033637759358E+00,3.40735600473155E+00,4.20461476549429E+00,4.91597128291641E+00,4.40104506775216E+00,4.77334513679890E+00,5.94291687555176E+00,5.88614517729483E+00,5.55086102448757E+00,4.70891133715796E+00,4.28332985095008E+00,5.21436399035482E+00,4.86305756675977E+00,4.89742094975261E+00,2.94858269392567E+00,3.25103700888917E+00,2.88109406399472E+00,1.65189223371452E+00,,,
AUT,,,,,,,,,,,,,,,,,,,,,,,,,,,,,,,1.46595771191132E+01,1.37959684787944E+01,1.24689270830767E+01,1.21765227742237E+01,1.16575019745470E+01,1.21509323820035E+01,1.18940615199979E+01,1.26894065522904E+01,1.39622271570903E+01,1.40633323752105E+01,1.43729000145968E+01,1.29490990081534E+01,1.47054293926196E+01,1.44958530606453E+01,1.46995085318624E+01,1.44795324136589E+01,1.56054192755480E+01,1.70856737850012E+01,1.66477270944248E+01,1.49970102460911E+01,,
AZE,,,,,,,,,,,,,,,,,,,,,,,,,,,,,,,,,,,,-2.77295079227780E+01,-4.39478776207700E+01,-2.25963972269780E+01,-2.40846198470391E+01,-2.13438343479865E+01,-3.73521632863546E+01,-2.59644014572530E+01,-1.34858676610957E+01,-1.17771914688340E+01,-1.22947039592625E+01,-8.19627825154550E+00,-5.30029170949766E+00,-2.20607814322714E+00,1.36627329126603E+00,5.44328903477390E+00,,
BDI,,,,,,,,,,,,,,,,,,,,,,,,,,,,,,,2.96634929318499E+00,4.14213671804668E+00,-2.79770412458910E+00,3.83830539940697E+00,-3.03810163983558E+00,-3.24107425945926E+00,-7.26497721919394E+00,-3.66093322616242E+00,-1.00084180960894E+01,-7.19077356246077E+00,-6.76186009573405E+00,-1.23925396718478E+01,-7.95443266123995E+00,-7.48507965086014E+00,-6.51331781999928E+00,-7.26709320875732E+00,-6.77232611107720E+00,,,,,
BEL,,,,,,,,,,,,,,,,,,,,,,,,,,,,,,,1.77130885974154E+01,1.65321953678107E+01,1.70903112420717E+01,1.80061791872380E+01,1.92776924188860E+01,1.71294409182904E+01,1.58692263350941E+01,1.71362310431574E+01,1.69934784824968E+01,1.75372376369121E+01,1.79975796381004E+01,1.63655696770487E+01,1.15262132263969E+01,1.11685214567808E+01,1.48289581721353E+01,1.43857245586589E+01,1.47885647650302E+01,1.55462804392565E+01,1.25988088755924E+01,1.32184748429482E+01,,
BEN,,,,,,,,,,,,,,,,,,,,,,,,,,,,,,,-1.74489950442830E+00,1.10743964071361E+00,6.09063747639350E-01,-1.19109380987524E+00,3.81019768947344E+00,3.02469604511759E+00,-2.67563484896138E+00,6.37807887569716E-01,2.76852924204450E+00,1.66419710271695E+00,3.14772006376580E+00,6.61582837092349E+00,2.13498576257091E+00,4.17454522315623E-01,9.84774885698752E-01,4.60926343837981E+00,3.89496147426253E+00,2.33833579499214E+00,4.06466588753272E+00,,,
BFA,,,,,,,,,,,,,,,,,,,,,,,,,,,,,,,9.64645283887075E+00,1.17889030950428E+01,1.72569675806392E+01,1.47308774244512E+01,2.29515809215923E+01,,,,,,-1.07176621074280E+00,-2.76043501144658E+00,8.36673382546650E-01,3.02761965301733E+00,-1.33268480555315E+00,4.33084138026646E+00,2.27643682170264E+00,,,,,
BGD,,,,,,,,,,,,,,,,,,,,,,,,,,,,,,,6.88419648768259E+00,9.17710945188017E+00,1.08440735486481E+01,1.12008920451976E+01,1.22148894531860E+01,1.13580103598276E+01,9.76445610675906E+00,1.25806080268904E+01,1.48876597588991E+01,1.58968135005840E+01,1.59142249913868E+01,1.51123727798907E+01,1.87526217343338E+01,1.88419569883294E+01,2.01311790267874E+01,2.02621327796965E+01,2.30682275028932E+01,2.39709886628273E+01,2.31494238071691E+01,2.70895824355679E+01,,
BGR,,,,,,,,,,,,,,,,,,,,,,,,,,,,,,,5.29712825554617E+00,3.23483793911271E+00,3.53110220604562E-02,-8.19803464203284E+00,-3.48141908168494E+00,5.18247175551048E+00,-4.54319523343284E+00,4.64163014509496E+00,4.85180338188747E+00,1.70219420069020E+00,7.17140941244041E-01,2.54389441404142E+00,4.47292850089871E+00,4.68428777958228E+00,2.48234170278186E+00,3.98725164809682E+00,1.89505022407041E+00,-3.65652235120891E+00,3.85023135736946E+00,6.09608900478181E+00,,
BHR,,,,,,,,,,,,,,,,,,,,,,,,,,,,,,,-2.49061657036174E+01,-1.30467472333050E+01,-1.64339709367248E+01,-1.71416609258599E+01,-9.22710325155882E+00,-6.96748923180385E+00,-9.11776976627888E+00,-9.67558863362916E+00,-1.41653965806857E+01,-1.69123420878971E+01,-9.47287564681831E+00,-1.31106759281617E+01,-1.96734365840594E-01,5.16908838782552E-01,5.65962168149871E+00,6.95752754654724E+00,9.42082998803580E+00,1.44337482312677E+01,1.06270939388121E+01,,,
BHS,,,,,,,,,,,,,,,,,,,,,,,,,,,,,,,,1.87575557029597E+01,2.23071003955935E+01,1.79756956823997E+01,1.69211095851740E+01,1.58819948798295E+01,1.51592163452396E+01,1.83284762086987E+01,1.82700744011515E+01,2.49177533349382E+01,2.29018986258035E+01,1.85801150806075E+01,2.28288415870521E+01,2.07670980641236E+01,,,,,,,,
BLR,,,,,,,,,,,,,,,,,,,,,,,,,,,,,,,,,,1.79547174464194E+01,1.30490274933377E+01,1.28864236082338E+01,1.20106492705069E+01,1.29440913774107E+01,1.47222889614835E+01,1.39179233301891E+01,1.38108541169212E+01,1.22900034423396E+01,1.14766213459827E+01,1.41205488627435E+01,1.53858488685729E+01,2.22528088652551E+01,2.07854110992319E+01,1.92425434189590E+01,2.05574658780993E+01,1.68858711333785E+01,,
BLZ,,,,,,,,,,,,,,,,,,,,,,,,,,,,,,,3.34487327906811E+01,2.02630620383797E+01,2.48501799053223E+01,2.68372346464188E+01,2.01950400680841E+01,2.30349407714926E+01,2.17189186285370E+01,1.95658651341524E+01,1.63862197828005E+01,1.12821667653502E+01,6.56729390743529E+00,-4.38573711232858E+00,-1.13917434509296E+00,-5.33987503577157E+00,-3.86909708455904E+00,-1.35568816968538E+00,8.61086293170105E+00,7.53852229720672E+00,9.17803563682699E+00,,,
BOL,,,,,,,,,,,,,,,,,,,,,,,,,,,,,,,-3.22677890241447E+00,-1.72403604106868E+00,-1.72033957746109E+00,-2.72057573588570E+00,1.01223072228503E+00,1.86067182187137E+00,2.46770135939437E+00,2.83646570842121E+00,4.45164501479056E+00,2.51066328995777E+00,-6.30669886750151E-01,-6.60872204916637E-01,1.96954903343048E+00,1.88020581827733E+00,-1.64956872829173E+00,1.18010105934060E+01,1.09540264056390E+01,4.00711436972171E-01,-3.01412113732109E+00,6.24093614639387E+00,,
BRA,,,,,,,,,,,,,,,,,,,,,,,,,,,,,,,1.13099241562834E+01,1.11681580427673E+01,1.26916132214883E+01,1.29197512965859E+01,1.39169908067589E+01,7.80451058242400E+00,5.63817669534502E+00,5.09745142663826E+00,5.38011233092204E+00,3.16776159829008E+00,4.42944229439647E+00,3.97574407670147E+00,4.81195522594506E+00,5.92937314584363E+00,8.17438799250178E+00,7.07582057592348E+00,7.18255186145613E+00,7.78452470949166E+00,7.26059432740709E+00,4.56593524368219E+00,,
BRN,,,,,,,,,,,,,,,,,,,,,,,,,,,,,,,,,,,,,,,,,,-3.83662190020198E-01,5.45773556120527E+00,-7.27079483171459E-01,-1.23862747721117E+00,-6.44952294670860E+00,-1.76468411655043E+00,,,,,
BWA,,,,,,,,,,,,,,,,,,,,,,,,,,,,,,,3.66177814737101E+01,3.81368923781753E+01,3.27507136989940E+01,3.43603545311641E+01,2.64476197293450E+01,2.78965260144736E+01,3.41073783215545E+01,3.82931012970058E+01,3.86681998837997E+01,3.09694469661896E+01,3.70097231863272E+01,3.12641840489210E+01,2.72153010142162E+01,3.08558385176488E+01,3.00929841053985E+01,3.82784855865321E+01,3.45131849277066E+01,2.90479756170745E+01,2.64881486043144E+01,9.60672775163644E+00,,
CAF,,,,,,,,,,,,,,,,,,,,,,,,,,,,,,,-6.49236401313886E-02,1.86962917988203E+00,3.42881380366572E-01,3.29370186114379E+00,5.40284876353547E+00,,,,,,,,,,,,,,,,,
CAN,,,,,,,,,,,,,,,,,,,,,,,,,,,,,,,9.85816563117118E+00,7.66783011309287E+00,6.58586959238252E+00,6.40193624046294E+00,8.30996271645289E+00,1.01943216409433E+01,9.83388413645566E+00,1.08096048992779E+01,1.00777466453104E+01,1.21701780788209E+01,1.31654020269063E+01,1.10391472895811E+01,1.04424745054748E+01,9.88534230776961E+00,1.14388948647364E+01,1.06557025920842E+01,1.15466450036682E+01,1.11163300456512E+01,9.49623909444677E+00,5.81805289118800E+00,,
CHE,,,,,,,,,,,,,,,,,,,,,,,,,,,,,,,1.86607710565794E+01,1.66981525533129E+01,1.47546100370921E+01,1.56384968500077E+01,1.61681857299965E+01,1.67812253766179E+01,1.61879366846720E+01,1.79706025828587E+01,1.87072544964707E+01,1.84783531978255E+01,2.00332687084712E+01,1.58381081611152E+01,1.51273481127479E+01,1.88301365821224E+01,1.92108958521836E+01,2.00615273840682E+01,2.12271583803171E+01,1.82827324047817E+01,1.35440809802796E+01,2.16183315595386E+01,,
CHL,,,,,,,,,,,,,,,,,,,,,,,,,,,,,,,2.79919618335341E+00,3.75408625418393E+00,5.63338108574995E+00,6.60294528175024E+00,7.19753324790025E+00,9.88846450261187E+00,8.16367655912585E+00,8.79053984371181E+00,8.68261100473998E+00,6.35881303286629E+00,5.40353198336535E+00,6.02129303348664E+00,6.30490147162936E+00,5.74284162806125E+00,5.54926131137652E+00,6.54908386884235E+00,3.38059030140875E+00,3.49913128567974E+00,1.26978507284748E+00,3.18952332959055E+00,,
CHN,,,,,,,,,,,,,,,,,,,,,,,,,,,,,,,1.97980951677020E+01,2.08565398457446E+01,2.18796403277684E+01,2.47251120608037E+01,3.09843276661861E+01,2.98626141298460E+01,2.90174697308766E+01,2.99545096352320E+01,2.96023336674402E+01,2.72855376328655E+01,2.46545482388387E+01,2.54021508127036E+01,2.83528005785861E+01,3.19130475999606E+01,3.25026282230985E+01,3.52017182536884E+01,3.78785285774274E+01,3.76310857970688E+01,3.64469533430644E+01,3.96855565363503E+01,,
CIV,,,,,,,,,,,,,,,,,,,,,,,,,,,,,,,-1.03157378946430E+01,-8.28655325999810E+00,-6.03759209522455E+00,-4.29996608550077E+00,1.06814983828613E+01,6.92343816117624E+00,8.92771926741644E+00,1.22479978843837E+01,9.13445292729809E+00,1.01510561629764E+01,4.63495066031899E+00,3.80824746593237E+00,1.07537447991102E+01,5.42964453003622E+00,4.83609164501205E+00,1.18001570849689E+00,1.47898920195839E+00,-1.29543537347324E+00,1.92971966069413E+00,7.32009403957454E+00,,
CMR,,,,,,,,,,,,,,,,,,,,,,,,,,,,,,,3.89732174180010E+00,4.39667281768901E+00,-4.99644674933367E-01,-1.70991089720757E+00,1.83813495352151E-01,2.89232377916679E+00,2.29620803024722E+00,5.00876802187719E-01,5.71884450202165E+00,5.36569578807605E+00,9.75666885890948E-01,2.47467720970517E+00,1.73516517893278E+00,3.76985507201182E+00,5.47102745798269E+00,5.06568571493144E+00,5.99265073102502E+00,6.81601409664415E+00,,,,
COG,,,,,,,,,,,,,,,,,,,,,,,,,,,,,,,-3.54693506411538E+01,-3.55532618367030E+01,-2.27753406762131E+01,-3.85345999958934E+01,-3.51040146200723E+01,-6.66082835981885E+01,-8.01320058019040E+01,-5.22807835552473E+01,-3.97263635723841E+01,-5.04799874578419E+01,-3.83320432013882E+01,-4.33002974079897E+01,-3.29866061761729E+01,-5.18069834133001E+01,-3.82365351879404E+01,-5.41200440423885E+01,-7.66948928101348E+01,-4.46621724835370E+01,,,,
COL,,,,,,,,,,,,,,,,,,,,,,,,,,,,,,,7.44721602614598E+00,1.02265429849229E+01,7.30186597784586E+00,6.93581879138633E+00,9.32556105986074E+00,7.86493571284454E+00,3.74145782472296E+00,2.24655370170731E+00,2.54042977535541E+00,1.48574471708022E+00,2.48848458847354E-01,8.70507516819433E-01,1.88920088848292E+00,2.45375037326442E+00,3.73413411323588E+00,4.14049448133313E+00,4.01828359085897E+00,3.40869166830243E+00,1.25047076376639E+00,5.41804523909801E+00,,
COM,,,,,,,,,,,,,,,,,,,,,,,,,,,,,,,9.23427728177947E+00,6.36929509010398E+00,9.83677424677417E+00,1.75224636670640E+01,1.22240045371833E+01,5.32174802154062E+00,,,,,,,,,,,,,,,,
CRI,,,,,,,,,,,,,,,,,,,,,,,,,,,,,,,9.95629027692524E+00,1.16757899551156E+01,1.32405819057186E+01,1.15702191468600E+01,1.28712767047228E+01,1.30822025409028E+01,1.10773731949872E+01,1.21092290662454E+01,1.47728780175402E+01,1.20871596608026E+01,1.15773273405234E+01,1.27299930646699E+01,1.27846602032795E+01,1.40591199278551E+01,1.47498871282550E+01,1.40885518519075E+01,1.64692311524875E+01,1.66343093642407E+01,2.54528048359862E+01,1.51679608611865E+01,,
CYP,,,,,,,,,,,,,,,,,,,,,,,,,,,,,,,1.58311432518698E+01,1.01545573740957E+01,1.14474456879936E+01,1.78246172660370E+01,1.90583441623160E+01,1.31306122743038E+01,9.93239873629410E+00,8.02430905657908E+00,1.71555730379589E+01,7.85830350108924E+00,6.43130294910271E+00,5.93682327551981E+00,7.10420346234054E+00,8.18115492966387E+00,7.66262468643068E+00,6.70333427403508E+00,6.28329342726003E+00,3.02795767639266E+00,4.27112294300191E-01,,,
CZE,,,,,,,,,,,,,,,,,,,,,,,,,,,,,,,,,,5.85724776223643E+00,4.32692763114059E+00,1.20960122826620E+01,1.08996386795144E+01,6.96177373566707E+00,8.54343221117644E+00,6.75100305916757E+00,6.48315273714890E+00,6.55763251835592E+00,6.16735796889120E+00,4.78196328072593E+00,6.39605444115195E+00,9.38185601916857E+00,1.04606548653578E+01,1.04978007028298E+01,8.15234173041553E+00,1.13342500969034E+01,,
DEU,,,,,,,,,,,,,,,,,,,,,,,,,,,,,,,,,,9.74761309164452E+00,9.56372125901659E+00,9.79631383604003E+00,9.38205900017862E+00,9.37099365084379E+00,9.75854438172214E+00,9.26881658407942E+00,8.74486143959574E+00,8.09223224972566E+00,8.24151282571269E+00,8.45562619646717E+00,1.09888687895525E+01,1.09134637396870E+01,1.31709854200217E+01,1.48630554713672E+01,1.40527659258155E+01,1.13919344856100E+01,,
DJI,,,,,,,,,,,,,,,,,,,,,,,,,,,,,,,,6.56311799874604E+00,,,,,,,,,,,,,,,,,,,,
DMA,,,,,,,,,,,,,,,,,,,,,,,,,,,,,,,,,,,,,,,,,,,-5.98047330696974E+00,,-1.20065857579786E+00,,,,,,,
DNK,,,,,,,,,,,,,,,,,,,,,,,,,,,,,,,1.23854948147846E+01,1.09331082110720E+01,1.20911895900846E+01,1.16550557820332E+01,1.15026117583991E+01,1.27420350582969E+01,1.27784741628203E+01,1.31960877465341E+01,1.30123523596811E+01,1.33519457568366E+01,1.32277393008947E+01,1.40925965569982E+01,1.33561453317340E+01,1.33013693641336E+01,1.35916089242221E+01,1.44828031691115E+01,1.47322257033339E+01,1.39306186872340E+01,1.25719181761478E+01,1.06954409604015E+01,,
DOM,,,,,,,,,,,,,,,,,,,,,,,,,,,,,,,9.25472682914852E+00,9.39615009478251E+00,7.55057591688179E+00,1.11272579366991E+01,1.36345074562602E+01,1.20168792918022E+01,1.44346418527271E+01,8.26566417733112E+00,1.24379327724088E+01,1.08588198723477E+01,8.63122798699013E+00,8.28114621522752E+00,7.95095716836965E+00,9.44597117104134E+00,8.78346391275161E+00,3.49141774134653E+00,3.31328410403855E+00,1.25723528260581E+00,-1.70732245195998E+00,3.80303403023315E-01,,
DZA,,,,,,,,,,,,,,,,,,,,,,,,,,,,,,,1.29540418016588E+01,1.99196606701707E+01,,,,,,,,,,,,,,,,,,,,
EAP,,,,,,,,,,,,,,,,,,,,,,,,,,,,,,,2.03465464202211E+01,2.07513763666426E+01,2.17011840430349E+01,2.48734150190621E+01,2.90096800046373E+01,2.74432053282819E+01,2.64447003973974E+01,2.69159905268375E+01,2.61639913134591E+01,2.42054359745887E+01,2.27332923607311E+01,2.25502507086649E+01,2.41146658592800E+01,2.74621079446610E+01,2.73429110783926E+01,2.83723628314283E+01,3.07897313462655E+01,3.09873850510165E+01,2.92772539823923E+01,3.31087822405756E+01,,
EAS,,,,,,,,,,,,,,,,,,,,,,,,,,,,,,,2.10481032080896E+01,2.07178260104631E+01,1.93891219603570E+01,1.90360313486296E+01,1.86784167074520E+01,1.77413072410955E+01,1.72789385862698E+01,1.76174148197363E+01,1.61188552632275E+01,1.43729950265807E+01,1.41676412210905E+01,1.30705852861019E+01,1.29617256108017E+01,1.37850510627242E+01,1.41521881761870E+01,1.45831644806928E+01,1.54181041290014E+01,1.61246179506153E+01,1.64194202844605E+01,1.65542299826320E+01,,
ECA,,,,,,,,,,,,,,,,,,,,,,,,,,,,,,,,,,,,2.18727540363598E-01,1.43639984047683E-01,8.84490675607589E-01,4.07961502570904E+00,7.86524678315147E+00,4.73546312934239E+00,3.96544004622487E+00,5.72759551271780E+00,3.82413230776783E+00,3.87716427866808E+00,2.24875100282497E+00,9.18424165222796E-01,2.29829368751257E+00,1.06174961858483E+00,1.64554319595774E+00,,
ECS,,,,,,,,,,,,,,,,,,,,,,,,,,,,,,,1.11584277285978E+01,9.82071076304945E+00,9.38809342591270E+00,8.69393831790013E+00,9.85664720268461E+00,1.01000349824535E+01,1.00315297342901E+01,1.06989515172692E+01,1.14328266874060E+01,1.12454434857357E+01,1.03621803697073E+01,9.99836601351332E+00,1.00006585583972E+01,9.92816811468638E+00,1.04202067374393E+01,9.54558907082688E+00,9.97166787950615E+00,1.06489428397382E+01,8.47318089888667E+00,7.37991600380385E+00,,
ECU,,,,,,,,,,,,,,,,,,,,,,,,,,,,,,,-2.32324249499964E+01,-1.57997811697952E+01,-9.35370426297487E+00,-6.35042490469345E+00,3.53605724292053E+00,2.70467063777306E+00,4.73300462376090E+00,6.25423695026511E+00,5.16403747817361E+00,4.74719311091461E+00,2.76884250969528E+00,3.28141726069600E+00,4.67248328498640E+00,2.18647196611536E+00,-4.73723008427727E-01,-4.30985777526476E-01,-2.84608606953658E-01,2.57028469975193E-01,2.22091602713773E+00,4.41831220907388E+00,,
EGY,,,,,,,,,,,,,,,,,,,,,,,,,,,,,,,1.17323789329827E+01,1.24418491272053E+01,1.68333309381225E+01,1.43931877655251E+01,9.79011682270454E+00,8.56820723246581E+00,6.89123941394729E+00,8.58809428581610E+00,1.21383041310782E+01,1.08513252768485E+01,8.32188611576679E+00,1.07044060814890E+01,9.80461330507195E+00,7.29416705845083E+00,6.90297200126765E+00,2.11123089379189E+00,4.82574626357204E+00,7.16363220071006E+00,4.14680583522969E+00,3.05841984039043E+00,,
EMU,,,,,,,,,,,,,,,,,,,,,,,,,,,,,,,1.26608378552769E+01,1.17198446475791E+01,1.11817749544469E+01,1.03556980269267E+01,1.04787178047016E+01,1.15145797677083E+01,1.12605593483036E+01,1.17210752635398E+01,1.19268509550486E+01,1.17924531666654E+01,1.12529181021585E+01,1.07743441296236E+01,1.06100447941099E+01,1.05149375206140E+01,1.14487998692482E+01,1.06984820134514E+01,1.16733196139290E+01,1.22748355100104E+01,1.05025278121540E+01,8.71425929326644E+00,,
ERI,,,,,,,,,,,,,,,,,,,,,,,,,,,,,,,,,6.34803971187828E+01,3.58555711942203E+01,4.82026352859746E+01,1.26619851194065E+01,1.17567988884117E+01,2.81998820063460E+01,1.37970197791921E-01,1.18943304470754E+01,-1.50522193570011E+00,,,,,,,,,,,
ESP,,,,,,,,,,,,,,,,,,,,,,,,,,,,,,,1.28877224883663E+01,1.25041170123695E+01,1.09201736188635E+01,1.02898587991829E+01,1.01820219303034E+01,1.27348596421023E+01,1.25240399723862E+01,1.30526270427136E+01,1.31260724402348E+01,1.29191497458215E+01,1.21743701143577E+01,1.19981045098985E+01,1.26124104862186E+01,1.29591487151034E+01,1.16927596566193E+01,1.07326348489890E+01,1.03593074923802E+01,9.38113833999842E+00,7.10128945466553E+00,9.67212459144651E+00,,
EST,,,,,,,,,,,,,,,,,,,,,,,,,,,,,,,,,3.04161309637865E+01,1.37881223301751E+01,9.32460057942398E+00,1.50832785284635E+01,1.17344395657784E+01,1.21577159918715E+01,1.41339703842758E+01,1.19171813616503E+01,1.38917647221206E+01,1.26393271994661E+01,1.15919878427012E+01,1.29726137891978E+01,1.24716989686857E+01,1.50177533731346E+01,1.37951769751112E+01,1.45628803073823E+01,1.02627328667081E+01,1.44143799045757E+01,,
ETH,,,,,,,,,,,,,,,,,,,,,,,,,,,,,,,8.57627525488757E+00,4.78373709858988E+00,7.55029440517758E+00,1.48668065496845E+00,5.80118575090016E+00,7.45770133686036E+00,4.95704517674720E+00,5.62173983519123E+00,7.83451996226818E+00,1.70136072471887E+00,2.10052633447907E+00,5.63053501078660E+00,6.58986758507347E+00,7.17380842393963E+00,8.66930571119313E+00,2.77179306194263E+00,8.10886969702846E-01,1.34537542787737E+01,8.77863186731110E+00,8.31240054960928E+00,,
EUU,,,,,,,,,,,,,,,,,,,,,,,,,,,,,,,1.18992205307190E+01,1.03336221626507E+01,9.77849525205158E+00,9.00512640264824E+00,9.75891755968571E+00,1.06932150738026E+01,1.05863687529360E+01,1.12504890431845E+01,1.16775757751737E+01,1.11500139689900E+01,1.04691221387697E+01,1.02161689950913E+01,1.01842270660780E+01,1.01823175858882E+01,1.08078557426407E+01,1.01571477379075E+01,1.09208244441020E+01,1.17173143596576E+01,1.00718898192039E+01,7.95025115160000E+00,,
FIN,,,,,,,,,,,,,,,,,,,,,,,,,,,,,,,1.20057551157549E+01,4.70738840662737E+00,1.82495021469707E+00,2.78038729214804E+00,6.46410304345738E+00,1.14490112662399E+01,1.09715532954463E+01,1.45219152372686E+01,1.60796647473133E+01,1.66913314678992E+01,1.86447555964303E+01,1.91975372734582E+01,1.85066867947052E+01,1.55635539692829E+01,1.68716912783444E+01,1.56386020336674E+01,1.60187610355791E+01,1.71806082540789E+01,1.52327435284382E+01,8.13028854680850E+00,,
FJI,,,,,,,,,,,,,,,,,,,,,,,,,,,,,,,7.77517486064271E-01,4.88422591788525E+00,2.27523736641129E+00,2.27779965452912E+00,-1.40529010173523E+00,1.43052450787962E+01,1.63824511968027E+01,1.71461542822505E+01,2.37312046731266E+01,1.58546410053375E+01,1.53246286652966E+01,7.60453544164951E+00,1.69686696648736E+01,1.15574499258728E+01,4.22362379198785E-01,1.27348547141360E+01,-1.22077370632375E-01,4.06926771956976E+00,3.35173108963467E+00,,,
FRA,,,,,,,,,,,,,,,,,,,,,,,,,,,,,,,1.36150155075241E+01,1.30260774267490E+01,1.24496175731814E+01,1.11493567471358E+01,1.14422458652132E+01,1.23956827539451E+01,1.21083637139069E+01,1.27341769876414E+01,1.37058550095269E+01,1.46474751682091E+01,1.40477218152049E+01,1.31977887277918E+01,1.18812400397551E+01,1.17716727717472E+01,1.14860295410218E+01,1.06614899137773E+01,1.10919327438793E+01,1.17267233587891E+01,1.06329071987762E+01,7.00956413285077E+00,,
GAB,,,,,,,,,,,,,,,,,,,,,,,,,,,,,,,,,-1.83365784245246E+01,-2.64036779431272E+01,-1.14395256036495E+01,-8.05025311178245E+00,3.96026928806176E+00,3.80160584475661E+00,-1.40408739073332E+00,3.18054597740061E+00,2.28744154678726E-01,1.48045041336099E+00,-2.89016260992399E+00,-6.06117829593189E-01,-2.91708069078272E+00,1.76631049116619E+00,,,,,,
GBR,,,,,,,,,,,,,,,,,,,,,,,,,,,,,,,5.83499443874235E+00,5.30066407581185E+00,4.95626217149260E+00,4.86105077138552E+00,7.04529875728810E+00,6.74723427991422E+00,7.13079641022643E+00,9.04256587927018E+00,1.05640081138280E+01,8.19083229159991E+00,6.39334802200919E+00,7.20718964499966E+00,7.60465523158569E+00,7.61791952407383E+00,7.47801039087198E+00,6.26010018835526E+00,6.14226225279041E+00,7.74120494190208E+00,6.54161237242398E+00,2.16251872346495E+00,,
GEO,,,,,,,,,,,,,,,,,,,,,,,,,,,,,,,,,,,,,,-1.45643787358717E+01,7.92048685617968E+00,8.57751974300435E+00,8.26961881324845E+00,1.50251039160510E+01,1.34576309343400E+01,1.31988604008322E+01,1.61472191954523E+01,1.38585812162498E+01,7.39986566611131E+00,4.32925750574354E+00,-4.63349266218426E+00,-7.14444060258747E+00,,
GHA,,,,,,,,,,,,,,,,,,,,,,,,,,,,,,,3.27446697185204E+00,5.33092259346224E+00,-3.34235987724423E-01,4.44517550849918E+00,9.59786724467842E+00,8.78049490052787E+00,9.30663774620246E+00,1.96270277307593E+00,1.00562034468091E+01,1.12819007507201E+00,5.57410094685175E+00,1.32490666706621E+01,9.70759872317548E+00,1.07341531042111E+01,1.28352293119829E+01,1.17160553959162E+01,-5.52000793526761E+00,-1.21704802195483E+01,-1.24555631027829E+01,-4.67336654132388E+00,,
GIN,,,,,,,,,,,,,,,,,,,,,,,,,,,,,,,2.93960055502723E+00,3.64602711571787E+00,6.38230872508848E+00,1.14635503621676E+01,1.08794798993819E+01,9.93625601404141E+00,4.53318453640892E+00,7.58558151178936E+00,3.76442988873152E+00,4.57389100214653E+00,3.63472085883165E+00,2.84295782658750E+00,1.55355413657719E+00,8.69095121282469E+00,5.80028099901925E-01,,,-1.53278350356096E+01,-1.15898792137230E+01,-4.20122266903299E+00,,
GMB,,,,,,,,,,,,,,,,,,,,,,,,,,,,,,,1.31261370202264E+01,1.15239764305741E+01,1.41263469468927E+01,4.18483666723613E+00,7.64841198900527E+00,2.93538486547956E+00,6.22219268736605E+00,1.40418436124864E+01,,,,,,1.07277287450803E+01,1.03663677056876E+01,4.35409240621670E+00,1.38195951972588E+01,1.16748269760682E+01,3.90368401020858E+00,1.28789446010282E+01,,
GNB,,,,,,,,,,,,,,,,,,,,,,,,,,,,,,,,,,,,,,,,,,-2.27328517129183E+01,-6.55236437973587E+00,,,,,,,,,
GRC,,,,,,,,,,,,,,,,,,,,,,,,,,,,,,,6.87512600149311E+00,9.45692940555937E+00,8.48831609325600E+00,8.02300295797817E+00,8.39733898967684E+00,7.31402922594812E+00,6.96789768545742E+00,7.78607462693487E+00,,4.32222617457769E+00,2.71580951922908E+00,3.14614633721436E+00,1.37890122364025E+00,3.44268425444172E+00,3.67038042844046E+00,7.35215576803558E-01,-7.77660370336411E-02,-2.04128832367816E+00,-4.41763573762510E+00,-7.94098239995211E+00,,
GTM,,,,,,,,,,,,,,,,,,,,,,,,,,,,,,,9.55134372706199E-01,2.63430281268961E+00,2.04202798667162E+00,1.49866326467702E+00,7.74696517280832E-01,1.09046861775703E+00,-3.96535290748152E-01,-4.78628426488614E-02,2.11391613888523E+00,1.58496859300454E+00,1.79867361883408E+00,7.11975930651352E-01,4.53464248640988E+00,5.08401844492351E+00,6.71760983653423E+00,5.77257715745237E+00,8.19959972836425E+00,8.70886969226611E+00,4.42785639110511E+00,4.00778947429856E+00,,
GUY,,,,,,,,,,,,,,,,,,,,,,,,,,,,,,,-3.13008580674975E+01,-3.12318025990955E+01,1.16200784128550E+01,1.10158106073294E+01,3.44296598903794E+00,1.49282889068459E+01,1.38220659596625E+01,7.36906324872864E+00,5.44041906332605E+00,6.81151231263896E+00,-2.47988964132808E-01,-5.17035669649974E+00,9.88137099666810E-01,4.99144589011197E+00,6.22487536105528E-01,-3.49810267016408E+01,1.62027534116364E+01,6.59963921505409E+00,-3.60561479602696E-01,,,
HIC,,,,,,,,,,,,,,,,,,,,,,,,,,,,,,,1.15922893474516E+01,1.06450081219340E+01,1.01048070349038E+01,9.43998966034379E+00,9.91766182420766E+00,1.02840294712141E+01,1.05497721867735E+01,1.15413432192279E+01,1.18504503097573E+01,1.10865827812147E+01,1.05042497145403E+01,9.39397145719374E+00,8.74848203754163E+00,8.47777255636943E+00,9.02795510906842E+00,8.89227092478912E+00,9.65306142758957E+00,9.11315908166760E+00,7.36580818916040E+00,5.22497346044553E+00,,
HND,,,,,,,,,,,,,,,,,,,,,,,,,,,,,,,1.74370527875379E+01,1.64412687161004E+01,1.59259356114396E+01,2.13194079082295E+01,2.54071457456777E+01,2.45623949854739E+01,2.30085202313197E+01,2.51486875503906E+01,2.54687825034363E+01,2.67274763503925E+01,1.92095354161571E+01,1.56875386509608E+01,1.59391140115659E+01,1.71797169137460E+01,1.84006108336864E+01,2.17196267094734E+01,1.86494027756474E+01,1.69835398312240E+01,1.56372105661952E+01,9.47101920446204E+00,,
HPC,,,,,,,,,,,,,,,,,,,,,,,,,,,,,,,1.04167484063344E+00,3.87587096355024E-02,9.53452695387371E-01,6.02793648689153E-01,5.14985188455242E+00,3.17686804269782E+00,2.57246183775429E+00,4.39418410049483E+00,4.98320618258619E+00,3.16178537219329E+00,1.69714937904976E+00,2.01540643496405E+00,3.78371271537150E+00,4.01923176002057E+00,4.51427516183655E+00,4.78809015205340E+00,3.53644895749513E+00,2.63545173171705E+00,,,,
HRV,,,,,,,,,,,,,,,,,,,,,,,,,,,,,,,,,,,,,,,,,,,4.60291668429729E+00,5.50705121011233E+00,7.05244467226759E+00,1.16301722270438E+01,1.22554234630290E+01,1.17809127311602E+01,1.08737912209412E+01,1.23054094221470E+01,,
HUN,,,,,,,,,,,,,,,,,,,,,,,,,,,,,,,1.92805152855189E+01,1.13478324281738E+01,8.54005306588577E+00,4.26891267403444E+00,8.43591480372125E+00,1.21696643053911E+00,2.73851746428332E+00,4.55691877410462E+00,4.61717822519417E+00,3.29367042526159E+00,5.48068431332501E+00,6.11374714988281E+00,6.39935705069616E+00,6.66113079888316E+00,7.53767475191483E+00,8.44466177623507E+00,8.35551778198785E+00,6.77938515800469E+00,4.46829598207847E+00,,,
IDN,,,,,,,,,,,,,,,,,,,,,,,,,,,,,,,1.59980422954204E+01,9.59839394674240E+00,1.20599237395158E+01,1.97162401701488E+01,2.08589099764471E+01,1.92593551936086E+01,1.80873476062131E+01,1.98156218640532E+01,1.14255959092183E+01,3.28267037978315E+00,1.23648891336015E+01,9.30007667527963E+00,1.72749389582037E+00,1.46335086030968E+01,7.27620249480074E+00,1.45155557782337E-01,2.07520265336775E+00,1.40575508858447E+00,4.94335775945909E-01,1.10101930933802E+01,,
IND,,,,,,,,,,,,,,,,,,,,,,,,,,,,,,,1.16157637965392E+01,9.52730846468827E+00,1.02552285231284E+01,1.00768713788479E+01,1.33618820325930E+01,1.47890969214093E+01,1.11312547555475E+01,1.38732395098198E+01,1.22663991055597E+01,1.67758359166051E+01,1.49017157533738E+01,1.47278111427636E+01,1.60581672997065E+01,1.83712037464799E+01,2.26802717617533E+01,2.20834396572939E+01,2.27537739883827E+01,2.46372314127786E+01,1.71543467709080E+01,2.40925766653080E+01,,
IRL,,,,,,,,,,,,,,,,,,,,,,,,,,,,,,,1.88466122213768E+01,1.77706311213160E+01,1.52226115844764E+01,1.75783641490676E+01,1.73445146748895E+01,1.95516124213617E+01,2.20629562509116E+01,2.34992029241077E+01,2.27868207981295E+01,2.19231607995332E+01,2.05025772867171E+01,1.90541552800862E+01,1.95028301910077E+01,2.24126472548392E+01,2.31622569093934E+01,2.19141542546070E+01,2.15540987842977E+01,1.87065208350487E+01,1.23356833698389E+01,-1.14036411068403E+00,,
IRN,,,,,,,,,,,,,,,,,,,,,,,,,,,,,,,3.36423936174702E+00,,,7.10398558801837E+00,7.21353703344741E+00,7.12102964618832E+00,1.15488819795215E+01,9.49545645093303E+00,7.70220122227919E+00,1.11521810326838E+01,1.67051647282772E+00,,,,,,,,,,,
ISL,,,,,,,,,,,,,,,,,,,,,,,,,,,,,,,8.22432476568529E+00,7.02837872473110E+00,5.77538366332171E+00,7.40893698375646E+00,7.74977343931417E+00,7.05827837919635E+00,7.84422657953372E+00,1.12863549143936E+01,1.30327399225811E+01,1.03022490165326E+01,8.01547734432881E+00,1.14707031964774E+01,1.40718395965698E+01,9.62400791589973E+00,6.00767245508447E+00,4.88282645329753E+00,3.22579030117401E+00,4.92262289026192E+00,-2.66883941383792E+00,4.12790168596561E+00,,
ISR,,,,,,,,,,,,,,,,,,,,,,,,,,,,,,,1.12429166077729E+01,7.92832994861876E+00,8.81270420755222E+00,6.53770096963589E+00,5.95267908509446E+00,5.09454587234494E+00,8.03952689273655E+00,9.32682760631256E+00,8.45213465348621E+00,7.00660430271990E+00,1.01043522214425E+01,9.99327523956890E+00,7.72209982995191E+00,8.03886969548901E+00,1.27850825023748E+01,1.44566937127959E+01,1.65602897600035E+01,1.55636686315707E+01,1.20035647247041E+01,1.22167468343324E+01,,
ITA,,,,,,,,,,,,,,,,,,,,,,,,,,,,,,,9.46698248373434E+00,8.50722194217215E+00,8.27442382263993E+00,9.30629437444367E+00,9.19976606413018E+00,1.13246747579082E+01,1.17649318333163E+01,1.17597597840622E+01,1.09415216878133E+01,1.03499819304852E+01,9.45865134276345E+00,1.01164136555453E+01,9.70216578005332E+00,8.85381582319224E+00,9.19246619003250E+00,7.86384633101775E+00,8.20191893654690E+00,8.16719995409897E+00,5.45973015545513E+00,6.09484489431587E+00,,
JAM,,,,,,,,,,,,,,,,,,,,,,,,,,,,,,,9.22804126401760E+00,7.92391305571807E+00,1.93930601097533E+01,1.58171140522273E+01,1.60939098939635E+01,1.89750061227041E+01,1.87340613987252E+01,1.82568686056740E+01,1.57476125287085E+01,1.52332516253070E+01,1.33932841099612E+01,1.34467220108372E+01,1.23000681426913E+01,1.36406398412612E+01,1.61902228975913E+01,1.26560803806895E+01,1.33766970495946E+01,9.11789675564463E+00,3.10870183786439E+00,6.86956783050469E+00,,
JOR,,,,,,,,,,,,,,,,,,,,,,,,,,,,,,,1.76247819561896E+01,8.88112560803722E+00,1.24519278248243E+01,2.10806953654770E+01,2.26260188309306E+01,2.48146703572222E+01,2.22122132707593E+01,1.91042653689794E+01,1.51696288331942E+01,1.71413800009894E+01,1.49345861514866E+01,1.33141173278629E+01,1.83146364487195E+01,2.55479486333862E+01,2.09494169272474E+01,1.02212038031728E+01,1.26569614469026E+01,3.99744867520689E+00,3.54336418788877E+00,2.95339445704481E+00,,
JPN,,,,,,,,,,,,,,,,,,,,,,,,,,,,,,,2.13867557648556E+01,2.09917861043035E+01,1.89890160624669E+01,1.74210957490257E+01,1.55651208998691E+01,1.45832834559604E+01,1.40562798459414E+01,1.42620891534838E+01,1.22080732903631E+01,1.04313632083810E+01,1.07558258338357E+01,9.14261000194335E+00,8.08123792757798E+00,7.81815364153027E+00,8.28310562977369E+00,8.95180158929388E+00,9.26939006697711E+00,1.01883694533171E+01,1.52724212481076E+01,1.21081608153353E+01,,
KAZ,,,,,,,,,,,,,,,,,,,,,,,,,,,,,,,,,,,,-1.24188522808453E+01,-1.01826693987429E+01,-1.18139667278523E+01,-6.64756447940605E+00,-1.53708625346759E+01,-2.41303229996766E+01,-1.54258814016551E+01,-7.78562996047126E+00,-9.71208048548695E+00,-1.45072100058345E+01,-1.54353895251289E+01,-8.67406703671736E+00,-6.45331498921735E+00,-9.35489504370255E+00,-1.18527193239995E+00,,
KEN,,,,,,,,,,,,,,,,,,,,,,,,,,,,,,,1.45706035888073E+01,1.53139912947861E+01,1.02924727054257E+01,3.43389860363437E+01,3.04311738918844E+01,1.88430137610548E+01,1.04790407038720E+01,1.04191451780598E+01,1.38111632622564E+01,1.55572771627896E+01,6.97509670680439E+00,7.79565387623090E+00,8.41333945919106E+00,9.84558674131660E+00,1.12350571336144E+01,1.19598663034035E+01,1.32432447431476E+01,1.36319726565608E+01,1.19955095651940E+01,1.31265708008187E+01,,
KGZ,,,,,,,,,,,,,,,,,,,,,,,,,,,,,,,,,,-2.15675812191525E+00,-1.98555164935449E+00,1.87825682061397E+00,-8.62134092978143E+00,3.24192151740219E+00,-2.13742184048626E+01,-1.03663683592160E+01,1.24813023825118E+00,6.04469259127493E+00,6.23713089160224E+00,8.48194570862204E-01,6.77719824841304E+00,4.13368491886516E+00,3.76849857117328E+00,1.83470985626044E+00,8.70926838497959E+00,9.42643369567837E+00,,
KHM,,,,,,,,,,,,,,,,,,,,,,,,,,,,,,,,,,,,,,,-2.51957496883134E+00,3.71692511291317E+00,6.74577212556602E+00,9.73214928830919E+00,8.60768582299447E+00,8.05096381812679E+00,5.44359839924203E+00,7.20809416998218E+00,1.14923281707323E+01,9.97977552556411E+00,1.15217687163578E+01,1.30156969967711E+01,,
KOR,,,,,,,,,,,,,,,,,,,,,,,,,,,,,,,2.78220217716871E+01,2.86362045210877E+01,2.79235675275757E+01,2.77723663537514E+01,2.82927347071917E+01,2.69208653951314E+01,2.47741038469577E+01,2.36919527470202E+01,2.41541329022677E+01,2.23458574435548E+01,2.12935405943558E+01,1.95287418416569E+01,1.96061403708728E+01,2.15191222065284E+01,2.41130464496319E+01,2.18204365407825E+01,2.07902528524446E+01,2.08745897715709E+01,2.06229427228901E+01,1.99943582989662E+01,,
KWT,,,,,,,,,,,,,,,,,,,,,,,,,,,,,,,-9.14997979538776E+00,-1.63449172775423E+02,,,,5.77050695757108E+00,7.86764617213191E+00,1.01230078061490E+01,7.71697533025805E-01,5.34897423089604E+00,1.16383454994129E+01,2.91354025409379E+00,-5.47535761092463E+00,-1.73266588559159E-01,1.06567301947902E+01,1.36642799533251E+01,2.15443830084461E+01,1.71763051360590E+01,1.57289864530634E+01,,,
LAC,,,,,,,,,,,,,,,,,,,,,,,,,,,,,,,7.75868019206678E+00,7.26795093160828E+00,7.46939503748646E+00,7.78356560049366E+00,9.26966368859856E+00,7.66181437290014E+00,7.59657741380238E+00,8.21890506614587E+00,7.70037222376525E+00,6.48047765958270E+00,6.18883974920355E+00,5.46207607938241E+00,7.43063353402710E+00,8.49336023288948E+00,9.43356722655669E+00,7.88209809897512E+00,8.61584641119126E+00,8.74884071850692E+00,7.31844385438587E+00,6.84500592690431E+00,,
LAO,,,,,,,,,,,,,,,,,,,,,,,,,,,,,,,,,,,,,,,,,9.28137872432674E+00,8.44773695831236E+00,1.09201314944557E+01,1.05649181040705E+01,8.35844841872304E+00,9.80680785434356E+00,1.38328649809147E+01,1.52531701369191E+01,1.77943968103553E+01,,,
LBN,,,,,,,,,,,,,,,,,,,,,,,,,,,,,,,,,,,,,,,,,,,-1.46886203869668E+01,-3.22361143519694E+01,-5.47969244932390E+00,-4.52188463098909E+00,2.55349155403141E+00,7.06522926073968E+00,5.23093677399689E-01,2.71343063414521E+00,,
LBR,,,,,,,,,,,,,,,,,,,,,,,,,,,,,,,,,,,,,,,,,,,,,,,,,-1.83273870479569E+01,,,
LCN,,,,,,,,,,,,,,,,,,,,,,,,,,,,,,,7.82599902344809E+00,7.29111625182396E+00,7.49461708259268E+00,7.78517560912835E+00,9.32066045939947E+00,7.74782160544001E+00,7.66667169958059E+00,8.25668232808886E+00,7.73487550616757E+00,6.55003184403126E+00,6.26216119162705E+00,5.55289098024072E+00,7.41757692421680E+00,8.43076934529743E+00,9.32322120445907E+00,7.76396878921804E+00,8.42506655014377E+00,8.59376970687447E+00,7.04705369424523E+00,6.72351815896021E+00,,
LDC,,,,,,,,,,,,,,,,,,,,,,,,,,,,,,,4.29651110743198E+00,2.42737325332596E+00,1.46460424474356E+00,1.37856256783927E+00,4.67978808333631E+00,5.11721512158173E+00,6.94286324492435E+00,5.43988355982202E+00,6.86222303147503E+00,5.46707602696365E+00,4.83346403677312E+00,3.50971908711275E+00,6.09847854605650E+00,6.13663576581707E+00,4.99462617467782E+00,2.96072242440998E+00,3.44266450748590E+00,,,,,
LIC,,,,,,,,,,,,,,,,,,,,,,,,,,,,,,,7.08580287081540E+00,7.61774338724697E+00,8.80298667086469E+00,9.87396342096888E+00,1.12717122570333E+01,8.88900813343704E+00,7.61196920220113E+00,9.42634976748214E+00,1.00516231630193E+01,1.00728868675675E+01,9.95995169831394E+00,9.94622012391758E+00,1.19291319952653E+01,1.21324516350480E+01,1.27028248344197E+01,1.28988640307210E+01,1.45128667150680E+01,,,,,
LKA,,,,,,,,,,,,,,,,,,,,,,,,,,,,,,,1.68524869957759E+01,1.43917757627850E+01,1.71828081304521E+01,1.90027017504354E+01,1.75006500365050E+01,1.55408540513716E+01,1.56709425446818E+01,1.84214245540957E+01,1.98940080463359E+01,2.01319530724601E+01,1.81718740274172E+01,1.77846774425969E+01,1.81816494967976E+01,1.89631420343699E+01,1.88378093618040E+01,2.14424720809676E+01,1.96953094743747E+01,2.03821612559819E+01,1.50457650640813E+01,1.64084750589719E+01,,
LMC,,,,,,,,,,,,,,,,,,,,,,,,,,,,,,,8.05919628764587E+00,7.26790866069196E+00,8.03397176412366E+00,8.22008417880676E+00,1.13476644581319E+01,1.11758115360066E+01,9.09379716746007E+00,1.01379987793765E+01,1.01099600079296E+01,1.15865737066722E+01,1.06169595363951E+01,1.06574973385570E+01,1.14014331076245E+01,1.28556632969341E+01,1.24540745663780E+01,1.02106140777359E+01,1.15668473585709E+01,1.26883334579520E+01,8.03947099201947E+00,1.36850308408228E+01,,
LMY,,,,,,,,,,,,,,,,,,,,,,,,,,,,,,,1.03748050050969E+01,1.08610232257079E+01,1.14793773630625E+01,1.24807971102258E+01,1.50514855570442E+01,1.27054568132551E+01,1.22712198913349E+01,1.30127919814137E+01,1.31867142893320E+01,1.29652128900452E+01,1.14378852030510E+01,1.09277526219352E+01,1.23697944526386E+01,1.35014025451721E+01,1.36919783292534E+01,1.28157034631657E+01,1.39038706467067E+01,1.45130578349796E+01,1.20939560541351E+01,1.45932905720933E+01,,
LSO,,,,,,,,,,,,,,,,,,,,,,,,,,,,,,,4.01382552584278E+01,4.30615791577222E+01,4.52577304336499E+01,3.94103134687230E+01,5.06252222731824E+01,2.61443111469737E+01,2.63483007768838E+01,1.82708169655190E+01,1.37337342353990E+01,1.33330784407796E+01,1.70021790673663E+01,1.75322134289236E+01,8.28591345250079E+00,1.67511323287427E+01,1.69890755823913E+01,1.65131766104348E+01,2.68579278134888E+01,3.34783308863897E+01,2.81081884528496E+01,2.43622773228459E+01,,
LTU,,,,,,,,,,,,,,,,,,,,,,,,,,,,,,,,,,-5.48435794443455E+00,-2.56647278614087E+00,4.05753999832481E+00,1.85390942331133E+00,5.26965543328768E+00,5.20415145562056E+00,1.78929263451207E+00,1.51821805682226E-01,2.54382400349054E+00,4.47649708127669E+00,5.36979234874102E+00,5.41718185870298E+00,7.82464256549875E+00,7.11292035757273E+00,8.25818089555130E+00,6.01379934030597E+00,,,
LUX,,,,,,,,,,,,,,,,,,,,,,,,,,,,,,,,,,,,2.19246913685377E+01,2.18652883142334E+01,2.35694089945349E+01,2.07255517726224E+01,2.27896999707482E+01,2.16164846632237E+01,1.97226568272553E+01,1.66763381316498E+01,1.61978808760338E+01,2.44092371208372E+01,2.63158134225220E+01,2.09432888515057E+01,2.60107440727932E+01,2.14351044594442E+01,7.62112971363175E+00,,
LVA,,,,,,,,,,,,,,,,,,,,,,,,,,,,,,,,,5.08189137767253E+01,2.15174557930520E+01,1.57629952439047E+01,-7.11425551201895E+00,-6.67601738281323E+00,-4.63509674458408E+00,-6.69093442330693E+00,-6.27493341478578E+00,6.38508638666796E-01,2.37749672029503E+00,4.61774319487400E+00,5.95657601465331E+00,6.20225809119458E+00,9.17867066744967E+00,6.24528855446382E+00,9.80928677792343E+00,1.07129045314416E+01,2.04250633750975E+01,,
MAR,,,,,,,,,,,,,,,,,,,,,,,,,,,,,,,2.05637020686088E+01,1.72377461982633E+01,1.73665316079965E+01,1.65943655506509E+01,1.44670899592835E+01,1.21273186238541E+01,1.40331059740173E+01,1.48100306510155E+01,2.10263551399187E+01,1.91298960756348E+01,1.93071143343568E+01,2.54239106154991E+01,2.47859958152425E+01,2.57929000985185E+01,2.57975110252408E+01,2.67173463013714E+01,2.72358445775912E+01,2.66980905638591E+01,2.26457822734824E+01,2.49731662231473E+01,,
MDA,,,,,,,,,,,,,,,,,,,,,,,,,,,,,,,,,,,,,1.00449051383432E+01,4.93340074146466E+00,2.34104065220309E-01,1.16994424565041E+01,1.10789498878070E+01,1.25784428081015E+01,1.17826362288908E+01,1.06813725780968E+01,1.54269045811606E+01,1.56237483875881E+01,1.62769357334055E+01,2.11866598214614E+01,1.81956121889027E+01,1.62121172608061E+01,,
MDG,,,,,,,,,,,,,,,,,,,,,,,,,,,,,,,3.94766765427258E+00,-7.37767136396030E+00,-7.38439771075947E-01,-1.46631538453636E+00,-3.66236494848488E+00,-3.24113273451538E+00,1.79048370585848E+00,1.72386823736243E+00,1.38191379938644E+00,3.56702773946509E+00,2.90289845237527E+00,1.11811439321661E+01,4.31905132461518E+00,7.25922942813370E+00,8.84340183092137E+00,3.86408274417627E+00,,,,,,
MDV,,,,,,,,,,,,,,,,,,,,,,,,,,,,,,,,,,,,3.82025100037949E+01,4.12878987871446E+01,3.59593323339490E+01,3.34550420374274E+01,2.89814619078404E+01,2.81430210007143E+01,2.73552390497705E+01,2.74879320922012E+01,3.48298186297304E+01,2.85067892928253E+01,3.13539013894645E+01,,,,,,
MEA,,,,,,,,,,,,,,,,,,,,,,,,,,,,,,,-4.23760844522482E-01,,,2.14143586090170E+00,2.32174724526275E+00,2.39384559118663E+00,3.47767048513758E+00,5.18027657340594E+00,4.96529491857355E+00,6.79264625622034E+00,3.79727205745980E+00,,,,,,,,,,,
MEX,,,,,,,,,,,,,,,,,,,,,,,,,,,,,,,6.97315025814704E+00,7.46086741219046E+00,6.65647991541604E+00,6.32642035598152E+00,7.17391843262653E+00,8.00022821551139E+00,1.18029401276665E+01,1.49028812728928E+01,1.14560480354019E+01,1.17947206086386E+01,1.13748030249153E+01,9.38179043293162E+00,1.01490957174783E+01,1.35579265942483E+01,1.43285210177451E+01,9.40619937824810E+00,1.11977882252786E+01,1.05490546613476E+01,9.86065897309342E+00,9.08971733860745E+00,,
MIC,,,,,,,,,,,,,,,,,,,,,,,,,,,,,,,1.04067919971967E+01,1.08996715356656E+01,1.15275894196764E+01,1.25484534965047E+01,1.51575198799899E+01,1.27924598513673E+01,1.23716780473602E+01,1.30903258396863E+01,1.32492828748686E+01,1.30189547851471E+01,1.14691341069024E+01,1.09464317345081E+01,1.23691809195378E+01,1.35278538190603E+01,1.37194501147432E+01,1.28270010013064E+01,1.39089263310644E+01,1.44980537420350E+01,1.20249519622780E+01,1.45048544060770E+01,,
MKD,,,,,,,,,,,,,,,,,,,,,,,,,,,,,,,,,,,,,6.05328991534390E+00,6.46129647537335E+00,8.34703829968345E+00,1.37596233777755E+01,1.54935232426057E+01,6.11185039493880E+00,5.30312440384528E+00,1.08552233455535E+01,7.62547520163724E+00,1.40361730097966E+01,1.58909808593107E+01,1.45959524110672E+01,9.19217153107853E+00,1.16425543790585E+01,,
MLI,,,,,,,,,,,,,,,,,,,,,,,,,,,,,,,1.20236297051080E+01,1.39480120484437E+01,1.21863760160972E+01,8.69433141050498E+00,1.42503012735588E+01,8.42306513311700E+00,6.21967112589129E+00,6.64956133539779E+00,7.19063932747435E+00,6.47436239649097E+00,1.01277680101079E+01,7.52822703456415E+00,2.20173218784948E+00,8.61005266949585E+00,2.84443291321659E+00,6.87826023654987E+00,1.01365617627738E+01,1.34500936649625E+01,,,,
MNA,,,,,,,,,,,,,,,,,,,,,,,,,,,,,,,7.77987852693167E+00,,,,,,,,,,,,,,,,,,,,,
MNG,,,,,,,,,,,,,,,,,,,,,,,,,,,,,,,-2.97985382533532E+01,-1.52159658636787E+01,-1.16923492790206E+00,-2.40719311793755E+01,-2.50903531600565E+01,1.80482568198242E+01,1.44711577839780E+01,2.07021474716924E+01,1.32754721100408E+01,1.79719367372403E+01,9.72517799853844E+00,6.37691513603456E+00,6.06144824951639E+00,1.84943686111413E+01,2.13239678829298E+01,2.55027051279559E+01,2.54147238634189E+01,2.30244790456427E+01,8.80877256727757E+00,2.49469483465224E+01,,
MOZ,,,,,,,,,,,,,,,,,,,,,,,,,,,,,,,3.43006597349733E+00,9.05037864744652E-01,2.20570942529448E+00,-1.13965989095008E+00,1.72778477760793E+00,4.17655407149621E+00,1.23130230357479E+00,7.08171674358623E+00,5.00620414339203E-01,-9.92931504058691E+00,1.69925906773655E+00,-9.60075820188240E+00,6.71108114526148E+00,-8.46387947918902E+00,8.89318056806764E-01,-1.22982200026659E+00,-2.23069827687421E+00,-2.26350911199157E+00,-7.13554534676135E+00,2.03603029931044E+00,,
MRT,,,,,,,,,,,,,,,,,,,,,,,,,,,,,,,5.45414304324726E+00,-1.68579369344206E+00,3.32941564086149E+00,-3.58244039823025E+01,2.95760835856863E+01,3.90462863561975E+00,-2.92678904834641E+01,6.56733858443632E+00,5.01322468111835E+00,,,,,,,,,,,,,
MUS,,,,,,,,,,,,,,,,,,,,,,,,,,,,,,,1.85694516547890E+01,2.03021171534888E+01,2.15780425312264E+01,2.02785233928519E+01,1.80963451064901E+01,1.75023219966823E+01,1.79448298287674E+01,1.91037497272601E+01,1.91881783476622E+01,1.74382523496177E+01,1.83213306102500E+01,1.97134556635650E+01,1.85979757657208E+01,1.68180032990751E+01,1.45327609068969E+01,9.75836176384644E+00,9.20594987251154E+00,1.26641319545318E+01,8.05423665847387E+00,8.04189184872197E+00,,
MWI,,,,,,,,,,,,,,,,,,,,,,,,,,,,,,,1.00893810885788E+01,1.12812449894206E+01,-4.91879864408180E-01,-4.90179355033440E-01,-4.94127619776987E+00,2.83331971943404E+00,4.79866924632829E+00,-2.31705208109605E+00,9.26104502886673E+00,6.97428788095224E-01,5.90617346822849E+00,5.54697473773732E+00,2.48686834355173E+00,,,,,,,,,
MYS,,,,,,,,,,,,,,,,,,,,,,,,,,,,,,,1.32343483647007E+01,1.40494629032044E+01,1.84704560688430E+01,2.21846394297118E+01,2.34335342476658E+01,2.14161786999350E+01,2.45749291199734E+01,2.47028407314236E+01,2.85006685998481E+01,2.70712634650696E+01,2.14231696543797E+01,1.89242077786865E+01,2.01047972642141E+01,2.05079719263756E+01,1.96364005534637E+01,1.64905589375194E+01,1.79626257810510E+01,1.94342776750759E+01,1.63559323335610E+01,1.54454121398106E+01,,
NAC,,,,,,,,,,,,,,,,,,,,,,,,,,,,,,,7.19384120247308E+00,7.35111618712495E+00,6.93906769899697E+00,6.79839736983847E+00,8.06127357906023E+00,8.55887742878570E+00,9.17414818032582E+00,1.04869010551941E+01,1.11278930446465E+01,1.07199752012754E+01,9.97329552091295E+00,7.96256169351051E+00,6.61249039080180E+00,5.82214923798201E+00,6.31844041791244E+00,6.31965599926694E+00,7.23053281836914E+00,4.84223343681598E+00,1.83300538059920E+00,-4.23617809060681E-01,,
NAM,,,,,,,,,,,,,,,,,,,,,,,,,,,,,,,,1.51575726921849E+01,1.77991250658582E+01,2.01750806739840E+01,2.53660153092206E+01,2.42321690520465E+01,2.33412541239162E+01,1.85954208306282E+01,2.15529068467710E+01,1.71252551152842E+01,2.08103590856986E+01,1.99250949777787E+01,2.00100419104742E+01,1.78590823675917E+01,2.24410642755005E+01,2.18291286257137E+01,2.54795584700180E+01,2.51878831987918E+01,2.57164199138936E+01,2.19124215926028E+01,,
NER,,,,,,,,,,,,,,,,,,,,,,,,,,,,,,,-7.69063715458537E+00,-3.58865868731345E+00,1.07157553267056E+00,-1.25033110202150E+00,-6.50262750479167E+00,-1.02335253008973E+01,-3.75704575291974E+00,-5.86633532459173E+00,-2.97279736301571E+00,-2.82327653215906E+00,-2.81913273492893E+00,2.87896921112796E+00,2.28250605173741E+00,3.21892055949444E+00,3.78663769525551E+00,1.61880321716382E+01,,,,,,
NIC,,,,,,,,,,,,,,,,,,,,,,,,,,,,,,,1.12294044382001E+01,2.44417309128881E+00,-4.06666515556953E+01,-2.95219050842544E+01,-1.91306614695125E+01,-7.58119529391735E+00,-5.11106835094345E+00,-3.94388835062343E-01,5.46671311451977E+00,6.95583394002642E+00,1.81315331756238E+00,2.05163871005170E+00,1.16031053537839E+00,2.59174075637880E+00,6.49217779738798E+00,8.66805772736036E+00,9.99591538133634E+00,8.23555598824617E+00,4.62736074116846E+00,3.37387905111903E+00,,
NLD,,,,,,,,,,,,,,,,,,,,,,,,,,,,,,,1.47104110298733E+01,1.39094703700107E+01,1.31114964899497E+01,1.28143576055164E+01,1.41581259678599E+01,1.54624486964101E+01,1.46786097095998E+01,1.65060628777109E+01,1.38106155202679E+01,1.56153760828436E+01,1.61051964006387E+01,1.44564819480752E+01,1.39513267570065E+01,1.36221500911142E+01,1.52197902316669E+01,1.40969315297447E+01,1.69169443783710E+01,1.66372984368324E+01,1.27313525270093E+01,1.16305211920904E+01,,
NOR,,,,,,,,,,,,,,,,,,,,,,,,,,,,,,,5.72031279048444E+00,5.45556929945617E+00,5.21816818162059E+00,6.18605599584305E+00,7.52811092864742E+00,9.63798362050597E+00,9.15917438359338E+00,1.14996137264696E+01,1.18458658801982E+01,1.21788351218354E+01,1.30881712516781E+01,1.48699073632008E+01,1.32594247212366E+01,1.13452118687651E+01,1.30336520737150E+01,1.54178652702973E+01,1.76817103040618E+01,1.73896603189104E+01,1.25450908245288E+01,1.28054677135141E+01,,
NPL,,,,,,,,,,,,,,,,,,,,,,,,,,,,,,,6.42648249875741E+00,8.69514417107541E+00,1.13599699487721E+01,1.36190731541928E+01,1.07849518211908E+01,1.78494250845488E+01,1.80245765778076E+01,1.67588064171005E+01,1.58671113437603E+01,1.53715473657622E+01,1.65385433436927E+01,1.73875509318147E+01,1.66422604359709E+01,1.67883371316096E+01,1.96521593348783E+01,2.39864785859778E+01,2.22052674159577E+01,2.19135698821987E+01,3.05744256027099E+01,2.90745076971168E+01,,
NZL,,,,,,,,,,,,,,,,,,,,,,,,,,,,,,,8.05459530962549E+00,4.75595903587161E+00,5.64570463360311E+00,8.44215462550441E+00,9.78678848462899E+00,1.08097622987547E+01,9.32213426141879E+00,8.83825668086211E+00,8.48658965091251E+00,7.91032930924865E+00,9.07222980302428E+00,1.21209824947267E+01,1.17550064859444E+01,1.20262405665970E+01,1.08619657153720E+01,8.37551350516403E+00,6.86430125195169E+00,7.19257560258894E+00,4.06916762629791E+00,8.04240775229493E+00,,
OEC,,,,,,,,,,,,,,,,,,,,,,,,,,,,,,,1.18317274296699E+01,1.11159519404897E+01,1.02516701711061E+01,9.57659542092556E+00,1.00133187592150E+01,1.03498717130912E+01,1.06314669800413E+01,1.16056574962489E+01,1.18682087048424E+01,1.10545232460594E+01,1.05408989105554E+01,9.42926857366876E+00,8.74857813816600E+00,8.44908570116024E+00,9.03572462327368E+00,8.90147923493158E+00,9.71496505806694E+00,9.15664695791019E+00,7.58133888902963E+00,5.51788771859803E+00,,
OED,,,,,,,,,,,,,,,,,,,,,,,,,,,,,,,1.17732566910995E+01,1.10674287888632E+01,1.02116623628146E+01,9.57160167292432E+00,9.99302466010045E+00,1.03560421575080E+01,1.06738313061948E+01,1.16842013474160E+01,1.19415102031497E+01,1.11059231134759E+01,1.05846362172470E+01,9.45213565569735E+00,8.81022107127755E+00,8.57631101002047E+00,9.10729395136631E+00,8.87507999412465E+00,9.67402809053445E+00,9.11293568940008E+00,7.55942428206168E+00,5.55201406493492E+00,,
OMN,,,,,,,,,,,,,,,,,,,,,,,,,,,,,,,-1.76674538595735E+01,-2.06836559209108E+01,-1.93435434970972E+01,-2.19240468911504E+01,-1.85638485720529E+01,-2.08357899208419E+01,-1.86665218471206E+01,-1.58364783569572E+01,-2.42569194256767E+01,-1.70847188483676E+01,-1.21677131096324E+01,-1.47225045756490E+01,-9.54340425593719E+00,-1.08429593613325E+01,-1.37763969968290E+01,-1.03400825948263E+01,-8.39994268514555E+00,3.06481822731500E+00,-7.85784059690585E+00,,,
PAK,,,,,,,,,,,,,,,,,,,,,,,,,,,,,,,9.68251408903454E+00,1.34993884073136E+01,1.28344345941596E+01,7.24903242128156E+00,1.00917704332605E+01,9.06607411264934E+00,5.88298882592552E+00,6.32480105682155E+00,8.74607851263517E+00,8.82400729192536E+00,9.27865121125422E+00,1.11390273731596E+01,1.52173469422917E+01,1.65488025136484E+01,1.45289142135617E+01,1.24316108554779E+01,1.22706992898401E+01,1.21742147394900E+01,1.59311808122236E+01,1.07258402374275E+01,,
PAN,,,,,,,,,,,,,,,,,,,,,,,,,,,,,,,2.14565734374193E+01,1.73517160175017E+01,2.38660762502934E+01,,2.75060598480921E+01,2.76894914853080E+01,2.42369655189126E+01,2.46172109494947E+01,1.96686073060067E+01,1.73594606123756E+01,2.05165131227727E+01,1.75518195595074E+01,1.69890896375547E+01,1.70636136617592E+01,1.39947915766153E+01,1.71985715326302E+01,1.85731716504572E+01,2.34394784002051E+01,2.08086989745701E+01,2.84034404822854E+01,,
PER,,,,,,,,,,,,,,,,,,,,,,,,,,,,,,,3.79487627631449E+00,4.90847575734387E+00,6.21544404751393E+00,6.12717079757225E+00,1.11098392943516E+01,6.03430039538178E+00,6.21914051228142E+00,8.34451181673444E+00,8.95496542127932E+00,9.53138581581733E+00,7.75344505308164E+00,6.97455529597644E+00,7.85383888336786E+00,7.82976326147376E+00,7.73583352534651E+00,8.38087939381876E+00,6.71688994330598E+00,6.92834270934680E+00,6.85710371960427E+00,8.60828397220744E+00,,
PHL,,,,,,,,,,,,,,,,,,,,,,,,,,,,,,,1.19853514362171E+01,1.20232409726429E+01,1.20107844116019E+01,1.07280142108272E+01,1.33180746166669E+01,1.03251358863139E+01,1.23605425908070E+01,1.24691375768143E+01,1.22433212218923E+01,2.45565487706410E+01,2.86139374126829E+01,2.35965949861994E+01,2.49618310824862E+01,2.01683799317310E+01,1.96075831305392E+01,1.79006018321659E+01,2.06040078138156E+01,2.07460421923473E+01,2.13296696433669E+01,2.80216534543710E+01,,
POL,,,,,,,,,,,,,,,,,,,,,,,,,,,,,,,2.25976242625453E+01,-2.49301517090840E+01,-1.86038617242664E+01,-9.56650154058071E+00,1.60875527680172E+00,9.12098508900839E+00,1.11870832828895E+01,1.06583510110270E+01,1.14693895736329E+01,9.20295036208534E+00,8.06659444098657E+00,6.48821949176049E+00,5.59963030011074E+00,6.09544301530532E+00,5.94967399557180E+00,8.55769447532390E+00,9.06121317073349E+00,1.07412153689464E+01,9.84602316905372E+00,9.73719762426221E+00,,
PRT,,,,,,,,,,,,,,,,,,,,,,,,,,,,,,,1.60803449192649E+01,1.45705282007202E+01,1.54549922693519E+01,1.29700660846322E+01,1.15456024019621E+01,1.28133147384658E+01,1.05343921794083E+01,1.10482812095158E+01,1.19096244312235E+01,1.04586706880134E+01,7.76612752535051E+00,7.61853501822050E+00,7.51651384020905E+00,7.10202185814495E+00,5.72739869608006E+00,3.15730751814663E+00,1.80295511777799E+00,2.20123124561867E+00,-5.75353550092337E-01,-1.82725690879329E+00,,
PRY,,,,,,,,,,,,,,,,,,,,,,,,,,,,,,,8.33922483531946E+00,8.04219251204833E+00,5.74314094426863E+00,7.30823096240896E+00,8.55886020072127E+00,1.08136033404270E+01,9.06037256159254E+00,6.28588841511341E+00,8.05690987005264E+00,6.62885824192881E+00,4.36274854015217E+00,5.21647023433530E+00,1.03084102987358E+01,1.27271516995306E+01,1.06646797114395E+01,1.15896863973751E+01,1.25587368025591E+01,1.00747429425972E+01,6.90202209685595E+00,5.17566929563580E+00,,
ROM,,,,,,,,,,,,,,,,,,,,,,,,,,,,,,,6.14168275826141E+00,1.11492906399953E+01,9.89537885106993E+00,1.08806599792672E+01,1.15714808161227E+01,7.37948036559781E+00,5.97161509138179E+00,2.87122343895365E+00,4.40835081526370E-01,1.79361277692766E+00,2.94730714432939E+00,4.83161529927835E+00,7.20887348381108E+00,4.82928957392681E+00,4.38247894897510E+00,4.71100599563596E+00,6.57668025940260E+00,1.02559680321062E+01,1.14592947592120E+01,1.87533141724140E+01,,
RUS,,,,,,,,,,,,,,,,,,,,,,,,,,,,,,,,,,,,-5.08399932787996E+00,-3.48953462565464E+00,-4.34215408115690E+00,-9.70512773647731E+00,4.87866872351064E-01,-8.38954610480670E-01,2.90553840481724E+00,4.00769374754425E+00,1.34630405796154E+00,4.94856209925216E+00,1.79293474044381E+00,-8.61211626021645E-01,2.36206714866027E+00,1.10651546068391E+00,-7.58362871722398E-01,,
RWA,,,,,,,,,,,,,,,,,,,,,,,,,,,,,,,6.36199717004696E+00,7.38031558359209E+00,6.31699827566576E+00,5.04179737372916E+00,2.79471942846983E+01,1.17041444000881E+01,5.99832670182840E+00,2.44454371287708E+00,1.15564745942690E+00,1.94301587274627E+00,5.57399079066383E+00,5.67498180621206E+00,3.17680444891182E+00,3.79595297279687E+00,7.90926070338146E+00,9.42288369936377E+00,3.34579192983355E+00,8.29720619158334E+00,1.06128163703060E+01,8.81478710231641E+00,,
SAS,,,,,,,,,,,,,,,,,,,,,,,,,,,,,,,1.10467405645427E+01,1.00749240072687E+01,1.08967745697358E+01,1.01605663114419E+01,1.29938362704781E+01,1.39650213414075E+01,1.06485564594775E+01,1.31176501914401E+01,1.23729032512880E+01,1.59297058198605E+01,1.44813363983417E+01,1.44819340483826E+01,1.62647815788173E+01,1.82188702903191E+01,2.12782796074477E+01,2.05674814860557E+01,2.13720997293977E+01,2.25800453488964E+01,1.78830788205870E+01,2.15887094478743E+01,,
SAU,,,,,,,,,,,,,,,,,,,,,,,,,,,,,,,-1.62136789689340E+01,-1.91781137120590E+01,-1.00648193863701E+01,-1.06865114390677E+01,-9.72878664958506E+00,-6.27558799350602E+00,-4.03850756202992E+00,5.43940258858388E-01,-3.52729401027247E+00,3.03819591528754E+00,-1.89539554040065E+00,-2.42999247964881E+00,1.87566821513927E+00,3.77540766756426E+00,3.62621472356620E+00,5.20913046190715E+00,2.95932820783182E+00,1.58309603434041E+00,-5.49919252332671E-01,-3.86233425717287E+00,,
SDN,,,,,,,,,,,,,,,,,,,,,,,,,,,,,,,-5.39110809612511E+00,-1.32467036611079E+01,-4.76843669831067E+00,4.93967113880851E+00,-3.11299377587305E-01,-3.54809213354206E+00,-6.72543757099973E+00,-7.27432171172484E-01,2.15820725973571E+00,-3.24047844016167E+00,-9.61461840996805E+00,-1.31286628598828E+01,-9.72965103632985E+00,-4.77561289168929E+00,-3.19094838074032E+00,-3.09019733868986E+00,-6.73060352288851E+00,-5.83135209945421E+00,-8.55790628103336E+00,-7.14892521744785E+00,,
SEN,,,,,,,,,,,,,,,,,,,,,,,,,,,,,,,-3.87753537324674E+00,-3.37244185146712E+00,-2.43950760857380E+00,-5.17623753656305E+00,2.41435213468981E-01,2.65593284113857E+00,7.42046840647440E-01,2.57883035655309E+00,2.47826572503854E+00,3.53666837656715E+00,4.25150174621601E+00,4.95818836989459E+00,,5.84219316215265E+00,6.00640294501033E+00,1.30790488776700E+01,1.07964581879386E+01,1.11461972262427E+01,7.81139476856640E+00,,,
SGP,,,,,,,,,,,,,,,,,,,,,,,,,,,,,,,3.14906519517934E+01,3.31246056965132E+01,3.44449546141357E+01,3.28874930590157E+01,3.74046511422967E+01,4.00082182921012E+01,3.97318187262920E+01,4.24534862547392E+01,4.05794640534198E+01,3.67475641747450E+01,3.45531262284907E+01,2.72641982415880E+01,2.44964688029932E+01,2.75573280215769E+01,2.98833432144209E+01,2.86724377683463E+01,3.14048736409216E+01,3.33108962806976E+01,3.29547681245948E+01,,,
SLB,,,,,,,,,,,,,,,,,,,,,,,,,,,,,,,,,,,,,,-2.63773125906391E+01,-1.53398401410087E+01,-9.36229766676736E+00,-1.84104337949115E+01,-1.92976386293728E+01,-1.41018141838907E+01,-5.18663176734959E-01,-9.48706268151470E+00,-2.11567840995784E+01,-3.74553452430813E+00,,,,,
SLE,,,,,,,,,,,,,,,,,,,,,,,,,,,,,,,-1.57818985274200E+01,-7.98694429691424E+00,-1.42095320291896E+01,-4.89765596238065E+00,-3.42602348745608E+00,-1.16929105933865E+01,-9.82771675371045E+00,-3.85363885450668E+00,-2.39689671183978E+00,-1.59075520999956E+01,-1.04737325263159E+01,-3.36326663789013E+00,3.59495618254320E+00,5.33065009230746E+00,5.29279478870165E-01,4.12210543725473E+00,3.27594642671721E+00,4.22109653113700E+00,-1.88016213630288E-01,1.15076781872116E+00,,
SLV,,,,,,,,,,,,,,,,,,,,,,,,,,,,,,,4.78437880959944E+00,4.56923431362263E+00,8.70898826390780E+00,9.28394538660051E+00,1.12483033294418E+01,8.30144407787028E+00,4.59485775376677E+00,4.99312058783142E+00,7.45535989021951E+00,5.33787746172944E+00,4.58321926697430E+00,6.54974383687836E+00,4.72581039144329E+00,3.53009619322816E+00,3.39799662117331E+00,3.36231099222047E+00,4.08063135052766E+00,1.73664667492881E+00,-5.27293582285481E-01,3.68172112311062E+00,,
SSA,,,,,,,,,,,,,,,,,,,,,,,,,,,,,,,1.95738391276035E+00,1.82072590636216E+00,5.76796946855508E-01,2.55839489157200E+00,4.78300801282547E+00,4.06216452772532E+00,5.19425422096723E+00,3.60179781814308E+00,4.52616045754265E+00,3.09564881192635E+00,1.19147990891012E+00,8.32116250380622E-01,2.92468003575324E+00,2.45548717919632E+00,1.08083878895053E+00,-6.73283015383861E-01,-1.49942592710651E+00,-2.16790855419358E+00,-6.33363259621871E+00,-1.80487828650896E+00,,
SSF,,,,,,,,,,,,,,,,,,,,,,,,,,,,,,,1.94580960217934E+00,1.85818828935923E+00,5.67853035764041E-01,2.54778351071826E+00,4.78839224729799E+00,4.06953347498125E+00,5.16956936670102E+00,3.54501493503245E+00,4.46640154371560E+00,2.97029114850698E+00,1.03692774113357E+00,5.19685967762218E-01,2.55444538785522E+00,2.03724104978098E+00,4.39360251491048E-01,-1.52379677320006E+00,-2.33475562552472E+00,-3.02149829948753E+00,-7.17307679940969E+00,-2.48278677526618E+00,,
SUR,,,,,,,,,,,,,,,,,,,,,,,,,,,,,,,2.96089410132417E-01,-1.55436573188990E+01,-3.27547756043557E+00,,,,,,,,,,,,,,,,,,,
SVK,,,,,,,,,,,,,,,,,,,,,,,,,,,,,,,,,,6.24682720013649E-01,6.20942071547652E+00,9.19446432607263E+00,6.62975958028915E+00,7.15071459823525E+00,5.95786009465977E+00,4.71685476291983E+00,4.49379405501115E+00,,3.03834614933680E+00,5.77532151832925E+00,6.57603752119644E+00,3.90338509052449E+00,3.79148343115422E+00,8.15741199040047E+00,8.95868585069728E+00,1.98191092012034E+01,,
SVN,,,,,,,,,,,,,,,,,,,,,,,,,,,,,,,,,,,1.68523766799426E+01,1.12593060275165E+01,1.06789075904496E+01,1.18762824906917E+01,1.22145123958110E+01,1.21515427518048E+01,1.18221476705802E+01,1.23160440503951E+01,1.29985398728380E+01,1.36574195930857E+01,1.42462033245952E+01,1.51896052441083E+01,1.66306502416837E+01,1.73392282497935E+01,1.62919358016563E+01,1.35503388787684E+01,,
SWE,,,,,,,,,,,,,,,,,,,,,,,,,,,,,,,1.69224987891529E+01,1.42845351668210E+01,1.12796298025136E+01,9.08238425886023E+00,1.38613123019409E+01,1.73468659764616E+01,1.69886626373109E+01,1.71401502028056E+01,1.76576095755506E+01,1.79524378950068E+01,1.83510310510394E+01,1.77802354249991E+01,1.76509566011855E+01,2.10322889483594E+01,1.86715390652940E+01,1.93596485163341E+01,2.05613348093532E+01,2.23461758621382E+01,2.18963328641425E+01,1.60111751151435E+01,,
SWZ,,,,,,,,,,,,,,,,,,,,,,,,,,,,,,,1.04897547088860E+01,1.21470869867432E+01,9.72668926061099E+00,8.15820844663984E+00,1.34401368594450E+01,8.91081884883988E+00,7.23198772830191E+00,1.01521896271592E+01,9.19227593072420E+00,7.71786221990362E+00,7.29504627755614E+00,1.76329241554611E+01,1.80273622333980E+01,1.97900685235957E+01,1.44088326012640E+01,1.82033892004061E+01,1.37651246883995E+01,1.71911533063193E+01,4.08281883676432E+00,-8.61601090968498E-01,,
SYR,,,,,,,,,,,,,,,,,,,,,,,,,,,,,,,-1.18556971455729E+01,-1.55547053881274E+01,-1.44657230867882E+01,-9.76947000717601E+00,-4.71348055608892E+00,-4.40170527559553E+00,-8.46596627533219E+00,-1.14750477787271E+01,2.71636723301362E-01,-7.60985240934400E+00,-1.11444032560106E+01,-1.44062042684129E+00,-9.14931414082111E-01,-2.81849415137685E+00,-9.28653875625562E+00,-1.21469800104283E+01,-9.61547596717299E+00,-6.97628062032200E+00,-1.40779775688385E+01,,,
TCD,,,,,,,,,,,,,,,,,,,,,,,,,,,,,,,-4.51065690516132E+00,-3.44081430329381E+00,-3.20930832796854E+00,-2.47003866507279E+00,6.26980471499136E+00,,,,,,,,,,,,,,,,,
TGO,,,,,,,,,,,,,,,,,,,,,,,,,,,,,,,1.54611611133477E+01,8.77930993076759E+00,5.15789530208217E+00,-4.22706387113027E+00,6.41028033702007E+00,8.74831453254613E+00,4.29865824779735E+00,-2.32677587928953E+00,-6.42616858532729E-01,-2.69186791737126E+00,-8.24533947128819E+00,-4.15028467375145E+00,-3.26526632080641E+00,3.17367857784389E+00,3.85796658407643E+00,2.43103496794814E+00,,,,,,
THA,,,,,,,,,,,,,,,,,,,,,,,,,,,,,,,2.55986626185517E+01,2.73208007075818E+01,2.63778742982579E+01,2.63488906429341E+01,2.55914475871122E+01,2.49069773689399E+01,2.41186560015727E+01,2.14558510378859E+01,2.11229188542688E+01,1.77500589435593E+01,1.64493716161541E+01,1.51447810357569E+01,1.49438183840672E+01,1.58370319759687E+01,1.93858292682937E+01,1.73603930002944E+01,1.95859716590037E+01,2.32062391158225E+01,1.77909560402163E+01,2.04997101736255E+01,,
TJK,,,,,,,,,,,,,,,,,,,,,,,,,,,,,,,,,,,,,,,,,,,-6.93269649079772E+00,-4.74665136459552E+00,-1.03456411492449E+01,-1.83624001031547E+01,-9.98303027996882E+00,6.93155203583716E+00,7.08589139162731E+00,6.15201711139775E+00,,
TTO,,,,,,,,,,,,,,,,,,,,,,,,,,,,,,,-7.68332753693453E+00,-1.03571804117633E+01,-1.02278115326485E+01,-1.28744595740323E+01,2.93305283339971E+00,5.91862486578270E+00,-5.22592449437426E-01,-3.84503451163823E+00,3.33732167828554E+00,2.46547064676875E-01,-3.94315661809823E+00,5.13720608260895E+00,-2.67468396100737E+00,-2.76231686871003E+00,-7.24917797815399E+00,-1.92213141136231E+00,-1.66873910908647E+01,-9.00961412529386E+00,-3.23768252065489E+01,,,
TUN,,,,,,,,,,,,,,,,,,,,,,,,,,,,,,,1.41661758844009E+01,1.27503788269725E+01,1.25121208846221E+01,1.08858888562874E+01,1.33488663489446E+01,1.29093021529324E+01,1.50386194294892E+01,1.73816675365778E+01,1.80730788224968E+01,1.85332688260972E+01,1.58694013604519E+01,1.67623128663261E+01,1.51710605104253E+01,1.50064701190148E+01,1.44991620034069E+01,1.22888749321697E+01,1.35232638552497E+01,1.12675729900483E+01,6.38124445702198E+00,1.45710690358220E+01,,
TUR,,,,,,,,,,,,,,,,,,,,,,,,,,,,,,,1.55776761383616E+01,1.55138290939172E+01,1.57999615036392E+01,1.71334539827975E+01,1.63889386158211E+01,1.56349515075074E+01,1.33467541951842E+01,1.49222605290349E+01,2.10858730538329E+01,1.61659536937295E+01,1.39174330764546E+01,1.29846646132303E+01,1.25220931360620E+01,1.05991985046201E+01,5.73402956951029E+00,6.19299437308117E+00,6.46735941187752E+00,5.47271426711302E+00,6.18820631855217E+00,2.88237352988947E+00,,
TZA,,,,,,,,,,,,,,,,,,,,,,,,,,,,,,,9.97035584916502E+00,8.42661867775902E+00,8.35907009363183E+00,2.54162550665332E+00,5.33027083872535E+00,6.41177880201310E+00,9.58794501505143E+00,8.63233311942477E+00,1.22197401414264E+01,9.47906388666536E+00,1.24152122320624E+01,1.36968560130721E+01,1.81313272974250E+01,1.38295986077592E+01,1.29649832627348E+01,1.13514496399913E+01,8.19047678267236E+00,9.60515466117327E+00,5.79376790537879E+00,1.35333837598662E+01,,
UGA,,,,,,,,,,,,,,,,,,,,,,,,,,,,,,,-5.24936450808525E+00,-2.92903304828126E+00,-7.00209085713533E-01,-1.48928254275898E+00,2.78987294071579E+00,1.08273052611897E+00,8.17378087851759E+00,9.66653358635904E+00,8.03783925569632E+00,6.01540870844405E+00,2.97988032030669E+00,3.79868287860610E+00,4.37136274465320E+00,6.05650145358682E+00,1.18019348703258E+01,1.35022402814559E+01,9.60305542821533E+00,8.38519912508915E+00,1.27173987895998E+01,8.62476235080511E+00,,
UKR,,,,,,,,,,,,,,,,,,,,,,,,,,,,,,,,,,,1.12773596657832E+01,1.62780675876704E+00,-1.11434481378392E+00,-1.05745032460477E+00,-3.85358621790982E+00,-5.91733591852252E-01,-1.75582555594380E+00,1.73854433654945E+00,7.01286649021076E+00,8.20678070961620E+00,1.30195884798425E+01,1.01338187716350E+01,1.15931594992248E+01,1.22956227846338E+01,9.73874069731141E+00,5.59540486949748E+00,,
UMC,,,,,,,,,,,,,,,,,,,,,,,,,,,,,,,1.10081550242720E+01,1.19236624581974E+01,1.25414948478290E+01,1.37578599401751E+01,1.62028885587352E+01,1.31898952482508E+01,1.32555922491028E+01,1.38994702446384E+01,1.41171142661206E+01,1.33946118593518E+01,1.16994755076079E+01,1.10266594291760E+01,1.26327671372949E+01,1.37049334387300E+01,1.40721591211950E+01,1.35527894022099E+01,1.45512726990959E+01,1.49929326394844E+01,1.31037565901776E+01,1.47200264929304E+01,,
URY,,,,,,,,,,,,,,,,,,,,,,,,,,,,,,,4.34702170750335E+00,5.76310639952814E+00,3.93437999389639E+00,3.00203656581549E+00,2.57452463227768E+00,2.88440915383113E+00,3.30517276801736E+00,2.43098029070709E+00,2.65855427264727E+00,3.13015698023716E-01,-3.37147292208678E-01,2.04346608388694E-01,4.60077262363074E+00,5.05701803484101E+00,6.56431349325559E+00,7.74115158766363E+00,5.72747027379639E+00,6.00163715025039E+00,5.35909560758435E+00,6.11748797009246E+00,,
USA,,,,,,,,,,,,,,,,,,,,,,,,,,,,,,,7.01092872440520E+00,7.31931851347063E+00,6.97093233461875E+00,6.84302588497092E+00,8.05890902369868E+00,8.45733840916511E+00,9.14277734951249E+00,1.04743821669996E+01,1.11966726423593E+01,1.06182423226877E+01,9.75679166763658E+00,7.74378514445207E+00,6.34305886136454E+00,5.56810302569856E+00,6.01161245081216E+00,6.10860749718080E+00,7.03529975957942E+00,4.54840150858458E+00,1.43849937453767E+00,-7.93287286074625E-01,,
VCT,,,,,,,,,,,,,,,,,,,,,,,,,,,,,,,1.31382047954742E+01,-5.49022193459361E+00,9.88862033436908E+00,1.54599525688093E+00,-1.95457266777546E+00,8.76231647787258E+00,9.55008162419058E+00,-2.37711851616674E+00,1.25001433809261E+00,8.31588529333534E+00,1.53273507255055E+01,1.46411215124197E+01,1.61415221688490E+01,1.21046202648247E+01,4.46603304271658E+00,3.62041778243954E+00,5.55520706373207E+00,-5.16347570679436E+00,-1.07876105928723E+01,-8.75439701223320E+00,,
VEN,,,,,,,,,,,,,,,,,,,,,,,,,,,,,,,-5.63239192235205E+00,-6.42616580896683E+00,-7.05841117842211E+00,-9.43943685124269E+00,-3.97172921458145E+00,-1.11092757208509E+00,-2.70236004353389E-01,7.12764471879178E+00,8.16209452947245E+00,9.60087926767045E+00,9.05875639794104E+00,7.18243993523319E+00,5.48526087203016E+00,9.24923309479303E-01,5.72795252753559E+00,7.46309357211922E+00,7.85900730781016E+00,6.76651470184264E+00,6.75549937703170E+00,2.93873964875232E+00,,
VNM,,,,,,,,,,,,,,,,,,,,,,,,,,,,,,,,,,,,,9.39170866145011E+00,1.09373250181790E+01,1.46723344220641E+01,1.66825961918847E+01,1.68209072705425E+01,1.79138129676280E+01,1.90729955241724E+01,1.81195033321114E+01,1.52223278123569E+01,1.75002418044304E+01,1.83298561812297E+01,1.74245499420505E+01,9.69104046374926E+00,1.65504275870718E+01,,
VUT,,,,,,,,,,,,,,,,,,,,,,,,,,,,,,,2.01347037408613E+01,1.67154879588357E+01,9.65918236129757E+00,1.76224814112577E+01,8.59342001401116E+00,1.27104233772998E+01,-2.80141001538184E+00,6.39282718967054E+00,-1.11894870722280E+00,-1.49303150929780E+00,4.80166255383004E+00,6.60437558886779E+00,-5.30734823554787E-01,4.66103029614235E+00,7.66883662270672E+00,,1.27662038538457E+01,1.23783022444556E+01,,,,
WLD,,,,,,,,,,,,,,,,,,,,,,,,,,,,,,,1.13645589767803E+01,1.06964150173406E+01,1.03374243925664E+01,9.94160544623949E+00,1.07941738525826E+01,1.06939442428646E+01,1.08172496856102E+01,1.17446521962581E+01,1.20583033327041E+01,1.13960607028397E+01,1.06276705312591E+01,9.60371157573110E+00,9.30633335410206E+00,9.25251607273161E+00,9.66881290371178E+00,9.27167572736952E+00,9.92994309832227E+00,9.49443491580702E+00,7.25827402544695E+00,6.35950957205247E+00,,
ZAF,,,,,,,,,,,,,,,,,,,,,,,,,,,,,,,4.43487747791416E+00,5.61980795169978E+00,4.89157315828662E+00,6.23368675799482E+00,7.03772668048832E+00,6.88987979805180E+00,7.76359966378959E+00,6.97794025477080E+00,5.50769646937865E+00,6.20846169915103E+00,5.43333169751799E+00,3.70195813647196E+00,5.26129363954777E+00,4.91621927623269E+00,3.53065629416541E+00,3.49394038295199E+00,2.65467990578484E+00,1.09064834850560E+00,-4.03702526776715E+00,3.87099947132970E-01,,
ZMB,,,,,,,,,,,,,,,,,,,,,,,,,,,,,,,2.80048076721704E+00,-8.41380664402831E+00,,,,,,-1.37981759677574E+00,-6.11618041749477E+00,-4.92764087918271E+00,-9.30659950718337E+00,-8.91995035502332E+00,-1.11375903640799E+00,4.12847780626053E+00,2.24989159922368E+00,4.76528475989170E+00,4.05629381642322E+00,1.39431339825991E+00,-7.90261607861626E-02,1.35834935902401E+00,,
ZWE,,,,,,,,,,,,,,,,,,,,,,,,,,,,,,,1.26029484837830E+01,6.07889145243237E+00,4.04700697385497E+00,1.46054792016307E+01,1.28461359965954E+01,,,,,,,,,,,,,,,,,
