"Country Code",1960,1961,1962,1963,1964,1965,1966,1967,1968,1969,1970,1971,1972,1973,1974,1975,1976,1977,1978,1979,1980,1981,1982,1983,1984,1985,1986,1987,1988,1989,1990,1991,1992,1993,1994,1995,1996,1997,1998,1999,2000,2001,2002,2003,2004,2005,2006,2007,2008,2009,2010,2011AFG,,,,,,,,,,,,,,,,,,,,,,,,,,,,,,,,,,,,,,,,,,,,,,,-2.48664635988068E+10,-2.93662598707621E+10,-6.99792234862278E+10,-3.78819756544664E+10,,
AGO,,,,,,,,,,,,,,,,,,,,,,,,,,5.87632469497016E+08,4.00157151793088E+08,3.56476396847444E+08,5.50849435766549E+08,7.41082663164295E+08,7.03445678757019E+08,,,,,,,,1.49450333655526E+08,,1.05477065963931E+09,5.39604124562257E+08,8.98469613318430E+08,9.29970993579967E+08,1.38462626787358E+09,2.76382184668153E+09,5.34474969020081E+09,6.68102152443549E+09,9.24535149570485E+09,5.39798981176707E+09,7.18842867673055E+09,
ARG,2.29937582080000E+10,2.52189491200000E+10,1.84689725440000E+10,1.89142036480000E+10,2.42917724160000E+10,2.93957527040000E+10,2.73395886080000E+10,2.91645521920000E+10,3.00817987153523E+10,3.56281605120000E+10,3.74519008528435E+10,3.98330776435413E+10,4.11321625982711E+10,4.08679809706667E+10,3.99373080260161E+10,3.98700009329894E+10,4.55676353620457E+10,5.39080909907645E+10,4.68164875757037E+10,4.82507411072605E+10,4.86178439971440E+10,4.32585054216392E+10,3.83540664711635E+10,3.95418597991361E+10,3.84782899971674E+10,3.49100354193846E+10,3.46541449073120E+10,3.69299281251469E+10,3.94996742471431E+10,3.41331375161869E+10,3.09676693924002E+10,3.29465840403310E+10,3.60453023592785E+10,3.93827746539545E+10,4.34829909927631E+10,4.35095545794512E+10,4.67729218988378E+10,5.07429928945413E+10,5.31194223452266E+10,4.78903760140301E+10,4.76057664290537E+10,4.55794937235233E+10,4.37629949466939E+10,5.21114578806309E+10,6.04224762340867E+10,7.09680156439104E+10,8.00258994518257E+10,8.88848116986615E+10,1.01008275488774E+11,9.74260804656670E+10,1.09532408270143E+11,
AUT,,,,,,,,,,,2.47052516244609E+10,2.52715469261183E+10,2.76335959625730E+10,3.00454274279923E+10,2.97301630152195E+10,2.68191786766038E+10,2.81017247199784E+10,2.91242398151496E+10,2.82953568828902E+10,3.36810718122344E+10,3.14801466505749E+10,2.98153030203741E+10,2.96088813623663E+10,2.77903447659457E+10,3.00582717421101E+10,3.29429012349025E+10,3.33857264265406E+10,3.44088964141196E+10,3.72789807105693E+10,3.96929629297026E+10,4.24871212230120E+10,4.33926569029134E+10,4.21341003275848E+10,4.27872189801997E+10,4.25678166715418E+10,4.70456338809601E+10,4.61791928157654E+10,4.89488435491931E+10,5.24664425880905E+10,5.55736790729322E+10,5.77282150561941E+10,5.84015186183018E+10,6.17588151050047E+10,6.19661823282189E+10,6.36236766224772E+10,6.54674820000000E+10,6.92838877639712E+10,7.52330750668080E+10,7.40975200536272E+10,6.46050905425321E+10,6.52670885459886E+10,
BDI,2.66586009600000E+09,2.19849420800000E+09,1.84528000000000E+09,-5.74457920000000E+08,3.92023321600000E+09,1.86688406779661E+09,2.52503930242450E+09,3.54607662190584E+09,2.98695157511551E+09,3.39586094192458E+09,2.68190187180942E+09,1.09315168309253E+09,-7.21389242819839E+08,1.86555946661739E+09,2.03422487782934E+09,-3.77330121722014E+09,4.40971223892184E+09,1.03435381016090E+10,4.09337521605272E+09,4.36605431821022E+09,-4.94737821380600E+08,3.57909943393088E+09,9.71154514600250E+08,7.92576955376221E+09,1.25028768277906E+10,1.31808667298533E+10,1.00776215390338E+10,1.63753316460393E+10,8.06666687162331E+09,1.32066433428438E+10,8.20145970583607E+09,8.73397624619815E+09,1.16641273024158E+10,1.90956610624017E+10,3.45244518539194E+09,5.99111508351897E+09,1.89385036958501E+10,,,,,,,,,,,,,,,
BEL,,,,,,,,,,,3.35207092009627E+10,3.27395671681721E+10,3.44793118893653E+10,3.66466825310437E+10,3.80705053373283E+10,3.28128561992571E+10,3.54904148528100E+10,3.42938629061621E+10,3.48298493309870E+10,3.34349899006986E+10,3.74322365608086E+10,3.10906797207810E+10,2.91488482753562E+10,2.84681343781783E+10,3.22973387843604E+10,3.19323437758819E+10,3.58293267798146E+10,3.83851939964128E+10,4.62706841271396E+10,5.05371450008926E+10,5.35381758006790E+10,5.21220297623265E+10,5.48736039211318E+10,5.53559968236913E+10,5.84527214801335E+10,6.12546041212153E+10,5.98746719007769E+10,6.52900445674373E+10,6.74060389595921E+10,7.00941199101422E+10,7.03272642301878E+10,6.95961379627600E+10,7.30578462546771E+10,7.29477854565887E+10,7.66510931812980E+10,7.83982000000000E+10,8.15933414422677E+10,8.70395176512969E+10,7.89226255952001E+10,7.61003743204509E+10,7.50551425057920E+10,
BEN,1.85617446400000E+09,4.20275097600000E+09,-4.82524416000000E+09,-1.13677834240000E+10,-9.53784627200000E+09,-1.20866529280000E+10,-2.36529684480000E+10,-3.07985776640000E+10,-2.26344652800000E+10,-1.95734773760000E+10,-1.72995420160000E+10,-2.34989649920000E+10,-3.11467069440000E+10,-2.09622343680000E+10,-2.26637619200000E+10,-3.41881610240000E+10,-3.00929208320000E+10,-3.45403023360000E+10,-3.94770964480000E+10,-4.47910584320000E+10,-5.31885301760000E+10,-7.04094617600000E+10,2.39758602240000E+10,-3.93629056000000E+09,4.23307494400000E+09,-1.90551162880000E+10,-1.05723043840000E+10,-1.14687969280000E+10,-1.96255191040000E+10,-2.91221836800000E+09,1.17444136960000E+10,1.02952079360000E+10,1.97849568000000E+08,6.84546048000000E+09,2.33665310720000E+10,3.27653191680000E+10,1.82918819840000E+10,1.92312019532800E+10,1.23779481166352E+11,1.20782845335817E+11,1.44177183429590E+11,,,,,,,,,,,
BFA,,,,,,-3.14228899840000E+10,-2.94694748160000E+10,-6.32662384640000E+10,-6.61609390080000E+10,-7.35260180480000E+10,-5.72429639680000E+10,-6.76618362880000E+10,-4.69185208320000E+10,-3.93289850880000E+10,-1.25613527040000E+10,-7.41211258880000E+10,-3.58493020160000E+10,-1.14369716224000E+11,-1.07607408640000E+11,-1.30304622592000E+11,-1.51462117376000E+11,-1.68140832768000E+11,-1.37694953472000E+11,-1.09141098496000E+11,-5.10431395840000E+10,-9.24564582400000E+09,-6.28856053760000E+10,-2.63253217280000E+10,-1.56039198720000E+10,1.47671470080000E+10,3.59205765120000E+10,7.42178897920000E+10,7.24138311680000E+10,5.53058918400000E+10,1.96274339840000E+11,1.40113428480000E+11,1.01124800512000E+11,1.68852193280000E+11,1.26349352960000E+11,6.90344837120000E+10,2.65804554240000E+10,6.77024481280000E+10,8.79664168960000E+10,1.61748385792000E+11,,,,,,,,
BGD,,,,,,,,,,,,,,,,,,,,,,-2.99090000000000E+10,2.06830000000000E+10,3.44820000000000E+10,1.87100000000000E+10,3.84890000000000E+10,5.19460000000000E+10,6.48130000000000E+10,4.93060000000000E+10,6.98850000000000E+10,1.25217620281886E+11,1.53034450792157E+11,1.95922568479861E+11,1.82313469646044E+11,2.22463909232242E+11,1.98788064087198E+11,2.05981000000000E+11,2.72006000000000E+11,3.38602000000000E+11,4.09850000000000E+11,4.64935000000000E+11,5.23710000000000E+11,4.99422000000000E+11,5.45597000000000E+11,6.27009000000000E+11,6.98441000000000E+11,7.88009000000000E+11,8.49326000000000E+11,9.20179000000000E+11,9.68434000000000E+11,1.04444700000000E+12,
BHR,,,,,,,,,,,,,,,,,,,,,8.98021888000000E+08,8.56194752000000E+08,6.75418304000000E+08,6.86170176000000E+08,6.43766528000000E+08,6.53299968000000E+08,,,,,,,,,,,,,,,,,,,,,,,,,,
BHS,,,,,,,,,,,,,,,,,,,,,,,,,,,,,,,,,,,,,,0.00000000000000E+00,0.00000000000000E+00,0.00000000000000E+00,0.00000000000000E+00,0.00000000000000E+00,0.00000000000000E+00,0.00000000000000E+00,0.00000000000000E+00,0.00000000000000E+00,0.00000000000000E+00,0.00000000000000E+00,,,,
BLZ,,,,,,,,,,,,,,,,,,,,,-2.72574752000000E+08,2.39903500000000E+07,-1.07538760000000E+07,2.45069620000000E+07,9.23330560000000E+07,5.18389320000000E+07,1.09393200000000E+08,1.35674336000000E+08,1.46323744000000E+08,1.76946720000000E+08,2.74823680000000E+08,1.89288640000000E+08,2.30320768000000E+08,2.48185456000000E+08,2.22685856000000E+08,2.57488736000000E+08,2.54585504000000E+08,2.26697168000000E+08,2.00638992000000E+08,1.80993808000000E+08,1.32300000000000E+08,1.02503728000000E+08,1.77369008000000E+08,,,,,,,,,
BOL,,,,,,,,,,,1.64713634307305E+09,1.51053292699459E+09,2.17806098061251E+09,2.07218438429424E+09,2.69181219244813E+09,2.19023824189153E+09,2.05134234358315E+09,2.13427072041649E+09,2.37194844989088E+09,2.33152175790703E+09,2.18974604005964E+09,1.94256408565102E+09,1.43013106117505E+09,1.63145387158430E+09,1.60348723394681E+09,1.81119541311203E+09,1.05552599399977E+09,1.19511321401631E+09,1.30629076947963E+09,1.54923201921071E+09,1.75783581621264E+09,1.65572368314780E+09,1.21623604916579E+09,1.14528676644486E+09,1.43648009629254E+09,1.80646259593285E+09,2.22846260471075E+09,2.39884568202922E+09,2.34466046031433E+09,1.94330653659637E+09,1.84025159766812E+09,1.99555317080180E+09,2.34237971766944E+09,3.15265886230634E+09,4.29108222335283E+09,4.65279907675855E+09,5.98187895216784E+09,5.97450284287246E+09,6.95420541062473E+09,6.08482496307108E+09,7.69695732418228E+09,
BRB,,,,,,,,,,,,,,,,,,,,,,,,,,,,,,,,1.42749408000000E+08,1.73845856000000E+08,1.79619744000000E+08,2.11849792000000E+08,2.09102848000000E+08,1.88332240000000E+08,1.57234352000000E+08,1.84029488000000E+08,1.60732816000000E+08,1.40399680000000E+08,1.50665920000000E+08,1.28175248000000E+08,,,,,,,,,
BWA,,,,,,,,,,,,,,,,3.96707050520338E+08,3.20944120672225E+08,2.42504322711960E+08,4.31322162057154E+08,7.52544699483788E+08,8.54254503608060E+08,7.32943884530319E+08,8.25287950052887E+08,1.08322239738146E+09,1.45173842389052E+09,2.01707269554448E+09,2.20766408798972E+09,2.45405384290009E+09,3.95921174744627E+09,4.74390239809235E+09,4.23568318074100E+09,4.20051505999189E+09,3.82228012703701E+09,3.93463373510255E+09,4.30878639258837E+09,4.45300197007633E+09,5.38443220977239E+09,6.14665592718395E+09,6.08001165224702E+09,6.57312176488430E+09,7.63467896340482E+09,7.25521990295201E+09,8.01183882405270E+09,8.17150930178910E+09,8.69939735486595E+09,8.70649205288355E+09,9.52583916250842E+09,9.20139368524103E+09,8.85737188948367E+09,4.51930766708307E+09,6.09101941101044E+09,
CAN,,,,,,,,,,,7.63915931882798E+10,7.90967256593054E+10,8.08049927402385E+10,9.31310272753562E+10,9.65972389446046E+10,8.77131748065878E+10,9.84562659460778E+10,1.01632736199347E+11,1.04767626357301E+11,1.19877248329821E+11,1.22054889328494E+11,1.26542424576723E+11,1.14992791046408E+11,1.23181803091097E+11,1.37803555311932E+11,1.41424918079547E+11,1.38509183247267E+11,1.55325464967297E+11,1.67187306796963E+11,1.73318165841427E+11,1.60635785773944E+11,1.42007754277850E+11,1.38701640014883E+11,1.45156821920901E+11,1.68799195725009E+11,1.90864623632171E+11,1.99116802869969E+11,2.13382350904816E+11,2.15862439105284E+11,2.47589462603584E+11,2.88405386904948E+11,2.79480872330311E+11,2.73899371092132E+11,2.95321646338221E+11,3.27282962402220E+11,3.54442000000000E+11,3.58879461059943E+11,3.63313424721751E+11,3.60771871868231E+11,2.59177252140538E+11,2.91348378517430E+11,
CHE,,,,,,,,,,,,,,,,,,,,,7.13039680668077E+10,6.98938513379475E+10,7.01163554916465E+10,7.06326310548895E+10,7.59783212337368E+10,7.80245444121179E+10,8.64724494222754E+10,8.92492046614933E+10,9.18987975091991E+10,9.56738526237223E+10,1.04687415809000E+11,9.97222918036057E+10,9.78278671816115E+10,1.03092450400001E+11,1.10362365575900E+11,1.13496965224880E+11,1.11597031218142E+11,1.11482080755016E+11,1.19794907232059E+11,1.17729550827071E+11,1.20211710868533E+11,1.16905305778866E+11,1.25039289989164E+11,1.24574667467165E+11,1.29969803330254E+11,1.31403140948000E+11,1.40774899265299E+11,1.50925785028718E+11,1.54422736974828E+11,1.52332876982796E+11,1.57459166525183E+11,
CHN,,,,,,,,,,,,,,,,,,,5.91085029614314E+11,6.07372937136378E+11,6.65507138245181E+11,7.00879723039123E+11,7.76291023438394E+11,8.13803476294552E+11,9.06108993471060E+11,9.80227172093218E+11,1.06316970283058E+12,1.22341137022182E+12,1.30166437492066E+12,1.31098864804786E+12,1.44246596378692E+12,1.51970615656014E+12,1.62647447723280E+12,1.97035226682046E+12,2.36384237859673E+12,2.66019513699246E+12,2.85869700532772E+12,3.11630976116482E+12,3.25932936032550E+12,3.40333312429830E+12,3.76985540000000E+12,4.17663507010440E+12,4.72400070867547E+12,5.47410963569485E+12,6.25752701069913E+12,7.23838158355277E+12,8.42978591410473E+12,9.94990889484896E+12,1.10204932416102E+13,1.20490166881926E+13,1.36259378186373E+13,
CIV,,,,,,,,,,,,,,,,,,,,,,,,,,,,,,,,,,,,,9.14197512192000E+11,9.50152003584000E+11,,,,,,,,,,,,,,
CMR,,,,,,3.39566474263643E+11,3.62516299597055E+11,3.32727308551501E+11,3.14156209032940E+11,3.67152716363999E+11,4.37294649549143E+11,3.67538204574127E+11,3.83589890052586E+11,4.90518068055329E+11,6.01401346802043E+11,5.85373073367954E+11,4.98148870968713E+11,6.49818118107731E+11,9.60025269331795E+11,8.94439446348470E+11,1.18399720025113E+12,1.28799693804611E+12,1.57485447248326E+12,1.69259714096887E+12,1.90287913608874E+12,2.09306693734187E+12,1.86547230864891E+12,1.37758056174238E+12,1.41848391435310E+12,1.57728062910293E+12,1.42342211154992E+12,1.48045374264576E+12,1.30109957215256E+12,1.18533970992397E+12,1.12752735824646E+12,1.14686786316372E+12,1.19418426170700E+12,1.19045957445954E+12,1.40133019427822E+12,1.43256585282139E+12,1.34312619863170E+12,1.30183791333064E+12,1.29574666636584E+12,1.38754103123346E+12,1.44788154477013E+12,1.41407669541148E+12,1.69073380782918E+12,,,,,
COG,6.09654579200000E+09,2.16841154560000E+10,1.14200043520000E+10,2.83272448000000E+09,7.57175104000000E+08,4.50590123720930E+09,1.05968673909603E+10,1.79132360161140E+10,8.08128564879144E+09,3.05849656914285E+09,-9.11400674598328E+08,9.72159904534473E+09,1.02252047384421E+10,4.52186513476803E+10,8.01715632555655E+10,5.11900858778626E+10,3.36206944755000E+10,3.14784662065069E+10,1.97996064160000E+10,5.57367977140000E+10,8.64673961030881E+10,1.08923686802523E+11,1.57917565789474E+11,2.09095697365240E+11,2.39906563000229E+11,1.56438126643921E+11,5.36591006795973E+10,7.88943525437240E+10,5.87587799437838E+10,9.91657612055954E+10,7.80820763089997E+10,6.39288811520000E+10,8.53609103360000E+10,8.67011297280000E+10,9.14101452800000E+10,9.19413964800000E+10,1.22575306752000E+11,,,,,,,,,,,,,,,
COL,1.23359874727783E+13,1.22298725104091E+13,1.20545066579401E+13,1.13485016340617E+13,1.25490742326666E+13,1.37725119815288E+13,1.66304397019281E+13,1.48172198267557E+13,1.80936979979803E+13,1.89087524166158E+13,2.45366077884798E+13,2.56202538902959E+13,2.47901053352448E+13,2.78799799591404E+13,2.95019209453151E+13,2.48786344414526E+13,3.19201943378521E+13,3.70235895442431E+13,3.92649631640546E+13,3.70028328469304E+13,4.35355216783123E+13,4.50308140041713E+13,4.80456151399955E+13,4.70283043007634E+13,4.67640938707019E+13,4.14554341826728E+13,4.90737719536673E+13,4.44012766917417E+13,4.76319811383947E+13,4.35809459967842E+13,4.05064042596974E+13,3.73399637557928E+13,4.90820878504216E+13,7.22854866150621E+13,9.45715288965919E+13,1.01242959747064E+14,8.97637973126992E+13,9.15747031849651E+13,7.83829737505826E+13,4.23156352094126E+13,3.97738925337587E+13,5.20048507661262E+13,4.06292174274510E+13,4.64628887684806E+13,5.47493413019614E+13,6.26745030000000E+13,7.13283684016994E+13,7.76154941569519E+13,8.52227993836166E+13,8.33094869921567E+13,1.00064152135430E+14,
COM,,,,,,,,,,,,,,,,,,,,,-1.23011297624422E+09,-2.54238677868844E+09,-8.38612648149277E+08,1.21113145353606E+09,-1.26292167893680E+09,5.40098359645264E+08,4.05039741114990E+08,-4.14454317987183E+08,-5.39452845393188E+08,-4.34980774039182E+09,-2.19700000000000E+09,3.85767543266895E+09,1.21269686082520E+09,1.54890392621271E+09,-3.24464558147697E+08,-3.77747001522852E+09,-2.64077843904875E+09,-7.92121253275191E+09,-3.95635636558945E+08,-2.26672393582199E+09,-4.33489371947720E+09,-4.09674395662614E+09,-3.28426174629570E+09,-4.83834285704611E+09,-8.82272400211005E+09,-1.12705267707563E+10,-1.23299823544657E+10,-1.03259686415969E+10,-7.60641083611113E+09,-5.78983971181764E+09,,
CPV,,,,,,,,,,,,,,,,,,,,,,,,,,,,3.27295519060919E+08,-4.19728031403620E+08,-1.06594316685351E+09,-8.48105673811722E+08,-4.22125227071823E+08,-3.87345600240625E+08,3.98446357628471E+08,3.24573725075205E+08,2.99414004317753E+08,-1.02681535520395E+09,-1.12496428399275E+09,-2.21255150920270E+09,-2.75351061394086E+09,-2.37293878840452E+09,-2.62277304416088E+09,-2.85394595474518E+09,-3.68211348568153E+09,-1.51500000000000E+09,1.95200000000000E+09,4.02600000000000E+09,6.31100000000000E+09,8.02500000000000E+09,8.97000000000000E+09,,
CYP,,,,,,,,,,,,,,,,7.78358483631317E+08,1.15994026098933E+09,1.36120831107646E+09,1.40093837605535E+09,1.66682327670207E+09,1.69933747627564E+09,1.71234452209402E+09,1.71706340554307E+09,1.72326614088645E+09,2.01212162980116E+09,2.01498959017403E+09,2.11924858762762E+09,2.19609358980178E+09,2.24767139009910E+09,2.45920936441051E+09,2.46272954803026E+09,2.00781105709663E+09,2.33627250126106E+09,2.72810732076964E+09,2.75284318658763E+09,2.36110881818412E+09,2.05084425873228E+09,1.88184104841746E+09,1.94023012851349E+09,1.98454221369228E+09,1.89451436421232E+09,1.77160429341309E+09,1.73230658684126E+09,1.69188161957972E+09,1.67088523083151E+09,1.46346868577092E+09,1.27818937148171E+09,9.32022285903152E+08,2.34313683548407E+08,,,
DEU,,,,,,,,,,,2.61680157465141E+11,2.58990352697748E+11,2.64227749734422E+11,2.77411166980728E+11,2.55909226393553E+11,2.27423201271067E+11,2.44623874417572E+11,2.48951739547264E+11,2.58949429954350E+11,2.72104742075271E+11,2.53967660312489E+11,2.27536752651660E+11,2.28764209513681E+11,2.46044204179738E+11,2.52717307760040E+11,2.59516278953704E+11,2.92355276232304E+11,2.96033639136650E+11,3.20092004587418E+11,3.43398568871578E+11,3.79656244891356E+11,4.00831072898551E+11,3.99510294085907E+11,3.83942632910004E+11,4.02861988816958E+11,4.13445934513392E+11,4.06210036064063E+11,4.19721084863522E+11,4.43351829223946E+11,4.52997379652616E+11,4.54592796837209E+11,4.67363556103836E+11,4.85834142906405E+11,4.80784231076977E+11,5.05593984960648E+11,5.00120000000000E+11,5.44318172317542E+11,6.20714183095353E+11,6.07952407648070E+11,5.10529944170229E+11,5.58791786533899E+11,
DMA,,,,,,,,,,,,,,,,,,7.45460568865033E+06,3.24318271925506E+06,-8.78440121056845E+07,-7.11986585201853E+07,-4.12980028637191E+07,1.08402917394882E+07,3.74721077788532E+07,1.85784255101025E+07,2.34740362514160E+07,8.13218201310717E+07,8.06485980525543E+07,9.78065949325271E+07,5.73555812269514E+07,8.98366476062868E+07,7.79104386635904E+07,1.01108291083728E+08,9.07083779961300E+07,8.46559369457720E+07,1.16413374332055E+08,1.17285829145595E+08,1.59248731324541E+08,1.40814408013993E+08,1.06585885712346E+08,7.36753442038310E+07,2.28101938379262E+07,2.66481040844774E+07,1.43457786833929E+07,5.87421302644723E+07,4.83426095853169E+07,9.28945800000000E+07,,,,,
DNK,,,,,,,9.52194617814788E+10,9.79592903338142E+10,1.06728103119392E+11,1.20206362844163E+11,1.17858535256878E+11,1.20625585588033E+11,1.36925134419373E+11,1.43231359866546E+11,1.29080363012101E+11,1.13799688886143E+11,1.23037850351352E+11,1.23812185165718E+11,1.26712856896260E+11,1.30865205254965E+11,1.22102159816426E+11,1.13700788348363E+11,1.24411604158219E+11,1.36068591678561E+11,1.56307665546812E+11,1.69011825408637E+11,1.91131348660499E+11,2.00222998792121E+11,2.05226244825656E+11,2.15590987904634E+11,2.32224311286437E+11,2.31084904396610E+11,2.43851471393302E+11,2.33089320519945E+11,2.48184496430055E+11,2.68134871007876E+11,2.83615535843218E+11,3.03623202138227E+11,3.05890109443091E+11,3.32517523717336E+11,3.75873237269807E+11,3.77101640774580E+11,3.74796932861264E+11,3.77033957267274E+11,3.79075261322971E+11,3.97610000000000E+11,4.10434389780740E+11,4.03883442788164E+11,3.96517395892936E+11,3.29307065233825E+11,3.63804007604957E+11,
DOM,3.23441259292776E+09,2.72236477807500E+09,2.64825152625557E+09,2.61270349577461E+09,2.66177429213842E+09,1.39123302792348E+09,1.78798800201227E+09,2.26611368495421E+09,1.92888922520481E+09,3.13318483362382E+09,4.19206168548568E+09,6.39768639066731E+09,1.41268474776254E+10,1.75355482245161E+10,1.11600798694442E+10,1.35057770894356E+10,2.40253895015653E+10,2.28348906795044E+10,2.48856852887705E+10,3.26286334043446E+10,1.67563713266468E+10,2.52739459375786E+10,2.49703814297313E+10,2.85270960748187E+10,3.05393684183698E+10,2.79057939901173E+10,2.15714996391743E+10,2.56031583014018E+10,1.76271288171707E+10,1.16267253814114E+10,1.81495612546841E+10,1.70208000000000E+10,1.52819000000000E+10,1.85699000000000E+10,2.03079000000000E+10,2.08488000000000E+10,2.58425000000000E+10,2.56546000000000E+10,2.73187000000000E+10,2.99618000000000E+10,3.33712000000000E+10,3.08218000000000E+10,3.28624000000000E+10,4.23597000000000E+10,3.94733000000000E+10,3.07429000000000E+10,3.10249000000000E+10,3.24350000000000E+10,2.69093000000000E+10,2.32404000000000E+10,2.58121000000000E+10,
DZA,7.90978713600000E+09,1.10385684480000E+10,9.67142092800000E+09,7.54411929600000E+09,7.83403673600000E+09,8.43749990400000E+09,8.38108108800000E+09,1.24166656000000E+10,1.31695646720000E+10,1.44305080320000E+10,1.67157135360000E+10,1.50333327360000E+10,2.03512832000000E+10,2.55752294400000E+10,4.55969382400000E+10,3.68750018560000E+10,4.30313881600000E+10,4.27933859840000E+10,4.79207137280000E+10,5.96073676800000E+10,7.00000010240000E+10,7.54540707840000E+10,7.34343987200000E+10,7.76517468160000E+10,7.11336919040000E+10,7.11264256000000E+10,4.54437109760000E+10,4.62630625280000E+10,4.70076579840000E+10,4.67453296640000E+10,5.67140679680000E+10,6.11678044160000E+10,5.12277176320000E+10,4.43512627200000E+10,4.37133148160000E+10,4.53417000960000E+10,5.40521594880000E+10,5.86256220160000E+10,5.45590886400000E+10,5.77024737280000E+10,7.99971328000000E+10,8.00665845760000E+10,7.99439257600000E+10,9.55892776960000E+10,1.04883257344000E+11,3.05195959897803E+11,3.13800007850240E+11,3.31974638009334E+11,3.40071389185399E+11,3.31236458575405E+11,,
EGY,,,,,,,,,,,,,,,,,,,,,,,,,,,,,,,,,,,,,,,,,,,3.59300245362079E+10,3.80333583667798E+10,4.39429789322459E+10,4.59791693306875E+10,5.35297402875151E+10,8.87501498007422E+10,5.92666974229101E+10,4.68138844801450E+10,5.47245969676867E+10,
ERI,,,,,,,,,,,,,,,,,,,,,,,,,,,,,,,,,-5.62400000000000E+08,-2.88737235623642E+08,-3.64887232396183E+08,-5.14289869621903E+08,-4.66076492576056E+08,-3.51265161290322E+08,-6.04061934347915E+08,-7.25190884641442E+08,-5.47656672415868E+08,-5.81304270476580E+08,-5.13045904585973E+08,-8.04948504219985E+08,-6.16851552388179E+08,-4.63445724698627E+08,-3.77798936095752E+08,-3.57564194047815E+08,,,,
ESP,,,,,,,,,,,7.92790088543554E+10,8.00279067013789E+10,9.05201527224735E+10,9.95480937801360E+10,1.03406561413152E+11,9.93152497996487E+10,9.67776398360247E+10,9.71556797530797E+10,9.72518910675182E+10,9.41552684003702E+10,9.12193126067234E+10,8.40616351180585E+10,8.57667865225095E+10,8.58705815989124E+10,8.92805906896905E+10,9.35804455388373E+10,1.05910390451475E+11,1.13836986622824E+11,1.26505540401740E+11,1.33409786315382E+11,1.40608070293397E+11,1.42218875130825E+11,1.37410426097874E+11,1.30756671011111E+11,1.38534418319897E+11,1.48943742092336E+11,1.55134595094735E+11,1.64312707871120E+11,1.77335841995166E+11,1.86262968754917E+11,1.90399806256975E+11,2.02247360930394E+11,2.11121600852451E+11,2.19477935725486E+11,2.16725538653111E+11,2.19928000000000E+11,2.29547321623259E+11,2.35403672887648E+11,2.32718486377578E+11,2.21653728830112E+11,2.05589358154004E+11,
ETH,,,,,,,,,,,,,,,,,,,,,,5.62225092157912E+09,4.88064758266575E+09,4.75877942089414E+09,6.35861745173590E+09,2.83869923662191E+09,6.64456689501897E+09,6.14969907391279E+09,7.24652612694266E+09,9.52582799551717E+09,7.11295828875416E+09,2.44251464789946E+09,9.01472672982811E+08,1.30508698994343E+09,5.15616604723849E+09,6.54279646177845E+09,5.64223583411487E+09,8.93609806867364E+09,8.51355330144511E+09,5.95712844184315E+09,5.55964799999999E+09,6.98976169164055E+09,7.59779654089041E+09,5.72199680292153E+09,7.15159314818059E+09,3.37641451005038E+09,2.56021429395420E+09,2.99740859651644E+09,-2.03530488333813E+09,2.71886940006041E+09,-6.20810931344478E+09,
FIN,,,,,,,,,,,1.60470432333720E+10,1.57964097077215E+10,1.63844203892066E+10,1.75666202961334E+10,1.92420763811640E+10,1.78537086792098E+10,1.64834974457415E+10,1.76684410621460E+10,1.70893657975535E+10,1.92393049406757E+10,2.04093959997039E+10,2.03335644313490E+10,2.06880403506398E+10,2.07658332081143E+10,2.24631036820643E+10,2.15260630749238E+10,2.20078155464574E+10,2.26432622425237E+10,2.50529506638273E+10,2.76297847807955E+10,2.59467949791989E+10,1.96822176582519E+10,1.86271704728557E+10,1.97273794844074E+10,2.29968988346895E+10,2.77255902543808E+10,2.77138564699653E+10,3.16986431255766E+10,3.67164999387256E+10,3.84655040685464E+10,4.16483703810512E+10,4.31723254184553E+10,4.30403463601196E+10,4.02720575590247E+10,4.18528568156231E+10,4.08360000000000E+10,4.17946286990728E+10,4.69389207500759E+10,4.35862847314533E+10,3.20171129623144E+10,3.36195035350785E+10,
FJI,,,,,,,,,,,,,,,,,,,,,,,,,,,,,,,,,,,,2.81600000000000E+08,,,,,,,,,,,,,,,,
FRA,8.72389796164953E+10,8.94026733005451E+10,9.55544662967091E+10,1.00781558745103E+11,1.12095921579212E+11,1.18492566862567E+11,1.27141673660796E+11,1.33931360121948E+11,1.40997528110309E+11,1.55269567698958E+11,1.68620525867731E+11,1.75401650053477E+11,1.84382524969898E+11,2.02046160112306E+11,1.99436756848003E+11,1.76991037520397E+11,1.83321274641165E+11,1.90124480274202E+11,1.97663577734734E+11,2.03397988250082E+11,1.96872321235263E+11,1.78641096981458E+11,1.78598495015410E+11,1.78186701743506E+11,1.79005827165544E+11,1.80312293382524E+11,1.95921992177917E+11,1.96758775139424E+11,2.21949563591060E+11,2.41544789819123E+11,2.48935255504692E+11,2.45595740700339E+11,2.48170158095718E+11,2.33451248051870E+11,2.48651987116698E+11,2.60847082090249E+11,2.53314967909537E+11,2.75295649183454E+11,3.02256170185834E+11,3.19171746328700E+11,3.28955455287779E+11,3.32998501095228E+11,3.30370235859820E+11,3.22173024838423E+11,3.35861554513562E+11,3.32214200000000E+11,3.39998774440860E+11,3.55720532808954E+11,3.43217499497434E+11,2.92574440983764E+11,2.88972874911927E+11,
GAB,1.42993817600000E+11,1.75011987456000E+11,1.79419054080000E+11,1.49930786816000E+11,1.45331273728000E+11,1.42858917600464E+11,1.82667569324924E+11,1.27312000000000E+11,1.29609201724012E+11,1.46231225950783E+11,2.11085426470588E+11,2.29288539130909E+11,2.22241834907870E+11,2.57595483245474E+11,8.55356453358209E+11,8.99945988713318E+11,1.25371974690799E+12,9.88718459864330E+11,5.32993249011858E+11,7.03769742845292E+11,9.94533846153846E+11,1.09166256146102E+12,1.00385286259542E+12,9.19856442153901E+11,1.00360044757033E+12,7.82728818824861E+11,3.32804652605459E+11,2.54233006532305E+11,4.81970186721535E+11,4.11863031624864E+11,6.05662327534493E+11,6.28671899654375E+11,5.50868923281976E+11,5.94203077958189E+11,6.49182760438380E+11,6.91468947960454E+11,8.76404211210569E+11,9.33035381249793E+11,6.51726482676741E+11,7.02927476794054E+11,8.59720505677172E+11,7.59201184920559E+11,6.46415307108258E+11,7.37272324523862E+11,9.63718600265880E+11,1.07110803213613E+12,1.00004318322082E+12,1.07276378240553E+12,1.23457325702424E+12,9.71527008740388E+11,1.22836219674971E+12,
GBR,,,,,,,,,,,8.75015262063034E+10,8.89841921843361E+10,8.32510437729683E+10,9.13309630357528E+10,7.95902331052788E+10,7.51728123973129E+10,8.62025736277640E+10,9.35333061576841E+10,9.71114735967554E+10,9.72148852092487E+10,9.14805502889089E+10,8.68254873484521E+10,9.12669526447240E+10,9.62281102455880E+10,9.97110936572487E+10,1.08235906633085E+11,1.03138132008085E+11,1.11390190564023E+11,1.17813175881686E+11,1.20002301527405E+11,1.19391842487306E+11,1.14013634448894E+11,1.13628632755608E+11,1.18331100537312E+11,1.30945331301407E+11,1.37509266178041E+11,1.43053301445563E+11,1.58979497157762E+11,1.68937689991901E+11,1.68215856979671E+11,1.67797139034739E+11,1.67686134279508E+11,1.65960268581477E+11,1.71636695240714E+11,1.75897305645247E+11,1.71006000000000E+11,1.88249951133094E+11,2.06293287782035E+11,1.97304589755964E+11,1.54150787539201E+11,1.65423782401974E+11,
GEO,,,,,,,,,,,,,,,,,,,,,,,,,,,,,,,,,,,,,2.13383401839814E+07,,,,,,,,,,,,,,,
GIN,,,,,,,,,,,,,,,,,,,,,,,,,,,4.99141469264330E+11,4.98324778451020E+11,3.51481174163729E+11,5.87916747979302E+11,7.36859801096896E+11,7.47358032674421E+11,7.42439452929159E+11,7.45717464994840E+11,6.56039024299361E+11,6.82411459466306E+11,6.07247187380000E+11,7.09041543598592E+11,5.57297809304174E+11,6.39549598686018E+11,6.13645898756251E+11,6.19618880194217E+11,6.08993140314723E+11,8.89116570811090E+11,8.51783232199416E+11,8.96544193525421E+11,8.33590461326350E+11,8.76871710551738E+11,9.65500979620750E+11,1.10156048162051E+12,1.19655752751739E+12,
GMB,,,,,,,-1.04763536000000E+08,-8.07819360000000E+07,-1.66582448000000E+08,-1.66396128000000E+08,-2.98792880000000E+07,-8.18925360000000E+07,-1.15140024000000E+08,-1.21562872000000E+08,-6.14869440000000E+07,6.78619760000000E+07,-2.12045340000000E+07,-1.41471536000000E+08,-4.68086080000000E+08,-5.22279328000000E+08,-2.73440000000000E+08,-2.89796608000000E+08,-1.33391464000000E+08,1.81980640000000E+07,4.34166650000000E+06,5.36797480000000E+07,7.52402080000000E+07,1.13267496000000E+08,1.28210512000000E+08,1.36916896000000E+08,1.29750056000000E+08,1.27324928000000E+08,1.14183016000000E+08,4.31289480000000E+07,6.82705760000000E+07,-3.55397040000000E+07,1.53961360000000E+08,2.88623260612947E+08,1.99581599007080E+08,1.95861381066102E+08,2.46207810114920E+08,3.14868159969825E+08,2.74816832000000E+08,2.37787040000000E+08,2.32678816000000E+08,,3.99731546788706E+08,4.28569333163022E+08,,,,
GRC,5.25993559386608E+09,7.60729124640412E+09,6.48834821703596E+09,9.13968342709658E+09,9.73958740628492E+09,1.17992717641889E+10,1.25680301461908E+10,1.27170847180080E+10,1.37627230491530E+10,1.74317385470428E+10,2.07574878941874E+10,2.34003555948820E+10,2.78265420843039E+10,3.14029509844580E+10,2.44966020491403E+10,2.41432842859849E+10,2.62595515456275E+10,2.34927002400266E+10,2.49585432999050E+10,2.32100741671748E+10,2.34310752676628E+10,2.16991293227121E+10,1.85372885703782E+10,1.57909056200598E+10,1.60134711013776E+10,1.73651394062270E+10,1.92776385311896E+10,1.48300265775384E+10,1.65870190593081E+10,1.48411544003666E+10,1.28520048024390E+10,1.45363367930469E+10,1.34075785473307E+10,1.19621138539240E+10,1.33078249817364E+10,1.27066612617924E+10,1.33277944837771E+10,1.47565448421863E+10,1.53895727139678E+10,1.68525609046426E+10,1.69051810984255E+10,1.80193990121319E+10,1.65755572332343E+10,2.38775247296394E+10,2.59168813431564E+10,2.33876622910000E+10,2.74272409402176E+10,2.58634978009803E+10,1.98051536411367E+10,1.27450289855002E+10,1.43245849884322E+10,
GTM,,,,,,,,,,,,,,,,,,,,,,,,,,,,,,,,,,,,,,,,,,,,,6.01523722843069E+09,,,,,,,
HKG,,,,,,6.98046136320000E+10,8.48221388800000E+10,1.01691367424000E+11,1.14647269376000E+11,1.36393940992000E+11,1.67952941056000E+11,2.18290159616000E+11,2.78095101952000E+11,3.15876540416000E+11,2.84367945728000E+11,2.84466642944000E+11,3.86364571648000E+11,4.39192682496000E+11,5.20746500096000E+11,5.37913163776000E+11,5.50312345600000E+11,6.05316907008000E+11,6.19367759872000E+11,7.09974949888000E+11,8.17333207040000E+11,8.52007256064000E+11,1.14328797184000E+12,1.35300526899200E+12,1.31275397529600E+12,1.30019609804800E+12,1.25715021824000E+12,1.36464039936000E+12,1.41469325721600E+12,1.51520123289600E+12,1.57117513728000E+12,1.83863450009600E+12,2.04051028377600E+12,2.21289722675200E+12,2.28750078771200E+12,2.41029139660800E+12,2.40259589734400E+12,,,,,,,,,,,
HND,2.37077248000000E+09,2.48830464000000E+09,3.26851865600000E+09,3.05587584000000E+09,3.08206950400000E+09,4.10724294639131E+09,4.09269912781962E+09,5.23012110701565E+09,5.45943322106520E+09,4.97041079694815E+09,4.13358363447309E+09,4.79146579311018E+09,5.33982651133503E+09,5.98278662160732E+09,4.85085044612258E+09,3.82042187532669E+09,5.49082666182085E+09,7.71610927191466E+09,9.61211414873984E+09,1.00810469783402E+10,7.68892970841626E+09,6.21316241496803E+09,5.11519738250597E+09,4.64773442452379E+09,4.57523130529231E+09,5.68257224224633E+09,5.52577538904613E+09,6.47806161100068E+09,8.89441207848603E+09,8.20904644797593E+09,9.73012552346718E+09,1.19078254050147E+10,1.28351711597256E+10,1.51173815605149E+10,1.66107377512698E+10,1.94831656835126E+10,1.80492511152531E+10,1.94500002098105E+10,1.89018293407148E+10,1.74142800316609E+10,1.68947417200987E+10,1.40140644600384E+10,1.27442326877978E+10,1.17213809305947E+10,1.18479206327667E+10,1.09089054171700E+10,8.83951014433871E+09,2.01710660398359E+09,1.38901850558939E+09,1.19352836253946E+09,3.94088910959285E+09,
HRV,,,,,,,,,,,,,,,,,,,,,,,,,,,,,,,,,,,,1.02097285110742E+10,1.92885647999527E+10,1.75086610478141E+10,2.37433238120439E+10,2.37512488244537E+10,2.81261895675472E+10,3.24321562790841E+10,3.15939624997874E+10,3.83283668414786E+10,4.28687000958413E+10,4.60167618348705E+10,5.19877508178458E+10,5.36747162704409E+10,5.63040603957121E+10,5.80942255264476E+10,6.00385385388432E+10,
HUN,1.60139076221288E+11,2.77126083427180E+11,3.05684494091593E+11,3.76249285312181E+11,3.73519797844189E+11,,,,,,,,,,,,,,,,,,,,,,,,,,,,,,,3.19485379652088E+12,3.42206194301671E+12,3.84978556627472E+12,4.28982482341734E+12,4.15913701226182E+12,4.33173372240786E+12,4.39787396297160E+12,4.40442668847217E+12,4.05152517788993E+12,4.73407353346486E+12,4.93849000000000E+12,5.18589819033491E+12,5.52012064621068E+12,5.61535080905714E+12,5.05190321578669E+12,5.73330215646227E+12,
IDN,2.09514607411200E+13,1.67089285365760E+13,2.37703706705920E+13,1.82283948523520E+13,1.97603224453120E+13,1.82992639098880E+13,1.28038731776000E+13,5.39326047846400E+12,1.37069403832320E+13,1.44554086891520E+13,2.98682532495360E+13,3.78760415150080E+13,5.36921369477120E+13,6.69750740910080E+13,1.13823193235456E+14,9.39739683225600E+13,1.01011716833280E+14,1.36111624028160E+14,1.35416535580672E+14,1.98374221414400E+14,3.00759547641856E+14,2.44945843650560E+14,2.16664893292544E+14,1.98802359189504E+14,2.47485259841536E+14,2.48520900608000E+14,2.34846966251520E+14,2.72821154480128E+14,3.01670818906112E+14,3.45907639877632E+14,3.82201287933952E+14,4.32011063853056E+14,5.11068191326208E+14,5.11068191326208E+14,5.61778803081216E+14,5.66612218347520E+14,5.97182587600896E+14,5.93978005127168E+14,4.27355889729536E+14,3.83169735950336E+14,4.55336400000000E+14,4.67790900000000E+14,4.64586600000000E+14,5.26069550000000E+14,5.17401983000000E+14,5.80919931620000E+14,6.06397049109880E+14,6.25983736049210E+14,6.94928291864070E+14,7.31754770000000E+14,8.01346480000000E+14,
IRL,,,,,,,,,,,6.56185117032780E+09,6.77539655288473E+09,8.23060479742953E+09,9.29935191488470E+09,8.26271379673016E+09,7.28746826233215E+09,8.35119464783062E+09,9.71614560328689E+09,1.04743860673414E+10,1.10076486097660E+10,9.38567266009586E+09,1.03148933130455E+10,1.24757986015218E+10,1.20164603127153E+10,1.27038862447948E+10,1.22106859134964E+10,1.21807311430407E+10,1.26190066346190E+10,1.35353118307658E+10,1.54381892532850E+10,1.83221516609132E+10,1.74471358685921E+10,1.70692921105812E+10,1.82184425836712E+10,1.96325289354563E+10,2.44660857429679E+10,2.80972447261029E+10,3.39886160077153E+10,3.78762241775976E+10,4.36118155328503E+10,4.65747601737178E+10,4.94466640436189E+10,5.47772256250957E+10,5.86942728975804E+10,6.09962023752701E+10,6.34138000780000E+10,6.39549592189941E+10,6.40141894212433E+10,5.67089163508203E+10,5.11091876188683E+10,4.90885239634369E+10,
IRN,,,,,,,,,,,,,,,,,,,,,,,,,,,,,,,,,,,,,,,,,,,,,,1.70554876672320E+14,1.77371321957390E+14,2.09531684533623E+14,,,,
ISL,,,,,,,,,,,5.63755063286270E+10,7.68466972290547E+10,6.49756744496151E+10,8.62273656756820E+10,8.31681369875875E+10,8.51622335781733E+10,8.58301308458228E+10,1.05506827824222E+11,1.06292450478754E+11,1.01903598580341E+11,1.11367229643564E+11,1.12369773049854E+11,1.11700997236356E+11,8.75746776268440E+10,1.10465273787401E+11,9.83509110672068E+10,1.06829502247625E+11,1.09727875503333E+11,1.24031689140755E+11,1.21230137394200E+11,1.15216160097708E+11,1.14418947282068E+11,1.04977888588379E+11,1.20241978151982E+11,1.23967992298931E+11,1.22326006503688E+11,1.20113271839395E+11,1.30789287765039E+11,1.43074966467450E+11,1.29399064487538E+11,1.36122461224131E+11,1.61528570821094E+11,1.62627293536882E+11,1.40870675190661E+11,1.65239925883685E+11,1.63400490321000E+11,1.90186172391766E+11,2.05315451293456E+11,2.30978520027407E+11,1.83524447960524E+11,1.78703404776023E+11,
ISR,,,,,,,,,,,,,,,,,,,,,,,,,,,,,,,,,,,,6.64546909980247E+10,7.44030337454059E+10,8.31698105115409E+10,9.02687644900953E+10,9.82092688693185E+10,1.15275697380877E+11,9.78261688879180E+10,8.37705289313127E+10,9.16820849420850E+10,9.96603804811466E+10,1.11360000000000E+11,1.24507919496764E+11,,,,,
ITA,,,,,,,,,,,1.48254260911318E+11,1.41125130493894E+11,1.47400331752834E+11,1.55190299381143E+11,1.63705663318530E+11,1.42094491513794E+11,1.60603550647823E+11,1.60588874584382E+11,1.66677108266959E+11,1.76485092805623E+11,1.74611717275069E+11,1.62466946567513E+11,1.62866248296234E+11,1.66300482514033E+11,1.76844502630190E+11,1.82717713372615E+11,2.03229671313633E+11,2.10163039440097E+11,2.17621126440507E+11,2.26482395049277E+11,2.38120036957342E+11,2.41498671115805E+11,2.35030866610263E+11,2.44392531438026E+11,2.58775583930825E+11,2.80508035533708E+11,2.93796051567810E+11,2.91793459793277E+11,2.92871150285823E+11,2.88480456448164E+11,2.90567520021265E+11,3.02593433253371E+11,3.07498913402782E+11,3.00027774325207E+11,3.08796291291357E+11,2.94683951458000E+11,3.00459956802341E+11,3.15524224481782E+11,2.94860223316582E+11,2.54036873151575E+11,2.53174467972422E+11,
JOR,,,,,,,,,,,,,,,,,-2.58726853883815E+08,-3.05547830610301E+08,-3.65469802531869E+08,-6.96905459196818E+08,-3.21853966097744E+08,-4.07549022322878E+08,-5.10139386978820E+08,-4.98009084379894E+08,-4.94421394677949E+08,-6.06587197132989E+08,-2.85727347010055E+08,-2.71799337748886E+08,-6.14405119965172E+07,1.30364274107937E+08,5.17418608820143E+07,1.54896695192765E+08,1.59528341925626E+08,3.31623505308831E+08,4.65740986324219E+08,5.88729318864161E+08,3.38304262895779E+08,2.47304853526152E+08,1.38072527808039E+08,2.02170443720753E+08,-2.00841927500132E+08,-1.75965861934557E+08,9.11257730763378E+07,5.76958943994999E+07,8.38975442687702E+06,-1.20574143852971E+08,-1.25459380014381E+07,-3.72098418385973E+08,4.30680180990753E+07,-4.07052472624643E+08,-3.10067053762129E+08,
JPN,,,,,,,,,,,5.63165122787370E+13,5.91062736974571E+13,6.46063648298528E+13,6.78037443781600E+13,6.24085863029766E+13,6.01428174178818E+13,6.34192588351841E+13,6.68531090626421E+13,7.26994232137149E+13,7.17852491128462E+13,7.14612086324275E+13,7.60555573617257E+13,7.59079010708949E+13,7.58994042620514E+13,8.18764636412979E+13,9.14517534422618E+13,1.01139710988004E+14,1.05081434235263E+14,1.17921006671556E+14,1.25721865451626E+14,1.32234660095670E+14,1.39476448072984E+14,1.37887876560782E+14,1.35339239293758E+14,1.32124074787428E+14,1.32757166921860E+14,1.33610065860559E+14,1.36677875065612E+14,1.30467818013210E+14,1.23899362706230E+14,1.28727468386097E+14,1.22008153311847E+14,1.18512546629772E+14,1.20806777992337E+14,1.25531397663378E+14,1.25197000000000E+14,1.25265055480742E+14,1.27097920093759E+14,1.15111473366174E+14,9.56895318687649E+13,1.02280007024266E+14,
KEN,1.79490734080000E+10,1.62869073920000E+10,1.58880911360000E+10,2.02648412160000E+10,2.01200824320000E+10,1.50968634626969E+10,2.65183722825579E+10,2.33186355404670E+10,3.99282670688091E+10,4.58922781819382E+10,5.21648722135857E+10,3.44615953956178E+10,5.30360800138990E+10,7.26000919556296E+10,4.77334344408216E+10,4.23067957050057E+10,6.25540358223163E+10,8.82693145907382E+10,6.02640116809710E+10,6.07431107534521E+10,6.82531813567786E+10,8.61641186337480E+10,7.22793471367536E+10,7.85516414837694E+10,6.88138913614650E+10,9.05761115722228E+10,7.64635552962953E+10,8.27393501369052E+10,8.33031267806727E+10,8.42126687679070E+10,8.55731265925263E+10,9.52333656944597E+10,8.64231295609577E+10,1.01427962899396E+11,9.30046634943417E+10,4.95243821787652E+10,6.67270000000000E+10,4.53750000000000E+10,3.71850000000000E+10,3.23410000000000E+10,4.48230000000000E+10,4.52540000000000E+10,4.13110000000000E+10,4.34000000000000E+10,7.60150000000000E+10,8.75230000000000E+10,8.74480000000000E+10,9.51820000000000E+10,1.25043000000000E+11,1.04407000000000E+11,1.24655000000000E+11,
KHM,,,,,,,,,,,,,,,,,,,,,,,,,,,,,,,,,,-2.33514676656293E+11,-5.24717552307852E+10,-4.30172853192168E+10,-4.21040421417977E+11,4.80651979431279E+11,-1.18566035954607E+11,4.75019025022195E+11,7.90290599584268E+11,1.57617975841104E+12,1.49303838071124E+12,1.78544098742053E+12,1.83681965074618E+12,2.29854456074772E+12,3.48612273058617E+12,3.84559481843624E+12,6.29062687280998E+12,4.49372918798427E+12,4.22679042559068E+12,
KOR,,,,,,,,,,,7.84495182657250E+12,8.58741194292347E+12,9.36030075256750E+12,1.32110518888058E+13,1.59461567202345E+13,1.63637905356819E+13,2.07737775850851E+13,2.69575401056651E+13,3.28892878414356E+13,3.68897916182377E+13,3.10293339638966E+13,3.29990484850999E+13,3.72452639602435E+13,4.41864835960118E+13,5.12367031581120E+13,5.48555441818953E+13,6.31030241511733E+13,7.55078243416173E+13,8.69585763234188E+13,8.83904636906671E+13,1.01485995218864E+14,1.12726897890848E+14,1.16023955483057E+14,1.25361434715655E+14,1.39893526588998E+14,1.50640615038397E+14,1.62134075864714E+14,1.73809456807361E+14,1.75462821592221E+14,1.94278295416088E+14,2.14786800000000E+14,2.17185400000000E+14,2.28385800000000E+14,2.44845400000000E+14,2.72335500000000E+14,2.80245100000000E+14,2.94502800000000E+14,3.10592500000000E+14,3.19278600000000E+14,3.12787900000000E+14,3.44818500000000E+14,
LBN,,,,,,,,,,,,,,,,,,,,,,,,,,,,,,,,,,,-1.96774881934613E+12,-1.69463944325864E+12,-9.39767415984410E+11,-9.24000000000000E+11,-7.00502000000000E+11,-1.11633614500000E+12,-1.10574469109500E+12,-1.47416650100315E+12,-1.40289986635108E+12,-1.42480324865195E+12,-3.98307355609899E+11,3.73832718141273E+11,9.60910428400372E+11,1.40605526857355E+12,1.43850772602023E+12,1.61330528363477E+12,4.11464462380567E+12,
LSO,-1.26568920000000E+08,-1.50920224000000E+08,-1.61049776000000E+08,-1.84809392000000E+08,-1.79189408000000E+08,-1.97003470200957E+08,-2.72165803318777E+08,-2.36019755200000E+08,-2.37300138247934E+08,-2.05775372477366E+08,-2.53650832000000E+08,-3.88153977600000E+08,-4.43881268837209E+08,-4.77539018947368E+08,-6.32405379443038E+08,-9.33937608069565E+08,-1.06388788853933E+09,-8.89935387767196E+08,-8.75749662476191E+08,-1.00285085880795E+09,-8.43093633055135E+08,-1.04989855837685E+09,-1.14772843321281E+09,-1.57114293592062E+09,-1.54472763385664E+09,-1.26420194411687E+09,-1.22505301641549E+09,-1.46325955291424E+09,-1.41309054460847E+09,-1.28792168802742E+09,-1.01614904394686E+09,-1.26743284471904E+09,-1.13632733404367E+09,-1.09122513864282E+09,-9.20729478162073E+08,-8.23086376168520E+08,-8.02958977088050E+08,-1.28445871895213E+09,-1.32457543360501E+09,-1.30576740964052E+09,-9.75005770814489E+08,-8.58249327629333E+08,-1.40443161481390E+09,-2.13447307417699E+09,-3.69600000000000E+09,-4.08476668568169E+09,-3.66504816454049E+09,-3.24084955952112E+09,-3.07582278317986E+09,-4.22524296458030E+09,-1.95700448163771E+09,
LUX,,,,,,,,,,,3.33955405964282E+09,2.69562865104282E+09,3.03612993461514E+09,4.02433984651490E+09,4.74548437348932E+09,2.62070925648157E+09,2.83315148390727E+09,2.37026098043458E+09,2.53960255150944E+09,2.65850308205577E+09,2.44640167819866E+09,2.19652214405308E+09,2.36882076417628E+09,2.47871481862576E+09,2.84597473040795E+09,3.15096364203274E+09,3.72492033468221E+09,3.58429416572951E+09,4.29955029681936E+09,5.20157649810568E+09,5.33015203749031E+09,5.78766974393748E+09,6.11707476797170E+09,6.95081724434898E+09,7.59113120694770E+09,7.71757645774746E+09,7.69648027857093E+09,7.51345317778052E+09,7.92225613646823E+09,9.67515877417719E+09,1.01906544591228E+10,9.94863876568478E+09,1.05331301065459E+10,1.29922636355867E+10,1.32882240326381E+10,1.45318000000000E+10,1.66763880076484E+10,1.86147868115848E+10,1.94444445454093E+10,1.69838632718510E+10,1.81859039688476E+10,
MAR,,,,,,2.18095032812018E+10,1.74205454191325E+10,2.07164398446861E+10,2.07050264534638E+10,2.87455893221531E+10,3.35329006926932E+10,3.62730358708600E+10,3.50510610331007E+10,3.64512125944927E+10,4.07103267407976E+10,3.65449823780389E+10,3.53262295491383E+10,3.80338214200374E+10,3.23216539370124E+10,3.19223644073707E+10,4.47592242887244E+10,4.00169215002820E+10,4.63162652163457E+10,4.55425404151928E+10,4.69914905866028E+10,5.33631443926133E+10,5.46818462542529E+10,5.31022895834226E+10,6.47553650069197E+10,6.43965128058942E+10,6.91614754980566E+10,6.75340104394687E+10,5.92230333178812E+10,6.08483463282580E+10,6.46520401210438E+10,5.78386968164377E+10,7.23051115276090E+10,7.51353420101031E+10,8.57360000000000E+10,8.41859463829492E+10,7.90684677510328E+10,9.70075767242772E+10,1.04085385974557E+11,1.16135936596796E+11,1.17936347273021E+11,1.16575969365875E+11,1.28255164930768E+11,1.28523833950021E+11,1.28664960215063E+11,1.46349272508384E+11,1.50035454668789E+11,
MDG,1.06657000000000E+08,2.61693158400000E+09,-7.38693312000000E+08,-6.78512793600000E+09,-2.87610240000000E+09,-7.36466257591764E+09,1.60634489465703E+09,1.37137251400597E+10,1.33515927391488E+10,1.55556675706715E+10,2.55681682684423E+10,8.46180016799561E+09,1.23906851336434E+10,1.09379729836925E+10,1.74127367186415E+10,1.34108248792090E+10,2.17125518616285E+10,1.53112857433827E+10,3.93053230295418E+09,-1.30506506645460E+10,-1.87496384246295E+10,-5.44016073055268E+09,-7.06666603638358E+09,1.74930045990418E+09,1.50786273810317E+10,2.38604856849864E+09,2.02113340648809E+10,2.36205283713430E+10,3.45186586880245E+10,4.28683050973368E+10,3.94993489584986E+10,1.26019335778965E+10,2.33950889384505E+10,2.17315795279440E+10,2.23467057364560E+10,2.38982572387966E+10,2.94040783892871E+10,2.64468526954178E+10,3.25259755043436E+10,3.88990182889184E+10,4.52408221489534E+10,6.75402689581851E+10,2.56129221018691E+10,3.02656049160460E+10,5.86281035046705E+10,4.46312356158849E+10,6.40348365286847E+10,7.37181799957769E+10,9.00516699561958E+10,7.25588276181320E+10,,
MEX,2.73398710272000E+11,2.95904477184000E+11,3.03356641280000E+11,3.54966241280000E+11,4.12216786944000E+11,4.74322182968861E+11,5.19397095762916E+11,5.25764753222836E+11,6.13238034090992E+11,5.76648014855801E+11,6.06633272830417E+11,6.08814291978759E+11,6.89136527176496E+11,7.76107256289686E+11,8.65499291142249E+11,8.55980260660597E+11,9.27090917170266E+11,9.32664202564104E+11,1.03822302692294E+12,1.17019060459163E+12,1.25083535033241E+12,1.41442610216571E+12,1.46334692718598E+12,1.23617579770987E+12,1.27008800846509E+12,1.25885721418302E+12,9.53780821111019E+11,1.06507830179445E+12,1.02324824161910E+12,9.88903707801124E+11,1.05610909834046E+12,1.06143269562378E+12,1.07366185901944E+12,1.11092338113826E+12,1.17310314862540E+12,1.10572404196377E+12,1.34207753884264E+12,1.53401882292114E+12,1.54625411296664E+12,1.64205505637916E+12,1.78875704040786E+12,1.66424626424003E+12,1.67776585836317E+12,1.61920400000000E+12,1.63170430253617E+12,1.66009520062234E+12,1.80759609030283E+12,1.83706169763248E+12,1.83714942187400E+12,1.61107365804239E+12,1.71067776529740E+12,
MLI,,,,,,,,3.87664609280000E+10,4.76693913600000E+10,4.85905571840000E+10,5.35836344320000E+10,4.65913077760000E+10,4.48478453760000E+10,4.16514621440000E+10,-4.22935244800000E+09,1.53483857920000E+10,3.91037296640000E+10,6.88864542720000E+10,2.52453089280000E+10,4.40801730560000E+10,4.11457044480000E+10,3.59899054080000E+10,3.66030274560000E+10,1.03945553920000E+10,9.05747148800000E+09,-2.72363929600000E+10,7.31312128000000E+09,2.44079656960000E+10,1.05447813120000E+10,1.87455897600000E+10,3.51957975040000E+10,3.20191856640000E+10,2.16436203520000E+10,3.14196582400000E+10,1.55959111680000E+10,2.90142945280000E+10,2.98214932480000E+10,4.53166243840000E+10,4.63622815489762E+10,4.20635254181589E+10,8.41900848586644E+10,1.49865324069131E+11,1.37333721039586E+11,1.93604039507142E+11,1.39086012826887E+11,1.53151483052987E+11,,,,,,
MNE,,,,,,,,,,,,,,,,,,,,,,,,,,,,,,,,,,,,,,,,,8.62490000000000E+07,-4.18133109345484E+06,-4.15620886362832E+07,-5.96804684336674E+06,-7.72524740824580E+06,-1.99559835458622E+07,-1.54825145837378E+08,-3.04893914375924E+08,-4.80184137704793E+08,-2.49450148289629E+08,-1.46041948797709E+08,
MOZ,,,,,,,,,,,,,,,,,,,,,-2.00123055536095E+10,-1.79259365255129E+10,-2.00508380017918E+10,-1.69975814482809E+10,-1.51995914674149E+10,-1.12315607503787E+10,-1.26742283062650E+10,-1.23341269206571E+10,-1.07398062164648E+10,-1.21265475283598E+10,-9.24649797235642E+09,-9.13174543927002E+09,-8.48380867989949E+09,-7.80187283503199E+09,-9.22239544626719E+09,-7.41980191598118E+09,-6.69001862863157E+09,-6.99362902712073E+09,-8.72158940967811E+09,-2.00121206142049E+10,-6.06413403161809E+09,3.96496408174436E+09,7.18019850756378E+09,6.74536601890248E+09,9.14807352464359E+09,1.10514164365913E+10,1.03519295335310E+10,7.72836357318400E+09,1.17470296894028E+10,1.58797718124474E+10,2.78077132176057E+10,
MWI,-7.47224473600000E+09,-2.32101683200000E+09,-5.87895910400000E+09,-6.41230745600000E+09,-1.18025049600000E+09,2.14999888000000E+08,4.48247712000000E+08,5.31622176000000E+08,3.98395552000000E+08,6.87268928000000E+08,2.24149350400000E+09,1.77047603200000E+09,2.39793433600000E+09,2.11784640000000E+09,2.94557542400000E+09,3.35262208000000E+09,3.49261132800000E+09,3.99925862400000E+09,4.84284569600000E+09,3.30978176000000E+09,2.62410675200000E+09,2.63302784000000E+09,3.36896076800000E+09,3.58947891200000E+09,3.21753600000000E+09,2.99390105600000E+09,1.82070220800000E+09,2.45125708800000E+09,2.06478323200000E+09,1.07141094400000E+09,2.02797964800000E+09,3.51202099200000E+09,4.23495040000000E+08,-2.63344080000000E+08,-3.11200000000000E+08,-4.74188680000000E+07,2.75482976000000E+08,-5.50554048000000E+08,1.20365452800000E+09,-1.81265696000000E+08,3.87958976000000E+08,1.21626664000000E+08,-2.35307280000000E+08,1.55254208000000E+08,1.10362444800000E+09,2.63916518400000E+09,3.82850739200000E+09,6.13815091200000E+09,6.83339520000000E+09,,,
MYS,9.33014118400000E+09,7.14076057600000E+09,7.18923878400000E+09,7.28130150400000E+09,7.42209228800000E+09,9.38514914613456E+09,9.77125689801894E+09,9.65083785897396E+09,1.04878742312783E+10,1.33284348885590E+10,1.37311137136337E+10,1.23496081519418E+10,1.17857485915620E+10,1.96774760729452E+10,2.12252990625137E+10,1.67138526529553E+10,2.58056477498808E+10,2.84681881816598E+10,2.91168454543413E+10,3.61541234697581E+10,3.51254355165220E+10,3.19538201707269E+10,3.38636071701626E+10,3.96623227105490E+10,5.24293202264387E+10,4.70438602442566E+10,4.24222231382166E+10,5.37932757282565E+10,5.78356689348190E+10,6.20173007056624E+10,6.71472276978989E+10,7.41854598806187E+10,8.78928324777446E+10,1.03616421255755E+11,1.12414101175796E+11,1.34230741287795E+11,1.60905685089491E+11,1.76742906184775E+11,1.66974527415683E+11,1.78636459470751E+11,1.64581000000000E+11,1.55666000000000E+11,1.63775000000000E+11,1.68052000000000E+11,1.73929500000000E+11,1.74608000000000E+11,1.84046000000000E+11,1.84592000000000E+11,,2.08131409455946E+11,,
NAM,,,,,,,,,,,,,,,,,,,,,6.95525748706871E+09,1.24329152917387E+09,3.17795087981137E+08,2.60434344724981E+08,-1.13073709639632E+08,2.98954986402610E+09,1.98039924990066E+09,-3.64022333277962E+08,1.67461137522837E+09,1.89557177118522E+09,2.92864724479598E+09,5.72817933948496E+08,1.76332975554277E+09,2.42756506849306E+09,4.28063793121825E+09,3.60532540103623E+09,3.90827004894769E+09,2.71331915459573E+09,3.74977139421551E+09,3.69987584606397E+09,4.80583985765125E+09,5.96673490416982E+09,6.72034697352199E+09,4.10212772697083E+09,7.17100000000000E+09,8.73329241431181E+09,1.00124800035628E+10,5.23900000000000E+09,2.71300000000000E+09,-2.64300000000000E+09,9.66836813997395E+09,
NER,4.12060057600000E+10,3.62079027200000E+10,4.71381524480000E+10,9.33826723840000E+10,5.11348080640000E+10,3.37691607040000E+10,3.78612080640000E+10,2.76821647360000E+10,3.02952058880000E+10,-6.98646656000000E+08,3.98103388160000E+10,4.42154557440000E+10,4.96773365760000E+10,7.80980797440000E+10,2.83169075200000E+10,4.91560550400000E+10,4.89205145600000E+10,6.69710008320000E+10,1.11930236928000E+11,1.28662052864000E+11,1.22627309568000E+11,6.99102494720000E+10,2.97043886080000E+10,4.08953487360000E+10,-1.31707315200000E+09,5.71811788800000E+09,6.92571095040000E+10,4.87999979520000E+10,9.54151649280000E+10,5.27271608320000E+10,9.16675686400000E+09,2.03547402240000E+10,3.61786818560000E+10,2.56060497920000E+10,1.55183912960000E+10,1.08484608000000E+10,2.67952476160000E+10,2.90743767040000E+10,3.14404147200000E+10,3.58359654400000E+10,,,,,,,,,,,,
NIC,,,,,,,,,,,,,,,,,,,,,,,,,,,,,,,,,,,7.59900000000000E+08,1.35633495931056E+09,1.57741947714083E+09,1.72369279063233E+09,1.74736413851638E+09,1.38912509966103E+09,1.00991537976394E+09,3.29100829777413E+08,-2.66820186065492E+08,-3.34393632591655E+08,1.12954901100255E+08,-2.68580196870804E+06,4.57618908976287E+08,8.31448441009609E+08,2.45201572181055E+08,2.30134004083920E+08,7.71853378359543E+08,
NLD,,,,,,,,,,5.00205265666766E+10,5.25894104543485E+10,5.38699792199348E+10,5.51485279459759E+10,6.04519557409260E+10,5.97268157421903E+10,5.50184104632322E+10,5.71928133213891E+10,5.63259922767797E+10,5.53090135349008E+10,5.31381800049277E+10,5.42148220525683E+10,5.37452647549964E+10,5.22576958318559E+10,5.38764775159636E+10,6.08536045387766E+10,6.20646396752270E+10,6.63409431483035E+10,6.30809503286129E+10,6.90250881727187E+10,7.53138384006163E+10,7.94689961721667E+10,8.11145557280757E+10,8.26326435331686E+10,8.26389560711706E+10,8.79129767686367E+10,9.28735680270448E+10,9.82895980125325E+10,1.07793501667647E+11,1.12574591881870E+11,1.17642844530714E+11,1.24920766153070E+11,1.28794317535097E+11,1.26505776787313E+11,1.25480363534882E+11,1.31633596800900E+11,1.41379000000000E+11,1.46588687848517E+11,1.57377014473775E+11,1.60542015188827E+11,1.36435898425277E+11,1.40820226078456E+11,
NOR,,,,,,,,,,,1.66362250865596E+11,1.76489971783992E+11,1.81098468386715E+11,2.00698397256098E+11,2.09036941832123E+11,2.00931367948818E+11,2.01774107515379E+11,1.96749364342111E+11,2.07927321412624E+11,2.24300063169040E+11,2.58538673970427E+11,2.69559173718241E+11,2.66351054957259E+11,2.71766908220817E+11,3.06569772728073E+11,3.03593677147845E+11,2.65415825809326E+11,2.59441340632068E+11,2.54041237210742E+11,2.68402169742904E+11,2.75115313058730E+11,2.78050051163958E+11,2.68218119375641E+11,2.81471810620920E+11,2.98393625445240E+11,3.28062999368317E+11,3.69428101582545E+11,4.19047528518129E+11,3.85201829663997E+11,4.33651872743255E+11,5.95549583789401E+11,5.81356626283978E+11,5.34196938830304E+11,5.30462446321600E+11,6.00365441962958E+11,7.32315000000000E+11,8.33730377124904E+11,8.08358361307734E+11,9.15855807203025E+11,6.76376411676455E+11,7.24184128709147E+11,
NPL,,,,,,,,,,,,,,,,,,,,,,,,,,,,,,,,,,,,,,,,,,5.15009643031567E+10,3.66610000000000E+10,3.84450272524157E+10,5.25520000000000E+10,5.07820000000000E+10,4.55640000000000E+10,4.63810000000000E+10,7.16690000000000E+10,6.64950000000000E+10,-3.34100000000000E+09,
NZL,,,,,,,,,,,,,,,,,,1.27888973986725E+10,1.17466315714199E+10,1.22518228554112E+10,1.14914832100488E+10,1.30999657906148E+10,1.41329890498130E+10,1.56815578383258E+10,1.71098731321795E+10,1.63438186089806E+10,1.71716602400487E+10,1.75658514275812E+10,1.88482676508555E+10,1.89923123491191E+10,1.75591174823049E+10,1.61969658039390E+10,1.70763176430660E+10,2.08502760833439E+10,2.27715990663869E+10,2.39573523939847E+10,2.45670314823999E+10,2.42826546810732E+10,2.33417938205419E+10,2.59272000418897E+10,2.81433744291740E+10,3.07833109916993E+10,3.24491528321241E+10,3.47027635312712E+10,3.65560272200820E+10,3.60994257000000E+10,3.56651923082676E+10,3.96443415217502E+10,3.72226872821079E+10,3.50940064942876E+10,,
OMN,,,,,,,,,,,,,,,,,,,3.63900192000000E+08,5.51314624000000E+08,7.16958336000000E+08,9.07106048000000E+08,8.79430720000000E+08,9.52663936000000E+08,1.24638912000000E+09,1.33840140800000E+09,,,,,,,,,,,,,,,,,,,,,,,,,,
PER,3.82509651184082E+01,3.71252975463867E+01,3.82515449523925E+01,3.51227989196777E+01,4.20713691711425E+01,4.17000007629394E+01,5.15000000000000E+01,5.52999992370605E+01,5.47000007629394E+01,6.25000000000000E+01,4.87000007629394E+01,5.29000015258789E+01,5.04000015258789E+01,7.55999984741210E+01,9.60999984741210E+01,9.03000030517578E+01,1.20400001525878E+02,1.47699996948242E+02,3.81200012207031E+02,1.05869995117187E+03,1.90969995117187E+03,3.23600000000000E+03,5.28689990234375E+03,7.62789990234375E+03,1.69164003906250E+04,4.69710000000000E+04,7.19030000000000E+04,1.41521000000000E+05,9.23324000000000E+05,1.72308611829898E+07,1.00200000000000E+09,4.01196346804301E+09,6.45393845988388E+09,1.06597500000000E+10,1.59695458764840E+10,1.73402937000000E+10,1.60681233720000E+10,1.96997555760000E+10,1.94275189380000E+10,2.13475056340000E+10,2.01583492500000E+10,1.94019236400000E+10,2.05796801400000E+10,2.08659761800000E+10,2.97171090000000E+10,3.50594890000000E+10,4.56355380000000E+10,5.33374243099788E+10,6.31239548153826E+10,5.01504309973894E+10,6.81679055368618E+10,
PHL,3.23562967040000E+10,3.13919180800000E+10,3.04220241920000E+10,4.60162867200000E+10,4.55684259840000E+10,5.04105205760000E+10,5.72023971840000E+10,5.24840304640000E+10,4.74693468160000E+10,4.80368230400000E+10,6.53685145600000E+10,6.65318481920000E+10,6.78740213760000E+10,9.77909022720000E+10,8.38272860160000E+10,8.78250721280000E+10,9.80174848000000E+10,1.08007170048000E+11,1.12681877504000E+11,1.38668629593309E+11,1.30191790512695E+11,1.43760431019160E+11,1.39085787845157E+11,1.48615943005181E+11,1.14292262775277E+11,9.41830000000000E+10,1.14690602921423E+11,1.10933960710495E+11,1.35419615898408E+11,1.31884191483589E+11,1.26310180126510E+11,1.18624520373840E+11,1.12610641204494E+11,9.79504497891589E+10,1.22747160757625E+11,1.11253231118917E+11,1.21279293071626E+11,1.36083430346186E+11,1.42158026886528E+11,1.94355244640302E+11,2.56516337355695E+11,1.91087565897909E+11,2.06969933052937E+11,1.54859050398830E+11,3.31460225602526E+12,3.43151387861387E+12,3.65477660357983E+12,3.91837385660853E+12,4.05420953733321E+12,4.12568435759540E+12,4.11733873360496E+12,
POL,,,,,,,,,,,,,,,,,,,,,,,,,,,,,,,1.23755386854599E+11,7.54421181786713E+10,7.69523175718169E+10,8.44404143888000E+10,9.81570132326557E+10,1.22097287885077E+11,1.19245407506719E+11,1.26957371433032E+11,1.39576140316766E+11,1.39953468042515E+11,1.41115029370571E+11,1.37395253483198E+11,1.27466733297200E+11,1.39912087380089E+11,1.65842500646889E+11,1.82157000000000E+11,2.01290786663146E+11,2.40742104188509E+11,2.35726746719400E+11,2.52417190580439E+11,2.60062473695512E+11,
PRI,,,,,,,,,,,,6.88306880000000E+07,7.69457520000000E+07,1.05181864000000E+08,1.36303632000000E+08,-6.51304120000000E+07,-1.22363664000000E+08,-4.04215240000000E+07,1.09339744000000E+08,2.92736672000000E+08,4.01879456000000E+08,4.34022848000000E+08,4.72300224000000E+08,3.46213536000000E+08,5.24636576000000E+08,5.05005504000000E+08,7.30705024000000E+08,8.55219648000000E+08,1.01021017600000E+09,1.14285401600000E+09,,,,,,,,,,,,,,,,,,,,,,
PRT,,,,,,,,,,,1.01968626122769E+10,9.46089260375847E+09,1.16574405379017E+10,1.35495952438056E+10,1.01981980717258E+10,4.56299769370020E+09,6.28043334737495E+09,9.16023958523685E+09,1.07714891439053E+10,1.24981126467851E+10,1.31734715231365E+10,1.27111332419795E+10,1.29031353447456E+10,1.12746013498278E+10,9.75091904327319E+09,1.04256400598972E+10,1.26112330257018E+10,1.48993094451654E+10,1.67940368484652E+10,1.81417260988303E+10,1.94402431980624E+10,1.82965125217474E+10,1.79287396213997E+10,1.60959326869838E+10,1.86629620352510E+10,2.04671099464001E+10,2.08196079452943E+10,2.30611349971486E+10,2.52830253788784E+10,2.57666346395719E+10,2.56784744122647E+10,2.64226834127576E+10,2.63013496269455E+10,2.50794632738737E+10,2.38679215284858E+10,2.18035000000000E+10,2.26571953575845E+10,2.39563700462270E+10,2.11119888651474E+10,1.92255953503462E+10,1.83749127436510E+10,
PRY,,,,,,,,,,,,,,,,,,,,,,,,,,,,,,,,1.74048975319215E+12,1.41821366211434E+12,1.37001824407980E+12,1.89330861600000E+12,2.09027214396329E+12,1.92983438117692E+12,1.81834466700000E+12,2.03814706600000E+12,1.96154450100000E+12,2.06380940000000E+12,2.18910370900000E+12,2.98088698000000E+12,3.25958412422569E+12,3.34052850042703E+12,3.21746500609971E+12,3.27757191904366E+12,3.58523392624550E+12,3.74089072599162E+12,3.29307645438529E+12,4.41959828906509E+12,
ROM,,,,,,,,,,,,,,,,,,,,,,,,,,,,,,,7.48187074560000E+10,6.60277288960000E+10,5.29167278080000E+10,5.44333332480000E+10,5.58148853760000E+10,5.02527508480000E+10,4.66872033280000E+10,4.05550694400000E+10,3.02775582720000E+10,3.65067591680000E+10,3.74393077760000E+10,3.35507804160000E+10,4.12976988160000E+10,4.11166474240000E+10,4.00719011840000E+10,3.53236513920000E+10,4.77009065759982E+10,5.43145254904418E+10,6.16157165902709E+10,5.19255815168583E+10,4.23401662933524E+10,
RUS,,,,,,,,,,,,,,,,,,,,,,,,,,,,,,,6.97011198232217E+12,6.80965972936864E+12,4.75082494789844E+12,3.38988033924736E+12,2.37900763500779E+12,2.09598591633396E+12,1.96050199259166E+12,1.71212204782033E+12,1.26867747440797E+12,1.64321833351980E+12,2.82880000000000E+12,2.68534034350616E+12,2.60609065108471E+12,3.10854666343539E+12,3.90063524349533E+12,4.74392544178384E+12,5.52646212483422E+12,5.59802320843417E+12,6.42090624362156E+12,3.86319658679309E+12,4.99816679563874E+12,
RWA,2.19414425600000E+10,2.04819804160000E+10,1.24631091200000E+10,2.74370713600000E+09,1.68927938560000E+10,1.16871628800000E+10,9.30970214400000E+09,8.91091148800000E+09,9.89295001600000E+09,7.43305369600000E+09,1.18450769920000E+10,1.36357724160000E+10,1.76657141760000E+10,2.63907082240000E+10,1.95318681600000E+10,3.14237009920000E+10,3.96091146240000E+10,4.86154813440000E+10,3.89226168320000E+10,3.99639920640000E+10,4.24090992640000E+10,3.60649400320000E+10,6.82065797120000E+10,5.80724203520000E+10,9.19610408960000E+10,9.51318528000000E+10,8.99500195840000E+10,7.54865274880000E+10,7.48302663680000E+10,6.25663139840000E+10,5.13617346560000E+10,7.62905344000000E+09,1.64852695040000E+10,8.26091878400000E+09,-1.03974559744000E+11,-2.46265303040000E+10,-2.00558755840000E+10,-2.00018616320000E+10,-1.66769592320000E+10,-8.34625664000000E+08,5.36902246400000E+09,8.05908275200000E+09,,,,,,,,,,
SAU,,,,,,,,,,,,,,,,,,,,,,,,,,,,,,,,,,,,,,1.83302602752000E+11,1.34875471872000E+11,1.97278007296000E+11,2.63027326976000E+11,2.36243271680000E+11,2.57438384128000E+11,,,,,,,,,
SDN,-1.87879136000000E+08,-2.31332864000000E+08,-2.75568288000000E+08,-1.97277856000000E+08,-1.81974704000000E+08,-1.83050160000000E+08,-4.46820320000000E+07,-1.24603720000000E+08,-2.13606960000000E+08,-7.60656400000000E+07,-1.16809768000000E+08,-2.79120288000000E+08,-2.40321232000000E+08,-5.38677720000000E+07,-1.26025424000000E+08,-1.24962440000000E+08,-5.69474400000000E+07,-3.59291200000000E+08,-5.06072448000000E+08,-6.35984704000000E+08,-9.36782016000000E+08,-7.42308800000000E+08,-7.28100800000000E+08,-1.00274067200000E+09,-1.30905228800000E+09,-1.11631667200000E+09,-4.13066112000000E+08,-5.48328960000000E+08,-6.30613184000000E+08,-5.88737152000000E+08,-5.79811392000000E+08,-9.80429440000000E+08,-8.81697728000000E+08,-6.64112384000000E+08,-9.83666624000000E+08,-6.99062400000000E+08,4.71122240000000E+08,1.08294668800000E+09,1.23154355200000E+09,9.86193536000000E+08,2.31603263989848E+09,1.46808608383725E+09,2.13643402266902E+09,2.74736516414538E+09,3.49719157769623E+09,2.67400979883018E+09,2.96309350237411E+09,4.93573376961628E+09,6.46634279164169E+09,,,
SEN,2.07078768640000E+11,2.15103619072000E+11,1.64191502336000E+11,1.66837649408000E+11,1.67971323904000E+11,2.23269239018713E+11,1.88193656448302E+11,1.51051736680385E+11,9.14002774295984E+10,1.07456781254355E+11,2.00188821267322E+11,1.73942070005905E+11,2.71316008071864E+11,1.77473647603898E+11,2.55805267329999E+11,2.62844006790061E+11,2.01314257771636E+11,1.73139209535125E+11,8.23722463010625E+10,1.22515736159841E+11,8.77073510372920E+10,1.66420103553339E+11,1.16029783401896E+11,-1.77754480263591E+10,9.20409996526331E+10,2.55620973977856E+11,1.84932066947542E+11,2.23731399394442E+11,1.69790792998964E+11,1.26762208995103E+11,1.93090217312163E+11,2.13470524188055E+11,2.12497491189298E+11,1.51540545701746E+11,8.82145023671636E+10,1.75821313784171E+11,1.83036882302907E+11,2.72563670129739E+11,2.56401318751930E+11,3.44704610352227E+11,3.54941052780082E+11,3.89286805452681E+11,2.49340127457173E+11,4.22795114368489E+11,4.00382876408724E+11,3.37368887802529E+11,3.75579218210797E+11,3.02284162448114E+11,7.06243427404341E+10,5.25261845112582E+11,6.43459922949016E+11,
SGP,,,,,,6.98046136320000E+10,8.48221388800000E+10,1.01691367424000E+11,1.14647269376000E+11,1.36393940992000E+11,1.67952941056000E+11,2.18290159616000E+11,2.78095101952000E+11,3.15876540416000E+11,2.84367945728000E+11,2.84466642944000E+11,3.86364571648000E+11,4.39192682496000E+11,5.20746500096000E+11,5.37913163776000E+11,5.50312345600000E+11,6.05316907008000E+11,6.19367759872000E+11,7.09974949888000E+11,8.17333207040000E+11,8.52007256064000E+11,1.14328797184000E+12,1.35300526899200E+12,1.31275397529600E+12,1.30019609804800E+12,1.25715021824000E+12,1.36464039936000E+12,1.41469325721600E+12,1.51520123289600E+12,1.57117513728000E+12,1.83863450009600E+12,2.04051028377600E+12,2.21289722675200E+12,2.28750078771200E+12,2.41029139660800E+12,2.40259589734400E+12,,,,,,,,,,,
SLE,,,,,,,,,,,,,,,,,,,,,-1.61338107729330E+10,-1.46840288433220E+10,-1.03734560762981E+10,-1.07122344614632E+10,-2.06021871773254E+09,-1.15626774444690E+09,-4.31262622587727E+09,1.35042532573309E+10,2.79768923369885E+10,1.82423631239721E+10,8.56999884800000E+09,8.39235141787297E+09,7.42673112307314E+09,6.33218580893520E+09,1.16499712758208E+10,1.23998373608749E+08,,,,,,,,,,,,,,,,
SOM,1.61904000000000E+09,5.64643584000000E+08,-2.42956928000000E+09,-6.28434368000000E+08,-2.14062502400000E+09,2.35683865600000E+09,1.03079590400000E+09,8.93427968000000E+08,1.81429619200000E+09,1.41553779200000E+09,2.30901862400000E+09,1.04461376000000E+09,3.69546470400000E+09,6.79812736000000E+08,-9.64072576000000E+08,7.89975760000000E+07,1.12637555200000E+09,-1.12816558080000E+10,-1.80343680000000E+09,-1.62942197760000E+10,-6.63006310400000E+09,-1.05348311040000E+10,-1.03001794560000E+10,-1.81714083840000E+10,-1.72558991360000E+10,1.46971013120000E+10,-1.30803056640000E+10,-9.13122406400000E+09,-4.89373952000000E+09,-1.21405890560000E+10,,,,,,,,,,,,,,,,,,,,,,
SVK,,,,,,,,,,,,,,,,,,,,,,,,,,,,,,,,,6.53723266221914E+09,5.69774686337653E+09,7.49634578181639E+09,8.43937379328522E+09,7.76055490191477E+09,9.09792062522662E+09,8.48835902350563E+09,8.55915414200278E+09,8.93204949428551E+09,8.52443794822910E+09,8.76860882611952E+09,9.75844541938002E+09,1.09557546324362E+10,1.19385350000000E+10,1.29611439471546E+10,1.59259853385019E+10,1.58791612651931E+10,1.15995889072011E+10,1.39760333541485E+10,
SVN,,,,,,,,,,,,,,,,,,,,,,,,,,,,,,,,,,,,3.91525290777993E+09,4.24091772416342E+09,4.78531287411374E+09,5.06973747701880E+09,5.27619308419998E+09,5.63451207762214E+09,6.03342211582370E+09,6.71622854552827E+09,7.00780535351811E+09,7.42433180449939E+09,7.68338589700000E+09,8.61852317195160E+09,9.89344901882376E+09,9.73528657144700E+09,7.70283562093032E+09,7.38072268696361E+09,
SWE,,,,,,,,,,,3.00581043113183E+11,3.01112285811815E+11,3.01169388391672E+11,3.21752391742767E+11,3.02209108092667E+11,3.27341181393427E+11,3.02158860825142E+11,2.57170021811735E+11,2.55822953628531E+11,2.68233630587496E+11,2.81391608589350E+11,2.63337727822505E+11,2.58180426299567E+11,2.87442251975469E+11,3.37863896252050E+11,3.44528101992898E+11,3.68860881143808E+11,3.71640552653258E+11,3.93686594229720E+11,4.22240690826975E+11,4.22553430023942E+11,3.84234438666648E+11,3.63209320618253E+11,3.39084346314277E+11,3.98152233566441E+11,4.79893239904510E+11,4.83102600857717E+11,5.11758983432746E+11,5.39750869412821E+11,5.64221639282301E+11,5.96677594113394E+11,5.98540430246814E+11,5.95394206102237E+11,6.20945717999516E+11,6.82471071444347E+11,7.08075000000000E+11,7.73638568503389E+11,8.35602043917446E+11,8.03460696075442E+11,6.49803910393885E+11,7.35666626603537E+11,
SWZ,,,,,,,,,,,,,,,,,,,,,-6.11070895795663E+08,4.41580877845783E+07,-2.20430318152788E+08,5.47066729298120E+08,5.08189743529953E+08,4.55139939786662E+08,1.19733580798614E+09,2.64985794248783E+09,2.83247405995148E+09,3.11578937276409E+09,2.51101261939929E+09,2.49642583163140E+09,2.08878439325088E+09,1.74647738295894E+09,2.70107525565348E+09,1.97408611308953E+09,9.77531320884912E+08,1.44954242760274E+09,1.25127150272733E+09,5.09113030138988E+08,3.37660356750435E+08,2.48814285714287E+08,1.16652806324111E+09,2.07596756756757E+09,1.31769809976247E+09,9.99720408163265E+08,1.22318073196986E+09,1.39091640000000E+09,-5.20160657193607E+08,-1.22060427074940E+09,-1.33394088385430E+09,
SYC,,,,,,,,,,,,,,,,,,,,,,,,,,3.43103123779773E+08,4.06887266648091E+08,4.29833023322364E+08,4.75391388699796E+08,5.42720064338235E+08,3.27031545953523E+08,3.09756954892671E+08,3.03904088050314E+08,2.55685077898736E+08,5.24119291020078E+08,3.79387707818655E+08,4.78590643151336E+08,5.50329446239040E+08,6.99319762234346E+08,1.00719334859961E+09,1.09189071135481E+09,9.02198638421120E+08,,,,,,,,,,
SYR,,,,,,,,,,,2.11650905138314E+10,,,,,3.61228084972503E+10,6.21697010819273E+10,2.62239710792433E+10,2.85185100395814E+10,2.99918677220119E+10,5.45946117555490E+10,5.88703825497191E+10,9.27844091587580E+10,9.39493728516767E+10,1.00355087486724E+11,7.65439382711909E+10,9.55449966450806E+10,3.11833206757372E+10,4.69592450052368E+10,6.78628938042227E+10,1.11362256479088E+11,6.98064852055179E+10,8.81174716243152E+10,8.84323633149545E+10,1.28701727696118E+11,1.46331565717665E+11,1.30003359174889E+11,1.41774673455129E+11,1.61189305221262E+11,1.62540603077381E+11,2.22263758356712E+11,2.43268011035349E+11,2.73696157086281E+11,2.76368841743271E+11,2.19398993638853E+11,2.21559791036466E+11,1.50224870200204E+11,1.50224870201204E+11,1.22807161800235E+11,1.34119685197130E+11,,
TCD,1.33117493248000E+11,1.23568521216000E+11,5.23604705280000E+10,9.17587394560000E+10,4.60222013440000E+10,6.15207348565622E+10,8.10847869699785E+10,1.06398744576051E+11,1.03484406877944E+11,1.21797828944718E+11,1.05869826307901E+11,1.15838454008329E+11,1.02706061034969E+11,6.42124971861946E+10,9.74955928549466E+10,1.00059763775942E+11,8.62043952433502E+10,8.87507751098296E+10,6.49315071435918E+10,,,,,-3.00382135369730E+10,,-1.20170460998766E+11,-1.14685219636576E+11,-8.15811240108530E+10,-7.77955747139983E+10,-8.00603990455702E+10,-4.32650392947445E+10,-5.32099974364139E+10,-5.17686362343275E+10,-3.33993904196160E+10,-1.52218599000786E+10,9.76248354081470E+09,6.43186826138921E+10,5.65257175621190E+10,4.87889232652417E+10,-1.48982517753198E+09,4.49505128117047E+10,4.81506595988375E+10,-4.05344792724401E+11,2.05181158900400E+11,3.73512725303397E+11,5.72633186304000E+11,6.17755967488000E+11,,,,,
TGO,1.16516864000000E+10,1.59047485440000E+10,1.51935498240000E+10,1.22208225280000E+10,2.76752588800000E+10,3.56826316800000E+10,3.82111703040000E+10,3.54215649280000E+10,3.58875422720000E+10,4.28072345600000E+10,4.20292280320000E+10,4.21803540480000E+10,3.75392092160000E+10,3.84641474560000E+10,9.44594370560000E+10,4.73160007680000E+10,4.80920330240000E+10,5.93639137280000E+10,7.39999989760000E+10,5.08558172160000E+10,5.07155947520000E+10,4.61509836800000E+10,3.36376115200000E+10,3.67648235520000E+10,3.62202890240000E+10,3.17411164160000E+10,3.59328030720000E+10,3.76756633600000E+10,3.57742673920000E+10,3.72125204480000E+10,4.27348787200000E+10,2.60960706560000E+10,1.84425820160000E+10,4.64259328000000E+08,2.44330885120000E+10,2.49286164480000E+10,1.46783784960000E+10,-1.06337904000000E+08,1.15020820480000E+10,1.73724753920000E+10,6.40804608000000E+09,8.57745510400000E+09,1.39226603520000E+10,2.22720102400000E+10,2.54168965120000E+10,,,,,,,
THA,3.53856798720000E+10,4.15847137280000E+10,4.60206735360000E+10,5.52212848640000E+10,6.30276587520000E+10,7.15955240960000E+10,9.97192335360000E+10,9.97447516160000E+10,1.00010672128000E+11,1.20133279744000E+11,1.24547170304000E+11,1.33810315264000E+11,1.35219798016000E+11,1.82161653760000E+11,1.71081662464000E+11,1.59295258624000E+11,1.72556533760000E+11,1.95457024000000E+11,2.45647704064000E+11,2.09599823872000E+11,2.20208021504000E+11,2.42788876288000E+11,2.63034191872000E+11,2.59681419264000E+11,3.04316350464000E+11,3.15318075392000E+11,3.56322902016000E+11,4.01783488512000E+11,4.86679969792000E+11,5.50125240320000E+11,6.34850443264000E+11,7.44397799424000E+11,8.33686339584000E+11,8.98596798464000E+11,9.76865656832000E+11,1.06479786393600E+12,1.13406561484800E+12,1.09185256652800E+12,9.10084276224000E+11,8.83643318272000E+11,1.07248700000000E+12,1.08972300000000E+12,1.15770400000000E+12,1.26190600000000E+12,1.34134300000000E+12,1.37742400000000E+12,1.50441600000000E+12,1.63282600000000E+12,1.65676900000000E+12,1.54687200000000E+12,1.74658253800000E+12,
TJK,,,,,,,,,,,,,,,,,,,,,,,,,,,,,,,,,,2.40230495250939E+08,3.52939166701947E+08,3.46866256742411E+08,2.66508388121444E+08,1.96264935257467E+08,-2.97589529698968E+06,2.51363462433373E+08,1.66565020004724E+08,8.11919228615842E+07,6.21906654827530E+07,7.92846188212354E+07,-8.33980464041672E+07,-1.20878054129775E+09,-1.36467372502605E+09,-1.65498516277199E+09,-1.78793855856465E+09,-1.92848325687441E+09,-1.90891825204391E+09,
TTO,7.01320345600000E+09,6.67484467200000E+09,7.27119974400000E+09,6.55898265600000E+09,6.51226316800000E+09,6.95535820800000E+09,7.22533478400000E+09,6.46106112000000E+09,6.41676185600000E+09,4.89236838400000E+09,6.23598131200000E+09,8.61155737600000E+09,6.20012288000000E+09,7.30900633600000E+09,1.20708935680000E+10,1.20846776320000E+10,1.18854696960000E+10,1.34667970560000E+10,1.33822453760000E+10,1.43224944640000E+10,1.98050816000000E+10,1.80971581440000E+10,9.22883891200000E+09,7.76547379200000E+09,9.29503744000000E+09,1.04855521280000E+10,6.70602137600000E+09,7.62425190400000E+09,5.43546982400000E+09,7.95573504000000E+09,1.08801699840000E+10,6.04175308800000E+09,5.12644812800000E+09,6.10383104000000E+09,1.00638259200000E+10,1.07497543680000E+10,1.26706923520000E+10,1.54527160320000E+10,1.42182860800000E+10,1.26608343040000E+10,,1.81392691200000E+10,1.15649730560000E+10,1.65431838720000E+10,2.07949762560000E+10,,,,,,,
TUN,,9.67586880000000E+08,1.46179993600000E+09,1.81418611200000E+09,1.91524748800000E+09,1.79600290042190E+09,2.06611485368792E+09,2.04219237657971E+09,2.44670017424277E+09,2.24051244695571E+09,1.21601013554652E+09,1.40484145945564E+09,1.85615630443014E+09,1.48231897578954E+09,2.06311108829850E+09,1.70797156497418E+09,1.65857219642403E+09,1.41726678939222E+09,1.65325160690750E+09,2.17596236253054E+09,2.00899187887371E+09,2.09358174313841E+09,1.83965262271393E+09,1.91278395021459E+09,1.82947599095219E+09,1.99065409001024E+09,1.38902298362920E+09,1.98383698103867E+09,1.86862875535007E+09,2.06778649488542E+09,2.16540003200000E+09,2.34411145206420E+09,2.62333375730168E+09,2.47473382400000E+09,2.62853760000000E+09,2.58668062404887E+09,3.24500138244973E+09,3.28592255590062E+09,3.30155236657534E+09,3.59895037179401E+09,3.44730406784940E+09,3.59924729665562E+09,3.38404500317092E+09,3.67053142495858E+09,4.04172697582198E+09,4.19743588626945E+09,4.53504251496067E+09,4.81692884580393E+09,5.09198535566625E+09,5.04629005442815E+09,4.66299189608376E+09,
TUR,,,,,,,,,,,,,,,,,,,,,,,,,,,,8.98866435874463E+09,9.53007494557525E+09,9.59405321102830E+09,9.75091488321645E+09,9.13622193687566E+09,9.69848151571992E+09,1.04716884458683E+10,1.05398013025906E+10,1.21552238270326E+10,1.19522754816813E+10,1.31874666712457E+10,1.63368570000000E+10,1.40153269915985E+10,1.40160836784660E+10,1.28786988055481E+10,1.47754423071846E+10,1.44010646884988E+10,1.55869707551936E+10,1.76526527503838E+10,1.91371004556010E+10,1.97280083459404E+10,2.14190700000000E+10,1.72997236842297E+10,2.12117943569455E+10,
TZA,,,,,,,,,,,,,,,,,,,,,,,,,,,,,,,4.11438312242676E+09,2.08410578810825E+10,4.31700000000000E+09,-4.38908212817598E+10,3.16154687619656E+10,3.00544848732593E+10,7.56236710034009E+10,7.43973179949285E+10,5.64957000000000E+11,6.82441000000000E+11,9.55081000000000E+11,1.19851300000000E+12,1.26585700000000E+12,1.37165400000000E+12,1.49119100000000E+12,1.21283000000000E+12,1.14568700000000E+12,1.28425522900000E+12,1.49111152469095E+12,1.60552884550024E+12,1.65136538863835E+12,
UGA,,,,,,,,,,,,,,,,,,,,,,,2.55060474409744E+11,3.60819975582409E+11,6.11828005815762E+11,6.13985650811624E+11,5.53824385697910E+11,2.92935147923511E+11,3.64033751362506E+11,3.77488050491589E+11,3.47592153707371E+11,3.87893744202397E+11,4.09386860071582E+11,4.77957384344675E+11,6.72169636423038E+11,9.15457853406724E+11,8.45439851054988E+11,1.17357205082792E+12,7.49339108216641E+11,1.01270877950648E+12,7.61757405696213E+11,7.57074134771215E+11,6.66408927769029E+11,9.70532538500229E+11,1.51914870746958E+12,1.75067751198272E+12,1.99263029077747E+12,2.38082291752232E+12,3.36231918772113E+12,2.93889620465044E+12,2.64607793453307E+12,
URY,,,,,,3.34334781506263E+10,2.82162373715849E+10,2.91869176727548E+10,3.00420612896846E+10,3.41065623705496E+10,3.23208167166764E+10,3.16063175633215E+10,2.37312798296421E+10,1.56239705926171E+10,2.77901742529139E+10,4.24732157235542E+10,5.97873602034414E+10,6.81228540267793E+10,7.70446259538317E+10,8.70599372820188E+10,9.15545973594776E+10,8.68055299602807E+10,7.25753223939983E+10,5.53232165586653E+10,4.94162097838531E+10,4.57384825960737E+10,4.62491347458504E+10,4.48627474479948E+10,5.52492777378908E+10,5.45362959824233E+10,5.79836522980879E+10,6.26093172186531E+10,6.35805553241207E+10,6.57316979527877E+10,6.79231863533752E+10,6.79651013983480E+10,7.05181912912617E+10,7.64043551204323E+10,7.63201700879830E+10,6.72672317897349E+10,6.07546275428600E+10,5.25575803536363E+10,4.99330166932437E+10,4.78343906660906E+10,6.38408543402722E+10,8.34277274285136E+10,8.15951376755863E+10,8.89428456466796E+10,9.80465306638677E+10,1.04566789290304E+11,1.05934288000000E+11,
USA,,,,,,,,,,,5.41315053763441E+11,5.77024719101124E+11,6.26144474393531E+11,7.13160526315790E+11,6.57995607843137E+11,5.92839771801141E+11,6.52522964923892E+11,6.97129276315789E+11,7.83041187558906E+11,8.18418440838939E+11,7.56143362831858E+11,9.07984581497797E+11,7.78172295514512E+11,8.08571576384662E+11,9.74880572698100E+11,9.64476126558006E+11,9.48879377345992E+11,9.71949518380185E+11,1.03810579422383E+12,1.12152898477157E+12,1.11221329204383E+12,1.09002479550922E+12,1.16419997005091E+12,1.21836177777778E+12,1.33780505286452E+12,1.39184986705074E+12,1.50800643153527E+12,1.68609876870620E+12,1.77504361387470E+12,1.83122508390603E+12,1.84667969904426E+12,1.72336874240366E+12,1.64280169207104E+12,1.64743549284836E+12,1.73745153705042E+12,1.77940000000000E+12,1.83029316609383E+12,1.83852769075291E+12,1.69461251711324E+12,1.44095521118201E+12,1.59849253617346E+12,
VEN,,,,,,,,,,,,,,,9.84437937765533E+09,8.46990874961817E+09,8.84004971838947E+09,9.43945119239555E+09,8.52070143250378E+09,8.90141539519601E+09,8.86118418786114E+09,8.50344272689375E+09,7.01467582009879E+09,6.11878284465226E+09,7.18424748287095E+09,6.89280531008439E+09,5.48968704466956E+09,5.96051509163860E+09,5.93793133018467E+09,5.99570006783200E+09,6.86918750894767E+09,6.90672178739952E+09,7.35551428300545E+09,6.44705398591275E+09,6.71383274126103E+09,7.93014916591746E+09,9.89965142345100E+09,1.46572480000000E+10,1.13160529629671E+10,1.26493126587465E+10,1.82682810253490E+10,1.51689272447528E+10,1.47070655215833E+10,1.28180185733186E+10,2.05776289123614E+10,2.80501737328639E+10,3.21574540034404E+10,3.06646974355080E+10,3.73176434387304E+10,1.77556103309268E+10,3.46638419324915E+10,
VNM,,,,,,,,,,,,,,,,,,,,,,,,,,,,,,6.74802591334400E+12,8.83954601164800E+12,1.24436548157440E+13,2.02302585569280E+13,2.11241003909120E+13,2.86170000916480E+13,,,,,,,,,,,,,,,,,
WBG,,,,,,,,,,,,,,,,,,,,,,,,,,,,,,,,,,,-2.66887321600000E+09,-2.25852979200000E+09,-2.50671846400000E+09,-2.55600537600000E+09,-2.43706854400000E+09,-2.78743884800000E+09,-3.30982348800000E+09,-3.62945408000000E+09,-3.13696716800000E+09,-2.94258534400000E+09,-3.30297369600000E+09,-3.59889664000000E+09,,,,,,
YEM,,,,,,,,,,,,,,,,,,,,,,,,,,,,,,,1.10761809920000E+10,-1.13888624640000E+10,-9.23068518400000E+09,-2.50796195840000E+10,2.01739898880000E+10,2.41333084160000E+10,2.83065282560000E+10,3.03459143680000E+10,2.33953464320000E+10,4.47919701483219E+10,5.50679728044745E+10,4.53200952365206E+10,4.74986309227899E+10,5.05772962048459E+10,4.50616706913680E+10,1.03959435286804E+11,,,,,,
ZAF,7.62970755278466E+10,8.37005299355809E+10,8.49409592710741E+10,8.60250993819910E+10,9.11056150665817E+10,8.44412100439852E+10,9.27951282096768E+10,1.02684798725154E+11,1.13215107631712E+11,1.11756929896209E+11,1.05274146121185E+11,1.13942689455689E+11,1.38828172527473E+11,1.58683535132281E+11,1.60253313632588E+11,1.48704106203961E+11,1.37443770861135E+11,1.66601970910724E+11,1.70831254580448E+11,2.00660121651475E+11,2.45835548529161E+11,2.01903382545333E+11,1.62667198554966E+11,1.95986934697778E+11,1.85166848295896E+11,1.95124571211152E+11,1.80726338300006E+11,1.92353117184839E+11,1.95257268098416E+11,1.94905457715392E+11,1.79330369799353E+11,1.74349207162013E+11,1.65387841435393E+11,1.73085927633862E+11,1.78344643024569E+11,1.81911012312118E+11,1.93232157110495E+11,1.92758217612245E+11,1.97712401583316E+11,2.11815385841228E+11,2.20844938528675E+11,2.31761634566919E+11,2.46998662203601E+11,2.59180198593998E+11,2.62486069660135E+11,2.74740000000000E+11,2.79621698869748E+11,3.09133185583324E+11,3.24756470484989E+11,3.34098587313719E+11,,
ZAR,1.01182289421558E-01,9.32030677795410E-02,6.17652460932732E-02,1.66981935501099E-01,1.63919657468796E-01,1.72776406542829E-01,1.30266412158613E-01,1.38814983169774E-01,1.42962121202755E-01,1.99763792494410E-01,1.83848661321159E-01,1.89453368589450E-01,1.92669607473053E-01,2.54592423039512E-01,2.87066124323302E-01,2.00669587479422E-01,1.39216372907405E-01,2.83847606927155E-01,3.21921212232910E-01,4.50445878761782E-01,4.93201785690462E-01,3.43908469501055E-01,2.75886163400204E-01,3.48991602141621E-01,4.01878619831436E-01,4.97559142078114E-01,4.42904140112559E-01,3.23823302984244E-01,3.19938441123308E-01,4.65111551191181E-01,1.29312500644946E-01,1.04961049641514E-02,,1.51208466699198E-01,1.35017349387193E-01,1.54823797948939E-01,8.73668125081755E-02,1.40610057860615E-01,5.10647271789078E-02,2.88604743836588E-01,1.55277665139202E-01,4.38437479016334E-02,-5.92549524329260E-02,1.53525498620098E+00,1.60729172843284E+00,1.69497962993153E+00,1.79047761406404E+00,,,,,
ZMB,1.12437873868800E+12,9.99734378496000E+11,8.91776794624000E+11,8.94115119104000E+11,1.07072487424000E+12,1.57189314969600E+12,1.69222917324800E+12,1.45867394252800E+12,1.57150766694400E+12,3.42287895756800E+12,2.40223990579200E+12,1.25023800524800E+12,1.52664303206400E+12,2.42576811622400E+12,2.31667872563200E+12,6.04667838464000E+11,1.01721433702400E+12,5.93915478016000E+11,5.47266953216000E+11,7.22543247360000E+11,4.95462219776000E+11,1.67032193024000E+11,1.85751027712000E+11,3.65072449536000E+11,3.94945134592000E+11,3.55611869184000E+11,5.10424776704000E+11,4.62505115648000E+11,6.74669264896000E+11,1.24588294144000E+11,3.52340869120000E+11,1.53424379904000E+11,1.04564228096000E+11,2.99455905792000E+11,1.66278627328000E+11,2.62455099392000E+11,1.50023798784000E+11,2.31266254848000E+11,9.20262164480000E+10,-1.56024842240000E+10,2.39637086208000E+11,3.04328081408000E+11,2.57298762342029E+12,2.75062134789413E+12,2.77932759236500E+12,2.98164785220502E+12,3.00097626883273E+12,3.13619981810726E+12,,,,
