"Country Code",1960,1961,1962,1963,1964,1965,1966,1967,1968,1969,1970,1971,1972,1973,1974,1975,1976,1977,1978,1979,1980,1981,1982,1983,1984,1985,1986,1987,1988,1989,1990,1991,1992,1993,1994,1995,1996,1997,1998,1999,2000,2001,2002,2003,2004,2005,2006,2007,2008,2009,2010,2011AFG,,,,,,,,,,,,,,,,,,,,,,,,,,,,,,,,,,,,,,,,,,,1.22180000000000E+09,,,,,,,,,
AGO,,,,,,,,,,,,,,,,,,,,,,,,,,,,,,,-8.49826842466335E+06,2.48019727301256E+06,1.04974540124954E+07,9.78762687154256E+06,9.29848071285465E+07,3.77720887427770E+07,5.25834608650000E+07,2.41927333333333E+07,3.03434854632227E+07,4.18290854572714E+07,2.66284060918067E+07,2.77111387353813E+07,3.15392702921772E+07,4.02237305685050E+07,2.61928571313749E+07,3.07838820436981E+07,3.00037836683218E+07,2.92434538677600E+07,2.85023916839766E+07,2.86896292644393E+07,2.73341297691854E+07,
ALB,,,,,,,,,,,,,,,,,,,,,,,,,,,,,,,,,,,,5.44562747095929E+10,5.84566939605716E+10,3.33017648315475E+10,5.18322839813919E+10,3.47057715094489E+10,4.73241433023743E+10,5.69151609951791E+10,6.05697276777795E+10,6.72377636912411E+10,7.29010293916641E+10,8.01977992073021E+10,8.29973825186821E+10,9.33764860982413E+10,8.45986225278240E+10,7.79528749746599E+10,7.75445038197557E+10,
ARG,,,,,,,,,,,,,,,,,,,,,,,,,,,,,,,,4.00683808000000E+08,7.62695296000000E+08,5.52200000000000E+08,4.97200000000000E+08,5.96800000000000E+08,4.82200000000000E+08,5.14857571842192E+08,4.64068201996963E+08,4.53310064839601E+08,3.99035947950393E+08,4.24494817451350E+08,1.67964776466055E+09,1.50468865559218E+09,1.72583917672528E+09,1.63850000000000E+09,1.90331399372825E+09,1.24999986157777E+09,2.28072922473028E+08,1.03976548622948E+10,-7.19050959349471E+08,
ARM,,,,,,,,,,,,,,,,,,,,,,,,,,,,,,,,,,2.41317557964697E+11,1.13763227986801E+11,8.04035084165427E+10,7.64243942938903E+10,9.13625179502142E+10,6.89141492352064E+10,7.18256235748346E+10,7.92161908162151E+10,7.31917536649588E+10,7.39080472467718E+10,9.04756402681698E+10,1.53602616447587E+11,1.56525436828125E+11,1.80773130772358E+11,1.93686546146698E+11,1.94955568043854E+11,1.54603189772089E+11,1.04474331872566E+11,
AUT,,,,,,,,,,,-7.10570007854314E+08,-6.73283124298797E+08,-8.35981200607027E+08,-9.44615746343874E+08,-8.12325872299923E+08,-8.92836217461182E+08,-1.11512403196807E+09,-1.27837997284866E+09,-1.35303516824293E+09,-1.37454598803753E+09,-1.50191115754145E+09,-1.80597429118357E+09,-1.63651120748166E+09,-1.36852460818139E+09,-1.51039839570967E+09,-1.51307644272658E+09,-2.00186548980184E+09,-2.00352138607278E+09,-1.45702524933657E+09,-1.34536786168191E+09,-1.26902698454838E+09,-2.25091317290032E+09,-1.71158419731910E+09,-1.66535091786527E+09,-1.93071375836425E+09,-3.01201945391355E+09,-1.27128938503567E+09,-2.34615890289522E+09,-2.83138281451361E+09,-3.85672948583263E+09,-3.80931094110372E+09,-4.83114607492494E+09,-2.86534344783830E+09,-2.25223749830973E+09,-1.78472753812016E+09,-2.38029600000000E+09,-2.73420370136581E+09,-3.17810278577323E+09,-5.31510606690738E+08,-1.69546955608162E+09,-1.39291936574123E+09,
AZE,,,,,,,,,,,,,,,,,,,,,,,,,,,,,,,,,,,7.54785276948377E+07,1.12887487432224E+08,6.42526226243104E+07,3.81080181647620E+07,5.14686920947621E+07,6.87254510033922E+07,6.46315929772972E+07,6.64833256761035E+07,6.33489289543419E+07,1.18166736817218E+08,1.62787256544116E+08,4.12634152167341E+08,4.68397500620770E+08,6.74094622557786E+08,5.72261981633380E+08,3.61299087003669E+08,2.13947073045382E+08,
BEL,,,,,,,,,,,1.10299892743580E+09,9.64810613276381E+08,1.05946580744461E+09,8.69880232955496E+08,8.92568073724519E+08,8.55819175765313E+08,9.53235954224336E+08,5.00302424036097E+08,3.14945743521397E+08,-4.93378937841697E+08,-9.94706594935814E+08,-8.45102600582886E+08,-1.71844701288840E+09,-1.81813381851102E+09,-1.45815273421062E+09,-9.15496818885614E+08,-7.67085610774248E+08,-1.65619029492735E+08,-2.09791351674406E+08,-8.73842659836619E+08,-6.28263004383068E+08,2.27380652416303E+08,1.73544050743274E+08,2.44092153566862E+09,4.38103575977533E+09,3.87124717032395E+09,4.57077571692874E+09,5.01969581644660E+09,4.59220871534003E+09,5.25036909993285E+09,6.40444665827477E+09,4.52817779662820E+09,3.87873834061714E+09,4.39415648778421E+09,3.29413846291279E+09,1.98805000000000E+09,2.66294324138058E+09,3.21590780438153E+09,4.64439501542084E+09,-1.94146957527821E+09,5.66576232251568E+09,
BEN,,,,,,,,,,,,,,,,,,,,,,,,,,,,,,,,,,,,,,4.55246100622778E+10,3.69734577180750E+10,4.23264407344020E+10,4.22629076838910E+10,5.62388343323035E+10,3.78135356729997E+10,4.09081423318634E+10,4.01444897269650E+10,4.08843093672073E+10,,,,,,
BFA,,,,,,,,,,2.08192327680000E+10,2.24999116800000E+10,2.96498114560000E+10,2.58569768960000E+10,3.55193487360000E+10,2.78251827200000E+10,2.53546065920000E+10,2.94956871680000E+10,2.92065648640000E+10,3.11441694720000E+10,3.99872778240000E+10,5.08562841600000E+10,6.20770754560000E+10,4.94952038400000E+10,5.40635095040000E+10,6.26677391360000E+10,9.57696901120000E+10,1.08644065280000E+11,7.98871879680000E+10,8.61611704320000E+10,6.61769175040000E+10,4.19105300480000E+10,4.17059921920000E+10,1.00417077248000E+11,9.00081909760000E+10,6.75653017600000E+10,6.19171184640000E+10,4.95493857280000E+10,4.91606179840000E+10,4.66914713600000E+10,3.98378516480000E+10,3.43943946240000E+10,2.50578513920000E+10,2.70767083520000E+10,9.20236441600000E+09,,,,,,,,
BGD,,,,,,,,,,,,,,0.00000000000000E+00,1.33092725701686E+10,1.60045780942733E+10,2.04531779393362E+10,1.81250645372743E+10,2.63705462725702E+10,3.69460638817711E+10,3.77804166617007E+10,3.22610000000000E+10,3.37900000000000E+10,4.34110000000000E+10,3.64570000000000E+10,3.25960000000000E+10,2.72220000000000E+10,2.99300000000000E+10,4.03220000000000E+10,3.24890000000000E+10,3.40205032573996E+10,3.90619424565615E+10,4.19164804948573E+10,4.27590985756923E+10,3.88294776692013E+10,4.68450556631363E+10,3.81680000000000E+10,4.27290000000000E+10,2.06060000000000E+10,2.25390000000000E+10,3.15770000000000E+10,1.99040000000000E+10,1.55850000000000E+10,1.70250000000000E+10,1.60480000000000E+10,1.93060000000000E+10,2.50130000000000E+10,2.55760000000000E+10,3.34290000000000E+10,1.33190000000000E+10,2.20770000000000E+10,
BGR,,,,,,,,,,,,,,,,,,,,,1.30176192051075E+08,2.07817190288048E+08,2.43929309330844E+08,3.10606021966959E+08,2.41520065372977E+08,2.21638804763663E+08,1.80355044016749E+08,2.17397982105437E+08,2.66229824552072E+08,1.91932973748799E+08,,2.01099299340693E+08,1.14349119353714E+08,9.32242795933598E+07,4.85119833918414E+08,3.01921256906978E+08,3.12564719033202E+08,6.05444884191689E+08,4.82792602280784E+08,6.36464772792467E+08,6.82594342934700E+08,1.13708994219838E+09,1.13694980000000E+09,1.19267854982767E+09,1.26332108847105E+09,1.41428756030597E+09,1.10955329553372E+09,1.03505980945898E+09,1.20139580472371E+09,1.30477611787438E+09,2.08730497405290E+09,
BHS,,,,,,,,,,,,,,,,,,,,,,,,,,,,,,,,,,,,,,5.18134459333964E+07,4.34941843103374E+07,4.03194348294942E+07,4.55282141481064E+07,4.51718069212532E+07,4.34450463110446E+07,5.04641378207139E+07,2.75302243553425E+08,8.54897724910261E+07,5.21000000000000E+07,2.95830552625700E+07,,,,
BIH,,,,,,,,,,,,,,,,,,,,,,,,,,,,,,,,,,,,1.19131233835540E+09,1.64625115847587E+09,1.19779178075804E+09,2.27532904234943E+09,2.32538803749853E+09,1.90174583356396E+09,1.70670014915972E+09,1.47362215598574E+09,1.35237448761043E+09,1.43162847708668E+09,1.46269387275015E+09,,,,,,
BLR,,,,,,,,,,,,,,,,,,,,,,,,,,,,,,,,,4.91408058215965E+10,2.71555318595871E+10,1.10859106948999E+10,3.72166519431331E+10,4.38107231393271E+10,4.17925104372470E+10,5.34300804865223E+10,7.46744485327629E+10,1.11253938202564E+11,1.19313425028679E+11,1.20874973059914E+11,1.39988608451387E+11,1.66541405494962E+11,8.00819202611096E+10,9.36341927273143E+10,7.63144314509946E+10,6.74282578024090E+10,9.84033912723675E+10,1.05865872699280E+11,
BLZ,,,,,,,,,0.00000000000000E+00,0.00000000000000E+00,,,,,,,,,,,,,,,,,,,,,-1.95664480000000E+07,6.55095160000000E+07,6.84768000000000E+07,6.55918680000000E+07,3.08662900000000E+07,3.77249760000000E+07,3.69325720000000E+07,3.96413920000000E+07,3.45848920000000E+07,6.84934880000000E+07,1.07997312000000E+08,8.31546480000000E+07,7.29797040000000E+07,8.65515280000000E+07,2.48947580000000E+07,8.98370160000000E+07,1.19885256000000E+08,,,,,
BOL,,,,,,,,,,,,,,,,,,,,,,,,,4.38660205531396E+08,4.53707739166179E+08,4.36439894273402E+08,3.96625245142987E+08,4.46100358168515E+08,4.89914859416199E+08,5.55213750000000E+08,5.38865848149635E+08,6.97095647296973E+08,6.73971516210550E+08,7.90600175623751E+08,5.95395854059200E+08,6.38230954513384E+08,7.32902699616204E+08,8.37668537501278E+08,9.75826815116282E+08,9.82032563253390E+08,1.05574409872812E+09,1.05707571759492E+09,1.38411052381010E+09,1.41129472808880E+09,1.61503488406590E+09,2.06472796233859E+09,2.86891913515071E+09,2.47363636133535E+09,2.23190713147523E+09,1.91262435596818E+09,
BRB,,,,,,,,,,,,,,,,,,,,,,,,,,,,,,,,,2.38704880000000E+07,9.03855800000000E+06,2.00813580000000E+07,1.79660040000000E+07,2.03796180000000E+07,2.32574780000000E+07,2.51143880000000E+07,3.89152480000000E+07,3.53919920000000E+07,5.09061960000000E+07,7.77808000000000E+07,,,,,,,,,
BTN,,,,,,,,,,,,,,,,,,,,,,,,,,,,,,,,,,,,,,,,,,2.03729496001750E+09,2.03045011610434E+09,2.07690316832488E+09,2.60167898829877E+09,3.72932610154078E+09,4.50146728388946E+09,5.35451713266810E+09,4.47673594765961E+09,4.10615550188408E+09,,
BWA,,,,,,,,,,,,,,,,-2.84862373342143E+07,8.14345687799632E+07,1.61093347570890E+08,7.58688499373872E+07,1.17820564248957E+08,1.74862520349518E+08,1.29029413775908E+08,5.62786345100497E+07,1.29621081583442E+08,1.00919240546362E+08,1.65135049375137E+08,2.07040374016747E+08,5.98935769305652E+08,5.63504668709576E+08,6.96450749674086E+08,3.58103104538087E+08,4.94411342041003E+08,1.78349431146919E+08,2.19242813792286E+06,1.65800000000000E+08,-9.89703756086017E+07,4.90228774755383E+08,5.79039373934572E+08,7.62958177035383E+08,6.76868616575145E+08,5.84372516546345E+08,5.32496921608113E+08,6.13454443020207E+08,7.81652554665313E+08,1.41268121135301E+09,1.80554075047968E+09,2.33587604627634E+09,2.96913287400192E+09,2.81387994003296E+09,1.77771972572005E+09,9.51245733964490E+08,
CAN,,,,,,,,,,,-6.88295246265280E+09,-7.13855397323843E+09,-6.81943304754385E+09,-7.64609165589734E+09,-8.45218297874870E+09,-8.77261804458497E+09,-1.09067261932277E+10,-1.32371170200545E+10,-1.61479448025108E+10,-1.84090081130891E+10,-1.87242534907451E+10,-2.39947701715773E+10,-2.41476339039437E+10,-2.11519104436402E+10,-2.37206683601217E+10,-2.44730956438520E+10,-2.74877218269141E+10,-2.60651593474765E+10,-2.85433355314734E+10,-3.10841881526152E+10,-3.26682189013686E+10,-2.96666238682653E+10,-3.25386961598713E+10,-3.17888152420788E+10,-3.49553414535336E+10,-3.48620479021643E+10,-3.40428490043247E+10,-3.28944817610099E+10,-3.62744537816635E+10,-3.89478190994142E+10,-3.15497028644587E+10,-3.48967900424337E+10,-3.17838876204413E+10,-3.04767085321456E+10,-2.71756763893423E+10,-2.57480000000000E+10,-1.38681441868517E+10,-1.84579901542319E+10,-1.83657976405044E+10,-2.18989423272443E+10,-2.53349457270868E+10,
CHE,,,,,,,,,,,,,,,,,,,,,1.32804419317731E+10,1.65366077106422E+10,1.33367755031203E+10,1.48471150709022E+10,1.75413712657101E+10,1.73878204218693E+10,1.36511491272895E+10,1.19767243299175E+10,1.51721375101664E+10,1.33673880973883E+10,9.91740933106164E+09,1.01505055939053E+10,9.02014418902436E+09,1.08720458078593E+10,7.63161551573852E+09,1.11290922538453E+10,1.25989724859931E+10,2.02469294470946E+10,2.25900187239426E+10,2.70021313848038E+10,3.19421407886612E+10,2.02529063855067E+10,1.42600845857908E+10,3.32772687288788E+10,3.22387069852477E+10,4.37142357490000E+10,3.65566597555282E+10,4.89958159240961E+09,-3.40144783852594E+10,1.80215205688398E+10,3.95365306222541E+10,
CHL,,,,,,,,,,,,,,,,,,,,,,,,,,1.35725344305532E+11,9.43337850790672E+10,1.07590074817446E+11,1.24672393077094E+11,1.51024255827632E+11,1.25574453793192E+11,2.14117361575099E+11,2.94297966910246E+11,2.53279670010939E+11,2.33522248612685E+11,1.53901551201407E+11,3.36062799081344E+11,2.64505285614413E+11,2.52949234415871E+11,3.80220037770328E+11,3.36609807873080E+11,2.86009377629398E+11,4.12338754716369E+11,4.35208000000000E+11,6.77738129392208E+11,9.74077150837473E+11,1.72227628504145E+12,1.50549603667774E+12,1.27969867886269E+12,7.38464681507034E+11,1.87755620914308E+12,
CHN,,,,,,,,,,,,,,,,,,,,,,,4.15763821363710E+09,4.31169697358929E+09,3.81278019917429E+09,1.99718295248987E+09,3.48038792575327E+09,2.53546267959470E+09,4.61092457317732E+09,3.92750627338746E+09,2.82535869763256E+09,8.79102063771759E+09,1.25427600102212E+10,1.39215914472838E+10,1.41486737747349E+10,1.29275343316523E+10,1.79536940176323E+10,4.25987636659676E+10,3.56985271404947E+10,4.17674220303513E+10,5.22475099699593E+10,6.88693691398312E+10,1.04698169058666E+11,1.38573203278189E+11,1.68299399960243E+11,1.77736517629469E+11,1.91676378776233E+11,2.25068976307010E+11,2.25759668813150E+11,1.64341403956147E+11,6.88556108770414E+10,
CIV,,,,,,,,,,,,,,,,,,,,,,,,,,,,,,,,,,,,,,-2.12029139757483E+11,-2.10338766807704E+11,-2.13423545282790E+11,-2.05926642436664E+11,-1.66283064105940E+11,-2.19481268549371E+11,-1.90365823947183E+11,-1.55665478374319E+11,-1.48440936003680E+11,-1.70441753285392E+11,-1.24124528069308E+11,-7.30757245227089E+10,-1.53110835716471E+11,-1.46342266147426E+11,
CMR,,,,,,,,,,,3.38119871964927E+10,3.10470598386096E+10,2.68700033142791E+10,2.66917475801207E+10,2.50601668514745E+10,4.95787044827980E+10,6.26631344675359E+10,3.37510319340311E+10,1.20134009107519E+10,2.27029077169902E+10,0.00000000000000E+00,0.00000000000000E+00,-9.47159291922629E+09,0.00000000000000E+00,-1.35658533800808E+10,-4.71200430589638E+09,-2.50273728969425E+09,1.76948824154186E+10,2.32302681332194E+10,4.08622940819435E+10,-1.84990387069424E+10,2.53443231006284E+10,7.08931036292030E+10,-6.40761252759683E+09,1.04446943276022E+10,3.33005784408157E+10,1.87564909747661E+10,4.83919733965843E+10,6.31447537869089E+10,6.75236791164341E+10,1.13172429394098E+11,8.65147614700993E+10,1.55487965942441E+11,1.13658800964312E+11,7.31010793160912E+10,1.02103027982867E+11,1.16834714744053E+11,1.66147358011212E+11,,,,
COG,,,,,,,,,,,,,,,,,,,,,,,,,,,,,,,,,,,,3.64388568206027E+08,-5.99317873653175E+08,,,,,,,,,,,,,,,
COL,,,,,,,,,,,,,,,,,,,,,,,,,,,,,,,,,,,,,,,,,4.69784558986061E+12,6.73208178386883E+12,7.98776198719946E+12,1.05102594570663E+13,1.01987440085242E+13,9.47313925492224E+12,1.06869553798770E+13,9.98717106341942E+12,8.86004294191806E+12,8.28220899759680E+12,6.84535737852679E+12,
COM,,,,,,,,,,,,,,,,,,,,,,,,,,,,,,,1.49794497979000E+09,9.60935005525132E+08,1.28765533777149E+09,2.80312273479545E+09,2.25424958794743E+09,1.09429036153633E+10,9.96909178257445E+09,6.70650598695894E+09,9.60979878308358E+09,,,,,,,,,,,,,
CPV,,,,,,,,,,,,,,,,,,,,,,,,,,,,,,,,,,,,,,,,4.25202731545634E+09,4.25133553721562E+09,4.19690826067082E+09,4.90253016350523E+09,5.32555234869598E+09,4.87127473941424E+09,5.79692098738617E+09,5.87828623572044E+09,5.62817959959772E+09,5.36331021505495E+09,5.56096045635696E+09,,
CRI,,,,,,,,,,,,,,,,,,,,,,,,,,,,,,,,1.43634424045453E+10,1.84479460527671E+10,1.56056386345689E+10,1.63660002094390E+10,1.32000157538805E+10,1.44655890756557E+10,1.21049467043456E+10,1.09489017132964E+10,9.60269460097418E+09,8.33852123854267E+09,1.32036379306149E+10,1.53643762916466E+10,1.83928106602530E+10,1.81086913288767E+10,2.22236420300111E+10,2.71619543314758E+10,3.31362603905570E+10,2.84579681620301E+10,2.36537992225716E+10,2.08943939263197E+10,
CYP,,,,,,,,,,,,,,,,,,,,,2.60273186499554E+08,2.19311911853419E+08,1.49545378892899E+08,8.94162921601010E+07,8.42493689086526E+07,7.68315080544192E+07,7.02763807225040E+07,6.10235305755362E+07,7.97371616463626E+07,6.25203104485587E+07,5.42181331582009E+07,4.61429347397145E+07,3.74509313325792E+07,3.58919597576449E+07,3.23260762978740E+07,4.47396850911401E+07,3.44350027891152E+07,3.46608886656120E+07,4.24026014583571E+07,9.92000631924657E+07,1.88458738983792E+08,5.77560268314162E+07,1.12799128255158E+08,1.14059909305952E+08,1.19422434207144E+08,6.16179335040665E+07,1.37997509318778E+08,-5.65465294818917E+06,-3.18617717905200E+07,,,
DEU,,,,,,,,,,,6.38366457010713E+09,5.05866455039926E+09,4.21253337293815E+09,4.24432898091121E+09,4.28837648514280E+09,5.93097890925577E+09,7.27100238743499E+09,5.43465212290644E+09,1.04199417134652E+10,6.68947378216875E+09,7.02502309579892E+09,4.60897745177760E+09,3.32684291722434E+09,7.89550203455542E+09,1.39459490271335E+10,1.43833354936872E+10,1.08966230902744E+10,8.75615243371921E+09,1.72404974868641E+10,2.00390693936151E+10,2.09378708392969E+10,8.59318217750554E+09,5.92937273089056E+09,2.13831838104779E+09,-1.14855050526316E+10,-1.69581276546389E+10,-1.27226711219200E+10,-1.65319022277528E+10,-2.30677306093790E+10,-2.51813334338566E+10,-2.28102752041026E+10,-2.47776338253961E+10,-2.94760489419379E+10,-1.84577759944121E+10,1.89262856696270E+10,2.51900000000000E+10,4.69834059224686E+10,4.10309489918880E+10,3.08557046244644E+10,4.84407246072857E+10,4.39456902382106E+10,
DJI,,,,,,,,,,,,,,,,,,,,,,,,,,,,,,,,1.56872586718948E+10,1.41935304628602E+10,1.41354357805636E+10,9.65500824122159E+09,8.32084202911398E+09,7.44210746891719E+09,6.44553832098438E+09,6.33369716101779E+09,7.16628456503711E+09,6.05737676524377E+09,6.88571327699345E+09,5.72076225901454E+09,3.03261544595110E+09,1.58341164341946E+09,1.53508995652534E+09,-2.01265318260479E+09,,,,,
DMA,,,,,,,,,,,,,,,,,,1.75687996071776E+07,3.33414902135151E+07,5.25983792832780E+07,1.61281627264891E+08,1.01828393422841E+08,6.58127577745814E+07,7.26425813490783E+07,9.66963754004360E+07,1.05487639292521E+08,3.18458348436698E+07,9.15714698477629E+07,8.47569582459018E+07,4.75527365660526E+07,2.31432868846423E+07,2.68417682231357E+07,2.63334808627995E+07,2.97203518696256E+07,2.27985132748370E+07,2.48884251338248E+07,3.12562917537375E+07,3.16825811629032E+07,3.80764489149751E+07,3.95256131617983E+07,5.23581332637695E+07,5.02517785669913E+07,4.04381278333230E+07,4.78150037736878E+07,4.83368479607289E+07,5.35305396801692E+07,5.28514800000000E+07,,,,,
DNK,,,,,,,4.60263437054385E+09,4.10197956107698E+09,3.09108800669834E+09,3.68729386917055E+09,3.02697247687274E+09,2.16271521880919E+09,1.77296992435197E+09,9.88432793585045E+09,3.74641702352667E+09,6.53457598414277E+09,7.03074409832309E+09,9.85717116425248E+09,1.08705177665519E+10,2.90834113637004E+09,-4.90665998009278E+09,-1.25749819567264E+10,-1.96390519867241E+10,-1.81142866988305E+10,-2.37035016581194E+10,-2.58240967889897E+10,-2.41134492451935E+10,-2.03248579504973E+10,-2.24118663962164E+10,-2.60244161895961E+10,-2.89680055854884E+10,-3.02581702430551E+10,-2.61729724385757E+10,-1.83846513958764E+10,-1.80343394004012E+10,-1.34920905321840E+10,-1.65614686616834E+10,-1.89448217944483E+10,-1.54463660849905E+10,-1.18222684126557E+10,-3.06946298398744E+10,-2.06182742912804E+10,-1.73516746069550E+10,-9.02063016947310E+09,6.93088104738697E+09,2.15490000000000E+10,2.98086851813771E+10,1.74635559025178E+10,2.12018202914666E+10,2.76150647331838E+10,2.89631635383481E+10,
DOM,,,,,,,,,2.65213460835718E+08,2.22779307102003E+08,8.27465997807441E+08,4.45784306058103E+08,6.78898277994401E+08,6.60068122884692E+08,6.69394837361017E+08,6.88646036274081E+08,1.79711768971726E+09,1.91726400867390E+09,1.93933657475861E+09,2.28869729792961E+09,2.12240395265810E+09,1.95893629664956E+09,1.87277138399174E+09,4.22066171589431E+09,3.84353510332955E+09,9.45230180742806E+09,7.78392558931755E+09,1.05763848436455E+10,1.32257680189495E+10,1.22564333016516E+10,1.05623289432641E+10,1.05257570598144E+10,1.08918684487229E+10,1.02075813574176E+10,1.04379348706810E+10,9.85939204869151E+09,1.11117669817530E+10,1.30713171234129E+10,1.95785964897910E+10,1.86898564721939E+10,1.80794173923020E+10,1.91573488586996E+10,2.10088567128013E+10,2.60722035041725E+10,2.81039175057950E+10,2.10355722161213E+10,2.57089153148019E+10,2.62510139126083E+10,2.47492086800608E+10,2.36397000000000E+10,2.13361229329444E+10,
DZA,,,,,,,,,,,,,,,,,,,,,,,,,,,,,,,,,,,,,,,,,3.07696640000000E+09,2.58919808000000E+09,4.04329548800000E+09,6.18966425600000E+09,7.48327424000000E+09,6.13131827544623E+09,4.60282620954686E+09,5.21320244125788E+09,4.77052636974313E+09,-1.77046320438523E+10,,
ECU,,,,,,3.56330720000000E+07,3.39211400000000E+07,4.47130160000000E+07,4.46775400000000E+07,3.89313720000000E+07,6.02776120000000E+07,6.07066680000000E+07,4.70622040000000E+07,6.42156480000000E+07,5.99254840000000E+07,5.39327520000000E+07,4.85492040000000E+07,4.95470080000000E+07,4.82025720000000E+07,4.07460560000000E+07,2.58847080000000E+07,2.03346640000000E+07,1.79307320000000E+07,2.51623320000000E+07,2.21554980000000E+07,9.20135520000000E+07,5.55131360000000E+07,1.75375728000000E+08,1.35990496000000E+08,1.30667056000000E+08,1.43529712000000E+08,1.40320256000000E+08,1.46492544000000E+08,1.22639904000000E+08,1.17053096000000E+08,3.28191744000000E+08,3.56314272000000E+08,4.20513920000000E+08,5.26224672000000E+08,9.65075072000000E+08,1.35175961600000E+09,1.26255050306872E+09,1.17607304458750E+09,1.15344538918840E+09,1.24740681109955E+09,1.47576380020411E+09,1.62808695809322E+09,1.61936201044852E+09,1.35240251258152E+09,1.08411277434784E+09,9.80525268689952E+08,
EGY,,,,,,,,,,,,,,,,,,,,,,,,,,,,9.74365955306551E+09,1.32542668878056E+10,1.27360989913771E+10,1.41959079798635E+10,2.66620261103563E+10,1.45572251908879E+10,1.79035614179053E+10,1.16492668164458E+10,1.07588935353694E+10,8.30125101444085E+09,8.98336069504930E+09,9.56323322546462E+09,1.00042625374059E+10,9.15233260179517E+09,7.78734862889008E+09,1.01178845625001E+10,9.25969455830275E+09,1.09308080324414E+10,1.38204891530187E+10,1.26576395291281E+10,1.40670856843863E+10,1.56226780090767E+10,1.21221312945580E+10,1.42358269639209E+10,
ERI,,,,,,,,,,,,,,,,,,,,,,,,,,,,,,,,,1.55660000000000E+09,1.26047430045867E+09,1.87341412474483E+09,1.35442658767035E+09,1.39790000000000E+09,2.14177621639574E+09,1.51611000000000E+09,1.64099000000000E+09,1.76796000000000E+09,1.58118442025091E+09,1.74520598959043E+09,2.16631845335523E+09,1.83507294255444E+09,1.71904627634337E+09,1.04025012042413E+09,9.54352728051601E+08,,,,
ESP,,,,,,,,,,,-3.21943288067073E+09,-2.80709915582626E+09,-2.60359230352097E+09,-1.85119458505881E+09,-4.14180589550291E+08,-2.01507711061972E+09,-3.48461810360908E+09,-4.23639735550225E+09,-4.58093214417436E+09,-3.44641372514309E+09,-4.68706333145298E+09,-6.97895008076455E+09,-7.39135199274883E+09,-8.58190298862554E+09,-8.45933610502093E+09,-5.32395927498790E+09,-5.04123101263654E+09,-5.21214238226405E+09,-6.35855280222362E+09,-4.83838361420909E+09,-5.27245688333809E+09,-5.24891819264174E+09,-5.90745115342468E+09,-3.45856550575982E+09,-1.15380788074804E+10,-3.73748748038100E+09,-6.13079060462448E+09,-6.09491415881234E+09,-6.92778584384429E+09,-6.93337795150905E+09,-6.51778905741677E+09,-1.29417156765371E+10,-1.24478095005530E+10,-9.85242050107769E+09,-1.16769301661618E+10,-1.28190000000000E+10,-1.57266605725583E+10,-2.29502152488945E+10,-2.75484873437177E+10,-2.19874207263852E+10,-1.25880877268680E+10,
EST,,,,,,,,,,,,,,,,,,,,,,,,,,,,,,,,,1.71777129978419E+09,1.77799507115652E+09,1.82838808349309E+09,1.95832571294150E+09,1.51588728166518E+09,1.87608424137026E+09,2.27381053185620E+09,1.69341057823172E+09,1.43726094834692E+09,1.47904730632206E+09,1.01309459150897E+09,1.74941595120541E+09,1.30790653337919E+09,6.68075408609352E+08,6.22082272721763E+08,1.27781126364500E+09,2.09775460033152E+09,2.33967790096997E+09,,
ETH,,,,,,,,,,,,,,,,,,,,,,2.85591888191549E+08,4.02265758302814E+08,6.31961937113114E+08,8.11463403871518E+08,8.12435465953424E+08,1.28049582399959E+09,9.66037543430650E+08,7.71459216694237E+08,1.03411557163807E+09,1.40127895408469E+09,1.74716892635139E+09,2.28383774587134E+09,3.60467053019685E+09,3.89195782748346E+09,5.18407050236651E+09,4.98785907562934E+09,3.36908754776219E+09,4.27743701561167E+09,4.02985672399684E+09,5.71432013023811E+09,6.84380740201742E+09,7.36680349804497E+09,9.74911530995879E+09,1.08348518607310E+10,1.31202458379154E+10,1.39430635613906E+10,1.66498494068035E+10,1.72763727953511E+10,1.80056926810320E+10,1.60761734183656E+10,
FIN,,,,,,,,,,,-4.58639072252351E+08,-4.97707975958133E+08,-6.04009527892594E+08,-6.68290716852151E+08,-6.94565066993618E+08,-9.07056156560349E+08,-9.76889692012821E+08,-1.20959984536132E+09,-1.21502923763827E+09,-1.13560734423812E+09,-1.20885342598245E+09,-1.65861414754095E+09,-1.95519049897590E+09,-2.01819868947312E+09,-1.93622538915492E+09,-1.75523444456859E+09,-1.50437604061670E+09,-1.61122807300644E+09,-1.47978412256545E+09,-2.65281918846941E+09,-3.19924576060626E+09,-3.94677424037156E+09,-4.95479383791954E+09,-5.56264787978862E+09,-4.52002144754006E+09,-3.63233400666095E+09,-2.97725629227085E+09,-2.16076886182439E+09,-2.91160477740020E+09,-1.70418669958146E+09,-1.05633181419574E+09,-1.95949542222511E+08,2.39606373678146E+08,-1.11344074188915E+09,1.15530455908988E+09,7.25000000000000E+08,1.55879498568150E+09,7.41364020727426E+07,9.03179829692251E+08,2.77271605262161E+09,2.89337796581592E+09,
FJI,,,,,,,,,,,,,,,,,,,,,,,,,,,,,,,,,,,,1.26567000000000E+08,,,,,,,,,,,,,,,,
FRA,3.08481185118211E+09,2.99553840732978E+09,3.98593872751050E+09,4.63230883006941E+09,4.77812492611022E+09,4.44277033680972E+09,4.30415273454060E+09,4.52347633516198E+09,4.17584921132361E+09,4.02539307116480E+09,5.34072103345349E+09,6.06946456924969E+09,5.32159082150044E+09,5.95472794025943E+09,7.51280050144906E+09,3.59659151772538E+09,4.18643829038935E+09,4.14180392813209E+09,4.75954662343563E+08,1.33204121427950E+09,5.75835896593694E+09,5.47045750278079E+09,1.19509976996325E+09,-6.11181059456126E+09,-7.73219843943870E+09,-2.67362801159629E+09,7.05313012722614E+08,4.07104790317131E+09,1.78647883877241E+09,-6.03072525139219E+08,-1.89647828018794E+08,-1.31690359638479E+09,1.95849165078688E+09,4.37423316075419E+09,1.06691833274299E+09,5.98003188178878E+08,8.37055358525731E+09,1.38061317897832E+10,1.63376763407895E+10,2.77942737520242E+10,2.66382690550135E+10,2.46388564282764E+10,1.02612596916924E+10,1.59396210823824E+10,2.10002383013010E+10,2.40409000000000E+10,3.14732485295771E+10,3.14105119814149E+10,3.16927968792564E+10,2.74968906089463E+10,3.24518651478085E+10,
GAB,,,,,,,,,,,,,,,,,,,,,,,,,,-2.13667499567645E+10,-3.55899543181657E+10,-2.06567752250644E+10,-2.05344451708701E+10,-2.04179027966586E+10,-3.65672532929871E+10,-3.73950299632988E+10,-3.03482355653373E+10,-4.65838764075694E+10,-3.65568987528842E+10,-5.26498878263725E+10,-1.29823870551836E+10,-1.11504593185932E+10,-1.24486527513248E+10,-1.92917720520041E+10,-1.56371396924823E+10,-2.52967644416810E+10,-3.19036032296969E+10,-5.23030593368614E+10,-6.08710046741364E+10,-5.13920737426067E+10,-6.29914165168929E+10,-6.69757655754803E+10,-7.50242077968515E+10,-4.13292363344680E+10,-5.00376135464790E+10,
GBR,,,,,,,,,,,6.50898146666621E+09,5.45153888945307E+09,4.61717085868194E+09,8.50382645790730E+09,8.46807863675093E+09,3.34461442575168E+09,4.41337841261818E+09,-3.49354340595437E+09,-1.35047971326202E+09,-4.46394143244625E+09,-7.93020016081665E+09,-7.23447769503381E+09,-9.52435636182488E+09,-5.53466815461125E+09,-4.83082063157861E+09,-1.21009552281102E+10,-9.00455113676221E+09,-9.17644689070980E+09,-7.70211791321422E+09,-1.07826663332033E+10,-1.48819181304985E+10,-1.31019421905549E+10,-7.31441002539087E+09,-9.35112650908846E+09,-2.24435566845607E+09,-7.36562830998422E+09,-6.43437748836958E+09,-2.86141519964002E+09,9.84287621510944E+09,-4.75877169864747E+09,-2.04445170212375E+09,6.76605238704488E+09,1.71590613501394E+10,1.62333038086594E+10,1.75524067781480E+10,2.10030000000000E+10,6.99062846088669E+09,1.71864569139075E+10,2.39539419266371E+10,1.77892858920147E+10,1.80835603083803E+10,
GEO,,,,,,,,,,,,,,,,,,,,,,,,,,,,,,,,,,,,,1.06116717900000E+08,,,,,,,,,,,,,,,
GHA,,,,,,,,,,,,,,,,,,,,,,,,,,,,,,,,,,,,,,,,,,,,,,,1.86735099192579E+09,1.97360271386473E+09,2.06951773729392E+09,2.28346869677790E+09,1.99122618409364E+09,
GIN,,,,,,,,,,,,,,,,,,,,,,,,,,,-3.26563292015891E+10,-4.92238827004480E+10,-2.84412515134355E+10,-3.58999017210863E+10,-6.56995063847144E+10,1.00457227315074E+11,-5.94412137334685E+10,-6.91213400443866E+10,-6.58021858238735E+10,-6.17690231966987E+10,-3.69197427642694E+10,-2.83063174774997E+10,2.68616966231949E+10,-5.60172241124005E+09,1.50726999510618E+10,1.36198257239179E+11,6.65266295113203E+10,5.34823864790864E+11,5.86324614740956E+11,8.30628701012474E+11,8.59397848727127E+11,5.87376122725291E+11,6.37448161544205E+11,,,
GMB,,,,,,,,,,,,,,,,,,,,,,,,,,,,,,,4.82443022546538E+07,6.00392180230248E+07,6.82992906244767E+07,7.09699014275865E+07,2.41480633826588E+08,2.22617317503537E+08,2.20017147491776E+08,1.74433968612366E+08,2.25975031419279E+08,1.97663600099723E+08,2.39236533658886E+08,1.90171255201354E+08,2.92936831525417E+08,3.13546210693040E+08,,4.41022032769603E+08,4.02438140797711E+08,3.12176724266454E+08,2.82062330282452E+08,3.87491128631517E+08,4.18853427648286E+08,
GNQ,,,,,,,,,,,,,,,,,,,,,,,,,,,,,,,,,,,,,,,,,5.90003087302045E+09,,,,,,,,,,,
GRC,3.86241313491557E+08,4.79061869632348E+08,4.67328763086988E+08,5.66776052431405E+08,6.77922972498604E+08,6.14113606827592E+08,5.82470587222336E+08,6.51310705228314E+08,8.09700855580455E+08,7.74816480436107E+08,1.07048222360433E+09,1.61523183864068E+09,1.73620950137588E+09,1.88622111848135E+09,2.62105933900218E+09,2.32369005782283E+09,2.79902198108478E+09,2.98612779505299E+09,2.66053347836250E+09,2.93148963403057E+09,3.41120180050389E+09,2.82774797680905E+09,3.01267544773115E+09,2.51867964478195E+09,1.34283808012805E+09,1.04273843402563E+09,3.58328453456071E+08,1.04218131697731E+09,8.06339584053059E+08,1.05019677878720E+09,2.69660971580587E+09,3.32802480336957E+09,3.76599442253374E+09,3.27725314005814E+09,3.39023893709115E+09,3.49648238696539E+09,3.12222133542092E+09,3.28014055787124E+09,3.31840702281538E+09,1.32724092135814E+09,6.24231300308221E+08,1.25044923572815E+09,6.62992885378158E+08,-8.45797847273675E+08,-1.10612797796802E+09,-2.80919467700000E+09,-4.43965130418186E+09,-5.91906010224938E+09,-6.83295504206337E+09,-4.93844949657179E+09,-5.33260973479926E+09,
GTM,,,,,,,,,,,,,,,,,,,,,,,,,,,,,,,,,,,,,,,,,,9.54740099100000E+09,1.54176323764726E+10,1.77188593190466E+10,2.06298512709060E+10,2.13324623020701E+10,2.40552964601550E+10,2.57168137109246E+10,2.42346881846042E+10,2.35630958571103E+10,2.32924263999860E+10,
HKG,,,,,,,,,,,,,,,,,,,,,,,,,,,,,,,,,,,,,,,,-1.08903958341841E+10,-1.22108406869422E+10,-1.33425126713162E+10,-1.49746847183403E+10,-1.51845116448397E+10,-1.64545486138479E+10,-1.73713125291135E+10,-1.79107525271843E+10,-2.03422240019880E+10,-2.54878310860916E+10,-2.46250000000000E+10,,
HND,,,,,,0.00000000000000E+00,0.00000000000000E+00,,6.25708022582611E+07,8.19511961559257E+07,8.06639920073232E+07,7.92712097517770E+07,8.64459805440420E+07,0.00000000000000E+00,0.00000000000000E+00,0.00000000000000E+00,0.00000000000000E+00,0.00000000000000E+00,0.00000000000000E+00,2.62463228410438E+08,2.52641324249070E+08,2.50413493810790E+08,2.25656295855376E+08,2.29683143638684E+08,2.36057237045461E+08,2.50679285470038E+08,2.64243458588621E+08,4.06773127989138E+08,4.14794304481709E+08,4.32386333484715E+08,5.03578784629377E+09,3.54954302976155E+09,3.67043969043536E+09,3.72477693497024E+09,3.69922451860222E+09,4.30406419580950E+09,4.43025161986401E+09,4.47699313808472E+09,6.43651459033133E+09,9.04374977119778E+09,6.61337958240000E+09,8.25117614499197E+09,1.09790837373035E+10,1.18903089993221E+10,1.55870262742116E+10,2.31647471317510E+10,2.85925779230965E+10,2.86314236126356E+10,2.82110996273123E+10,2.56232037292727E+10,2.56499095828387E+10,
HRV,,,,,,,,,,,,,,,,,,,,,,,,,,,,,,,,,,,,6.29864922176156E+09,7.45666755657435E+09,6.26406466719814E+09,4.92426049327962E+09,4.72055405397537E+09,7.31350000000000E+09,7.89349359054193E+09,8.02050752029659E+09,8.61155893986394E+09,7.96735152700559E+09,7.57326298591478E+09,6.78340627501177E+09,6.13131346295853E+09,5.92931362275186E+09,5.70243658275641E+09,5.92968259930736E+09,
HUN,0.00000000000000E+00,0.00000000000000E+00,0.00000000000000E+00,0.00000000000000E+00,0.00000000000000E+00,,,,,,,,,,,,,,,,,,,,,,,,,,,,,,,-5.07802981430578E+11,-5.88567313487913E+11,-8.53174441061495E+11,-9.16801113412096E+11,-9.75432740709524E+11,-8.90522839779362E+11,-9.36695580603578E+11,-1.01212480017352E+12,-9.39391170513476E+11,-1.10710894361888E+12,-1.18842000000000E+12,-1.23303319383993E+12,-1.59967261007009E+12,-1.48141628883731E+12,-9.52547504667406E+11,-1.06114236032914E+12,
IND,,,,,,1.14745193529915E+10,9.85471509082745E+09,8.02772605159763E+09,1.12588371730259E+10,1.19634425924942E+10,1.22652954781481E+10,1.39633013069292E+10,1.18509453876768E+10,1.47444135647351E+10,1.95198786354413E+10,3.82735994494134E+10,6.23144846985026E+10,8.68738072901703E+10,8.33890890451888E+10,1.14516212558059E+11,1.22961979541978E+11,1.09406414268920E+11,1.18666645325316E+11,1.21124989001759E+11,1.24684797320381E+11,1.06116757606436E+11,1.10862113623343E+11,1.18731127385789E+11,1.20533358249933E+11,1.09557366771579E+11,9.59813917399556E+10,2.12123462282344E+11,2.48960670274367E+11,3.20952092591680E+11,4.51235232554302E+11,4.59220027211434E+11,6.52473275907421E+11,6.23156810176187E+11,5.70475892003684E+11,6.65955478983257E+11,7.06761947631010E+11,8.55662307896474E+11,8.76262187571635E+11,1.07204089168005E+12,9.22239562500000E+11,1.04536634063705E+12,1.22153601784756E+12,1.43663124189282E+12,1.66746106234044E+12,1.87555045734479E+12,1.67490375320630E+12,
IRL,,,,,,,,,,,1.81102606111071E+09,1.78106711786121E+09,1.86092919641404E+09,1.66282577681402E+09,1.79602151978614E+09,1.70376850429131E+09,1.39811918443284E+09,1.06005603767522E+09,5.00175467507879E+08,4.27954887424473E+08,3.26295234505545E+08,4.55254590825551E+07,-1.15772426770375E+09,-1.67513805295669E+09,-2.74399891079995E+09,-3.37953025820720E+09,-3.01298294960611E+09,-3.03861426310815E+09,-3.81431889213803E+09,-4.66915444022654E+09,-4.42937044030164E+09,-4.27221031771702E+09,-5.19302399089978E+09,-5.05834506070729E+09,-5.04621933438078E+09,-6.75102302247388E+09,-6.86565511017145E+09,-9.17194241735162E+09,-1.05906458254358E+10,-1.46513723406401E+10,-1.61794472999580E+10,-1.92081004978793E+10,-2.28887849122279E+10,-2.01967309156779E+10,-2.07066785635963E+10,-2.13063559970000E+10,-2.02446091918275E+10,-2.36014930326444E+10,-2.32266217281131E+10,-2.62681813832210E+10,-3.04349626982428E+10,
IRN,,,,,,,,,,,,,,,,,,,,,,,,,,,,,,,,,,7.13557408115173E+12,5.02521319669072E+12,-1.21897906223111E+10,1.23379753860467E+12,1.09234372396292E+12,1.37227586640545E+12,1.56480453127573E+12,2.00550066202290E+12,2.05502214179225E+12,2.88001550567564E+12,2.74979368901904E+12,2.17387826103970E+12,2.24988283978152E+12,1.56446939516547E+12,9.23052882789675E+11,,,,
ISL,,,,,,,,,,,-9.83103799948312E+08,-5.61809877079240E+08,-1.72513972922057E+09,-1.59716004697742E+09,-2.18726741780099E+09,-5.93676887186334E+09,-6.87664393602738E+09,-5.80211385379399E+09,-7.79228743992104E+09,-8.48282106327247E+09,-9.50175392501278E+09,-1.33821981664558E+10,-1.67320263712858E+10,-2.02208695552508E+10,-2.41061566514407E+10,-2.18424693300859E+10,-1.93041714447639E+10,-1.44578208099298E+10,-1.59151208825377E+10,-2.23475697974868E+10,-2.15746665002197E+10,-1.69459635647759E+10,-1.39404513378740E+10,-1.52459490154097E+10,-2.01503467313801E+10,-1.83548197539295E+10,-1.57822013659033E+10,-1.64109756669355E+10,-1.65209971775374E+10,-1.56250263613935E+10,-2.30136938618842E+10,-2.71750406116743E+10,-1.40748215195207E+09,-1.39013563307312E+10,-3.88171296137230E+10,-3.69543826320000E+10,-6.26686553123715E+10,-5.61546093881730E+10,-2.48221361137855E+11,-2.09958133801813E+11,-2.13501727233378E+11,
ITA,,,,,,,,,,,2.66756877799366E+09,2.81783864517162E+09,3.21888426592068E+09,1.69816624680818E+09,-2.66860427657258E+09,-1.48572768196653E+09,-2.18358043849391E+09,-1.30524611275253E+09,-1.11265054986018E+09,1.16896868641127E+09,1.79289024454721E+09,-5.21019817315144E+09,-6.19528632740388E+09,-4.97987872072159E+09,-5.31750798403333E+09,-6.72332998019829E+09,-9.71756089096083E+09,-7.84437772234849E+09,-7.74211054842854E+09,-1.05571480321593E+10,-1.85419471158120E+10,-2.04947568571640E+10,-2.21310477117382E+10,-2.00532651022769E+10,-2.26531633149483E+10,-1.91759227569865E+10,-1.59476607862424E+10,-8.24970774580002E+09,-8.92710002461267E+09,-5.76901899631225E+09,-1.02438673507700E+10,-9.17067207590905E+09,-1.09385131494190E+10,-1.14751031228343E+10,-8.18625876870487E+09,-4.49180000000000E+09,-2.49840554378701E+09,-9.25470978685845E+09,-2.24910555838106E+10,-2.08100317938459E+10,-1.87965321161136E+10,
JOR,,,,,,,,,,,,,,,,,7.32405179586030E+08,8.08733763937115E+08,6.64126742903258E+08,1.20512649390494E+09,1.10406779985600E+09,1.50507845604549E+09,1.26568876703681E+09,1.08295413306458E+09,1.19581409732775E+09,1.10660231909185E+09,9.83509513846676E+08,8.60846592693485E+08,9.46950487832900E+08,1.19815864759792E+09,9.22426428317201E+08,6.70827074588545E+08,8.72082645048562E+08,9.90359214085070E+08,9.26184425177448E+08,9.93765217509275E+08,1.26341997614962E+09,1.24532974062035E+09,1.07954413974945E+09,1.28400058723070E+09,1.39816779929323E+09,1.30768318143195E+09,1.42637340628810E+09,1.97621885791750E+09,1.92313056327199E+09,1.53373885967712E+09,1.49671548874783E+09,1.39232107380103E+09,1.61350105818517E+09,1.32994327593697E+09,1.10526638690845E+09,
JPN,,,,,,,,,,,-3.69334912828406E+11,-2.36572522398897E+11,4.07250040306694E+10,7.07874569323409E+10,-3.81397666690990E+11,-2.14633188272202E+11,-1.93880284071632E+11,-9.22232301068814E+10,1.22989638491478E+11,3.81195266866549E+11,-5.62722298223391E+10,-5.05627918298781E+11,1.20387240799036E+11,3.89172212295928E+11,6.26595250683293E+11,1.23486711953848E+12,1.17630230457250E+12,1.97963372922109E+12,2.19290935346817E+12,2.63929062483250E+12,2.61786529771127E+12,2.82696442244969E+12,3.61470965119052E+12,3.75548370376103E+12,3.43507180996039E+12,3.47361831923672E+12,4.98548233498082E+12,6.12587998036315E+12,6.29284816538994E+12,5.86548326846384E+12,6.00381164610255E+12,7.87659385512812E+12,7.87784633150414E+12,8.32892204330239E+12,9.50187551094351E+12,1.18488000000000E+13,1.45491896670329E+13,1.75240909426358E+13,1.71987100027373E+13,1.33156007429405E+13,1.31980894427037E+13,
KAZ,,,,,,,,,,,,,,,,,,,,,,,,,,,,,,,,,,1.82710877295182E+10,1.35374251672707E+10,7.30400171405558E+09,6.54276360260197E+09,8.17744159450939E+09,1.31712812705180E+10,2.09020439922623E+10,3.53923780010666E+10,2.94313329157293E+10,1.31573626793932E+10,-1.65238644723536E+10,-4.01395862752653E+10,-2.99232212105851E+10,-7.14379892353795E+10,-1.09353609717078E+11,-4.48271945791813E+10,-3.15219779654964E+10,-1.76893662727564E+10,
KEN,,,,,,1.47707978809421E+04,-6.94079079525719E+03,4.68883425117981E+08,4.76896700352098E+08,4.95261833708794E+08,4.72513180165507E+08,4.90259197359901E+08,9.09049817092931E+08,7.10593787774770E+08,8.90256138024606E+08,3.76041797817717E+08,3.28963676504670E+08,7.87211809463198E+08,1.04090540376912E+09,2.35802135127529E+09,4.63615697119007E+08,1.79383124121403E+09,1.52005344705186E+09,1.23447365700346E+09,1.18147733215797E+09,1.60596551257783E+09,1.05759096135573E+09,1.29653006709187E+09,1.63290001252858E+09,5.12060449262760E+09,6.94695233175328E+09,7.15870021702190E+09,5.75068637331044E+09,7.47235695706960E+09,3.89193279724026E+09,8.82129338500574E+09,7.76160000000000E+09,6.42500000000000E+09,5.84840000000000E+09,7.75200000000000E+09,9.92800000000000E+09,8.95000000000000E+09,6.58300000000000E+09,4.25724523780756E+10,6.81248589264327E+10,7.79366384359433E+10,1.00357448920160E+11,1.04942425378152E+11,1.31926866039607E+11,1.07289095281143E+11,1.02036878954390E+11,
KGZ,,,,,,,,,,,,,,,,,,,,,,,,,,,,,,,0.00000000000000E+00,0.00000000000000E+00,2.58594131812784E+08,7.71188100502139E+08,6.92365443098478E+08,7.64797351772489E+08,7.12642164434023E+08,6.62414721986973E+08,4.80523846041781E+08,9.82663176991260E+08,1.30081418865075E+09,7.43961028808565E+08,1.41100620390784E+09,1.82122633731124E+09,3.42065325540766E+09,4.66827824544740E+09,5.83271347762368E+09,6.72750390851225E+09,7.49438941389122E+09,7.15701169670594E+09,7.93286084915281E+09,
KHM,,,,,,,,,,,,,,,,,,,,,,,,,,,,,,,,,,,,8.52695864371461E+11,1.15122832209161E+12,5.71139151712543E+11,9.84079486905023E+11,1.32390135212852E+12,1.59691054973740E+12,1.50589872122317E+12,1.77276572218236E+12,1.56861940001570E+12,1.52983573913318E+12,1.51278076027148E+12,2.11765213464005E+12,1.94322960740575E+12,2.06379056655797E+12,1.71419376114939E+12,2.12118816347244E+12,
KOR,,,,,,3.21887299227879E+12,3.06331162296770E+12,2.69968642343453E+12,2.35182033424361E+12,2.34819738283368E+12,1.57857303281731E+12,1.46161537226626E+12,1.45893124370057E+12,1.45817175532764E+12,1.22294641663954E+12,1.19147691485009E+12,2.24326809798223E+12,1.07816257631849E+12,1.59780016495675E+12,1.23371698138720E+12,1.35866534567421E+12,1.49620599093484E+12,1.63933319084791E+12,1.82103340137147E+12,1.70573081575530E+12,2.18618319434894E+12,3.65645319125386E+12,4.46976882150331E+12,4.37698458080416E+12,1.80675884679308E+12,1.74411845395934E+12,1.11948095640152E+12,1.49112910099176E+12,1.60078114760308E+12,1.66849579628065E+12,-6.83355778494133E+10,-2.04590390263926E+11,1.11482012613279E+12,6.18614569344784E+12,2.77576236611854E+12,7.69201660081925E+11,-5.64341998678768E+11,-2.17388018712537E+12,-3.65348004269634E+12,-2.84798693882403E+12,-2.54080000000000E+12,-3.80223968114853E+12,-3.16795149357712E+12,-1.51311446715049E+11,-5.56088483326508E+11,-3.17371416574612E+12,
LBN,,,,,,,,,,,,,,,,,,,,,,,,,,,,,,,,,,,2.97636775927242E+11,1.65281120273148E+12,1.05375800467084E+12,9.51244140000000E+11,1.37282250339799E+11,-3.41102046685063E+11,-4.54948676888974E+11,2.35869906742921E+11,1.17119193326924E+11,4.83009506833984E+11,2.37836827706137E+12,1.48369529207953E+12,2.69438127882388E+12,3.64712264184353E+12,2.83019587461313E+12,2.04729592732095E+12,5.82544099793199E+11,
LBR,,,,,,,,,,,,,,,,,,,,,,,,,,,,,,,,,,,,,,,,9.64363440000000E+07,6.22943040000000E+07,4.16793000000000E+07,6.28931080000000E+07,4.33017680000000E+07,2.06250816000000E+08,2.41552624000000E+08,2.47267808000000E+08,2.17007264000000E+08,2.17007264000000E+08,,,
LKA,,,,,,,,,,,,,,,,,,,,,,,,,,,,,,,,,,,,7.62962073310596E+10,7.78466266729132E+10,7.03349489129903E+10,7.84333238759506E+10,8.88092456564749E+10,8.90678879476062E+10,9.37729017780356E+10,1.04981000000000E+11,,,,,,,,,
LSO,,,,,,,,,,,,,,,,1.69474368000000E+08,6.37878960000000E+07,2.44778608000000E+08,3.73657856000000E+08,4.44920992000000E+08,4.92184544000000E+08,3.75088928000000E+08,2.31805536000000E+08,3.73423936000000E+08,5.35091072000000E+08,5.80715648000000E+08,4.81597856000000E+08,1.12483903520863E+09,4.31804105394489E+08,4.22096115246088E+08,5.31969930435925E+08,5.10829337306003E+08,6.00230078136620E+08,6.70315186431588E+08,7.15180026310271E+08,7.99761277926352E+08,7.22378425561013E+08,7.70584266848267E+08,6.38393123667338E+08,6.45608224369754E+08,6.37200131166077E+08,7.09798216119131E+08,6.96683672292343E+08,6.84982078388762E+08,1.59696000000000E+09,1.84398251074930E+09,2.40392173164217E+09,3.69826364710387E+09,4.32118033392023E+09,3.12872758078564E+09,1.57161150427166E+09,
LUX,,,,,,,,,,,-2.10027123173809E+09,-2.13191335843541E+09,-2.19046247609532E+09,-2.42551512200948E+09,-2.43047485486679E+09,-1.81898123485135E+09,-1.68137717923379E+09,-1.56812108825181E+09,-1.63097515796189E+09,-1.66882736913791E+09,-1.54476547519698E+09,-1.22226136607481E+09,-4.31087165938297E+08,-2.07049848067931E+08,-3.44899204111835E+08,-2.74563957328098E+08,-5.88456272713623E+08,-4.78512696988686E+08,-7.64655588155581E+08,-9.81407782291095E+08,-8.05538070676112E+08,-7.56438032490641E+08,-8.56633455984546E+08,-1.21387027426703E+09,-1.89498540097252E+09,-1.39431796522902E+09,-1.32259910613676E+09,-7.61864823058700E+08,-1.72876354323384E+09,-2.37616995695637E+09,-3.26571730861886E+09,-2.90778087301693E+09,-4.62361745059873E+09,-6.18386503524384E+09,-3.62793224443562E+09,-4.27520000000000E+09,-7.60944293842607E+09,-6.62942377802377E+09,-8.40718509502618E+09,-1.06103916095698E+10,-9.59456092423305E+09,
MAR,,,,,,,,,,,2.03373782288705E+09,2.98228651646735E+09,3.67087914617862E+09,5.25460908129848E+09,6.43153223105424E+09,9.24617052440480E+09,9.51635440234864E+09,9.75937968511549E+09,1.06361594477202E+10,1.19075465336535E+10,1.19084087137935E+10,1.37854261474534E+10,1.32075949620300E+10,1.49668232720366E+10,1.59834318595140E+10,1.93856950158070E+10,2.33063528082473E+10,2.40545508679218E+10,1.90858035142406E+10,1.92197805536891E+10,2.53339236091458E+10,2.55932397723171E+10,2.60003007049160E+10,2.48046707100327E+10,2.34547555401292E+10,2.21379475035362E+10,2.49753388125706E+10,2.30688865996809E+10,2.20250988543140E+10,2.08415862350793E+10,2.47356949356095E+10,3.85481651421683E+10,3.41071303703991E+10,3.70802414072710E+10,3.96159137315666E+10,4.38484451479701E+10,4.97469493615250E+10,5.53999321549190E+10,5.49788574179317E+10,4.92929297986427E+10,4.91460023449952E+10,
MDG,,,,,,,,,,,,,,,,,,,,,,,,,8.91348299603512E+09,1.16081081614713E+10,1.64803251351542E+10,2.05919412955077E+10,2.72571956144822E+10,2.88503123017240E+10,2.81818028737157E+10,2.28791875359165E+10,1.85284016116546E+10,1.91752073173668E+10,1.07041018883539E+10,7.12261043729083E+09,1.47964124333582E+10,1.96948923453202E+10,9.28073520460915E+09,1.45988448609585E+10,1.55030280200137E+10,1.58470648942006E+10,9.72215164955143E+09,2.68481085770119E+10,3.67556743097288E+10,1.96911432089593E+10,2.22722831398831E+10,2.50761463251859E+10,2.77055622582708E+10,1.90741479841335E+10,,
MEX,,,,,,9.08886850731747E+09,9.30792347717482E+09,1.01282318461004E+10,1.14037117387491E+10,1.15674099358810E+10,1.35222262021805E+10,1.53343508616569E+10,1.59121620272384E+10,1.73391601836270E+10,1.68888861149053E+10,1.63179121263345E+10,1.77963076872882E+10,2.12658693179893E+10,2.12107912452288E+10,1.97760821591789E+10,1.82190962549034E+10,1.89975650197103E+10,2.77535039642633E+10,3.47970282883750E+10,3.50618415759989E+10,4.92561637187944E+10,5.22380048893525E+10,6.10289764302117E+10,5.41332041391115E+10,5.21816313737010E+10,7.33340842494659E+10,4.78550681489965E+10,4.86736459871974E+10,4.82120684795236E+10,5.01371917556191E+10,7.14722846975787E+10,7.39222446250966E+10,7.61027585360800E+10,8.63986023418568E+10,8.33325563635816E+10,8.25078521449353E+10,1.03232597865606E+11,1.21776766151746E+11,1.68315252089183E+11,1.77170268306163E+11,2.00054022720221E+11,2.34719853029092E+11,2.29611674132295E+11,2.10360671381841E+11,2.05230143936784E+11,1.83082559648857E+11,
MKD,,,,,,,,,,,,,,,,,,,,,,,,,,,,,,,3.81791455347261E+09,-1.17796859129643E+09,2.37097208942093E+09,5.45222289733084E+09,5.97834564717007E+09,6.24645634503369E+09,7.06358233406728E+09,1.34039412367824E+10,1.71276841854215E+10,2.34835184908209E+10,3.32988140455608E+10,1.83281174264181E+10,2.46901609254658E+10,2.92767090427626E+10,2.78897584302673E+10,3.67680268455944E+10,4.16532771014118E+10,4.06344262912806E+10,3.58600545716551E+10,4.15166858528601E+10,4.85439936005327E+10,
MLI,,,,,,,,1.77820128084048E+10,1.47553182917814E+10,,-3.33078239563341E+09,9.65172186058474E+08,1.46504972438235E+09,-1.50943870936964E+09,1.19104659920797E+09,4.20952796875463E+09,4.07139966618724E+09,9.84387284878362E+09,1.27944275273003E+10,1.11690431219131E+10,1.12946746287361E+10,1.02190036458575E+10,7.89493094737540E+09,7.84548344442572E+09,3.05188511534064E+10,6.54828340257828E+10,4.71930677441000E+10,4.07017055910825E+10,4.74131372608179E+10,5.30079028811059E+10,6.13037089894129E+10,6.79202183197498E+10,7.16632827157973E+10,5.77831460591301E+10,8.34670290214256E+10,5.59231257477930E+10,5.57503673805936E+10,4.09571955545917E+10,1.96498024191219E+10,1.89481341175802E+10,4.75670937238607E+10,5.10791244108747E+10,4.29115090358612E+10,5.37099983487421E+10,4.46881907074567E+10,0.00000000000000E+00,0.00000000000000E+00,0.00000000000000E+00,,,,
MNE,,,,,,,,,,,,,,,,,,,,,,,,,,,,,,,,,,,,,,,,,6.92704350000000E+07,1.09399318107920E+08,6.34995733341996E+07,4.16794628182395E+07,4.40802619404555E+07,1.01667666863143E+08,6.10458669791718E+07,3.84769813631340E+07,4.37398790772285E+07,4.97760722934762E+07,6.28756508641910E+07,
MNG,,,,,,,,,,,,,,,,,,,,,,,,,,,,,,,6.43634476355036E+09,3.56361845539056E+10,4.93007054524776E+10,2.19821271991466E+11,1.53473798335226E+11,1.08793212451415E+11,1.11152878392383E+11,9.06004372618467E+10,1.05473875016540E+11,1.43734760209024E+11,1.84238298079270E+11,2.38821412087675E+11,2.36028734932672E+11,2.59661760969093E+11,3.83575681395191E+11,2.71412598009253E+11,2.04451610462001E+11,1.82486886869608E+11,1.56027246133334E+11,1.58839172640470E+11,9.97561954500006E+10,
MOZ,,,,,,,,,,,,,,,,,,,,,8.60732896325919E+08,8.29832602834152E+08,1.07829517703210E+09,1.15671227567994E+09,1.99996886626063E+09,1.23007721667809E+09,1.63423805511249E+09,5.03062385076124E+09,7.14097449231247E+09,7.48278582011346E+09,7.51852386975374E+09,5.64226771306604E+09,7.86062406419209E+09,7.80554710130624E+09,9.20474159777291E+09,4.94947238084331E+09,2.99134320808237E+09,3.95085485874480E+09,3.75375103572421E+09,5.62439103415263E+09,8.67563893273551E+09,5.85144065364621E+09,4.58341848801908E+09,6.75578265414906E+09,9.14073493293623E+09,2.21885496874198E+09,4.12454557156378E+10,5.25031538400718E+09,2.73336157436370E+09,2.34514610806636E+09,-4.41314175688416E+08,
MRT,,,,,,,,,4.99223603028189E+09,4.47133593698969E+09,1.71901083905096E+09,-3.03699052907631E+09,-1.74692591999771E+09,1.07457376958199E+10,2.10835083583610E+10,2.06947177473361E+10,4.72644870020096E+10,3.51308092378277E+10,4.08818093098226E+10,2.69296796485288E+10,1.95095651271225E+10,2.19038649507115E+10,1.53352672510475E+10,1.26991895240151E+10,1.99923056002795E+10,4.71698565636930E+10,3.30416770315260E+10,2.29963229554814E+10,4.20976550471389E+10,5.17748791016621E+10,1.47280202716167E+10,1.04202456868997E+10,1.48540919898935E+10,,,,,,,1.84350002539379E+10,2.08142890310277E+10,3.01665041050308E+10,2.13144769247131E+10,2.83937812210916E+10,2.05757688273898E+10,2.11192779344022E+10,,,,,,
MUS,,,,,,,,,,,,,,,,,,,,,1.06530811985092E+09,1.23388204645040E+09,1.55581502929359E+09,1.66664702503987E+09,1.88001454592832E+09,2.62388282613559E+09,2.88930844031867E+09,3.55928052150114E+09,4.04732486575933E+09,4.03472470327004E+09,3.75720066462181E+09,3.63709295481113E+09,3.58128241696870E+09,3.88971210043945E+09,3.80773684127804E+09,3.71695161277740E+09,3.84467029277951E+09,4.06770886189192E+09,4.04814817175476E+09,3.89448125244282E+09,3.28187664880490E+09,2.84475497674804E+09,3.23942768369265E+09,2.59477570233332E+09,1.97405022986588E+09,1.83291226676315E+09,2.33053800000000E+09,3.54112760491084E+09,5.22151227629244E+09,5.60532241877741E+09,4.34611847804323E+09,
MWI,,,,,,,,,,,,,,,,,,,,,,,,,,,,,,,3.30025125385060E+08,3.77735692219110E+08,7.13121779081600E+08,4.20975843229147E+08,1.76812133676395E+08,-3.87424902257109E+07,-1.52241265376092E+08,-1.09234732965283E+08,-2.11966837937977E+08,7.41678849599553E+07,6.58116908780869E+07,8.26399423007784E+07,,,,,,,,,,
NAM,,,,,,,,,,,,,,,,,,,,,5.37956475609251E+08,2.07535838831670E+09,2.36816031190791E+09,2.37127765204151E+09,2.25729504720232E+09,2.24621133005329E+09,2.37513256257274E+09,1.75518143703017E+09,1.50176282935510E+09,1.37990583416677E+09,1.70656337910584E+09,1.65032586927596E+09,1.85941757364793E+09,1.32378825893703E+09,1.19817450989520E+09,1.39305572668720E+09,1.60122662974152E+09,1.65857926360757E+09,1.80985759865191E+09,1.92156318409874E+09,2.09460935312237E+09,1.89926918247531E+09,1.65805137986529E+09,1.84943581553204E+09,2.25095715203701E+09,2.28048391735775E+09,3.27017002995506E+09,3.82646383596414E+09,3.22011295584529E+09,3.27492976692111E+09,3.23135288437883E+09,
NER,,,,,,,,,,,,,,,,,,,,,,,,,,,,,6.58222400000000E+06,1.06712370000000E+07,-2.46880980000000E+07,-2.07977440000000E+07,-5.38305650000000E+06,2.82873040000000E+07,-3.01445000000000E+07,-1.59947590000000E+07,-1.67253720000000E+07,-1.41104760000000E+07,-3.50039375000000E+06,,,,,,,,,,,,,
NIC,,,,,,,,,,,,,,,,,,,,,,,,,,,,,,,,,,,3.37500723477321E+08,9.21662240421808E+08,1.00006327755387E+09,1.57873886846669E+09,2.23235352226646E+09,3.07256548866471E+09,2.68884788014282E+09,3.12860458749954E+09,3.51050056741853E+09,4.10636137094701E+09,4.70512656905727E+09,5.05803040403375E+09,5.69188643397627E+09,5.95952965742065E+09,5.28050925672553E+09,5.16917741517564E+09,5.94133333756385E+09,
NLD,,,,,,,,,,3.95719224480486E+09,4.06347245943459E+09,2.93984784297781E+09,3.53989624739726E+09,4.54674686867197E+09,4.16036277048178E+09,1.03408077346010E+09,2.42443454620043E+09,2.14218470418858E+09,1.09167139156499E+09,3.51151538111714E+09,2.37404717962380E+09,1.57878299294025E+08,1.24454556939676E+08,1.60648378968105E+09,2.62759216143716E+09,-1.21033046175317E+09,-8.96185818250630E+08,2.73501543366038E+09,1.57501891578889E+09,2.38613736499954E+09,-2.61102496593502E+09,-1.14623928508985E+09,-2.61672525801438E+09,1.21108860814527E+07,2.58417696381289E+09,5.85825120143091E+09,3.64081585901706E+09,5.66928120863612E+09,-4.58396265560166E+09,5.03328643450296E+09,1.03766903531438E+10,3.69864319200591E+09,4.48484479400878E+09,5.59537350218579E+09,1.34682858948989E+10,2.47800000000000E+09,1.42727155896901E+10,9.16750316996430E+09,-1.19275867891489E+10,-1.35664948568227E+10,-4.67176362221157E+09,
NOR,,,,,,,,,,,-8.17658012287382E+09,-6.94526365136337E+09,-7.95420431269955E+09,-7.96058542725295E+09,-8.94328297427240E+09,-9.98670303495341E+09,-1.40617420492118E+10,-2.01974609892321E+10,-2.67439806814699E+10,-3.19349725533499E+10,-2.89202456126714E+10,-2.86461044042879E+10,-3.03054872661323E+10,-2.88986541654715E+10,-2.76607506492524E+10,-1.92650165203742E+10,-1.80653868603061E+10,-1.65762335322238E+10,-2.86826820796478E+10,-3.19309187417547E+10,-3.45309945561813E+10,-3.99916473931120E+10,-2.74204343698624E+10,-3.02896731355454E+10,-2.34581071327015E+10,-1.76725235687099E+10,-1.73959232229830E+10,-1.69062919128664E+10,-1.86673558598877E+10,-1.41668412025701E+10,-2.35210277880829E+10,1.58526434819220E+09,5.53786809645289E+09,1.13316044199960E+10,3.64634375027212E+09,1.34500000000000E+10,1.44218301064278E+09,-6.54389846243378E+09,-9.07748507101219E+09,-1.21913304213504E+10,4.86923280881139E+09,
NPL,,,,,,,,,,,,,,,,,,,,,,,,,,,,,,,,,,,,,,,,,,6.55950718935159E+10,6.56290760569521E+10,7.05216534720488E+10,7.61755774193164E+10,8.28337142780879E+10,9.99710688285162E+10,9.52269284697699E+10,1.09966529352447E+11,1.30291111746888E+11,,
NZL,,,,,,,,,,,,,,,,,,-2.34037598261168E+09,-2.62168441033980E+09,-2.05693098214426E+09,-2.07589033948615E+09,-2.27059232012495E+09,-2.64064233033431E+09,-3.67833098416780E+09,-5.08466923802005E+09,-5.64798735331534E+09,-4.98025899555092E+09,-5.37761448974625E+09,-4.44563963435926E+09,-4.49826099502795E+09,-3.63954084399548E+09,-6.28666214664916E+09,-6.07149597279337E+09,-7.30585736627765E+09,-7.42420203555834E+09,-7.33516093382307E+09,-8.76299245910368E+09,-7.57295336604886E+09,-5.64482520773035E+09,-7.73009558013692E+09,-7.68341095837202E+09,-7.13549579734952E+09,-7.29334254650018E+09,-7.25267133789894E+09,-8.83217477288145E+09,-1.05014890000000E+10,-1.11439270094922E+10,-1.23825547659965E+10,-1.16497104504658E+10,-6.75892147870184E+09,,
PAK,,,,,,,,4.81667846151969E+09,9.39169736294551E+09,1.16306603511389E+10,9.07165514833814E+09,6.75614080651933E+09,2.10904955130400E+10,2.31030859250385E+10,1.89342938946916E+10,2.18018952103879E+10,3.06186499038594E+10,4.83030074252052E+10,9.17954485522608E+10,1.07402812068497E+11,1.22418453860452E+11,1.22648815394157E+11,1.27802318983722E+11,1.85835128922874E+11,1.79401253534744E+11,1.70889861683531E+11,1.80039939470676E+11,1.68122027923157E+11,1.37153613936536E+11,1.28005002662520E+11,1.40079969939861E+11,1.70835798193940E+11,2.02342588447084E+11,1.52627185145891E+11,1.58704134668277E+11,1.44604930543475E+11,1.40071176848383E+11,1.78549827638225E+11,2.00931604136889E+11,1.64661847659470E+11,2.06385954695742E+11,1.76055968367111E+11,2.47758398074584E+11,3.32936598481879E+11,2.99224419428441E+11,3.76827064402314E+11,4.09081200550618E+11,3.76589571079693E+11,3.89429186219292E+11,3.66075928844991E+11,3.94586870061962E+11,
PAN,,,,,,,,,,,,,,,,,,,,,5.66094825026310E+07,8.67233770705017E+07,9.40467320791372E+07,9.85037067992696E+07,1.48773310816596E+08,1.65990342623895E+08,1.65200500987536E+08,1.47170577778787E+08,1.34325110871914E+08,1.19090074999294E+08,2.65536550691399E+08,2.62477212834271E+08,2.36270649429452E+08,2.38480080375211E+08,1.70840791285984E+08,1.67864100655366E+08,1.34700000000000E+08,1.52571486364532E+08,1.59893218346450E+08,1.67639185750636E+08,1.73840684235677E+08,2.21339632345592E+08,2.36685483011669E+08,2.47862820658990E+08,2.08694382071844E+08,2.35472742916379E+08,2.33725466760606E+08,2.19177814022316E+08,2.94997450290042E+08,2.86198162302657E+08,1.60462374229803E+08,
PER,,,,,,,,,,,,,,,,,,,,,,,,,,,,,,,,5.24497600074527E+08,9.20880653512904E+08,9.56821107612918E+08,1.14874790395364E+09,1.03311609199973E+09,1.80200000000000E+09,1.84300000000000E+09,2.00100000000000E+09,2.17400000000000E+09,2.23200000000000E+09,2.29400000000000E+09,2.28800000000000E+09,2.62500000000000E+09,2.91364800000000E+09,3.42467200000000E+09,4.11163000000000E+09,4.42222644825578E+09,4.61763057161858E+09,4.54467640308233E+09,4.41273584086678E+09,
PHL,,,,,,,,,2.17709022276071E+10,2.37943250880402E+10,2.35907412899819E+10,2.50174554573513E+10,3.35434117778405E+10,3.66056244215827E+10,3.26518699544769E+10,3.55457079993203E+10,2.78291125508069E+10,2.50826342523077E+10,2.80414268372886E+10,2.76549904683469E+10,2.91851115277924E+10,2.95191119381677E+10,3.06324022885895E+10,3.30515535511971E+10,2.63199710798106E+10,2.55548113225443E+10,3.15631279966464E+10,3.88643379692620E+10,5.02225732817889E+10,4.98981985831088E+10,4.21030246805721E+10,4.74370329007364E+10,4.01771425333775E+10,3.37316676555718E+10,4.01936102520576E+10,3.44040002291944E+10,1.99894819067342E+10,3.97243342538542E+10,1.79205672940205E+10,2.36108582190271E+11,2.49375463577270E+11,3.29046607355474E+11,3.60287150470638E+11,4.01781116068004E+11,4.26501284782416E+11,4.88081990478351E+11,4.98961885743558E+11,4.62885626354274E+11,4.46604174232771E+11,5.03545023733108E+11,4.65465758297401E+11,
PNG,,,,,,,,,,,-3.85222321442158E+10,-4.00575705978676E+10,-3.32605683079194E+10,-2.80955969833953E+10,-2.89110918896763E+10,-1.44889133505840E+10,-1.07102167161163E+10,-2.00713911823680E+10,-1.68442775495896E+10,-1.46214189951086E+10,-1.25921194573729E+10,-1.10527209285097E+10,-1.01802628933954E+10,-1.16552944617844E+10,-1.23398517671034E+10,-1.02538416713095E+10,-9.86582771315248E+09,6.85627153027622E+09,7.41263092595871E+09,7.49598699921497E+09,6.26941561665933E+09,3.50696766438360E+09,3.33332455484831E+09,7.12323813807683E+09,8.26967582951647E+09,6.94756464014313E+09,3.14622643884974E+09,1.97618285133300E+09,4.77075850779962E+08,,,,,,,,,,,,,
PRT,,,,,,,,,,,1.57713051062289E+08,1.12347943135459E+07,3.58958470626827E+07,3.61876760316231E+08,5.09301734844756E+08,-1.78503390962474E+08,-6.98834257704262E+08,-9.07749822497050E+08,-1.46284647396199E+09,-1.74141868252269E+09,-2.09782828291430E+09,-3.39330776579409E+09,-4.78393154776181E+09,-4.47283691823973E+09,-5.16923268394049E+09,-4.69254240328765E+09,-3.13304110385871E+09,-2.36737405086054E+09,-1.79027113841175E+09,-1.37429438900483E+09,-6.94484587159463E+08,-4.70266296347777E+08,6.58411176344997E+07,1.59455088626688E+08,-3.28639319751699E+08,2.41055658268363E+08,-4.41384590141596E+06,-8.01930281092621E+08,-1.03872081278864E+09,-1.40663747050431E+09,-3.06404970825750E+09,-3.85528017704382E+09,-2.43056982031525E+09,-1.45258838999932E+09,-1.62920228283715E+09,-2.28800000000000E+09,-4.70364125856732E+09,-5.06712578908144E+09,-5.70661447828758E+09,-6.30172772342591E+09,-5.26053007697776E+09,
PRY,,,,,,,,,,,,,,,,,,,,,,,,,,,,,,,,2.32841994240000E+10,2.28684001280000E+10,3.12328007680000E+10,9.53460019200000E+09,2.07613992960000E+10,1.07928002560000E+10,8.98540032000000E+09,3.37974178802928E+11,2.24887531672769E+10,2.26197074710482E+10,2.37218526623125E+10,2.12002018092663E+10,2.84485160775689E+10,2.78923742000962E+10,2.37436529106424E+10,,,4.32169169402768E+11,6.17039553748367E+11,5.86269789959419E+11,
ROM,,,,,,,,,,,,,,,,,,,,,,,,,,,,,,,7.02654680992641E+08,1.69909933352880E+09,5.14760219103329E+08,1.68037687406450E+09,2.04108146626264E+09,2.33812706828669E+09,3.86442513432635E+09,3.58513429315225E+09,3.79847326812891E+09,3.72031550751984E+09,5.07459763738901E+09,6.54867165450965E+09,8.20533478808064E+09,8.09472026098713E+09,1.15153962706597E+10,7.52606227812274E+09,5.84549423956746E+09,1.41596149573317E+10,1.41000904513080E+10,1.68963573640889E+10,1.73070803688396E+10,
RUS,,,,,,,,,,,,,,,,,,,,,,,,,,,,,,,0.00000000000000E+00,0.00000000000000E+00,0.00000000000000E+00,0.00000000000000E+00,-4.14857398219932E+09,2.67656929417729E+09,1.19478249114439E+09,-5.79489217354826E+09,-7.76349586837354E+09,2.03746639484914E+10,1.94097000000000E+09,-1.90060260217362E+10,-1.74765794475296E+10,-7.29823824016814E+09,-1.33000333037465E+10,-1.33657780671850E+10,-1.64961475802370E+10,-3.11142437070789E+10,-2.02333268530490E+10,-2.21969884977173E+10,-2.50945222497426E+10,
RWA,,,,,,,,,,,1.74215336870731E+10,1.97549880207255E+10,2.00099247808679E+10,2.51484968436304E+10,2.65599583602536E+10,2.40387568692300E+10,2.37659452040124E+10,2.67046301792127E+10,3.50942121903117E+10,4.78860779433995E+10,3.46022477391420E+10,3.15550719684200E+10,3.33138189032983E+10,3.66435873624233E+10,2.89253095267775E+10,3.08187337218372E+10,3.15278518502206E+10,2.70594072648890E+10,4.00454293668602E+09,3.96172576141176E+09,2.70554876952255E+10,4.85860486796364E+10,2.93533781044255E+10,2.55053179309886E+10,1.21199768900814E+11,6.48054120953216E+10,6.00951297605885E+10,4.15913776376135E+10,4.12825082793250E+10,5.12081493376378E+10,,,,,,,,,,,,
SDN,,,,,,0.00000000000000E+00,0.00000000000000E+00,-1.55213650000000E+06,-1.48234950000000E+06,-2.01996512500000E+06,-2.19606075000000E+06,-2.46980812500000E+05,3.86975375000000E+06,4.42302900000000E+06,2.40250325000000E+06,8.65395440000000E+07,1.74155072000000E+08,2.37941216000000E+08,2.54294416000000E+08,2.44747008000000E+08,4.06273952000000E+08,4.85903680000000E+08,3.93487744000000E+08,6.07265600000000E+08,5.36394304000000E+08,4.19603648000000E+08,2.85818848000000E+08,2.61603120000000E+08,3.74593952000000E+08,4.75318624000000E+08,1.91426496000000E+08,1.95964256000000E+08,4.89232416000000E+08,1.94362784000000E+08,1.23541280000000E+08,9.29167200000000E+07,4.51835392000000E+08,5.12046014470233E+08,6.35596374052877E+08,6.49245163389393E+08,4.27468342043451E+08,4.56219922174269E+08,7.21621426728981E+08,7.01435053190305E+08,9.44702341935410E+08,1.22714197885899E+09,8.30213934989056E+08,3.03822834678236E+08,-6.44204931664135E+06,,,
SEN,,,,,,,,,-4.46230645420811E+09,-1.21613712326303E+10,-1.14845138386932E+10,-1.26715672272746E+10,-8.77611604835320E+09,-1.77537137651761E+10,-1.61873234667511E+10,-9.19444245336226E+09,8.64154870447368E+09,2.83780599879182E+09,-9.50984533082977E+09,-2.82311954302425E+10,1.42907777027009E+10,3.25070928599478E+09,6.03136940123878E+09,-4.04670904860571E+09,-4.85933119375238E+09,-4.41248616545716E+09,6.40030474154935E+09,-7.45960105683227E+09,4.04496148661958E+09,7.90173513264676E+09,1.40603947227240E+10,1.41691228952480E+10,1.49573025951791E+10,6.78654076825109E+09,1.27983890111376E+11,9.14772029399696E+10,8.74629241296810E+10,1.06301807670462E+11,1.00200205944793E+11,9.79288968442696E+10,1.74259027114922E+11,2.08954164609971E+11,2.34237073689559E+11,3.14753321667313E+11,3.03776351463329E+11,3.51138144247863E+11,3.62760600785157E+11,4.85925337236959E+11,5.72459630123724E+11,5.48349458901239E+11,5.86361436826108E+11,
SGP,,,,,,7.09023593606942E+09,5.04937346683157E+09,4.73944132561390E+09,3.04688931049129E+09,1.42116695074908E+09,2.45740883679618E+09,1.97288173397441E+09,2.89245434529896E+09,0.00000000000000E+00,1.13978218485377E+09,6.66618742492286E+08,1.85852569823827E+09,4.39690908864294E+08,-2.26518641868796E+09,-1.53431749692324E+10,-5.48009327115257E+09,-4.88129739813727E+09,-7.51636314242981E+09,-2.44185710782158E+09,-9.56960585837722E+09,-1.42158436337577E+10,-1.60236290838180E+10,-3.09495871935507E+10,-7.44384526462151E+10,-7.27641688982810E+10,-2.01367742802238E+10,4.51047562219581E+09,4.68945574608326E+09,-2.46123642884610E+10,-4.46499587331837E+10,-8.14132073550998E+10,-7.09330366787910E+10,-6.51108245203412E+10,-5.14699311424645E+10,0.00000000000000E+00,0.00000000000000E+00,,,,,,,,,,,
SLE,,,,,,,,,,,,,,,,,,,,,2.23987254882623E+09,2.32048888994304E+09,1.56545719055878E+09,1.68202760775934E+09,1.45274719963879E+09,1.65729541604987E+09,3.42791811921810E+09,2.40934427719037E+09,1.15168004306540E+09,9.49583277087984E+08,4.54337498866383E+09,4.18025422371570E+09,2.80083566334449E+09,2.37073047995924E+09,2.25472552315596E+09,1.64886372630974E+09,4.59004054881559E+09,1.39299201822535E+09,1.58376387234872E+09,4.89530154633541E+09,5.17316396424262E+09,8.41893109874863E+09,2.06849644652726E+10,1.63701726548085E+10,1.18613037916393E+10,,,,,,,
SLV,,,,,,0.00000000000000E+00,0.00000000000000E+00,0.00000000000000E+00,0.00000000000000E+00,0.00000000000000E+00,0.00000000000000E+00,0.00000000000000E+00,0.00000000000000E+00,0.00000000000000E+00,0.00000000000000E+00,0.00000000000000E+00,0.00000000000000E+00,0.00000000000000E+00,0.00000000000000E+00,0.00000000000000E+00,0.00000000000000E+00,0.00000000000000E+00,0.00000000000000E+00,0.00000000000000E+00,0.00000000000000E+00,0.00000000000000E+00,0.00000000000000E+00,0.00000000000000E+00,0.00000000000000E+00,0.00000000000000E+00,3.45399808000000E+08,5.11364368152449E+08,6.39416929369165E+08,6.99205407932635E+08,7.89066701440258E+08,8.76944368906693E+08,8.09255836846342E+08,8.93301445887877E+08,9.73844195718138E+08,9.92230491238025E+08,1.08181034657064E+09,1.35297612705038E+09,1.17009516796354E+09,1.18305560059862E+09,1.36964806106969E+09,1.55779909207907E+09,1.70944191776380E+09,1.76492681967579E+09,1.65972751844316E+09,1.50253994322454E+09,1.54063933324401E+09,
SRB,,,,,,,,,,,,,,,,,,,,,,,,,,,,,,,,,,,,,,,,3.03218608678372E+10,1.69173629412500E+11,1.85956121501790E+11,1.62348114300000E+11,1.23770359556260E+11,1.47754650823150E+11,1.47355792019164E+11,1.45331108965409E+11,1.24553982204074E+11,9.85543757289466E+10,1.51327175068357E+11,1.39685504425021E+11,
SVK,,,,,,,,,,,,,,,,,,,,,,,,,,,,,,,,,,1.35991535817969E+08,2.47743150910431E+07,-8.33968302066231E+07,1.84944794590100E+08,1.12650699564172E+08,5.04519960293624E+08,3.72143372409388E+08,2.12966694959615E+08,3.76610327235386E+08,6.25741977818673E+07,2.24576101484469E+08,5.42140495046873E+07,-5.42025000000000E+08,-6.23512658779047E+08,-8.12911496194489E+08,-1.08781262998262E+09,-6.59312456784920E+08,-5.46652352837020E+08,
SWE,1.34784474373433E+10,1.39135583337753E+10,1.46963163093548E+10,1.51613374599865E+10,1.69502340367566E+10,1.66300133576132E+10,1.66620751990890E+10,1.66165401922671E+10,1.68239475857633E+10,1.73118291024337E+10,1.93359585150080E+10,2.12813402603932E+10,2.28490136834474E+10,2.60263273635394E+10,2.59813834951730E+10,2.65009696840831E+10,2.47565800751110E+10,1.95381157003402E+10,1.76330046709248E+10,1.92579246593556E+10,1.11822641061211E+10,2.91272219467625E+09,-1.71453616818225E+10,-2.08887119694098E+10,-2.09025464743357E+10,-2.08894136472130E+10,-1.15635725088187E+10,-5.64615578513776E+09,-8.34148728312068E+09,-1.20887391600975E+10,-2.45240008073418E+10,-3.84246338542672E+10,-6.20086975663700E+10,-7.49131469742283E+10,-4.82539551921019E+10,-4.77752198168078E+10,-4.61657751288489E+10,-4.63123748290212E+10,-3.25976944584361E+10,-2.12289327639412E+10,-2.03901776099816E+10,-1.78852686236996E+10,-9.87048105318727E+09,3.17541478246211E+10,-4.92321831581645E+08,1.98950000000000E+10,3.71082591900777E+10,6.80212332904033E+10,1.03422513113547E+11,4.90314675644498E+10,5.35964866911463E+10,
SWZ,,,,,,,,,,,,,,,,,,,,,,,,,,,,,,,8.50051836979586E+08,8.90724298227824E+08,9.55778995570067E+08,1.16039866137463E+09,1.15051829236631E+09,9.12947404110663E+08,1.05343696446412E+09,7.55824115239721E+08,9.40731505280375E+08,9.15531712862714E+08,7.42957230000000E+08,2.76014182598496E+08,5.52966435679960E+08,2.71790387139685E+08,5.13021216159154E+08,4.24508027163052E+08,6.05281737546107E+08,1.54841129721450E+09,9.71734831889579E+08,8.13810431941983E+08,7.26612934254004E+08,
SYC,,,,,,,,,,,,,,,,,,,,,,,,,,,9.88203524830189E+07,,,,7.95470520918488E+07,6.68919080554547E+07,7.58682105336959E+07,7.80524335594296E+07,3.58430103372783E+07,3.46819738982211E+07,4.93926002993857E+07,3.86832674557808E+07,5.05666335167788E+07,1.79980421446217E+07,1.30376149378857E+07,1.70270432243152E+07,5.50834811232026E+07,3.82261785311374E+07,7.41781801123491E+07,1.17517740987789E+08,1.41871669181638E+08,2.97722878954391E+08,2.93386025734331E+08,3.28767822672591E+08,,
SYR,,,,,,,,,,,,,,,,,,,,,,,,,,,,,,,1.42261504030307E+10,1.79577030459557E+10,2.18943048336172E+10,1.60666691947329E+10,4.08285267481077E+10,4.12155959705628E+10,3.71332168531995E+10,2.84966684116683E+10,3.05390412547424E+10,2.46768318848179E+10,2.31684500000000E+10,2.22393804473693E+10,2.25191202123343E+10,2.66218291558741E+10,3.01439983501394E+10,3.02191693658958E+10,2.01734661942347E+10,2.76462329754718E+10,1.76713011541925E+10,2.84931474048105E+10,,
TCD,,,,,,,,,-4.46104912601093E+09,-7.25420797952692E+09,-7.48148882000976E+09,-7.67730737251110E+09,-8.37023751360779E+09,-7.78008094977658E+09,-7.83506024275058E+09,-5.43565264317315E+09,-2.82648260101300E+09,-8.91894637044784E+09,-5.98863603325616E+09,-4.11485653871385E+09,-1.73223072477098E+09,-2.92980968990519E+08,-3.95878167130689E+08,-1.82724140789418E+09,-9.88013840638279E+08,6.88460069068550E+10,4.33156096656764E+10,5.66687687281080E+10,4.91930940229752E+10,4.06447237980301E+10,4.41375722770723E+10,3.89956218183463E+10,4.11707735448184E+10,1.24775798952661E+10,7.29411520538757E+10,3.96938038570822E+10,2.81070857821321E+10,3.17576352255154E+10,2.37051319285588E+10,2.23823663101219E+10,2.99289479592866E+10,2.39623545558482E+10,3.57007615213482E+10,4.12598498418174E+10,7.49155608351097E+10,3.77111470080000E+10,3.45480192000000E+10,,,,,
TGO,,,,,,,,,,,,,,,,,,,,,,,,,,,,,,,,,,,,,,1.18602035200000E+10,1.13016729600000E+10,7.89133465600000E+09,1.12366223360000E+10,9.98332928000000E+09,1.21490493440000E+10,8.33569280000000E+09,8.66939084800000E+09,,,,,,,
THA,,,,,,,,,5.09346912000000E+08,2.84946432000000E+08,2.18408480000000E+08,4.88711104000000E+08,2.02461683200000E+09,6.85895065600000E+09,9.95567206400000E+09,2.43364633600000E+09,1.19470681600000E+09,8.43880256000000E+08,2.20983232000000E+08,7.42973696000000E+08,2.15109964800000E+09,1.39600563200000E+09,2.04301388800000E+09,4.14136422400000E+09,1.63681523200000E+09,1.40388979200000E+09,1.82974169600000E+09,2.70894592000000E+09,1.17869580800000E+09,1.11969638400000E+09,5.56545792000000E+08,3.87856230400000E+09,1.22224814080000E+10,,,,1.40429301760000E+10,1.20531988480000E+10,1.22004787200000E+10,8.95212851200000E+09,1.33506333655445E+10,1.45476941339665E+10,1.40454701700327E+10,2.10616902126513E+10,4.46931075245829E+10,5.82644351728418E+10,5.89071284257498E+10,6.23163933487845E+10,6.71510856969141E+10,6.63491487212875E+10,6.25481847142481E+10,
TJK,,,,,,,,,,,,,,,,,,,,,,,,,,,,,,,,,,4.45882488346529E+07,3.74108545110753E+07,3.87474465579047E+07,3.89075796890264E+07,7.01597376284231E+07,7.16219400046172E+07,5.00669551549894E+07,8.00206022192219E+07,1.92915627319705E+08,2.38751781079393E+08,3.24011204918933E+08,2.59386366096609E+08,5.82466814680774E+08,7.37897197070311E+08,8.45755136018755E+08,9.78557624268411E+08,7.76817453124436E+08,7.62229441006126E+08,
TKM,,,,,,,,,,,,,,,,,,,,,,,,,,,,,,,,2.16489878878868E+08,,,,,,-8.23599768718967E+07,6.99842055393609E+07,3.31968988347525E+08,6.10006651729873E+08,2.08556167138123E+08,2.32292400880571E+07,1.16001427224211E+08,1.36491299700490E+08,1.10968457429342E+08,1.33652835210301E+08,,,,,
TTO,,,,,,,-8.02029360000000E+07,-7.66074160000000E+07,-8.05867200000000E+07,-4.56369560000000E+07,-4.89274120000000E+07,-1.03335376000000E+08,-8.55069280000000E+07,-1.68160896000000E+08,-2.68611296000000E+08,-2.92165216000000E+08,-4.51845600000000E+08,-3.84220640000000E+08,-4.38135360000000E+08,-4.57544576000000E+08,-5.62141632000000E+08,-6.90637632000000E+08,-9.02130240000000E+08,-4.17086208000000E+08,-7.03074624000000E+08,-6.05289280000000E+08,-3.06294240000000E+08,-2.72731648000000E+08,-2.23273024000000E+08,-1.90372384000000E+08,-1.83967072000000E+08,-9.80561680000000E+07,-1.07139576000000E+08,-5.16404120000000E+07,-4.52183160000000E+07,-1.15371776000000E+08,-4.93388280000000E+07,2.36646200000000E+07,1.45534352000000E+08,2.47473056000000E+08,2.38479376000000E+08,1.94988944000000E+08,,3.59942688000000E+08,,,,,,,,
TUN,,,,,,,,,,,,,,,,,,,,,,,,,,,,,,,5.94994860854394E+08,4.77838760119774E+08,4.50522855583228E+08,5.37414010161300E+08,5.36686401248257E+08,5.29374346702187E+08,5.84458155493319E+08,5.83235560329729E+08,5.77272532520805E+08,6.38624202690638E+08,6.34304892096359E+08,7.64335179983297E+08,8.52301079952004E+08,8.78004515978931E+08,9.67445561295719E+08,9.58917334258407E+08,1.00836176668809E+09,1.09606109080965E+09,1.15369678278855E+09,1.32441845851034E+09,1.26901908039527E+09,
TUR,,,,,,,,,,,,,,,,,,,,,,,,,,,,1.17584319123276E+09,1.04647638153470E+09,1.43194470262916E+09,1.42351762963261E+09,1.65661384964807E+09,1.28293604179879E+09,1.14214668444228E+09,1.25083449523307E+09,1.47997794677471E+09,1.35656950116816E+09,1.55162773481016E+09,1.43515348331520E+09,1.33299033747386E+09,1.27580451363810E+09,1.02804994115985E+09,7.48665619009181E+08,2.55106432083586E+08,2.37423311792846E+08,2.72536570031908E+08,3.43273700335581E+08,3.49009080655316E+08,2.92931994163467E+08,3.81368786742957E+08,2.13805796253529E+08,
TZA,,,,,,,,,,,,,,,,,,,,,,,,,,,,,,,5.98641423774744E+11,4.75115887231680E+11,5.56501387439930E+11,6.07188523303003E+11,5.96284354379010E+11,4.56132460339890E+11,5.19684305146360E+11,3.86303938701331E+11,3.45359655026987E+11,2.78210486269615E+11,3.26301460942593E+11,3.63619079352919E+11,2.36935376024239E+11,3.82379672956176E+11,4.84414501702997E+11,4.79679394184425E+11,4.57145845848550E+11,5.03289097780452E+11,4.98918423446660E+11,5.69007081590745E+11,5.22240258066772E+11,
UGA,,,,,,,,,,,,,,,,,,,,,,,3.74882984814683E+10,1.39821121604481E+11,3.46438764439277E+10,5.35214124644993E+10,1.20977073839885E+11,7.53838100663143E+10,9.47079186945780E+10,1.15719871046191E+11,9.98317193832478E+10,1.36099710802433E+11,2.68834967367179E+11,2.05092257652830E+11,5.08764566324931E+11,4.59180120447164E+11,5.91769856215853E+11,2.63519804866338E+10,5.17543284741986E+10,3.51688941612800E+10,2.02467000000000E+11,5.44740000000000E+10,2.33468810178330E+11,2.02395608347915E+11,2.43730619109226E+11,6.10526212046932E+11,7.83083019566534E+11,7.96550977456891E+11,9.08923888543867E+11,8.99112979594744E+11,8.65802803516569E+11,
UKR,,,,,,,,,,,,,,,,,,,,,,,,,,,,,,,,,,,2.55624463695070E+09,2.13190434815164E+09,2.21605181645939E+09,3.24249520848647E+09,3.64289297678384E+09,4.57832876280344E+09,6.90574499414948E+09,8.83887292661189E+09,1.11051354075548E+10,1.16466168000000E+10,1.21400859858147E+10,1.05062861875093E+10,1.02805365171616E+10,1.12864686090469E+10,7.30282876453549E+09,7.50730585614742E+09,7.57480399738370E+09,
URY,,,,,,,,,,,,,,,,,,,,,,,,,,,,,7.08977753209829E+08,2.55231991155538E+08,2.45022711509317E+08,7.56621058225530E+08,7.06709024399558E+08,1.04701834594028E+09,1.12869258311005E+09,2.03618410721863E+09,2.16777037821437E+09,1.91480711586911E+09,1.50076410799457E+09,1.84447652275069E+09,1.24099465921848E+09,1.18994826098738E+09,2.06000575972648E+09,1.91253838705884E+09,2.82126271297839E+09,3.48017933494967E+09,2.80894371673840E+09,2.71677561689221E+09,2.47756549913717E+09,2.28873896419317E+09,1.80191803224907E+09,
USA,-2.94260711485756E+09,-1.58863875598905E+09,-1.40806311909090E+08,4.16662421976533E+08,1.10166587715073E+09,1.00946074607750E+09,-2.24780077800678E+09,-1.92969642173740E+09,-1.79400469121526E+09,-3.09046314637141E+09,-3.26783414634146E+09,-1.38333033950063E+10,-1.65896850008161E+09,1.22563293911520E+10,1.35472820236814E+10,-1.23777278325123E+10,-2.06697425129849E+10,-4.68351288288735E+09,-1.09400939874391E+10,-2.84848260955001E+10,-1.35195926180072E+10,-6.89391069012179E+09,5.73990147783251E+10,-2.20512617981693E+10,8.03265306122449E+09,-2.56572548269929E+10,-7.95769152542388E+10,-2.33015407861414E+10,4.72716331812165E+10,-4.35447267312536E+10,-6.34150170411073E+10,-5.00823376667173E+10,-6.71475677920087E+10,-9.39405003873673E+10,-5.97422890480889E+10,-2.33536056906138E+09,4.64984195791565E+10,7.08575498092401E+10,1.19989532090150E+11,1.13991793355553E+11,1.93709751687073E+11,1.71213023383070E+11,7.72905440879303E+10,5.53634148540923E+10,1.02302151147533E+11,1.76800000000000E+11,2.83770286888319E+11,9.60586273669168E+10,8.65526652630990E+10,-9.91609294386052E+10,4.38315781938624E+10,
UZB,,,,,,,,,,,,,,,,,,,,,,,,,,,,,,,,,,,8.82362115544406E+08,1.28977498594541E+09,-1.31118655255805E+08,1.88812500000000E+09,2.88652465476551E+09,2.96064694016349E+09,1.03059679644843E+09,4.25483411988235E+09,1.47572740441576E+10,4.07979369662648E+10,4.13374832589140E+10,6.99290759841437E+10,,,,,,
VEN,,,,,,,,,,,,,,,-1.43304859439464E+08,-1.22379838255334E+08,-1.56277495842056E+08,-1.77025774355544E+08,-2.30357191037567E+08,-2.01589718436306E+08,-1.92720556627510E+08,-1.61664229890211E+08,-2.38799488354553E+08,-7.32594001306245E+07,-7.98917290813259E+07,-6.84381343591960E+07,-5.74007672894644E+07,-5.67012714720463E+07,-7.33447518789271E+07,-1.87639287528843E+08,-2.09962949912862E+08,-2.30535990858686E+08,-2.18525224025356E+08,-2.10714896837950E+08,-4.90563960559256E+07,4.94340439584475E+07,7.20142344852273E+07,-4.73975950000000E+07,-8.56834571104413E+07,-2.66788466038621E+07,-6.48673628116018E+07,-5.33040095698255E+07,-7.03105759075902E+07,9.45961809890765E+06,-3.24168962452868E+07,-2.62821673704553E+07,-2.97991318315291E+07,-1.45698783318383E+08,-1.63106332097327E+08,-6.74885679095477E+07,-9.29463678700211E+07,
WBG,,,,,,,,,,,,,,,,,,,,,,,,,,,,,,,,,,,1.45542105600000E+09,1.38327539200000E+09,1.69503001600000E+09,1.55320742400000E+09,1.60297510400000E+09,1.82622528000000E+09,2.73000832000000E+09,4.40280985600000E+09,4.96907622400000E+09,7.33780633600000E+09,6.26230528000000E+09,6.20087449600000E+09,,,,,,
YEM,,,,,,,,,,,,,,,,,,,,,,,,,,,,,,,4.69058608384000E+10,3.00317334952821E+10,2.43418399812022E+10,2.96077157405968E+10,4.16366406949023E+10,4.13401481196179E+10,3.46241344292333E+10,3.35449135127277E+10,4.25375027627391E+10,3.95692414394431E+10,3.20546575603805E+10,3.05422475850505E+10,3.29402829713472E+10,2.65428201921446E+10,,,,,,,,
ZAF,5.47657373432315E+08,5.96891432584673E+08,5.21113345825500E+08,4.87272395424297E+08,5.63245208701331E+08,6.53236219481500E+08,6.60056338028169E+08,7.71130708661417E+08,1.33998482882523E+09,7.86041415012942E+08,1.80446684790817E+08,-6.94992532247115E+07,-2.50992861277253E+08,-1.07574369376398E+09,2.56901904566865E+07,7.89689609601029E+08,3.92791032826261E+08,3.52967059980334E+07,9.55837254208709E+07,3.25589233799118E+08,1.32280671831938E+09,9.01747685997247E+08,1.90255736437853E+08,-1.67429268131578E+09,-2.42414425972830E+09,-2.26850784534567E+09,-4.22366917933398E+08,-2.61185446871802E+09,-2.13901460114687E+09,-1.77059330810094E+09,-2.26311174383460E+09,-3.32021884685943E+09,-2.13008414734184E+09,-3.81984323532670E+09,-3.58029148852654E+09,-3.50273808041119E+09,-4.47445864928559E+09,-4.27119250386182E+09,-4.84425767123605E+09,-6.18792614462209E+09,-6.42200000000000E+09,-5.85666784373228E+09,-4.98709050914061E+09,-6.12417683546482E+09,-8.78221210374640E+09,-1.23932327471923E+10,-1.29789989639441E+10,-1.57466660124823E+10,-1.61679501942034E+10,-1.71012303934084E+10,,
ZAR,,,,,,0.00000000000000E+00,0.00000000000000E+00,0.00000000000000E+00,5.79126058565824E-04,-4.29543467522458E-02,-4.48742348381925E-02,4.05946649519733E-02,-5.59300199481647E-03,-1.52240510755064E-03,-5.22209561138128E-03,1.26480830057764E-02,2.01936081227887E-02,1.24799481564590E-02,-2.50574221198213E-03,-1.91796247734760E-03,3.16936902826937E-02,4.82896008443816E-02,2.73391088753780E-02,1.31569243236434E-02,2.74894694390746E-02,5.35015232689595E-02,4.20249254193317E-02,-5.31924880114877E-03,-3.65493777816883E-03,-1.37034223899622E-02,-7.78391555510869E-03,-1.51227545125325E-02,,-2.04768714431035E-02,9.13748205372593E-05,9.31775696312261E-03,2.96079686691750E-02,-2.71606777008647E-04,8.09583939279307E-03,6.32021552016113E-03,5.14842519069910E-02,8.78697168269550E-02,1.16169809294533E-01,1.66857435227770E-01,1.49193324119361E-01,1.28630225123808E-01,2.30151980498756E-01,1.66372844079771E-01,,,,
ZMB,,,,,,,,,,,,,,,,,,,,,-1.17346905023395E+11,-7.38659776821888E+10,-1.48648189702484E+10,-6.30513983629599E+09,-2.83507627100507E+10,-3.97073472590551E+10,-6.66330678562085E+10,-3.64080186954941E+10,-2.85834524332723E+10,-1.71762033392277E+10,-3.37567953669055E+10,-2.76434528562129E+10,-2.19482059452881E+10,-1.32665860303988E+10,-1.27180484619141E+10,-1.44612931113397E+10,-1.40650792428708E+10,-1.17293568768418E+10,-2.35280662251883E+10,-1.50117100103669E+10,1.59416275174797E+10,4.57234959091270E+10,8.35555961482917E+10,4.38844616413501E+10,-2.30886849231721E+10,8.48050797415733E+10,2.24762516916891E+11,3.17946995697938E+11,,,,
