"Country Code",1960,1961,1962,1963,1964,1965,1966,1967,1968,1969,1970,1971,1972,1973,1974,1975,1976,1977,1978,1979,1980,1981,1982,1983,1984,1985,1986,1987,1988,1989,1990,1991,1992,1993,1994,1995,1996,1997,1998,1999,2000,2001,2002,2003,2004,2005,2006,2007,2008,2009,2010,2011afg,,,,,,,,,,,,,,,,,,,,,,,,,,,,,,,,,,,,,,,,,,,,,,,3.00000000000000E+00,2.50000000000000E+00,2.50000000000000E+00,3.00000000000000E+00,,
AGO,,,,,,,,,,,,,,,,,,,,,,,,,,,,,,,,,,,,,,,,,,,,,,4.00000000000000E+00,4.00000000000000E+00,4.00000000000000E+00,4.00000000000000E+00,4.00000000000000E+00,,
ALB,,,,,,,,,,,,,,,,,,,,,,,,,,,,,,,,,,,,,,,,,,,,,,4.50000000000000E+00,5.00000000000000E+00,,,,,
arm,,,,,,,,,,,,,,,,,,,,,,,,,,,,,,,,,,,,,,,,,,,,,,4.50000000000000E+00,4.50000000000000E+00,4.50000000000000E+00,4.50000000000000E+00,4.50000000000000E+00,,
aze,,,,,,,,,,,,,,,,,,,,,,,,,,,,,,,,,,,,,,,,,,,,,,4.00000000000000E+00,4.00000000000000E+00,4.00000000000000E+00,4.00000000000000E+00,4.00000000000000E+00,,
bdi,,,,,,,,,,,,,,,,,,,,,,,,,,,,,,,,,,,,,,,,,,,,,,3.00000000000000E+00,3.50000000000000E+00,3.50000000000000E+00,3.50000000000000E+00,4.00000000000000E+00,,
BEN,,,,,,,,,,,,,,,,,,,,,,,,,,,,,,,,,,,,,,,,,,,,,,4.50000000000000E+00,4.50000000000000E+00,4.00000000000000E+00,4.00000000000000E+00,4.00000000000000E+00,,
bfa,,,,,,,,,,,,,,,,,,,,,,,,,,,,,,,,,,,,,,,,,,,,,,4.00000000000000E+00,4.00000000000000E+00,4.00000000000000E+00,4.00000000000000E+00,4.00000000000000E+00,,
BGD,,,,,,,,,,,,,,,,,,,,,,,,,,,,,,,,,,,,,,,,,,,,,,3.00000000000000E+00,3.50000000000000E+00,3.50000000000000E+00,3.50000000000000E+00,3.50000000000000E+00,,
bih,,,,,,,,,,,,,,,,,,,,,,,,,,,,,,,,,,,,,,,,,,,,,,4.00000000000000E+00,3.50000000000000E+00,3.50000000000000E+00,4.00000000000000E+00,4.00000000000000E+00,,
BOL,,,,,,,,,,,,,,,,,,,,,,,,,,,,,,,,,,,,,,,,,,,,,,5.00000000000000E+00,5.00000000000000E+00,5.00000000000000E+00,5.00000000000000E+00,5.00000000000000E+00,,
BTN,,,,,,,,,,,,,,,,,,,,,,,,,,,,,,,,,,,,,,,,,,,,,,3.00000000000000E+00,3.00000000000000E+00,3.00000000000000E+00,3.00000000000000E+00,3.00000000000000E+00,,
CAF,,,,,,,,,,,,,,,,,,,,,,,,,,,,,,,,,,,,,,,,,,,,,,3.50000000000000E+00,3.50000000000000E+00,3.50000000000000E+00,3.50000000000000E+00,3.50000000000000E+00,,
CIV,,,,,,,,,,,,,,,,,,,,,,,,,,,,,,,,,,,,,,,,,,,,,,3.50000000000000E+00,3.50000000000000E+00,3.50000000000000E+00,4.00000000000000E+00,4.00000000000000E+00,,
cmr,,,,,,,,,,,,,,,,,,,,,,,,,,,,,,,,,,,,,,,,,,,,,,3.50000000000000E+00,3.50000000000000E+00,3.50000000000000E+00,3.50000000000000E+00,3.50000000000000E+00,,
COG,,,,,,,,,,,,,,,,,,,,,,,,,,,,,,,,,,,,,,,,,,,,,,3.00000000000000E+00,3.50000000000000E+00,3.50000000000000E+00,3.50000000000000E+00,3.50000000000000E+00,,
com,,,,,,,,,,,,,,,,,,,,,,,,,,,,,,,,,,,,,,,,,,,,,,2.00000000000000E+00,2.50000000000000E+00,3.00000000000000E+00,3.00000000000000E+00,3.00000000000000E+00,,
CPV,,,,,,,,,,,,,,,,,,,,,,,,,,,,,,,,,,,,,,,,,,,,,,4.00000000000000E+00,4.00000000000000E+00,4.00000000000000E+00,4.00000000000000E+00,4.00000000000000E+00,,
dji,,,,,,,,,,,,,,,,,,,,,,,,,,,,,,,,,,,,,,,,,,,,,,4.00000000000000E+00,4.00000000000000E+00,4.00000000000000E+00,4.00000000000000E+00,4.00000000000000E+00,,
dma,,,,,,,,,,,,,,,,,,,,,,,,,,,,,,,,,,,,,,,,,,,,,,4.00000000000000E+00,4.00000000000000E+00,4.00000000000000E+00,4.00000000000000E+00,4.00000000000000E+00,,
eri,,,,,,,,,,,,,,,,,,,,,,,,,,,,,,,,,,,,,,,,,,,,,,1.50000000000000E+00,1.50000000000000E+00,1.50000000000000E+00,1.50000000000000E+00,1.50000000000000E+00,,
ETH,,,,,,,,,,,,,,,,,,,,,,,,,,,,,,,,,,,,,,,,,,,,,,3.00000000000000E+00,3.00000000000000E+00,3.00000000000000E+00,3.00000000000000E+00,3.00000000000000E+00,,
geo,,,,,,,,,,,,,,,,,,,,,,,,,,,,,,,,,,,,,,,,,,,,,,3.50000000000000E+00,4.50000000000000E+00,5.50000000000000E+00,6.00000000000000E+00,6.00000000000000E+00,,
gha,,,,,,,,,,,,,,,,,,,,,,,,,,,,,,,,,,,,,,,,,,,,,,4.00000000000000E+00,4.00000000000000E+00,4.00000000000000E+00,4.00000000000000E+00,4.00000000000000E+00,,
GIN,,,,,,,,,,,,,,,,,,,,,,,,,,,,,,,,,,,,,,,,,,,,,,4.50000000000000E+00,4.50000000000000E+00,4.00000000000000E+00,4.00000000000000E+00,4.00000000000000E+00,,
GMB,,,,,,,,,,,,,,,,,,,,,,,,,,,,,,,,,,,,,,,,,,,,,,4.00000000000000E+00,4.00000000000000E+00,4.00000000000000E+00,3.50000000000000E+00,3.50000000000000E+00,,
GNB,,,,,,,,,,,,,,,,,,,,,,,,,,,,,,,,,,,,,,,,,,,,,,3.50000000000000E+00,4.00000000000000E+00,4.00000000000000E+00,4.00000000000000E+00,4.00000000000000E+00,,
grd,,,,,,,,,,,,,,,,,,,,,,,,,,,,,,,,,,,,,,,,,,,,,,4.00000000000000E+00,4.00000000000000E+00,4.00000000000000E+00,4.50000000000000E+00,4.50000000000000E+00,,
guy,,,,,,,,,,,,,,,,,,,,,,,,,,,,,,,,,,,,,,,,,,,,,,4.00000000000000E+00,4.00000000000000E+00,4.00000000000000E+00,4.00000000000000E+00,4.00000000000000E+00,,
HND,,,,,,,,,,,,,,,,,,,,,,,,,,,,,,,,,,,,,,,,,,,,,,4.50000000000000E+00,5.00000000000000E+00,5.00000000000000E+00,4.50000000000000E+00,4.50000000000000E+00,,
HTI,,,,,,,,,,,,,,,,,,,,,,,,,,,,,,,,,,,,,,,,,,,,,,4.00000000000000E+00,4.00000000000000E+00,4.00000000000000E+00,4.00000000000000E+00,4.00000000000000E+00,,
IDN,,,,,,,,,,,,,,,,,,,,,,,,,,,,,,,,,,,,,,,,,,,,,,4.50000000000000E+00,4.50000000000000E+00,,,,,
ind,,,,,,,,,,,,,,,,,,,,,,,,,,,,,,,,,,,,,,,,,,,,,,3.50000000000000E+00,3.50000000000000E+00,4.00000000000000E+00,3.50000000000000E+00,3.50000000000000E+00,,
ken,,,,,,,,,,,,,,,,,,,,,,,,,,,,,,,,,,,,,,,,,,,,,,4.00000000000000E+00,4.00000000000000E+00,4.00000000000000E+00,4.00000000000000E+00,4.00000000000000E+00,,
KGZ,,,,,,,,,,,,,,,,,,,,,,,,,,,,,,,,,,,,,,,,,,,,,,4.50000000000000E+00,5.00000000000000E+00,5.00000000000000E+00,5.00000000000000E+00,5.00000000000000E+00,,
khm,,,,,,,,,,,,,,,,,,,,,,,,,,,,,,,,,,,,,,,,,,,,,,3.50000000000000E+00,3.50000000000000E+00,3.50000000000000E+00,4.00000000000000E+00,4.00000000000000E+00,,
kir,,,,,,,,,,,,,,,,,,,,,,,,,,,,,,,,,,,,,,,,,,,,,,3.00000000000000E+00,3.00000000000000E+00,3.00000000000000E+00,3.00000000000000E+00,3.00000000000000E+00,,
ksv,,,,,,,,,,,,,,,,,,,,,,,,,,,,,,,,,,,,,,,,,,,,,,,,,,5.00000000000000E+00,,
lao,,,,,,,,,,,,,,,,,,,,,,,,,,,,,,,,,,,,,,,,,,,,,,3.50000000000000E+00,3.50000000000000E+00,3.50000000000000E+00,3.50000000000000E+00,3.50000000000000E+00,,
LBR,,,,,,,,,,,,,,,,,,,,,,,,,,,,,,,,,,,,,,,,,,,,,,,,,,3.00000000000000E+00,,
lca,,,,,,,,,,,,,,,,,,,,,,,,,,,,,,,,,,,,,,,,,,,,,,4.00000000000000E+00,4.00000000000000E+00,4.00000000000000E+00,4.00000000000000E+00,4.00000000000000E+00,,
lka,,,,,,,,,,,,,,,,,,,,,,,,,,,,,,,,,,,,,,,,,,,,,,3.50000000000000E+00,4.00000000000000E+00,3.50000000000000E+00,3.50000000000000E+00,3.50000000000000E+00,,
LSO,,,,,,,,,,,,,,,,,,,,,,,,,,,,,,,,,,,,,,,,,,,,,,3.50000000000000E+00,3.50000000000000E+00,3.50000000000000E+00,3.50000000000000E+00,3.50000000000000E+00,,
mda,,,,,,,,,,,,,,,,,,,,,,,,,,,,,,,,,,,,,,,,,,,,,,3.50000000000000E+00,3.50000000000000E+00,4.50000000000000E+00,4.50000000000000E+00,4.50000000000000E+00,,
MDG,,,,,,,,,,,,,,,,,,,,,,,,,,,,,,,,,,,,,,,,,,,,,,4.00000000000000E+00,4.00000000000000E+00,4.00000000000000E+00,4.00000000000000E+00,4.00000000000000E+00,,
mdv,,,,,,,,,,,,,,,,,,,,,,,,,,,,,,,,,,,,,,,,,,,,,,4.00000000000000E+00,4.00000000000000E+00,4.00000000000000E+00,4.00000000000000E+00,4.00000000000000E+00,,
mli,,,,,,,,,,,,,,,,,,,,,,,,,,,,,,,,,,,,,,,,,,,,,,4.00000000000000E+00,4.00000000000000E+00,4.00000000000000E+00,4.00000000000000E+00,4.00000000000000E+00,,
MNG,,,,,,,,,,,,,,,,,,,,,,,,,,,,,,,,,,,,,,,,,,,,,,4.50000000000000E+00,4.50000000000000E+00,4.50000000000000E+00,4.50000000000000E+00,4.50000000000000E+00,,
moz,,,,,,,,,,,,,,,,,,,,,,,,,,,,,,,,,,,,,,,,,,,,,,4.00000000000000E+00,4.50000000000000E+00,4.50000000000000E+00,4.50000000000000E+00,4.50000000000000E+00,,
MRT,,,,,,,,,,,,,,,,,,,,,,,,,,,,,,,,,,,,,,,,,,,,,,4.50000000000000E+00,4.50000000000000E+00,4.50000000000000E+00,4.00000000000000E+00,4.00000000000000E+00,,
MWI,,,,,,,,,,,,,,,,,,,,,,,,,,,,,,,,,,,,,,,,,,,,,,4.00000000000000E+00,4.00000000000000E+00,4.00000000000000E+00,4.00000000000000E+00,4.00000000000000E+00,,
NER,,,,,,,,,,,,,,,,,,,,,,,,,,,,,,,,,,,,,,,,,,,,,,4.00000000000000E+00,4.00000000000000E+00,4.00000000000000E+00,4.00000000000000E+00,4.00000000000000E+00,,
nga,,,,,,,,,,,,,,,,,,,,,,,,,,,,,,,,,,,,,,,,,,,,,,2.50000000000000E+00,3.00000000000000E+00,3.00000000000000E+00,3.50000000000000E+00,3.50000000000000E+00,,
NIC,,,,,,,,,,,,,,,,,,,,,,,,,,,,,,,,,,,,,,,,,,,,,,4.50000000000000E+00,4.50000000000000E+00,4.50000000000000E+00,4.50000000000000E+00,4.50000000000000E+00,,
NPL,,,,,,,,,,,,,,,,,,,,,,,,,,,,,,,,,,,,,,,,,,,,,,4.00000000000000E+00,4.00000000000000E+00,4.00000000000000E+00,3.50000000000000E+00,3.50000000000000E+00,,
pak,,,,,,,,,,,,,,,,,,,,,,,,,,,,,,,,,,,,,,,,,,,,,,4.00000000000000E+00,4.00000000000000E+00,4.00000000000000E+00,4.00000000000000E+00,3.50000000000000E+00,,
png,,,,,,,,,,,,,,,,,,,,,,,,,,,,,,,,,,,,,,,,,,,,,,4.00000000000000E+00,4.00000000000000E+00,4.50000000000000E+00,4.50000000000000E+00,4.50000000000000E+00,,
rwa,,,,,,,,,,,,,,,,,,,,,,,,,,,,,,,,,,,,,,,,,,,,,,3.50000000000000E+00,3.50000000000000E+00,3.50000000000000E+00,3.50000000000000E+00,4.00000000000000E+00,,
sdn,,,,,,,,,,,,,,,,,,,,,,,,,,,,,,,,,,,,,,,,,,,,,,3.00000000000000E+00,4.00000000000000E+00,2.50000000000000E+00,2.50000000000000E+00,2.50000000000000E+00,,
sen,,,,,,,,,,,,,,,,,,,,,,,,,,,,,,,,,,,,,,,,,,,,,,4.50000000000000E+00,4.00000000000000E+00,4.00000000000000E+00,4.00000000000000E+00,4.00000000000000E+00,,
SLB,,,,,,,,,,,,,,,,,,,,,,,,,,,,,,,,,,,,,,,,,,,,,,3.00000000000000E+00,3.50000000000000E+00,3.00000000000000E+00,3.00000000000000E+00,3.00000000000000E+00,,
SLE,,,,,,,,,,,,,,,,,,,,,,,,,,,,,,,,,,,,,,,,,,,,,,3.50000000000000E+00,3.00000000000000E+00,3.50000000000000E+00,3.50000000000000E+00,3.50000000000000E+00,,
SRB,,,,,,,,,,,,,,,,,,,,,,,,,,,,,,,,,,,,,,,,,,,,,,4.50000000000000E+00,3.50000000000000E+00,,,,,
stp,,,,,,,,,,,,,,,,,,,,,,,,,,,,,,,,,,,,,,,,,,,,,,4.00000000000000E+00,4.00000000000000E+00,4.00000000000000E+00,4.00000000000000E+00,4.00000000000000E+00,,
TCD,,,,,,,,,,,,,,,,,,,,,,,,,,,,,,,,,,,,,,,,,,,,,,3.00000000000000E+00,3.00000000000000E+00,3.00000000000000E+00,3.00000000000000E+00,3.00000000000000E+00,,
TGO,,,,,,,,,,,,,,,,,,,,,,,,,,,,,,,,,,,,,,,,,,,,,,4.00000000000000E+00,4.00000000000000E+00,4.00000000000000E+00,4.00000000000000E+00,4.00000000000000E+00,,
tjk,,,,,,,,,,,,,,,,,,,,,,,,,,,,,,,,,,,,,,,,,,,,,,4.00000000000000E+00,4.00000000000000E+00,4.00000000000000E+00,4.00000000000000E+00,4.00000000000000E+00,,
tmp,,,,,,,,,,,,,,,,,,,,,,,,,,,,,,,,,,,,,,,,,,,,,,,3.50000000000000E+00,3.50000000000000E+00,4.50000000000000E+00,4.50000000000000E+00,,
ton,,,,,,,,,,,,,,,,,,,,,,,,,,,,,,,,,,,,,,,,,,,,,,3.00000000000000E+00,3.00000000000000E+00,3.50000000000000E+00,3.50000000000000E+00,5.00000000000000E+00,,
tza,,,,,,,,,,,,,,,,,,,,,,,,,,,,,,,,,,,,,,,,,,,,,,4.00000000000000E+00,3.50000000000000E+00,4.00000000000000E+00,4.00000000000000E+00,4.00000000000000E+00,,
UGA,,,,,,,,,,,,,,,,,,,,,,,,,,,,,,,,,,,,,,,,,,,,,,4.00000000000000E+00,4.00000000000000E+00,4.00000000000000E+00,4.00000000000000E+00,4.00000000000000E+00,,
UZB,,,,,,,,,,,,,,,,,,,,,,,,,,,,,,,,,,,,,,,,,,,,,,2.50000000000000E+00,2.50000000000000E+00,2.50000000000000E+00,2.50000000000000E+00,2.50000000000000E+00,,
VCT,,,,,,,,,,,,,,,,,,,,,,,,,,,,,,,,,,,,,,,,,,,,,,4.00000000000000E+00,2.50000000000000E+00,4.00000000000000E+00,4.00000000000000E+00,4.00000000000000E+00,,
vnm,,,,,,,,,,,,,,,,,,,,,,,,,,,,,,,,,,,,,,,,,,,,,,3.50000000000000E+00,3.50000000000000E+00,3.50000000000000E+00,3.50000000000000E+00,3.50000000000000E+00,,
VUT,,,,,,,,,,,,,,,,,,,,,,,,,,,,,,,,,,,,,,,,,,,,,,4.00000000000000E+00,3.50000000000000E+00,3.50000000000000E+00,3.50000000000000E+00,3.50000000000000E+00,,
wsm,,,,,,,,,,,,,,,,,,,,,,,,,,,,,,,,,,,,,,,,,,,,,,4.50000000000000E+00,4.50000000000000E+00,4.50000000000000E+00,4.50000000000000E+00,5.00000000000000E+00,,
YEM,,,,,,,,,,,,,,,,,,,,,,,,,,,,,,,,,,,,,,,,,,,,,,4.50000000000000E+00,4.50000000000000E+00,4.50000000000000E+00,4.00000000000000E+00,4.50000000000000E+00,,
zar,,,,,,,,,,,,,,,,,,,,,,,,,,,,,,,,,,,,,,,,,,,,,,4.00000000000000E+00,4.00000000000000E+00,4.00000000000000E+00,4.00000000000000E+00,3.50000000000000E+00,,
zmb,,,,,,,,,,,,,,,,,,,,,,,,,,,,,,,,,,,,,,,,,,,,,,4.00000000000000E+00,4.00000000000000E+00,4.00000000000000E+00,4.00000000000000E+00,4.00000000000000E+00,,
zwe,,,,,,,,,,,,,,,,,,,,,,,,,,,,,,,,,,,,,,,,,,,,,,2.00000000000000E+00,2.00000000000000E+00,2.00000000000000E+00,2.00000000000000E+00,3.00000000000000E+00,,
