"Country Code",1960,1961,1962,1963,1964,1965,1966,1967,1968,1969,1970,1971,1972,1973,1974,1975,1976,1977,1978,1979,1980,1981,1982,1983,1984,1985,1986,1987,1988,1989,1990,1991,1992,1993,1994,1995,1996,1997,1998,1999,2000,2001,2002,2003,2004,2005,2006,2007,2008,2009,2010,2011AGO,,,,,,,,,,,,,,,,,,,,,,,,,,,,,,,,,,,,,,,,,,,,,,,,,,,2.07166000000000E+00,
ALB,,,,,,,,,,,,,,,,,,,,,,,,,,,,,,,,,,,,,,,,,,,,,,,,2.07216623476341E+00,2.43819400900556E+00,3.22050932340426E+00,3.54077452432432E+00,
ARB,,,,,,,,,,,,,,,,,,,,,,,,,,,,,,,,,,,,,,,,,,,,,,,,4.11252055826025E+00,4.18694833818134E+00,4.40227276192152E+00,4.53264282761949E+00,
ARE,,,,,,,,,,,,,,,,,,,,,,,,,,,,,,,,,,,,,,,,,,,,,,,,5.99067736476742E+00,6.11728257613047E+00,6.24497513191489E+00,6.16397095263158E+00,
ARG,,,,,,,,,,,,,,,,,,,,,,,,,,,,,,,,,,,,,,,,,,,,,,,,3.20128981912079E+00,3.33221705362263E+00,3.64028971144578E+00,3.76153939417989E+00,
ARM,,,,,,,,,,,,,,,,,,,,,,,,,,,,,,,,,,,,,,,,,,,,,,,,2.81578947368421E+00,2.72247371043557E+00,2.90964252874251E+00,2.86608865000000E+00,
AUS,,,,,,,,,,,,,,,,,,,,,,,,,,,,,,,,,,,,,,,,,,,,,,,,5.05264772618325E+00,4.77188910148113E+00,4.64868650000000E+00,4.86100483660714E+00,
AUT,,,,,,,,,,,,,,,,,,,,,,,,,,,,,,,,,,,,,,,,,,,,,,,,4.97000000000000E+00,5.00629728743169E+00,4.98239951875000E+00,4.78269623173653E+00,
AZE,,,,,,,,,,,,,,,,,,,,,,,,,,,,,,,,,,,,,,,,,,,,,,,,4.41176470588235E+00,4.23414193019302E+00,4.19962070000000E+00,4.18741913624161E+00,
BDI,,,,,,,,,,,,,,,,,,,,,,,,,,,,,,,,,,,,,,,,,,,,,,,,3.04838709677419E+00,3.20817006018145E+00,3.08701428443114E+00,2.98440150243902E+00,
BEL,,,,,,,,,,,,,,,,,,,,,,,,,,,,,,,,,,,,,,,,,,,,,,,,6.38395590712664E+00,6.30162436545894E+00,6.33907301464968E+00,6.40014657500000E+00,
BEN,,,,,,,,,,,,,,,,,,,,,,,,,,,,,,,,,,,,,,,,,,,,,,,,2.91605319755390E+00,3.24810109094486E+00,3.30579911052632E+00,4.01741466010929E+00,
BFA,,,,,,,,,,,,,,,,,,,,,,,,,,,,,,,,,,,,,,,,,,,,,,,,3.93333333333333E+00,3.94117128661972E+00,3.99703219224138E+00,3.93302425000000E+00,
BGD,,,,,,,,,,,,,,,,,,,,,,,,,,,,,,,,,,,,,,,,,,,,,,,,2.39912442396313E+00,2.57219686519675E+00,2.97738658351648E+00,3.39124405000000E+00,
BGR,,,,,,,,,,,,,,,,,,,,,,,,,,,,,,,,,,,,,,,,,,,,,,,,3.58175102084677E+00,3.66757972605383E+00,3.62022607661692E+00,3.78721914594595E+00,
BHR,,,,,,,,,,,,,,,,,,,,,,,,,,,,,,,,,,,,,,,,,,,,,,,,5.32581315725116E+00,5.35816253552055E+00,5.54947883661972E+00,5.83972597852349E+00,
BIH,,,,,,,,,,,,,,,,,,,,,,,,,,,,,,,,,,,,,,,,,,,,,,,,1.58178773704146E+00,1.53405359604131E+00,1.50444693333333E+00,1.61037767587940E+00,
BOL,,,,,,,,,,,,,,,,,,,,,,,,,,,,,,,,,,,,,,,,,,,,,,,,3.33333333333333E+00,3.21822498643068E+00,2.95425914137931E+00,2.87448939611650E+00,
BRA,,,,,,,,,,,,,,,,,,,,,,,,,,,,,,,,,,,,,,,,,,,,,,,,2.63247411629852E+00,2.51819277818452E+00,2.64862752022161E+00,2.93844363323782E+00,
BRB,,,,,,,,,,,,,,,,,,,,,,,,,,,,,,,,,,,,,,,,,,,,,,,,5.41980358504958E+00,5.51065579867501E+00,5.49276260872483E+00,5.54833110679612E+00,
BRN,,,,,,,,,,,,,,,,,,,,,,,,,,,,,,,,,,,,,,,,,,,,,,,,,4.96784800000000E+00,4.82856912439024E+00,4.48117306451613E+00,
BWA,,,,,,,,,,,,,,,,,,,,,,,,,,,,,,,,,,,,,,,,,,,,,,,,4.13043478260870E+00,4.15981497255250E+00,3.71688586220930E+00,3.80671722561576E+00,
CAN,,,,,,,,,,,,,,,,,,,,,,,,,,,,,,,,,,,,,,,,,,,,,,,,5.70858914907606E+00,5.77829531692084E+00,5.61292120446927E+00,5.68486889473684E+00,
CHE,,,,,,,,,,,,,,,,,,,,,,,,,,,,,,,,,,,,,,,,,,,,,,,,5.53488372093023E+00,5.64342452922277E+00,5.39855969500000E+00,5.23750122567568E+00,
CHL,,,,,,,,,,,,,,,,,,,,,,,,,,,,,,,,,,,,,,,,,,,,,,,,4.84871856621949E+00,4.93582614821144E+00,5.35901703756906E+00,5.46081535217391E+00,
CHN,,,,,,,,,,,,,,,,,,,,,,,,,,,,,,,,,,,,,,,,,,,,,,,,3.97994232594212E+00,4.32238683967865E+00,4.27819304295977E+00,4.32147966598639E+00,
CIV,,,,,,,,,,,,,,,,,,,,,,,,,,,,,,,,,,,,,,,,,,,,,,,,,4.79084600000000E+00,4.95841246818182E+00,5.03537335602094E+00,
CMR,,,,,,,,,,,,,,,,,,,,,,,,,,,,,,,,,,,,,,,,,,,,,,,,2.59272560364972E+00,2.73243162956327E+00,2.72155196818182E+00,3.34997214285714E+00,
COL,,,,,,,,,,,,,,,,,,,,,,,,,,,,,,,,,,,,,,,,,,,,,,,,2.72329039184112E+00,2.87484043393665E+00,3.21025067493113E+00,3.46421251976744E+00,
CPV,,,,,,,,,,,,,,,,,,,,,,,,,,,,,,,,,,,,,,,,,,,,,,,,,,,3.51310200000000E+00,
CRI,,,,,,,,,,,,,,,,,,,,,,,,,,,,,,,,,,,,,,,,,,,,,,,,2.23102273015229E+00,2.28323627760098E+00,2.56782545263158E+00,2.66564580000000E+00,
CYP,,,,,,,,,,,,,,,,,,,,,,,,,,,,,,,,,,,,,,,,,,,,,,,,4.76364346701899E+00,5.19918825555317E+00,5.25344925469613E+00,5.10764194254144E+00,
CZE,,,,,,,,,,,,,,,,,,,,,,,,,,,,,,,,,,,,,,,,,,,,,,,,4.28089887640449E+00,4.14928381855929E+00,4.16140306285714E+00,4.58777931951220E+00,
DEU,,,,,,,,,,,,,,,,,,,,,,,,,,,,,,,,,,,,,,,,,,,,,,,,6.52965251989390E+00,6.42165827477376E+00,6.38299093057325E+00,6.38790949090909E+00,
DNK,,,,,,,,,,,,,,,,,,,,,,,,,,,,,,,,,,,,,,,,,,,,,,,,6.41393123824872E+00,6.35328821136951E+00,6.21533171089109E+00,6.13547330833333E+00,
DOM,,,,,,,,,,,,,,,,,,,,,,,,,,,,,,,,,,,,,,,,,,,,,,,,3.62002522023302E+00,3.77574650489511E+00,4.30070565000000E+00,4.34825095576923E+00,
DZA,,,,,,,,,,,,,,,,,,,,,,,,,,,,,,,,,,,,,,,,,,,,,,,,3.27076581576027E+00,3.08483443336559E+00,2.90471990588235E+00,3.20002766730769E+00,
EAP,,,,,,,,,,,,,,,,,,,,,,,,,,,,,,,,,,,,,,,,,,,,,,,,3.41456629974164E+00,3.49904709281114E+00,3.65221645432748E+00,4.01674697556513E+00,
EAS,,,,,,,,,,,,,,,,,,,,,,,,,,,,,,,,,,,,,,,,,,,,,,,,4.44817306439917E+00,4.46645833282100E+00,4.54385421191307E+00,4.77978876676843E+00,
ECA,,,,,,,,,,,,,,,,,,,,,,,,,,,,,,,,,,,,,,,,,,,,,,,,3.19691776816505E+00,3.25098739642038E+00,3.29900683512150E+00,3.33297406036640E+00,
ECS,,,,,,,,,,,,,,,,,,,,,,,,,,,,,,,,,,,,,,,,,,,,,,,,4.30050778812722E+00,4.32203992379076E+00,4.39322293600673E+00,4.42873103015853E+00,
ECU,,,,,,,,,,,,,,,,,,,,,,,,,,,,,,,,,,,,,,,,,,,,,,,,2.81983143761018E+00,2.85515171283100E+00,3.33705891428571E+00,3.67707918267717E+00,
EGY,,,,,,,,,,,,,,,,,,,,,,,,,,,,,,,,,,,,,,,,,,,,,,,,3.49446231155779E+00,3.86998858780488E+00,4.31866294438503E+00,4.20013490000000E+00,
EMU,,,,,,,,,,,,,,,,,,,,,,,,,,,,,,,,,,,,,,,,,,,,,,,,5.14758288094460E+00,5.18706066690459E+00,5.29339156651402E+00,5.33431460707704E+00,
ESP,,,,,,,,,,,,,,,,,,,,,,,,,,,,,,,,,,,,,,,,,,,,,,,,5.34423845325599E+00,5.04591040322581E+00,5.18060289772727E+00,5.62105536607143E+00,
EST,,,,,,,,,,,,,,,,,,,,,,,,,,,,,,,,,,,,,,,,,,,,,,,,5.33763873725073E+00,5.47766252317418E+00,5.60201990909091E+00,5.62627574464286E+00,
ETH,,,,,,,,,,,,,,,,,,,,,,,,,,,,,,,,,,,,,,,,,,,,,,,,4.14285714285714E+00,3.61528974720134E+00,3.76710611538462E+00,4.42597426842105E+00,
EUU,,,,,,,,,,,,,,,,,,,,,,,,,,,,,,,,,,,,,,,,,,,,,,,,4.87252704604245E+00,4.88165870068086E+00,4.97076773059368E+00,5.05552893849941E+00,
FIN,,,,,,,,,,,,,,,,,,,,,,,,,,,,,,,,,,,,,,,,,,,,,,,,6.19292878938941E+00,6.34608453773920E+00,6.45488159830508E+00,6.35839964431818E+00,
FRA,,,,,,,,,,,,,,,,,,,,,,,,,,,,,,,,,,,,,,,,,,,,,,,,5.87154851601313E+00,5.93910897506272E+00,5.88643191330472E+00,5.87285290000000E+00,
GBR,,,,,,,,,,,,,,,,,,,,,,,,,,,,,,,,,,,,,,,,,,,,,,,,5.43258404261338E+00,5.12624977933884E+00,5.22238290810811E+00,5.48870796517857E+00,
GEO,,,,,,,,,,,,,,,,,,,,,,,,,,,,,,,,,,,,,,,,,,,,,,,,3.57601442381260E+00,3.91661819052367E+00,3.99904490833333E+00,4.03173966136364E+00,
GHA,,,,,,,,,,,,,,,,,,,,,,,,,,,,,,,,,,,,,,,,,,,,,,,,,3.48793200000000E+00,4.04005053862661E+00,4.46355131520737E+00,
GMB,,,,,,,,,,,,,,,,,,,,,,,,,,,,,,,,,,,,,,,,,,,,,,,,4.11832151300236E+00,4.10512257351598E+00,4.66863896086956E+00,5.08964178620690E+00,
GRC,,,,,,,,,,,,,,,,,,,,,,,,,,,,,,,,,,,,,,,,,,,,,,,,4.38534647716325E+00,4.24712781654641E+00,4.14445757777778E+00,4.04276049230769E+00,
GTM,,,,,,,,,,,,,,,,,,,,,,,,,,,,,,,,,,,,,,,,,,,,,,,,3.65850499763092E+00,4.01024969652856E+00,4.29982754782609E+00,4.50029147058824E+00,
GUY,,,,,,,,,,,,,,,,,,,,,,,,,,,,,,,,,,,,,,,,,,,,,,,,2.69930339889579E+00,3.02251901043360E+00,3.21323108534031E+00,3.49782656702128E+00,
HIC,,,,,,,,,,,,,,,,,,,,,,,,,,,,,,,,,,,,,,,,,,,,,,,,5.13214364970042E+00,5.12312999183668E+00,5.21885125770833E+00,5.30483038536119E+00,
HKG,,,,,,,,,,,,,,,,,,,,,,,,,,,,,,,,,,,,,,,,,,,,,,,,6.53982924093232E+00,6.63730272592593E+00,6.77957625000000E+00,6.81734598148148E+00,
HND,,,,,,,,,,,,,,,,,,,,,,,,,,,,,,,,,,,,,,,,,,,,,,,,4.74673565937315E+00,4.93916075586828E+00,5.12485510000000E+00,5.33409714759358E+00,
HPC,,,,,,,,,,,,,,,,,,,,,,,,,,,,,,,,,,,,,,,,,,,,,,,,3.20737131203451E+00,3.33369029873318E+00,3.48558358446567E+00,3.64013926147877E+00,
HRV,,,,,,,,,,,,,,,,,,,,,,,,,,,,,,,,,,,,,,,,,,,,,,,,3.28140137090632E+00,3.35039492435928E+00,3.75248922795699E+00,3.99740999106145E+00,
HUN,,,,,,,,,,,,,,,,,,,,,,,,,,,,,,,,,,,,,,,,,,,,,,,,3.70270270270270E+00,3.86042692637315E+00,3.92532436649746E+00,4.01235923050847E+00,
IDN,,,,,,,,,,,,,,,,,,,,,,,,,,,,,,,,,,,,,,,,,,,,,,,,2.66319368219030E+00,3.04488734373619E+00,3.39628245722543E+00,3.62320836590909E+00,
IND,,,,,,,,,,,,,,,,,,,,,,,,,,,,,,,,,,,,,,,,,,,,,,,,3.48930208863984E+00,3.33138497508447E+00,3.47247375402299E+00,3.86029771210762E+00,
IRL,,,,,,,,,,,,,,,,,,,,,,,,,,,,,,,,,,,,,,,,,,,,,,,,4.01870129870130E+00,3.99505344827911E+00,4.44023020875912E+00,4.89014622857143E+00,
IRN,,,,,,,,,,,,,,,,,,,,,,,,,,,,,,,,,,,,,,,,,,,,,,,,,,,3.85669800000000E+00,
ISL,,,,,,,,,,,,,,,,,,,,,,,,,,,,,,,,,,,,,,,,,,,,,,,,5.74163330059681E+00,5.96443691734455E+00,6.22679340000000E+00,6.31012257446809E+00,
ISR,,,,,,,,,,,,,,,,,,,,,,,,,,,,,,,,,,,,,,,,,,,,,,,,4.82215085638999E+00,4.35271401153923E+00,4.59316750887574E+00,4.61567366875000E+00,
ITA,,,,,,,,,,,,,,,,,,,,,,,,,,,,,,,,,,,,,,,,,,,,,,,,3.05864478030227E+00,3.26298046706497E+00,3.65979540505618E+00,3.91015505409836E+00,
JAM,,,,,,,,,,,,,,,,,,,,,,,,,,,,,,,,,,,,,,,,,,,,,,,,5.20972258642400E+00,5.05264117727273E+00,5.27331406111111E+00,5.33747355084746E+00,
JOR,,,,,,,,,,,,,,,,,,,,,,,,,,,,,,,,,,,,,,,,,,,,,,,,4.25374936245189E+00,4.43825455190706E+00,4.51406447610619E+00,4.38127402712766E+00,
JPN,,,,,,,,,,,,,,,,,,,,,,,,,,,,,,,,,,,,,,,,,,,,,,,,5.54754141124299E+00,5.22075071328671E+00,5.17374194899329E+00,5.15310161126760E+00,
KAZ,,,,,,,,,,,,,,,,,,,,,,,,,,,,,,,,,,,,,,,,,,,,,,,,3.29281767955801E+00,3.15234968453467E+00,3.02971301640379E+00,3.33251602601626E+00,
KEN,,,,,,,,,,,,,,,,,,,,,,,,,,,,,,,,,,,,,,,,,,,,,,,,3.41992694461579E+00,3.49666024339478E+00,3.64621207289720E+00,3.84969436150235E+00,
KGZ,,,,,,,,,,,,,,,,,,,,,,,,,,,,,,,,,,,,,,,,,,,,,,,,1.48648648648649E+00,1.78949861348381E+00,1.59683968938548E+00,1.39654410000000E+00,
KHM,,,,,,,,,,,,,,,,,,,,,,,,,,,,,,,,,,,,,,,,,,,,,,,,3.42194624531928E+00,3.35036578432343E+00,3.49709482906977E+00,3.90465868023256E+00,
KOR,,,,,,,,,,,,,,,,,,,,,,,,,,,,,,,,,,,,,,,,,,,,,,,,5.50966676904177E+00,5.17569661497326E+00,5.09829829289099E+00,5.45552587453875E+00,
KWT,,,,,,,,,,,,,,,,,,,,,,,,,,,,,,,,,,,,,,,,,,,,,,,,4.20042106670861E+00,3.96837850210404E+00,4.10884830000000E+00,4.39095844036697E+00,
LAC,,,,,,,,,,,,,,,,,,,,,,,,,,,,,,,,,,,,,,,,,,,,,,,,3.45033015214678E+00,3.50535363600957E+00,3.74967839856814E+00,3.94162628468495E+00,
LBN,,,,,,,,,,,,,,,,,,,,,,,,,,,,,,,,,,,,,,,,,,,,,,,,,,,4.54035300000000E+00,
LBY,,,,,,,,,,,,,,,,,,,,,,,,,,,,,,,,,,,,,,,,,,,,,,,,2.65432098765432E+00,2.84730037376740E+00,3.25276365294118E+00,3.18819838253968E+00,
LCN,,,,,,,,,,,,,,,,,,,,,,,,,,,,,,,,,,,,,,,,,,,,,,,,3.58260307019999E+00,3.65381125768756E+00,3.90065805159986E+00,4.09174317703693E+00,
LDC,,,,,,,,,,,,,,,,,,,,,,,,,,,,,,,,,,,,,,,,,,,,,,,,3.19619859312050E+00,3.20359229097108E+00,3.37057527801227E+00,3.51659051430540E+00,
LIC,,,,,,,,,,,,,,,,,,,,,,,,,,,,,,,,,,,,,,,,,,,,,,,,3.12338855688005E+00,3.16592300456852E+00,3.27283143736416E+00,3.41794088952942E+00,
LKA,,,,,,,,,,,,,,,,,,,,,,,,,,,,,,,,,,,,,,,,,,,,,,,,4.05711023455146E+00,4.51046022072450E+00,4.78826685989848E+00,4.89179192121212E+00,
LMC,,,,,,,,,,,,,,,,,,,,,,,,,,,,,,,,,,,,,,,,,,,,,,,,3.22235311223290E+00,3.38024719317693E+00,3.60539609591825E+00,3.70306469834795E+00,
LMY,,,,,,,,,,,,,,,,,,,,,,,,,,,,,,,,,,,,,,,,,,,,,,,,3.41942601737944E+00,3.48608539624523E+00,3.63853204125020E+00,3.77517814185042E+00,
LSO,,,,,,,,,,,,,,,,,,,,,,,,,,,,,,,,,,,,,,,,,,,,,,,,2.76470588235294E+00,2.55275276889210E+00,2.97595625714286E+00,3.05590835744681E+00,
LTU,,,,,,,,,,,,,,,,,,,,,,,,,,,,,,,,,,,,,,,,,,,,,,,,4.07405368856272E+00,4.55384325388220E+00,4.73287986018957E+00,4.73790501841004E+00,
LUX,,,,,,,,,,,,,,,,,,,,,,,,,,,,,,,,,,,,,,,,,,,,,,,,5.40625000000000E+00,5.37662289302326E+00,5.52109684390244E+00,5.39648588372093E+00,
LVA,,,,,,,,,,,,,,,,,,,,,,,,,,,,,,,,,,,,,,,,,,,,,,,,4.45746302106679E+00,4.37549776135266E+00,4.40354243636364E+00,4.68871763139013E+00,
MAR,,,,,,,,,,,,,,,,,,,,,,,,,,,,,,,,,,,,,,,,,,,,,,,,4.05131340925883E+00,4.18616014446980E+00,4.24179044207921E+00,4.39966187208122E+00,
MDA,,,,,,,,,,,,,,,,,,,,,,,,,,,,,,,,,,,,,,,,,,,,,,,,,,,2.92091300000000E+00,
MDG,,,,,,,,,,,,,,,,,,,,,,,,,,,,,,,,,,,,,,,,,,,,,,,,2.44355939541722E+00,2.63407839183164E+00,3.02767739104478E+00,3.38351588641304E+00,
MEA,,,,,,,,,,,,,,,,,,,,,,,,,,,,,,,,,,,,,,,,,,,,,,,,4.30811930535521E+00,4.36434289304633E+00,4.54690525583732E+00,4.61528712138534E+00,
MEX,,,,,,,,,,,,,,,,,,,,,,,,,,,,,,,,,,,,,,,,,,,,,,,,3.26074192371770E+00,3.31386983690344E+00,3.67292887841410E+00,3.72128215806452E+00,
MIC,,,,,,,,,,,,,,,,,,,,,,,,,,,,,,,,,,,,,,,,,,,,,,,,3.50140562182543E+00,3.57687771627296E+00,3.74223818265073E+00,3.87580835377183E+00,
MKD,,,,,,,,,,,,,,,,,,,,,,,,,,,,,,,,,,,,,,,,,,,,,,,,3.47126436781609E+00,3.49015507863726E+00,3.41482366794258E+00,3.70936205294118E+00,
MLI,,,,,,,,,,,,,,,,,,,,,,,,,,,,,,,,,,,,,,,,,,,,,,,,3.72413793103448E+00,3.74376694037820E+00,3.76664693988439E+00,3.70572026082474E+00,
MLT,,,,,,,,,,,,,,,,,,,,,,,,,,,,,,,,,,,,,,,,,,,,,,,,4.87144719687093E+00,5.18716311327434E+00,5.44495358571429E+00,5.56754625000000E+00,
MNA,,,,,,,,,,,,,,,,,,,,,,,,,,,,,,,,,,,,,,,,,,,,,,,,3.67180310790582E+00,3.78489121678147E+00,3.90926867573033E+00,3.99350698490701E+00,
MNE,,,,,,,,,,,,,,,,,,,,,,,,,,,,,,,,,,,,,,,,,,,,,,,,4.30000000000000E+00,3.76417430588235E+00,3.28327577300613E+00,3.41156564223602E+00,
MNG,,,,,,,,,,,,,,,,,,,,,,,,,,,,,,,,,,,,,,,,,,,,,,,,2.51282051282051E+00,2.41859514219114E+00,2.94267761036585E+00,3.31653138902439E+00,
MOZ,,,,,,,,,,,,,,,,,,,,,,,,,,,,,,,,,,,,,,,,,,,,,,,,2.70636664818775E+00,2.82805531739130E+00,3.19979438385093E+00,3.48508838405797E+00,
MRT,,,,,,,,,,,,,,,,,,,,,,,,,,,,,,,,,,,,,,,,,,,,,,,,2.64709628857623E+00,2.69201046365741E+00,3.46636092393162E+00,3.56967926949153E+00,
MUS,,,,,,,,,,,,,,,,,,,,,,,,,,,,,,,,,,,,,,,,,,,,,,,,4.65993265993266E+00,4.43729856883117E+00,4.29442112941176E+00,4.54015021984733E+00,
MWI,,,,,,,,,,,,,,,,,,,,,,,,,,,,,,,,,,,,,,,,,,,,,,,,,3.52389600000000E+00,3.53279994062500E+00,3.56160724254144E+00,
MYS,,,,,,,,,,,,,,,,,,,,,,,,,,,,,,,,,,,,,,,,,,,,,,,,5.72017141799334E+00,5.70703004942529E+00,5.52277111884058E+00,5.57683233033708E+00,
NAC,,,,,,,,,,,,,,,,,,,,,,,,,,,,,,,,,,,,,,,,,,,,,,,,5.75820219408773E+00,5.82340478795769E+00,5.63975223534722E+00,5.61105443024595E+00,
NAM,,,,,,,,,,,,,,,,,,,,,,,,,,,,,,,,,,,,,,,,,,,,,,,,5.00520823776528E+00,5.26330147417582E+00,5.41677288367347E+00,5.64118479278351E+00,
NGA,,,,,,,,,,,,,,,,,,,,,,,,,,,,,,,,,,,,,,,,,,,,,,,,2.69104945621973E+00,2.62044767127728E+00,2.80243686428571E+00,2.98410501363636E+00,
NIC,,,,,,,,,,,,,,,,,,,,,,,,,,,,,,,,,,,,,,,,,,,,,,,,2.30940678794992E+00,2.21232291724138E+00,2.68941121829268E+00,2.88307615000000E+00,
NLD,,,,,,,,,,,,,,,,,,,,,,,,,,,,,,,,,,,,,,,,,,,,,,,,6.66714021771697E+00,6.61387326043120E+00,6.59967626538462E+00,6.56836884357798E+00,
NOC,,,,,,,,,,,,,,,,,,,,,,,,,,,,,,,,,,,,,,,,,,,,,,,,4.97100343238404E+00,5.07296908627687E+00,5.25653020133633E+00,5.35879999030390E+00,
NOR,,,,,,,,,,,,,,,,,,,,,,,,,,,,,,,,,,,,,,,,,,,,,,,,5.56161659650466E+00,5.80160160000000E+00,5.79042477073171E+00,5.67108714936709E+00,
NPL,,,,,,,,,,,,,,,,,,,,,,,,,,,,,,,,,,,,,,,,,,,,,,,,2.97368421052632E+00,2.87512598293030E+00,2.83155357250000E+00,2.89651761206030E+00,
NZL,,,,,,,,,,,,,,,,,,,,,,,,,,,,,,,,,,,,,,,,,,,,,,,,5.43236723672367E+00,5.34934388738404E+00,5.47437950000000E+00,5.41747613888889E+00,
OEC,,,,,,,,,,,,,,,,,,,,,,,,,,,,,,,,,,,,,,,,,,,,,,,,5.21011472259544E+00,5.14901949148045E+00,5.19940406099711E+00,5.27697510539076E+00,
OED,,,,,,,,,,,,,,,,,,,,,,,,,,,,,,,,,,,,,,,,,,,,,,,,5.09001266713090E+00,5.03784720469776E+00,5.11640601932890E+00,5.20196811293080E+00,
OMN,,,,,,,,,,,,,,,,,,,,,,,,,,,,,,,,,,,,,,,,,,,,,,,,4.84523809523809E+00,5.08070424653192E+00,5.18652556451613E+00,5.31796798290598E+00,
PAK,,,,,,,,,,,,,,,,,,,,,,,,,,,,,,,,,,,,,,,,,,,,,,,,3.73379652605459E+00,3.70078756379928E+00,3.96211766046512E+00,4.04732637220077E+00,
PAN,,,,,,,,,,,,,,,,,,,,,,,,,,,,,,,,,,,,,,,,,,,,,,,,5.65009511141198E+00,5.71355098502674E+00,5.54102403060109E+00,5.99746306666667E+00,
PER,,,,,,,,,,,,,,,,,,,,,,,,,,,,,,,,,,,,,,,,,,,,,,,,2.35632689417135E+00,2.34221476771398E+00,2.66116111329480E+00,3.30029161428571E+00,
PHL,,,,,,,,,,,,,,,,,,,,,,,,,,,,,,,,,,,,,,,,,,,,,,,,2.82340642529322E+00,3.15812639960586E+00,3.00386804489796E+00,2.75992688760331E+00,
POL,,,,,,,,,,,,,,,,,,,,,,,,,,,,,,,,,,,,,,,,,,,,,,,,3.19970922253224E+00,2.62143595833333E+00,2.81651886022305E+00,3.25865957575758E+00,
PRI,,,,,,,,,,,,,,,,,,,,,,,,,,,,,,,,,,,,,,,,,,,,,,,,4.89473684210526E+00,5.18918009505342E+00,5.39862892374101E+00,5.40192816666667E+00,
PRT,,,,,,,,,,,,,,,,,,,,,,,,,,,,,,,,,,,,,,,,,,,,,,,,4.77945250827604E+00,4.69227938662961E+00,4.72261225961538E+00,4.85368179565217E+00,
PRY,,,,,,,,,,,,,,,,,,,,,,,,,,,,,,,,,,,,,,,,,,,,,,,,4.08571428571429E+00,3.91119681830357E+00,3.46553104938272E+00,3.35498999842520E+00,
QAT,,,,,,,,,,,,,,,,,,,,,,,,,,,,,,,,,,,,,,,,,,,,,,,,4.36868324565599E+00,4.39708509042508E+00,4.98834830377358E+00,5.41430863870968E+00,
ROM,,,,,,,,,,,,,,,,,,,,,,,,,,,,,,,,,,,,,,,,,,,,,,,,3.01522745411014E+00,3.12857552352013E+00,3.25770770872483E+00,2.96762502413793E+00,
RUS,,,,,,,,,,,,,,,,,,,,,,,,,,,,,,,,,,,,,,,,,,,,,,,,3.69096716560329E+00,3.74796740598059E+00,3.54911325541491E+00,3.65740141344538E+00,
RWA,,,,,,,,,,,,,,,,,,,,,,,,,,,,,,,,,,,,,,,,,,,,,,,,,,,2.81216000000000E+00,
SAS,,,,,,,,,,,,,,,,,,,,,,,,,,,,,,,,,,,,,,,,,,,,,,,,3.33060349674707E+00,3.39799112154706E+00,3.60635968608061E+00,3.81743553351616E+00,
SAU,,,,,,,,,,,,,,,,,,,,,,,,,,,,,,,,,,,,,,,,,,,,,,,,4.49473684210526E+00,4.50941480269906E+00,4.72240087603306E+00,5.20816628750000E+00,
SEN,,,,,,,,,,,,,,,,,,,,,,,,,,,,,,,,,,,,,,,,,,,,,,,,3.60759493670886E+00,3.79712144987485E+00,4.43113946153846E+00,4.73510427336683E+00,
SGP,,,,,,,,,,,,,,,,,,,,,,,,,,,,,,,,,,,,,,,,,,,,,,,,6.83057425687666E+00,6.77813412844275E+00,6.78127215714286E+00,6.76478398796992E+00,
SLV,,,,,,,,,,,,,,,,,,,,,,,,,,,,,,,,,,,,,,,,,,,,,,,,3.47531148981577E+00,3.59280287368421E+00,4.17105737748344E+00,4.13374419516129E+00,
SRB,,,,,,,,,,,,,,,,,,,,,,,,,,,,,,,,,,,,,,,,,,,,,,,,3.50000000000000E+00,3.49170635353535E+00,3.26772873684211E+00,2.82558496202532E+00,
SSA,,,,,,,,,,,,,,,,,,,,,,,,,,,,,,,,,,,,,,,,,,,,,,,,3.50974654276913E+00,3.56528948556986E+00,3.71237534215143E+00,3.80731539104876E+00,
SSF,,,,,,,,,,,,,,,,,,,,,,,,,,,,,,,,,,,,,,,,,,,,,,,,3.50974654276913E+00,3.56528948556986E+00,3.71237534215143E+00,3.80731539104876E+00,
SUR,,,,,,,,,,,,,,,,,,,,,,,,,,,,,,,,,,,,,,,,,,,,,,,,2.68650357744925E+00,2.94495167323944E+00,3.31518750000000E+00,,
SVK,,,,,,,,,,,,,,,,,,,,,,,,,,,,,,,,,,,,,,,,,,,,,,,,4.47619047619048E+00,4.25451079421769E+00,4.12476019337748E+00,3.99884312834646E+00,
SVN,,,,,,,,,,,,,,,,,,,,,,,,,,,,,,,,,,,,,,,,,,,,,,,,4.45212963088814E+00,4.81288553549201E+00,5.24822525405405E+00,5.29838274881517E+00,
SWE,,,,,,,,,,,,,,,,,,,,,,,,,,,,,,,,,,,,,,,,,,,,,,,,5.89100000000000E+00,5.78857262222222E+00,5.86775510481928E+00,6.15148680000000E+00,
SWZ,,,,,,,,,,,,,,,,,,,,,,,,,,,,,,,,,,,,,,,,,,,,,,,,,,,4.22500400000000E+00,
SYR,,,,,,,,,,,,,,,,,,,,,,,,,,,,,,,,,,,,,,,,,,,,,,,,3.14893617021277E+00,3.23466086925899E+00,3.26072672977099E+00,3.12898332658228E+00,
TCD,,,,,,,,,,,,,,,,,,,,,,,,,,,,,,,,,,,,,,,,,,,,,,,,2.77419354838710E+00,2.69166356151538E+00,2.66224136666667E+00,2.62564722706767E+00,
THA,,,,,,,,,,,,,,,,,,,,,,,,,,,,,,,,,,,,,,,,,,,,,,,,4.65151337792642E+00,4.42491364907355E+00,4.68566316804734E+00,5.03100592413793E+00,
TJK,,,,,,,,,,,,,,,,,,,,,,,,,,,,,,,,,,,,,,,,,,,,,,,,1.41666666666667E+00,1.62724929660679E+00,1.94326215000000E+00,1.91879983705584E+00,
TMP,,,,,,,,,,,,,,,,,,,,,,,,,,,,,,,,,,,,,,,,,,,,,,,,2.18887753612611E+00,2.23946346023700E+00,2.25970308469388E+00,,
TTO,,,,,,,,,,,,,,,,,,,,,,,,,,,,,,,,,,,,,,,,,,,,,,,,3.21100006256256E+00,3.37920793457207E+00,3.98115533600000E+00,4.32730810468750E+00,
TUN,,,,,,,,,,,,,,,,,,,,,,,,,,,,,,,,,,,,,,,,,,,,,,,,4.82907369844490E+00,4.83303955689655E+00,4.87215257894737E+00,5.04623168852459E+00,
TUR,,,,,,,,,,,,,,,,,,,,,,,,,,,,,,,,,,,,,,,,,,,,,,,,3.43741379205488E+00,3.41750473871487E+00,3.74433285028902E+00,4.09859006229508E+00,
TZA,,,,,,,,,,,,,,,,,,,,,,,,,,,,,,,,,,,,,,,,,,,,,,,,3.21261590638232E+00,2.82469659492257E+00,2.81771000000000E+00,3.03527230874317E+00,
UGA,,,,,,,,,,,,,,,,,,,,,,,,,,,,,,,,,,,,,,,,,,,,,,,,4.00000000000000E+00,3.80709965151515E+00,3.44180955721393E+00,3.53236528941799E+00,
UKR,,,,,,,,,,,,,,,,,,,,,,,,,,,,,,,,,,,,,,,,,,,,,,,,3.36288590901497E+00,3.46618995718310E+00,3.70541341719457E+00,3.63736358325359E+00,
UMC,,,,,,,,,,,,,,,,,,,,,,,,,,,,,,,,,,,,,,,,,,,,,,,,3.69967977337802E+00,3.72693785231992E+00,3.84667030147288E+00,4.01754673770937E+00,
URY,,,,,,,,,,,,,,,,,,,,,,,,,,,,,,,,,,,,,,,,,,,,,,,,4.31138497652582E+00,4.40252107269303E+00,4.88134999322034E+00,5.15144120598802E+00,
USA,,,,,,,,,,,,,,,,,,,,,,,,,,,,,,,,,,,,,,,,,,,,,,,,5.80781523909941E+00,5.86851425899453E+00,5.66658326622517E+00,5.53723996575505E+00,
VEN,,,,,,,,,,,,,,,,,,,,,,,,,,,,,,,,,,,,,,,,,,,,,,,,2.59719589119358E+00,2.36098887557903E+00,2.41633331250000E+00,2.43007233513513E+00,
VNM,,,,,,,,,,,,,,,,,,,,,,,,,,,,,,,,,,,,,,,,,,,,,,,,2.76922517406342E+00,2.82565516702920E+00,3.28369473284671E+00,3.60033256129032E+00,
WLD,,,,,,,,,,,,,,,,,,,,,,,,,,,,,,,,,,,,,,,,,,,,,,,,4.03016253743188E+00,4.06458987739409E+00,4.19699071172789E+00,4.29614665956786E+00,
ZAF,,,,,,,,,,,,,,,,,,,,,,,,,,,,,,,,,,,,,,,,,,,,,,,,4.39741861221001E+00,4.40377125343883E+00,4.66206944819277E+00,4.74510076237624E+00,
ZMB,,,,,,,,,,,,,,,,,,,,,,,,,,,,,,,,,,,,,,,,,,,,,,,,3.70491803278689E+00,3.82169782829226E+00,3.69804060511364E+00,3.63179549157303E+00,
ZWE,,,,,,,,,,,,,,,,,,,,,,,,,,,,,,,,,,,,,,,,,,,,,,,,4.08333333333333E+00,4.27032908484848E+00,4.41717816981132E+00,4.40952608349515E+00,
