"Country Code",1960,1961,1962,1963,1964,1965,1966,1967,1968,1969,1970,1971,1972,1973,1974,1975,1976,1977,1978,1979,1980,1981,1982,1983,1984,1985,1986,1987,1988,1989,1990,1991,1992,1993,1994,1995,1996,1997,1998,1999,2000,2001,2002,2003,2004,2005,2006,2007,2008,2009,2010,2011AGO,,,,,,,,,,,,,,,,,,,,,,,,,,,,,,3.90600000000000E-01,3.13400000000000E-01,2.51800000000000E-01,2.23100000000000E-01,1.95100000000000E-01,2.07400000000000E-01,2.14300000000000E-01,2.00900000000000E-01,1.60000000000000E-01,3.39100000000000E-01,3.04300000000000E-01,3.03800000000000E-01,,,,,,,,,,,
ALB,,,,,,,,,,,,,,,,,,,,,,,,,,,,,,,,7.66961000000000E+01,5.64433000000000E+01,2.01779000000000E+01,1.73438000000000E+01,1.43431000000000E+01,1.32940000000000E+01,1.40294000000000E+01,1.28656000000000E+01,1.02914000000000E+01,5.97990000000000E+00,,,,,,,,,,,
ARG,,,,,,,,,,,1.57468000000000E+01,1.45199000000000E+01,1.37468000000000E+01,1.88808000000000E+01,1.73769000000000E+01,1.48453000000000E+01,1.04831000000000E+01,1.04354000000000E+01,1.39621000000000E+01,1.18016000000000E+01,9.51760000000000E+00,7.93170000000000E+00,6.03560000000000E+00,6.93830000000000E+00,5.71730000000000E+00,6.36840000000000E+00,6.36200000000000E+00,7.42740000000000E+00,6.83960000000000E+00,7.07640000000000E+00,1.04463000000000E+01,9.54140000000000E+00,8.98730000000000E+00,8.11590000000000E+00,9.43450000000000E+00,1.14796000000000E+01,1.49886000000000E+01,1.36225000000000E+01,1.43200000000000E+01,1.10533000000000E+01,9.11190000000000E+00,,,,,,,,,,,
ARM,,,,,,,,,,,,,,,,,,,,,,,,,,,,,,,,,,0.00000000000000E+00,0.00000000000000E+00,0.00000000000000E+00,0.00000000000000E+00,0.00000000000000E+00,0.00000000000000E+00,0.00000000000000E+00,4.24700000000000E-01,,,,,,,,,,,
AZE,,,,,,,,,,,,,,,,,,,,,,,,,,,,,,,,,,0.00000000000000E+00,0.00000000000000E+00,0.00000000000000E+00,0.00000000000000E+00,1.06800000000000E+00,2.29360000000000E+00,4.82120000000000E+00,4.15100000000000E+00,,,,,,,,,,,
BDI,,,,,,,,,,,1.77534000000000E+01,1.85313000000000E+01,2.14793000000000E+01,2.25450000000000E+01,2.23988000000000E+01,2.12462000000000E+01,1.43382000000000E+01,8.80590000000000E+00,1.28204000000000E+01,1.07059000000000E+01,1.81990000000000E+00,8.03500000000000E-01,2.29300000000000E-01,3.61000000000000E-02,0.00000000000000E+00,0.00000000000000E+00,0.00000000000000E+00,0.00000000000000E+00,1.85800000000000E-01,2.41500000000000E-01,4.80200000000000E-01,3.53200000000000E-01,1.77200000000000E-01,1.01200000000000E-01,9.84000000000000E-02,8.72000000000000E-02,7.41000000000000E-02,6.45000000000000E-02,5.87000000000000E-02,4.57000000000000E-02,4.30000000000000E-02,,,,,,,,,,,
BEN,,,,,,,,,,,5.03450000000000E+00,4.12650000000000E+00,3.88080000000000E+00,1.99620000000000E+00,3.02190000000000E+00,2.66490000000000E+00,4.13770000000000E+00,4.05920000000000E+00,4.65870000000000E+00,3.02900000000000E-01,2.28100000000000E-01,7.00000000000000E-03,0.00000000000000E+00,9.40000000000000E-03,4.40000000000000E-03,7.59000000000000E-02,2.33000000000000E-01,2.12800000000000E-01,1.91200000000000E-01,1.62600000000000E-01,3.28700000000000E-01,2.91000000000000E-01,2.90700000000000E-01,2.66600000000000E-01,2.79200000000000E-01,2.97100000000000E-01,2.43000000000000E-01,2.19900000000000E-01,2.21700000000000E-01,1.89500000000000E-01,1.78900000000000E-01,,,,,,,,,,,
BFA,,,,,,,,,,,9.97260000000000E+00,1.03089000000000E+01,1.24032000000000E+01,1.11437000000000E+01,1.25729000000000E+01,1.53615000000000E+01,2.20606000000000E+01,2.13572000000000E+01,2.15434000000000E+01,1.55741000000000E+01,1.20730000000000E+01,1.53700000000000E-01,1.15000000000000E-01,7.29000000000000E-02,5.55000000000000E-02,5.16000000000000E-02,3.45000000000000E-02,2.74000000000000E-02,1.89000000000000E-02,2.35000000000000E-02,2.31000000000000E-02,1.27700000000000E-01,9.18000000000000E-02,7.86000000000000E-02,8.94000000000000E-02,8.84000000000000E-02,7.98000000000000E-02,7.04000000000000E-02,6.71000000000000E-02,5.46000000000000E-02,4.67000000000000E-02,,,,,,,,,,,
BGD,,,,,,,,,,,,,0.00000000000000E+00,9.64440000000000E+00,1.38104000000000E+01,1.23886000000000E+01,1.25204000000000E+01,1.32428000000000E+01,1.39995000000000E+01,2.14300000000000E-01,1.16600000000000E-01,7.06000000000000E-02,1.35900000000000E-01,8.34000000000000E-02,5.37000000000000E-02,5.03000000000000E-02,4.22000000000000E-02,3.41000000000000E-02,2.11000000000000E-02,1.28000000000000E-02,8.80000000000000E-03,8.20000000000000E-03,7.30000000000000E-03,6.30000000000000E-03,6.20000000000000E-03,0.00000000000000E+00,0.00000000000000E+00,0.00000000000000E+00,0.00000000000000E+00,0.00000000000000E+00,0.00000000000000E+00,,,,,,,,,,,
BGR,,,,,,,,,,,,,,,,,,,,,,2.72065000000000E+01,1.92070000000000E+01,1.78789000000000E+01,1.58342000000000E+01,1.83826000000000E+01,2.35664000000000E+01,2.68360000000000E+01,2.59442000000000E+01,2.96768000000000E+01,3.39419000000000E+01,3.35848000000000E+01,3.19632000000000E+01,2.97669000000000E+01,6.12190000000000E+00,7.18600000000000E+00,5.03180000000000E+00,4.28690000000000E+00,4.49070000000000E+00,4.61140000000000E+00,3.72430000000000E+00,,,,,,,,,,,
BIH,,,,,,,,,,,,,,,,,,,,,,,,,,,,,,,,,,,,,,,,1.02084000000000E+01,1.17262000000000E+01,,,,,,,,,,,
BLR,,,,,,,,,,,,,,,,,,,,,,,,,,,,,,,,,,1.75736000000000E+01,2.38942000000000E+01,2.75321000000000E+01,4.22266000000000E+01,3.54765000000000E+01,3.06844000000000E+01,2.49347000000000E+01,1.93504000000000E+01,,,,,,,,,,,
BLZ,,,,,,,,,,,0.00000000000000E+00,0.00000000000000E+00,0.00000000000000E+00,0.00000000000000E+00,0.00000000000000E+00,0.00000000000000E+00,0.00000000000000E+00,0.00000000000000E+00,0.00000000000000E+00,0.00000000000000E+00,7.98600000000000E-01,1.13960000000000E+00,1.58820000000000E+00,1.33310000000000E+00,1.31520000000000E+00,0.00000000000000E+00,1.02390000000000E+00,1.02970000000000E+00,9.74200000000000E-01,8.77400000000000E-01,6.93000000000000E-01,5.52300000000000E-01,4.08900000000000E-01,3.21700000000000E-01,2.81700000000000E-01,2.32900000000000E-01,1.48500000000000E-01,8.58000000000000E-02,5.69000000000000E-02,1.70000000000000E-02,5.40000000000000E-03,,,,,,,,,,,
BOL,,,,,,,,,,,2.29660000000000E+00,2.05340000000000E+00,1.71900000000000E+00,1.85400000000000E+00,2.58340000000000E+00,3.12870000000000E+00,4.71680000000000E+00,5.75570000000000E+00,8.14610000000000E+00,8.54100000000000E+00,6.79830000000000E+00,5.40250000000000E+00,4.55580000000000E+00,2.95650000000000E+00,2.39550000000000E+00,2.84790000000000E+00,3.34560000000000E+00,3.67220000000000E+00,3.60770000000000E+00,5.68720000000000E+00,7.02300000000000E+00,8.77730000000000E+00,8.87850000000000E+00,9.15770000000000E+00,9.63370000000000E+00,9.97850000000000E+00,9.57010000000000E+00,8.56000000000000E+00,9.09530000000000E+00,7.87100000000000E+00,7.24040000000000E+00,,,,,,,,,,,
BRA,,,,,,,,,,,7.29460000000000E+00,7.18690000000000E+00,5.26800000000000E+00,4.07570000000000E+00,3.20110000000000E+00,2.77490000000000E+00,3.90170000000000E+00,8.35640000000000E+00,9.51320000000000E+00,9.17970000000000E+00,8.10980000000000E+00,6.65580000000000E+00,5.94050000000000E+00,4.88060000000000E+00,4.28990000000000E+00,5.20230000000000E+00,5.70490000000000E+00,6.71560000000000E+00,6.15280000000000E+00,7.97140000000000E+00,8.89760000000000E+00,9.29970000000000E+00,6.82270000000000E+00,5.82690000000000E+00,4.24650000000000E+00,5.11650000000000E+00,5.65790000000000E+00,5.11730000000000E+00,3.31080000000000E+00,2.63360000000000E+00,3.72350000000000E+00,,,,,,,,,,,
BTN,,,,,,,,,,,,,,,,,,,,,,0.00000000000000E+00,0.00000000000000E+00,0.00000000000000E+00,0.00000000000000E+00,0.00000000000000E+00,0.00000000000000E+00,0.00000000000000E+00,0.00000000000000E+00,0.00000000000000E+00,0.00000000000000E+00,0.00000000000000E+00,0.00000000000000E+00,0.00000000000000E+00,0.00000000000000E+00,0.00000000000000E+00,0.00000000000000E+00,0.00000000000000E+00,0.00000000000000E+00,0.00000000000000E+00,0.00000000000000E+00,,,,,,,,,,,
BWA,,,,,,,,,,,0.00000000000000E+00,0.00000000000000E+00,0.00000000000000E+00,0.00000000000000E+00,0.00000000000000E+00,0.00000000000000E+00,0.00000000000000E+00,1.56330000000000E+00,0.00000000000000E+00,0.00000000000000E+00,0.00000000000000E+00,0.00000000000000E+00,0.00000000000000E+00,0.00000000000000E+00,2.06900000000000E-01,2.75900000000000E-01,3.31500000000000E-01,3.10700000000000E-01,2.70600000000000E-01,2.60500000000000E-01,2.61900000000000E-01,2.17700000000000E-01,2.06500000000000E-01,4.57070000000000E+00,4.83020000000000E+00,4.44880000000000E+00,4.00210000000000E+00,3.22350000000000E+00,2.63900000000000E+00,2.43250000000000E+00,1.24680000000000E+00,,,,,,,,,,,
CAF,,,,,,,,,,,1.97298000000000E+01,2.12702000000000E+01,1.66694000000000E+01,1.46096000000000E+01,1.52107000000000E+01,1.46363000000000E+01,1.71248000000000E+01,1.52259000000000E+01,1.78090000000000E+00,1.67840000000000E+00,1.17370000000000E+00,2.75820000000000E+00,1.96220000000000E+00,1.58420000000000E+00,1.23440000000000E+00,1.18660000000000E+00,1.09980000000000E+00,8.75300000000000E-01,6.74800000000000E-01,6.46400000000000E-01,7.14100000000000E-01,5.74000000000000E-01,5.29700000000000E-01,4.67400000000000E-01,3.97300000000000E-01,3.58800000000000E-01,3.32100000000000E-01,3.05700000000000E-01,3.13400000000000E-01,2.23500000000000E-01,2.15500000000000E-01,,,,,,,,,,,
CHL,,,,,,,,,,,5.57230000000000E+00,5.61590000000000E+00,5.82510000000000E+00,6.02270000000000E+00,5.86770000000000E+00,5.43260000000000E+00,5.80920000000000E+00,6.05150000000000E+00,5.83440000000000E+00,5.25370000000000E+00,5.88360000000000E+00,3.01510000000000E+00,2.16190000000000E+00,2.27680000000000E+00,2.60830000000000E+00,3.28270000000000E+00,3.98670000000000E+00,4.05680000000000E+00,3.87700000000000E+00,4.73630000000000E+00,4.66670000000000E+00,4.15790000000000E+00,3.73430000000000E+00,3.30570000000000E+00,3.66110000000000E+00,4.50230000000000E+00,3.62290000000000E+00,2.01600000000000E+00,1.86960000000000E+00,1.32410000000000E+00,1.25920000000000E+00,,,,,,,,,,,
CHN,,,,,,,,,,,,,,,,,,,,,,7.21250000000000E+00,6.93310000000000E+00,6.14480000000000E+00,5.24440000000000E+00,5.95880000000000E+00,4.49710000000000E+00,4.51320000000000E+00,3.42570000000000E+00,3.21490000000000E+00,3.12790000000000E+00,2.70480000000000E+00,1.64130000000000E+00,9.96000000000000E-01,1.67680000000000E+00,1.67550000000000E+00,1.44970000000000E+00,1.19250000000000E+00,2.27650000000000E+00,2.29820000000000E+00,2.26370000000000E+00,,,,,,,,,,,
CIV,,,,,,,,,,,1.05063000000000E+01,1.07972000000000E+01,9.26950000000000E+00,7.90920000000000E+00,8.45260000000000E+00,5.64290000000000E+00,6.27220000000000E+00,5.55230000000000E+00,5.69820000000000E+00,6.47830000000000E+00,4.45240000000000E+00,3.93230000000000E+00,3.28750000000000E+00,3.59170000000000E+00,3.64210000000000E+00,4.15320000000000E+00,4.08010000000000E+00,3.91160000000000E+00,3.54730000000000E+00,3.73960000000000E+00,3.90840000000000E+00,3.82530000000000E+00,3.65900000000000E+00,3.60960000000000E+00,4.05900000000000E+00,4.38730000000000E+00,4.18340000000000E+00,3.52480000000000E+00,3.51360000000000E+00,3.10920000000000E+00,2.93360000000000E+00,,,,,,,,,,,
CMR,,,,,,,,,,,1.05734000000000E+01,1.03101000000000E+01,8.68300000000000E+00,9.33720000000000E+00,8.52810000000000E+00,5.51970000000000E+00,6.81180000000000E+00,7.00230000000000E+00,8.50310000000000E+00,9.97260000000000E+00,7.82700000000000E+00,6.80440000000000E+00,6.73890000000000E+00,7.96920000000000E+00,7.38090000000000E+00,8.17740000000000E+00,8.94740000000000E+00,9.83490000000000E+00,1.29933000000000E+01,1.53883000000000E+01,1.62388000000000E+01,1.63963000000000E+01,1.51567000000000E+01,1.52532000000000E+01,1.78045000000000E+01,1.86938000000000E+01,1.87396000000000E+01,1.85869000000000E+01,1.89597000000000E+01,1.80300000000000E+01,1.80295000000000E+01,,,,,,,,,,,
COG,,,,,,,,,,,5.16460000000000E+00,4.69430000000000E+00,4.25980000000000E+00,4.25200000000000E+00,4.10450000000000E+00,2.71880000000000E+00,2.39100000000000E+00,2.39630000000000E+00,1.98700000000000E+00,1.99210000000000E+00,1.14900000000000E+00,1.11440000000000E+00,1.04760000000000E+00,1.04350000000000E+00,9.08400000000000E-01,2.24840000000000E+00,2.72210000000000E+00,2.46780000000000E+00,2.37370000000000E+00,2.63380000000000E+00,2.40020000000000E+00,2.73750000000000E+00,2.77000000000000E+00,2.62830000000000E+00,2.74270000000000E+00,2.85670000000000E+00,2.84130000000000E+00,2.71780000000000E+00,2.92150000000000E+00,2.72910000000000E+00,2.64280000000000E+00,,,,,,,,,,,
COL,,,,,,,,,,,1.26480000000000E+00,1.21680000000000E+00,1.63140000000000E+00,2.12910000000000E+00,2.03200000000000E+00,2.83930000000000E+00,2.98740000000000E+00,3.01140000000000E+00,3.45220000000000E+00,2.90750000000000E+00,3.82580000000000E+00,2.87100000000000E+00,2.61630000000000E+00,1.97340000000000E+00,2.64980000000000E+00,4.12580000000000E+00,4.51280000000000E+00,5.22560000000000E+00,4.91010000000000E+00,5.58170000000000E+00,5.98340000000000E+00,5.43950000000000E+00,4.91560000000000E+00,4.47230000000000E+00,4.27750000000000E+00,5.01520000000000E+00,5.67730000000000E+00,4.19890000000000E+00,3.61370000000000E+00,2.39550000000000E+00,1.77180000000000E+00,,,,,,,,,,,
COM,,,,,,,,,,,0.00000000000000E+00,0.00000000000000E+00,0.00000000000000E+00,0.00000000000000E+00,0.00000000000000E+00,0.00000000000000E+00,0.00000000000000E+00,0.00000000000000E+00,0.00000000000000E+00,0.00000000000000E+00,0.00000000000000E+00,0.00000000000000E+00,0.00000000000000E+00,0.00000000000000E+00,0.00000000000000E+00,0.00000000000000E+00,0.00000000000000E+00,0.00000000000000E+00,0.00000000000000E+00,0.00000000000000E+00,0.00000000000000E+00,0.00000000000000E+00,0.00000000000000E+00,0.00000000000000E+00,0.00000000000000E+00,0.00000000000000E+00,0.00000000000000E+00,0.00000000000000E+00,0.00000000000000E+00,0.00000000000000E+00,0.00000000000000E+00,,,,,,,,,,,
CPV,,,,,,,,,,,,,,,,,,,,,,0.00000000000000E+00,0.00000000000000E+00,0.00000000000000E+00,0.00000000000000E+00,0.00000000000000E+00,0.00000000000000E+00,0.00000000000000E+00,0.00000000000000E+00,0.00000000000000E+00,0.00000000000000E+00,0.00000000000000E+00,0.00000000000000E+00,0.00000000000000E+00,0.00000000000000E+00,0.00000000000000E+00,0.00000000000000E+00,0.00000000000000E+00,0.00000000000000E+00,3.92000000000000E+00,3.25920000000000E+00,,,,,,,,,,,
CRI,,,,,,,,,,,1.98940000000000E+00,4.91900000000000E-01,1.18300000000000E-01,2.80700000000000E-01,1.58600000000000E-01,9.07000000000000E-02,5.59000000000000E-01,9.26000000000000E-01,1.28810000000000E+00,1.18310000000000E+00,3.10920000000000E+00,2.58740000000000E+00,2.42820000000000E+00,8.22000000000000E-01,7.26200000000000E-01,8.79800000000000E-01,9.75700000000000E-01,1.10330000000000E+00,1.07320000000000E+00,2.00420000000000E+00,2.59810000000000E+00,2.49030000000000E+00,2.28870000000000E+00,2.06200000000000E+00,2.10950000000000E+00,1.87820000000000E+00,1.89670000000000E+00,1.28560000000000E+00,1.05740000000000E+00,6.26500000000000E-01,4.19900000000000E-01,,,,,,,,,,,
DJI,,,,,,,,,,,0.00000000000000E+00,0.00000000000000E+00,0.00000000000000E+00,0.00000000000000E+00,0.00000000000000E+00,0.00000000000000E+00,0.00000000000000E+00,0.00000000000000E+00,0.00000000000000E+00,0.00000000000000E+00,0.00000000000000E+00,0.00000000000000E+00,0.00000000000000E+00,3.86400000000000E+00,3.39110000000000E+00,0.00000000000000E+00,0.00000000000000E+00,0.00000000000000E+00,0.00000000000000E+00,0.00000000000000E+00,0.00000000000000E+00,0.00000000000000E+00,0.00000000000000E+00,0.00000000000000E+00,0.00000000000000E+00,0.00000000000000E+00,0.00000000000000E+00,0.00000000000000E+00,0.00000000000000E+00,0.00000000000000E+00,0.00000000000000E+00,,,,,,,,,,,
DMA,,,,,,,,,,,,,,,,,,,,,,8.68170000000000E+00,7.76080000000000E+00,6.49720000000000E+00,3.62470000000000E+00,7.40310000000000E+00,9.78870000000000E+00,1.06515000000000E+01,9.24330000000000E+00,9.17000000000000E+00,8.68190000000000E+00,7.30670000000000E+00,6.29160000000000E+00,5.17290000000000E+00,5.43650000000000E+00,3.43700000000000E+00,2.75440000000000E+00,2.26230000000000E+00,2.01440000000000E+00,1.44060000000000E+00,7.12400000000000E-01,,,,,,,,,,,
DOM,,,,,,,,,,,0.00000000000000E+00,0.00000000000000E+00,0.00000000000000E+00,0.00000000000000E+00,0.00000000000000E+00,0.00000000000000E+00,0.00000000000000E+00,5.67000000000000E-02,5.41000000000000E-02,8.19000000000000E-02,6.49000000000000E-01,6.14100000000000E-01,6.36800000000000E-01,7.08400000000000E-01,6.62900000000000E-01,1.07130000000000E+00,1.37780000000000E+00,1.79280000000000E+00,1.69210000000000E+00,1.76120000000000E+00,2.00210000000000E+00,1.58560000000000E+00,1.41350000000000E+00,9.32400000000000E-01,2.15660000000000E+00,2.21630000000000E+00,2.02230000000000E+00,1.69690000000000E+00,1.79570000000000E+00,1.50650000000000E+00,1.51860000000000E+00,,,,,,,,,,,
DZA,,,,,,,,,,,1.87510000000000E+00,3.09800000000000E+00,3.92300000000000E+00,5.63800000000000E+00,5.03340000000000E+00,3.56110000000000E+00,5.16090000000000E+00,8.12740000000000E+00,1.05572000000000E+01,1.18473000000000E+01,9.90360000000000E+00,9.00960000000000E+00,8.65320000000000E+00,7.29550000000000E+00,5.65160000000000E+00,5.24860000000000E+00,5.44910000000000E+00,6.64180000000000E+00,6.74510000000000E+00,8.94360000000000E+00,1.04103000000000E+01,9.96730000000000E+00,8.21180000000000E+00,6.51740000000000E+00,6.25910000000000E+00,7.14390000000000E+00,6.87400000000000E+00,6.63340000000000E+00,6.66510000000000E+00,5.81830000000000E+00,5.44780000000000E+00,,,,,,,,,,,
EAP,,,,,,,,,,,7.89868970450336E+00,1.03204876759775E+01,8.12614847640276E+00,7.96119564267648E+00,7.51897431431362E+00,5.59044161404203E+00,6.34042544045640E+00,6.80954371695303E+00,7.37491467189036E+00,6.29313344553301E+00,6.04007457604709E+00,5.90522231160349E+00,5.46117324305403E+00,4.88248304139361E+00,3.92960620095864E+00,4.96546210696536E+00,5.11141774317292E+00,5.10190275151361E+00,4.57537136946319E+00,4.22066913485763E+00,3.66350456081961E+00,3.43608026887026E+00,2.83349811829408E+00,2.29105919922306E+00,2.68335797634672E+00,2.64113954975645E+00,2.42690051447553E+00,2.07403014289863E+00,2.46745412826311E+00,2.07116101875447E+00,1.95411923774501E+00,,,,,,,,,,,
ECA,,,,,,,,,,,1.61529588884889E+01,1.59211735441218E+01,1.52398706131103E+01,1.87977241302626E+01,1.99590751872086E+01,1.74019349743912E+01,1.79169637002662E+01,1.81982254752251E+01,1.85328661225517E+01,1.95754388768362E+01,1.13162119160821E+01,1.10346464685556E+01,1.21447243043204E+01,1.36040312837037E+01,1.04995406971089E+01,1.21595836311941E+01,1.56032885474597E+01,1.76095700956338E+01,1.71928225498716E+01,2.10102865362401E+01,2.47479268910025E+01,2.80101503223497E+01,2.84877133918502E+01,2.10861434122462E+01,2.23936499578698E+01,2.52070461749478E+01,2.69191154144508E+01,2.29216417734273E+01,2.36586284972229E+01,1.84572153162347E+01,1.58515580622154E+01,,,,,,,,,,,
ECU,,,,,,,,,,,4.59460000000000E+00,6.10620000000000E+00,4.80350000000000E+00,6.39250000000000E+00,6.12690000000000E+00,4.41130000000000E+00,4.00970000000000E+00,3.45580000000000E+00,2.60320000000000E+00,2.63020000000000E+00,1.73700000000000E+00,1.18910000000000E+00,1.43800000000000E+00,1.10730000000000E+00,1.14100000000000E+00,1.64400000000000E+00,2.16290000000000E+00,2.48080000000000E+00,2.38280000000000E+00,2.55870000000000E+00,2.79940000000000E+00,2.76250000000000E+00,2.61760000000000E+00,2.37220000000000E+00,2.56240000000000E+00,1.14060000000000E+00,1.02420000000000E+00,8.21500000000000E-01,7.56100000000000E-01,6.00800000000000E-01,5.68000000000000E-01,,,,,,,,,,,
EGY,,,,,,,,,,,1.00490000000000E+01,1.04230000000000E+01,1.08865000000000E+01,4.76430000000000E+00,8.54600000000000E+00,5.31020000000000E+00,8.04690000000000E+00,6.35780000000000E+00,6.43340000000000E+00,6.44250000000000E+00,4.77610000000000E+00,3.83710000000000E+00,4.23990000000000E+00,4.02410000000000E+00,3.84030000000000E+00,4.74330000000000E+00,5.86550000000000E+00,7.77080000000000E+00,7.11310000000000E+00,8.29280000000000E+00,1.23604000000000E+01,1.06451000000000E+01,1.04446000000000E+01,9.76720000000000E+00,1.04315000000000E+01,1.11240000000000E+01,1.10270000000000E+01,1.04572000000000E+01,1.08679000000000E+01,9.90550000000000E+00,9.89680000000000E+00,,,,,,,,,,,
ERI,,,,,,,,,,,,,,,,,,,,,,,,,,,,,,,,,,,0.00000000000000E+00,0.00000000000000E+00,0.00000000000000E+00,0.00000000000000E+00,0.00000000000000E+00,0.00000000000000E+00,0.00000000000000E+00,,,,,,,,,,,
ETH,,,,,,,,,,,2.69620000000000E+00,3.95010000000000E+00,4.91240000000000E+00,6.41870000000000E+00,7.72240000000000E+00,8.36730000000000E+00,8.39090000000000E+00,8.86710000000000E+00,9.80560000000000E+00,9.58590000000000E+00,8.08360000000000E+00,3.07800000000000E+00,1.59310000000000E+00,1.16080000000000E+00,8.88800000000000E-01,1.00290000000000E+00,1.67370000000000E+00,1.87570000000000E+00,1.97880000000000E+00,2.50800000000000E+00,1.93330000000000E+00,2.18500000000000E+00,1.88630000000000E+00,1.93020000000000E+00,2.19270000000000E+00,2.32540000000000E+00,2.20080000000000E+00,1.80790000000000E+00,1.86020000000000E+00,2.81920000000000E+00,2.59690000000000E+00,,,,,,,,,,,
FJI,,,,,,,,,,,0.00000000000000E+00,0.00000000000000E+00,0.00000000000000E+00,0.00000000000000E+00,0.00000000000000E+00,0.00000000000000E+00,0.00000000000000E+00,0.00000000000000E+00,0.00000000000000E+00,0.00000000000000E+00,0.00000000000000E+00,0.00000000000000E+00,0.00000000000000E+00,0.00000000000000E+00,0.00000000000000E+00,0.00000000000000E+00,0.00000000000000E+00,0.00000000000000E+00,0.00000000000000E+00,0.00000000000000E+00,0.00000000000000E+00,0.00000000000000E+00,0.00000000000000E+00,0.00000000000000E+00,0.00000000000000E+00,0.00000000000000E+00,0.00000000000000E+00,0.00000000000000E+00,0.00000000000000E+00,0.00000000000000E+00,0.00000000000000E+00,,,,,,,,,,,
GAB,,,,,,,,,,,4.89670000000000E+00,5.21100000000000E+00,5.09660000000000E+00,3.17300000000000E+00,2.67230000000000E+00,3.03740000000000E+00,3.20720000000000E+00,2.93320000000000E+00,2.93340000000000E+00,4.48060000000000E+00,4.84680000000000E+00,4.39910000000000E+00,4.24090000000000E+00,4.32360000000000E+00,7.50610000000000E+00,8.42760000000000E+00,8.49590000000000E+00,8.41130000000000E+00,7.87980000000000E+00,9.68970000000000E+00,8.36020000000000E+00,8.20770000000000E+00,8.11300000000000E+00,7.87520000000000E+00,1.18949000000000E+01,8.40010000000000E+00,7.75750000000000E+00,7.09880000000000E+00,6.66290000000000E+00,5.99470000000000E+00,4.47620000000000E+00,,,,,,,,,,,
GEO,,,,,,,,,,,,,,,,,,,,,,,,,,,,,,,,,0.00000000000000E+00,0.00000000000000E+00,0.00000000000000E+00,1.75100000000000E-01,1.35790000000000E+00,2.70980000000000E+00,3.76010000000000E+00,3.71480000000000E+00,4.03040000000000E+00,,,,,,,,,,,
GHA,,,,,,,,,,,1.22793000000000E+01,1.45414000000000E+01,1.41266000000000E+01,1.43016000000000E+01,1.54140000000000E+01,1.53799000000000E+01,1.71404000000000E+01,1.93309000000000E+01,1.89180000000000E+01,1.75866000000000E+01,1.28922000000000E+01,1.23582000000000E+01,1.28237000000000E+01,1.15175000000000E+01,1.08446000000000E+01,1.36750000000000E+01,1.37028000000000E+01,1.33978000000000E+01,3.15650000000000E+00,3.67200000000000E+00,3.84710000000000E+00,3.66940000000000E+00,3.27090000000000E+00,3.09790000000000E+00,3.00100000000000E+00,2.41050000000000E+00,2.83760000000000E+00,2.87400000000000E+00,2.30250000000000E+00,1.66560000000000E+00,1.23880000000000E+00,,,,,,,,,,,
GIN,,,,,,,,,,,7.13750000000000E+00,5.96990000000000E+00,5.19950000000000E+00,5.04420000000000E+00,4.79450000000000E+00,4.22050000000000E+00,4.79230000000000E+00,5.19990000000000E+00,5.24140000000000E+00,6.05270000000000E+00,5.13770000000000E+00,3.54530000000000E+00,3.37350000000000E+00,3.05820000000000E+00,2.74120000000000E+00,2.97730000000000E+00,2.50540000000000E+00,2.37150000000000E+00,1.92090000000000E+00,1.22380000000000E+00,1.34290000000000E+00,1.07400000000000E+00,9.48700000000000E-01,8.08900000000000E-01,8.31000000000000E-01,7.72000000000000E-01,7.13900000000000E-01,6.07400000000000E-01,6.06000000000000E-01,5.29400000000000E-01,5.03100000000000E-01,,,,,,,,,,,
GMB,,,,,,,,,,,0.00000000000000E+00,0.00000000000000E+00,0.00000000000000E+00,0.00000000000000E+00,0.00000000000000E+00,0.00000000000000E+00,7.06500000000000E-01,1.07097000000000E+01,0.00000000000000E+00,4.25110000000000E+00,1.83610000000000E+00,3.55400000000000E+00,3.02630000000000E+00,2.49450000000000E+00,2.09680000000000E+00,2.23600000000000E+00,2.66200000000000E+00,2.62230000000000E+00,2.05350000000000E+00,1.88430000000000E+00,1.81390000000000E+00,1.48980000000000E+00,1.05620000000000E+00,7.29100000000000E-01,4.59700000000000E-01,2.56600000000000E-01,2.06400000000000E-01,1.24100000000000E-01,1.22900000000000E-01,1.02700000000000E-01,9.04000000000000E-02,,,,,,,,,,,
GNB,,,,,,,,,,,0.00000000000000E+00,0.00000000000000E+00,0.00000000000000E+00,0.00000000000000E+00,0.00000000000000E+00,0.00000000000000E+00,0.00000000000000E+00,0.00000000000000E+00,0.00000000000000E+00,0.00000000000000E+00,0.00000000000000E+00,0.00000000000000E+00,0.00000000000000E+00,2.30600000000000E-01,3.16700000000000E-01,4.41600000000000E-01,5.90200000000000E-01,6.95900000000000E-01,5.20800000000000E-01,5.16500000000000E-01,5.09100000000000E-01,4.57800000000000E-01,4.19000000000000E-01,3.80800000000000E-01,3.93300000000000E-01,4.05800000000000E-01,3.77100000000000E-01,3.33800000000000E-01,3.41000000000000E-01,3.07100000000000E-01,2.89900000000000E-01,,,,,,,,,,,
GRD,,,,,,,,,,,0.00000000000000E+00,0.00000000000000E+00,0.00000000000000E+00,0.00000000000000E+00,0.00000000000000E+00,0.00000000000000E+00,0.00000000000000E+00,0.00000000000000E+00,0.00000000000000E+00,0.00000000000000E+00,0.00000000000000E+00,0.00000000000000E+00,0.00000000000000E+00,0.00000000000000E+00,0.00000000000000E+00,0.00000000000000E+00,0.00000000000000E+00,0.00000000000000E+00,0.00000000000000E+00,0.00000000000000E+00,0.00000000000000E+00,0.00000000000000E+00,0.00000000000000E+00,0.00000000000000E+00,0.00000000000000E+00,0.00000000000000E+00,0.00000000000000E+00,0.00000000000000E+00,0.00000000000000E+00,0.00000000000000E+00,0.00000000000000E+00,,,,,,,,,,,
GTM,,,,,,,,,,,0.00000000000000E+00,0.00000000000000E+00,0.00000000000000E+00,0.00000000000000E+00,0.00000000000000E+00,0.00000000000000E+00,0.00000000000000E+00,0.00000000000000E+00,0.00000000000000E+00,0.00000000000000E+00,0.00000000000000E+00,0.00000000000000E+00,3.74700000000000E-01,1.25280000000000E+00,1.03470000000000E+00,8.19300000000000E-01,7.71300000000000E-01,7.85100000000000E-01,8.26000000000000E-01,8.08500000000000E-01,1.76300000000000E+00,2.20410000000000E+00,2.40290000000000E+00,2.65940000000000E+00,2.88250000000000E+00,3.40620000000000E+00,3.56680000000000E+00,3.48690000000000E+00,3.64640000000000E+00,2.93630000000000E+00,2.62030000000000E+00,,,,,,,,,,,
GUY,,,,,,,,,,,0.00000000000000E+00,0.00000000000000E+00,0.00000000000000E+00,0.00000000000000E+00,0.00000000000000E+00,0.00000000000000E+00,0.00000000000000E+00,4.98100000000000E-01,1.05530000000000E+00,1.23220000000000E+00,8.17000000000000E-01,6.18200000000000E-01,4.56800000000000E-01,3.02500000000000E-01,1.92200000000000E-01,1.33400000000000E-01,2.74300000000000E-01,2.97300000000000E-01,2.57100000000000E-01,1.25460000000000E+00,2.16510000000000E+00,1.98440000000000E+00,2.46190000000000E+00,2.25690000000000E+00,2.55020000000000E+00,2.51530000000000E+00,1.97440000000000E+00,1.55940000000000E+00,1.60690000000000E+00,1.32450000000000E+00,1.20960000000000E+00,,,,,,,,,,,
HND,,,,,,,,,,,0.00000000000000E+00,0.00000000000000E+00,0.00000000000000E+00,0.00000000000000E+00,0.00000000000000E+00,0.00000000000000E+00,0.00000000000000E+00,0.00000000000000E+00,0.00000000000000E+00,0.00000000000000E+00,0.00000000000000E+00,0.00000000000000E+00,1.90400000000000E-01,1.98200000000000E-01,3.98400000000000E-01,1.01920000000000E+00,1.31480000000000E+00,1.77920000000000E+00,1.67730000000000E+00,2.25930000000000E+00,2.64900000000000E+00,3.23980000000000E+00,2.78640000000000E+00,2.67640000000000E+00,2.94050000000000E+00,3.16880000000000E+00,2.97010000000000E+00,2.91680000000000E+00,3.16320000000000E+00,2.37250000000000E+00,2.21890000000000E+00,,,,,,,,,,,
HTI,,,,,,,,,,,0.00000000000000E+00,0.00000000000000E+00,0.00000000000000E+00,0.00000000000000E+00,0.00000000000000E+00,0.00000000000000E+00,1.42490000000000E+00,1.43060000000000E+00,2.92810000000000E+00,3.44580000000000E+00,4.06140000000000E+00,3.08940000000000E+00,2.73050000000000E+00,2.55650000000000E+00,2.34340000000000E+00,0.00000000000000E+00,0.00000000000000E+00,0.00000000000000E+00,0.00000000000000E+00,0.00000000000000E+00,0.00000000000000E+00,0.00000000000000E+00,0.00000000000000E+00,0.00000000000000E+00,0.00000000000000E+00,0.00000000000000E+00,0.00000000000000E+00,0.00000000000000E+00,0.00000000000000E+00,0.00000000000000E+00,0.00000000000000E+00,,,,,,,,,,,
IDN,,,,,,,,,,,6.03710000000000E+00,9.57480000000000E+00,6.69190000000000E+00,6.74240000000000E+00,6.85050000000000E+00,5.39610000000000E+00,7.28480000000000E+00,7.52300000000000E+00,8.69010000000000E+00,8.42700000000000E+00,7.78760000000000E+00,8.75470000000000E+00,8.30830000000000E+00,7.14740000000000E+00,5.85390000000000E+00,6.33670000000000E+00,6.99840000000000E+00,6.37950000000000E+00,5.53870000000000E+00,5.16290000000000E+00,5.00630000000000E+00,4.85930000000000E+00,4.66290000000000E+00,4.10900000000000E+00,4.76400000000000E+00,4.92920000000000E+00,4.84140000000000E+00,4.66800000000000E+00,4.27280000000000E+00,3.20950000000000E+00,2.78080000000000E+00,,,,,,,,,,,
IND,,,,,,,,,,,9.41850000000000E+00,9.73500000000000E+00,9.78150000000000E+00,1.08717000000000E+01,1.14548000000000E+01,1.04340000000000E+01,1.13113000000000E+01,1.16941000000000E+01,1.28254000000000E+01,1.20970000000000E+01,1.04665000000000E+01,9.07030000000000E+00,8.47240000000000E+00,7.12820000000000E+00,6.18390000000000E+00,6.89670000000000E+00,8.12010000000000E+00,8.74630000000000E+00,7.18690000000000E+00,6.13630000000000E+00,6.71740000000000E+00,6.84740000000000E+00,6.44430000000000E+00,5.87770000000000E+00,6.23620000000000E+00,6.72310000000000E+00,6.31330000000000E+00,5.42580000000000E+00,5.84750000000000E+00,5.06410000000000E+00,4.19720000000000E+00,,,,,,,,,,,
IRN,,,,,,,,,,,,0.00000000000000E+00,0.00000000000000E+00,0.00000000000000E+00,0.00000000000000E+00,0.00000000000000E+00,0.00000000000000E+00,0.00000000000000E+00,0.00000000000000E+00,0.00000000000000E+00,1.54891000000000E+01,1.28332000000000E+01,1.18501000000000E+01,8.48520000000000E+00,4.13560000000000E+00,1.53540000000000E+00,8.06600000000000E-01,3.20100000000000E-01,1.74800000000000E-01,1.07800000000000E-01,0.00000000000000E+00,1.91511000000000E+01,7.21106000000000E+01,3.31556000000000E+01,1.79010000000000E+01,1.60049000000000E+01,1.37506000000000E+01,1.33933000000000E+01,9.17470000000000E+00,6.66710000000000E+00,6.49840000000000E+00,,,,,,,,,,,
JAM,,,,,,,,,,,0.00000000000000E+00,0.00000000000000E+00,0.00000000000000E+00,3.21180000000000E+00,2.06920000000000E+00,1.21230000000000E+00,9.58300000000000E-01,8.97700000000000E-01,7.66600000000000E-01,5.66200000000000E-01,7.28400000000000E-01,8.76700000000000E-01,8.22900000000000E-01,7.82200000000000E-01,7.46000000000000E-01,8.96600000000000E-01,1.18550000000000E+00,1.52540000000000E+00,1.60040000000000E+00,1.71240000000000E+00,1.94420000000000E+00,2.57930000000000E+00,2.40160000000000E+00,2.42360000000000E+00,2.77040000000000E+00,3.18540000000000E+00,3.13960000000000E+00,2.94670000000000E+00,2.83090000000000E+00,2.29840000000000E+00,2.14690000000000E+00,,,,,,,,,,,
JOR,,,,,,,,,,,8.70920000000000E+00,8.69830000000000E+00,1.57385000000000E+01,1.85816000000000E+01,2.14387000000000E+01,1.91410000000000E+01,2.15026000000000E+01,1.75135000000000E+01,1.60655000000000E+01,1.43297000000000E+01,1.13751000000000E+01,9.41040000000000E+00,7.74210000000000E+00,5.82340000000000E+00,4.77470000000000E+00,5.41630000000000E+00,5.73010000000000E+00,6.02920000000000E+00,6.18870000000000E+00,7.15940000000000E+00,7.67380000000000E+00,7.40150000000000E+00,8.06900000000000E+00,7.12440000000000E+00,7.74270000000000E+00,7.86910000000000E+00,7.40270000000000E+00,6.57660000000000E+00,6.97510000000000E+00,6.03760000000000E+00,5.74940000000000E+00,,,,,,,,,,,
KAZ,,,,,,,,,,,,,,,,,,,,,,,,,,,,,,,,,1.00000000000000E+02,1.87226000000000E+01,2.26426000000000E+01,2.15965000000000E+01,2.80330000000000E+01,1.73267000000000E+01,1.32541000000000E+01,7.81430000000000E+00,4.73770000000000E+00,,,,,,,,,,,
KEN,,,,,,,,,,,5.94970000000000E+00,6.82360000000000E+00,5.94670000000000E+00,5.56920000000000E+00,5.78470000000000E+00,7.06640000000000E+00,9.19540000000000E+00,1.19568000000000E+01,1.41668000000000E+01,1.36656000000000E+01,9.81750000000000E+00,9.15910000000000E+00,8.45060000000000E+00,7.80620000000000E+00,7.42120000000000E+00,8.68390000000000E+00,9.44050000000000E+00,9.50730000000000E+00,8.52270000000000E+00,1.79450000000000E+00,1.71580000000000E+00,1.55340000000000E+00,1.61130000000000E+00,1.54910000000000E+00,1.85530000000000E+00,2.41090000000000E+00,2.21370000000000E+00,2.44840000000000E+00,2.34830000000000E+00,2.13880000000000E+00,1.94910000000000E+00,,,,,,,,,,,
KGZ,,,,,,,,,,,,,,,,,,,,,,,,,,,,,,,,,0.00000000000000E+00,0.00000000000000E+00,3.99100000000000E-01,2.50050000000000E+00,2.51930000000000E+00,2.48210000000000E+00,2.93520000000000E+00,2.27090000000000E+00,1.99650000000000E+00,,,,,,,,,,,
KHM,,,,,,,,,,,,,,,,,,,,,,0.00000000000000E+00,0.00000000000000E+00,0.00000000000000E+00,0.00000000000000E+00,0.00000000000000E+00,0.00000000000000E+00,0.00000000000000E+00,0.00000000000000E+00,3.92700000000000E-01,4.09600000000000E-01,4.03400000000000E-01,0.00000000000000E+00,0.00000000000000E+00,0.00000000000000E+00,1.17700000000000E-01,1.05200000000000E-01,9.06000000000000E-02,9.41000000000000E-02,7.98000000000000E-02,7.28000000000000E-02,,,,,,,,,,,
KNA,,,,,,,,,,,,,,,,,,,,,,,,,0.00000000000000E+00,0.00000000000000E+00,0.00000000000000E+00,0.00000000000000E+00,0.00000000000000E+00,0.00000000000000E+00,0.00000000000000E+00,0.00000000000000E+00,0.00000000000000E+00,0.00000000000000E+00,0.00000000000000E+00,0.00000000000000E+00,0.00000000000000E+00,0.00000000000000E+00,0.00000000000000E+00,0.00000000000000E+00,0.00000000000000E+00,,,,,,,,,,,
LAC,,,,,,,,,,,8.34522875198496E+00,8.07820526158501E+00,6.70061721565047E+00,6.51695349542541E+00,5.34869120962158E+00,4.21896117662042E+00,4.36503079092007E+00,6.31951169002925E+00,7.96526049701011E+00,7.08063747401968E+00,6.22020825819249E+00,4.79707817894210E+00,4.19768527551717E+00,3.52734076420450E+00,2.95830589537873E+00,3.59606337138829E+00,3.90421546659815E+00,4.77125574477722E+00,4.48942432997386E+00,5.39958084614036E+00,6.35248850182465E+00,6.26432969431500E+00,5.52868863062287E+00,5.01169887774870E+00,4.89565673847866E+00,5.53524061450631E+00,6.52629612240092E+00,6.29184267066350E+00,5.93344025960206E+00,4.68374758368356E+00,3.96651360154686E+00,,,,,,,,,,,
LAO,,,,,,,,,,,7.72678000000000E+01,8.26329000000000E+01,8.24753000000000E+01,6.69693000000000E+01,6.77836000000000E+01,5.20735000000000E+01,2.79733000000000E+01,1.81667000000000E+01,1.84259000000000E+01,1.34451000000000E+01,1.02966000000000E+01,7.81790000000000E+00,6.55500000000000E+00,5.29500000000000E+00,3.85030000000000E+00,4.00690000000000E+00,3.46380000000000E+00,2.96210000000000E+00,2.18820000000000E+00,1.98260000000000E+00,1.84080000000000E+00,0.00000000000000E+00,0.00000000000000E+00,0.00000000000000E+00,0.00000000000000E+00,6.67000000000000E-02,5.88000000000000E-02,4.95000000000000E-02,4.28000000000000E-02,2.83000000000000E-02,1.98000000000000E-02,,,,,,,,,,,
LBN,,,,,,,,,,,0.00000000000000E+00,0.00000000000000E+00,0.00000000000000E+00,0.00000000000000E+00,0.00000000000000E+00,0.00000000000000E+00,0.00000000000000E+00,0.00000000000000E+00,0.00000000000000E+00,4.93800000000000E-01,7.49900000000000E-01,1.04770000000000E+00,1.18420000000000E+00,1.77180000000000E+00,2.11360000000000E+00,2.95320000000000E+00,3.72810000000000E+00,4.47630000000000E+00,4.21750000000000E+00,4.64010000000000E+00,5.21560000000000E+00,4.47250000000000E+00,3.77060000000000E+00,2.56690000000000E+00,1.18500000000000E+00,1.10160000000000E+00,2.66850000000000E+00,8.06340000000000E+00,4.85010000000000E+00,3.07190000000000E+00,2.26110000000000E+00,,,,,,,,,,,
LBR,,,,,,,,,,,1.27357000000000E+01,1.19767000000000E+01,1.14165000000000E+01,1.28623000000000E+01,1.31413000000000E+01,1.06737000000000E+01,1.06366000000000E+01,1.00188000000000E+01,1.02302000000000E+01,1.03458000000000E+01,9.22010000000000E+00,8.82930000000000E+00,8.48140000000000E+00,8.01130000000000E+00,7.26600000000000E+00,8.31700000000000E+00,9.64080000000000E+00,1.04784000000000E+01,9.63060000000000E+00,1.02157000000000E+01,1.10644000000000E+01,1.09977000000000E+01,1.05703000000000E+01,9.69940000000000E+00,1.04745000000000E+01,1.11882000000000E+01,1.07990000000000E+01,9.80580000000000E+00,1.02018000000000E+01,9.01950000000000E+00,7.96750000000000E+00,,,,,,,,,,,
LCA,,,,,,,,,,,,,,,,,,,,,,3.72540000000000E+00,4.14060000000000E+00,4.37860000000000E+00,4.88790000000000E+00,7.03070000000000E+00,8.23610000000000E+00,7.32820000000000E+00,6.03820000000000E+00,5.67140000000000E+00,6.02100000000000E+00,5.46410000000000E+00,4.12790000000000E+00,3.18690000000000E+00,2.95110000000000E+00,2.66050000000000E+00,1.99780000000000E+00,1.55750000000000E+00,1.39090000000000E+00,1.02020000000000E+00,7.00400000000000E-01,,,,,,,,,,,
LIC,,,,,,,,,,,6.65835699822290E+00,5.87791504470485E+00,6.36415160578447E+00,6.59504129159822E+00,7.37405898686385E+00,7.40960935590637E+00,8.03952357509623E+00,8.13184942575203E+00,8.98474802761934E+00,6.17084809281725E+00,4.99327959211790E+00,4.63697342493436E+00,4.40235810563825E+00,4.21211726980503E+00,3.36504238953124E+00,3.88480987960933E+00,4.58068666255006E+00,4.77815120428328E+00,3.83684108831814E+00,3.48574620148710E+00,3.44304993310682E+00,3.30391227204697E+00,3.17908472992465E+00,2.95969365702568E+00,3.18820601601361E+00,3.13145509366624E+00,3.52477157721843E+00,3.07094211674449E+00,3.17640899998616E+00,3.03054585644757E+00,2.89461520194239E+00,,,,,,,,,,,
LKA,,,,,,,,,,,1.37621000000000E+01,1.38942000000000E+01,1.35767000000000E+01,1.44013000000000E+01,1.44696000000000E+01,1.35027000000000E+01,1.27176000000000E+01,1.21588000000000E+01,1.32481000000000E+01,1.44514000000000E+01,1.12093000000000E+01,7.73700000000000E+00,5.86960000000000E+00,6.39100000000000E+00,6.18160000000000E+00,8.58950000000000E+00,1.08583000000000E+01,1.19548000000000E+01,1.09324000000000E+01,1.19744000000000E+01,1.20435000000000E+01,1.03402000000000E+01,9.46960000000000E+00,8.02170000000000E+00,7.91930000000000E+00,7.85700000000000E+00,7.16200000000000E+00,6.25490000000000E+00,5.88710000000000E+00,4.75070000000000E+00,4.72390000000000E+00,,,,,,,,,,,
LMC,,,,,,,,,,,8.64681925700023E+00,9.50437169351510E+00,8.79714212576498E+00,9.15017547271976E+00,9.56971152843576E+00,7.92166362485815E+00,8.50075326992836E+00,8.21263611273259E+00,8.45356791188759E+00,8.33062672993681E+00,7.19047707571327E+00,6.57033351194279E+00,6.48069767291896E+00,5.57783866380245E+00,4.85304348999386E+00,5.43074274415867E+00,6.39893132211001E+00,6.91232341846303E+00,6.14862158393797E+00,5.88639865375168E+00,6.54360479237362E+00,6.45587679810427E+00,5.99108106638511E+00,5.61008903955165E+00,6.13123494494037E+00,6.38443064250485E+00,6.00092421118944E+00,5.47332786724964E+00,5.67033228234792E+00,4.70646742242387E+00,3.64368329309468E+00,,,,,,,,,,,
LMY,,,,,,,,,,,8.93253305964797E+00,9.11711522394197E+00,8.28058505530397E+00,8.53392520420387E+00,8.16890807993370E+00,6.68237987626861E+00,6.98729104255210E+00,7.85249624556447E+00,8.94492966959493E+00,8.49036760748379E+00,7.29165882194992E+00,6.28929700583902E+00,5.94689668929319E+00,5.26161361117072E+00,4.44713053662933E+00,5.24672519903192E+00,6.11002264472260E+00,6.99976611291948E+00,6.48393803781428E+00,7.21894124031969E+00,8.31126282359806E+00,8.67450474490991E+00,8.44337929157632E+00,7.52625799170818E+00,7.87257680893399E+00,8.34895494962275E+00,8.76389094334452E+00,7.89673953524956E+00,8.15897365920422E+00,6.58097028297503E+00,5.59482976830167E+00,,,,,,,,,,,
LSO,,,,,,,,,,,0.00000000000000E+00,0.00000000000000E+00,0.00000000000000E+00,0.00000000000000E+00,0.00000000000000E+00,0.00000000000000E+00,0.00000000000000E+00,0.00000000000000E+00,0.00000000000000E+00,2.74580000000000E+00,0.00000000000000E+00,0.00000000000000E+00,0.00000000000000E+00,0.00000000000000E+00,0.00000000000000E+00,0.00000000000000E+00,1.60460000000000E+00,1.25590000000000E+00,8.41600000000000E-01,5.99700000000000E-01,4.07400000000000E-01,2.13700000000000E-01,6.15000000000000E-02,0.00000000000000E+00,0.00000000000000E+00,0.00000000000000E+00,0.00000000000000E+00,0.00000000000000E+00,0.00000000000000E+00,0.00000000000000E+00,0.00000000000000E+00,,,,,,,,,,,
LTU,,,,,,,,,,,,,,,,,,,,,,,,,,,,,,,,,0.00000000000000E+00,4.62870000000000E+00,1.13147000000000E+01,1.73343000000000E+01,8.84940000000000E+00,6.02330000000000E+00,4.60800000000000E+00,2.95360000000000E+00,1.55210000000000E+00,,,,,,,,,,,
LVA,,,,,,,,,,,,,,,,,,,,,,,,,,,,,,,,,8.08280000000000E+00,3.75580000000000E+00,3.56550000000000E+00,8.50460000000000E+00,8.13600000000000E+00,1.01840000000000E+01,1.76452000000000E+01,7.47900000000000E+00,7.64330000000000E+00,,,,,,,,,,,
MAR,,,,,,,,,,,1.16981000000000E+01,1.32685000000000E+01,1.28611000000000E+01,1.57479000000000E+01,1.51214000000000E+01,8.36900000000000E+00,7.65900000000000E+00,5.40230000000000E+00,5.28970000000000E+00,4.98510000000000E+00,3.72140000000000E+00,3.17710000000000E+00,3.89020000000000E+00,4.30070000000000E+00,3.91710000000000E+00,4.68920000000000E+00,5.44850000000000E+00,5.93630000000000E+00,5.46200000000000E+00,5.38360000000000E+00,5.23100000000000E+00,6.28480000000000E+00,6.67160000000000E+00,7.20850000000000E+00,7.51490000000000E+00,7.47140000000000E+00,6.74320000000000E+00,6.43790000000000E+00,6.41480000000000E+00,5.72670000000000E+00,5.44110000000000E+00,,,,,,,,,,,
MDA,,,,,,,,,,,,,,,,,,,,,,,,,,,,,,,,,0.00000000000000E+00,0.00000000000000E+00,0.00000000000000E+00,1.85840000000000E+00,6.38550000000000E+00,4.76710000000000E+00,5.19890000000000E+00,6.06450000000000E+00,4.56820000000000E+00,,,,,,,,,,,
MDG,,,,,,,,,,,2.34590000000000E+00,2.41930000000000E+00,2.50190000000000E+00,3.34050000000000E+00,2.75920000000000E+00,2.41940000000000E+00,1.21796000000000E+01,4.61420000000000E+00,1.73724000000000E+01,8.44830000000000E+00,5.08380000000000E+00,6.75640000000000E+00,5.39010000000000E+00,4.67980000000000E+00,3.94910000000000E+00,4.60590000000000E+00,5.27630000000000E+00,5.65170000000000E+00,5.06770000000000E+00,3.08000000000000E+00,3.28150000000000E+00,3.20750000000000E+00,3.03320000000000E+00,3.08590000000000E+00,3.29310000000000E+00,3.30170000000000E+00,3.00780000000000E+00,1.81840000000000E+00,1.85070000000000E+00,1.47690000000000E+00,1.39000000000000E+00,,,,,,,,,,,
MDV,,,,,,,,,,,,,,,,,,,0.00000000000000E+00,0.00000000000000E+00,0.00000000000000E+00,0.00000000000000E+00,0.00000000000000E+00,0.00000000000000E+00,0.00000000000000E+00,0.00000000000000E+00,1.99370000000000E+00,1.80640000000000E+00,1.19440000000000E+00,8.19900000000000E-01,1.30286000000000E+01,8.87720000000000E+00,5.98880000000000E+00,5.48530000000000E+00,4.06290000000000E+00,2.29270000000000E+00,8.62200000000000E-01,1.29000000000000E-01,2.60740000000000E+00,1.94120000000000E+00,1.54610000000000E+00,,,,,,,,,,,
MEX,,,,,,,,,,,1.12150000000000E+01,1.07894000000000E+01,7.74660000000000E+00,6.15460000000000E+00,4.37260000000000E+00,2.90570000000000E+00,3.84480000000000E+00,6.14210000000000E+00,7.35720000000000E+00,5.85490000000000E+00,4.30680000000000E+00,2.73400000000000E+00,2.70790000000000E+00,2.03970000000000E+00,1.52050000000000E+00,1.86420000000000E+00,2.36370000000000E+00,3.07480000000000E+00,3.28990000000000E+00,4.15400000000000E+00,3.70840000000000E+00,3.94260000000000E+00,4.12750000000000E+00,3.71670000000000E+00,3.80630000000000E+00,2.99530000000000E+00,3.49330000000000E+00,4.75900000000000E+00,4.76630000000000E+00,3.66980000000000E+00,1.57670000000000E+00,,,,,,,,,,,
MIC,,,,,,,,,,,9.09662887421468E+00,9.42038238798284E+00,8.46107443441209E+00,8.72862248843027E+00,8.25509115306267E+00,6.60789152569739E+00,6.88989326416106E+00,7.82576285122721E+00,8.94134374152449E+00,8.68389419262117E+00,7.48053534666721E+00,6.42545346952763E+00,6.07194841274825E+00,5.33978797702764E+00,4.52571658157585E+00,5.35196369913404E+00,6.22940386941765E+00,7.17596106029733E+00,6.69582790907730E+00,7.51831657455830E+00,8.72599107320530E+00,9.14678218882895E+00,8.90591091124015E+00,7.90644990111245E+00,8.25783892666272E+00,8.76262629238687E+00,9.10839174048433E+00,8.21306454979132E+00,8.47702069652130E+00,6.78859966244720E+00,5.75144431633814E+00,,,,,,,,,,,
MKD,,,,,,,,,,,,,,,,,,,,,,,,,,,,,,,,,,4.38730000000000E+00,5.70230000000000E+00,1.38543000000000E+01,1.35698000000000E+01,1.41291000000000E+01,1.55977000000000E+01,1.13726000000000E+01,8.89750000000000E+00,,,,,,,,,,,
MLI,,,,,,,,,,,2.83720000000000E+00,2.89640000000000E+00,4.02080000000000E+00,4.33840000000000E+00,6.83170000000000E+00,6.78480000000000E+00,1.04635000000000E+01,1.09843000000000E+01,1.28484000000000E+01,1.46830000000000E+00,9.34200000000000E-01,6.88500000000000E-01,5.45500000000000E-01,1.31800000000000E+00,1.22070000000000E+00,1.54180000000000E+00,1.78530000000000E+00,1.86770000000000E+00,2.64800000000000E-01,2.24200000000000E-01,1.82500000000000E-01,1.46500000000000E-01,2.15400000000000E-01,1.99700000000000E-01,1.90300000000000E-01,1.82600000000000E-01,1.59100000000000E-01,1.34300000000000E-01,1.27900000000000E-01,1.02700000000000E-01,9.24000000000000E-02,,,,,,,,,,,
MMR,,,,,,,,,,,1.53733000000000E+01,1.82847000000000E+01,2.21410000000000E+01,1.92828000000000E+01,1.76479000000000E+01,1.70504000000000E+01,1.52167000000000E+01,1.47514000000000E+01,1.15777000000000E+01,1.22197000000000E+01,1.15849000000000E+01,1.14290000000000E+01,1.18164000000000E+01,1.32317000000000E+01,1.12630000000000E+01,1.29772000000000E+01,1.34430000000000E+01,1.28471000000000E+01,1.15867000000000E+01,1.38010000000000E+01,1.23901000000000E+01,1.26529000000000E+01,1.17863000000000E+01,1.05629000000000E+01,1.11789000000000E+01,1.19947000000000E+01,1.19790000000000E+01,1.03127000000000E+01,1.04813000000000E+01,8.82400000000000E+00,8.28670000000000E+00,,,,,,,,,,,
MNA,,,,,,,,,,,8.10418733504296E+00,8.73893404418530E+00,9.21350514354791E+00,8.17767694176285E+00,9.01868512029371E+00,5.95153032019675E+00,7.32539643813544E+00,7.39417969676543E+00,8.48288122183492E+00,8.69128057027473E+00,7.48064894682404E+00,6.07352572343688E+00,6.04372623929637E+00,5.23577536172066E+00,4.34905268922371E+00,4.75652559691359E+00,5.47266483740504E+00,6.75269168127901E+00,6.42577104016375E+00,7.53857701482158E+00,9.15526199184237E+00,9.24844121149183E+00,9.87278950776927E+00,9.55174150225426E+00,9.53355689160475E+00,8.55542847365407E+00,7.81208246423409E+00,7.35088908714112E+00,6.75982376500814E+00,5.78395119234989E+00,5.37465945091760E+00,,,,,,,,,,,
MNG,,,,,,,,,,,,,,,,,,,,,,,,,,,,,,,,,3.13480000000000E+00,3.33420000000000E+00,3.90070000000000E+00,5.13280000000000E+00,5.37930000000000E+00,5.16310000000000E+00,5.19400000000000E+00,3.96580000000000E+00,4.29180000000000E+00,,,,,,,,,,,
MOZ,,,,,,,,,,,,,,,,,,,,,,,,,1.23880000000000E+00,3.10020000000000E+00,3.80640000000000E+00,4.78200000000000E+00,4.71000000000000E+00,5.08520000000000E+00,5.09660000000000E+00,5.33680000000000E+00,4.73660000000000E+00,4.79010000000000E+00,5.54190000000000E+00,4.66020000000000E+00,4.51860000000000E+00,4.01820000000000E+00,3.84280000000000E+00,4.17790000000000E+00,3.97800000000000E+00,,,,,,,,,,,
MRT,,,,,,,,,,,0.00000000000000E+00,6.26900000000000E-01,7.63400000000000E-01,1.53060000000000E+00,1.45750000000000E+00,1.65930000000000E+00,1.05170000000000E+00,1.51210000000000E+00,3.54600000000000E+00,3.67560000000000E+00,3.07960000000000E+00,2.40760000000000E+00,2.65700000000000E+00,2.84430000000000E+00,2.71910000000000E+00,3.34660000000000E+00,3.83150000000000E+00,4.05140000000000E+00,3.62710000000000E+00,5.71700000000000E-01,6.22900000000000E-01,5.68800000000000E-01,5.25800000000000E-01,5.05900000000000E-01,5.21700000000000E-01,5.28100000000000E-01,5.22000000000000E-01,4.73600000000000E-01,4.99900000000000E-01,4.14000000000000E-01,3.87400000000000E-01,,,,,,,,,,,
MUS,,,,,,,,,,,0.00000000000000E+00,0.00000000000000E+00,0.00000000000000E+00,0.00000000000000E+00,0.00000000000000E+00,0.00000000000000E+00,0.00000000000000E+00,0.00000000000000E+00,0.00000000000000E+00,0.00000000000000E+00,0.00000000000000E+00,2.56400000000000E-01,2.00100000000000E-01,2.64000000000000E-01,3.94700000000000E-01,7.01600000000000E-01,9.56600000000000E-01,2.40620000000000E+00,3.02610000000000E+00,3.13850000000000E+00,6.35070000000000E+00,5.41230000000000E+00,5.08800000000000E+00,4.37650000000000E+00,3.72350000000000E+00,2.60830000000000E+00,2.06250000000000E+00,1.33780000000000E+00,1.25200000000000E+00,8.82800000000000E-01,8.89100000000000E-01,,,,,,,,,,,
MWI,,,,,,,,,,,4.13210000000000E+00,5.39780000000000E+00,5.11330000000000E+00,5.13680000000000E+00,5.15480000000000E+00,8.52560000000000E+00,8.25870000000000E+00,8.74680000000000E+00,8.51240000000000E+00,2.70630000000000E+00,2.49110000000000E+00,3.50200000000000E+00,3.11250000000000E+00,1.41940000000000E+00,7.20700000000000E-01,1.97950000000000E+00,1.56320000000000E+00,1.29420000000000E+00,6.85700000000000E-01,6.72500000000000E-01,7.13500000000000E-01,3.69700000000000E-01,2.63200000000000E-01,1.83600000000000E-01,1.43300000000000E-01,3.32500000000000E-01,2.74300000000000E-01,2.27500000000000E-01,2.11700000000000E-01,1.62100000000000E-01,1.52600000000000E-01,,,,,,,,,,,
MYS,,,,,,,,,,,6.90970000000000E+00,5.51770000000000E+00,7.67220000000000E+00,7.14370000000000E+00,5.83210000000000E+00,3.18520000000000E+00,2.66620000000000E+00,5.93530000000000E+00,5.65740000000000E+00,5.06140000000000E+00,3.28880000000000E+00,2.09920000000000E+00,2.35260000000000E+00,3.22500000000000E+00,2.39120000000000E+00,6.03880000000000E+00,7.02760000000000E+00,8.54050000000000E+00,9.08780000000000E+00,1.12347000000000E+01,5.85080000000000E+00,4.56700000000000E+00,4.00390000000000E+00,3.01160000000000E+00,2.21410000000000E+00,1.10550000000000E+00,8.38000000000000E-01,5.15700000000000E-01,4.24400000000000E-01,2.79600000000000E-01,1.88400000000000E-01,,,,,,,,,,,
NER,,,,,,,,,,,1.20063000000000E+01,1.16130000000000E+01,9.23520000000000E+00,1.02601000000000E+01,1.12187000000000E+01,1.14003000000000E+01,1.40934000000000E+01,2.25899000000000E+01,1.88771000000000E+01,5.65000000000000E-02,0.00000000000000E+00,0.00000000000000E+00,0.00000000000000E+00,0.00000000000000E+00,0.00000000000000E+00,0.00000000000000E+00,0.00000000000000E+00,0.00000000000000E+00,0.00000000000000E+00,0.00000000000000E+00,0.00000000000000E+00,6.06600000000000E-01,5.56300000000000E-01,4.69900000000000E-01,5.00600000000000E-01,5.11000000000000E-01,0.00000000000000E+00,0.00000000000000E+00,0.00000000000000E+00,0.00000000000000E+00,0.00000000000000E+00,,,,,,,,,,,
NGA,,,,,,,,,,,8.95650000000000E+00,6.69350000000000E+00,5.80010000000000E+00,4.09080000000000E+00,5.92930000000000E+00,5.67720000000000E+00,6.93370000000000E+00,7.33920000000000E+00,3.10610000000000E+00,1.61692000000000E+01,2.35432000000000E+01,2.50169000000000E+01,2.36029000000000E+01,1.48159000000000E+01,1.34968000000000E+01,1.30613000000000E+01,1.46232000000000E+01,1.34873000000000E+01,1.17599000000000E+01,1.21962000000000E+01,1.48495000000000E+01,1.45933000000000E+01,1.36489000000000E+01,1.27886000000000E+01,1.33147000000000E+01,1.41789000000000E+01,1.11433000000000E+01,1.08562000000000E+01,1.12254000000000E+01,1.00926000000000E+01,6.86600000000000E-01,,,,,,,,,,,
NIC,,,,,,,,,,,3.93750000000000E+00,2.86900000000000E+00,2.76540000000000E+00,3.08040000000000E+00,2.82620000000000E+00,2.30160000000000E+00,2.97950000000000E+00,4.14920000000000E+00,4.32940000000000E+00,3.83410000000000E+00,2.87340000000000E+00,2.17840000000000E+00,2.41580000000000E+00,1.44990000000000E+00,1.03560000000000E+00,1.09180000000000E+00,1.16980000000000E+00,1.28240000000000E+00,1.05990000000000E+00,1.01310000000000E+00,1.25200000000000E+00,1.83720000000000E+00,1.87280000000000E+00,1.74740000000000E+00,1.92080000000000E+00,4.73550000000000E+00,8.20120000000000E+00,7.12930000000000E+00,7.77860000000000E+00,6.75480000000000E+00,6.67140000000000E+00,,,,,,,,,,,
NPL,,,,,,,,,,,2.03717000000000E+01,7.65240000000000E+00,1.49353000000000E+01,1.27240000000000E+01,1.10275000000000E+01,9.81530000000000E+00,9.98800000000000E+00,7.16660000000000E+00,0.00000000000000E+00,0.00000000000000E+00,0.00000000000000E+00,3.36600000000000E-01,1.02310000000000E+00,1.41320000000000E+00,1.26500000000000E+00,1.52030000000000E+00,1.51020000000000E+00,1.40380000000000E+00,1.05400000000000E+00,9.35400000000000E-01,8.72000000000000E-01,7.49900000000000E-01,6.03000000000000E-01,4.13100000000000E-01,2.85100000000000E-01,2.88500000000000E-01,2.65000000000000E-01,2.26400000000000E-01,2.17000000000000E-01,9.06000000000000E-02,8.48000000000000E-02,,,,,,,,,,,
PAK,,,,,,,,,,,8.73900000000000E+00,9.01970000000000E+00,8.59560000000000E+00,1.02635000000000E+01,1.08998000000000E+01,9.69730000000000E+00,9.61140000000000E+00,1.00710000000000E+01,1.11293000000000E+01,1.10251000000000E+01,9.29820000000000E+00,8.51310000000000E+00,7.37630000000000E+00,6.41030000000000E+00,5.58520000000000E+00,7.03650000000000E+00,8.99650000000000E+00,9.96800000000000E+00,9.07340000000000E+00,9.91540000000000E+00,1.02449000000000E+01,9.75450000000000E+00,8.83690000000000E+00,7.41170000000000E+00,8.03680000000000E+00,8.17290000000000E+00,7.39310000000000E+00,5.96290000000000E+00,5.70390000000000E+00,4.84680000000000E+00,4.51860000000000E+00,,,,,,,,,,,
PAN,,,,,,,,,,,0.00000000000000E+00,0.00000000000000E+00,0.00000000000000E+00,0.00000000000000E+00,0.00000000000000E+00,0.00000000000000E+00,0.00000000000000E+00,0.00000000000000E+00,0.00000000000000E+00,0.00000000000000E+00,0.00000000000000E+00,0.00000000000000E+00,0.00000000000000E+00,0.00000000000000E+00,0.00000000000000E+00,0.00000000000000E+00,2.90000000000000E-03,4.29000000000000E-02,3.83000000000000E-02,4.16000000000000E-02,4.74000000000000E-02,4.66000000000000E-02,4.67000000000000E-02,4.33000000000000E-02,4.64000000000000E-02,5.02000000000000E-02,0.00000000000000E+00,0.00000000000000E+00,0.00000000000000E+00,0.00000000000000E+00,0.00000000000000E+00,,,,,,,,,,,
PER,,,,,,,,,,,1.38615000000000E+01,1.28864000000000E+01,1.04603000000000E+01,5.90100000000000E+00,3.61870000000000E+00,3.10900000000000E+00,2.76950000000000E+00,2.68790000000000E+00,4.42210000000000E+00,5.48610000000000E+00,6.54960000000000E+00,7.10580000000000E+00,5.16450000000000E+00,4.24030000000000E+00,3.34740000000000E+00,3.47260000000000E+00,4.19460000000000E+00,4.79330000000000E+00,4.45500000000000E+00,4.65060000000000E+00,5.01150000000000E+00,4.58490000000000E+00,4.46500000000000E+00,4.13780000000000E+00,4.38600000000000E+00,4.44610000000000E+00,3.54520000000000E+00,3.24860000000000E+00,2.12190000000000E+00,1.68980000000000E+00,1.54930000000000E+00,,,,,,,,,,,
PHL,,,,,,,,,,,1.19683000000000E+01,1.15974000000000E+01,8.26090000000000E+00,7.81900000000000E+00,5.86720000000000E+00,3.81750000000000E+00,2.34030000000000E+00,3.31830000000000E+00,3.82710000000000E+00,3.10780000000000E+00,1.95630000000000E+00,1.36110000000000E+00,1.16180000000000E+00,1.03630000000000E+00,6.94200000000000E-01,7.15900000000000E-01,9.60100000000000E-01,1.21160000000000E+00,1.42320000000000E+00,1.60950000000000E+00,1.48610000000000E+00,1.57320000000000E+00,1.48590000000000E+00,1.37470000000000E+00,1.40860000000000E+00,1.51140000000000E+00,1.66200000000000E+00,1.44960000000000E+00,1.38250000000000E+00,9.62600000000000E-01,8.05200000000000E-01,,,,,,,,,,,
PNG,,,,,,,,,,,0.00000000000000E+00,0.00000000000000E+00,0.00000000000000E+00,8.42430000000000E+00,8.49340000000000E+00,6.93250000000000E+00,7.40040000000000E+00,6.95540000000000E+00,7.43180000000000E+00,6.60850000000000E+00,5.16140000000000E+00,3.86350000000000E+00,3.08930000000000E+00,1.92550000000000E+00,1.95300000000000E+00,2.07650000000000E+00,2.31230000000000E+00,2.31840000000000E+00,1.91080000000000E+00,1.88010000000000E+00,1.80260000000000E+00,1.68400000000000E+00,1.69040000000000E+00,1.53430000000000E+00,1.55380000000000E+00,1.61180000000000E+00,1.50520000000000E+00,1.38270000000000E+00,1.26350000000000E+00,9.43600000000000E-01,8.11100000000000E-01,,,,,,,,,,,
PRY,,,,,,,,,,,1.14341000000000E+01,1.04556000000000E+01,1.45920000000000E+01,1.73835000000000E+01,1.67220000000000E+01,1.24702000000000E+01,1.23922000000000E+01,1.11543000000000E+01,1.19904000000000E+01,9.90910000000000E+00,9.44790000000000E+00,9.07020000000000E+00,6.25230000000000E+00,4.40510000000000E+00,3.33880000000000E+00,3.25110000000000E+00,4.50350000000000E+00,5.17850000000000E+00,6.00400000000000E+00,7.84260000000000E+00,1.14716000000000E+01,1.03048000000000E+01,1.08592000000000E+01,1.00346000000000E+01,1.01374000000000E+01,9.06180000000000E+00,6.74790000000000E+00,6.17170000000000E+00,5.45600000000000E+00,3.19860000000000E+00,2.59950000000000E+00,,,,,,,,,,,
ROM,,,,,,,,,,,,,0.00000000000000E+00,0.00000000000000E+00,0.00000000000000E+00,0.00000000000000E+00,0.00000000000000E+00,0.00000000000000E+00,0.00000000000000E+00,0.00000000000000E+00,2.14340000000000E+00,2.37970000000000E+00,2.53770000000000E+00,1.81110000000000E+00,8.06800000000000E-01,7.71800000000000E-01,3.90700000000000E-01,1.69100000000000E-01,0.00000000000000E+00,0.00000000000000E+00,0.00000000000000E+00,0.00000000000000E+00,0.00000000000000E+00,3.50080000000000E+00,4.31980000000000E+00,1.07880000000000E+01,7.87920000000000E+00,1.18476000000000E+01,1.22783000000000E+01,1.22993000000000E+01,9.34300000000000E+00,,,,,,,,,,,
RUS,,,,,,,,,,,,,,,,,,,,,,,,,,,,,,,,,3.89965000000000E+01,2.40338000000000E+01,2.78116000000000E+01,3.42206000000000E+01,3.77949000000000E+01,2.89335000000000E+01,2.89407000000000E+01,2.19764000000000E+01,2.08340000000000E+01,,,,,,,,,,,
RWA,,,,,,,,,,,4.66393000000000E+01,5.35035000000000E+01,3.07329000000000E+01,1.55673000000000E+01,1.09902000000000E+01,6.40940000000000E+00,1.13442000000000E+01,1.43225000000000E+01,1.35095000000000E+01,9.30300000000000E-01,7.63300000000000E-01,0.00000000000000E+00,0.00000000000000E+00,0.00000000000000E+00,3.07040000000000E+00,2.68440000000000E+00,1.57050000000000E+00,7.74000000000000E-01,3.77300000000000E-01,1.38900000000000E-01,0.00000000000000E+00,0.00000000000000E+00,0.00000000000000E+00,0.00000000000000E+00,0.00000000000000E+00,0.00000000000000E+00,0.00000000000000E+00,0.00000000000000E+00,0.00000000000000E+00,0.00000000000000E+00,0.00000000000000E+00,,,,,,,,,,,
SAS,,,,,,,,,,,9.34928086296444E+00,9.66044051211459E+00,9.52173262050418E+00,1.07862687943838E+01,1.15563429822342E+01,1.04847506958376E+01,1.09852079561538E+01,1.13800822130275E+01,1.24420779974848E+01,1.08096292191826E+01,9.08784367798742E+00,7.84283309789736E+00,7.04683368297159E+00,6.03727445969114E+00,5.27290920876436E+00,6.15815993984459E+00,7.38364857948891E+00,7.98952082894607E+00,6.77906638330176E+00,6.26076058811429E+00,6.70274158271881E+00,6.65574198411688E+00,6.19359287062077E+00,5.52040388704364E+00,5.83719016720474E+00,6.15583365996452E+00,6.45965833221667E+00,5.47507040454544E+00,5.69468568690478E+00,4.87446332922987E+00,4.20352112594530E+00,,,,,,,,,,,
SDN,,,,,,,,,,,7.06400000000000E+00,6.23100000000000E+00,4.99770000000000E+00,3.96380000000000E+00,4.47710000000000E+00,6.49740000000000E+00,6.29690000000000E+00,5.67660000000000E+00,1.29230000000000E+00,1.63180000000000E+00,4.65100000000000E-01,3.38500000000000E-01,4.05700000000000E-01,7.66900000000000E-01,7.00600000000000E-01,8.40300000000000E-01,9.87800000000000E-01,1.07330000000000E+00,9.58300000000000E-01,9.49600000000000E-01,9.98200000000000E-01,9.76800000000000E-01,9.41600000000000E-01,8.79400000000000E-01,9.37800000000000E-01,9.74000000000000E-01,9.37200000000000E-01,8.46700000000000E-01,8.84600000000000E-01,7.92200000000000E-01,0.00000000000000E+00,,,,,,,,,,,
SEN,,,,,,,,,,,2.34943000000000E+01,2.45684000000000E+01,2.15148000000000E+01,1.93894000000000E+01,1.53711000000000E+01,1.17591000000000E+01,1.04423000000000E+01,9.90620000000000E+00,7.44480000000000E+00,6.49940000000000E+00,4.60820000000000E+00,4.76760000000000E+00,4.64330000000000E+00,5.89590000000000E+00,5.57230000000000E+00,6.35290000000000E+00,6.35910000000000E+00,6.45310000000000E+00,5.85880000000000E+00,9.86100000000000E-01,1.34020000000000E+00,1.27760000000000E+00,1.12210000000000E+00,1.01840000000000E+00,1.19750000000000E+00,1.16790000000000E+00,1.41480000000000E+00,1.27350000000000E+00,1.53850000000000E+00,1.33650000000000E+00,1.32800000000000E+00,,,,,,,,,,,
SLB,,,,,,,,,,,,,,,,,,,0.00000000000000E+00,0.00000000000000E+00,0.00000000000000E+00,0.00000000000000E+00,0.00000000000000E+00,0.00000000000000E+00,0.00000000000000E+00,0.00000000000000E+00,4.93040000000000E+00,4.53530000000000E+00,3.39080000000000E+00,3.21890000000000E+00,3.05600000000000E+00,2.70600000000000E+00,2.48040000000000E+00,1.65480000000000E+00,1.32480000000000E+00,9.37600000000000E-01,4.31000000000000E-01,3.89400000000000E-01,0.00000000000000E+00,0.00000000000000E+00,0.00000000000000E+00,,,,,,,,,,,
SLE,,,,,,,,,,,1.09853000000000E+01,1.02814000000000E+01,1.38010000000000E+01,1.59495000000000E+01,1.34242000000000E+01,1.34964000000000E+01,1.50627000000000E+01,1.44632000000000E+01,1.52793000000000E+01,1.50915000000000E+01,1.38879000000000E+01,1.03438000000000E+01,1.10323000000000E+01,1.03144000000000E+01,2.34490000000000E+00,2.39860000000000E+00,2.91710000000000E+00,3.11000000000000E+00,2.83870000000000E+00,2.91400000000000E+00,3.16110000000000E+00,3.03160000000000E+00,1.89010000000000E+00,1.30350000000000E+00,1.30500000000000E+00,1.46810000000000E+00,1.45580000000000E+00,1.36420000000000E+00,1.36620000000000E+00,1.20520000000000E+00,1.18330000000000E+00,,,,,,,,,,,
SLV,,,,,,,,,,,0.00000000000000E+00,1.66710000000000E+00,1.86020000000000E+00,2.10040000000000E+00,1.15970000000000E+00,9.62800000000000E-01,6.56400000000000E-01,5.54800000000000E-01,3.56400000000000E-01,2.63800000000000E-01,1.99700000000000E-01,1.30100000000000E-01,7.77000000000000E-02,4.08000000000000E-02,2.75000000000000E-02,2.01000000000000E-02,9.84100000000000E-01,1.99450000000000E+00,2.18490000000000E+00,3.04350000000000E+00,3.74130000000000E+00,3.99100000000000E+00,3.64270000000000E+00,4.31970000000000E+00,4.85320000000000E+00,5.62300000000000E+00,6.18240000000000E+00,5.72690000000000E+00,5.68230000000000E+00,4.60340000000000E+00,4.05630000000000E+00,,,,,,,,,,,
SOM,,,,,,,,,,,1.85548000000000E+01,1.52882000000000E+01,1.29804000000000E+01,1.20942000000000E+01,9.30200000000000E+00,6.28840000000000E+00,6.40840000000000E+00,5.34170000000000E+00,7.71960000000000E+00,0.00000000000000E+00,0.00000000000000E+00,0.00000000000000E+00,0.00000000000000E+00,0.00000000000000E+00,0.00000000000000E+00,0.00000000000000E+00,0.00000000000000E+00,0.00000000000000E+00,0.00000000000000E+00,0.00000000000000E+00,0.00000000000000E+00,0.00000000000000E+00,0.00000000000000E+00,0.00000000000000E+00,0.00000000000000E+00,0.00000000000000E+00,0.00000000000000E+00,0.00000000000000E+00,0.00000000000000E+00,0.00000000000000E+00,0.00000000000000E+00,,,,,,,,,,,
SRB,,,,,,,,,,,1.38507000000000E+01,1.55161000000000E+01,1.46789000000000E+01,2.30488000000000E+01,2.58152000000000E+01,2.19145000000000E+01,2.23438000000000E+01,2.35806000000000E+01,2.45520000000000E+01,2.19634000000000E+01,1.33175000000000E+01,1.30275000000000E+01,1.25106000000000E+01,1.11753000000000E+01,1.09833000000000E+01,1.07812000000000E+01,1.05328000000000E+01,1.46976000000000E+01,6.66340000000000E+00,6.90070000000000E+00,8.47440000000000E+00,9.11560000000000E+00,8.90070000000000E+00,6.93970000000000E+00,9.68450000000000E+00,1.01337000000000E+01,9.71780000000000E+00,9.00750000000000E+00,9.12280000000000E+00,8.17670000000000E+00,7.59400000000000E+00,,,,,,,,,,,
SSA,,,,,,,,,,,7.04816279950424E+00,6.46623561147665E+00,6.36780715951855E+00,6.20372665922748E+00,6.47693640324764E+00,6.40298555461180E+00,6.84158668348396E+00,6.80715533171556E+00,6.72641276091173E+00,7.30732165793871E+00,7.00634705846460E+00,7.10054141305971E+00,7.17146780090314E+00,6.20797736122524E+00,5.37930487855529E+00,5.67352535328067E+00,6.77232455645666E+00,7.00492718028942E+00,5.99040294743269E+00,5.83551472769216E+00,6.51854461331589E+00,6.51797640415692E+00,5.85661232757755E+00,5.29604789912664E+00,5.87960336700625E+00,5.99038245783938E+00,5.31774578877010E+00,4.84278081003717E+00,5.01217730517598E+00,4.62064375236835E+00,2.85020788311553E+00,,,,,,,,,,,
STP,,,,,,,,,,,,,,,,,,0.00000000000000E+00,0.00000000000000E+00,0.00000000000000E+00,0.00000000000000E+00,0.00000000000000E+00,0.00000000000000E+00,0.00000000000000E+00,0.00000000000000E+00,0.00000000000000E+00,0.00000000000000E+00,0.00000000000000E+00,0.00000000000000E+00,0.00000000000000E+00,0.00000000000000E+00,0.00000000000000E+00,0.00000000000000E+00,0.00000000000000E+00,0.00000000000000E+00,0.00000000000000E+00,0.00000000000000E+00,0.00000000000000E+00,0.00000000000000E+00,0.00000000000000E+00,0.00000000000000E+00,,,,,,,,,,,
SWZ,,,,,,,,,,,0.00000000000000E+00,0.00000000000000E+00,0.00000000000000E+00,0.00000000000000E+00,0.00000000000000E+00,0.00000000000000E+00,0.00000000000000E+00,0.00000000000000E+00,1.87568000000000E+01,1.57739000000000E+01,1.38179000000000E+01,1.28523000000000E+01,1.56867000000000E+01,1.36853000000000E+01,1.54648000000000E+01,1.82462000000000E+01,1.98027000000000E+01,1.70989000000000E+01,1.68305000000000E+01,1.97780000000000E+01,2.20686000000000E+01,2.59627000000000E+01,2.69031000000000E+01,2.63789000000000E+01,2.80142000000000E+01,2.93329000000000E+01,2.74827000000000E+01,2.19283000000000E+01,2.13954000000000E+01,1.83562000000000E+01,1.79509000000000E+01,,,,,,,,,,,
SYC,,,,,,,,,,,,,,,,,,,,,8.12540000000000E+00,7.31030000000000E+00,5.22020000000000E+00,3.72230000000000E+00,2.93320000000000E+00,3.15660000000000E+00,3.14560000000000E+00,2.98500000000000E+00,2.87570000000000E+00,2.99730000000000E+00,2.99490000000000E+00,3.24590000000000E+00,3.06990000000000E+00,2.78830000000000E+00,2.69460000000000E+00,2.65960000000000E+00,2.76850000000000E+00,2.38630000000000E+00,2.47140000000000E+00,1.92690000000000E+00,1.60250000000000E+00,,,,,,,,,,,
SYR,,,,,,,,,,,1.72400000000000E+00,1.08720000000000E+00,8.08300000000000E-01,2.42280000000000E+00,5.38110000000000E+00,3.59940000000000E+00,2.54060000000000E+00,1.66020000000000E+00,1.66280000000000E+00,1.89140000000000E+00,1.46470000000000E+00,1.88970000000000E+00,1.80280000000000E+00,1.25690000000000E+00,1.12710000000000E+00,1.14750000000000E+00,1.53120000000000E+00,1.71280000000000E+00,1.49350000000000E+00,1.56980000000000E+00,2.05830000000000E+00,2.08300000000000E+00,2.12240000000000E+00,1.97580000000000E+00,2.17000000000000E+00,2.30810000000000E+00,2.09350000000000E+00,1.85510000000000E+00,1.97040000000000E+00,1.70590000000000E+00,7.06400000000000E-01,,,,,,,,,,,
TCD,,,,,,,,,,,1.07265000000000E+01,9.02490000000000E+00,1.17193000000000E+01,1.25753000000000E+01,9.15410000000000E+00,4.00150000000000E+00,3.99030000000000E+00,2.86430000000000E+00,2.91690000000000E+00,2.92720000000000E+00,2.72850000000000E+00,2.63540000000000E+00,2.93490000000000E+00,2.53450000000000E+00,1.00630000000000E+00,1.23740000000000E+00,1.30660000000000E+00,2.27570000000000E+00,1.93780000000000E+00,1.87530000000000E+00,1.51930000000000E+00,1.15210000000000E+00,9.52900000000000E-01,7.50700000000000E-01,7.13300000000000E-01,1.16900000000000E-01,6.01000000000000E-02,5.17000000000000E-02,5.07000000000000E-02,3.99000000000000E-02,3.76000000000000E-02,,,,,,,,,,,
TGO,,,,,,,,,,,6.23007000000000E+01,5.97322000000000E+01,6.17858000000000E+01,5.20672000000000E+01,3.53190000000000E+01,2.55685000000000E+01,1.92227000000000E+01,1.85224000000000E+01,1.88639000000000E+01,1.78668000000000E+01,1.62706000000000E+01,1.45713000000000E+01,1.61448000000000E+01,1.47522000000000E+01,3.72980000000000E+00,3.45710000000000E+00,3.42970000000000E+00,2.91320000000000E+00,2.03470000000000E+00,2.17850000000000E+00,1.93970000000000E+00,1.94780000000000E+00,1.91630000000000E+00,1.86030000000000E+00,1.90230000000000E+00,1.83800000000000E+00,1.68400000000000E+00,1.37430000000000E+00,1.39120000000000E+00,1.22510000000000E+00,1.25580000000000E+00,,,,,,,,,,,
THA,,,,,,,,,,,1.75841000000000E+01,1.66054000000000E+01,1.42066000000000E+01,1.35517000000000E+01,1.15532000000000E+01,8.38980000000000E+00,6.29810000000000E+00,4.93730000000000E+00,4.76080000000000E+00,4.71210000000000E+00,4.65050000000000E+00,4.78850000000000E+00,4.07880000000000E+00,3.10540000000000E+00,2.64810000000000E+00,2.50120000000000E+00,2.56500000000000E+00,2.40410000000000E+00,2.90900000000000E+00,3.08280000000000E+00,3.60720000000000E+00,3.67840000000000E+00,3.82040000000000E+00,2.29970000000000E+00,2.34730000000000E+00,2.37260000000000E+00,2.13190000000000E+00,1.39370000000000E+00,1.28880000000000E+00,1.06590000000000E+00,9.94500000000000E-01,,,,,,,,,,,
TJK,,,,,,,,,,,,,,,,,,,,,,,,,,,,,,,,,0.00000000000000E+00,0.00000000000000E+00,0.00000000000000E+00,0.00000000000000E+00,0.00000000000000E+00,0.00000000000000E+00,0.00000000000000E+00,0.00000000000000E+00,0.00000000000000E+00,,,,,,,,,,,
TKM,,,,,,,,,,,,,,,,,,,,,,,,,,,,,,,,,,0.00000000000000E+00,7.20200000000000E+00,1.23512000000000E+01,1.41914000000000E+01,9.16590000000000E+00,1.33454000000000E+01,9.19810000000000E+00,7.19070000000000E+00,,,,,,,,,,,
TON,,,,,,,,,,,,,,,,,,,,,,,,,,4.63175000000000E+01,5.07314000000000E+01,4.89045000000000E+01,4.14023000000000E+01,4.21492000000000E+01,4.07738000000000E+01,3.98657000000000E+01,3.83412000000000E+01,3.43324000000000E+01,2.71817000000000E+01,2.51608000000000E+01,2.16532000000000E+01,1.87750000000000E+01,1.66558000000000E+01,1.21458000000000E+01,1.06800000000000E+01,,,,,,,,,,,
TUN,,,,,,,,,,,8.72410000000000E+00,9.52950000000000E+00,1.03291000000000E+01,1.15885000000000E+01,1.28741000000000E+01,1.17521000000000E+01,1.38749000000000E+01,1.39124000000000E+01,1.31173000000000E+01,1.18279000000000E+01,1.07696000000000E+01,1.02775000000000E+01,1.11033000000000E+01,9.91030000000000E+00,9.19400000000000E+00,1.04116000000000E+01,1.09468000000000E+01,1.15530000000000E+01,1.06590000000000E+01,1.07826000000000E+01,1.10063000000000E+01,1.02551000000000E+01,9.73450000000000E+00,8.52130000000000E+00,8.04470000000000E+00,7.20280000000000E+00,5.90440000000000E+00,6.08690000000000E+00,6.15970000000000E+00,6.09570000000000E+00,5.59790000000000E+00,,,,,,,,,,,
TUR,,,,,,,,,,,1.76474000000000E+01,1.61686000000000E+01,1.56351000000000E+01,1.61198000000000E+01,1.62099000000000E+01,1.42415000000000E+01,1.46794000000000E+01,1.46362000000000E+01,1.83157000000000E+01,2.08877000000000E+01,1.70445000000000E+01,1.61630000000000E+01,1.46533000000000E+01,1.27646000000000E+01,1.18924000000000E+01,1.32749000000000E+01,1.39843000000000E+01,1.52189000000000E+01,1.60517000000000E+01,1.64479000000000E+01,1.73886000000000E+01,1.85811000000000E+01,1.70994000000000E+01,1.73134000000000E+01,1.76350000000000E+01,1.67232000000000E+01,1.67005000000000E+01,2.12845000000000E+01,2.28719000000000E+01,1.92757000000000E+01,1.44092000000000E+01,,,,,,,,,,,
TZA,,,,,,,,,,,3.15760000000000E+00,5.60300000000000E-01,5.87600000000000E-01,7.78600000000000E-01,1.22280000000000E+00,1.49930000000000E+00,2.00030000000000E+00,2.39350000000000E+00,3.07500000000000E+00,7.66800000000000E-01,1.31870000000000E+00,1.44350000000000E+00,1.48290000000000E+00,1.30530000000000E+00,1.18100000000000E+00,1.32890000000000E+00,3.11320000000000E+00,3.53260000000000E+00,3.34440000000000E+00,3.50690000000000E+00,3.88100000000000E+00,3.78180000000000E+00,4.54450000000000E+00,4.12270000000000E+00,4.17260000000000E+00,3.24130000000000E+00,2.93220000000000E+00,1.94170000000000E+00,1.96900000000000E+00,1.51830000000000E+00,1.44310000000000E+00,,,,,,,,,,,
UGA,,,,,,,,,,,6.46740000000000E+00,6.64330000000000E+00,6.54870000000000E+00,7.85790000000000E+00,7.54510000000000E+00,9.50890000000000E+00,1.24378000000000E+01,1.08273000000000E+01,1.45555000000000E+01,1.05279000000000E+01,7.91570000000000E+00,1.08350000000000E+00,6.92200000000000E-01,4.15400000000000E-01,3.14400000000000E-01,3.12500000000000E-01,3.16700000000000E-01,5.05000000000000E-02,7.84400000000000E-01,7.36500000000000E-01,7.78500000000000E-01,4.90300000000000E-01,4.59000000000000E-01,4.32000000000000E-01,2.75900000000000E-01,1.14800000000000E-01,3.09800000000000E-01,2.46700000000000E-01,2.69800000000000E-01,1.93600000000000E-01,1.43500000000000E-01,,,,,,,,,,,
UKR,,,,,,,,,,,,,,,,,,,,,,,,,,,,,,,,,3.99726000000000E+01,1.48239000000000E+01,1.70696000000000E+01,1.38811000000000E+01,1.13522000000000E+01,8.56470000000000E+00,1.70369000000000E+01,1.28475000000000E+01,5.49180000000000E+00,,,,,,,,,,,
UMC,,,,,,,,,,,9.60864906538781E+00,9.33052195998125E+00,8.13936144017765E+00,8.36599100760474E+00,7.24565432399524E+00,5.60329580746845E+00,5.74843088406280E+00,7.55909075346259E+00,9.24239384958184E+00,8.88680551539041E+00,7.63693426092531E+00,6.34633284278760E+00,5.84719592256375E+00,5.21689761316325E+00,4.36940324952343E+00,5.31326205969501E+00,6.14119564176245E+00,7.32111285112835E+00,7.00687532614029E+00,8.57707754205845E+00,1.01792788325754E+01,1.09371959824809E+01,1.07973289075748E+01,9.29459822135116E+00,9.51822782055475E+00,1.01703000489743E+01,1.08497446980321E+01,9.68904132903145E+00,1.00527596191939E+01,7.99487890963173E+00,6.92851103351035E+00,,,,,,,,,,,
URY,,,,,,,,,,,2.27770000000000E+00,2.32600000000000E+00,4.38000000000000E-02,0.00000000000000E+00,5.52000000000000E-02,3.26700000000000E-01,6.77300000000000E-01,5.25800000000000E-01,6.36100000000000E-01,4.73500000000000E-01,2.99100000000000E-01,1.64100000000000E-01,1.18400000000000E-01,1.23250000000000E+00,1.06670000000000E+00,1.27870000000000E+00,2.16090000000000E+00,2.69310000000000E+00,2.46840000000000E+00,1.81590000000000E+00,1.69470000000000E+00,2.22500000000000E-01,1.88800000000000E-01,1.55200000000000E-01,2.35200000000000E-01,6.54270000000000E+00,5.65710000000000E+00,4.43100000000000E+00,4.36700000000000E+00,3.76640000000000E+00,2.53600000000000E-01,,,,,,,,,,,
UZB,,,,,,,,,,,,,,,,,,,,,,,,,,,,,,,,,4.52313000000000E+01,2.34730000000000E+00,1.46390000000000E+00,1.05345000000000E+01,1.35942000000000E+01,1.37567000000000E+01,1.41617000000000E+01,1.14468000000000E+01,9.08390000000000E+00,,,,,,,,,,,
VCT,,,,,,,,,,,0.00000000000000E+00,0.00000000000000E+00,0.00000000000000E+00,0.00000000000000E+00,0.00000000000000E+00,0.00000000000000E+00,0.00000000000000E+00,0.00000000000000E+00,0.00000000000000E+00,0.00000000000000E+00,0.00000000000000E+00,0.00000000000000E+00,2.55000000000000E-02,6.63000000000000E-02,9.22000000000000E-02,1.33100000000000E-01,1.65700000000000E-01,1.61200000000000E-01,1.21700000000000E-01,1.04000000000000E-01,7.03700000000000E-01,8.17500000000000E-01,6.75500000000000E-01,5.94200000000000E-01,5.54600000000000E-01,5.93500000000000E-01,5.10300000000000E-01,4.38400000000000E-01,3.80000000000000E-01,2.10600000000000E-01,1.86200000000000E-01,,,,,,,,,,,
VEN,,,,,,,,,,,5.19060000000000E+00,8.58470000000000E+00,9.06520000000000E+00,9.91040000000000E+00,1.17965000000000E+01,1.50753000000000E+01,6.24890000000000E+00,4.01860000000000E+00,1.00427000000000E+01,6.98550000000000E+00,7.81910000000000E+00,7.40810000000000E+00,6.06640000000000E+00,4.15990000000000E+00,2.76460000000000E+00,3.65550000000000E+00,2.32800000000000E+00,3.98610000000000E+00,2.82250000000000E+00,3.34950000000000E+00,6.86270000000000E+00,6.34680000000000E+00,5.66690000000000E+00,6.51250000000000E+00,6.86710000000000E+00,8.85700000000000E+00,9.35540000000000E+00,7.30630000000000E+00,5.05410000000000E+00,4.22490000000000E+00,3.29230000000000E+00,,,,,,,,,,,
VNM,,,,,,,,,,,,,,,,,,,,,,0.00000000000000E+00,0.00000000000000E+00,0.00000000000000E+00,0.00000000000000E+00,0.00000000000000E+00,0.00000000000000E+00,0.00000000000000E+00,0.00000000000000E+00,1.70260000000000E+00,1.73640000000000E+00,1.71260000000000E+00,2.75600000000000E-01,5.10400000000000E-01,5.52100000000000E-01,9.64600000000000E-01,1.00950000000000E+00,8.94400000000000E-01,9.01900000000000E-01,6.61800000000000E-01,9.86300000000000E-01,,,,,,,,,,,
VUT,,,,,,,,,,,,,,,,,,,,,,0.00000000000000E+00,0.00000000000000E+00,0.00000000000000E+00,0.00000000000000E+00,0.00000000000000E+00,0.00000000000000E+00,0.00000000000000E+00,0.00000000000000E+00,0.00000000000000E+00,0.00000000000000E+00,0.00000000000000E+00,0.00000000000000E+00,0.00000000000000E+00,0.00000000000000E+00,0.00000000000000E+00,0.00000000000000E+00,0.00000000000000E+00,0.00000000000000E+00,0.00000000000000E+00,0.00000000000000E+00,,,,,,,,,,,
WSM,,,,,,,,,,,0.00000000000000E+00,0.00000000000000E+00,0.00000000000000E+00,0.00000000000000E+00,0.00000000000000E+00,0.00000000000000E+00,0.00000000000000E+00,1.03228000000000E+01,1.07796000000000E+01,1.65315000000000E+01,1.20148000000000E+01,9.40280000000000E+00,7.38030000000000E+00,5.81590000000000E+00,4.27610000000000E+00,4.68510000000000E+00,4.68900000000000E+00,4.42560000000000E+00,3.24830000000000E+00,2.64520000000000E+00,1.72250000000000E+00,9.19600000000000E-01,4.99300000000000E-01,1.30300000000000E-01,0.00000000000000E+00,0.00000000000000E+00,0.00000000000000E+00,0.00000000000000E+00,0.00000000000000E+00,0.00000000000000E+00,0.00000000000000E+00,,,,,,,,,,,
YEM,,,,,,,,,,,,7.31780000000000E+00,1.77395000000000E+01,1.43612000000000E+01,1.70250000000000E+01,1.44966000000000E+01,1.41455000000000E+01,1.39631000000000E+01,1.17123000000000E+01,9.21000000000000E-02,0.00000000000000E+00,0.00000000000000E+00,0.00000000000000E+00,0.00000000000000E+00,0.00000000000000E+00,0.00000000000000E+00,0.00000000000000E+00,0.00000000000000E+00,0.00000000000000E+00,0.00000000000000E+00,0.00000000000000E+00,0.00000000000000E+00,0.00000000000000E+00,0.00000000000000E+00,0.00000000000000E+00,0.00000000000000E+00,0.00000000000000E+00,0.00000000000000E+00,3.10000000000000E-02,2.59000000000000E-02,3.17000000000000E-02,,,,,,,,,,,
ZAF,,,,,,,,,,,,,,,,,,,,,,,,,,,,,,,,,,,3.31570000000000E+00,2.83670000000000E+00,3.10790000000000E+00,2.42250000000000E+00,2.80160000000000E+00,3.14220000000000E+00,2.61760000000000E+00,,,,,,,,,,,
ZAR,,,,,,,,,,,2.20190000000000E+00,8.69610000000000E+00,1.14165000000000E+01,8.20810000000000E+00,7.51370000000000E+00,8.22300000000000E+00,6.60940000000000E+00,5.72530000000000E+00,5.13090000000000E+00,6.38650000000000E+00,5.92470000000000E+00,7.21720000000000E+00,7.46890000000000E+00,6.97290000000000E+00,7.13590000000000E+00,7.84930000000000E+00,9.40540000000000E+00,1.00283000000000E+01,5.74020000000000E+00,6.39730000000000E+00,6.94100000000000E+00,6.62390000000000E+00,6.44680000000000E+00,6.15080000000000E+00,6.47730000000000E+00,6.75000000000000E+00,6.46530000000000E+00,6.02980000000000E+00,6.25400000000000E+00,6.19030000000000E+00,6.01170000000000E+00,,,,,,,,,,,
ZMB,,,,,,,,,,,4.29500000000000E-01,4.34900000000000E-01,5.25300000000000E-01,2.45620000000000E+00,4.50490000000000E+00,7.31810000000000E+00,7.61420000000000E+00,7.33600000000000E+00,8.14360000000000E+00,6.83440000000000E+00,9.42420000000000E+00,7.85220000000000E+00,7.42210000000000E+00,9.28400000000000E+00,9.77890000000000E+00,1.07511000000000E+01,1.27263000000000E+01,1.40977000000000E+01,1.34001000000000E+01,9.83520000000000E+00,1.03789000000000E+01,1.06010000000000E+01,1.00712000000000E+01,8.43510000000000E+00,1.04456000000000E+01,1.08293000000000E+01,1.01931000000000E+01,9.31760000000000E+00,9.79170000000000E+00,6.05300000000000E+00,4.66010000000000E+00,,,,,,,,,,,
ZWE,,,,,,,,,,,0.00000000000000E+00,0.00000000000000E+00,0.00000000000000E+00,0.00000000000000E+00,0.00000000000000E+00,0.00000000000000E+00,0.00000000000000E+00,0.00000000000000E+00,0.00000000000000E+00,0.00000000000000E+00,1.03200000000000E-01,3.05530000000000E+00,5.20730000000000E+00,7.04870000000000E+00,7.27590000000000E+00,9.10680000000000E+00,1.04750000000000E+01,1.08479000000000E+01,1.02825000000000E+01,1.03648000000000E+01,1.15311000000000E+01,1.10459000000000E+01,1.00805000000000E+01,9.53140000000000E+00,1.01135000000000E+01,1.08218000000000E+01,1.11632000000000E+01,1.06126000000000E+01,1.14070000000000E+01,1.14017000000000E+01,1.16641000000000E+01,,,,,,,,,,,
