"Country Code",1960,1961,1962,1963,1964,1965,1966,1967,1968,1969,1970,1971,1972,1973,1974,1975,1976,1977,1978,1979,1980,1981,1982,1983,1984,1985,1986,1987,1988,1989,1990,1991,1992,1993,1994,1995,1996,1997,1998,1999,2000,2001,2002,2003,2004,2005,2006,2007,2008,2009,2010,2011AGO,,,,,,,,,,,,,,,,,,,,,,,,,,,,,,3.99020227560051E+00,3.57981513864602E+00,4.28771041918803E+00,2.56913010156210E+00,3.03797720042418E+00,3.32841688156488E+00,3.43015663254312E+00,6.31936853854394E+00,3.70036310516735E+00,6.68996018025665E+00,2.96809876913558E+00,2.12993593080332E+00,2.17990499704872E+00,1.85370920809048E+00,1.70797379392549E+00,1.26112198107693E+00,1.28860710872497E+00,2.71083863381257E+00,1.50689188724537E+00,7.90618636480142E-01,1.01795185677374E+00,3.89195133819951E-01,
ALB,,,,,,,,,,,,,,,,,,,,,,,,,,,,,,,,3.33132530120482E+00,2.17545748116254E+00,1.19598583234947E+00,3.70199637023593E+00,2.34815011977642E+00,1.69010074463425E+00,2.93361054337867E+00,2.64029003783102E+00,1.37482140022226E+00,1.35403954112765E+00,1.24957555178268E+00,2.21831482543653E+00,1.38188991921257E+00,1.27338914784205E+00,1.45343732415899E+00,1.77579273977747E+00,1.77629615563874E+00,1.58371476122299E+00,2.33761467589865E+00,2.04681342215606E+00,
ARG,,,,,,,,,,,,,,,,,1.04166062673204E+01,8.58124072425052E+00,9.75671260847371E+00,9.65155304558290E+00,2.07940546331012E+01,2.91481152054214E+01,3.66776832393644E+01,5.56680151577223E+01,4.60822888283379E+01,5.02612547197212E+01,5.07725822870716E+01,4.82538068046633E+01,2.73191989436620E+01,1.76816724796545E+01,1.63072415035427E+01,1.80621993553186E+01,1.59116508981296E+01,1.72234047956200E+01,1.67860492369439E+01,1.81297899330642E+01,1.87248194183775E+01,2.00263397733684E+01,2.35696554326091E+01,2.94962230868408E+01,2.88481871584770E+01,1.27668110592639E+01,6.52299801430286E+00,5.52397010329599E+00,5.42003119449017E+00,5.77062795442707E+00,6.60395200664149E+00,5.17222633783343E+00,3.51879799976807E+00,4.75786972025975E+00,4.27671344069165E+00,
ARM,,,,,,,,,,,,,,,,,,,,,,,,,,,,,,,,,,8.12244192079322E-01,1.93869531045324E+00,2.38867082709739E+00,2.21206212600013E+00,3.50241906263987E+00,4.45761540786803E+00,4.14420273133483E+00,2.67208422176986E+00,3.29013645713097E+00,3.51685185072468E+00,2.61814798919922E+00,3.59617084483784E+00,1.85582526114859E+00,3.27954428867498E+00,4.13084481704747E+00,3.10413725172059E+00,4.87427537868855E+00,3.07678764382796E+00,
AZE,,,,,,,,,,,,,,,,,,,,,,,,,,,,,,,,,,,,1.27517986290527E+00,1.21834548089621E+00,1.72752642533080E+00,2.02047871477358E+00,2.14893021370978E+00,2.58954055054818E+00,1.57490997758308E+00,8.80347316726821E-01,7.39532879205985E-01,6.05860621361761E-01,4.13137190819439E-01,3.89019198123772E-01,4.26327781466707E-01,3.71916068367879E-01,3.55077563860710E-01,3.25614062469516E-01,
BDI,,,,,,,,,,,,,,,,,,,,,,,,,,8.28833520038596E+00,9.97527865960550E+00,1.56990748486365E+01,1.33352974204115E+01,1.39960432877202E+01,1.44038860762332E+01,1.06507963471202E+01,1.44475029917671E+01,1.30277822494009E+01,1.26056354743272E+01,8.45502637686976E+00,1.67551434604015E+01,9.25389146477263E+00,1.22029301803127E+01,1.29635764979092E+01,1.42211918219070E+01,1.41931314031026E+01,1.72571154799288E+01,1.71015006581834E+01,2.53587594978458E+01,1.23945559542748E+01,5.60996999490603E+00,7.98160538463022E+00,4.98686651260741E+00,3.52492973699955E+00,,
BEN,,,,,,,,,,,,,,,6.70187100153459E-01,5.55074473404296E-01,7.80791281668585E-01,5.20518081000119E-01,1.19526781845800E+00,1.70804806413553E+00,5.94899772072122E+00,3.36983956811839E+00,8.50107679473180E+00,1.11354137809426E+01,8.32558306888959E+00,6.06315005564533E+00,7.61168371437369E+00,5.11303027334190E+00,4.83468292657119E+00,5.74535051271515E+00,4.43437867142808E+00,2.70734831735878E+00,2.31773794154967E+00,2.35647656834230E+00,3.54152113298380E+00,3.56933208392008E+00,2.57335583306420E+00,3.89837574410574E+00,4.35888199805444E+00,3.91193330639483E+00,3.80734812858737E+00,3.07137933301130E+00,4.04223795731857E+00,1.80060642056908E+00,1.85898894461021E+00,1.99022483395399E+00,1.41464210533482E+00,8.13699645780388E-01,2.47988051643036E+00,8.10777926549658E-01,,
BFA,,,,,,,,,,,,,,,1.29899214993872E+00,1.59684121822869E+00,1.48745414964639E+00,1.44433097559142E+00,1.92883289210112E+00,2.49485625495635E+00,5.12782127180619E+00,5.77246406470212E+00,6.57397595810843E+00,6.74600147595192E+00,5.01286095535411E+00,7.64328090779848E+00,7.52035725165859E+00,6.43323181386319E+00,5.87136625546570E+00,8.24768733983212E+00,4.22981919155618E+00,5.93452730412521E+00,5.81975021544918E+00,5.76189888610487E+00,5.85127357629723E+00,,,,,,5.49009622984421E+00,4.65388401686177E+00,5.39352414331351E+00,4.07768309735903E+00,2.90154965265817E+00,2.91593800474378E+00,2.32449070171888E+00,2.05081565602610E+00,1.65651507181342E+00,1.33817799657166E+00,,
BGD,,,,,,,,,,,,,,,,,7.54050717203157E+00,7.78512264839994E+00,7.82932348470507E+00,7.33212310627789E+00,6.58692955321339E+00,8.63244354862583E+00,1.09808271771867E+01,1.18527422605042E+01,1.00076090410590E+01,1.01890074062073E+01,1.31883464543354E+01,1.32176353846580E+01,1.08220025175882E+01,1.08847226815402E+01,9.21605438654340E+00,8.20427361970813E+00,5.78470563002238E+00,5.07039154531195E+00,4.81434555315780E+00,3.83601409566448E+00,4.20402071344250E+00,3.10658411223396E+00,2.78201921609611E+00,2.97829955054230E+00,2.66398392669668E+00,2.60059818428547E+00,2.48131512798396E+00,2.14235857563335E+00,2.14150109462571E+00,2.18731962481399E+00,1.74805178808293E+00,1.77683157743256E+00,1.40618063628202E+00,1.33064992138795E+00,1.07066508013088E+00,
BGR,,,,,,,,,,,,,,,,,,,,,,4.52511031729355E-01,7.90573372206025E-01,1.08697382824162E+00,1.83913825672394E+00,1.89161458333333E+00,3.00065274151436E+00,3.59401037165082E+00,4.57866552933371E+00,7.02647119983364E+00,7.20869872701556E+00,3.48748956469887E+00,4.41451531503552E+00,4.88361654376403E+00,3.21182200659516E+00,8.29679040152467E+00,8.85712732243833E+00,8.39005518049262E+00,9.70114721747542E+00,7.78439191436248E+00,7.97713537273677E+00,7.16290447467200E+00,4.60403740431019E+00,4.26908634350048E+00,3.50627449223506E+00,3.46601967924711E+00,3.38473078804192E+00,4.23455959830094E+00,5.04252962930866E+00,6.21498646769160E+00,2.23516310691747E+00,
BIH,,,,,,,,,,,,,,,,,,,,,,,,,,,,,,,,,,,,,,,,6.97018297455930E+00,5.67442832731931E+00,4.66563005695696E+00,3.70768970687297E+00,3.31367351998292E+00,3.52065498377338E+00,3.57973220348006E+00,3.47479023279501E+00,4.31379987737341E+00,3.81484082523094E+00,4.55600068817303E+00,3.38303894585245E+00,
BLR,,,,,,,,,,,,,,,,,,,,,,,,,,,,,,,,,,5.51760939167556E-01,1.12505883630834E+00,1.39546575602352E+00,1.43380290009155E+00,1.54836249952343E+00,1.63786811150726E+00,1.58595124990266E+00,1.39977825604904E+00,1.41620998659360E+00,9.60388839576939E-01,7.46836092050281E-01,7.24497844977188E-01,8.78511599518254E-01,1.11358369547329E+00,1.15567183971901E+00,9.24737971631168E-01,1.23548121051406E+00,1.66382350232234E+00,
BLZ,,,,,,,,,,,,,,,,,,,,,,,,,4.22863741339492E+00,5.69881814715974E+00,4.32503457814661E+00,3.53187613843352E+00,2.67822640574684E+00,3.11434416912935E+00,2.43503821281599E+00,2.09646052119798E+00,2.01724732666437E+00,2.28640776699029E+00,2.90242076366359E+00,3.73846720179628E+00,4.10594556895814E+00,4.20089167084945E+00,6.26703813546628E+00,5.17162607474988E+00,7.92719603987338E+00,1.08804620850044E+01,1.00362587402064E+01,1.26079749377222E+01,1.36172560915349E+01,1.16079809409642E+01,8.11713660130371E+00,7.74809657260921E+00,5.60474351301872E+00,6.23294496495342E+00,5.74714361656779E+00,
BOL,,,,,,,,,,,,,,,,,6.22838729959132E+00,8.64478378764093E+00,1.27145892351275E+01,1.49026791847951E+01,2.10577603519174E+01,2.29249216914644E+01,4.48519163763066E+01,3.81649610678532E+01,4.27117924528302E+01,2.27199620287497E+01,1.59400760011692E+01,1.51455582232893E+01,1.76082728592163E+01,1.41339395980689E+01,1.44683073832245E+01,1.46469901263404E+01,1.53002402934109E+01,1.53721443549277E+01,1.33210535089182E+01,1.37198320259884E+01,1.36281708198848E+01,1.40229094468400E+01,1.11591123701605E+01,8.83363989372573E+00,1.11934014719809E+01,1.11971151188429E+01,6.96173479705351E+00,6.54097691931471E+00,5.33433861114475E+00,5.12832118842707E+00,4.68693240510996E+00,3.78941716599013E+00,2.43328459189215E+00,2.43822023442864E+00,1.14284442487378E+00,
BRA,,,,,,,,,,,,,,,,2.09318945567965E+01,1.55024284321546E+01,1.52068171724648E+01,2.20638139278073E+01,2.65786476275142E+01,3.39826165413534E+01,3.88065705902017E+01,4.95723507605778E+01,3.95680949837722E+01,3.09647210726701E+01,3.10873213006244E+01,3.09813696231746E+01,2.55359450052210E+01,3.43065040871195E+01,1.34475822448927E+01,6.22070636165937E+00,9.85205903688410E+00,9.28315568672407E+00,9.01511257599715E+00,1.21020307740373E+01,1.87556650860993E+01,1.80645188053097E+01,1.88416803570875E+01,2.42651748559225E+01,2.99929958062771E+01,2.50871417311108E+01,2.42573326772083E+01,2.04075899018981E+01,1.87979614739963E+01,1.31250776725469E+01,9.65591658911155E+00,9.03134702016915E+00,7.40140750681563E+00,6.71450380526197E+00,7.47279925695249E+00,5.73841223118208E+00,
BTN,,,,,,,,,,,,,,,,,,,,,,,,,,,,,,,,,,,,,,,,,,,,1.69328386701534E+00,3.83219442495531E+00,,1.15339697731699E+00,1.20079771321765E+00,5.52177047514473E+00,6.43992807027522E+00,,
BWA,,,,,,,,,,,,,,,,1.53131760615954E+00,1.15301636591038E+00,1.11276164893908E+00,1.37204820661611E+00,1.00403400573176E+00,1.09279707690723E+00,1.28563512798695E+00,1.62784326919613E+00,1.58186992464340E+00,1.79680101048183E+00,2.34721146036573E+00,2.62569449717034E+00,1.87968318196671E+00,2.01748726331945E+00,1.62218034516529E+00,1.60392534333859E+00,1.35836440050159E+00,1.42846089791463E+00,1.33390274698171E+00,1.32946930753036E+00,9.45638684936271E-01,2.71830251970652E+00,7.96173484785927E-01,7.90075977447381E-01,6.28254885870225E-01,4.89954615720747E-01,4.26794374972656E-01,5.20596673776508E-01,3.07272621543391E-01,2.48775652448379E-01,2.21745098148830E-01,2.08031962431744E-01,1.63346645768366E-01,1.36753796183830E-01,2.36876524343183E-01,3.79956154672248E-01,
CAF,,,,,,,,,,,,,,,,,,9.37089237636300E-01,9.30659120824704E-01,2.45255542796622E-01,1.59897232268313E+00,2.49514202814826E+00,3.25569940050541E+00,5.81986382510551E+00,5.76742519663859E+00,5.36279679688807E+00,6.83330114359737E+00,6.36420342702772E+00,5.58959698015639E+00,5.58627314562461E+00,5.33275964673338E+00,4.50785132543871E+00,5.18225857135901E+00,3.18516274599776E+00,5.97934232091976E+00,,,,,,,,,,,,,,,,,
CHL,,,,,,,,,,,,,,,,1.13779044516830E+01,1.15243298969072E+01,1.11404807325448E+01,1.37446045576407E+01,1.26832069110830E+01,1.90014818355641E+01,3.15902921268258E+01,4.62943344974777E+01,3.54437383564479E+01,5.02969585849871E+01,4.13328380259802E+01,3.07778546915574E+01,2.54234648517735E+01,1.51522289858205E+01,1.66028948449842E+01,1.67390260534895E+01,1.33612208443544E+01,1.03697147410852E+01,8.98858798873535E+00,7.60700381323165E+00,6.39027211960606E+00,6.12878033124317E+00,4.94462398984944E+00,6.60312760526204E+00,7.18738861938370E+00,8.97969523154190E+00,8.21862286624165E+00,7.25039492534701E+00,5.24589015387759E+00,3.52295608811305E+00,2.96902112592660E+00,2.85064010731137E+00,2.58160067247893E+00,2.33304050078136E+00,2.71090800171737E+00,2.71904414875650E+00,
CHN,,,,,,,,,,,,,,,,,,,,,,,3.32668122447329E+00,3.31907014352133E+00,3.47412268486283E+00,3.98584055868560E+00,3.46647655053287E+00,4.52007871073804E+00,4.63585192376691E+00,6.44912605346260E+00,5.37869550098525E+00,5.35735380725972E+00,4.03367175283135E+00,3.76923127507069E+00,3.83606285723435E+00,3.93372421993522E+00,3.07044068023866E+00,3.24877083245284E+00,3.39227024337114E+00,3.08673624255323E+00,2.47550651657277E+00,2.58488942573924E+00,1.70419386179400E+00,1.44491682274229E+00,1.02978651906618E+00,7.44337597046552E-01,8.38529131761299E-01,8.00265067578001E-01,5.52344561940541E-01,4.39010889988469E-01,1.79583449995151E+00,
CIV,,,,,,,,,,,,,,,,3.92946893251330E+00,3.55102953375597E+00,3.98938042887851E+00,6.14098205714939E+00,7.81909974210519E+00,1.88171506562606E+01,2.83868813631484E+01,3.14917666069705E+01,2.96766207242567E+01,2.60540193044357E+01,2.36729763504573E+01,2.10857194886423E+01,1.66066377973670E+01,1.47244588952735E+01,1.79246474424775E+01,1.79882073730730E+01,1.95779058219475E+01,1.56359425256937E+01,1.54696427951650E+01,1.29193927690982E+01,9.30409307735451E+00,9.93258030959367E+00,1.00399259964370E+01,1.32357383385035E+01,1.14139088830918E+01,1.19441905235235E+01,5.37290806422466E+00,5.14169344722241E+00,2.13082489982916E+00,7.17147612213233E-01,5.76909648162605E-01,5.24864669049976E-01,8.52678140181616E-01,1.89450836168673E+00,2.27543780053604E+00,,
CMR,,,,,,,,,,,,,,,,,,3.17756351504156E+00,3.66438603176855E+00,4.14989392801688E+00,7.10226662882506E+00,9.23271602785883E+00,1.04447245483914E+01,9.73843294396813E+00,1.03182814756546E+01,8.33031910268497E+00,9.21466450188960E+00,1.19391425171629E+01,1.23936330044636E+01,8.41991658941484E+00,9.82811611311844E+00,8.67851053827029E+00,7.99232035732317E+00,9.83766018724208E+00,1.00212865793986E+01,1.04331657309089E+01,1.03004283845062E+01,9.23770054410647E+00,9.56038319624166E+00,1.18408624138440E+01,1.10714402833285E+01,5.43740159498537E+00,5.28077769934410E+00,5.71845181414038E+00,6.26368975202180E+00,5.72452892714481E+00,2.84686782495919E+00,2.23635713575037E+00,1.60569222752161E+00,1.06041116552516E+00,9.17305868472196E-01,
COG,,,,,,,,,,,,,,,,,,,2.14548549585755E+00,5.72852787153365E+00,6.62189339595544E+00,1.05922493176281E+01,9.53927992932738E+00,9.85092076205346E+00,8.60808394844340E+00,1.35880492745951E+01,1.73646043312268E+01,1.36399078492633E+01,1.39690754177055E+01,1.11995522755177E+01,1.08288976881993E+01,7.69438843586256E+00,5.42594331099917E+00,4.60568992031412E+00,2.40622426868913E+01,7.14716124523904E+00,1.13865294375621E+01,3.32362840756634E+00,1.67327635319342E+00,1.21099927244460E+00,1.43808130598441E+00,1.66752690956985E+00,4.00036859039624E-01,1.05089126518463E+00,2.42325883482615E+00,6.95926449890970E-01,5.22165906887740E-01,5.47045988687004E-01,,,,
COL,,,,,,,,,,,6.06153091269159E+00,6.72432866611118E+00,6.60541032548741E+00,6.49854967298509E+00,6.82597371434318E+00,6.22956231578021E+00,5.50978323736674E+00,4.38771597834727E+00,4.75589931932635E+00,5.18511723404343E+00,1.17433087873589E+01,1.48669495933539E+01,2.19602161785096E+01,2.40058250060931E+01,1.75925863363363E+01,2.64813908145581E+01,1.72594345328092E+01,2.02643761559255E+01,2.19689212328767E+01,2.31580891050072E+01,1.88439397296698E+01,1.63934396864200E+01,1.43782194762195E+01,1.23898055111517E+01,1.48052124567673E+01,1.54022201150097E+01,1.46732336352915E+01,1.32799044579630E+01,1.35168626734050E+01,1.79283491964661E+01,1.30793997374260E+01,1.68063165349394E+01,1.48599839849006E+01,1.50292199926377E+01,1.21083453609128E+01,1.11453186879130E+01,8.57380703769089E+00,8.29781915673249E+00,6.81808482370575E+00,7.36844842940958E+00,6.92675620212509E+00,
COM,,,,,,,,,,,,,,,,,,,,,2.85875669968708E+00,3.93328080883052E+00,3.18306570980355E+00,5.15354301129407E+00,1.67549888579793E+01,8.93635059674561E+00,3.89516604873318E+00,4.96459490388326E+00,2.28478901684730E+00,3.40914357121614E+00,2.27016472531701E+00,4.27407720196190E+00,4.86671596130181E+00,1.15838255453230E+00,1.90305054595990E+00,1.13761651954012E+00,,,,,,,,,,2.38967957208355E+00,2.16678989315240E+00,1.91135433645410E+01,5.20737107497139E+00,3.64610416294692E+00,,
CPV,,,,,,,,,,,,,,,,,,,,,,7.95368839329281E-01,2.70492188575865E+00,5.19896159003048E+00,9.25535417117386E+00,9.19118485771715E+00,5.70278223883310E+00,7.83901948581968E+00,8.33971052586296E+00,4.26719073427951E+00,3.18296212003188E+00,5.15857128158305E+00,5.51239381272865E+00,3.92553603895900E+00,4.95574123451534E+00,4.73608025072402E+00,2.77759275495980E+00,3.08636034962502E+00,3.21190126102652E+00,2.92140652460117E+00,3.18730423342253E+00,2.11715109083185E+00,3.32927432740050E+00,1.78921953643483E+00,1.91208839454273E+00,1.81405888409966E+00,1.27336329778638E+00,1.08277713509976E+00,8.91247166146604E-01,1.15764772683601E+00,1.18236129599210E+00,
CRI,,,,,,,,,,,,,,,,,,5.59219894747704E+00,8.57395121951219E+00,1.07261765499865E+01,1.46516494337765E+01,1.18134745268073E+01,1.03806192058772E+01,4.67829609414975E+01,1.99533379005861E+01,2.83686033695481E+01,1.82067768365505E+01,1.26512765529719E+01,1.37809259705811E+01,8.70161951619516E+00,9.90355863386673E+00,1.01870137772176E+01,8.92562750631219E+00,6.95578828754184E+00,6.24573683604102E+00,5.46070519652840E+00,4.35460570527188E+00,3.77640829801627E+00,3.05335871865467E+00,2.32416845357518E+00,3.27372049018212E+00,3.99930205032872E+00,3.83918792239553E+00,3.58804835794238E+00,2.51042970446017E+00,2.60050481237834E+00,2.40468625071430E+00,2.56001412196317E+00,3.21028387625874E+00,3.36880257346493E+00,3.07045536259659E+00,
DJI,,,,,,,,,,,,,,,,,,,,,,,,,,,,,,,,8.45239743069985E-01,1.12176311142736E+00,8.79061991437249E-01,7.94551198491784E-01,8.97031661058429E-01,1.32498185204617E+00,8.04720392858996E-01,7.76981936100826E-01,1.03507091739627E+00,1.19030036063884E+00,6.74588176832628E-01,9.83444191125673E-01,1.15229608402130E+00,1.56593082425203E+00,1.17940782209399E+00,1.47149122590213E+00,1.93159732769124E+00,1.90208687844815E+00,1.89199955628669E+00,1.81294422424187E+00,
DMA,,,,,,,,,,,,,,,,,,,,,,8.85245901639344E-01,1.18960244648318E+00,2.71073558648111E+00,3.42245989304813E+00,4.00518134715026E+00,3.05447612130016E+00,2.59489932885906E+00,2.19549752363800E+00,2.37135081642751E+00,2.08712706525615E+00,2.27786377708978E+00,2.19401826315207E+00,2.29531990521326E+00,2.31026929982047E+00,2.15714667915190E+00,2.46365877565568E+00,2.82254966451783E+00,2.22589361903859E+00,2.21453644435266E+00,2.72480139026813E+00,6.85869684552226E+00,4.75763143438544E+00,6.71437454411445E+00,6.56061536053413E+00,4.61549650460079E+00,4.51463360370316E+00,4.21212472211929E+00,3.60604965148960E+00,3.17535503318684E+00,2.82496910939070E+00,
DOM,,,,,,,,,,,4.86112185686654E+00,4.61707233459033E+00,3.94086282113427E+00,3.87122385747483E+00,3.19504896626768E+00,3.23443656422380E+00,4.02133395850428E+00,5.31271953166578E+00,7.45923656927427E+00,6.94832019197806E+00,1.36309496611073E+01,1.53756887955917E+01,1.79019368347583E+01,1.42061343797549E+01,1.18486985604188E+01,1.37743975007438E+01,1.58458100558659E+01,9.21544225030161E+00,9.51684452814396E+00,5.83547235356557E+00,4.48415015641293E+00,5.44460446456126E+00,7.57467697629464E+00,3.01216068594513E+00,3.92261035605976E+00,2.98436566590998E+00,3.13697395264981E+00,2.78970100129154E+00,2.52742411963086E+00,2.49118252836581E+00,2.84166666666667E+00,2.83323708101365E+00,3.12434104168131E+00,3.29261985065138E+00,3.35163298526774E+00,2.35892335947204E+00,2.69192816428253E+00,3.54302705406124E+00,4.41106088806169E+00,4.62844032495901E+00,4.27852958334360E+00,
DZA,,,,,,,,,,,,,,,,,,8.24255940849003E+00,1.16760556475857E+01,1.47365710973027E+01,1.07280671880066E+01,1.17092101718092E+01,1.12035833022948E+01,1.03676718979056E+01,1.11765181670877E+01,1.10915392146090E+01,1.80389253920572E+01,1.68298814583156E+01,2.39718049766960E+01,1.86179662157886E+01,1.49585860135078E+01,1.52109838187225E+01,,,,,,,,,,,,,2.94646320593269E+00,1.83289368982263E+00,1.04797140034489E+00,3.32550944518816E-01,2.19121221850204E-01,2.61764650301404E-01,1.69646788990826E-01,
EAP,,,,,,,,,,,,,,,,,,,,,,,9.08326401562485E+00,8.91294755305468E+00,9.14273571477439E+00,9.50089622056579E+00,9.62552397905005E+00,8.90414817185526E+00,8.33604551552394E+00,8.36265667347956E+00,7.09566435676670E+00,6.89135055741971E+00,5.66725327715816E+00,5.41769743611661E+00,4.99484719416190E+00,4.95670472485567E+00,4.73208973168059E+00,4.79263051238789E+00,5.01540494027990E+00,4.72716274440501E+00,3.96751862845835E+00,3.72109084112997E+00,2.61036768080524E+00,2.19574473336915E+00,1.78307760445125E+00,1.29439003065827E+00,1.29008011900876E+00,1.20888795864282E+00,9.34960141040425E-01,8.89964887155559E-01,1.71731807466182E+00,
ECA,,,,,,,,,,,,,,,,,,,,,,,,,,,,,,,,,,,3.69598904935196E+00,4.54557921091154E+00,4.73242845922872E+00,5.42953913410302E+00,6.57574338996166E+00,6.83326215740733E+00,6.41229814053853E+00,6.82445293993288E+00,5.71596147705144E+00,5.18496869228741E+00,4.27721340262239E+00,4.11107189667228E+00,4.28906804928516E+00,4.61992490967559E+00,4.45182756191306E+00,5.77332959009965E+00,4.43162652329228E+00,
ECU,,,,,,,,,,,,,,,,,2.91681799133957E+00,4.23926946255073E+00,7.80470547630005E+00,1.08649359052125E+01,1.59079465279108E+01,1.97452420701169E+01,3.54688734455011E+01,2.22809754281459E+01,3.01938404577583E+01,2.48182827979586E+01,2.88277216610550E+01,1.50851417004049E+01,1.39831705484598E+01,1.70867128027682E+01,1.44057499239428E+01,1.46566317626527E+01,1.10916333599787E+01,1.04162919959825E+01,1.03386674998181E+01,1.23869639534994E+01,1.16764159262499E+01,1.31739954946858E+01,1.78114461029228E+01,1.96078919742666E+01,1.36077145633302E+01,1.64104070292994E+01,1.67823915732787E+01,1.49922930794091E+01,1.31176541726547E+01,8.27107594871844E+00,8.83682536163094E+00,8.11476274509847E+00,4.88880211197454E+00,4.11123169577200E+00,2.53120833567996E+00,
EGY,,,,,,,,,,,,,,,,,,7.68982543335059E+00,9.52026064524783E+00,5.59231319869741E+00,1.21158379200766E+01,1.40998063849650E+01,1.47533070639801E+01,1.86208178172650E+01,1.97713735018077E+01,1.89121608888540E+01,2.19833080221548E+01,1.06998659147376E+01,1.58046881046715E+01,1.76912401652799E+01,1.22989164302655E+01,7.51568561023122E+00,9.84712624989838E+00,9.81454980079681E+00,9.57386938411187E+00,9.38570562070360E+00,7.60994295028525E+00,6.03187346931584E+00,6.40780842596405E+00,5.53476207773338E+00,3.91002935681879E+00,4.96976436506307E+00,4.64725345907178E+00,3.29685978283516E+00,2.76507287252108E+00,2.17533881746792E+00,2.14096150660669E+00,1.90054918565410E+00,1.61462863783434E+00,1.90753930834850E+00,1.75608175039350E+00,
ERI,,,,,,,,,,,,,,,,,,,,,,,,,,,,,,,,,,,,1.05342723542227E-01,,2.22674423495460E-01,2.92473322420949E+00,4.25542503721459E+00,2.31986619724891E+00,,,,,,,,,,,
ETH,,,,,,,,,,,,,,,,,,2.59626341877897E+00,3.08406964072622E+00,2.43433042422196E+00,4.79549417882687E+00,5.74487587246340E+00,6.66432287870180E+00,7.11541747229076E+00,7.41203836202747E+00,7.60892459457440E+00,8.06174280230326E+00,1.02323374668483E+01,1.39140000000000E+01,1.14411253644315E+01,9.71414354066986E+00,1.01219491525424E+01,1.02826776821088E+01,5.86610095215330E+00,6.22684454828946E+00,7.52370559986384E+00,6.60941322802107E+00,4.73048251044627E+00,5.17551882217466E+00,5.99087817030879E+00,5.27489882910499E+00,6.29299531221795E+00,3.42299370829961E+00,3.54869905221421E+00,2.87819193830012E+00,2.71622386714261E+00,2.19300332222847E+00,1.65245713693517E+00,1.11955378405471E+00,1.20739509623829E+00,,
FJI,,,,,,,,,,,,,,,,,,,,2.32011865496565E+00,2.71108536021211E+00,3.73294324324985E+00,4.63576007810458E+00,5.14117479342347E+00,5.13107980235392E+00,5.03156541937101E+00,4.72191164362548E+00,4.99279439000893E+00,4.24467651148094E+00,3.19378593480046E+00,2.85621574308109E+00,2.64222767142857E+00,2.09179377667574E+00,1.79835042500538E+00,1.40407027027027E+00,9.84608905534746E-01,7.12922677306838E-01,7.30886648053868E-01,6.69096288172482E-01,6.32550045735191E-01,7.55777982408762E-01,6.77638313522988E-01,6.30770631990557E-01,4.19920306413297E-01,4.07603882118112E-01,3.39063835929134E-01,4.03000609030811E-01,1.01981277179102E+00,8.35255367874074E-01,1.07509484076703E+00,,
GAB,,,,,,,,,,,,,,,,,,,4.82399925466973E+00,4.98953295479218E+00,6.28148173969272E+00,4.73889704631462E+00,4.97856935776373E+00,3.24328111415755E+00,3.90513823146372E+00,3.69459952697049E+00,6.19231736061792E+00,5.17907105586129E+00,7.05608920614083E+00,6.39681547634310E+00,4.93617180394051E+00,7.57634190653642E+00,1.11643798880002E+01,3.22282394524739E+00,5.73189060840632E+00,8.04746969046274E+00,6.83903279390604E+00,7.90242594600963E+00,7.88105909200844E+00,8.97254851679685E+00,4.34226222444851E+00,6.44461580506465E+00,6.36494524552409E+00,3.92147074650883E+00,1.12176226527534E+00,1.01304412532392E+00,,,,,,
GEO,,,,,,,,,,,,,,,,,,,,,,,,,,,,,,,,,,,,,,5.73380633293917E+00,6.93473475676866E+00,6.17920295592505E+00,5.84857819905213E+00,3.81980394316555E+00,3.68303346429554E+00,2.87717160046144E+00,1.79831219605696E+00,1.23294140967915E+00,1.34837355957727E+00,1.34828812370205E+00,6.03065359939663E+00,7.71481668399534E+00,6.27542711910377E+00,
GHA,,,,,,,,,,,,,,,,2.10543660891688E+00,2.05804237206775E+00,1.50810626324870E+00,2.37659443201525E+00,2.56577350637771E+00,4.38067760283571E+00,8.20479767432261E+00,8.97885741876557E+00,1.30617671691792E+01,1.10503514794834E+01,1.29042899408284E+01,1.37959315546829E+01,1.28942721553912E+01,1.30749973923021E+01,1.27883668903803E+01,1.10116989881956E+01,9.94231846182565E+00,1.00078201368524E+01,9.40778637384577E+00,7.96541745044133E+00,5.92836101535569E+00,7.65834428383706E+00,8.26472232464644E+00,5.94887429643527E+00,6.05879516135514E+00,5.45478604291356E+00,3.71537410459194E+00,3.48839368616527E+00,2.74896778750268E+00,2.47244500591085E+00,2.42431603558740E+00,1.61212708237664E+00,1.35044349540079E+00,2.02585170900757E+00,1.69787290886619E+00,2.10431703950349E+00,
GIN,,,,,,,,,,,,,,,,,,,,,,,,,,,3.37336437061334E+00,8.09106742970888E+00,6.08556688495544E+00,5.23091702809997E+00,6.98681754965707E+00,5.10090876903104E+00,5.32469808262387E+00,5.26131575819212E+00,6.37612028738612E+00,6.84517340460888E+00,6.07336232798432E+00,7.40357754077138E+00,6.81251076605064E+00,7.20904060670748E+00,7.48508398559148E+00,4.40237701652988E+00,4.13578284283528E+00,4.32367527849969E+00,5.12995162607075E+00,5.06658946149392E+00,4.58656413153411E+00,3.83736518189020E+00,2.55368583133988E+00,2.84259655808343E+00,1.57790392054297E+00,
GMB,,,,,,,,,,,,,,,,,,,3.67203529507263E-01,3.74777263009834E-01,5.68499669442939E+00,9.62897677724008E+00,7.10189727359589E+00,7.28971589948631E+00,5.84277667508584E+00,5.68224749305379E+00,1.05897273958594E+01,6.57913776245785E+00,5.56417665653371E+00,4.23037071403172E+00,7.21880865673804E+00,3.50950481522543E+00,3.36640277268094E+00,2.97341972724094E+00,3.44847645123296E+00,3.49102692454871E+00,2.53486327794278E+00,2.93408797739226E+00,,,,,,5.46733602056860E+00,4.89958706199545E+00,5.46988106757221E+00,4.48970178644694E+00,3.65577683106996E+00,2.01580804010504E+00,2.58233911468228E+00,2.63193498205356E+00,
GNB,,,,,,,,,,,,,,,,,,,,,,,1.41379310344828E+01,2.04640522875817E+01,2.05118110236220E+01,3.25138121546961E+01,3.21134020618557E+01,4.38246753246753E+01,3.68113207547170E+01,2.65310077519380E+01,2.33218390804598E+01,1.96328358208955E+01,1.82695507487521E+01,8.69751166407465E+00,1.00334878928387E+01,2.08550185873606E+01,1.54777738886944E+01,6.05346465001759E+00,,,,2.42648025479323E+00,1.63586578448009E+00,2.26454119843016E+00,2.86302220079770E+00,2.23567524608075E+00,3.60007117616223E+00,2.45117114755925E+00,2.05996344674221E+00,,,
GRD,,,,,,,,,,,,,,,,,,1.21059316651848E+00,9.73214285714286E-01,1.16802507836991E+00,1.95907928388747E+00,2.21538461538462E+00,3.10443864229765E+00,3.39141414141414E+00,4.41019417475728E+00,2.88476495872279E+00,1.75530532698138E+00,2.51633571136457E+00,3.14696325918520E+00,1.83220796758947E+00,1.63493723849372E+00,1.62589423998820E+00,1.95000539510125E+00,2.62493860309769E+00,2.32855154390250E+00,1.75166220533632E+00,2.23410326086957E+00,1.58168316831684E+00,2.24077627562145E+00,1.98697404803945E+00,1.82800552356230E+00,3.62031634042587E+00,9.03923376786690E+00,1.06575644772102E+01,9.34005569731928E+00,3.05044701883207E+00,4.55679403920035E+00,5.05281334233606E+00,4.91938769834687E+00,6.36781439913641E+00,6.31477609477543E+00,
GTM,,,,,,,,,,,,,,,,,,1.46502628504673E+00,2.42769253576458E+00,3.10573453608247E+00,3.66755725190840E+00,4.70004587456583E+00,6.84666971498247E+00,8.33609958506224E+00,8.80692990802410E+00,1.11777889700327E+01,1.41691323138298E+01,1.44611496616123E+01,9.62443299761667E+00,8.99580698377784E+00,7.20580458322841E+00,7.64591772693558E+00,8.46852755745373E+00,5.74581474552693E+00,5.21330910349602E+00,5.06783972125436E+00,5.45456789252847E+00,4.40911736772770E+00,4.68014644234531E+00,5.06813260973484E+00,4.94414326014964E+00,4.87869272403689E+00,4.96303303231830E+00,5.13644917908533E+00,7.26446602546145E+00,7.77437471706655E+00,7.88873263975310E+00,7.96623662409389E+00,7.27750930454607E+00,6.94920601755119E+00,6.08661011896697E+00,
GUY,,,,,,,,,,,,,,,,,,6.57591458816854E+00,6.65148106225847E+00,9.37730668291208E+00,8.61246178492980E+00,1.13619630031201E+01,1.12695750813525E+01,1.25444049691755E+01,1.79645510538374E+01,2.11776039673616E+01,,,,,,,9.95285202602276E+00,7.73762537905295E+00,6.16501783771475E+00,5.44020082481621E+00,4.36795580110497E+00,7.18823216187433E+00,8.76144819690899E+00,5.34753857457752E+00,4.34200906565287E+00,2.97078651685393E+00,4.51223515368547E+00,3.21971620612397E+00,1.90776445578572E+00,1.52793585138004E+00,2.21877949320655E+00,1.29583464052508E+00,1.02091321745017E+00,,,
HND,,,,,,,,,,,,,,,3.60005938316886E+00,5.00954823998860E+00,5.00830905363116E+00,5.33468047486739E+00,6.19646142958245E+00,6.98184357541899E+00,1.24219339500749E+01,1.52973870682019E+01,1.93155073388641E+01,1.46384440763237E+01,1.30067775010137E+01,1.37724641601298E+01,1.38279664324746E+01,1.30755205635554E+01,1.50756823821340E+01,6.64135643199410E+00,1.68749525256362E+01,1.51537805571347E+01,1.57589552915571E+01,1.32197403435207E+01,1.42220191534469E+01,1.35411193089797E+01,9.37157698320642E+00,9.00959582559477E+00,8.69949688066009E+00,7.76424769570297E+00,3.26905297102327E+00,2.32646699815554E+00,2.30475193665475E+00,2.14210301594035E+00,2.12713122380083E+00,1.78475640281942E+00,2.11359105356572E+00,1.66645357956233E+00,1.22757441912633E+00,1.24958201651030E+00,9.41140988925111E-01,
HTI,,,,,,,,,,,,4.33697347807176E-01,4.42881131211616E-01,7.38263834746670E-01,6.13730684863999E-01,2.00433063413124E+00,1.91460832706944E+00,3.29418471997970E+00,2.98977773549883E+00,2.46914725755572E+00,2.79422242317326E+00,4.38370104935529E+00,5.74942545130630E+00,5.04515515618524E+00,6.33584718992759E+00,6.56304779712516E+00,5.96183669341245E+00,5.84643734643735E+00,6.39950195659908E+00,7.32993620018228E+00,4.74638350261619E+00,7.34591917941463E+00,4.69353410097431E+00,4.12551876005759E+00,1.57635467980296E+00,1.68428987315450E+01,6.99582463465553E+00,4.91110524927460E+00,4.13850602613082E+00,3.73150623047096E+00,4.06114750843756E+00,3.24208725406330E+00,2.77083828069342E+00,3.44819513025711E+00,6.57273463719477E+00,3.14211578825590E+00,3.02547365744077E+00,3.23678493845040E+00,2.73670150987224E+00,1.57194401752002E+00,1.01030878518979E+00,
IDN,,,,,,,,,,,,,,,,,,,,,,6.86198649409116E+00,8.99712324903638E+00,9.78168730494312E+00,1.16283586132178E+01,1.19227518744724E+01,1.68952854996243E+01,1.56210174171623E+01,1.56526438933084E+01,1.51062650033450E+01,1.33890587126313E+01,1.38302510936657E+01,1.18722641757663E+01,1.19020171178535E+01,1.15380133715377E+01,1.14707591878884E+01,1.14626101350070E+01,1.03350124435432E+01,1.25236567635390E+01,1.03150265676463E+01,1.00656775533145E+01,9.05107113412808E+00,5.93039907244632E+00,5.97395925717088E+00,5.77774434162537E+00,3.26312163675440E+00,3.24491466949964E+00,3.81617594918284E+00,2.94779103682855E+00,3.30993221525372E+00,3.01892630489144E+00,
IND,,,,,,,,,,,,,,,,5.15525284399429E+00,4.65962872222426E+00,4.04257477897309E+00,4.50090573808874E+00,4.54886930365790E+00,5.23882502509538E+00,6.47743768166367E+00,8.72885477123317E+00,1.07990334433160E+01,1.26460311167088E+01,1.47181330961733E+01,1.66046293899160E+01,1.71913370838576E+01,1.58301972095409E+01,1.95892173199068E+01,2.05412762107742E+01,1.95899345045576E+01,1.62184478908134E+01,1.51613897131718E+01,1.42144191933529E+01,1.24830211036128E+01,1.03448062095152E+01,1.05297942962950E+01,1.07377141357961E+01,7.09165570264311E+00,6.71344014659908E+00,6.72814695054837E+00,5.71866888904452E+00,6.27170914984792E+00,3.65872743364537E+00,2.81224843344772E+00,2.45289705117486E+00,2.86935648906754E+00,2.26529362040454E+00,2.00655624199614E+00,1.49704318661760E+00,
IRN,,,,,,,,,,,,,,,,,,,,,3.06486179210000E+00,1.65855292880000E+00,3.21378111530000E+00,2.22304088960000E+00,2.06099361090000E+00,1.73085419730000E+00,3.15902545640000E+00,1.84736501250000E+00,2.60161059410000E+00,2.39851574320000E+00,2.12862306280000E+00,3.16867771980000E+00,4.23912812590000E+00,7.32157390630000E+00,4.52248426100000E+00,8.31189994290000E+00,5.72748220230000E+00,4.81698188530000E+00,4.59023842550000E+00,2.83660766040000E+00,1.89696326040000E+00,,,,,,,,,,,
JAM,,,,,,,,,,,,,,,,,1.04237989182310E+01,1.02727904667329E+01,9.01367755171824E+00,9.47039069538865E+00,1.12123663477772E+01,1.01008134417922E+01,1.42420684122238E+01,1.69472301456238E+01,2.11527112043140E+01,2.26930184804928E+01,2.05510985116938E+01,1.72791579977971E+01,1.41749731895919E+01,1.14668989547038E+01,1.11971437174689E+01,1.06832555036691E+01,9.28947941624918E+00,8.02242367372910E+00,6.71744126659857E+00,6.54543143623782E+00,6.14234998701186E+00,5.45506837727337E+00,4.95265670461286E+00,5.32028655339939E+00,6.90958853395388E+00,8.94652061855670E+00,9.85756864476696E+00,8.42910720061589E+00,8.11584591925739E+00,9.69901912696752E+00,9.92736187820220E+00,1.28283308453061E+01,1.16154813229717E+01,1.77312217338837E+01,1.99155738080022E+01,
JOR,,,,,,,,,,,,,2.29420496624084E+00,1.62962684910235E+00,1.41026816987237E+00,1.67782097891629E+00,1.57590455307619E+00,3.62717721192829E+00,4.85089115764286E+00,6.07849825631950E+00,6.23670329675731E+00,5.75063195707392E+00,7.68800235815070E+00,1.00210100169551E+01,1.01711869670010E+01,1.19956556646574E+01,1.44877034099529E+01,1.53046912205669E+01,1.63630635425540E+01,1.22921048535830E+01,1.46120781387708E+01,1.55390985311718E+01,1.18701192820754E+01,8.89748792175312E+00,8.10814830212130E+00,7.30522769735144E+00,1.02004977581826E+01,9.42207291051388E+00,1.14250539881699E+01,6.27790408206431E+00,7.49317126486493E+00,5.91063415452018E+00,3.95666959061504E+00,3.33906716124466E+00,2.70013192679750E+00,2.66610231330244E+00,2.71862987243363E+00,2.65695898896835E+00,1.68934338396964E+00,1.35525278102789E+00,1.22461847943780E+00,
KAZ,,,,,,,,,,,,,,,,,,,,,,,,,,,,,,,,,,,,2.15158562719072E+00,1.86073732325174E+00,2.68371081253999E+00,3.97925854766167E+00,4.04222026231187E+00,7.39805976882872E+00,7.02291634980798E+00,6.09276093458359E+00,5.22132049560937E+00,3.93631440482543E+00,5.54462885463028E+00,5.35434306110256E+00,6.45539531902412E+00,5.51401682124895E+00,1.12046510475225E+01,7.42902857497813E+00,
KEN,,,,,,,,,,,,,,,,4.58205374114930E+00,4.41552169327559E+00,3.75306146903552E+00,5.32045373859028E+00,6.66971878710720E+00,1.11097113923407E+01,1.34034520710637E+01,1.44630160086080E+01,1.40706757797439E+01,1.39039297555069E+01,1.48312301488395E+01,1.33999834939443E+01,1.67578943636104E+01,1.65441728697802E+01,1.45784872517588E+01,1.49252253858580E+01,1.45137765714154E+01,1.20982237357714E+01,7.15767143740392E+00,7.68450225417282E+00,8.36123053397860E+00,7.30891194841497E+00,5.07811752590089E+00,4.40627195026528E+00,3.95362771557475E+00,5.02514867457127E+00,3.62123033636107E+00,3.56035751959732E+00,3.63518298991949E+00,1.96642224552749E+00,1.68774567662206E+00,1.55874124061863E+00,1.49745015856018E+00,1.33819606632542E+00,1.46042492920215E+00,1.27433001283198E+00,
KGZ,,,,,,,,,,,,,,,,,,,,,,,,,,,,,,,,,,4.05399973585837E-01,4.39365801818436E+00,5.20691776850176E+00,6.70099638479852E+00,8.53453075097424E+00,1.01629008549743E+01,9.64333898589338E+00,1.28732976059046E+01,8.48702569423669E+00,4.57662964822688E+00,3.79598522396431E+00,3.76339016535399E+00,3.60443027846899E+00,2.32134361739276E+00,1.84715373269487E+00,1.81556756955747E+00,1.65469477963486E+00,2.88604871470287E+00,
KHM,,,,,,,,,,,,,,,,,,,,,,,,,,,,,,,,,5.96753660089115E-01,5.54655358661426E+00,3.53522415370540E-01,2.57533966697313E-01,4.77289377289377E-01,5.11288908373520E-01,5.95693689658366E-01,9.60002387729721E-01,9.35628481611461E-01,4.23256987023192E-01,3.28673132073519E-01,3.38444550759976E-01,3.60186974770587E-01,3.57805556237086E-01,3.01694314786778E-01,3.06545327021561E-01,3.50907333462824E-01,3.90940305496007E-01,,
KNA,,,,,,,,,,,,,,,,,,,,,,,,,6.64786462530217E-01,8.16578633498040E-01,7.35304990757856E-01,8.77745354016281E-01,8.34689228766678E-01,1.00420713422549E+00,1.66292086268747E+00,1.29816394175264E+00,8.85530546623796E-01,1.13319458896982E+00,1.40486229478783E+00,1.49671830652791E+00,1.52651257647858E+00,1.47256355660450E+00,3.18718943907443E+00,5.08766943594227E+00,4.65293291100049E+00,7.54354090377051E+00,1.12382074800675E+01,1.22422591120609E+01,1.11598550824991E+01,8.62691765752420E+00,7.73437281096893E+00,7.87536549718357E+00,6.92832978991726E+00,7.40739520968804E+00,6.93686713225191E+00,
KSV,,,,,,,,,,,,,,,,,,,,,,,,,,,,,,,,,,,,,,,,,,,,,,,,,,2.04812347722418E+00,3.55963045195919E-01,
LAC,,,,,,,,,,,,,,,,,,,,1.37160385181834E+01,1.99897075763769E+01,2.45838318961159E+01,3.09280186645768E+01,2.94220096906160E+01,2.69153563910330E+01,2.77118437831244E+01,2.71354327938441E+01,2.27440362089376E+01,2.31764267008798E+01,1.60670434603165E+01,1.22253032067415E+01,1.29109255196062E+01,1.14886213815087E+01,1.10804606508010E+01,1.11534780715498E+01,1.23971794527529E+01,1.19665276889605E+01,1.14120617459153E+01,1.28533323046421E+01,1.38626411696738E+01,1.23702848209942E+01,1.12043188601801E+01,9.25034706564465E+00,8.69568676201767E+00,7.04429915542589E+00,6.10693518778836E+00,5.73993996231786E+00,5.23318934004695E+00,4.29918648702635E+00,5.02033167611063E+00,4.34077055648975E+00,
LAO,,,,,,,,,,,,,,,,,,,,,,,,,2.12054329371817E+00,1.36048064085447E+00,2.06045340050378E+00,2.11810154525386E+00,2.73421052631579E+00,2.91570438799076E+00,2.80401529636711E+00,2.35294117647059E+00,1.99649298597194E+00,1.38688908399181E+00,1.21165874405804E+00,1.48807516261142E+00,1.49839596700275E+00,1.72081801470588E+00,1.60465587044534E+00,1.94150825151452E+00,1.84682227331177E+00,2.08268637558744E+00,7.55878687162443E+00,7.84005145797599E+00,7.98297015198682E+00,6.15968708040875E+00,4.28826448227700E+00,4.38141693385871E+00,3.93830827503575E+00,4.62565618243084E+00,,
LBN,,,,,,,,,,,,,,,,,,,,,,,,,,,,,,,,,,,,,,,,,,,1.74525790402503E+01,1.14211559862127E+01,1.11395709223414E+01,9.59248108047123E+00,8.78854657782616E+00,8.26468556633879E+00,6.27282984419069E+00,6.83290656342332E+00,7.21891472789691E+00,
LBR,,,,,,,,,,,,,,,,,,,,4.14396790642632E+00,5.76137078285499E+00,6.40133337345792E+00,6.30846042399275E+00,6.38798701525614E+00,6.63945062236495E+00,5.31662191181419E+00,3.87963268712877E+00,2.48358829756661E+00,,,,,,,,,,,,,,,,,2.16649269670669E-01,2.45550279187418E-01,1.43287677195545E-02,6.76847007436393E+01,6.97796314238505E+01,5.86513677435105E+00,4.15375756649610E-01,
LCA,,,,,,,,,,,,,,,,,,,,,,6.44607843137255E-01,6.45422943221321E-01,5.76234400434074E-01,4.99105545617174E-01,6.13991769547325E-01,5.59554973821989E-01,8.60201005025127E-01,9.07863814401928E-01,1.12766140479160E+00,1.09220205351507E+00,1.49222203819546E+00,1.34555126921823E+00,1.54470575122604E+00,1.47006292300041E+00,1.47522269307273E+00,1.75298444659165E+00,1.83692827176916E+00,2.06886419288002E+00,2.13585138579165E+00,2.41410218978102E+00,3.41277215792866E+00,3.36911792285183E+00,3.65572632334390E+00,2.94516269559062E+00,3.28803782056883E+00,3.52892646056120E+00,4.31658029042810E+00,4.70617766242229E+00,2.64085972911997E+00,2.24513826736705E+00,
LIC,,,,,,,,,,,,,,,,,3.16665388084572E+00,3.61083880293869E+00,4.44013347964125E+00,4.76136643906182E+00,8.12332032648469E+00,9.13324130789187E+00,1.06363228134689E+01,1.11540495776704E+01,1.17459671225633E+01,1.24232036056802E+01,1.22088103844515E+01,1.23239463667292E+01,1.18458409877313E+01,1.11398394084384E+01,9.75266374982398E+00,8.83413107723048E+00,7.27405318849948E+00,6.86922028165659E+00,6.33783794312154E+00,5.71142169925876E+00,5.17321209810559E+00,4.42587035726353E+00,4.24727798732463E+00,4.15072846839090E+00,3.50278639068592E+00,2.44919286323110E+00,3.06394516062824E+00,2.18625178335541E+00,1.96509831641741E+00,1.82229629389975E+00,1.61711508498548E+00,1.92092541128379E+00,1.79777647722519E+00,1.32128044946246E+00,1.04967765879128E+00,
LKA,,,,,,,,,,,,,,,,4.31399235832282E+00,5.02628792468521E+00,4.67106366907583E+00,5.32728417116860E+00,5.83285232665509E+00,6.37236263818793E+00,7.45658613657469E+00,8.93892354305664E+00,9.98378464856576E+00,8.32966142227883E+00,9.47802622359654E+00,1.00524885180809E+01,9.76336112617815E+00,8.99360505055767E+00,8.17472774449326E+00,7.13366212250474E+00,6.35978281155426E+00,5.14978304684599E+00,4.15789549257029E+00,3.76389233662247E+00,3.55637066237121E+00,3.55974672131207E+00,3.16678887423046E+00,3.22630855729976E+00,3.85602574511146E+00,3.80301552246938E+00,3.69501975252420E+00,3.62452981000435E+00,2.78268899927759E+00,2.91835560764244E+00,1.92832281906547E+00,3.02698379167329E+00,3.01282538678410E+00,3.38062856092630E+00,3.87835491174466E+00,6.26052093375258E+00,
LMC,,,,,,,,,,,,,,,,,,,,,,8.83396831871828E+00,1.13173547154759E+01,1.16643767546998E+01,1.24596812777852E+01,1.20857184439725E+01,1.35712799158189E+01,1.18347409135667E+01,1.26154175947323E+01,1.28036646169008E+01,1.13716558976739E+01,1.10787124030032E+01,1.03724185136541E+01,9.42860752969225E+00,9.20507166589732E+00,8.56729448290951E+00,7.64216054581602E+00,7.09893328070694E+00,7.94752357677549E+00,6.77905889772920E+00,6.41307497811995E+00,6.22177196680420E+00,5.01077392798984E+00,4.65860966741243E+00,3.78823079859248E+00,3.54654147915448E+00,2.81327908579179E+00,2.86163645602587E+00,2.36037074455957E+00,2.70082887439133E+00,2.17344494260810E+00,
LMY,,,,,,,,,,,,,,,,,,,,,,,1.47489487939304E+01,1.42087836629947E+01,1.40894596813423E+01,1.47338868573016E+01,1.53698915065159E+01,1.29451281969186E+01,1.32794660954600E+01,1.12075326740291E+01,9.46625363463820E+00,9.38664811045687E+00,7.88170690264241E+00,7.31557810465547E+00,7.08339632672388E+00,7.44730269448833E+00,7.11618601118039E+00,7.00819820450989E+00,7.84674012288176E+00,7.76859243051504E+00,6.81345649503685E+00,6.37365818825337E+00,5.05700157974396E+00,4.47244421782005E+00,3.54429659986504E+00,3.13240247772206E+00,2.89960824205463E+00,2.79945380863184E+00,2.41675768091318E+00,2.66259151263652E+00,2.60142712272426E+00,
LSO,,,,,,,,,,,,,,,,1.45541419925343E-01,1.33823827709567E-01,1.24509338308634E-01,1.68427368522399E-01,2.13749744412423E-01,5.73877490624451E-01,7.29918995977294E-01,1.28055863463061E+00,1.42915783302911E+00,9.82138476145439E-01,1.61365957733743E+00,1.50742067779443E+00,1.36163580801879E+00,1.57182358865521E+00,1.59993662092542E+00,1.48674461630116E+00,1.73849143599003E+00,2.10109836230701E+00,2.00311249752205E+00,2.06132075262007E+00,2.40639581629739E+00,2.37324522191440E+00,2.78601421727153E+00,3.68279902857168E+00,4.05103653531383E+00,4.27335716274869E+00,3.20279016106844E+00,2.48236355473654E+00,1.72863182531272E+00,1.29884882615984E+00,1.01417594415450E+00,6.48926040567505E-01,3.89773411315201E+00,4.70878369830722E-01,4.88059872773203E-01,4.19775673398736E-01,
LTU,,,,,,,,,,,,,,,,,,,,,,,,,,,,,,,,,,1.79152579258648E-01,1.36793248278501E+00,9.64941636221475E-01,9.89806229806441E-01,2.69621300129839E+00,3.89488222131325E+00,4.93817546108529E+00,5.30108808358658E+00,4.68538705781674E+00,4.65363902967298E+00,3.86009931356048E+00,2.86824430002752E+00,2.10922724007373E+00,2.37213478907839E+00,3.40337191063785E+00,3.52565168751728E+00,3.64970055547888E+00,3.13601716125677E+00,
LVA,,,,,,,,,,,,,,,,,,,,,,,,,,,,,,,,,,,,,,,,,,,,,,6.44437077310702E+00,7.33652783270965E+00,1.15298014725609E+01,1.10002631958240E+01,7.53113401404973E+00,6.34191296286908E+00,
MAR,,,,,,,,,,,,,,,,3.04153730478697E+00,6.55560420793517E+00,1.11095417934561E+01,1.54180989479260E+01,1.81817800249759E+01,2.34684553464192E+01,2.80034257718064E+01,2.79711216226961E+01,2.69634236066771E+01,2.57828946757614E+01,2.35207254442788E+01,2.34692574434524E+01,1.97041873385072E+01,1.82321305333844E+01,2.35753601681056E+01,1.40308271608277E+01,1.68115710153731E+01,3.17754647985175E+01,1.84149810993399E+01,1.79033562163261E+01,1.49621842142212E+01,1.40379949098879E+01,1.17475609929247E+01,1.10863465292677E+01,1.08498248879672E+01,1.00213621042602E+01,8.79542810300569E+00,8.91828849659870E+00,9.08797904952499E+00,3.60103071858461E+00,3.02965888885022E+00,2.74005436908791E+00,2.45406882125862E+00,2.16151774587065E+00,2.56905697993249E+00,2.82435880660135E+00,
MDA,,,,,,,,,,,,,,,,,,,,,,,,,,,,,,,,,,,1.30029603673272E+00,3.26282136969211E+00,3.48117024587613E+00,4.28996369991933E+00,5.87037891056509E+00,7.88199863107461E+00,8.69898907068817E+00,7.44584698612363E+00,5.30653957114305E+00,3.52315793244260E+00,4.05800053959112E+00,3.21951840375173E+00,3.55574522364682E+00,3.67097719713386E+00,2.56401629183637E+00,2.68934178977492E+00,2.63582747527702E+00,
MDG,,,,,,,,,,,,,,,7.30802171071636E+00,6.50766535883310E+00,1.25575185612033E+00,6.68036672385166E+00,1.64245696525399E+00,3.25906681010470E+00,1.08745280632911E+01,1.61058140367434E+01,1.68264238262958E+01,1.47195124483594E+01,1.57899660403420E+01,1.65809912437684E+01,1.68967448025488E+01,2.74930314328626E+01,2.05804126494092E+01,2.44753603719713E+01,2.10368335746095E+01,1.57092531319811E+01,7.82323361654343E+00,5.73418191656211E+00,3.36410518658959E+00,2.62480064857156E+00,2.78483285151517E+00,1.16298547685600E+01,6.25565337465150E+00,8.92377598165358E+00,3.13161404512182E+00,2.46465559446361E+00,2.56206836905068E+00,2.70887248752679E+00,2.13244736086702E+00,2.24708354947410E+00,1.37621221408935E+00,5.50424717314104E-01,4.75739339113867E-01,8.40956819587584E-01,7.71049633909209E-01,
MDV,,,,,,,,,,,,,,,,,,,5.68750000000000E+00,1.40430622009569E+00,8.22085889570552E-01,3.11543624161074E+00,4.26103896103896E+00,6.19534282018111E+00,6.00471142520612E+00,3.99124726477024E+00,2.77763703271467E+00,2.21311525990742E+00,2.16350663334512E+00,1.51520000372562E+00,1.52557127312296E+00,1.07247487967530E+00,8.45401067049911E-01,1.23120537723957E+00,1.12055015102474E+00,1.15990860603536E+00,1.03513425542651E+00,1.08693850747813E+00,9.90051387638146E-01,1.20801677357759E+00,1.26095820011406E+00,1.37326342307537E+00,1.24040113345845E+00,1.01605172151464E+00,1.27220246774350E+00,2.57336943924617E+00,2.50327011007863E+00,3.59102383135389E+00,3.38392432568947E+00,3.13202982717842E+00,2.53469929626092E+00,
MEX,,,,,,,,,,,,,,,,,,,,1.91691283568503E+01,2.52972443406845E+01,3.25159075775736E+01,3.73001571853784E+01,3.15015255626300E+01,3.10099349740719E+01,3.01958401039974E+01,2.95558315982638E+01,2.34981006406457E+01,2.18761958568738E+01,2.04449746371242E+01,1.40195399208879E+01,1.48625501552316E+01,1.28848781325094E+01,1.25243322516226E+01,1.20426722489537E+01,1.16096896704690E+01,1.04368047245535E+01,8.79662360791766E+00,8.27484049352822E+00,7.86352727412513E+00,7.56452177981655E+00,7.17240501978353E+00,5.77868907921014E+00,5.22661098696786E+00,4.69349048987667E+00,4.49042162871025E+00,4.16411888278616E+00,4.11766715328901E+00,2.98392885360975E+00,3.37806877715732E+00,2.98752690243705E+00,
MIC,,,,,,,,,,,,,,,,,,,,,,,1.48669501088453E+01,1.42887823637801E+01,1.41499482997562E+01,1.47946356788969E+01,1.54832209720605E+01,1.29583835231854E+01,1.33110411003694E+01,1.11992330174414E+01,9.44985065364228E+00,9.39051254500345E+00,7.88555057976433E+00,7.31945769006525E+00,7.09352087775039E+00,7.47990243279962E+00,7.15277297248300E+00,7.05880662086471E+00,7.92234163424252E+00,7.84449542338450E+00,6.87595123085915E+00,6.45355309988392E+00,5.09551001489668E+00,4.51542148228646E+00,3.57301318356300E+00,3.15531227625375E+00,2.92169321162055E+00,2.81466155312557E+00,2.42748855484768E+00,2.68728637202303E+00,2.62978786704941E+00,
MKD,,,,,,,,,,,,,,,,,,,,,,,,,,,,,,,,,,,,,2.40642306721504E+00,5.12358352024899E+00,4.42695029357741E+00,3.56307650081257E+00,2.68629951601236E+00,4.11350781073582E+00,3.69664943345592E+00,2.86784821228288E+00,3.99691712987498E+00,3.48273240458836E+00,3.95649485896599E+00,3.69321763239163E+00,3.43661940363381E+00,4.75997065351401E+00,4.85596118118306E+00,
MLI,,,,,,,,,,,,,,,,8.57040507643781E-01,7.08430516286824E-01,1.49441673380272E+00,2.22459385991183E+00,1.57790330228038E+00,2.81439595167733E+00,6.00354338692457E+00,6.54478501375525E+00,5.12702675496116E+00,6.82760902265215E+00,9.74158572920066E+00,8.38067508831352E+00,7.20051986055728E+00,7.73577147874498E+00,6.29599269111919E+00,5.43331466164384E+00,3.92440625708963E+00,4.31788336062913E+00,9.18569679818915E+00,6.15880291645620E+00,4.60128625709755E+00,1.12785755641528E+01,5.39931085272702E+00,4.02778019799705E+00,4.24345136945762E+00,3.97854891720787E+00,2.02648889547785E+00,2.24588038742257E+00,1.72734418610670E+00,2.19232352404003E+00,2.16791385096515E+00,1.38319894421762E+00,1.00329948990243E+00,9.46171540836514E-01,1.02245776398224E+00,8.94545436206860E-01,
MMR,,,,,,,,,,,,,,,,,4.74437668171250E+00,5.69639658348956E+00,7.90743048304654E+00,9.73087566339262E+00,1.04751724098279E+01,9.13576359403653E+00,1.09229963302050E+01,1.62919091923240E+01,1.63868347260403E+01,2.06377131668582E+01,2.43672003848749E+01,2.59847088646263E+01,1.93577010424461E+01,2.47315019378811E+01,4.51063145788353E+00,1.65738357032755E+01,4.24128514989845E+00,1.00282382688858E+01,1.06077522585614E+01,5.26733842189738E+00,1.32756582776080E+00,9.90683639594567E-01,8.21015201716625E-01,1.72486765627017E+00,6.54512695091077E-01,3.59120726282934E-01,4.57463694972321E-01,5.75589762257184E-01,1.01597190464946E+00,1.11359988610566E+00,1.11695533807717E+00,,,,,
MNA,,,,,,,,,,,,,,,,,,2.14542492402986E+00,3.64739734899342E+00,4.27153161173812E+00,7.57957542185018E+00,8.03491791806454E+00,7.66951154651172E+00,7.32729602131162E+00,8.27809420063071E+00,8.48003684383402E+00,1.25654941698755E+01,9.03597556281869E+00,1.12367415790879E+01,1.05444895726291E+01,7.81252305522090E+00,7.77752242347934E+00,9.68133267820765E+00,8.90486986808958E+00,7.65486488641621E+00,8.29373552684925E+00,7.53801185123791E+00,7.00984206524599E+00,7.76118664349237E+00,6.22140669022861E+00,4.98806300852839E+00,4.63255520636990E+00,4.75418844078719E+00,4.20015051379850E+00,3.34499898310292E+00,2.78076057412026E+00,2.25041715765860E+00,1.86727694820728E+00,1.36473400572574E+00,1.51193365269274E+00,1.45939231654628E+00,
MNE,,,,,,,,,,,,,,,,,,,,,,,,,,,,,,,,,,,,,,,,,,,,,,,,2.89680241214839E+00,1.98222956643276E+00,2.55647220367411E+00,2.25290912777784E+00,
MNG,,,,,,,,,,,,,,,,,,,,,,,,,,,,,,,,,2.93730808597748E+00,2.73178807947020E+00,2.62632338787295E+00,1.98415802855466E+00,1.78436548223350E+00,1.99585525267017E+00,1.57077957477739E+00,2.04079731743666E+00,1.66863527533919E+00,1.60225934595592E+00,1.72838395397063E+00,1.68178070898599E+00,1.70445284741011E+00,1.35337238493724E+00,8.42291807024225E-01,7.21614972839767E-01,1.14474191258459E+00,1.33781369607118E+00,8.14111762876397E-01,
MOZ,,,,,,,,,,,,,,,,,,,,,,,,,2.29059429106224E+00,1.61992378878606E+01,2.22036458333333E+01,1.09299145299145E+01,1.39880585516179E+01,1.62515653775322E+01,1.25747164776518E+01,1.13352506162695E+01,1.33663995578889E+01,2.12249730893434E+01,1.42210419828022E+01,1.64385629251701E+01,9.00388672959467E+00,7.93552332692644E+00,6.90590885461792E+00,7.61856155778894E+00,4.16040067646676E+00,1.76662749175099E+00,2.15984693090633E+00,1.75955860827764E+00,1.23663994216903E+00,1.09688575053459E+00,7.41021609362422E-01,6.06891377330361E-01,6.88339894218809E-01,1.09730103543859E+00,1.62910513383730E+00,
MRT,,,,,,,,,,,,,,,,2.84874748286906E+00,3.80258117972116E+00,4.88651573984405E+00,6.17470833913406E+00,7.59302467685077E+00,8.06740025484579E+00,9.62553364895132E+00,1.21109763055380E+01,9.66082405008774E+00,1.08701526755345E+01,9.19768720992709E+00,8.91726618703037E+00,9.29503897530675E+00,9.30807470728061E+00,7.66784119595580E+00,9.98491903678719E+00,7.52886672738312E+00,5.99462572625248E+00,1.09675513953790E+01,9.89167126547951E+00,7.58252786796124E+00,6.72898557669520E+00,9.52662831178378E+00,1.05008325890859E+01,,,,,,,,1.58383671393146E+00,1.70409982174688E+00,1.24244929721317E+00,1.50672451193059E+00,,
MUS,,,,,,,,,,,,,,,,,7.40988464724264E-01,8.50604529330654E-01,2.02907380139176E+00,2.88125547147683E+00,4.43929445417563E+00,8.69191551464025E+00,9.61354079128326E+00,8.17203129347443E+00,8.33968927270966E+00,7.54574707777744E+00,4.93579127225932E+00,3.72421015032432E+00,3.79255741370182E+00,3.46822121172352E+00,2.68689854001892E+00,2.74644907119603E+00,2.64099298712685E+00,2.15157933176145E+00,2.22202223434431E+00,2.32940417502894E+00,2.52930040265877E+00,2.48903948898152E+00,2.35325305076030E+00,2.11161205661805E+00,1.93771116970989E+00,1.27824603735568E+00,1.14658399709271E+00,1.12895158383543E+00,9.71897409007688E-01,7.61236811881440E-01,6.64924405939748E-01,5.00586395134279E-01,4.06529655406622E-01,4.49270327880986E-01,3.22700898420191E-01,
MWI,,,,,,,,,,,,,,,,,,3.60889800803775E+00,8.04777506420856E+00,9.50935626637341E+00,1.68227078660871E+01,2.13353896686892E+01,1.85301309264543E+01,1.65473910036366E+01,1.32528536546569E+01,1.63026278964770E+01,1.92567196468828E+01,1.40635130073207E+01,1.19752818226071E+01,1.28881074881091E+01,1.03136519883633E+01,8.88000105185743E+00,8.40112496757427E+00,8.24119325374654E+00,7.54936581581840E+00,9.02022171037417E+00,5.91362542314546E+00,5.12854518685720E+00,4.28947693553040E+00,3.77878145944520E+00,4.48763112207002E+00,3.19599307086417E+00,3.62490476960759E+00,3.81487296833453E+00,4.56482299047674E+00,,,,,,,
MYS,,,,,,,,,,,,,,,1.49672094046229E+00,1.93385545497283E+00,2.65832242064704E+00,3.41593325020263E+00,3.50875184681606E+00,3.56452592615571E+00,3.97141517460823E+00,5.12060762057595E+00,6.50679995929687E+00,6.99644913083931E+00,7.85107895381443E+00,9.03203171511318E+00,9.27006329784987E+00,7.91748331579660E+00,6.68593254749298E+00,4.58776722920376E+00,3.37836152376388E+00,2.73137856408369E+00,2.38568700651998E+00,2.47836071644597E+00,2.08906030805376E+00,1.85054883470159E+00,2.19797048427970E+00,2.95856663898108E+00,2.67028864637926E+00,1.96058911084072E+00,1.99995788761516E+00,2.04173632308600E+00,1.76935827389439E+00,1.77931745710654E+00,1.39947275351485E+00,1.30904731083888E+00,1.22824843418269E+00,1.19888608229579E+00,1.04097166773584E+00,1.14559062005549E+00,7.61390476356982E-01,
NER,,,,,,,,,,,,,,,5.24301674382004E-01,1.35191010624852E+00,1.20105567454735E+00,1.32051968162629E+00,7.51800552741897E+00,7.89043959937902E+00,1.30016992848314E+01,1.64713928429479E+01,1.98254666202294E+01,1.58063540920661E+01,1.33493549324706E+01,1.62794254700783E+01,1.42347530097485E+01,1.46205692096339E+01,1.65233501504244E+01,1.09232095830231E+01,6.49931493739858E+00,7.84618223939295E+00,3.98128043514056E+00,6.78787290906750E+00,6.56506899275969E+00,4.48496889265970E+00,3.11228431893434E+00,4.85068695609760E+00,3.07956735849478E+00,3.38370711675105E+00,3.05746202229389E+00,2.21603150163407E+00,2.50196859761370E+00,2.57059807349643E+00,2.34374426938913E+00,2.23712867412982E+00,1.66026103143560E+00,1.90260062546401E+00,9.89800770617687E-01,,,
NGA,,,,,,,,,,,,,,,,,,3.91863244238185E-01,5.70340545652004E-01,1.42683009627160E+00,3.27338317157876E+00,5.93050690320077E+00,9.68494114461075E+00,1.29667798756021E+01,1.56913773619811E+01,1.27395634105307E+01,1.49708352605541E+01,8.26843914448952E+00,2.08586173625620E+01,1.76139552524582E+01,1.46017846601468E+01,1.55969989311577E+01,1.43911484247473E+01,8.19378564742522E+00,1.13905872326717E+01,7.35216719306463E+00,6.43065306145390E+00,3.54497070732234E+00,5.48264643391226E+00,3.25254567657273E+00,3.56004269729409E+00,4.26346727662350E+00,1.86413421237971E+00,1.54176837544864E+00,1.46777906614317E+00,8.74969215980602E+00,6.10324748405117E-01,4.70009863243883E-01,2.60859307178368E-01,2.58940082737119E-01,1.31869717234588E-01,
NIC,,,,,,,,,,,,,,,,,,7.19211352162642E+00,7.03415767181309E+00,5.53688524590164E+00,1.34492217898833E+01,2.28801581843191E+01,3.12186608122942E+01,1.10307234886026E+01,1.10541469703481E+01,8.96472969066204E+00,8.18993055555556E+00,4.57515337423313E+00,4.18132267441861E+00,1.38129496402878E+00,2.82351485148515E+00,5.76910919540230E+01,2.03491161616162E+01,1.87788513150832E+01,2.10538429855520E+01,1.27824702896130E+01,1.16118105776771E+01,1.56954778497797E+01,1.74310575029052E+01,8.79416862434853E+00,8.64638883983754E+00,6.48362898243756E+00,4.17457140370725E+00,4.21826719176007E+00,2.82171613988703E+00,2.68484332579470E+00,2.48906809263013E+00,2.95245398773006E+00,3.55995367374503E+00,4.51565039947428E+00,2.92591077708588E+00,
NPL,,,,,,,,,,,,,,,,,3.73748295801796E-01,1.56165294958356E+00,1.59063864787609E+00,1.45873212078404E+00,1.86462104940166E+00,2.68195104428624E+00,3.82858155884759E+00,3.70338652960320E+00,2.75509396179085E+00,2.92223491441458E+00,3.83935563867381E+00,4.32012922628599E+00,5.26281434280346E+00,7.39358697587721E+00,6.21757318436571E+00,5.27945470238483E+00,4.09693427934224E+00,3.64252990645864E+00,3.24816919567608E+00,2.99887398516472E+00,2.65273832967977E+00,2.12487781721576E+00,2.51525655529836E+00,2.45822305778161E+00,2.25348169558903E+00,2.31921982786625E+00,2.83491484961765E+00,2.75582228833580E+00,2.42992328536331E+00,2.25193381409326E+00,2.44261123770414E+00,2.07866654536350E+00,1.81214522867534E+00,1.92883830744164E+00,1.86089625157357E+00,
PAK,,,,,,,,,,,,,,,,,1.06160341319926E+01,1.17790135972770E+01,1.16333583163198E+01,9.63927096463615E+00,1.13724843758941E+01,1.09112035877244E+01,1.34744316956356E+01,1.33855623020886E+01,1.59643469722942E+01,1.45179042092428E+01,1.37883043326029E+01,1.28315420157116E+01,1.26452800855471E+01,1.25057949777041E+01,1.19937925642443E+01,1.08030262908583E+01,1.03260363854096E+01,1.02450797354262E+01,1.10183290603181E+01,1.15634419556939E+01,1.11461102510142E+01,1.22019613369070E+01,9.17193959515904E+00,1.14235024549918E+01,9.62150043958191E+00,8.07543679342240E+00,6.76168375171523E+00,5.60088566291536E+00,4.61244663291746E+00,3.72785309591259E+00,4.04649610159204E+00,4.77537845153375E+00,4.02257347308634E+00,4.46075772768889E+00,3.73225467535196E+00,
PAN,,,,,,,,,,,,,,,,,,5.47900006656192E+00,7.18043128440021E+00,7.77986373767187E+00,3.25625548820571E+00,3.16525795512234E+00,3.76840883542784E+00,4.07962922402098E+00,4.91461592806375E+00,5.25040609771336E+00,5.57163134294655E+00,4.23192561408161E+00,2.84129918141009E-01,1.07649749973401E-01,4.00679528095528E+00,3.18526283335903E+00,4.86690767891812E+00,1.74856480885571E+00,2.50686594077259E+00,1.55259119986169E+00,4.86834898721286E+00,3.35581698282179E+00,3.72168925332741E+00,4.71307650444066E+00,4.50782296294722E+00,5.16586261367032E+00,5.97748601652274E+00,6.34887671818754E+00,6.06128863985045E+00,5.31052284050663E+00,5.61806391180603E+00,4.11119088883387E+00,3.83322780240166E+00,3.94443985482103E+00,3.99761981412384E+00,
PER,,,,,,,,,,,,,,,,,,1.96466719529829E+01,2.02040985303250E+01,1.43665483863181E+01,1.99467748277218E+01,2.36843476201752E+01,2.42358337314859E+01,1.96986205101510E+01,1.52550075490689E+01,1.32253972257251E+01,1.03298324009242E+01,8.00467497098817E+00,5.94314256954562E+00,5.22808585782236E+00,5.72938586326767E+00,1.17946777453402E+01,9.84147690998085E+00,2.57228478231642E+01,9.31475883665749E+00,1.00270960530521E+01,2.15887581162572E+01,1.54600120820285E+01,1.66104098510922E+01,1.75280402014956E+01,1.54911777005992E+01,1.48499308374955E+01,1.32834488925798E+01,1.25767957111514E+01,9.73641051813441E+00,9.06227752865350E+00,7.25208410890175E+00,6.96105127216636E+00,5.46897263642868E+00,6.68312010086042E+00,6.69830963293486E+00,
PHL,,,,,,,,,,,,,,,,,,5.85897072710104E+00,6.90737270875764E+00,8.46409272581935E+00,1.87100037514068E+01,2.55330420598858E+01,3.07974387806097E+01,2.51020659124447E+01,2.41225770238244E+01,2.21821902235695E+01,1.87910459863315E+01,1.94878678875082E+01,1.87307331708232E+01,1.74158781333118E+01,1.35977893767270E+01,1.12322408905483E+01,8.73658564747994E+00,1.14122721492158E+01,8.84184662755378E+00,6.89009189945834E+00,5.51026068927154E+00,4.60614609991053E+00,5.29423444590330E+00,6.02545382598803E+00,6.81821606899682E+00,8.98771943697612E+00,7.64098743223862E+00,6.79856151029531E+00,8.08682401958679E+00,7.30512262698820E+00,6.79777188883852E+00,5.87416175401136E+00,6.22472827361869E+00,6.44354019434629E+00,4.78051271065410E+00,
PNG,,,,,,,,,,,,,,,,,5.16738701581598E+00,5.46714880201343E+00,5.40434713876420E+00,4.09666015046283E+00,6.58778789896813E+00,9.99342336198464E+00,1.26857720202171E+01,1.37548314956086E+01,1.57975161761451E+01,1.34786507936961E+01,1.14252364475973E+01,1.16291373395449E+01,1.03304061078779E+01,1.08086891273118E+01,1.08715680439757E+01,7.85102429410807E+00,7.78973799311667E+00,5.71699687559778E+00,5.38728010080889E+00,3.88018139119400E+00,3.34964894943065E+00,4.12214790814114E+00,4.65508748755663E+00,2.91007196453844E+00,3.78025271803353E+00,3.68505386672988E+00,3.75354360057287E+00,2.15956698020309E+00,1.82313859125244E+00,1.73992031387490E+00,1.21236572662812E+00,1.16194907323118E+00,6.64234287138554E-01,6.25179411170830E-01,8.45272228976660E-01,
PRY,,,,,,,,,,,,,,,,3.58982035928144E+00,3.67261442979054E+00,3.06339370829361E+00,3.64240441627479E+00,5.01835944079501E+00,9.56547532918536E+00,1.04407794015310E+01,1.19060797880171E+01,8.52875000000000E+00,9.03333333333333E+00,1.15219860221316E+01,1.09792796048669E+01,1.32299341302757E+01,1.08689931350114E+01,4.46856215436403E+00,3.42095259816779E+00,4.18829536527887E+00,9.76447937755548E+00,2.52138219056609E+00,2.37563829259828E+00,2.65479802955665E+00,2.57048500523695E+00,2.64655212880815E+00,2.64949103684353E+00,4.11208592716834E+00,4.64415124435597E+00,5.41696441464291E+00,4.17319900361739E+00,3.87664525812781E+00,4.65976516392519E+00,3.42731254810649E+00,2.76019329615032E+00,2.38173576508172E+00,1.76509174351075E+00,1.77533479657705E+00,1.41135171361385E+00,
ROM,,,,,,,,,,,,,,0.00000000000000E+00,1.45420207743154E-02,2.19290731540175E-02,1.21620002994460E-01,3.95153233427839E-01,5.11020036429872E-01,6.86709108716944E-01,4.94007401315789E+00,6.05197053406998E+00,6.09446532832120E+00,5.34875972762646E+00,4.64756303756524E+00,6.09589525190286E+00,6.26992616433169E+00,5.33121326432143E+00,2.92244865082561E+00,1.37143105546861E+00,2.19679633867277E-01,2.14996039603960E+00,3.22696474295844E+00,3.60384080639555E+00,3.19064423471481E+00,3.38949920927781E+00,5.16465144972239E+00,5.53815711754282E+00,5.49559799816158E+00,5.58523952095808E+00,5.61242965106930E+00,4.79111880046136E+00,4.02459725895648E+00,4.11829860119897E+00,4.14682187999419E+00,4.62001760338348E+00,5.23669972188938E+00,6.08312857544781E+00,5.60417007854912E+00,6.09186956021625E+00,4.71834366367985E+00,
RUS,,,,,,,,,,,,,,,,,,,,,,,,,,,,,,,,,,,1.62518369552909E+00,2.96659318882331E+00,3.87226471655161E+00,4.86901923289054E+00,6.38351630279376E+00,5.84302931859305E+00,4.69561349411573E+00,6.60738828832307E+00,5.46610698271965E+00,5.04986371657832E+00,3.87736149872095E+00,3.29985169282301E+00,3.53730240329408E+00,3.65819861646347E+00,3.86106541212741E+00,4.79798184601608E+00,3.66142277215669E+00,
RWA,,,,,,,,,,,,,,,,,2.59241795875715E-01,4.23933363011702E-01,5.50467155656651E-01,3.80887834269141E-01,2.55645852108714E+00,3.16388490914929E+00,3.09416611862824E+00,2.70975638693110E+00,3.38545449051617E+00,4.03333383249274E+00,2.99918592444096E+00,5.29588128808257E+00,6.12692245590577E+00,7.70466841806506E+00,7.51897450000796E+00,8.18286875519202E+00,1.09894140783139E+01,9.91439129418684E+00,5.34162681402781E+00,8.98364129751262E+00,8.30986388173094E+00,6.33949957846577E+00,7.75361368802806E+00,9.66063732441515E+00,8.03646384325554E+00,4.19731191421897E+00,5.39014644836304E+00,5.69450505590846E+00,5.80820323863085E+00,3.79194041387064E+00,2.69414256697834E+00,1.62702353190821E+00,8.15988758386250E-01,1.08762778170278E+00,9.96373599806592E-01,
SAS,,,,,,,,,,,,,,,,5.69512412288491E+00,5.65911383435693E+00,5.26856859496560E+00,5.75819112912122E+00,5.56803194110793E+00,6.41128777011040E+00,7.39807361481066E+00,9.56448762935736E+00,1.11175895200460E+01,1.24517117778181E+01,1.36771203836853E+01,1.50632505475870E+01,1.51828521724765E+01,1.41326369443041E+01,1.66928190287340E+01,1.69341728209187E+01,1.56891081654463E+01,1.31184343892008E+01,1.22649595424757E+01,1.17724592911972E+01,1.06751387301877E+01,9.26160150371500E+00,9.31106102368839E+00,8.99524914013806E+00,6.88428120456243E+00,6.37663225160886E+00,6.25175568381246E+00,5.42574580580892E+00,5.63539318922306E+00,3.60120347468076E+00,2.82094957522528E+00,2.56734747255862E+00,2.95578084991703E+00,2.38126364700638E+00,2.20105794179891E+00,1.75791173984094E+00,
SDN,,,,,,,,,,,,,,,,,,4.98771183898586E+00,6.45996258063700E+00,5.65612553665725E+00,1.28780321884881E+01,1.81593385598497E+01,1.78601700884951E+01,1.74994011976048E+01,1.21478991596639E+01,1.54349359421599E+01,1.72512419900641E+01,1.20094050743657E+01,2.01668089687430E+01,6.10169491525424E+00,6.57078607743449E+00,2.61616954474097E+00,3.38872323122798E+00,2.90409139213603E+00,9.50639853747715E-02,2.21013325523503E+00,1.81184668989547E+00,2.36850295673825E+00,4.39699296225208E-01,1.52247956403270E+00,2.58541360744004E+00,2.66333545144706E+00,2.01266056697734E+00,2.38706512249581E+00,2.35290903840300E+00,1.58140449753928E+00,1.07064312340854E+00,1.00472595955826E+00,6.85767558303760E-01,1.32308581871475E+00,7.54101766144907E-01,
SEN,,,,,,,,,,,,,,,2.42495453848493E+00,2.77874199537592E+00,2.65611082303516E+00,2.57911644608337E+00,4.63017463524119E+00,5.88671600808515E+00,1.14142256567396E+01,9.46130760425859E+00,8.65399895538363E+00,7.72444770612009E+00,1.08700859594502E+01,1.05255994348105E+01,1.25308704858808E+01,1.43577504041273E+01,1.37452253380257E+01,1.50256968254525E+01,8.31817888666301E+00,8.84079651143952E+00,4.70744721938950E+00,3.36620379809887E+00,6.23427168346401E+00,5.43850121272958E+00,9.00103338237738E+00,6.76020317233981E+00,7.30747601786856E+00,5.05470913620419E+00,5.52487324480464E+00,4.49094034960981E+00,4.64454337537830E+00,4.08244937155014E+00,3.23831770546843E+00,2.33838679325139E+00,2.92554796921436E+00,2.07713637104259E+00,1.46780494053897E+00,,,
SLB,,,,,,,,,,,,,,,,,,,7.44595170454546E-03,1.34675633257547E-02,3.31930894820534E-01,5.83478701201266E-01,5.85083664778497E-01,7.47132749737159E-01,1.52920139902934E+00,2.94366406510177E+00,2.76970068466644E+00,2.91032618925394E+00,3.51459582216264E+00,3.63493077455048E+00,3.81413741744170E+00,3.55580704113925E+00,1.75268008860448E+00,1.64061699155887E+00,1.72133960850463E+00,7.37779366402669E-01,9.52534264762891E-01,5.83468334310277E-01,2.06413676718142E+00,1.59062191780822E+00,2.22567919553386E+00,2.58392324028232E+00,4.52703569073272E+00,4.07909759807441E+00,4.90800237110601E+00,2.60019410923171E+00,8.11825860320527E-01,1.37043660506811E+00,1.49993975073010E+00,9.48930291509389E-01,9.12139328238847E-01,
SLE,,,,,,,,,,,,,,,,,,2.95681919956415E+00,3.69489118237816E+00,3.95973994479433E+00,5.63333445196688E+00,1.05900344214493E+01,1.09958100071235E+01,1.05406775621408E+01,9.23725987020268E+00,5.34156112030906E+00,1.25944130467165E+01,4.28782814887641E+00,4.98728482054606E+00,1.03470229949286E+00,4.35375512982298E+00,2.41025286406192E+00,8.57039346175840E+00,9.82251109120027E+00,2.90737707258676E+01,1.70150666440210E+01,1.34856900529925E+01,1.58703042276170E+01,2.09539599349961E+01,3.07439729113170E+01,1.89467159774406E+01,1.31245034176693E+01,5.51953395400340E+00,4.83774630841242E+00,5.21410716763419E+00,3.87286824199800E+00,3.57912127300973E+00,1.23492786109564E+00,9.33960207643105E-01,1.33099823385660E+00,9.39735521629421E-01,
SLV,,,,,,,,,,,,,,,,,3.04933084344849E+00,2.82776988636364E+00,3.85629428928720E+00,3.03943408473976E+00,4.77800686203532E+00,5.67717996289425E+00,8.60734697640118E+00,1.00574749688453E+01,1.05239771965124E+01,9.94471072990246E+00,8.70426385364620E+00,9.39305324721772E+00,8.14669408612202E+00,7.39059256564446E+00,8.38746283619766E+00,8.75668158782648E+00,8.31564769172907E+00,8.71230732767597E+00,5.64476280692155E+00,5.73308193989815E+00,5.99474614758682E+00,4.97038671934719E+00,4.91156766088213E+00,5.19278501034189E+00,5.57590260064687E+00,5.45362769320688E+00,6.77428636329219E+00,6.73964034433820E+00,8.92421512883534E+00,9.69907725457611E+00,1.12162940884252E+01,9.78482059916396E+00,8.72358120507079E+00,1.00736864587783E+01,8.41302638491726E+00,
SOM,,,,,,,,,,,,,,,,,,1.13502213722428E+00,8.31166561910234E-01,6.40788846171661E-01,1.10955915464391E+00,1.57296703955112E+00,3.89317584943449E+00,9.43760537235424E+00,1.22451653715802E+01,6.91203265723300E+00,2.40204165444412E+01,1.02975034557163E+01,5.71771882911392E+00,2.04459064300551E+01,,,,,,,,,,,,,,,,,,,,,,
SRB,,,,,,,,,,,,,,,,,,,,,,,,,,,,,,,,,,,,,,,,,,,,,,,,7.14304396289513E+00,7.90833554919639E+00,8.22582374390992E+00,6.26773792613548E+00,
SSA,,,,,,,,,,,,,,,,,,,,,,,,,,,,,,,,,,,6.07295648696531E+00,5.87517762763112E+00,5.67068961604789E+00,4.61241422919521E+00,5.36490811524558E+00,4.72266267988537E+00,3.89620315670992E+00,3.34912769558236E+00,2.90270674668990E+00,2.11319861563816E+00,1.67495536044026E+00,3.31949425803907E+00,1.54009764783552E+00,1.57029719856424E+00,1.23834593009979E+00,1.31074841624295E+00,1.14236661385161E+00,
STP,,,,,,,,,,,,,,,,,,,,6.37100200847353E-03,1.18049675403095E+00,5.72615694520023E+00,6.93079815221888E+00,5.80522341886450E+00,5.88782231611111E+00,1.37604752574912E+01,3.70906950423045E+00,9.21711936927129E+00,1.01180872663709E+01,3.63403884037797E+01,2.09828009828010E+01,,,,,,,1.40480358958768E+01,1.42083100866890E+01,1.01249883399279E+01,1.26514075320776E+01,1.50416812480567E+01,1.38355473848759E+01,1.31355374091892E+01,1.60793282726208E+01,1.15439800023342E+01,8.51895536831391E+00,7.13190928674647E+00,3.12618117946610E+00,1.55966521775570E+00,1.76113360323887E+00,
SWZ,,,,,,,,,,,,,,,4.83539309464341E-01,3.80378989074840E-01,3.80940220382754E-01,5.38505956540894E-01,8.82666012394490E-01,1.17232613902977E+00,2.24340333048433E+00,2.14364351784824E+00,2.43093459676200E+00,2.50472209575523E+00,3.37301424820171E+00,3.40854330421921E+00,3.20151650605631E+00,2.64230718366181E+00,2.04339418205094E+00,1.64798215957613E+00,1.17792951308654E+00,8.96018065420955E-01,7.61415378955735E-01,6.56712545342281E-01,5.24525724182640E-01,3.85369243451930E-01,9.57585186707604E-01,1.13123181524757E+00,1.24739595785705E+00,1.68730941722278E+00,1.31995195975743E+00,8.48523386991634E-01,6.29252619405197E-01,6.77851731263950E-01,7.85767307064084E-01,7.48920932912297E-01,8.27581531972657E-01,9.99042082116572E-01,9.15006670265788E-01,7.35846515809574E-01,,
SYC,,,,,,,,,,,,,,,,,,,,,3.61415350914227E+01,6.13791959524215E+00,2.57380242708963E+00,2.62602994591123E+00,2.95390933493893E+00,3.37830543520331E+00,4.46570323264495E+00,4.91725084219329E+00,4.12940728300080E+00,5.41805884274952E+00,3.82640065111635E+00,3.40313375953993E+00,2.59078357904314E+00,1.95230954195346E+00,2.22624743251826E+00,2.33240183803375E+00,1.49012138038783E+00,1.42217472558444E+00,2.11256792555411E+00,2.25883568754020E+00,2.26768884884204E+00,1.89380000609827E+00,1.64092516139411E+00,1.39566130207358E+00,1.18734050237325E+00,2.40240129077021E+00,6.20300009829575E+00,7.29895280685291E+00,4.01945280457128E+00,2.13265189283240E+00,4.70043298033528E+00,
SYR,,,,,,,,,,,,,,,,,,,,,,,,,,,,,,,,,,,,3.43604257377842E+00,2.89961562115621E+00,3.56950495049505E+00,4.95787135406606E+00,4.50089454670566E+00,3.42887343532684E+00,2.66586575133486E+00,,,,,,,7.02094025248822E-01,8.79634821564789E-01,,
TCD,,,,,,,,,,,,,,,,,,4.67608775551042E-01,5.56297116054055E-01,2.00284615706414E-01,7.90249149505231E-01,7.57507265865814E-01,1.11465770269011E+00,6.58010963168881E-01,5.62741584656476E-01,2.45966320562771E+00,1.54668436868433E+00,2.05790729476709E+00,1.84636526686220E+00,1.92633249092118E+00,1.83795142149764E+00,2.56967226958472E+00,2.39521315311804E+00,2.76980119397594E+00,3.21152988903229E+00,,,,,,,,,1.73594357851608E+00,5.01504912156280E-01,,,,,,,
TGO,,,,,,,,,,,,,,,8.51211603354492E-01,2.54675486382812E+00,1.86737090334193E+00,4.15622244170711E+00,3.65112000936076E+00,2.76632361916793E+00,5.92993132369649E+00,7.75889087695574E+00,8.39469159471424E+00,1.01159940984130E+01,1.21636380891266E+01,1.24354801878828E+01,1.08969773450491E+01,7.53415334734860E+00,1.41032273522218E+01,7.60216786652194E+00,6.18750287834395E+00,4.04024169012101E+00,2.90578858074732E+00,3.31515724541610E+00,2.42035346685290E+00,2.41442018308451E+00,4.36832594301533E+00,2.93694544055774E+00,2.28997237301881E+00,2.54903208093373E+00,2.25830207275996E+00,2.51077625905593E+00,6.48126221553890E-01,5.16999906916813E-01,3.38868626825896E-01,1.86274495295752E-01,4.24319463350192E-01,3.99725418418781E-01,4.43786094468597E+00,1.09337862438652E+00,,
THA,,,,,,,,,,,,,,,,3.46645295330368E+00,2.95804115963839E+00,6.10504822380735E+00,9.26648519851195E+00,1.00600927141149E+01,9.48933084518747E+00,1.26142737943993E+01,1.16882207051883E+01,1.25409766047071E+01,1.16917730311450E+01,1.33028983404088E+01,1.09655844383017E+01,8.37022843606206E+00,7.08601459631497E+00,6.04825463372806E+00,6.47570573165289E+00,7.00344540681772E+00,6.30363928301929E+00,4.39847687857644E+00,4.61677577079312E+00,5.65344077236710E+00,6.92130035199783E+00,7.39594226236421E+00,7.13108757550897E+00,9.11673413325862E+00,5.63858940894763E+00,4.12718484810564E+00,3.00389530466265E+00,2.18671330855325E+00,1.43011900913874E+00,1.21955894248659E+00,1.21888850607500E+00,9.25454412724691E-01,8.21596105891481E-01,8.12390917182007E-01,6.96405689729554E-01,
TJK,,,,,,,,,,,,,,,,,,,,,,,,,,,,,,,,,,,,,,,,,,,2.18387181678457E+00,1.60697894887708E+00,2.01270774519182E+00,1.04863813906801E+00,1.48488833972528E+00,1.20393992291173E+00,1.74519902768367E+00,3.45920972358638E+00,3.60110567388386E+00,
TKM,,,,,,,,,,,,,,,,,,,,,,,,,,,,,,,,,,,,,2.10431938411703E+00,5.73629297086087E+00,,,,,,,,,,,,,,
TON,,,,,,,,,,,,,,,,,,,,,,,,,,9.14758816994843E-01,1.05783735045246E+00,1.02676682151786E+00,1.31864152495425E+00,1.11461896591587E+00,1.11840056299288E+00,1.31670632262454E+00,1.57667974492327E+00,1.38860302311704E+00,,,,,,,,1.98336607595615E+00,1.47787786964044E+00,1.62138180655523E+00,1.87617801562834E+00,2.06630538931595E+00,1.86715647616879E+00,2.20140394447654E+00,2.82761422228550E+00,2.66918796760628E+00,4.27502217656370E+00,
TUN,,,,,,,,,,,,,,,,,2.78327630929824E+00,4.77065379964220E+00,6.54039968555350E+00,6.75701724516848E+00,7.59898428740370E+00,6.65943739847258E+00,7.47787840695891E+00,7.64568865966627E+00,9.48816793536512E+00,9.98843205306059E+00,1.19217391088920E+01,1.12008935961055E+01,9.50179141795427E+00,9.61193528616838E+00,8.44360418904403E+00,8.48965811282213E+00,7.42791506750508E+00,8.58017355764325E+00,7.57599926472671E+00,6.67489086368977E+00,6.79549282726932E+00,6.51741613568271E+00,6.56720358262473E+00,6.56893061236595E+00,6.55597171725641E+00,5.18262943169810E+00,5.73200710955373E+00,5.46779628505561E+00,5.42507940733211E+00,5.66398937879640E+00,5.38622718068069E+00,4.48697893223434E+00,3.28531321793650E+00,3.74577418188684E+00,3.15822210572190E+00,
TUR,,,,,,,,,,,,,,,4.87526416906820E+00,1.01022794846383E+01,1.53044864226682E+01,3.13638464893153E+01,3.23208436724566E+01,2.60143145840350E+01,2.33512527233115E+01,2.47096693802957E+01,2.07695257315843E+01,2.25648879939592E+01,1.87376524859047E+01,1.72669878251730E+01,1.91234868601776E+01,1.70754976923607E+01,1.77961069340017E+01,1.63315128721263E+01,1.55372284712419E+01,1.47697745277270E+01,1.48401224812327E+01,1.46936820205854E+01,1.32257670955088E+01,1.16386997635934E+01,9.48598454854795E+00,9.19294377479973E+00,1.00327184706173E+01,1.20908450409768E+01,1.28833349000733E+01,1.17212838606875E+01,9.87897678643168E+00,9.11545841190316E+00,7.73753000658552E+00,7.82715063153831E+00,7.86092836286872E+00,8.03037311601939E+00,7.35255176787003E+00,8.23496490779034E+00,7.20027482846697E+00,
TZA,,,,,,,,,,,,,,,,,2.91907866354149E+00,3.75078678820203E+00,5.51582705030189E+00,5.29326198006813E+00,9.66210654983795E+00,1.01883813862252E+01,1.49930263072374E+01,1.38741290896065E+01,1.15463701754016E+01,1.23485813167259E+01,1.34728291884446E+01,1.70950067937598E+01,1.50500140607498E+01,1.13687719588701E+01,1.13010657217626E+01,1.18562422376197E+01,1.07199412722895E+01,1.36173533995588E+01,6.92260203277952E+00,6.55708246118392E+00,7.17213093200492E+00,3.68876151594903E+00,8.60957033175910E+00,7.42292833856545E+00,4.68597192734539E+00,2.57560044306836E+00,2.15136948778249E+00,1.77049096279463E+00,2.05900935855213E+00,1.78293791146645E+00,1.45457303094989E+00,1.06069915615706E+00,7.44280228348405E-01,1.11523585447888E+00,1.02412653563276E+00,
UGA,,,,,,,,,,,,,,,,,,,,,3.71152101602661E+00,6.54034319094560E+00,8.16796312301930E+00,9.63883600761490E+00,1.16962980429144E+01,1.33638560687433E+01,1.19036773428233E+01,1.29598321342926E+01,1.62812617348855E+01,1.65905653583003E+01,2.01923509561305E+01,2.28110552253213E+01,1.79741833508957E+01,1.16661666166617E+01,7.01793307450545E+00,5.59413489736070E+00,5.28750322588574E+00,5.48480100282043E+00,4.39582202930005E+00,4.76546319619368E+00,3.66098855068417E+00,2.43713179878636E+00,3.46514547265888E+00,3.17321409748652E+00,3.17133978415704E+00,2.22779514672899E+00,1.57883247301871E+00,6.27473719727823E-01,6.89970750952592E-01,6.60976671173634E-01,6.92724800196396E-01,
UKR,,,,,,,,,,,,,,,,,,,,,,,,,,,,,,,,,,,5.73875546505360E-01,2.89021168598950E+00,2.28041862284820E+00,3.25801686735241E+00,3.23254241109170E+00,3.94456749825134E+00,3.59821510297483E+00,3.55491930550981E+00,3.67033934342575E+00,2.64985791077481E+00,2.48232485604607E+00,3.15698555476781E+00,4.26415039460162E+00,4.57788107660700E+00,4.07806131977019E+00,7.79757970005265E+00,5.98748952277951E+00,
UMC,,,,,,,,,,,,,,,,,,,,,,,1.62122548725913E+01,1.52636936281628E+01,1.47705634558127E+01,1.57986552425605E+01,1.61990947313234E+01,1.33619293987251E+01,1.35639389111199E+01,1.06661562421363E+01,8.77586811198450E+00,8.80365872260867E+00,7.03359500845792E+00,6.62480855789764E+00,6.44215846369950E+00,7.15075770755137E+00,7.00591038382562E+00,7.04804448126384E+00,7.91584022424081E+00,8.15140572570897E+00,7.00662501572868E+00,6.51758503978034E+00,5.11893030701398E+00,4.47830109911503E+00,3.51732667825166E+00,3.05453907296714E+00,2.94917302077844E+00,2.80357892433821E+00,2.44467525760933E+00,2.68384013456636E+00,2.74795002130969E+00,
URY,,,,,,,,,,,,,,,,,,,7.90561580586277E+00,6.48149631528356E+00,1.06247725418837E+01,1.05937720010831E+01,1.31443751855150E+01,1.82953710506980E+01,2.54724684004068E+01,2.74152116897714E+01,2.16296018969175E+01,2.11434782865549E+01,1.89442400681135E+01,1.64941019642226E+01,1.77134132464964E+01,1.04720358676641E+01,9.17836414934506E+00,8.72414503365381E+00,8.60717117933613E+00,9.68819513691800E+00,8.51491515193723E+00,9.47287228460489E+00,9.33090152215962E+00,1.13608927863423E+01,1.22414955074076E+01,1.43083516090608E+01,1.52334776110847E+01,9.75391743212564E+00,1.17297091251390E+01,1.11315897985357E+01,1.10802591408062E+01,8.43232432642747E+00,4.92671226456890E+00,4.91366999460998E+00,6.08171271196315E+00,
VCT,,,,,,,,,,,,,,,,,,,3.63945578231293E-01,4.70059880239521E-01,6.96969696969697E-01,8.54291417165669E-01,1.45143402852654E+00,1.27411167512690E+00,1.89821182943604E+00,1.70217917675545E+00,1.55441806150253E+00,1.52746824592847E+00,1.23347498995004E+00,1.49990751587644E+00,1.41777264858627E+00,1.64000622665006E+00,1.49937749649841E+00,2.40001815925668E+00,3.24487073620021E+00,2.94101034628378E+00,2.89966167230547E+00,3.14741797851992E+00,3.08676484165821E+00,4.59176883740991E+00,3.82232050475747E+00,2.99580022182805E+00,2.40964832926992E+00,2.57346043633772E+00,3.40298495242708E+00,3.90781817562207E+00,4.96380838359961E+00,4.19674426683956E+00,4.86900950970005E+00,4.81012291800510E+00,4.50024268654276E+00,
VEN,,,,,,,,,,,1.85397105541828E+00,1.83495058400719E+00,2.37694558221182E+00,2.35127865125971E+00,1.18811293960404E+00,1.18736623067776E+00,1.34086353122591E+00,2.43632045309217E+00,4.59216029479503E+00,5.05872431769396E+00,1.37894566390788E+01,1.29451201109344E+01,1.75220455223139E+01,1.73887492070815E+01,1.52114634146341E+01,1.92421083250916E+01,2.74180129743180E+01,2.13223472793604E+01,2.45796064541519E+01,1.98235966602441E+01,1.51058190458442E+01,1.30666307393835E+01,1.24832252788973E+01,1.22002934868495E+01,1.09519811467343E+01,1.07539213085765E+01,8.00539856286533E+00,8.36166413098602E+00,1.12612753945115E+01,1.00847317688209E+01,7.76085805084746E+00,9.45227435880702E+00,7.72709443761104E+00,7.63581459261990E+00,5.14496171087038E+00,4.79426342133674E+00,4.42781493868450E+00,4.44626224203727E+00,3.16305724020766E+00,5.12083568878911E+00,4.98435421166307E+00,
VNM,,,,,,,,,,,,,,,,,,,,,,,,,,,,,,,,,,,,,2.00963892923843E+00,2.73898405197874E+00,3.54403502974223E+00,2.55675485008818E+00,2.01091470739660E+00,2.11583034976590E+00,1.51970132687554E+00,1.27518899176081E+00,1.16794368041912E+00,1.17372590369589E+00,9.91948501995877E-01,1.09079577452158E+00,7.97004841797095E-01,6.84552385443685E-01,6.49966295501074E-01,
VUT,,,,,,,,,,,,,,,,,,,,,,,3.19189597968400E-01,1.58470152938613E+00,1.15941617947714E+00,1.11413043228235E+00,1.25909732831409E+00,1.63910142101408E+00,2.12233263329163E+00,1.77143786183186E+00,1.37116234670595E+00,7.52130069606232E-01,5.99066441163268E-01,6.43848792548419E-01,6.74102604893387E-01,6.78850910421381E-01,5.75804137116686E-01,8.73528196957822E-01,5.61888620372369E-01,5.47505762577704E-01,5.57085346449755E-01,4.59132831070661E-01,7.48510811358998E-01,6.87668812231014E-01,1.01243335496011E+00,7.57050772574336E-01,6.69666170164735E-01,6.55724664174695E-01,6.33307887234716E-01,6.38189667578068E-01,6.49760169588633E-01,
WSM,,,,,,,,,,,,,,,,,,6.51954483591988E+00,9.98628507930677E+00,8.32591155833148E+00,9.79295320968644E+00,1.10860874704463E+01,6.61508034668852E+00,5.40730848607972E+00,6.76500599496087E+00,8.41286561534426E+00,8.38210805385723E+00,5.99336555251003E+00,3.71960235315122E+00,2.73227341490884E+00,2.56845356428672E+00,2.83964317035786E+00,2.70424035548515E+00,2.81343685270346E+00,2.81516925875345E+00,2.28590230658244E+00,1.92124850021815E+00,1.65815807101025E+00,1.48553880163030E+00,1.65890588415742E+00,,,,,1.40198274098562E+00,1.14459158751207E+00,1.38390553402499E+00,8.63243928419038E-01,1.07645667788742E+00,1.36559631597014E+00,1.64966190585139E+00,
YEM,,,,,,,,,,,,,,,,,,,,,,,,,,,,,,,5.78692065985860E+00,5.91219908433023E+00,3.96356211716664E+00,3.03718887262079E+00,2.44257959515817E+00,1.66675770403751E+00,1.15794325104200E+00,1.49184697397303E+00,4.41982323602761E+00,2.91370132273546E+00,2.18257444561308E+00,2.00854285524567E+00,1.55775645343653E+00,1.32736045852937E+00,1.33550426317816E+00,8.95100671062245E-01,9.02624222995624E-01,8.84788593590269E-01,7.47529073964854E-01,1.09728169728640E+00,8.29440770205651E-01,
ZAF,,,,,,,,,,,,,,,,,,,,,,,,,,,,,,,,,,,2.92839026417884E+00,3.71528617696275E+00,4.01110888348830E+00,3.78975119054673E+00,4.24078805200151E+00,4.06838173438808E+00,3.16871068212659E+00,3.08039319248823E+00,2.61217666055294E+00,1.79842618077409E+00,1.47657613009784E+00,1.65974483234371E+00,1.94858597792475E+00,1.96693480056436E+00,1.68660544647169E+00,1.95577658582938E+00,2.37276491571451E+00,
ZAR,,,,,,,,,,,,,,,,,,,,,,,,,,,,,,,,,,,,,,,,,,,,,,3.70240255498294E+00,4.52136156186613E+00,4.22088206627680E+00,3.69231168023226E+00,4.89361997226075E+00,1.78982456140351E+00,
ZMB,,,,,,,,,,,,,,,,,,,9.18880016810254E+00,6.00593065693431E+00,8.66865653270970E+00,1.08780571233111E+01,1.27206154987023E+01,1.22451688463791E+01,1.14225945723684E+01,7.54322268326418E+00,1.96051565874730E+01,8.23132423132423E+00,6.17252958106812E+00,4.26316158429723E+00,5.60099860489023E+00,2.40740418806796E+01,,,,,,6.40409771473601E+00,7.23540391994193E+00,9.76845528455285E+00,9.85808362408427E+00,5.31338707054752E+00,5.38964058883017E+00,1.40351861331015E+01,3.55598286017305E+00,2.60666427163100E+00,1.27161642920217E+00,9.46380096132294E-01,9.88215281387327E-01,1.03107893582611E+00,7.77024930174822E-01,
ZWE,,,,,,,,,,,,,,,,,,1.70644536545526E-01,4.15616107624671E-01,5.91732867286277E-01,1.48833530028241E+00,4.36975489605569E+00,1.01822586073151E+01,1.18512773998974E+01,1.34098374002748E+01,1.20282010569111E+01,1.12963801175192E+01,1.03638672891762E+01,9.49716595098677E+00,8.93028990101037E+00,9.85605659068667E+00,9.76134436646354E+00,1.13645340080075E+01,1.03811166273389E+01,9.34262542418396E+00,,,,,,,,,,,,,,,,,
