1993-07-15,"Andorra ended as a co-principality and became legally independent. The parliament chamber had 28 seats, 4 representatives for each of its 7 parishes.",['Andorra']
1996-07-15,"Andorra was still technically at war with Germany for not having signed the Peace at Westphalia in 1648. Its population stood at about 65,000.",['Andorra']
2007-09-01,"Life expectancy in Andorra was reported to be longer than in any other world country, while the same in Swaziland was reported to be the shortest.","['Swaziland', 'Andorra']"
2007-07-15,"Andorra&rsquo;s population numbered about 80,000.",['Andorra']
