1000-07-15,"Turkic-speaking people wrote in Runic, the official script.","['Azerbaijan', 'Uzbekistan', 'Turkey', 'Tajikistan', 'Turkmenistan']"
1274-07-15,"Lal Shahbaz Qalandar (b.1177), born as Seyyed Shah Hussain Marandi in Marand (near the city of Tabriz) in Azerbaijan (then part of Iran), died in Sindh (later part of Pakistan). He had migrated to Sindh and settled in Sehwan and was buried there. He is also known as Shaikh Hussain Marandi. He was a Shia Sufi in the regions that lie in the Sindh province of Pakistan.","['Azerbaijan', 'Pakistan', 'Sufi']"
1900-07-15,At the turn of the century 51% of the world&rsquo;s oil came from Azerbaijan.,['Azerbaijan']
1918-05-28,"Tatars declared Azerbaijan, in Russian Caucasus, independent.",['Azerbaijan']
1920-04-28,Azerbaijan joined the USSR. The Red Army invaded Azerbaijan and turned the country into a Soviet Republic.,['Azerbaijan']
1921-07-15,"The borders of the region were gerrymandered when the Caucasus territories were made part of the Soviet Union. This made the area of Nagorno-Karabakh, a mountainous enclave of mostly Armenians surrounded by Azerbaijan dependent on Moscow.","['Azerbaijan', 'Armenia', 'Turkey', 'Russia', 'USSR']"
1923-05-10,"Geidar Aliev (Heydar Aliyev, d.2003), later KGB general, Communist Party chief and Azerbaijan president, was born in Nakhichevan.",['Azerbaijan']
1926-07-15,In Azerbaijan the region&rsquo;s 1st Turkology Congress convened in Baku to discuss the alphabet issue. They chose the Latin alphabet for all Turkic-speaking peoples by a 101-7 vote.,['Azerbaijan']
1927-03-27,"Mstislav Leopold Rostropovich, cellist, conductor, was born in Baku, Azerbaijan, USSR.","['Azerbaijan', 'Cello']"
1936-12-05,"Armenian SSR, Azerbaijan SSR, Georgian SSR, Kazakh SSR & Kirghiz SSR became constituent republics of Soviet Union.","['Azerbaijan', 'Armenia']"
1961-12-24,"Ilham Geidar oglu Aliev, appointed PM in 2003, was born.",['Azerbaijan']
1975-07-15,"The Bakkonditzioner air-conditioning manufacturer opened in Baku, Azerbaijan, USSR.","['Azerbaijan', 'USSR']"
1985-11-09,Gary Kasparov became the world chess champion. He was born in 1963 in Azerbaijan to an Armenian mother and a Jewish father. Anatoly Karpov had held the world chess title for 10 years until he was defeated this year by Kasparov.,"['Azerbaijan', 'Russia', 'USSR', 'Chess']"
1987-07-15,Aliyev resigned from the Soviet Politburo government.,['Azerbaijan']
1987-07-15,In Azerbaijan Pres. Aliyev resigned from the Soviet Politburo government.,"['Azerbaijan', 'Russia', 'USSR']"
1988-02-28,"Ethnic unrest broke out between Armenians and Azerbaijanis in the city of Sumgait. There was an anti-Armenian pogrom in the town of Sumgait. A national awakening occurred in Azerbaijan when conflict erupted over the Armenian enclave of Nagorno-Karabakh, included by the Soviets in the Republic of Azerbaijan. The Armenian population in Nagorno-Karabakh began fighting for independence.","['Azerbaijan', 'Armenia']"
1988-05-21,The Soviet news agency Tass reported that the Communist Party leaders of Armenia and Azerbaijan had been dismissed after fresh outbreaks of ethnic tensions in the two southern Soviet republics.,"['Azerbaijan', 'Armenia', 'Russia', 'USSR']"
1988-07-07,The European Parliament adopted a resolution condemning brutalities against Armenians in Nagorno-Karabakh.,"['Azerbaijan', 'Armenia', 'EU']"
1988-07-14,"The Soviet press agency Tass reported that Azerbaijan has rejected an attempt by Nagorno-Karabakh, a predominantly Armenian enclave, to secede and join Armenia. Some 200,000 demonstrated in Soviet Armenia for the incorporation of Nagorno-Karabakh.","['Azerbaijan', 'Armenia', 'Russia', 'USSR']"
1988-11-24,A state of emergency was declared in the cities of Kirovabad and Nakhichevan.,['Azerbaijan']
1988-07-15,"A national awakening occurred in Azerbaijan when conflict erupted over the Armenian enclave of Nagorno-Karabakh, included by the Soviets in the Republic of Azerbaijan. The Armenian population in Nagorno-Karabakh began fighting for independence.","['Azerbaijan', 'Armenia']"
1988-07-15,The Armenian population in Nagorno-Karabakh began fighting for independence. Arme-nia&rsquo;s conflict with Azerbaijan over the Nagorno-Karabakh region erupted.,"['Azerbaijan', 'Armenia']"
1990-01-15,Soviet leader Gorbachev and the Soviet Presidium declared a state of emergency in parts of Azerbaijan and Armenia in the wake of escalating ethnic violence.,"['Azerbaijan', 'Armenia']"
1990-01-16,"The Soviet Union sent more than 11,000 reinforcements to the Caucasus to halt a civil war between Armenians and Azerbaijanis.","['Azerbaijan', 'Armenia', 'Russia', 'USSR']"
1990-01-20,"The Soviets attacked Baku, leaving dozens dead and wounded.","['Azerbaijan', 'Armenia', 'Russia', 'USSRMore']"
1990-01-21,Azerbaijan Pres. Aliyev made his first public appearance since his 1987 resignation from the Soviet Politburo. He broke the information blackout and urged int&rsquo;l. condemnation of the Soviet attack. Mutinous military cadets fired on troops patrolling the capital during a crackdown on a nationalist uprising.,"['Azerbaijan', 'Russia', 'USSR']"
1990-01-22,Up to 2 million Azerbaijanis marched through the republic's capital to mourn those killed when Soviet troops put down a nationalist revolt.,"['Azerbaijan', 'Russia', 'USSR']"
1991-08-30,"Azerbaijan declared its independence, joining the stampede of republics seek-ing to secede from the Soviet Union.","['Azerbaijan', 'Russia', 'USSR']"
1991-12-21,Eleven of the 12 former Soviet republics proclaimed the birth of the Commonwealth of Independent States and the death of the Union of Soviet Socialist Republics.,"['Azerbaijan', 'Kazakhstan', 'Kyrgyzstan', 'Uzbekistan', 'Armenia', 'Belarus', 'Russia', 'Ukraine', 'Tajikistan', 'USSR', 'Turkmenistan', 'Moldova', 'CIS']"
1991-07-15,Armenia gained independence and was immediately involved in a territorial dispute with Azerbaijan over the Nagorny Karabagh region.,"['Azerbaijan', 'Armenia']"
1991-07-15,"On the dissolution of the USSR, Azerbaijan gained its independence.","['Azerbaijan', 'Russia', 'USSR']"
1992-02-11,"Secretary of State James A. Baker III, on a tour of six former Soviet republics, visited Armenia, where he heard an appeal from the republic's president for U.S. help in resolv-ing a bloody feud with neighboring Azerbaijan.","['Azerbaijan', 'Armenia']"
1992-02-11,"US Secretary of State James A. Baker III, on a tour of six former Soviet republics, visited Armenia, where he heard an appeal from the republic's president for U.S. help in resolving a bloody feud with neighboring Azerbaijan.","['Azerbaijan', 'Armenia', 'USA']"
1992-02-14,"The former Soviet republics of Ukraine, Moldova and Azerbaijan rejected a proposal for a unified army, sharply rebuffing Russian President Boris N. Yeltsin.","['Azerbaijan', 'Russia', 'Ukraine', 'Moldova']"
1992-07-15,"In Azerbaijan Abulfez Elchibey, a pro-Turkish nationalist, came to power. Ayaz Mutalibov was deposed amid economic turmoil and losses in a war with Armenia.","['Azerbaijan', 'Armenia']"
1992-07-15,"The Azerbaijanis under a new nationalist government tried to reconquer Nagorno-Karabakh, but were soon repulsed.","['Azerbaijan', 'Armenia']"
1992-07-15,Azerbaijan adopted a 34-character Latin alphabet based on Turkey&rsquo;s script to replace the Russian style Cyrillic.,['Azerbaijan']
1993-06-15,Former Communist party chief Geidar Aliyev (1923-2003) became head of parliament.,['AzerbaijanMore']
1993-06-15,In Azerbaijan former Communist party chief Geidar Aliyev (1923-2003) became head of parliament.  A fifth of Azerbaijan was controlled by Armenian insurgents when Abulfaz Elchibey was ousted from the presidency and replaced by former Communist party chief Geidar Aliyev. Under Aliyev Azerbaijan joined the Commonwealth of Independent States in Sept.,"['Azerbaijan', 'Armenia', 'CIS']"
1994-07-15,"British Petroleum (BP) acquired a 34% stake in the the &ldquo;Azeri, Chirag and Deepwater Gunashli&rdquo; (ACG) oil project, a deal that became known as the contract of the century. This relaunched Baku, Azerbaijan, as a major oil town.","['Azerbaijan', 'Britain', 'Oil']"
1995-07-15,Ayaz Mutalibov allegedly orchestrated a failed coup attempt.,['Azerbaijan']
1996-11-26,"Separatists in Nagorno-Karabakh elected their first president, Robert Kocharian, despite opposition from Azerbaijan.",['Azerbaijan']
1996-07-15,Elmar Huseinov founded the Monitor Magazine to expose the abuses of the regime of Pres. Heydar Aliyev.,"['Azerbaijan', 'Magazine']"
1997-09-02,Ethnic Armenians in Nagorno-Karabakh elected Arkady Gukasian as president with an 89% vote. Azerbaijan called the vote invalid.,"['Azerbaijan', 'Armenia']"
1997-10-02,A helicopter with 20 passengers crashed near an offshore oil platform and no survivors were found.,['Azerbaijan']
1997-10-02,In Azerbaijan a helicopter with 20 passengers crashed near an offshore oil platform and no survivors were found.,"['Azerbaijan', 'Air Crash']"
1997-07-15,Ayaz Mutalibov allegedly orchestrated another failed coup attempt.,['Azerbaijan']
1997-07-15,"Former Soviet republics (Georgia, Ukraine, Uzbekistan, Azerbaijan and Moldova) formed Guuam to seek cooperation outside Russian influence.","['Azerbaijan', 'Uzbekistan', 'Georgia', 'Russia', 'Ukraine', 'Moldova']"
1997-07-15,"Viktor Kozeny, a Czech businessman, purchased vouchers from Azeri citizens that were exchangeable for state-owned companies.",['AzerbaijanMore']
1997-07-15,"The Central Asia Regional Economic Cooperation (CAREC) Program was initiated. The 8-member group included Azerbaijan, Afghanistan, China, Kazakhstan, Kyrgyzstan, Mongolia, Tajikistan and Uzbekistan.","['Afghanistan', 'Azerbaijan', 'Kazakhstan', 'Kyrgyzstan', 'Uzbekistan', 'China', 'Tajikistan', 'Mongolia']"
1998-02-26,Azerbaijan accused Armenia of launching fresh attacks over the disputed Nagorno-Karabakh.,"['Azerbaijan', 'Armenia']"
1998-07-13,"In Azerbaijan Suret Huseinov, a former prime minister, went on trial for treason.","['Azerbaijan', 'Govm&rsquo;t Scandal']"
1998-09-10,US wrestler Sam Henson took first place in the World Wrestling Championships in Iran. He defeated Namik Abdullavev of Azerbaijan. Iranians stood for the US anthem for the first time in 19 years.,"['Azerbaijan', 'Iraq', 'USA', 'Wrestling']"
1998-10-11,"Pres. Heydar Aliyev (75) was re-elected for another 5 year term with 76% of the vote. His nearest rival, Etibar Mamedov, won 12%.",['Azerbaijan']
1998-10-11,"In Azerbaijan Pres. Heydar Aliyev (75) was re-elected for another 5 year term with 76% of the vote. His nearest rival, Etibar Mamedov, won 12%.",['Azerbaijan']
1998-10-29,"Five nations endorsed the oil pipeline from the Caspian to the Mediterranean Sea. Turkey, Azerbaijan, Georgia, Kazakhstan and Uzbekistan committed to the 1,080 mile conduit with a push from the US.","['Azerbaijan', 'Kazakhstan', 'Uzbekistan', 'Turkey', 'Georgia', 'Oil']"
1998-07-15,"Thomas Golz published &ldquo;Azerbaijan Diary: A Rogue Reporter&rsquo;s Adventures in an Oil-Rich, War-Torn, Post-Soviet Republic.&rdquo; It was about his experiences there during the 1991-1992 political changes.",['Azerbaijan']
1998-07-15,"Thomas Golz published ""Azerbaijan Diary: A Rogue Reporter&rsquo;s Adventures in an Oil-Rich, War-Torn, Post-Soviet Republic."" It was about his experiences there during the 1991-1992 political changes.","['Azerbaijan', 'Books']"
1999-01-08,In Azerbaijan the first part of an oil pipeline across Georgia to the Black Sea was opened.,"['Azerbaijan', 'Black Sea']"
1999-01-31,"From Azerbaijan it was reported that Vafa Gulkuzade, chief foreign affairs advisor, had asserted that the country needed a military protector. He said Turkish or American military bases would be welcomed.",['Azerbaijan']
1999-04-01,"A oil pipeline from Baku, Azerbaijan, to the Georgian Black Sea port of Supsa was to begin operating.","['Azerbaijan', 'Oil']"
1999-06-22,Azerbaijan planned to become a major exporter of gas following the discovery at the Shah Deniz offshore field that could contain as much as 700 billion cubic meters of natural gas.,"['Azerbaijan', 'Gas']"
1999-11-17,"Azerbaijan, Georgia, Turkey agreed to a US-backed plan for a Caspian oil pipeline from Baku to Ceyhan to be completed in 2004. The 1st shipment was made in 2006.","['Azerbaijan', 'Turkey', 'Georgia', 'USA', 'Oil']"
2000-03-22,"Gunmen ambushed Arkady Gukasyan, the president of Nagorno-Karabakh, an Armenian enclave in Azerbaijan. 28 suspects were arrested.","['Azerbaijan', 'Armenia']"
2000-11-05,Parliamentary elections were noted to be rife with fraud. Pres. Aliyev&rsquo;s son was proposed as parliament speaker.,"['Azerbaijan', 'Fraud']"
2000-11-25,In Azerbaijan an earthquake hit Baku and at least 3 people were killed. 20 peo-ple died of heart attacks.,"['Azerbaijan', 'Earthquake']"
2001-04-05,"Presidents Robert Kocharian of Armenia and Heydar Aliyev of Azerbaijan met in Key West, Fla., for negotiations on Nagorno-Karabakh.","['Azerbaijan', 'Armenia', 'USA', 'Oil', 'FloridaMore']"
2001-07-15,"Five men, supporters of Ayaz Mutalibov, were arrested for plotting to overthrow the government. In 2002 they were sentenced to prison terms of 5-10 years.",['Azerbaijan']
2002-05-22,Pope John Paul (82) arrived in Azerbaijan for a 2-day visit before continuing on to Bulgaria. He hope to improve relations with the Muslim and Christian Orthodox believers.,"['Azerbaijan', 'Vatican']"
2002-06-09,Azerbaijan and Russia signed a bilateral accord on the oil-rich Caspian Sea.,"['Azerbaijan', 'Russia', 'Oil', 'Caspian Sea']"
2002-07-21,"In Russia fighting started when a vendor at the Moscow Orion market opened fire at a group of wholesale buyers who allegedly refused to pay him for his goods. The armed vendor was from the Dagestan region in southern Russia, and the buyers were from the former Soviet republic of Azerbaijan.","['Azerbaijan', 'Russia', 'Dagestan']"
2002-08-24,Azerbaijani voters overwhelmingly approved changes to the constitution in a referendum the opposition charged was marred by fraud.,"['Azerbaijan', 'Fraud']"
2002-11-23,Azerbaijan Pres. Geidar Aliev said that he and Armenian Pres. Robert Kocharian have agreed to seek a peaceful settlement of the Nagorno-Karabakh conflict.,"['Azerbaijan', 'Armenia']"
2003-02-19,"Armenia held national elections. Pres. Kocharian was being challenged by 8 contenders who criticized his failure to secure a final deal with Azerbaijan over the Armenian-populated enclave of Nagorno-Karabakh. He also faced accusations over about 30 unresolved political killings in recent years and the widening gap between rich and poor in this nation of 3.3 million people. Kocharian failed to win the necessary 50 % of votes for re-election, forcing a runoff in balloting that the opposition complained was rigged.","['Azerbaijan', 'Armenia']"
2003-08-04,"Azerbaijan's parliament named ailing President Geidar Aliev's son, Ilham Geidar oglu Aliev (b.1961), as PM.",['Azerbaijan']
2003-10-12,"In Baku, Azerbaijan, some 50,000 people protested Pres. Aliev's attempt to transfer power to his son in upcoming elections.",['Azerbaijan']
2003-10-15,Azerbaijan held presidential elections.,['Azerbaijan']
2003-10-16,"In Azerbaijan rioting protesters clashed with police in the capital, Baku, after Ilham Aliev was elected to succeed his father as president. At least 2 people were reported killed. The vote was marred by fraud. Closest rival Isa Gambar had 11% of the vote.","['Azerbaijan', 'Fraud']"
2003-10-31,"Ilham Aliev was inaugurated as Azerbaijan's new president, succeeding his ail-ing father as leader of the oil-rich former Soviet republic.",['Azerbaijan']
2003-10-31,"Ilham Aliev was inaugurated as Azerbaijan's new president, succeeding his ailing father as leader of the oil-rich former Soviet republic.",['Azerbaijan']
2003-12-12,"Former Azerbaijani Pres. Geidar Aliev (Heydar Aliyev, b.1923), a former KGB general and Communist Party chief who brought stability to a nation plagued by insurgencies, died at the Cleveland Clinic.",['Azerbaijan']
2004-05-18,"An Azerbaijani cargo plane crashed in a forest after taking off from an airport in China's northwest, killing its seven-member crew.","['Azerbaijan', 'China', 'Air Crash']"
2004-06-02,The Azerbaijani Fuel and Energy Minister said that $3.4 billion would be invested by 2006 in the first phase of development of the Azeri-Chirag-Guneshli oil field.,"['Azerbaijan', 'Oil']"
2004-06-14,"Azerbaijan Fatulla Huseynov (67), an opposition party leader known for his bold military exploits in the war over the Nagorno-Karabakh enclave, was shot and killed in Baku.",['Azerbaijan']
2004-11-06,"In Baku, Azerbaijan, a gas explosion tore through a two-story apartment building, trapping residents under the debris. At least 4 people were killed.",['Azerbaijan']
2004-07-15,Transparency Int&rsquo;l. ranked Azerbaijan 140th out of 146 countries in terms of corruption.,['Azerbaijan']
2005-03-02,"In Azerbaijan Elmar Huseinov, founder and editor of the opposition magazine Monitor, was shot to death in the entryway of his Baku apartment building.","['Azerbaijan', 'Magazine']"
2005-05-21,"Azerbaijani protesters demanding free elections were beaten back by police, who arrested dozens as they broke up a banned rally.",['Azerbaijan']
2005-05-25,"In Azerbaijan officials opened the first section of a $3.6 billion, 1,100-mile pipe-line that will carry Caspian Sea oil to Western markets. The presidents of Azerbaijan, Kazakhstan, Georgia and Turkey were on hand for the ceremony at the Sangachal oil terminal.","['Azerbaijan', 'Kazakhstan', 'Turkey', 'Georgia', 'Oil']"
2005-06-04,"Thousands of opposition protesters chanted ""Freedom!"" and carried pictures of President Bush as they marched across Azerbaijan's capital, urging the government of this U.S. ally to step down and allow free parliamentary elections this year.","['Azerbaijan', 'USA']"
2005-06-15,Armenia said Azerbaijan was stockpiling more arms than permitted by treaty.,"['Azerbaijan', 'Armenia']"
2005-06-18,"In Azerbaijan thousands of demonstrators chanting ""Freedom"" and carrying por-traits of President Bush marched across Baku, demanding the resignation of the government and free parliamentary elections.",['Azerbaijan']
2005-09-10,"In Azerbaijan more than 2,000 orange-clad opposition members rallied in Baku, demanding that President Ilhan Aliev resign and that authorities ensure that parliamentary elections in November are free and fair.",['Azerbaijan']
2005-09-23,A US embassy official said the US is to help its Caspian Sea ally Azerbaijan build a radar station on its border with Iran and another near Russia.,"['Azerbaijan', 'USA', 'Telecom']"
2005-10-09,"Riot police in Azerbaijan scattered hundreds of opposition supporters protesting in Baku in defiance of a ban, beating some with truncheons and dragging several away as tensions mounted ahead of parliamentary elections next month.",['Azerbaijan']
2005-10-17,An Azerbaijani opposition leader was arrested in Ukraine and scores of his supporters were detained by police. Tensions rose in Azerbaijan in the run-up to next month's parliamentary election.,"['Azerbaijan', 'Ukraine']"
2005-10-21,"Authorities in Azerbaijan said a 2nd former government minister was arrested on charges of involvement in a coup plot against President Ilham Aliev, deepening political tensions ahead of next month's key parliamentary elections.",['Azerbaijan']
2005-10-25,Azerbaijan's President Ilham Aliyev ordered steps to ensure a November 6 parliamentary vote is fair after Washington voiced concern over a police crackdown in the oil-producing ex-Soviet state.,['Azerbaijan']
2005-11-04,"In Azerbaijan thousands of government supporters rallied in Baku on the last day of campaigning for this weekend's parliamentary elections, while opponents kept out of sight to avoid confrontations with police.",['Azerbaijan']
2005-11-06,"The head of Azerbaijan's ruling party declared victory in a parliamentary election, with 63 seats. Azerbaijan's president pledged parliamentary elections would be followed by further democratic reform, but his political opponents alleged there were voting violations that could taint the results.",['Azerbaijan']
2005-11-07,"Azerbaijan's opposition rejected the results of weekend parliamentary elections, calling them rigged and vowing to overturn the outcome of voting that foreign observers said fell short of international standards.",['Azerbaijan']
2005-11-08,"Azerbaijan's election commission annulled the results of the weekend parliamentary vote in two districts and ordered a recount in another, while the ruling party claimed victory.",['Azerbaijan']
2005-11-09,"Thousands of people rallied in Baku, Azerbaijan, to demand free elections, answering a call by the opposition movement following weekend parliamentary balloting that international observers said was flawed.",['Azerbaijan']
2005-11-09,In Azerbaijan Pres. Ilham Aliev fired two regional governors for interfering with the count from last weekend's parliamentary elections.,['Azerbaijan']
2005-11-13,"Around 20,000 opposition supporters demonstrated on the outskirts of the Azeri capital Baku to demand that the government resign if it refuses to re-run parliamentary elections held a week ago.",['Azerbaijan']
2005-11-14,"President Ilham Aliev fired a third regional governor for alleged interference in Azerbaijan's parliamentary elections, reacting sternly to Western charges of voting irregularities.",['Azerbaijan']
2005-11-19,"Thousands of people gathered in a Baku square as Azerbaijan's opposition parties protested against disputed parliamentary elections, the latest rally in a campaign that has made little headway.",['Azerbaijan']
2005-11-26,"In Azerbaijan truncheon-wielding police in riot gear beat opposition protesters who gathered in Baku shouting ""Freedom!"" and demanding a revote of disputed parliamentary elections.",['Azerbaijan']
2005-12-23,An Azerbaijani Airlines An-140 twin-engine turboprop crashed on the Caspian Sea coast and all 18 passengers and five crew were killed. Equipment failure was suspected.,"['Azerbaijan', 'Air Crash']"
2006-01-22,Georgia began receiving natural gas late in the day from Azerbaijan following explosions on pipelines in southern Russia that cut off delivery of gas to Georgia and its neighbor Armenia during a cold snap.,"['Azerbaijan', 'Georgia', 'Russia', 'Gas']"
2006-02-10,"The presidents of Armenia and Azerbaijan negotiated one-on-one on ways to end the 18-year conflict over the enclave of Nagorno-Karabakh, but reached no conclusion and planned more talks.","['Azerbaijan', 'Armenia']"
2006-02-10,Azerbaijan&rsquo;s Health Ministry said a British laboratory had confirmed the H5N1 strain of bird flu in wild ducks and swans on its Absheron Peninsula. WHO said 88 people have died from bird flu since 2003.,"['Azerbaijan', 'Bird Flu', 'WHO']"
2006-02-11,The presidents of Armenia and Azerbaijan failed to reach agreement after two days of talks on how to end the bloody conflict over the enclave of Nagorno-Karabakh.,"['Azerbaijan', 'Armenia']"
2006-03-14,"The WHO said it believed test results showing three young women in Azerbaijan had died of bird flu were reliable, but it awaited final confirmation from a British laboratory.","['Azerbaijan', 'Bird Flu', 'WHO']"
2006-03-15,"Officials in Azerbaijan said a dog had died of bird flu in Baku on Mar 9. 3 human victims, who died over the past few weeks, were thought to have been infected through contact with birds.","['Azerbaijan', 'Bird Flu']"
2006-03-21,"The WHO said 5 people had died of bird flu in Azerbaijan, raising the worldwide death toll from the H5N1 strain to 103.","['Azerbaijan', 'Bird Flu', 'WHO']"
2006-05-23,"Iran&rsquo;s government closed one of the country's top three newspapers, detaining its editor and cartoonist for publishing a caricature that caused members of Iran's Azeri minority to riot in protest.","['Azerbaijan', 'Iran', 'Cartoons']"
2006-05-28,"A new $4 billion pipeline from Baku, via Georgia to Ceyhan, Turkey, began pumping oil.","['Azerbaijan', 'Turkey', 'Georgia', 'Oil']"
2006-06-03,The long-awaited first shipment of Caspian oil from the new Baku-Tbilisi-Ceyhan (BTC) pipeline got on its way from a Turkish port.,"['Azerbaijan', 'Turkey', 'Georgia', 'Oil']"
2006-06-04,"It was reported that recent clusters of bird flu in Indonesia, Thailand, Turkey, Azerbaijan, Iraq and Vietnam were likely due to person-to-person transmission.","['Azerbaijan', 'Iraq', 'Turkey', 'Vietnam', 'Indonesia', 'Thailand', 'Bird Flu']"
2006-06-08,In Azerbaijan the Presidents Ilham Aliyev of Azerbaijan and Valdas Adamkus of Lithuania met in the presence of the two countries&rsquo; delegations following a one-on-one meeting.,"['Azerbaijan', 'Lithuania']"
2006-06-14,Azerbaijan and Armenia promised to continue talks over Nagorno-Karabakh despite two failed efforts this year by the Caucasus nations' presidents to resolve the status of the disputed enclave.,"['Azerbaijan', 'Armenia']"
2006-07-13,"The presidents of Turkey, Azerbaijan and Georgia formally opened a pipeline designed to bypass Russia and bring Caspian oil to Europe, a route that President Bush said would bolster global energy security.","['Azerbaijan', 'Turkey', 'Georgia', 'Russia', 'USA', 'Oil', 'BushGW']"
2006-10-25,"Azerbaijan&rsquo;s broadcasting chief said government authorities will bar Azerbaijan broadcasters from airing programs of the Voice of America, the BBC and Radio Liberty starting next year.","['Azerbaijan', 'Radio']"
2006-11-10,"Asian nations reached their first international agreement to implement what has been dubbed the ""Iron Silk Road."" Armenia, Azerbaijan, Cambodia, China, Indonesia, Iran, Kazakhstan, Laos, Russia, South Korea, Turkey and seven other nations agreed to meet at least every two years to identify vital rail routes, coordinate standards and financing and plan upgrades and expansions, among other measures. The UN first conceived the Trans-Asian Railway Network in 1960.","['Azerbaijan', 'Kazakhstan', 'Armenia', 'Turkey', 'Russia', 'China', 'Indonesia', 'Cambodia', 'Iran', 'Laos', 'South Korea']"
2006-11-24,"Authorities cut off broadcasts from Azerbaijan's first independent TV station and ordered the eviction of opposition newspapers and organizations from their offices in the capital, moves government opponents called part of a campaign to silence dissent.","['Azerbaijan', 'TV']"
2006-12-11,"In Azerbaijan authorities said they would allow a top independent TV station back on the air, but warned that it would have to bid for a broadcasting license next year.","['Azerbaijan', 'Telecom']"
2006-07-15,"The Kurdish populace was spread across Turkey (14m), Iran (4m), Iraq (5m), Syria (2m), Armenia and Azerbaijan. They calimed to be the world&rsquo;s largest ethnic populations without a state of their own. Almost all Kurds are Sunni Muslims.","['Azerbaijan', 'Armenia', 'Iraq', 'Turkey', 'Iran', 'Syria', 'Kurds']"
2007-02-07,Georgia signed a regional cooperation agreement with Azerbaijan and Turkey which included plans for a railway connecting the three countries.,"['Azerbaijan', 'Turkey', 'Georgia']"
2007-02-10,"Azerbaijan&rsquo;s population, at about 8 million, was mostly Shia Muslim.",['Azerbaijan']
2007-03-19,"In Azerbaijan 2 journalists accused of inciting religious hatred with an article that criticized Islam went on trial, both accusing authorities of waging a politically motivated prosecution.","['Azerbaijan', 'Islam', 'Journalism']"
2007-05-04,Two Azerbaijani journalists were convicted and sentenced to prison for inciting hatred with an article criticizing Islam.,"['Azerbaijan', 'Islam', 'Journalism']"
2007-06-07,"In Germany Chancellor Angela Merkel said that the G8 has agreed on a plan calling for ""substantial cuts"" to greenhouse gas emissions. Riot police used water cannons to turn protesters away from the fence surrounding the Group of Eight summit. G8 leaders reached an agreement on climate change, adopting a statement that says they should ""seriously consider"" proposals to cut the emissions of greenhouse gases by 50 percent by 2050. Russian President Vladimir Putin, bitterly opposed to a US missile shield in Europe, told President Bush that Moscow would drop its objections if the radar-based system were installed in Azerbaijan.","['Azerbaijan', 'Russia', 'USA', 'Germany', 'Environment', 'G8', 'BushGW']"
2007-06-08,Foreign Minister Elmar Mammadyarov said that Azerbaijan is ready to consider proposed joint US-Russian use of a radar facility in the country as part of a missile defense system.,"['Azerbaijan', 'Russia', 'USA']"
2007-06-17,Iran said it had received indications from Russia's president that he would not follow through with an offer to allow the US to use a radar station in neighboring Azerbaijan for missile defense against Tehran.,"['Azerbaijan', 'Russia', 'USA', 'Iran']"
2007-06-19,Georgia border agents blocked a car trying to smuggle radioactive plutonium and beryllium from Azerbaijan.,"['Azerbaijan', 'Georgia', 'Nuclear']"
2007-07-19,The Armenian-controlled breakaway region of Nagorno-Karabakh held a presidential election amid a rumbling dispute with Azerbaijan over the mountainous enclave's unrecognized independence.,"['Azerbaijan', 'Armenia']"
2007-07-20,"An election committee said Bako Saakian, Nagorno-Karabakh's former security chief, won the presidency of the Armenian-controlled breakaway region with 85% of the vote.","['Azerbaijan', 'Armenia']"
2007-08-28,In Azerbaijan a 16-story high-rise under construction in Baku collapsed killing at least 12 people and leaving others trapped in the rubble. The head of the construction company and another company executive were arrested. They began construction of the building in 2002 without authorization.,"['Azerbaijan', 'Labor']"
2007-09-04,A skirmish near the disputed territory of Nagorno-Karabakh killed two Azerbaijani soldiers and three Armenian troops.,"['Azerbaijan', 'Armenia']"
2007-09-07,"Bako Saakian, the former security chief of Nagorno-Karabakh, was sworn as the new president of the Armenian-controlled breakaway region.","['Azerbaijan', 'Armenia']"
2007-10-10,"Ministers from Azerbaijan, Georgia, Lithuania, Poland and Ukraine signed a deal to build an oil pipeline linking the Black and Baltic seas.","['Azerbaijan', 'Georgia', 'Ukraine', 'Oil', 'Poland', 'Lithuania']"
2007-10-29,"In Azerbaijan the US and British embassies suspended operations in Baku, where the government said it thwarted a radical Islamic group's plot to conduct a ""large-scale horrifying terror attack"" against diplomatic missions and government buildings. One suspect was killed and several others were detained in a weekend sweep in village outside the capital.","['Azerbaijan', 'Britain', 'USA']"
2007-10-30,"An Azerbaijani newspaper editor was sentenced to 8 1/2 years in prison over an article alleging that the former Soviet republic could support a US attack on neighboring Iran. The Court for Grave Crimes convicted Eynulla Fatullayev, the founder and editor of two independent newspapers that stopped publication this spring amid government pressure, on charges of making a terrorist threat and inciting interethnic conflict.","['Azerbaijan', 'Journalism']"
2007-11-21,"The presidents of Azerbaijan, Georgia and Turkey launched the construction of a railroad that will link ex-Soviet republics in the Caucasus and Central Asia with Europe, bypassing Russia.","['Azerbaijan', 'Turkey', 'Georgia']"
2007-12-28,"Azerbaijan's president issued a decree granting amnesty to 119 prison inmates, including several journalists whose convictions drew protests from international rights groups.",['Azerbaijan']
2008-03-04,Ethnic Armenian and Azerbaijani forces exchanged fire for hours near the disputed territory of Nagorno-Karabakh. Azerbaijan warned it could try to reclaim the disputed region. Soldiers were killed and wounded on both sides. Radio Free Europe/Radio Liberty said in a statement that its two Armenian affiliates halted the broadcasts to comply with an emergency decree that allows media to only report news that is sanctioned by the government.,"['Azerbaijan', 'Armenia']"
2008-03-14,"The UN General Assembly adopted a resolution demanding the ""immediate, complete and unconditional"" withdrawal of all Armenian forces from Azerbaijan's territory in a vote in which more than 100 countries abstained.","['Azerbaijan', 'Armenia', 'UN']"
2008-03-15,"Azerbaijan warned it would review relations with France, Russia and the US after they voted against a UN resolution calling on Armenia to pull out of Azerbaijani territory.","['Azerbaijan', 'Armenia', 'Russia', 'USA', 'France', 'UN']"
2008-03-29,Azerbaijan customs halted a shipment of Russian equipment for Iran&rsquo;s first nuclear power plant. The equipment was released May 1.,"['Azerbaijan', 'Russia', 'Iran', 'Nuclear']"
2008-09-03,"US Vice President Dick Cheney assured Azerbaijan of America's ""abiding interest"" in the region's stability. It was the first stop on a tour of three ex-Soviet republics that are wary of Russia's intentions after its war with Georgia last month.","['Azerbaijan', 'USA']"
2008-10-15,Authorities in Azerbaijan said turnout was high in a presidential election boycotted by the opposition and almost certain to return Ilham Aliyev for a second term in the oil-producing state. President Ilham Aliyev had 89% of the vote with 70% of precincts reporting.,['Azerbaijan']
2008-10-25,"Muslim Magomayev (66), an Azeri-born Soviet-era opera and pop singer, died in Moscow. His fame was at its peak in the 1960s and 70s.","['Azerbaijan', 'Russia', 'Pop&Rock;']"
2008-11-02,The leaders of Armenia and Azerbaijan agreed to intensify talks to end a 20-year conflict over the disputed territory of Nagorno-Karabakh.,"['Azerbaijan', 'Armenia']"
2008-11-14,Azerbaijan lawmakers voted 86-1 to back President Ilham Aliev's request to withdraw the 150 troops serving as part of the US-led coalition in Iraq.,"['Azerbaijan', 'Iraq']"
2008-12-26,Azerbaijan's parliament voted to hold a referendum next year on constitutional changes that could allow incumbent President Ilham Aliyev to stay in power when his current mandate runs out.,['Azerbaijan']
2009-01-20,The head of US Central Command said the US has struck deals with Russia and neighboring countries allowing it to transport supplies to American troops in Afghanistan through their territory. US officials have said that one likely route is overland from Russia through Kazakhstan and on through Uzbekistan using trucks and trains. Another possible route is via Azerbaijan across the Caspian Sea to the Kazakh port of Aktau and then through Uzbekistan.,"['Azerbaijan', 'Kazakhstan', 'Uzbekistan', 'Russia', 'USA', 'Afghan']"
2009-02-11,In Azerbaijan a gunman fatally shot air force chief Lt. Gen. Rail Rzayev (63) outside his home. He had represented Azerbaijan in talks with Russia and the US on Moscow's 2007 proposal to make a Soviet-built radar station in Azerbaijan.,['Azerbaijan']
2009-03-18,"Azerbaijan citizens overwhelmingly voted to scrap presidential term limits in the oil-rich country courted by Russia and the West. Opposition leaders claimed the constitutional referendum was rigged and vowed to dispute the outcome in court. A small European observer mission said, however, that the vote was transparent and it had seen no violations.",['Azerbaijan']
2009-04-30,"In Azerbaijan Georgian citizen Farda Gadyrov (20) opened fire at the prestigious oil industry academy in Baku, killing 12 people and wounding 13 before turning the gun on himself.","['Azerbaijan', 'Suicide', 'Murder']"
2009-05-07,"The European Union extended its hand to former Soviet republics, holding a summit to draw them closer into the EU orbit despite Russia's deep misgivings. Presidents, premiers and their deputies from 33 nations signed an agreement meant to extend the EU's political and economic ties. The six ex-Soviet republics to whom the partnership would apply are Armenia, Azerbaijan, Belarus, Georgia, Moldova and Ukraine.","['Azerbaijan', 'Armenia', 'Belarus', 'Georgia', 'Ukraine', 'EU', 'Moldova']"
2009-07-08,"Azerbaijan police arrested Adnan Hadzhizade, a video blogger and member of the ""OL!"" opposition movement, and Emin Milli, a youth activist who also runs an Internet TV program, after a fight in a Baku cafe with two unknown men. Both were charged with hooliganism. A Baku court decision soon ordered two months of pretrial detention for Milli and Hadzhizade, which prompted criticism from international journalism advocates.",['Azerbaijan']
2009-07-31,"UN human rights experts asked Azerbaijan to stop curbing free speech and to protect journalists from harassment, violence and even murder.","['Azerbaijan', 'UN', 'Journalism']"
2010-02-12,"In Azerbaijan lawmakers revised the country&rsquo;s media laws to forbid journalists from filming, recording or photographing subjects without their permission.","['Azerbaijan', 'Photography', 'Journalism']"
2010-03-27,"Iran used an ancient new year celebration to reach out to Afghanistan, Azerbaijan, Iraq, Turkmenistan, Tajikistan, and Turkey at a summit meeting that projected Iranian leadership in the strategic region straddling the Middle East and Central Asia.","['Afghanistan', 'Azerbaijan', 'Iraq', 'Turkey', 'Tajikistan', 'Iran', 'Turkmenistan']"
2010-06-03,"In Azerbaijan journalist Eynulla Fatullayev, jailed since 2007, went on a hunger strike demanding his release after Europe's top human rights court in April ruled that his imprisonment was illegal.","['Azerbaijan', 'Journalism']"
2010-06-06,US Defense Secretary Robert Gates hand delivered a letter from Pres. Obama to Azerbaijan&rsquo;s President Ilham Aliyev during a meeting to improve relations with the former Soviet republic that helps move supplies and soldiers to the US-led war in landlocked Afghanistan.,"['Azerbaijan', 'USA', 'ObamaB']"
2010-06-07,Turkey and Azerbaijan signed a long-awaited deal on the transit of gas to Europe seen as crucial to plans to reduce the continent's dependence on Russian gas.,"['Azerbaijan', 'Turkey', 'Gas']"
2010-11-07,Azerbaijan voted in parliamentary elections set to cement President Ilham Aliyev's grip on power but condemned by the opposition as a charade whose results have already been decided. Nearly 700 candidates competed for the 125 seats in the single chamber of the parliament. Azerbaijan's ruling party won a landslide victory. The next day international vote monitors said that ballot box stuffing and an uneven playing field for candidates marred Azerbaijan's parliamentary elections.,['Azerbaijan']
2010-11-16,"The UN Education, Scientific and Cultural Organization (UNESCO) recognized everything from the growing of corn, beans and chilies to Mexican dishes prepared with grinding stones and mortars as an ancient process worth safeguarding in the face of encroaching global influences. France's multi-course gastronomic meal, Flamenco in Spain and carpet-weaving in Azerbaijan also made the list.","['Azerbaijan', 'Spain', 'France', 'UN', 'Mexico', 'Food', 'Dance']"
2010-07-15,Thomas de Waal authored &ldquo;The Caucasus: An Introduction.&rdquo;,"['Azerbaijan', 'Armenia', 'Georgia', 'Russia', 'Chechnya', 'Dagestan', 'USSR', 'Abkhazia', 'South Ossetia']"
2011-02-20,In Azerbaijan 7 teenage soldiers were killed at a military base in the west of the country. Local media saying a soldier went on a rampage before turning the gun on himself.,"['Azerbaijan', 'Mad Man']"
2011-04-02,Azerbaijan police arrested dozens of protesters who rallied for democratic reforms in the authoritarian republic. Human rights activist Vivadi Iskenderov was among those arrested in Baku. In August he was sentenced to three years in prison for interfering in parliamentary elections. He told the court that he is being persecuted for reporting vote rigging in Azerbaijan's 2010 parliamentary election.,"['Azerbaijan', 'Mad Crowd']"
2011-06-24,"The presidents of Armenia and Azerbaijan failed to approve a set of basic principles for a peaceful settlement to their long-standing dispute over the breakaway territory of Nagorno-Karabakh, despite US and Russian efforts to mediate the conflict in the strategic Caucasus region.","['Azerbaijan', 'Armenia']"
2011-07-06,In Afghanistan an Azerbaijani cargo plane carrying supplies for the Afghan NATO mission crashed into treacherous mountains killing all nine crew on board outside Kabul. The nine crew were from Azerbaijan and Uzbekistan. The plane was operated by private Azerbaijani airline Silk Way.,"['Azerbaijan', 'Air Crash', 'Afghan']"
2011-09-03,"In Tajikistan leaders from eight former Soviet states (Armenia, Azerbaijan, Kazakhstan, Kyrgyzstan, Russia, Tajikistan, Ukraine and Uzbekistan) gathered to celebrate enduring cooperation over the two decades since their nations collectively gained independence, but mutual acrimony and recriminations cast a shadow over the event.","['Azerbaijan', 'Kazakhstan', 'Kyrgyzstan', 'Uzbekistan', 'Armenia', 'Russia', 'Ukraine', 'Tajikistan']"
2011-09-23,The tarnished image of Olympic boxing faced fresh scrutiny over allegations that multi-million dollar bribes were paid to ensure fighters from Azerbaijan won gold medals at the 2012 Games in London. The championships were moved to the Azeri capital after being originally awarded to the South Korean port city of Busan.,"['Azerbaijan', 'Olympics', 'Boxing']"
2011-11-19,Azeri snipers fired into the disputed breakaway enclave of Nagorno-Karabakh killing one Armenian soldier. A 2nd soldier was killed the next day.,"['Azerbaijan', 'Armenia']"
2011-11-21,Armenia said it will retaliate for the weekend killings of two ethnic Armenian soldiers by Azeri snipers who fired into a disputed breakaway enclave.,"['Azerbaijan', 'Armenia']"
2011-11-23,"Rafiq Tagi, a prominent Azeri journalist, died in Baku four days after he was stabbed six times by an unknown assailant. Tagi claimed the attack was retaliation for his opinion piece published earlier this month that criticized the government of neighboring Iran.","['Azerbaijan', 'Murder', 'Journalism']"
