1830-07-15,A French taxidermist stuffed an African Bushman from Botswana and took the body to Europe for exhibition. In 2000 the body was returned from a Spanish museum.,['Botswana']
1921-07-15,"Seretse Khama, 1st president of Botswana, was born.",['Botswana']
1964-07-15,Botswana gained independence from Britain. [see 1966],['Botswana']
1966-09-30,"The Republic of Botswana, a Texas sized country, declared its independence from Britain. Seretse Khama (1921-1980) began serving as the 1st president of Botswana.",['Botswana']
1966-07-15,Botswana in southern Africa gained independence from Britain. [see 1964],['Botswana']
1967-07-15,Diamonds were discovered in Botswana. It was later thought that the deposits would run out by 2030.,"['Botswana', 'Diamonds']"
1980-04-01,"The southern African Development Coordination Conference (SADCC) was established by 9 countries with the Lusaka declaration (Angola, Botswana, Lesotho, Malawi, Mozambique, Swaziland, Tanzania, Zambia, Zimbabwe). The main aim was coordinating development projects in order to lessen economic dependence on apartheid South Africa.  On August 17, 1992, it was transformed into the Southern African Development Community (SADC). By 2008 it included 15 members.","['Angola', 'Botswana', 'Lesotho', 'South Africa', 'Malawi', 'Tanzania', 'Mozambique', 'Zimbabwe', 'Zambia', 'Swaziland']"
1980-07-13,"Seretse Khama, 1st president of Botswana, died. He made Botswana an increasingly democratic and prosperous country with a significant role in Southern Africa.",['Botswana']
1981-07-15,"Marjorie Shostak wrote Nisa: ""The Life and Words of a !Kung Woman."" The book featured her photos and was based on field work from 1968-1971 in the Kalahari Desert.","['Botswana', 'South Africa', 'Namibia', 'Books']"
1985-07-15,Botswana recorded its 1st AIDS case.,['Botswana']
1986-05-19,"South African commandos struck alleged ANC ""operational centers"" in Zimbabwe, Botswana, Zambia.","['Botswana', 'South Africa', 'Zimbabwe', 'Zambia']"
1994-01-01,"Botswana, Germany, Italy, Honduras, and Indonesia joined the Security Council.","['Italy', 'Botswana', 'Honduras', 'Germany', 'Indonesia', 'UN']"
1996-07-15,"The South Africa Council for Scientific and Industrial Research patented the active chemical of hoodia, called P57, and licensed development rights to a British firm. They did not acknowledge the San Bushmen who used the cactus to raise energy and fight hunger. In 2003 an agreement was reached to pay the San 6% of the royalties. Some 100,000 San lived in South Africa, Botswana, Namibia and Angola.","['Angola', 'Botswana', 'Britain', 'South Africa', 'Namibia']"
1997-06-19,"In Zimbabwe delegates to the UN Convention on Int&rsquo;l. Trade in Endangered Species (CITES) approved the applications by Zimbabwe, Namibia and Botswana to sell an annual quota of their collective ivory stockpile, but only to Japan. Trade in ivory was shut down in 1989 due to extensive poaching.","['Botswana', 'Japan', 'Zimbabwe', 'Namibia']"
1997-11-10,Pres. Sir Ketumile Masire announced that he would retire Mar 31 after 18 years as leader. He would be succeeded by Vice Pres. Festus Mogae.,['Botswana']
1997-07-15,The US Peace Corps left Botswana after 30 years of aiding development. In 2002 the Peace Corps returned to help with the AIDS program.,['Botswana']
1998-09-21,In Lesotho opposition protestors clashed with South African and Botswanan troops at the royal palace. A faction of the Lesotho army rebelled 11 days ago and deposed the new military leadership. They charged that the May elections swept by the Lesotho Congress party were rigged.,"['Botswana', 'Lesotho', 'South Africa']"
1998-10-28,The life expectancy was reported to have dropped from 61 in 1993 to 47 to the AIDS epidemic.,['Botswana']
1998-10-28,In Botswana the life expectancy was reported to have dropped from 61 in 1993 to 47 to the AIDS epidemic.,"['Botswana', 'AIDS']"
1998-11-26,In Zimbabwe former Pres. Canaan Banana was convicted of 11 sex charges that included sodomy and homosexual assault against aide Jefta Dube. He jumped bail and fled to Botswana and then South Africa.,"['Botswana', 'South Africa', 'Sex', 'Zimbabwe', 'Govm&rsquo;t Scandal']"
1998-07-15,In Botswana Festus Mogae came to power in succession to Sir Ketumile Masire.,['Botswana']
1999-04-09,In Lesotho Prime Minister Pakalitha Mosisili announced that South Africa and Botswana would soon pull their forces out of Lesotho following a 7 month peacekeeping operation.,"['Botswana', 'Lesotho', 'South Africa']"
1999-05-06,"Bristol-Myers announced a plan to spend $100 million over the next 5 years in 5 southern African nations, that included Botswana, to fund AIDS research trials.","['Botswana', 'Africa', 'AIDS', 'Pharma']"
1999-10-18,In Botswana election results showed the ruling Botswana Democratic Party of Pres. Festus Mogae won 30 of 40 seats in the National Assembly.,['Botswana']
2000-02-26,"Heavy rains continued to ravage South Africa, Botswana, Mozambique and Zimbabwe. 33 people were reported dead in the northern province of South Africa and 29 dead in Zimbabwe.","['Botswana', 'South Africa', 'Mozambique', 'Zimbabwe', 'WeatherAfrica']"
2001-03-07,"Debswana, Botswana's diamond-mining giant, offered AIDS drug coverage for its 6,000 workers.","['Botswana', 'Diamonds']"
2001-06-04,It was reported that the AIDS HIV-infection rate was 38.5% of Botswana's adult population.,['Botswana']
2002-07-15,"Some of the former dwellers of Botswana&rsquo;s Central Kalahari Game Reserve (CKGR) took the government to court, arguing that their relocation was illegal.",['Botswana']
2003-07-10,"Pres. Bush met with Pres. Festus Mogae in Botswana. Bush said that AIDS is ""the deadliest enemy Africa has ever faced"" and pledged to the nation with the world's highest AIDS infection rate that it would have a strong partner in his administration in fighting the disease.","['Botswana', 'USA', 'AIDS', 'BushGW']"
2003-08-30,"In Botswana a former bank manager, draped in a ceremonial leopard skin, was installed as the first female paramount chief. Mosadi Seboko took over as the highest-ranking chief of the Balete people.",['Botswana']
2003-11-08,The AIDS infection rate in Botswana was reported to be 22% and that few people were taking advantage of treatment programs.,"['Botswana', 'AIDS']"
2004-11-01,Botswana voters gave the ruling Botswana Democratic Party 44 of parliament&rsquo;s 57 seats. Pres. Festus Mogae promised to fight poverty and AIDS.,['Botswana']
2004-07-15,"Eurostar, an Indian-owned diamond cutting and trading company headquartered in Belgium, set up diamond polishing and cutting operations in Botswana.","['Belgium', 'Botswana', 'Diamonds']"
2005-06-28,"Swedish truck and bus maker Volvo AB said it will close an assembly plant in Botswana and open a new factory in Durban, South Africa.","['Botswana', 'South Africa', 'Sweden', 'Cars']"
2006-12-13,"Botswana's High Court ruled that the country's Bushmen were entitled to live and hunt on their ancestral lands in the Central Kalahari Game Reserve, in judgment hailed as victory for the hunters.",['Botswana']
2006-12-14,"Botswana's government accepted a court order to allow the Bushmen, the nation's last hunter-gatherers, to live on their ancestral lands. But at the same time, officials imposed tough conditions likely to prevent most or all from returning to the central Kalahari. In 2009 6 Bushmen were convicted of illegally hunting gemsbok and eland in the Central Kalahari Game Reserve, where no licenses have issued since 2001.",['Botswana']
2006-07-15,Botswana&rsquo;s population numbered about 1.6 million.,['Botswana']
2007-06-02,"The UN Convention on International Trade in Endangered Species (CITES) decided to permit a one-off sale of 60 tons of ivory from Botswana, Namibia and South Africa to Japan, saying it would monitor closely the impact on poaching and population levels.","['Botswana', 'Japan', 'UN', 'South Africa', 'Animal', 'Namibia']"
2007-06-14,"In the Netherlands four African states (South Africa, Namibia, Botswana and Zimbabwe), after an 18-year ban, were allowed to put their ivory stocks on the market in a one-time sale as part of a hard-fought compromise reached with other Africans who tried to block the sale. The 171-member Convention on International Trade in Endangered Species, or CITES, approved the deal by consensus.","['Botswana', 'Netherlands', 'South Africa', 'Zimbabwe', 'Namibia']"
2007-07-15,Botswana's President Festus Mogae (67) announced that he is to stand down next year after a decade at the helm of the diamond-rich southern African nation.,['Botswana']
2008-03-18,In Botswana De Beers and the government set up a Diamond Trading Company (DTC) as a joint venture.,"['Botswana', 'Diamonds']"
2008-03-22,The population of Botswana numbered about 1.8 million.,['Botswana']
2008-04-01,"In Botswana Seretse Ian Khama (b.1953), the half-white son of Botswana&rsquo;s first president,  was sworn in as president. Festus Mogae retired after 10 years in office.",['Botswana']
2008-07-16,"The United States signed a pair of agreements to boost trade and investment ties with countries in southern and eastern Africa. These included the Trade, Investment and Development Cooperation Agreement with the Southern Africa Customs Union (SACU), which includes Botswana, Lesotho, Namibia, South Africa and Swaziland; and the Trade Investment and Framework Agreement (TIFA) with the East African Community, which includes Burundi, Kenya, Rwanda, Tanzania and Uganda.","['Botswana', 'USA', 'Burundi', 'Lesotho', 'South Africa', 'Tanzania', 'Rwanda', 'Kenya', 'Uganda', 'Swaziland', 'Namibia']"
2008-10-20,"Festus Gontebanye Mogae, who led Botswana from 1998 to 2008, was chosen as the winner of the 2008 Ibrahim Prize for Achievement in African Leadership.","['Botswana', 'Hero']"
2008-11-26,"South Africa's health minister said Zimbabwe faced a humanitarian crisis after a major outbreak of cholera, vowing not to turn away anyone who crosses the border for treatment. Botswana's foreign minister said Zimbabwe's neighbors should close their borders in an attempt to bring down Pres. Robert Mugabe, in the strongest call yet for action from Africa.","['Botswana', 'South Africa', 'Zimbabwe']"
2008-07-15,"In Botswana Pres. Festus Mogae planned to retire after 10 years in office with Ian Khama, the half-white son of Botswana&rsquo;s first president,  as his anointed successor.",['Botswana']
2009-03-21,In Botswana Japanese Foreign Minister Hirofumi Nakasone opened a development conference and warned that the global economic crisis would affect Africa for at least two years.,"['Botswana', 'Japan', 'Africa']"
2009-03-27,"Southern African countries (Angola, Botswana, Mozambique, Namibia, Zambia) have been hit by the worst floods in years, killing more than 100 people and displacing thousands, as a tropical storm threatened to bring more pain.","['Angola', 'Botswana', 'Mozambique', 'Zambia', 'Namibia', 'Flood']"
2009-04-06,"In Zambia western nations and lending agencies meeting in Lusaka agreed a financing package of more than $1 billion to improve infrastructure in southern and central Africa at an investment conference meant to expand transport links and trade. Britain said it would separately provide 100 million pounds ($149.2 million) to transform the region's infrastructure to increase trade and mitigate the effects of the global financial crisis. New projects will link businesses in 8 African countries: Tanzania, the Democratic Republic of Congo, Zambia, Malawi, Botswana, Zimbabwe, Mozambique and South Africa.","['Botswana', 'South Africa', 'Malawi', 'Tanzania', 'Mozambique', 'Zimbabwe', 'Zambia', 'CongoDRC']"
2009-10-09,"Japanese officials said they have obtained rights to develop platinum mines in South Africa and Botswana in a bid to ensure a stable supply of the metal. The government-backed Japan Oil, Gas and Metals National Corp. (JOGMEC) said it has signed a contract with Discovery Metals in Australia to jointly develop nickel and platinum mines in northeast Botswana. It has also inked another deal with Canadian firm Platinum Group Metals to explore for platinum in South Africa.","['Australia', 'Botswana', 'Canada', 'Japan', 'South Africa']"
2009-10-16,"Botswana held parliamentary elections. On Oct 18 the independent electoral commission announced that the governing party, which has been in power for more than four decades, once again swept the elections. The Botswana Democratic Party (BDP) won 45 out of the 57 seats. This paved the way for legislators to select incumbent President Seretse Ian Khama to continue as leader of the world's largest diamond-producing country.",['Botswana']
2009-07-15,James G. Workman authored &ldquo;Heart of Dryness: How the Last Bushmen Can Help Us Endure the Coming Age of Permanent Drought.&rdquo; The book includes a history of the diamond industry in Botswana as well as the story of the Bushmen&rsquo;s resistance to the government&rsquo;s efforts to drive them from their traditional homes and ways.,"['Botswana', 'Books', 'Diamonds']"
2009-07-15,Botswana&rsquo;s population stood at about 2 million.,['Botswana']
2010-01-06,Zimbabwe state media reported that Zimbabwe Power Company (ZPC) has signed an eight million dollar deal with Botswana to revive a shut-down thermal power station and ease national blackouts.,"['Botswana', 'Zimbabwe']"
2010-09-01,"A court in Botswana charged former defense minister Ramadeluka Seretse for failing to disclose his position as a shareholder in a company that was awarded a government contract. Seretse, a cousin of President Seretse Ian Khama, resigned Aug 30 after months of corruption allegations from opposition parties.","['Botswana', 'Corruption']"
2010-10-30,"In China Alexandria Mills, a soft-spoken 18-year-old from Louisville, Kentucky, was named the winner in the 60th Miss World Competition, held on Hainan Island. Second place went to Emma Wareus of Botswana, and Adriana Vasini of Venezuela came third.","['Botswana', 'Venezuela', 'China', 'Kentucky', 'Pageant']"
2011-01-27,"An appeals court in Botswana ruled that indigenous dwellers in one of the driest parts of the world can now drill wells for water, overturning an earlier decision that denied them access.",['Botswana']
2011-04-18,"Botswana public sector workers went on strike demanding a 16% pay raise after a 3-year wage freeze. The government proceeded to fire 1,400 striking health care workers including some 50 doctors. After 8 weeks public workers settled for three percent after the government insisted it could not afford a larger increase.","['Botswana', 'Labor']"
2011-05-24,"In India representatives of eight countries with large wild elephant populations pledged to eradicate poaching of the animals and smuggling of ivory to ensure their survival for future generations. The ""Elephant 8 Ministerial Meet"" included officials from Thailand, Sri Lanka, Indonesia, India, Botswana, Congo, Kenya and Tanzania.","['Botswana', 'India', 'Indonesia', 'Thailand', 'Tanzania', 'Kenya', 'Sri Lanka', 'CongoDRC', 'Animal']"
2011-06-27,"A Botswana's Bushmen spokesman said Bushmen plan to boycott the country's upcoming census in protest at the government's refusal to provide them with a polling station during the last election. Some 100,000 Bushmen remained in southern Africa, spread across Botswana, Namibia and South Africa.","['Botswana', 'Census']"
2011-09-23,"A Botswana official said labor unions have asked a court to force the government to reinstate nearly 2,600 public services workers fired during the country's first national strike in April.","['Botswana', 'Labor']"
2011-10-18,"In Botswana 3 French, 3 Swiss and 2 Britons were killed when their Moremi Moremi Air Charters Cessna 208 crashed shortly after take-off from the island of Pom Pom in the Okavango delta in the northern tourist area. 4 passengers survived the crash.","['Botswana', 'Air Crash']"
