1191-05-12,"Richard the Lionheart married (Bernegaria) Berengaria of Navarre in Limassol, Cyprus.",['Cyprus']
1570-07-03,"The Turks began their attack on Nicosia, Cyprus, after Venice refused to surrender the island.","['Turkey', 'Cyprus', 'Venice']"
1570-09-23,"The Turks began their attack on Famagusta, Cyprus, which was fortified by Venetian commander Marcantonio Bragadino (1523-1571).","['Turkey', 'Cyprus', 'Venice']"
1571-09-01,"Famagusta, Cyprus, surrendered to Mustafa Pasha commander of the Turkish forces after nearly a one year siege. The terms of surrender appeared agreeable to Venetian Gov. Marcantonio Bragadino (b.1523), but Mustafa Pasha turned on Bragadino and had him violently tortured and finally flayed alive.","['Turkey', 'Cyprus', 'Venice']"
1571-07-15,"Turks sacked the St. Sophia Cathedral in Old Nicosia, Cyprus, and turned it into the Selimiye Mosque.",['Cyprus']
1871-07-15,"Some 5,000 Cypriot artifacts were lost in a shipwreck.",['Cyprus']
1872-07-15,Luigi Palma di Cesnola made his first sale of Cypriot artifacts to the NY Metropolitan Museum of Art.,['Cyprus']
1878-06-04,The Ottoman Empire turned over control of Cyprus to the British. The Congress of Berlin leased Cyprus to Britain.,"['Turkey', 'Cyprus', 'Britian']"
1878-07-15,"Luigi Palma di Cesnola published &ldquo;Cyprus: Its Ancient Cities, Tombs, and Temples.&rdquo;",['Cyprus']
1898-03-23,"Georgios Grivas, Greek General, opposition leader on Cyprus, was born.",['Cyprus']
1913-08-13,"Makarios III, [Michail Moeskos], archbishop, president Cyprus, was born.",['Cyprus']
1925-05-01,Cyprus became a British Crown Colony.,['Cyprus']
1946-08-13,Britain transferred illegal immigrants bound for Palestine to Cyprus.,['Cyprus']
1955-03-21,Archbishop Makarios of Cyprus desired Cyprus joining Greece.,['Cyprus']
1955-04-01,EOKA-bomb attacks took place against British government buildings in Cyprus.,['Cyprus']
1955-11-26,An emergency crisis was proclaimed in Cyprus.,['Cyprus']
1956-03-09,British authorities arrested and deported Archbishop Makarios from Cyprus to the Seychelles. He was accused of supporting terrorists.,['Cyprus']
1956-03-10,A general strike in Cyprus protested the exile of archbishop Makarios.,['Cyprus']
1956-08-29,French government sent troops to Cyprus near Suez crisis.,['Cyprus']
1957-03-20,"Britain accepted a NATO offer to mediate in Cyprus, but Greece rejected it.",['Cyprus']
1957-09-12,Archbishop Makarios of Cyprus visited the US.,['Cyprus']
1958-06-15,Greece severed military ties to Turkey because of the Cypress issue.,['Cyprus']
1959-02-19,"An agreement was signed by Britain, Turkey and Greece granting Cyprus its independence.",['Cyprus']
1959-03-01,Archbishop Makarios returned to Cyprus after 3 years.,['Cyprus']
1960-08-16,Britain granted independence to the crown colony of Cyprus. Archbishop Makarios began serving as the 1st post independence president. He chose Spyros Kyprianou (28) as foreign minister.,['Cyprus']
1961-07-15,Cyprus was accepted into the Council of Europe.,"['EU', 'Cyprus']"
1963-12-21,The Turk minority rioted in Cyprus to protest anti-Turkish revisions in the constitution.,['Cyprus']
1963-12-24,Greeks and Turks rioted in Cyprus.,['Cyprus']
1964-08-07,Turkey began an air attack on Greek-Cypriots.,['Cyprus']
1964-07-15,"In Cyprus Turkish Cypriots withdrew into enclaves and barbed wire went up in Nicosia, dividing the capital with Greek Cypriots.",['Cyprus']
1967-12-29,A Turkish-Cypriot government formed in Cyprus.,['Cyprus']
1974-07-15,Greek troops and the Greek Cypriot National Guard staged a military coup on Cyprus and archbishop-president Makarios fled. Nikos Giorgiades Sampson (d.2001 at 66) served as president for 8 days following the military coup that overthrew Archbishop Makarios. PM Bulent Ecevit ordered Turkish troops to invade Cyprus following the Greek Cypriot coup.,"['Turkey', 'Cyprus', 'Greece']"
1974-07-20,Turkey invaded Cyprus.,"['Turkey', 'Cyprus']"
1974-07-23,Greece's military rulers announced they would turn the nation back to civilian rule. Constantine Karamanlis returned from 11 years of self-imposed exile and was sworn in as premier. Karamanlis later won a landslide election and served as prime minister until 1980. The Ioannides regime collapsed after plotting an aborted military takeover of Cyprus.,"['Cyprus', 'Greece']"
1974-07-30,The prime ministers of Greece and Turkey and the British Foreign Secretary signed a peace agreement to settle the Cyprus crisis.,"['Turkey', 'Britain', 'Cyprus', 'Greece']"
1974-08-14,"The Turkish army mounted a second full-scale offensive in Cyprus, despite the fact that talks were still being held in Geneva and just as agreement was about to be reached. 37% of the area of Cyprus came under Turkish military occupation.","['Turkey', 'Cyprus', 'Greece']"
1974-08-14,Greek Cypriots began a 2-day massacre that killed 83 Turkish Cypriot men in Taskent.,"['Turkey', 'Cyprus', 'Greece']"
1974-08-19,"US Ambassador Rodger P. Davies was fatally wounded by a bullet that penetrated the American embassy in Nicosia, Cyprus, during a protest by Greek Cypriots.","['USA', 'Cyprus']"
1974-11-01,"The UN General Assembly unanimously passed the first of countless resolutions calling all states to respect the sovereignty, independence, territorial integrity and non-alignment of the Republic of Cyprus.","['Cyprus', 'UN']"
1974-07-15,"Cyprus was divided into Greek and Turkish sectors with a UN no-man&rsquo;s land in between. Turkish troops had invaded the island after an Athens-based coup by Greek Cypriots. 1,619 Greek Cypriots were said to be missing following the July, 1974, Turkish invasion.","['Turkey', 'Cyprus', 'Greece']"
1974-07-15,Dr. Anastassios Simonidis (d.2000 at 75) was made the honorary consul general of Cyprus.,['Cyprus']
1974-07-15,"Antiquities smugglers looted 13th century frescoes from the Ayios Themomianos church in northern Cyprus following the Turkish invasion that split the island into a Turkish-speaking north and a Greek-speaking south. Menil Collection founder Dominique de Menil obtained the frescoes in 1983, and struck an agreement with the Cyprus church to keep and exhibit them in a purpose-built chapel in Houston. The Cyprus church granted the museum a loan extension until Feb. 2012 in recognition of its efforts to reassemble and restore the fragmented frescoes.","['USA', 'Cyprus', 'Texas', 'Museum']"
1976-07-15,Spyros Kyprianou became president of the Cyprus House of Representatives.,['Cyprus']
1977-08-03,"Archbishop Makarios (b.1913), president of Cyprus, died.",['Cyprus']
1977-07-15,"Tassos Papadopoulos (1934-2008), former leader of the Greek Cypriot guerrilla group EOKA, submitted a proposal for a federated Cyprus tying together two distinct zones. The proposal became the basis for all subsequent settlement initiatives.",['Cyprus']
1978-02-28,Spyros Kyprianou was elected president of Cyprus with no opposition.,['Cyprus']
1980-07-15,"Asil Nadir, a Turkish Cypriot businessman, took control of the ailing British textile company Polly Peck and used the firm as his stock market vehicle for expansion. The company's stock price multiplied as Nadir went on an acquisitions binge, snapping up Del Monte's fresh fruit operations and Japan's Sansui Electric Co. His company filed for bankruptcy protection in late 1990, hundreds of millions of pounds (dollars) in debt.","['Britain', 'Cyprus']"
1983-02-13,Spyros Kyprianou was re-elected president of Cyprus.,['Cyprus']
1983-11-15,"Turkish Cypriots declared the northern third Cyprus a separate republic, the Turkish Republic of Northern Cyprus. It was only recognized by Turkey.","['Turkey', 'Cyprus', 'Greece']"
1988-04-10,"The hijackers of a Kuwait Airways jetliner vowed to carry out a ""slow, quiet massacre"" of their hostages, one day after one captive was killed aboard the plane parked in Larnaca, Cyprus.","['Cyprus', 'Kuwait', 'Hijacking']"
1988-04-11,"Hijackers of a Kuwait Airways jetliner killed a second hostage, dumping his body onto the ground in Larnaca, Cyprus.","['Cyprus', 'Kuwait', 'Hijacking']"
1988-04-13,"A commandeered Kuwaiti jetliner took off from Cyprus for Algeria, after the pro-Iranian Shiite Muslim hijackers on board freed 12 hostages.","['Algeria', 'Cyprus', 'Kuwait', 'Hijacking']"
1991-07-15,In Cyprus the Democratic Rally won 20 seats in the 56 seat parliament.,['Cyprus']
1993-07-15,"Asil Nadir (52), a Turkish Cypriot, went to northern Cyprus after being charged with 66 counts of theft involving 34 million pounds. He ran Polly Peck, one of Britain's biggest companies with interests in sectors from textiles to electronics, before its collapse. In 2010 Nadir's lawyers indicated he would be willing to come back and face trial if he was granted bail.","['Britain', 'Cyprus', 'Corp. Scandal', 'Robbery']"
1994-09-13,"In Cyprus 3 British soldiers abducted tour guide Louise Jensen (23). Her body was found 2 days later. In 1996 they were sentenced to life imprisonment after being convicted of abducting, conspiring to rape, and killing Louise Jensen. In 2006 the former soldiers were released and deported to Britain after serving only 12 years.","['Britain', 'Cyprus', 'Murder', 'Rape']"
1996-05-26,"In Nicosia the center-right coalition of Pres. Glafcos Clerides, the Democratic Rally, lost support but maintained a slim majority in the Greek Cypriot parliamentary elections. Spyros Kyprianou was elected President of the House of Representatives.",['Cyprus']
1996-06-03,Turkish soldiers shot and killed a Greek Cypriot soldier in the no-man&rsquo;s zone.,"['Turkey', 'Cyprus']"
1996-08-11,"It was reported that a Greek Cypriot man was killed and 41 injured in a border clash, after Greek Cypriot motorcyclists defied orders to halt a rode across the line to protest Turkey&rsquo;s 1974 invasion.",['Cyprus']
1996-08-12,"It was reported that a Greek Cypriot man was killed and 41 injured in a border clash, after Greek Cypriot motorcyclists defied orders to halt a rode across the line to protest Turkey&rsquo;s 1974 invasion.",['Cyprus']
1996-08-14,In Cyprus another man was killed in demonstrations when Turkish troops opened fire on Greek Cypriot demonstrators.,"['Turkey', 'Cyprus']"
1996-10-09,"A 6.8 earthquake, centered off of Cyprus killed 2 and injured 21.","['Cyprus', 'Earthquake']"
1997-07-09,Cypriot Pres. Glafcos Clerides and Turkish Cypriot leader Rauf Denktash were scheduled to meet in a 4-day session in New York to resolve their disputes.,"['Turkey', 'Cyprus']"
1997-10-14,"Aydin Dikmen (60), Turkish art dealer, was arrested in Germany for selling antiquities plundered from Cyprus since 1974.","['Turkey', 'Germany', 'Cyprus', 'Antique']"
1997-12-27,Lower level talks between Turkish and Greek Cypriot officials were suspended by the Turkish Cypriots to protest the inclusion of the Greek side in EU membership.,"['Turkey', 'EU', 'Cyprus', 'Greece']"
1998-02-08,Greek Cypriots voted in elections with neither main candidate receiving a necessary majority. Pres. Glafcos Cleridas (78) will face former foreign minister George Iacovou on Feb 15.,"['Cyprus', 'Greece']"
1998-02-15,In Cyprus Pres. Glafcos Clerides won the elections with a 50.8% margin.,['Cyprus']
1998-03-31,"The EU set this date for membership talks with Poland, Hungary, the Czech Republic, Slovenia, Estonia and Cyprus. Preliminary talks were also set with Lithuania, Latvia, Slovakia, Romania and Bulgaria.","['Romania', 'Bulgaria', 'Hungary', 'EU', 'Poland', 'Cyprus', 'Estonia', 'Latvia', 'Lithuania', 'Slovenia', 'Slovakia', 'Czech Rep.']"
1998-05-27,"It was reported that the planned delivery of a Russian missile system to Cyprus would contain a &ldquo;Tombstone&rdquo; radar system, to be operated by 70 Russian experts. This was a threat to the existing West&rsquo;s exclusive monitoring.",['Cyprus']
1998-08-27,Russia planned to deliver the S-300 anti-aircraft missile system to the Greek Cypriot government for about $200 million. Pres. Glafcos Clerides said the missiles would be deployed in Nov. if Turkey did not accept a proposal for demilitarization.,"['Russia', 'Cyprus']"
1998-10-26,"Cyprus announced that it had begun building a naval base, apparently destined for use by Greek warships.","['Cyprus', 'Greece']"
1998-12-29,In Cyprus Pres. Glafcos Clerides decided not to import Russian-made anti-aircraft missiles in order to reduce tensions with Turkey.,"['Turkey', 'Cyprus']"
1999-04-07,"Spyros Kyprianou, the acting president of Cyprus, planned to fly to Belgrade to negotiate the release of the 3 American soldiers held by Serbia.","['Serbia', 'Cyprus']"
1999-11-14,Pres. Clinton flew to Turkey for talks on Cyprus.,"['Turkey', 'USA', 'Cyprus', 'ClintonB']"
1999-07-15,"Helios Airways was founded as Cyprus' first private airline. By 2005 it operated a fleet of Boeing 737 jets to cities including London; Athens; Sofia, Bulgaria; Dublin, Ireland; and Strasbourg, France.","['Cyprus', 'Air Crash']"
2001-05-28,"The AKEL, a communist party, won parliamentary elections in the Greek Cypriot portion of the island.",['Cyprus']
2001-05-28,"In Cyprus the AKEL, a communist party, won parliamentary elections in the Greek Cypriot portion of the island.",['Cyprus']
2001-09-02,"Dr. Christiaan Barnard (b.1922), South African cardiologist, died in Paphos, Cyprus. He performed the world&rsquo;s 1st human heart transplant in 1967, authored a distinguished text on cardiology, a scandalous autobiography and 4 minor novels.","['Cyprus', 'South Africa', 'Heart']"
2002-01-16,"In Cyprus rival leaders, Glafcos Clerides and Rauf Denktash, met on the border in Nicosia in the 1st formal negotiation in 4 years.",['Cyprus']
2002-03-12,"Spyros Kyprianou (69), former Cyprus president (1977-1988), died of pelvic cancer.",['Cyprus']
2002-07-10,"In Cyprus a military helicopter crashed during a nighttime training exercise, killing the commander of the east Mediterranean island's military and the air force chief. Two crew members and a navy officer on board were also killed.","['Cyprus', 'Air Crash']"
2002-10-09,"The European Union's executive Commission declared Bulgaria, the Czech Republic, Cyprus, Estonia, Hungary, Latvia, Lithuania, Malta, Poland, Romania, Slovenia, and Slovakia nearly ready for EU membership and recommended they be invited to join in 2004. Romania and Bulgaria likely will be delayed until 2007 because of weak economies, the Commission said, adding Turkey was the weakest link among candidates.","['Romania', 'Bulgaria', 'Hungary', 'EU', 'Poland', 'Cyprus', 'Estonia', 'Latvia', 'Lithuania', 'Malta', 'Slovenia', 'Slovakia', 'Czech Rep.']"
2002-11-11,"UN Secretary-General Kofi Annan presented Greek and Turkish Cypriots with a plan to unite their divided island into a single country modeled on Switzerland, with two equal states.","['Cyprus', 'UN']"
2002-11-18,"The Greek Cypriot government said it accepted ""as a basis for negotiations"" a U.N. plan for the reunification of the divided eastern Mediterranean island.",['Cyprus']
2002-12-13,"The EU reached agreement to accept 10 new countries in 2004. These included Czech Republic, Cyprus, Estonia, Hungary, Latvia, Lithuania, Malta, Poland, Slovakia, and Slovenia.","['Hungary', 'EU', 'Poland', 'Cyprus', 'Estonia', 'Latvia', 'Lithuania', 'Malta', 'Slovenia', 'Slovakia', 'Czech Rep.']"
2003-02-16,In Cyprus Tassos Papadopoulos was elected the country&rsquo;s 5th president over Glafcos Clerides. He opposed current reunification plans.,['Cyprus']
2003-02-28,"Tassos Papadopoulos took office as the fifth Greek Cypriot president, pledging to strive for reunification.",['Cyprus']
2003-03-11,Talks to unify the divided Mediterranean island of Cyprus collapsed after rival Greek and Turkish leaders failed to agree on a UN power-sharing agreement.,"['Cyprus', 'UN']"
2003-04-16,Greek Cypriots signed a treaty to join the European Union.,"['EU', 'Cyprus']"
2003-04-23,In Cyprus Turkish Cypriot leaders lifted travel restrictions across the 1974 buffer zone separating the Greek and Turk sides.,['Cyprus']
2003-05-17,"Turkish Prime Minister Recep Tayyip Erdogan said Turkey will open its doors next week to Greek Cypriot tourists, signaling an end to a decades-long travel ban.","['Turkey', 'Cyprus']"
2003-07-14,The Cyprus parliament voted unanimously to approve the accession of the Mediterranean island to the European Union.,['Cyprus']
2003-12-14,Elections in northern Cyprus ended in a deadlock with the pro-EU opposition and pro-government parties splitting the 50 parliamentary seats. EU members have said that Turkey must help reunite the island before it can realize its own membership aspirations.,"['Turkey', 'EU', 'Cyprus']"
2004-02-13,Greek and Turkish Cypriot leaders agreed to resume full negotiations next week to end the 30-year division of Cyprus before it joins the European Union on May 1.,"['EU', 'Cyprus']"
2004-04-08,U.N. Secretary-General Kofi Annan expressed disappointment after Cypriot leaders on both sides rejected his reunification plan.,"['Cyprus', 'UN']"
2004-04-15,"The United States pledged $400 million to support a U.N. plan for reunifying Cyprus, but stressed no money would come unless voters on the divided island approve the settlement in a referendum next week.","['USA', 'Cyprus', 'UN']"
2004-04-22,Tens of thousands of Cypriots turned out in a final show of support for a U.N. plan to end the 30-year division of their island.,['Cyprus']
2004-04-24,"Greek Cypriots overwhelmingly rejected a UN plan, the Annan Plan, to reunite Cyprus. The European Union pledged to start searching for ways to extend a hand of friendship to the island's long-ostracized Turkish side. It meant that only the Greek side of Cyprus would join the European Union on May 1.","['EU', 'Cyprus', 'UN']"
2004-04-27,"Russian Foreign Minister Sergey Lavrov and EU officials signed an accord extending the EU-Russia partnership accord to Estonia, Latvia, Lithuania, Poland, Hungary, the Czech Republic, Slovakia, Slovenia, Cyprus and Malta, which join May 1.","['Russia', 'Hungary', 'EU', 'Poland', 'Cyprus', 'Estonia', 'Latvia', 'Lithuania', 'Malta', 'Slovenia', 'Slovakia', 'Czech Rep.']"
2004-05-01,"Revelers across ex-communist eastern Europe celebrated their historic entry to the European Union. 10 new members (Cyprus, the Czech Republic, Estonia, Hungary, Latvia, Lithuania, Malta, Poland, Slovakia, and Slovenia) joined. Malta joined with 70 exemptions to EU rules. Poland had 43 exemptions. Latvia had 32. The Turkish occupied area of Cyprus was suspended from entry.","['Hungary', 'EU', 'Poland', 'Cyprus', 'Estonia', 'Latvia', 'Lithuania', 'Malta', 'Slovenia', 'Slovakia', 'Czech Rep.']"
2004-11-26,"A Cyprus-registered tanker spilled 30,000 gallons of crude oil into the Delaware River between Philadelphia and southern New Jersey, creating a 20-mile-long slick that killed dozens of birds and threatened other wildlife.","['Cyprus', 'Environment', 'Pennsylvania', 'New Jersey']"
2004-12-17,European Union leaders and Turkey agreed on a compromise formula to overcome differences over Turkish recognition of Cyprus' government as a condition for opening EU membership talks.,"['Turkey', 'EU', 'Cyprus']"
2005-02-20,"Nearly 150,000 Turkish Cypriots and illegal mainland settlers voted in a parliamentary election for a government only recognized by Turkey but which is seen as a barometer of prospects for reunification of the war-divided island. The pro-reunification governing party of Mehmet Ali Talat won.","['Turkey', 'Cyprus']"
2005-04-17,"Mehmet Ali Talat (53) captured 56% of the vote for the presidency of the breakaway Turkish Cypriot state, replacing its 81-year-old founder, Rauf Denktash. Talat pledged to work to reunite this divided Mediterranean island and restart peace talks with Greek Cypriots following a resounding win he labeled ""a silent revolution.""","['Turkey', 'Cyprus', 'Greece']"
2005-04-23,"The government of the Turkish Cypriot state in northern Cyprus resigned, making way for PM Mehmet Ali Talat to take over as president following his election win.",['Cyprus']
2005-05-08,The new Turkish Cypriot government of Premier Ferdi Sabit Soyer won a vote of confidence in the breakaway Turkish Cypriot state.,['Cyprus']
2005-07-29,"Turkey signed an accord extending its customs union with the EU to Cyprus and other new EU members, a key step toward opening membership talks with the bloc.","['Turkey', 'EU', 'Cyprus']"
2005-08-14,"A Cypriot airliner, Helios Air 737, crashed into a hill north of Athens, killing all 121 people on board. An inquiry in 2006 ruled pilots erred in setting pressurization controls.","['Cyprus', 'Air Crash', 'Greece']"
2005-09-21,"EU nations agreed that Turkey must recognize EU member Cyprus during its membership talks, warning that non-recognition could lead to paralysis in the negotiations.","['Turkey', 'EU', 'Cyprus']"
2005-12-22,The European Court of Human Rights (ECHR) ordered Turkey to put in place within three months an effective reparations mechanism for Greek Cypriots who were stripped of their possessions in the 1970s.,"['Turkey', 'EU', 'Cyprus']"
2006-05-21,"Greek Cypriots voted to elect a new parliament on this divided island, their first vote since rejecting a UN reunification plan. Voters put their weight behind parties in President Tassos Papadopoulos' governing coalition, a result likely to be seen as an endorsement of his rejection of a UN plan to reunify this war-divided island.",['Cyprus']
2006-06-12,EU foreign ministers reached agreement with Cyprus on a formula to enable Turkey to take its first step in detailed accession talks with the 25-nation bloc.,"['Turkey', 'EU', 'Cyprus']"
2006-07-16,Hundreds of exhausted evacuees flew into Cyprus as Western countries moved their citizens from the Middle East amid continued Israeli bombardment of Lebanon.,"['Cyprus', 'Israel', 'Lebanon']"
2006-09-04,"In Cyprus 3 British holidaymakers were charged with willful manslaughter over the death of a Cypriot teenager in a hit-and-run accident in the coastal resort of Protaras last month. A rented Opel ""repeatedly rammed"" the moped in what police described as a revenge attack following a fight outside a Protaras disco in which a friend of the accused was beaten up.","['Britain', 'Cyprus']"
2006-09-07,Cyprus impounded a Panama-flagged vessel on arms smuggling suspicion. It carried 18 North Korean mobile radar units and 3 command vehicles due for delivery to Syria.,"['North Korea', 'Cyprus', 'Syria']"
2006-10-12,"Scientists said a mouse living in the Troodos Mountains of western Cyprus, that predates the arrival of man, represents a new species, Mus cypriacus.","['Cyprus', 'Animal']"
2006-12-05,The EU presidency backed a proposal to partially suspend EU membership talks with Turkey because of Ankara's refusal to open up to trade with Cyprus.,"['Turkey', 'EU', 'Cyprus']"
2006-12-07,Turkey offered to open a major seaport and an airport to longtime foe Cyprus to try to keep its EU entry talks on track. The EU called the step positive but insufficient.,"['Turkey', 'EU', 'Cyprus']"
2006-12-11,European Union foreign ministers decided to suspend 8 out of 35  parts of entry talks with Turkey over Ankara's refusal to open its ports to trade with EU member Cyprus.,"['Turkey', 'EU', 'Cyprus']"
2007-01-16,"Benon Sevan (69) of Cyprus, former UN oil-for-food chief, was charged with taking a $160,000 bribe to influence who could buy Iraqi oil during the $64 billion program that ran from 1996-2003. This brought to 14 the number of people charged in the case.","['Iraq', 'Oil', 'Cyprus', 'UN', 'Food']"
2007-03-09,"Greek Cypriots demolished a wall along the boundary that for decades has split Europe's last divided capital, a dramatic gesture that officials hope will kick-start reconciliation on the Mediterranean island. Plastic and metal screens replaced the wall.",['Cyprus']
2007-07-02,"Thomas Mooney (45), a senior American diplomat who disappeared four days ago with his car, was found dead on Cyprus in a rural area outside the capital.","['USA', 'Cyprus']"
2007-07-10,Cyprus and Malta received approval from EU finance ministers to join the euro.,"['EU', 'Cyprus', 'Malta']"
2007-08-18,"Two men hijacked a Turkish passenger plane from Cyprus bound for Istanbul, holding several people hostage for more than four hours before surrendering.","['Turkey', 'Cyprus', 'Hijacking']"
2007-08-30,"A cargo ship, anchored about 2 miles from Israel's coast near the port city of Haifa, when it was hit by the Salamis Glory, a Cypriot passenger ship. 11 crew escaped from the sinking cargo ship. The first mate and engineer, both residents of Slovakia, were missing.","['Cyprus', 'Israel', 'Ship']"
2007-12-20,Conservationists said illegal trappers on Cyprus killed more than half a million protected birds this fall for sale at local restaurants.,"['Cyprus', 'Food', 'Animal', 'Birds']"
2008-01-01,"EU newcomers Cyprus and Malta adopted the euro, bringing to fifteen the number of countries using the currency with increasing clout over the slumping US dollar.","['EU', 'Cyprus', 'Malta']"
2008-02-17,Communist party leader Demetris Christofias (61) led in exit polls in Cyprus elections. Pres. Tassos Papadopoulos was eliminated in the first round and Christofias will face former Foreign Minister Ioannis Kasoulides (59) in a run-off on Feb 24.,['Cyprus']
2008-02-24,"Greek Cypriots elected Dimitris Christofias, leader of the Communist Akel Party, as its new president with just over 53 percent of the vote, ahead of conservative former Foreign Minister Ioannis Kasoulides with 46.6 percent. Christofias had campaigned on a pledge to act quickly to restart long-stalled talks to reunify the island.",['Cyprus']
2008-03-21,"The Greek and Turkish Cypriot leaders agreed to restart peace talks on reunifying their ethnically split island, and to open a crossing in the heart of the divided capital.",['Cyprus']
2008-04-03,"Ledra Street, a main shopping street in Cyprus' divided capital that had come to symbolize the island's ethnic partition, reopened for the first time in 44 years, boosting hopes for a renewed drive to reunify Cyprus. Authorities were forced to close it for nearly two hours following a dispute over how to police the street.",['Cyprus']
2008-04-11,"In Cyprus Turkish Cypriot leader Mehmet Ali Talat crossed over to the Greek Cypriot part of the island's ethnically divided capital, the first head of the Turkish Cypriot north to do so in more than three decades.",['Cyprus']
2008-06-13,An int&rsquo;l. bird conservation group reported that over 1 million birds had been illegally trapped and killed in Cyprus over the past year to be served as local delicacies.,"['Cyprus', 'Birds']"
2008-07-03,"The Cypriot parliament approved the European Union treaty, making Cyprus the 20th EU member to ratify the document aimed at streamlining decision-making in the bloc.","['EU', 'Cyprus']"
2008-09-03,"Cyprus' rival Greek and Turkish leaders, Demetris Christofias and Mehmet Ali Talat, started new peace talks and said they hoped for a deal soon aimed at reuniting an island divided by war 34 years ago.",['Cyprus']
2008-09-10,Turkish Cypriot leader Mehmet Ali Talat said he accepts a reduction of Turkey's military contingent but that his side will still need security guarantees from Ankara as part of a deal to unite the divided island.,"['Turkey', 'Cyprus']"
2008-10-30,"Scientists reported that 1 in 17 men living on the coasts of North Africa and southern Europe may have a Phoenician direct male line ancestor. Evidence was based on Y-chromosomes collected in Cyprus, Malta, Morocco, the West Bank, Syria and Tunisia.","['Cyprus', 'Malta', 'Palestine', 'Syria', 'Morocco', 'DNA', 'Tunisia']"
2008-11-08,"A group of European lawmakers sailed from Cyprus into Gaza, defying an internationally backed blockade of the Hamas-run territory with activists promising to send more visitors and goods to end the coastal strip's isolation.","['EU', 'Cyprus', 'Israel', 'Palestine']"
2008-12-12,"Tassos Papadopoulos (b.1934), Cyprus' hardline former president (2003-2008), died of lung cancer in Nicosia. He had ushered the divided island into the European Union (2004) after rallying Greek Cypriots to reject a UN peace deal.",['Cyprus']
2009-01-29,"The ship Monchegorsk arrived in Cyprus. It was examined twice after it arrived under suspicion of ferrying weapons from Iran to Hamas fighters in Gaza, and detained. The US military had stopped the ship last month in the Red Sea, and said it found artillery shells and other arms on board. But it could not legally detain the ship, which continued to Port Said, Egypt, and then to Cyprus.","['USA', 'Cyprus', 'Palestine', 'Ship']"
2009-04-19,"Turkish Cypriot nationalists won a parliamentary election that could stifle a promising effort to reunite Cyprus, an ethnically divided island. The right-wing National Unity Party (UBP), led by Dervish Eroglu, garnered 44% of the vote. The ruling leftist Republican Turkish Party (CTP), of Turkish Cypriot leader Mehmet Ali Talat, won 29%.",['Cyprus']
2009-04-28,An EU court ruled that judges in Cyprus can compel the return of land seized after the 1974 Turkish invasion.,"['EU', 'Cyprus', 'Real Estate']"
2009-09-09,"The US, Britain, Cyprus, Japan and Singapore signed on to an international plan, the &ldquo;New York Declaration,&rdquo; to fight piracy off the coast of Somalia. The New York Declaration is an agreement between the signatory flag states which condemns acts of piracy and armed robbery against vessels and seafarers and recognizes that self protection measures taken by vessels can be highly effective in avoiding, delaying and deterring acts of piracy. The nonbinding political document was originally tabled on May 29, 2009.","['Britain', 'USA', 'Japan', 'Cyprus', 'Singapore', 'Somalia', 'Ship', 'Pirates']"
2009-09-22,"A sharply divided EU failed to protect the threatened bluefin tuna, as the bloc's Mediterranean nations refused to back even a temporary a ban on catching the fish prized by sushi aficionados. Greece, Cyprus, Malta, Spain, France and Italy, with strong fishermen's lobbies at home, insisted on continuing the hunt despite the precarious state of the species. Conservation groups had earlier criticized the EU for not pushing to list the bluefin tuna under the Convention on International Trade in Endangered Species.","['Italy', 'Spain', 'France', 'EU', 'Cyprus', 'Malta', 'Greece', 'Fish']"
2009-12-11,Cyprus police said grave robbers over night had stolen the corpse of former Cyprus President Tassos Papadopoulos after digging up his coffin on the eve of the first anniversary of the statesmen's death. Police discovered the missing body of former President Papadopoulos in another grave on March 8.,"['Cyprus', 'Robbery']"
2010-01-11,"In Cyprus Andy Hadjicostis (41), the director of the Dias publishing group, was fatally shot outside his home in central Nicosia, in an attack that bore the hallmarks of a contract killing. The gunman fled on a motorcycle driven by an accomplice. 3 men were soon arrested and held pending formal charges. On Feb 5 Cyprus police formally pressed murder charges against TV host Elena Skordelli, her brother Anastasios Krasopoullis and Andreas Grigoriou in the suspected Jan 11 contract killing of Andy Hadjicostis (41), the island's most powerful publisher.","['Cyprus', 'Murder']"
2010-01-25,"Cyprus police said they have busted a smuggling ring in Cyprus and recovered dozens of ancient artifacts it planned to sell for euro11 million (15.5 million), including a miniature gold coffin, silver coins and terra-cotta urns. Ten Cypriots were arrested during the raids over the weekend, and authorities were searching for another five suspects, including a Syrian man.",['Cyprus']
2010-03-21,Cyprus police said grave robbers stole the remains of 3 Cyprus Archbishops who led the island's Greek Orthodox church in the late 19th and early 20th centuries. Sofronios III and Kyrillos II led the Cypriot church between 1865 and 1916 during Ottoman and British colonial rule. Police arrested a Romanian man suspected of vandalizing the tombs.,"['Cyprus', 'Robbery']"
2010-04-18,"Turkish Cypriots voted for a new leader, aware that their choice could lead to a deadlock in peace talks and possibly jeopardize Turkey's bid for EU membership. Nationalist Dervis Eroglu narrowly defeated leftist incumbent Mehmet Ali Talat in the election with 50.38 percent of the vote, promising to continue reunification talks with rival Greek Cypriots. Talat drew 42.85 percent. With a clear mandate, there is little incentive for Eroglu to abandon his support for two separate states on the island.",['Cyprus']
2010-06-04,Pope Benedict XVI began a pilgrimage to Cyprus bringing a message of peace to the region as Greek Cypriot leaders made a blistering attack on Turkey for its occupation of northern Cyprus.,"['Cyprus', 'Vatican']"
2010-06-28,The FBI announced the arrests of 10 alleged deep cover Russian agents after tracking the suspects for years. They were accused of attempting to infiltrate US policymaking circles while posing as ordinary citizens. All 10 were charged with conspiracy to act as an agent of a foreign government without notifying the US attorney general. The offense carries a maximum penalty of five years in prison. An 11th person allegedly involved in the Russian spy ring  was arrested the next day in Cyprus.,"['Russia', 'USA', 'Cyprus', 'FBI', 'Espionage']"
2010-06-29,"In Cyprus the alleged paymaster of a Russian spy ring was arrested on an Interpol warrant while trying to board a flight to Budapest, Hungary, two days after his 10 alleged co-conspirators were arrested in the United States. His companion, a beautiful younger woman, was allowed to fly out. The suspect, who called himself Christopher Metsos, vanished after handing over a Canadian passport that claimed he was 54 and got released on bail.","['Russia', 'Canada', 'USA', 'Cyprus', 'Espionage']"
2010-08-26,"Asil Nadir (69), a Turkish Cypriot businessman, returned to London to face charges of fraud. He had fled Britain almost two decades ago following the spectacular collapse of his business empire. Nadir fled the country in May of 1993, four months before he was scheduled to face trial.","['Britain', 'Cyprus']"
2010-09-26,"A boat carrying Jewish activists from Israel, Europe and the US set sail from Cyprus bound for Gaza, in a bid to run Israel's blockade of the Palestinian territory.","['Cyprus', 'Israel', 'Palestine']"
2010-10-11,Two Americans and a British-Cypriot economist won the 2010 Nobel economics prize for developing a theory that helps explain why many people can remain unemployed despite a large number of job vacancies. Federal Reserve board nominee Peter Diamond was honored along with Dale Mortensen and Christopher Pissarides for their analysis of the obstacles that prevent buyers and sellers from efficiently pairing up in markets.,"['Britain', 'USA', 'Cyprus', 'Nobel Prize']"
2010-10-14,"Rival Cypriot leaders opened a new crossing point linking the ethnically split island's Greek and Turkish Cypriot communities, offering a boost to plodding reunification talks.",['Cyprus']
2011-03-06,"Scientists from Cyprus, England and Greece reported their ability to diagnose Down Syndrome using a simple blood test on pregnant women.","['Britain', 'Cyprus', 'Greece', 'Medical']"
2011-04-04,"A Cyprus court found a jailed murderer, his brother and another man guilty of unlawfully exhuming the body of Tassos Papadopoulos, the island's former president (2003-2008). Papadopoulos&rsquo;s body was snatched from a Nicosia cemetery in 2009 and was reburied three months later after police arrested the suspects and found the body.",['Cyprus']
2011-07-11,"In Cyprus a massive explosion ripped through a naval base after a brush fire detonated gunpowder stored in containers, killing 13 people, wounding 62. The Vasilikos power station was destroyed taking out half the country&rsquo;s electricity supply. Defense Minister Costas Papacostas and the country's top military official, National Guard chief Brig. Gen. Petros Tsalikides, resigned over the incident.","['Cyprus', 'Tragedy']"
2011-07-28,Cyprus Pres. Demetris Christofias dismissed his cabinet.,['Cyprus']
2011-08-03,In Cyprus the junior party in the ruling coalition left the government.,['Cyprus']
2011-09-19,"Turkey escalated a dispute with Cyprus over oil and gas drilling in the eastern Mediterranean, saying that it would send warships to protect its claims to resources off the coast of the divided island. US energy firm, Nobel Energy, had just exploratory drilling for oil and gas off the coast of Cyprus despite strong warnings from Turkey not to do so.","['Turkey', 'Oil', 'Cyprus', 'Gas']"
2011-09-21,Turkey&rsquo;s Pres. Erdogan signed a deal with Turkish-controlled north Cyprus to begin drilling for oil and gas.,"['Turkey', 'Oil', 'Cyprus', 'Gas']"
