1014-05-07,"Bagrat III (b~960) of the Georgian Bagrationi dynasty, died. He was King of the Abkhazians from 978 on (as Bagrat II) and King of Kings of the Georgians from 1008 on. He is known to have constructed a magnificent cathedral, the Bagrati Cathedral, at Kutaisi, western Georgia. Its ruins named a UNESCO World Heritage Site in 1994.","['Georgia', 'Abkhazia']"
1178-07-15,"The wise King Giorgi III of Georgia had his daughter, Tamara (19), crowned as his co-ruler to provide an orderly succession.",['Georgia']
1212-01-18,"Queen Tamara of Georgia in Transcaucasia died after a 24-year reign during which her soldiers proclaim her ""our King.""",['Georgia']
1236-07-15,"Queen Rusudani (41), the daughter of Queen Tamara, fled Georgia as the unstoppable Mongol hordes ravished the area. She had been proclaimed ""King"" at the death of her brother.","['Georgia', 'Mongolia']"
1258-02-10,"Huegu (Hulega Khan), a Mongol leader and grandson of Genghis Khan, seized Baghdad following a 4-day assault. Mongol invaders from Central Asia took over Baghdad and ended the Abbasid-Seljuk Empire. They included Uzbeks, Kazaks, Georgians and other groups. Some 200 to 800 thousand people were killed and looting lasted 17 days.","['Kazakhstan', 'Uzbekistan', 'Iraq', 'Georgia', 'Mongolia', 'Iran', 'Persia']"
1265-07-15,Mongols sacked the monastic complex of David Gareja in Georgia.,"['Georgia', 'Mongolia']"
1395-07-15,"Tamerlane, a Turkic conqueror, swept into Southern Russia and Georgia driving locals into the hills.","['Georgia', 'Russia', 'South Ossetia']"
1615-07-15,The Persians sacked the monastic complex of David Gareja in Georgia.,"['Georgia', 'Persia']"
1801-07-15,South Ossetia was absorbed into the Russian Empire along with Georgia.,"['Georgia', 'Russia', 'South Ossetia']"
1890-07-15,"The Marxist Armenian Revolutionary Federation, called the Dashnaks, was founded in the Russian Empire, in Tiflis (Georgia).","['Armenia', 'Georgia']"
1907-07-15,"Stalin (1879-1953) organized an armed robbery on 2 coaches carrying treasure to the state bank in central Tbilisi, Georgia. He delivered his gains to Lenin. In 2007 Simon Sebag Montefiore authored &ldquo;Young Stalin.&rdquo;","['Georgia', 'Russia', 'USSR']"
1918-07-15,South Ossetians made a bid to break away from Georgia and thousands fled in the ensuing violence. Menshevik Georgia waged a brutal war to absorb Abkhazia and South Ossetia. In 1921 the Red Army regained control and absorbed all three into the Soviet Union.,"['Georgia', 'Russia', 'USSR', 'Abkhazia', 'South Ossetia']"
1922-07-15,South Ossetia became an autonomous region within the Soviet Republic of Georgia.,"['Georgia', 'Russia', 'USSR', 'South Ossetia']"
1925-03-25,"Flannery O'Connor (d.1964), novelist and short story writer, was born in Savannah, Georgia.","['Georgia', 'USA', 'Writer']"
1931-07-15,"USSR leader Joseph Stalin turned Abkhazia into an autonomous region of Georgia. Beria, his secret police chief, later resettled Georgians from the western part of the country in Abkhazia.","['Georgia', 'Russia', 'USSR', 'Abkhazia']"
1964-08-03,"Flannery O'Connor (b.1925), novelist and short story writer, died in Georgia of lupus, an incurable, autoimmune disease. In 2009 Brad Gooch authored &ldquo;Flannery: A Life of Flannery O&rsquo;Connor.&rdquo;","['Georgia', 'USA', 'Writer', 'Biography']"
1970-05-12,"In Augusta, Georgia, an overnight riot left 6 black men dead. Autopsies confirmed that the six men killed were all shot in the back with police-issued shotguns.","['Georgia', 'USA', 'Black History']"
1974-01-27,"Pavel Rafalovich Bermon(d)t-Avalov, (b.1877 in Tbilisi), died in New York. He was an Ussuri Cossack and warlord. He adopted his second surname Avalov after his adoptive father, Georgian prince Mikhail Avalishvili. At the end of WWI he was appointed to lead the German-established Russian army (subsequently frequently known after his name as ""the Bermontians"") which was meant to go to fight the Bolsheviks in the Russian Civil War, but, believing that communists would be defeated without his help, he decided to strike against the newly independent nations of Lithuania and Latvia instead. The Bermontians managed to capture a large part of Samogitia and western Latvia and entered Riga, but later were defeated by the Lithuanian and Latvian armies, with the help of the Estonian forces.","['Georgia', 'USA', 'Estonia', 'Latvia', 'Lithuania']"
1974-04-03,"A series of 148 deadly tornadoes struck wide parts of the South and Midwest before jumping across the border into Canada; some 330 people were killed in 13 states: Alabama, Georgia, Illinois, Indiana, Kentucky, Michigan, Mississippi, North Carolina, Ohio, South Carolina, Tennessee, Virginia, and West Virginia. Total property damage was estimated at $600 million. In 2007 Mark Levine authored &ldquo;F5: Devastation, Survival, and the Most Violent Tornado Outbreak of the 20th Century.&rdquo;","['Georgia', 'Canada', 'Ohio', 'Virginia', 'Tennessee', 'Illinois', 'North Carolina', 'South Carolina', 'Michigan', 'Kentucky', 'Alabama', 'Mississippi', 'West Virginia', 'Indiana', 'Tornado']"
1989-04-09,"Troops under Gen&rsquo;l Lebed killed 18 protestors, including 16 women and children, in Tbilisi, Georgia. Colonel Gen&rsquo;l. Igor Rodionov ordered troops to break up anti-Kremlin protests in Tbilisi.","['Georgia', 'Russia', 'USSR']"
1990-07-15,"Georgian leader Zviad Gamsakhurdia declared South Ossetia part of Georgia and marched on Tskhinvali, the declared capital.","['Georgia', 'Ossetia']"
1991-03-31,Voters in the Soviet republic of Georgia overwhelmingly endorsed independence.,['Georgia']
1991-04-09,Georgia SSR declared independence from the USSR.,"['Georgia', 'Russia', 'USSR']"
1991-04-29,"More than 100 people were killed and some 100,000 were left homeless when a strong earthquake struck Soviet Georgia.","['Georgia', 'Earthquake']"
1992-01-06,"After two weeks of fighting, ousted Georgian President Zviad Gamsakhurdia fled the capital, Tbilisi.",['Georgia']
1992-07-15,"In Georgia Eduard Shevardnadze, former Soviet foreign minister, was elected speaker of Parliament and the became the country's leader.",['Georgia']
1992-07-15,"In Tbilisi, Georgia, the central-heating system went out of service. Carbon-monoxide poisonings began as residents turned to wood and gas stoves.",['Georgia']
1993-03-19,"Georgia shot down a Russian warplane over the separatist Abkhazia region, killing its pilot and heightening tensions.","['GeorgiaUS', 'Georgia', 'Russia', 'Abkhazia']"
1993-08-08,"Freddie Woodruff (b.1947), CIA agent chief in Tbilisi, Georgia, was shot and killed during an outing with friends. Georgian authorities charged Anzor Sharmaidze (20), a volunteer soldier, with the murder. Sharmaidze confessed under torture and later said he was framed for the murder. In 2008 Sharmaidze was granted parole from prison.","['Georgia', 'USA', 'CIA']"
1993-12-31,"Former Georgian President Zviad Gamsakhurdia (b.1939) died on New Year&rsquo;s Eve. He had returned to lead an uprising in western Georgia, but the fighting was quickly put down and Gamsakhurdia was surrounded. His body was then taken to Chechnya. In 2007 His body was returned for burial in Georgia.",['Georgia']
1994-07-15,Georgia reached a cease-fire with Abkhazia.,"['Georgia', 'Abkhazia']"
1995-08-29,"In Tbilisi, Georgia, the motorcade of Eduard Shevardnadze was attacked as he left for the ceremonial signing of the new constitution.",['Georgia']
1996-07-15,"A Black Sea Action Plan was signed by all six coastal nations: Turkey, Georgia, Russia, Ukraine, Romania and Bulgaria. It was to improve sewage control, develop conservation strate-gies and study a possible special environmental fund.","['Black Sea', 'Turkey', 'Georgia', 'Russia', 'Ukraine', 'Romania', 'Bulgaria', 'Environment']"
1997-01-03,"In Washington a diplomat from Georgia, Gueorgui Makharadze, was in a car crash that killed a 16-year-old girl. Police said he was drinking, but he refused a breath test.","['Georgia', 'DC', 'Drunk']"
1997-01-09,The government of the Republic of Georgia informed the US that diplomat Gueorgui Makharadze would be recalled following his Jan 3 involvement in a car crash that left a 16-year-old Washington girl dead. Police evidence strongly suggested that he had been drinking. He was later sentenced to 7-21 years in US prison.,"['Georgia', 'DC', 'Drunk']"
1997-10-08,"Gueorgui Makharadze, a diplomat from the Republic of Georgia, pleaded guilty in Washington to charges stemming from a car crash that killed Maryland teen-ager Jovianne Waltrick.","['Georgia', 'USA', 'Maryland', 'DC']"
1997-07-15,"Former Soviet republics (Georgia, Ukraine, Uzbekistan, Azerbaijan and Moldova) formed Guuam to seek cooperation outside Russian influence.","['Azerbaijan', 'Uzbekistan', 'Georgia', 'Russia', 'Ukraine', 'Moldova']"
1997-07-15,In Georgia rocket-propelled grenades slammed the armor-plated Mercedes of Pres. Shevardnadze and 2 bodyguards were killed.,['Georgia']
1998-02-09,"In Tbilisi, Georgia, armed attackers ambushed Pres. Shevardnadze (70). One attacker and one bodyguard were killed.",['Georgia']
1998-02-19,In Georgia gunmen kidnapped 4 UN observers and 6 civilians and demanded the release of 7 suspects held for last week&rsquo;s assassination attempt on Pres. Shevardnadze.,"['Georgia', 'UN']"
1998-02-25,In Georgia the UN prisoners were freed and the leader of the kidnapping group escaped.,"['Georgia', 'UN']"
1998-04-21,It was reported that the US and Britain had begun a secretive removal of nuclear materials near Tbilisi. Britain volunteered to accept the material and had already taken 270 pounds. The unused highly enriched uranium was to be processed by a Scottish plant.,"['Georgia', 'Britain', 'USA', 'Scotland', 'Nuclear']"
1998-05-25,"Fighting between Abkhaz forces and Georgian irregulars raged inside a Russian patrolled buffer zone despite an agreed 1993 cease-fire. Georgia later claimed that 100 people died and that 38,000 Georgians were driven from their homes.","['Georgia', 'Russia', 'Abkhazia']"
1998-05-25,"Leaders in the former Soviet republic of Georgia and its breakaway province of Abkhazia agreed to a cease-fire after a week of fighting. Fighting between Abkhaz forces and Georgian irregulars raged inside a Russian patrolled buffer zone despite an agreed 1993 cease-fire. Georgia later claimed that 100 people died and that 38,000 Georgians were driven from their homes.","['Georgia', 'Russia', 'Abkhazia']"
1998-10-19,In Georgia an army mutiny failed after 200 troops opposed to Pres. Shevardnadze surrendered. 4 rebels and one government soldier were killed.,['Georgia']
1998-10-29,"Five nations endorsed the oil pipeline from the Caspian to the Mediterranean Sea. Turkey, Azerbaijan, Georgia, Kazakhstan and Uzbekistan committed to the 1,080 mile conduit with a push from the US.","['Azerbaijan', 'Kazakhstan', 'Uzbekistan', 'Turkey', 'Georgia', 'Oil']"
1998-12-24,"In Tbilisi, Georgia, gunmen killed Greek diplomat Anastasius Mizitrasos.","['Georgia', 'Greece']"
1999-10-13,"In Georgia gunmen seized 6 UN observers and a translator as they delivered aid to Abkhazia. 4 of the observers were released the next day and the ransom was raised to $350,000. The last of the hostages were released 2 days later.","['Georgia', 'Abkhazia']"
1999-11-08,"In Georgia Pope John Paul II stopped to ""build new bridges"" with the Orthodox Church and Patriarch Ilia II.","['Georgia', 'Vatican']"
1999-11-17,"Azerbaijan, Georgia, Turkey agreed to a US-backed plan for a Caspian oil pipeline from Baku to Ceyhan to be completed in 2004. The 1st shipment was made in 2006.","['Azerbaijan', 'Turkey', 'Georgia', 'USA', 'Oil']"
1999-11-23,An agreement between Georgia and Russia was announced to cut the number of Russian forces over the next few years.,"['Georgia', 'Russia']"
2000-03-28,"In Tennga, Georgia, a freight train collided with a school bus and 2 children were killed with 5 critically injured.","['Georgia', 'Train Crash']"
2000-04-09,"In Georgia Pres. Eduard Shevardnadze won re-election with some 82% of the vote. Dzhumber Patiashvili, ex-Communist leader, trailed with 17% and charged that there was widespread vote rigging.",['Georgia']
2000-08-04,In Georgia three Red Cross workers were believed to have been kidnapped. Their car was found the next day near the border with Chechnya.,"['Georgia', 'Chechnya']"
2000-10-25,A Russian plane with at least 75 passengers and crew crashed while trying to land in Georgia. All were feared dead.,"['Georgia', 'Russia', 'Air Crash']"
2001-05-25,In Georgia some 400 National Guard mutinied over improved living conditions at a base 25 miles northeast of Tbilisi.,['Georgia']
2001-10-08,In the Abkhazia region of Georgia a UN helicopter was shot down and 9 people were killed.,"['Georgia', 'UN']"
2001-10-09,Abkhazia accused Chechen and Georgian fighters of killing 14 villagers and mounting a helicopter raid.,"['Georgia', 'Chechnya', 'Abkhazia']"
2001-10-30,"In Tbilisi, Georgia, the state security ministry sent 30 agents to the independent Rustavi 2 TV station, ostensibly for a tax investigation. The director refused the examination of financial files and put the standoff on the air which prompted 5-10 thousand people to gather in protest. Security Minister Vakhtang Kutateladze was later fired by Pres. Shevardnadze.",['Georgia']
2001-11-01,In Georgia Pres. Shevardnadze fired his government as demonstrators took to the streets and demanded changes.,['Georgia']
2002-02-26,It was reported that the US has begun providing the former Soviet Republic of Georgia with military aid to counter terrorist threats in the Pankisi Gorge region. Some 100-200 US soldiers were included in the $64 million program to begin in mid-March.,"['Georgia', 'USA']"
2002-03-21,"It was reported that Georgian fighters expected to use their US training against secessionists in Abkhazia, which was unofficially protected by Russia.","['Georgia', 'Russia', 'USA', 'Abkhazia']"
2002-04-12,Russia sent troops into the Kodori gorge of Georgia to watch the Abkhazia border. The move was condemned by Georgian officials and troops were soon withdrawn.,"['Georgia', 'Russia', 'Abkhazia']"
2002-04-25,"An earthquake in Tbilisi, Georgia, killed at least 3 people.",['Georgia']
2002-04-29,The 1st 20 of some 2000 US soldiers landed in the former Soviet republic of Georgia.,"['Georgia', 'USA']"
2002-05-19,A team of 50 US Green Berets landed in Tbilisi for a 2-year training program for Georgia's army.,"['Georgia', 'USA']"
2002-08-23,Pres. Shevardnadze accused Russia of bombing inside Georgia's border. One person was reported killed.,"['Georgia', 'Russia']"
2002-09-11,In Russia Pres. Putin threatened military strikes on Georgia to defend itself from terrorist attacks.,"['Georgia', 'Russia']"
2002-09-23,"Georgia's president sought to defuse an explosive war of words with Russia, offering to let Moscow send unarmed military observers to the mountain valley where Russia says terrorists are operating.","['Georgia', 'Russia']"
2002-10-22,It was reported that special forces in the Pankisi Gorge of Georgia had captured 15 Arab militants linked to al Qaeda.,"['Georgia', 'al-Qaida']"
2002-11-03,"Dzhumber Lezhava returned to Tbilisi, Georgia, ending a nine-year trip around the world by bicycle.","['Georgia', 'Bicycle']"
2002-07-15,Russia changed its citizenship law to allow massive distribution of passports to people in the Abkhazia and South Ossetia regions of Georgia.,"['Georgia', 'Russia', 'Abkhazia', 'South Ossetia']"
2003-01-01,"Oklahoma romped past Washington State 34-14 in the Rose Bowl; Georgia defeated Florida State 26-13 in the Sugar Bowl; Notre Dame saw its sixth straight bowl loss, losing to North Carolina State 28-6 in the Gator Bowl.","['Georgia', 'North Carolina', 'Washington', 'Football', 'Indiana', 'Oklahoma']"
2003-03-24,In Georgia Pres. Shevardnadze confirmed that the US was flying U-2 spy planes over the Pankisi Gorge area to help fight Chechen rebel infiltration.,"['Georgia', 'USA', 'Chechnya']"
2003-08-18,"All of Georgia was without power for the entire day, and officials in the impoverished former Soviet republic were struggling to determine the cause of the blackout.",['Georgia']
2003-09-19,The government of Georgia scrapped an accord guaranteeing religious freedom for Catholics. The next day the Vatican issued an unusually strong rebuke to the former Soviet republic and its dominant Orthodox Church.,"['Georgia', 'Vatican']"
2003-11-02,Georgia held parliamentary elections and opinion polls said the opposition would take control unless there was massive fraud. Parliamentary candidates allied with Georgian President Eduard Shevardnadze held a slim lead in elections that European monitors said were marred by irregularities.,"['Georgia', 'Fraud']"
2003-11-05,"In Georgia opposition parties protested for a 2nd day, accusing President Eduard Shevardnadze's government of rigging the results of parliamentary elections.",['Georgia']
2003-11-22,"Opposition supporters broke into Georgia's Parliament and took it over, scuffling with lawmakers and forcing President Eduard Shevardnadze to flee as thousands of protesters outside demanded his resignation.",['Georgia']
2003-11-23,"Georgian President Eduard Shevardnadze signed his resignation papers as leaders of protesters already occupying parliament urged tens of thousands of supporters to seize more organs of state power and some military units defected to the jubilant protesters thronging the capital's streets. Nino Burdzhanadze, leader of the United Democrats opposition, declared herself acting president and announced a new election within 45 days.",['Georgia']
2003-11-25,"Georgian lawmakers set a new presidential election for Jan 4. The foreign debt stood at $1.8 billion, the unemployment rate was 30% and the average monthly salary was $20.",['Georgia']
2003-11-26,"In Georgia Mikhail Saakashvili (35), a US educated lawyer, said he would run for president as the sole candidate of the opposition National Movement party. His campaign later became known as the &ldquo;rose revolution.&rdquo;",['Georgia']
2003-12-10,"Aslan Abashidze (65), a former Soviet bureaucrat who has ruled the region of Adzharia since Georgia's 1991 independence, refused to accept Georgia's interim leadership or parliament.",['Georgia']
2004-01-04,"The former Soviet republic of Georgia voted for a successor to President Eduard Shevardnadze. Mikhail Saakashvili, Georgia's young firebrand opposition leader, declared himself the victor in presidential elections with some 85% of the vote.",['Georgia']
2004-01-08,"Authorities in Georgia's autonomous region of Adzharia imposed a state of emergency, fearing the newly elected Georgian president may try to rein in the province.",['Georgia']
2004-01-18,"In Georgia an explosion at a scientific institute in Tbilisi killed two people and injured two others. It occurred during a transfer of nitrogen, an indication that a canister of the gas could have blown up.",['Georgia']
2004-01-25,Mikhail Saakashvili was inaugurated as Georgia's president.,['Georgia']
2004-02-26,"Mikhail Saakashvili, the new president of Georgia, said he is ready to negotiate full autonomy for the separatist Abkhazia region to end the decade-long conflict.","['Georgia', 'Abkhazia']"
2004-03-14,Georgia's President Mikhail Saakashvili put the country's military on alert after the restive Adzharia region barred him from entering.,['Georgia']
2004-03-15,Georgia's President Mikhail Saakashvili put trade restrictions on Adzharia after Aslan Abashidze ignored a deadline to accept federal authority.,['Georgia']
2004-03-18,"Georgia's President Mikhail Saakashvili met with Aslan Abashidze in Batumi, Ajaria, to settle misunderstandings.",['Georgia']
2004-03-19,"Georgia's authorities lifted sanctions against the defiant Adzharia region, carrying out a new agreement aimed to avert tensions.",['Georgia']
2004-03-28,"Georgians voted in the country's third election in less than six months. Supporters of President Mikhail Saakashvili swept to victory in Georgia's parliamentary election, according to early results.",['Georgia']
2004-04-02,"Georgian authorities reported that they had detained four men on suspicion of plotting to assassinate the president, and officials accused the autonomous province of Adzharia of being behind the alleged plot.",['Georgia']
2004-04-19,The annual environmental Goldman Prizes were awarded in SF. Winners included Libia R. Grueso Castelblanco of Colombia for her work in securing territorial rights for rural communities.,"['Georgia', 'Colombia', 'India', 'Environment', 'Ghana', 'Louisiana', 'Timor-Leste']"
2004-05-02,Adzharian forces blew up the three major bridges connecting their recalcitrant province with the rest of Georgia in what their leader said was a preventive measure against Georgian military action.,['Georgia']
2004-05-05,"Russian foreign minister Igor Ivanov helped ease Aslan Abashidze out of Adzharia, Georgia.","['Georgia', 'Russia']"
2004-05-06,"The leader of the breakaway region of Adzharia fled after street protests, and Georgia's president flew into the restive province, vowing to pursue the integration of two other separatist regions.",['Georgia']
2004-06-10,"A G-8 summit at Sea Island Resort near Savannah, Georgia, ended without an agreement on Iraq. The group agreed to extend through 2006 the Heavily Indebted Poor Countries Initiative.","['Iraq', 'Georgia', 'G8']"
2004-08-15,"Sporadic gunfire and shelling took place overnight in the disputed Georgian region of South Ossetia in violation of a fragile ceasefire, wounding seven Georgian servicemen.","['Georgia', 'Ossetia']"
2004-08-17,"Georgian President Mikhail Saakashvili appealed to world leaders to convene an international conference on the conflict in breakaway South Ossetia, where daily exchanges of gunfire threaten to spark a war. The province operated as a conduit for smuggling between Georgia and Russia.","['Georgia', 'Russia', 'Ossetia']"
2004-08-18,In South Ossetia 3 Georgian peacekeepers were killed in overnight shooting.,"['Georgia', 'Ossetia']"
2004-12-05,In Abkhazia (Georgia) the two candidates vying for the region's presidency agreed to conduct new elections and run on a joint ticket.,"['Georgia', 'Abkhazia']"
2004-07-15,Georgia&rsquo;s Pres. Saakashvili installed Levan Varshalomidze to replace Aslan Abashidze as head of the Ajaria region.,['Georgia']
2005-02-01,"In Gori, Georgia, a car bomb exploded outside a police station, killing three policemen and injuring 13 other people.",['Georgia']
2005-02-03,"PM Zurab Zhvania, who helped lead Georgia's revolution that toppled the corruption-tainted regime of Eduard Shevardnadze, died in a friend's apartment from what officials claimed was an accidental gas leak from a heater.",['Georgia']
2005-02-17,Georgia&rsquo;s parliament approved Zurab Nogaideli as premier.,['Georgia']
2005-03-10,Georgia lawmakers voted unanimously for Russia to withdraw troops from soviet-era bases by Jan 1.,"['Georgia', 'Russia']"
2005-04-15,"It was reported that paleontologists have identified a new dinosaur species, an early relative of Tyrannosaurus rex that probably roamed what is now the Southeastern US about 77 million years ago. The scientists made the identification from hundreds of fossilized fragments collected mostly in Montgomery County, Ala., and southwestern Georgia. They named the new dinosaur Appalachiosaurus montgomeriensis, which means ""the Appalachian lizard from Montgomery County."" The 25-foot-long creature roamed the earth 10 million years before T. rex and was smaller and more primitive, with a narrower snout.","['Georgia', 'Alabama', 'Dinosaur', 'Reptile']"
2005-05-09,"In Tbilisi Pres. Bush, before a cheering crowd of tens of thousands of people, said that the former Soviet republic of Georgia is proving to the world that determined people can rise up and claim their freedom from oppressive rulers.","['Georgia', 'USA', 'BushGW']"
2005-05-25,"In Azerbaijan officials opened the first section of a $3.6 billion, 1,100-mile pipe-line that will carry Caspian Sea oil to Western markets. The presidents of Azerbaijan, Kazakhstan, Georgia and Turkey were on hand for the ceremony at the Sangachal oil terminal.","['Azerbaijan', 'Kazakhstan', 'Turkey', 'Georgia', 'Oil']"
2005-05-30,"Russia agreed to begin withdrawing its troops from two Soviet-era bases in Georgia this year, resolving one of the most serious disputes between Moscow and its pro-Western neighbor.","['Georgia', 'Russia']"
2005-08-02,"Georgia&rsquo;s Pres, Saakashvili said he is counting on US help to facedown Moscow and reassert control over Abkhazia and Southern Ossetia.","['Georgia', 'USA']"
2005-08-12,Leaders of Georgia and Ukraine called for an alliance that would champion democracy in the former Soviet lands.,"['Georgia', 'Ukraine']"
2005-09-10,More than 500 U.S.-trained Georgian soldiers left for Iraq as part of a regular rotation of troops by the former Soviet republic.,"['Iraq', 'Georgia', 'USA']"
2005-11-23,Georgian President Mikhail Saakashvili predicted his country will become a member of the Western military alliance NATO by 2009.,"['Georgia', 'NATO']"
2005-12-02,"In Kiev 9 presidents from Baltic and Black Sea nations pledged to strengthen democracy in a region traditionally considered Russia's neighborhood. They included Estonia, Georgia, Latvia, Lithuania, Macedonia, Moldova, Slovenia, Romania and the Ukraine.","['Georgia', 'Ukraine', 'Romania', 'Estonia', 'Latvia', 'Lithuania', 'Slovenia', 'Macedonia', 'Moldova']"
2006-01-22,"Explosions hit pipelines running through southern Russia, cutting the natural gas supply to Georgia and Armenia during a cold snap.","['Armenia', 'Georgia', 'Russia']"
2006-01-22,Georgia began receiving natural gas late in the day from Azerbaijan following explosions on pipelines in southern Russia that cut off delivery of gas to Georgia and its neighbor Armenia during a cold snap.,"['Azerbaijan', 'Georgia', 'Russia', 'Gas']"
2006-01-24,Georgia&rsquo;s energy minister said Iran has expressed a readiness to export natural gas to Georgia to make up for a sharp drop in Russian deliveries.,"['Georgia', 'Iran', 'Gas']"
2006-01-27,"Georgia's president said that Iran had agreed to start providing emergency gas supplies to the Caucasus mountain nation as early as this weekend, signaling an end to an energy crisis made worse by an extreme cold snap.","['Georgia', 'Iran']"
2006-01-29,Russia resumed sending natural gas to Georgia after finishing repairs to a major pipeline damaged by mysterious blasts a week earlier.,"['Georgia', 'Russia', 'Gas']"
2006-01-30,Georgia closed its airspace to Russian military aircraft.,"['Georgia', 'Russia']"
2006-03-09,"About 8,000 Georgians took to the streets for the capital's biggest anti-government demonstration since President Mikhail Saakashvili was swept to power after leading the Rose Revolution protests more than two years ago.",['Georgia']
2006-03-26,"Georgian police stormed a prison in Tbilisi after inmates rioted in an escape attempt from Ortochala prison, sparking a gun battle that left two guards and an unknown number of inmates dead.",['Georgia']
2006-04-06,It was reported that Russian health and sanitary officials had imposed a ban on Georgian and Moldovan wines effective May 1. Authorities said the wines contained pesticides and heavy metals. The ban was soon extended to brandy and sparkling wines.,"['Georgia', 'Russia', 'Wine', 'Moldova']"
2006-05-28,"A new $4 billion pipeline from Baku, via Georgia to Ceyhan, Turkey, began pumping oil.","['Azerbaijan', 'Turkey', 'Georgia', 'Oil']"
2006-06-03,The long-awaited first shipment of Caspian oil from the new Baku-Tbilisi-Ceyhan (BTC) pipeline got on its way from a Turkish port.,"['Azerbaijan', 'Turkey', 'Georgia', 'Oil']"
2006-07-06,"Four former officers in Georgia's Interior Ministry were convicted of causing bodily harm leading to death in the case of a banker, Sandro Girgvliani (28), whose beating and stabbing death became a political scandal in this former Soviet republic.",['Georgia']
2006-07-13,"The presidents of Turkey, Azerbaijan and Georgia formally opened a pipeline designed to bypass Russia and bring Caspian oil to Europe, a route that President Bush said would bolster global energy security.","['Azerbaijan', 'Turkey', 'Georgia', 'Russia', 'USA', 'Oil', 'BushGW']"
2006-07-26,"Georgian authorities reported sporadic fighting in a mountainous region where police are trying to subdue a defiant militia leader, the latest confrontation in a volatile former Soviet republic plagued by separatist movements.",['Georgia']
2006-08-10,Rights activists said at least nine inmates have died in Georgian prisons in the past 10 days as the Caucasus Mountains nation suffers through high temperatures not seen in two decades.,['Georgia']
2006-09-11,"Leaders of the breakaway Georgian region of South Ossetia said they would hold a referendum on independence in November, a move likely to infuriate the government in Tbilisi and stoke already spiraling tensions.","['Georgia', 'Ossetia']"
2006-09-30,Russia said that it has suspended plans for further withdrawal of its troops from Georgia amid worsening relations between the two neighbors.,"['Georgia', 'Russia']"
2006-10-02,Georgia released four Russian officers whose arrest on spying charges prompted Moscow to announce sweeping travel and communications sanctions in the worst bilateral crisis in years.,"['Georgia', 'Russia']"
2006-10-03,"Russia suspended all transport and postal links with Georgia until further notice, sharply escalating their dispute. The blockade caused economic problems for Armenia, Georgia's landlocked southern neighbor, since Russia is its main trading partner.","['Armenia', 'Georgia', 'Russia']"
2006-10-05,Georgians voted in municipal elections seen as a crucial test for President Mikhail Saakashvili during a diplomatic crisis with Russia.,['Georgia']
2006-10-05,Russia froze Georgians&rsquo; work permits and nearly doubled its gas bill.,"['Georgia', 'Russia', 'Gas']"
2006-10-06,"Opposition leaders alleged that Georgia's local and regional elections were riddled with fraud, but international monitors said the balloting was conducted ""with general respect for fundamental freedoms.""","['Georgia', 'Fraud']"
2006-10-12,Georgia blocked the next round of talks on Russia's bid to join the World Trade Organization in retaliation for Moscow's blockade of its small southern neighbor.,"['Georgia', 'Russia', 'WTO']"
2006-10-24,"Georgia's Foreign Ministry said it had protested to the UN about Russia's crackdown on illegal Georgian migrants, demanding a stop to what it called ""persecution on ethnic grounds.""","['Georgia', 'Russia', 'UN', 'Migrant']"
2006-10-26,A Georgian man was killed and another was wounded when they stepped on a mine in a volatile area near the breakaway province of South Ossetia.,['Georgia']
2006-11-02,"Russia's state-controlled natural gas monopoly said that it would more than double the price it charges Georgia, further heightening tensions between the ex-Soviet neighbors.","['Georgia', 'Russia', 'Gas']"
2006-11-12,"Voters in the breakaway Georgian province of South Ossetia declared overwhelming backing for its independence drive in a referendum that underlined a sharp split between Russia and the West and is likely to increase tensions in the Caucasus region. A similar 1992 referendum proclaiming the province's independence went unnoticed by the international community, leaving it in limbo.","['Georgia', 'Ossetia']"
2006-12-14,In Georgia the last train carrying military hardware and property owned by units of the Group of Russian Troops left the Tbilisi garrison for Armenia. The last of Russia&rsquo;s servicemen were to leave the next day. This ended a 200-year-old Russian presence in Tbilisi.,"['Georgia', 'Russia']"
2006-12-22,A top executive with Russian gas giant OAO Gazprom said Georgia will pay more than double what it pays now for Russian natural gas under a new agreement.,"['Georgia', 'Russia', 'Gas']"
2006-07-15,Thomas Goltz authored &ldquo;Georgia Diary: A Chronicle of War and Political Chaos in the Post-Soviet Caucasus.&rdquo;,"['Georgia', 'Books']"
2006-07-15,"A Georgian undercover agent made contact with a Russian seller of uranium in North Ossetia. The seller was arrested when they met in Tbilisi with 3.5 ounces of enriched uranium, which made it weapons grade material.","['Georgia', 'Russia', 'Nuclear']"
2007-01-18,"President Vladimir Putin ordered Russia's ambassador to Georgia to return to the Georgian capital after recalling him four months ago, saying that the two countries must ""normalize"" badly strained ties.","['Georgia', 'Russia']"
2007-02-07,Georgia signed a regional cooperation agreement with Azerbaijan and Turkey which included plans for a railway connecting the three countries.,"['Azerbaijan', 'Turkey', 'Georgia']"
2007-03-05,"Badri Patarkatsishvili, one of the most famous Georgian oligarchs, left Georgia. His departure was announced in London as the relocation of his activities of ""Georgia in the West,"" underscoring the desire to leave the country definitively. The millionaire, who holds first-rank influence in both finances and the media, co-holds one of the most important Georgian media concerns, Imedi, which includes a radio station and a television station.",['Georgia']
2007-03-11,In Georgia&rsquo;s Kodori Valley Russian helicopters coordinated a ground and air attack on 3 settlements and fired a guided missile at a Georgian government building.,"['Georgia', 'Russia']"
2007-05-11,Authorities in Georgia's breakaway region of South Ossetia launched a blockade of all ethnic Georgian villages in the province and demanded that the central government withdraw its police troops from the settlements.,"['Georgia', 'Ossetia']"
2007-05-20,"Guram Sharadze (67), the leader of a Georgian opposition movement, was gunned down on a street in a central part of the capital, Tbilisi.","['Georgia', 'Murder']"
2007-06-19,Georgia border agents blocked a car trying to smuggle radioactive plutonium and beryllium from Azerbaijan.,"['Azerbaijan', 'Georgia', 'Nuclear']"
2007-06-28,"Hundreds of ethnic Georgians confronted Russian peacekeeping forces in the breakaway region of South Ossetia, throwing paint and gasoline on the troops and forcing them to stop blocking a road project.","['Georgia', 'Russia', 'Ossetia']"
2007-08-07,"Georgia accused Russia of ""undisguised aggression,"" saying two Russian fighter jets intruded on its airspace and fired a missile that landed near a house. Russia denied the allegation.","['Georgia', 'Russia']"
2007-08-24,"Georgia said it fired on a Russian plane flying over its territory. The Tbilisi City Court, behind closed doors, convicted 13 people from minor opposition parties for plotting a violent overthrow of the government. Maia Topuria, the lead defendant and head of the pro-Moscow Justice party, was sentenced to 8 12 years in prison.","['Georgia', 'Russia']"
2007-08-25,"A senior official of the separatist region said a plane of uncertain origin went down over Abkhazia, a day after Georgia reported that its forces fired on a plane believed to be Russian that had violated the country's airspace.","['Georgia', 'Russia', 'Abkhazia']"
2007-08-29,"Richard Jewell, the former security guard who was wrongly linked to the 1996 Olympic bombing, was found dead in his west Georgia home; he was 44.","['Georgia', 'USA']"
2007-09-14,"Georgia&rsquo;s defense minister said Georgia will cut the size of its military contingent in Iraq from 2,000 soldiers and other personnel to around 300 by next summer.","['Iraq', 'Georgia']"
2007-09-20,A clash between Georgian and separatist Abkhazian forces too place some 330 yards inside Abkhaz-held territory. Several Abkhaz soldiers were wounded and 2 former Russian military officers were killed.,"['Georgia', 'Abkhazia']"
2007-09-27,"Irakli Okruashvili, Georgia's hawkish former defense minister, was detained on corruption charges, days after he alleged that President Mikhail Saakashvili had ordered him to kill a prominent businessman.",['Georgia']
2007-09-28,"Thousands of opposition supporters rallied in Georgia's capital, demanding that the president step down following the arrest of Irakly Okruashvili (33), a former defense minister who accused the leader of involvement in a murder plot.",['Georgia']
2007-10-07,"Irakly Okruashvili, Georgia's former defense minister, retracted allegations that the president of this former Soviet republic was involved in a murder plot and other corruption. Okruashvili's lawyer, Eka Beselia, said the statements ""were made under duress.""","['Georgia', 'Govm&rsquo;t Scandal']"
2007-10-10,"Ministers from Azerbaijan, Georgia, Lithuania, Poland and Ukraine signed a deal to build an oil pipeline linking the Black and Baltic seas.","['Azerbaijan', 'Georgia', 'Ukraine', 'Oil', 'Poland', 'Lithuania']"
2007-10-15,"The Security Council voted unanimously to extend the UN observer mission in Georgia, expressing ""serious concern"" at violence that has escalated tensions between Georgia and the breakaway region of Abkhazia.","['Georgia', 'UN', 'Abkhazia']"
2007-10-20,"With water supplies rapidly shrinking during a drought of historic proportions, Gov. Sonny Perdue declared a state of emergency for the northern third of Georgia and asked President Bush to declare it a major disaster area. The 38,000-acre Lake Lanier reservoir, which supplies more than 3 million residents with water, was down to 3 months from depletion.","['Georgia', 'USA', 'Drought']"
2007-11-07,"In Georgia police forced dozens of opposition supporters from a site in Tbilisi, where five days of protests had drawn thousands, but demonstrators later returned and renewed their calls for the president's resignation. Georgia&rsquo;s Imedi television station, regarded by the government as an opposition mouthpiece, went off the air after riot police entered its headquarters. Imedi was owned by opposition tycoon Badri Patarkatsishvili. The government declared a 15-day state of emergency.","['Georgia', 'TV']"
2007-11-08,Georgia's pro-Western Pres. Mikhail Saakashvili said that the country would hold early presidential elections in January to defuse a crisis fueled by protests against him. Troops armed with hard rubber clubs patrolled the center of Tbilisi to enforce a state of emergency imposed after a violent crackdown on anti-government protesters.,['Georgia']
2007-11-09,Georgian opposition leaders said they would end streets protests against President Mikhail Saakashvili after he called for an early presidential election for January.,['Georgia']
2007-11-15,A top Russian general said that Russia has completed its withdrawal of troops that had been based in Georgia since the Soviet collapse. He said peacekeepers remained in Abkhazia along with forces in South Ossetia with the participation of Georgia.,"['Georgia', 'Russia']"
2007-11-15,Georgia&rsquo;s parliament lifted the country&rsquo;s state of emergency imposed last week by Pres. Saakashvili.,['Georgia']
2007-11-16,Georgia&rsquo;s President Mikhail Saakashvili dismissed the prime minister and nominated an influential banker for the post in an apparent attempt to win votes ahead of a hastily called presidential election.,['Georgia']
2007-11-21,"The presidents of Azerbaijan, Georgia and Turkey launched the construction of a railroad that will link ex-Soviet republics in the Caucasus and Central Asia with Europe, bypassing Russia.","['Azerbaijan', 'Turkey', 'Georgia']"
2007-12-01,"Cheryl Dunlap, a nurse from Crawfordsville, Florida, went missing. On Dec 16 her decapitated body was found in the Apalachicola National Forest. In 2011 a jury recommended the death penalty for Michael Hilton (64), who was already serving life in prison for the 2008 slaying of Meredith Emerson of Athens, Georgia.","['Georgia', 'USA', 'Murder', 'Florida']"
2007-12-26,"Georgia's top television station suspended its broadcasts, saying it was protesting the pressure authorities have exerted because of the station's links to a billionaire presidential contender challenging the government.","['Georgia', 'TV']"
2007-07-15,"Kakha Bendukidze, Georgian industrialist, founded the Free University of Tbilisi to teach law, business and languages. Each graduate was expected to finance a new student.","['Georgia', 'Education']"
2008-01-05,"Georgians voted to determine whether to keep Mikhail Saakashvili as president in the former Soviet republic, where he was once considered a symbol of democratic reform but now faces accusations of authoritarian leanings. Saakashvili's supporters poured onto the streets, tooting car horns and waving white-and-red national flags, celebrating victory based on exit poll results. Saakashvili received 52.8% of the vote according to preliminary results.",['Georgia']
2008-01-06,"In Georgia several thousand people rallied in Tbilisi, claiming early election results that indicated Mikhail Saakashvili would narrowly win a second presidential term were fraudulent.",['Georgia']
2008-01-07,"President Mikhail Saakashvili said his re-election demonstrates that Georgia is on the road to becoming a European democracy, while his opponents denounced the vote as fraudulent and vowed to renew street protests.",['Georgia']
2008-01-10,"In Georgia authorities formally charged Badri Patarkatsishvili, a billionaire businessman, who ran in this month's presidential election with plotting to overthrow the government. Patarkatsishvili left Georgia in November and has spent time in Britain and Israel. He has acknowledged offering large sums of money to police if they side with protesters.",['Georgia']
2008-01-13,In Georgia tens of thousands of opposition supporters rallied in Tbilisi to protest what they denounced as massive vote fraud that helped US-allied Mikhail Saakashvili win a second presidential term.,"['Georgia', 'Fraud']"
2008-01-15,"In Georgia tens of thousands of people demonstrated in Tbilisi, pressing for a presidential runoff but celebrating an agreement giving the opposition more control over the main state-funded television station.",['Georgia']
2008-02-12,"Badri Patarkatsishvili (52), a Georgian tycoon, was found dead in his mansion near London. Police said they were treating the death as suspicious. He had claimed he was the target of assassination plot after helping lead anti-government protests in his homeland. He had built his fortune in Russia, where he became Berezovsky's business partner. However, the two men claimed in British court documents that the Russian government forced them to sell their stakes in oil company Sibneft, Russian Aluminum and television channel ORT for a fraction of their value. Interim tests indicated that Patarkatsishvili died of natural causes.","['Georgia', 'Britain']"
2008-03-05,"South Ossetia appealed for international recognition as an independent nation, further adding to simmering tensions in Georgia and throughout the strategic South Caucasus region.","['Georgia', 'South Ossetia']"
2008-03-06,"A lawmaker said Abkhazia, a region that broke away from Georgian government control in the 1990s, intends to seek international recognition as an independent nation, citing Kosovo as a precedent.","['Georgia', 'Abkhazia']"
2008-03-25,"Air travel between Georgia and Russia resumed, more than 17 months after Moscow suspended flights because of tension between the ex-Soviet neighbors.","['Georgia', 'Russia', 'Aviation']"
2008-04-01,In Ukraine President Bush said he is putting his full weight behind the desire by Ukraine and Georgia to join NATO even though Russia is opposed and the alliance is split.,"['Georgia', 'Ukraine', 'USA', 'NATO', 'BushGW']"
2008-04-03,"President Bush won NATO's endorsement for his plan to build a missile defense system in Europe over Russian objections. The proposal also advanced with Czech officials announcing an agreement to install a missile tracking site for the system in their country. NATO decided not to put Georgia and Ukraine on track to join the alliance after vehement Russian opposition, but the alliance pledged that the strategically important Black Sea nations will become members one day.","['Georgia', 'Ukraine', 'USA', 'NATO', 'Czech Rep.', 'BushGW']"
2008-04-20,"A Georgian unmanned reconnaissance flight was shot down over the Georgian rebel region of Abkhazia. The next day Georgia's air force commander said a Russian fighter jet shot down the spy plane as it flew over Abkhazia, but Russia said it had been shot down by separatist forces and that the flight violated UN ceasefire agreements. A UN report on May 26 said a Russian jet shot down the spy drone.","['Georgia', 'Russia', 'UN', 'Abkhazia']"
2008-04-29,"Russia announced it was beefing up its peacekeeping force in Georgia's breakaway Abkhazia and South Ossetia regions, saying it had evidence Tbilisi was readying its forces for an attack.","['Georgia', 'Russia', 'Abkhazia', 'South Ossetia']"
2008-05-01,"Russia said an extra contingent of its troops had begun arriving in Georgia's breakaway region of Abkhazia, a move Tbilisi said was an illegal act of military aggression.","['Georgia', 'Russia', 'Abkhazia']"
2008-05-04,"Abkhazian anti-aircraft forces shot down 2 unmanned Georgian spy planes. A Georgian Foreign Ministry official, dismissed the claims as ""completely absurd disinformation"" aimed at increasing tension in the area.","['Georgia', 'Abkhazia', 'Espionage']"
2008-05-08,Georgia's breakaway region of Abkhazia said it had shot down another Georgian spy drone.,"['Georgia', 'Abkhazia']"
2008-05-21,Georgia held parliamentary elections.,['Georgia']
2008-05-22,Partial returns and an exit poll showed President Mikhail Saakashvili's ruling party heading for a strong majority in Georgia's parliamentary election. United Opposition co-leader David Gamkrelidze alleged widespread cheating and pressure on opponents by authorities in areas outside Tbilisi.,['Georgia']
2008-06-05,The European Parliament called for the peacekeeping mandate for Russian troops in the breakaway Georgian region of Abkhazia to be revised. The chamber also demanded the EU sends its own border mission into the conflict zone in Abkhazia.,"['Georgia', 'Russia', 'EU', 'Abkhazia']"
2008-06-09,"In Georgia Linda Yancey (44) and Marcial Cax Puluc (20), a Guatemalan day laborer, were shot and killed in Atlanta&rsquo;s Stone Mountain suburban community. In 2009 Linda&rsquo;s husband Derrick Yancey (49), a former sheriff&rsquo;s deputy, fled Georgia in April and was captured in September in Belize.","['Belize', 'Guatemala', 'Georgia', 'USA', 'Murder']"
2008-07-08,Abkhazia's leader Sergei Bagapsh rejected a US proposal to deploy an international police force there.,"['Georgia', 'USA', 'Abkhazia']"
2008-08-02,Overnight fighting that included sniper and mortar fire between Georgian forces and separatists in the breakaway South Ossetia region left six people dead and 13 wounded.,"['Georgia', 'South Ossetia']"
2008-08-03,The breakaway republic of South Ossetia began sending hundreds of children across the border to its Russian ally amid increasing violence between the republic and Georgian government forces.,"['Georgia', 'Russia', 'South Ossetia']"
2008-08-07,"Heavy shelling overnight in the Georgian breakaway province of South Ossetia wounded at least 21 people. Cyber attacks from Russia began to target Georgian government Web sites. An organization known as the Russian Business Network was the leading suspect in the attacks. Georgia&rsquo;s Pres. Saakashvili ordered the shelling of Tskhinvali, the capital of South Ossetia.","['Georgia', 'Russia', 'Internet', 'South Ossetia']"
2008-08-08,"Georgian troops launched a major military offensive to regain control of South Ossetia, prompting a furious response from Russia, which sent tanks into the region. The convoy was expected to reach the provincial capital by evening. Georgia said it shot down two Russian combat planes. Separatist officials in South Ossetia said 15 civilians had been killed in fighting overnight. Georgia later acknowledged that it used M85 cluster munition near the Roki tunnel that connects South Ossetia with Russia, while Russia denied use of cluster bombs.","['Georgia', 'Russia', 'South Ossetia']"
2008-08-09,"Georgia, the third largest contributor to the U.S.-led coalition in Iraq, said it's pulling out its 2,000-strong contingent from Iraq to join the fighting in the breakaway province of South Ossetia.","['Iraq', 'Georgia', 'South Ossetia']"
2008-08-09,"Separatist forces in Georgia's breakaway province of Abkhazia launched air and artillery strikes to drive Georgian troops from their bridgehead in the region. The Abkhazian move was prompted by Georgia's military action to regain control over another breakaway province, South Ossetia.","['Georgia', 'Abkhazia', 'South Ossetia']"
2008-08-09,"Russia sent hundreds of tanks and troops into the separatist province of South Ossetia and bombed Georgian towns in a major escalation of the conflict that has left scores of civilians dead and wounded. Russian Foreign Minister Sergey Lavrov told reporters in Moscow that some 1,500 people have been killed, with the death toll rising. The death toll in South Ossetia was later put at fewer than 200. Russian military aircraft bombed the Georgian town of Gori. Georgia's President Mikhail Saakashvili proposed a cease-fire. As part of his proposal, Georgian troops were pulled out of Tskhinvali and had been ordered to stop responding to Russian shelling.","['Georgia', 'Russia', 'South Ossetia']"
2008-08-10,"Georgian troops retreated from the breakaway province of South Ossetia and their government pressed for a truce, overwhelmed by Russian firepower as the conflict threatened to set off a wider war. Georgia said it has shot down 10 Russian planes, including four brought down Aug 9. It also claimed to have captured two Russian pilots, who were shown on Georgian television. Ukraine warned Russia it could bar Russian navy ships from returning to their base in the Crimea because of their deployment to Georgia's coast.","['Georgia', 'Russia', 'Ukraine', 'South Ossetia']"
2008-08-11,Swarms of Russian jets launched new raids on Georgian territory and Georgia faced the threat of a second front of fighting as Russia demanded that Georgia disarm troops near the breakaway province of Abkhazia.,"['Georgia', 'Russia', 'Abkhazia', 'South Ossetia']"
2008-08-12,"Georgia's Pres. Mikhail Saakashvili said his government will declare that its breakaway regions are occupied territories and will designate Russian peacekeepers as occupying forces. Russia ordered a halt to military action in Georgia, after five days of air and land attacks sent Georgia's army into headlong retreat and left towns and military bases destroyed. A Dutch television journalist was killed overnight when Russian warplanes bombed the central Georgian city of Gori. Russia later counted 133 civilian deaths in South Ossetia. Rights activists later said fewer than 100 civilians were killed in South Ossetia. The war cost some 850 lives and left over 35,000 displaced civilians, mot of the Georgian.","['Georgia', 'Russia', 'Netherlands', 'Abkhazia', 'Journalism', 'South Ossetia']"
2008-08-13,"Russian tanks rolled into the crossroads city of Gori then thrust deep into Georgian territory, violating the truce designed to end the six-day war. Georgia said that 175 Georgians had died in five days of air and ground attacks that left homes in smoldering ruins. EU foreign ministers agreed in principle to send monitors to supervise a French-brokered ceasefire between Russia and Georgia in the breakaway Georgian region of South Ossetia. Finance Minister Alexei Kudrin said Russia will spend at least $400 million in 2008 on restoring South Ossetia's battered capital Tskhinvali.","['Georgia', 'Russia', 'South Ossetia']"
2008-08-14,"Georgian and Russian troops faced off at a checkpoint outside the key city of Gori, calling an already shaky cease-fire into question. An American official said Russia appears to be sabotaging airfields and other military infrastructure as its forces pull back. The Russian General Prosecutor's office said it has formally opened a genocide probe into Georgian treatment of South Ossetians. For its part, Georgia this week filed a suit against Russia in the International Court of Justice, alleging murder, rape and mass expulsions in both provinces.","['Georgia', 'Russia', 'South Ossetia']"
2008-08-15,"Russian troops allowed some humanitarian supplies into Georgia&rsquo;s city of Gori but kept up their blockade of the strategically located city, raising doubts about Russia's intentions. Relief planes swooped into Tbilisi with tons of supplies for the estimated 100,000 people uprooted by the fighting. An international rights group said it has evidence that Russian warplanes dropped cluster bombs in civilian areas in Georgia.","['Georgia', 'Russia']"
2008-08-16,Russian forces pulled back from the center of a town not far from Georgia's capital after Russia's president signed a cease-fire deal. Russia&rsquo;s Foreign Minister Sergey Lavrov later suggested there would be no immediate broader withdrawal. Georgia's Foreign Ministry said Saturday that Russian-backed separatists from the province of Abkhazia had taken over 13 villages in Georgia and a power plant. Russian troops blew up a key railroad bridge linking the Caucasus to the Black Sea coast.,"['Georgia', 'Russia', 'Abkhazia']"
2008-08-17,"The Kremlin promised to start withdrawing combat troops from Georgia on August 18, as Western pressure mounted on Russia to quit the ex-Soviet republic.","['Georgia', 'Russia']"
2008-08-18,"Russia said its military began to withdraw from the conflict zone in Georgia, but left unclear exactly where troops and tanks will operate under the cease-fire that ended days of fighting in the former Soviet republic.","['Georgia', 'Russia']"
2008-08-19,Russian soldiers took 20 Georgian troops prisoner at a key port in western Georgia and commandeered American Humvees awaiting shipment back to the United States after taking part in earlier US-Georgian military exercises. Georgia and Russia exchanged prisoners captured during their brief war.,"['Georgia', 'Russia', 'USA']"
2008-08-20,"A top Russian general said 64 of the country's soldiers were killed and 323 wounded in this month's fighting with Georgia. Russia informed Norway that it plans to suspend all military ties with NATO, a day after the military alliance urged Moscow to withdraw its forces from Georgia. Georgia later reported that 170 of its soldiers were killed in the war.","['Georgia', 'Russia', 'NATO', 'Norway']"
2008-08-21,"Russian forces blocked the only land entrance to Georgia's main port city, a day before Russia promised to complete a troop pullout from its ex-Soviet neighbor.","['Georgia', 'Russia']"
2008-08-22,"A Russian armored column moved away from a base in western Georgia and Russian forces also were leaving the key central city of Gori, the day that Russia's president had said a pullback would be complete.","['Georgia', 'Russia']"
2008-08-23,A top Russian general said his country's forces will keep patrolling the key Georgian Black Sea port of Poti even though it lies outside the areas where Russia claims it has the right to station soldiers in Georgia.,"['Georgia', 'Russia']"
2008-08-24,"The USS McFaul, a US Navy warship carrying humanitarian aid, anchored at the Georgian port of Batumi, sending a strong signal of support to an embattled ally as Russian forces built up around two separatist regions. In central Georgia, an oil train exploded and caught fire, sending plumes of black smoke into the air. A Georgian official said the train hit a land mine and blamed the explosion on departing Russian forces.","['Georgia', 'Russia', 'USA', 'Ship']"
2008-08-25,"Russia's parliament voted unanimously to urge the president to recognize the independence of Georgia's two breakaway regions, a move likely to stoke further tensions between Moscow and the small Caucasus nation's Western allies. Russian President Dmitry Medvedev warned ex-Soviet Moldova against repeating Georgia's mistake of trying to use force to seize back control of Transdniestria, a pro-Moscow breakaway region.","['Georgia', 'Russia', 'Abkhazia', 'Moldova', 'Transdniestria', 'South Ossetia']"
2008-08-26,"Russia formally recognized Abkhazia and South Ossetia, the breakaway Georgian territories at the heart of its war with Georgia, heightening tensions with the West as the US dispatched a military ship bearing aid to a port city still patrolled by Russian troops. In a direct challenge to Russia, the US announced it intends to deliver humanitarian aid to the beleaguered Georgian port city of Poti, which Russian troops still control through checkpoints on the city's outskirts.","['Georgia', 'Russia', 'USA', 'Abkhazia', 'South Ossetia']"
2008-08-27,"A US military ship docked at the southern Georgian port of Batumi. Meanwhile, Russia's missile cruiser, the Aurora, and two missile boats, anchored at the port of Sukhumi, the capital of Abkhazia. The moves by both sides underscored an escalating standoff between Moscow and the West over this small Caucasus nation devastated by war with Russia.","['Georgia', 'Russia', 'USA', 'Abkhazia', 'Ship']"
2008-08-27,"The Group of Seven (G7) industrialized democracies condemned Russia for its actions in Georgia, underlining the country's growing estrangement from the West.","['Georgia', 'Russia', 'G7']"
2008-08-28,"Russian forces turned over 12 Georgian soldiers on the border of Abkhazia. Georgia's foreign minister said ethnic Georgians were being cleared from their homes in South Ossetia. A joint declaration from the Shanghai Cooperation Organization denounced the use of force and called for respect for every country's territorial integrity. Mikhail Mindzayev, the interior minister of South Ossetia, said an unmanned Georgian spy plane was shot down over South Ossetia by local forces.","['Georgia', 'Russia', 'China', 'Abkhazia', 'South Ossetia']"
2008-08-29,A Georgian Foreign Ministry official says Georgia is to recall all diplomatic staff from its embassy in Moscow because of the Russian military presence in Georgia.,"['Georgia', 'Russia']"
2008-08-30,"The UN says Russian soldiers are telling thousands of refugees in Georgia who want to return to their homes that their security can't be guaranteed. All hoped to return to villages that are in the ""security zones"" that Russia has claimed for itself. Russian PM Vladimir Putin urged the EU to ignore calls to punish Moscow over the Georgia conflict as Tbilisi appealed for targeted punishment of the Russian leadership.","['Georgia', 'Russia', 'UN']"
2008-08-31,President Dmitry Medvedev says Russia will follow the recognition of Georgia's breakaway provinces with agreements on economic and military aid.,"['Georgia', 'Russia', 'Abkhazia', 'South Ossetia']"
2008-09-01,Hundreds of thousands of Georgians joined together in anti-Russian protests.,"['Georgia', 'Russia']"
2008-09-02,"Prime Minister Vladimir Putin said that Russia will respond calmly to an increase in NATO ships in the Black Sea in the aftermath of the short war with Georgia, but promised that ""there will be an answer.""","['Black Sea', 'Georgia', 'Russia', 'NATO']"
2008-09-03,"A US Navy ship loaded with humanitarian aid steamed through the Dardanelles on its way to Georgia, as the Bush administration prepared to roll out a $1 billion economic aid package for the ex-Soviet republic.","['Georgia', 'USA']"
2008-09-04,"In Georgia US Vice President Dick Cheney condemned Russia for what he called an ""illegitimate, unilateral attempt"" to redraw this US ally's borders by force.","['Georgia', 'Russia', 'USA']"
2008-09-05,"The flagship of the US Navy's Mediterranean fleet anchored outside the key Georgian port of Poti, bringing in tons of humanitarian aid to a port still partially occupied by hundreds of Russian troops.","['Georgia', 'USA']"
2008-09-05,EU nations called for an international probe to find out which country should shoulder responsibility for starting the conflict between Georgia and Russia.,"['Georgia', 'Russia', 'EU']"
2008-09-07,"Italy's foreign minister, after meeting US Vice President Dick Cheney, said the EU wants to work closely with the United States in resolving the Georgian crisis.","['Italy', 'Georgia', 'USA', 'EU']"
2008-09-08,"French President Nicolas Sarkozy pressed Moscow to honor its pledge to withdraw troops from Georgia, while Russian soldiers prevented international aid convoys from visiting Georgian villages in a tense zone around the breakaway province of South Ossetia. Pres. Medvedev and Sarkozy revised the EU-brokered deal to end the fighting between Russia and Georgia. Medvedev said 200 EU monitors would deploy to regions surrounding South Ossetia and Abkhazia by next month. After that, Russian troops would pull out of those regions by Oct. 11 to a line that preceded last month's fighting.","['Georgia', 'Russia', 'France', 'South Ossetia']"
2008-09-09,"Russia said it will station 7,600 troops in South Ossetia and in Abkhazia, announcing an imposing long-term presence less than a day after agreeing to pull forces back from areas surrounding the provinces.","['Georgia', 'Russia', 'Abkhazia', 'South Ossetia']"
2008-09-10,A Georgian police officer was killed by gunfire that came from the direction of a Russian checkpoint near separatist South Ossetia.,"['Georgia', 'South Ossetia']"
2008-09-10,Israeli defense officials say the government has told all businessmen involved in military sales to Georgia to immediately cease visits to the former Soviet republic. The officials said the directive was decided upon this week because Israel is concerned about damage to its relations with Russia.,"['Georgia', 'Russia', 'Israel']"
2008-09-13,"Hundreds of Russian forces packed up and withdrew from positions in western Georgia. A Georgian official said Russia had met a deadline for a partial pullout a month after the war between the two former Soviet republics. A Georgian policeman at a post near Abkhazia was killed by gunfire that came from the direction of a position where Abkhazian and Russian forces have been based. Some 1,200 Russian servicemen still remained at 19 checkpoints and other positions, 12 outside South Ossetia and seven outside Abkhazia.","['Georgia', 'Russia', 'Abkhazia', 'South Ossetia']"
2008-09-16,"Georgia&rsquo;s government said intercepted mobile phone calls show that Russian tanks and troops invaded before Georgia unleashed its offensive against South Ossetia, pressing its claim that Russia was the aggressor in the war last month.","['Georgia', 'Russia', 'Telecom']"
2008-09-17,Russian President Dmitry Medvedev signed friendship treaties with Georgia's breakaway regions of Abkhazia and South Ossetia and promised them the backing of Russia's armed forces.,"['Georgia', 'Russia', 'Abkhazia', 'South Ossetia']"
2008-09-22,Georgian forces shot down a Russian drone near the breakaway province of South Ossetia.,"['Georgia', 'Russia']"
2008-09-29,In Georgia almost 300 monitors from 22 EU nations were in place to oversee Russia's promised troop withdrawal from the large swaths it has occupied since the August war.,"['Georgia', 'EU']"
2008-10-01,EU monitors began patrolling Georgian territory and Russian troops allowed some of them into a buffer zone around the breakaway region of South Ossetia despite earlier warnings from Moscow they would be blocked.,"['Georgia', 'EU']"
2008-10-03,"A car exploded outside the Russian military's headquarters in South Ossetia, killing 7 people and wounding 3. The South Ossetian government said a car, that had been confiscated in an ethnic Georgian village after weapons were found in it, exploded near a building where leaders of the Russian peacekeeping force were located.","['Georgia', 'Russia', 'South Ossetia']"
2008-10-05,A Georgian Interior Ministry official said Russian troops have begun dismantling positions in the so-called security zones inside Georgia that they have occupied since August's brief but intense war.,"['Georgia', 'Russia']"
2008-10-08,"Russian forces pulled back from positions outside South Ossetia, bulldozing a camp at a key checkpoint and withdrawing into the separatist region as EU monitors and relieved Georgian residents looked on.","['Georgia', 'Russia']"
2008-10-22,"Officials said the EU, the US and other international donors have pledged more than $4.5 billion for rebuilding parts of Georgia that were damaged in its war with Russia.","['Georgia', 'USA', 'EU']"
2008-10-25,"In Georgia an explosion killed Gia Mebonia, mayor of the small town of Mujhava, while he was inspecting a house damaged by overnight shelling near the separatist region of Abkhazia. A villager was also killed and a local police officer was seriously injured.",['Georgia']
2008-10-27,"Georgia's Pres. Saakashvili dismissed PM Vladimir Gurgenizde and recommended Grigol Mgaloblishvili (35), the country's ambassador to Turkey, as his replacement. Saakashvili said Gurgenizde would now head a government finance commission.",['Georgia']
2008-11-04,"Human Rights Watch reported that both Georgia and Russia used cluster bombs during their brief summer war. Georgia&rsquo;s bombs, purchased from Israel, killed at least 3 Georgian civilians, including 2 who touched unexploded bombs and died after the fighting ended. Many of the bombs were said to have malfunctioned.","['Georgia', 'Russia', 'Israel']"
2008-11-07,"In Georgia thousands of the United Opposition coalition demonstrated in the first major protest against President Mikhail Saakashvili since the August war with Russia. At least two significant opposition parties, The Republican Party and the Christian Democrats, stayed away from the protest, citing the need for postwar unity against Russia.","['Georgia', 'Mad Crowd']"
2008-11-10,An explosion killed two Georgian police officers near the disputed region of South Ossetia. EU monitors called the attack an unacceptable breach of the cease-fire that ended the Georgia-Russia war.,"['Georgia', 'South Ossetia']"
2008-11-15,"A Georgian policeman was shot dead by a group of armed Abkhazians. The group was said to have entered Georgian-controlled territory to plant land mines. Abkhazian presidential envoy Ruslan Kishmariya said police from the separatist side killed one and wounded two Georgian ""saboteurs"" in the tense Gali district.","['Georgia', 'Abkhazia']"
2008-11-19,"Georgia and Russia held their first major, mediated talks since their August war.","['Georgia', 'Russia']"
2008-11-20,"Georgian officials said Russian and separatist forces attacked a Georgian police checkpoint near the village of Ganmukhuri, near the breakaway province of Abkhazia. Anatoly Zaitsev, the chief of staff for the Abkhaz armed forces, said that a group of Abkhaz troops patrolling the area were shelled from the Georgian side and returned fire, and no Russian troops were involved.","['Georgia', 'Abkhazia']"
2008-11-23,"In Georgia gunfire that broke out as Pres. Saakashvili and Polish Pres. Lech Kaczynski were traveling near a roadblock at the edge of Georgia-controlled territory. Russian Foreign Minister Sergey Lavrov said there was no gunfire from Russian or South Ossetian positions and suggested Georgia engineered the incident to discredit Russia and South Ossetia. In Tbilisi Nino Burjanadze, a former ally of Pres. Saakashvili, founded a new party: the Democratic Movement-United Georgia.","['Georgia', 'Russia', 'Poland']"
2008-11-29,Georgia said it is cutting diplomatic relations with Nicaragua after the Central American nation recognized the breakaway regions of South Ossetia and Abkhazia.,"['Nicaragua', 'Georgia', 'Abkhazia', 'South Ossetia']"
2008-12-13,"Russian troops retook Perevi village near the breakaway region of South Ossetia just hours after withdrawing. The move drew criticism from Georgia, the EU and US Senator John Kerry, who was on a half-day visit to Tbilisi.","['Georgia', 'Russia', 'USA']"
2008-12-22,"Belarus' president sought $3 billion in economic aid from Russia to help its struggling economy, but Moscow demanded in return that Belarus recognize two breakaway Georgian regions as independent nations.","['Belarus', 'Georgia', 'Russia']"
2008-12-22,"OSCE talks on the Georgia collapsed, when Russia demanded the group join Moscow in recognizing the statehood of the provinces of South Ossetia and Abkhazia. The mission will expire on Dec 31.","['Georgia', 'Russia', 'Abkhazia', 'OSCE', 'South Ossetia']"
2009-01-19,Russia released a text by President Dmitry Medvedev ordering the government to introduce economic sanctions against countries supplying weapons to Georgia.,"['Georgia', 'Russia']"
2009-01-30,"Georgia's PM Grigol Mgaloblishvili (35) resigned, citing health reasons after just three months on the job as President Mikhail Saakashvili's second-in-command.",['Georgia']
2009-02-18,Georgia and Russia agreed to let monitors visit anywhere they want in Georgia and its 2 breakaway provinces.,"['Georgia', 'Russia', 'Abkhazia', 'South Ossetia']"
2009-03-23,Georgian officials released videotapes allegedly showing opposition members buying weapons with the aim of sparking violence during demonstrations against the president planned for next month.,['Georgia']
2009-03-29,"In Russia the film ""Olympius Inferno,"" was first broadcast on state television. It offering the Kremlin's version of the August war with Georgia and contained anti-American overtones, reflecting Russia's anger over US support for Georgia.","['Georgia', 'Russia', 'Film']"
2009-04-09,"In Georgia tens of thousands of protesters thronged the streets in front of the parliament, calling on Pres. Mikhail Saakashvili to step down in the largest opposition demonstration since last year's war with Russia.","['Georgia', 'Mad Crowd']"
2009-04-10,"About 20,000 demonstrators kept up the pressure on Georgia's president to resign, with some pelting his residence with cabbages and carrots on a second day of protests.",['Georgia']
2009-04-22,In Georgia thousands of opposition supporters from the provinces poured into the capital to join the protests aimed at forcing President Mikhail Saakashvili to step down.,['Georgia']
2009-04-30,"Russia signed a deal with Georgia's two breakaway regions giving Moscow the power to guard the borders of Abkhazia and South Ossetia, a move sharply criticized in Tbilisi.","['Georgia', 'Russia', 'Abkhazia', 'South Ossetia']"
2009-05-05,Georgia said it had ended a brief mutiny at a military base near the capital that broke out after the arrest of a former special forces commander accused of planning to disrupt NATO exercises.,"['Georgia', 'NATO']"
2009-05-06,NATO launched military exercises in former Soviet Georgia after heavy criticism from neighboring Russia and a brief mutiny in the Georgian military.,"['Georgia', 'NATO']"
2009-05-07,"The European Union extended its hand to former Soviet republics, holding a summit to draw them closer into the EU orbit despite Russia's deep misgivings. Presidents, premiers and their deputies from 33 nations signed an agreement meant to extend the EU's political and economic ties. The six ex-Soviet republics to whom the partnership would apply are Armenia, Azerbaijan, Belarus, Georgia, Moldova and Ukraine.","['Azerbaijan', 'Armenia', 'Belarus', 'Georgia', 'Ukraine', 'EU', 'Moldova']"
2009-05-07,In Georgia opposition protesters clashed with police in Tbilisi in the first outbreak of violence since demonstrations began in April.,"['Georgia', 'Mad Crowd']"
2009-05-11,"Georgia's pro-Western president and four of his fiercest opponents failed to agree on a way to resolve the country's political crisis, a negotiator said, promising continued street demonstrations to demand his resignation.",['Georgia']
2009-05-21,"In Georgia police killed Giorgy Krialashvili, a former military officer accused of plotting mutiny, and wounded two others in an overnight gunbattle. Protesters condemned the shootings and blocked Tbilisi streets in the seventh week of an anti-government campaign.",['Georgia']
2009-06-15,Moscow vetoed a Western-proposed resolution to extend the mandate of UN monitors in the breakaway region of Abkhazia. It designed to buy time to negotiate a long-term plan for the 16-year-old monitoring mission in the Black Sea rebel region.,"['Georgia', 'Russia', 'UN', 'Abkhazia']"
2009-07-23,US Vice President Joe Biden pledged Washington's full support for Georgia a year after its war with Russia and urged Moscow to abide by a ceasefire pact and pull its troops back from two rebel regions.,"['Georgia', 'USA']"
2009-08-01,Authorities in the separatist Georgian region of South Ossetia said two mortar shells were fired into the territory from Georgia proper. Georgia denied the claim and suggested it was a provocation ahead of the anniversary of last year's war with Russia.,"['Georgia', 'South Ossetia']"
2009-08-08,"Russian President Dmitry Medvedev hailed the Russian victory in a war with Georgia a year ago, saying the war had redrawn the map of the Caucasus for good.","['Georgia', 'Russia', 'Abkhazia', 'South Ossetia']"
2009-08-12,Russian PM Vladimir Putin made a surprise visit to Abkhazia and said Russia will spend at least 15 billion rubles ($470 million) next year to build Russian military bases in Abkhazia and tighten the separatist Georgian region's borders.,"['Georgia', 'Russia', 'Abkhazia']"
2009-08-31,A Georgian court sentenced a Turkish cargo ship captain to 24 years in prison for smuggling and border violations.,"['Turkey', 'Georgia']"
2009-09-03,Russian&rsquo;s Foreign Ministry spokesman Andrei Nesterenko warned Georgia that attempts to block ships from reaching a Moscow-aligned separatist region of Georgia could end in military intervention.,"['Georgia', 'Russia']"
2009-09-10,"In Russia Venezuela&rsquo;s President Hugo Chavez recognized the pro-Russian rebel regions of Abkhazia and South Ossetia as independent states, a rare boost to the Kremlin's campaign for their international acceptance.","['Georgia', 'Russia', 'Venezuela', 'Abkhazia', 'South Ossetia']"
2009-09-15,"Russian news agencies said the country's coast guard warned that it will detain Georgian ships entering the territorial waters of Abkhazia. Viktor Turfanov, the head of the coastal division of the border guards service, said that Georgia this year has intercepted more than 20 ships in Abkhazian waters.","['Georgia', 'Russia', 'Abkhazia']"
2009-09-30,"An EU-commissioned report said Georgia's attack on its breakaway South Ossetia region marked the start of last year's war with Russia, which retaliated with excessive force.","['Georgia', 'Russia', 'EU']"
2009-10-23,"US regulators shut down 3 small banks in Florida and one each in Georgia, Illinois, Minnesota and Wisconsin bringing the total for the year of failed US banks to 106.","['Georgia', 'USA', 'Minnesota', 'Illinois', 'Florida', 'Wisconsin', 'Banking']"
2009-11-26,Georgia&rsquo;s foreign minister said his country is very worried about the possible sale of French warships to Russia and intends to press the issue of security guarantees in France.,"['Georgia', 'Russia', 'France']"
2009-12-12,"Abkhazia held elections. Preliminary results indicated that President Sergei Bagapsh defeated four other candidates. About 70% of the 130,000 registered voters took part in the vote. The province is also home to some 40,000 ethnic Georgians who are not eligible to vote because they don't hold Abkhazian passports. An estimated 200,000 ethnic Georgians fled Abkhazia in the 1990s.","['Georgia', 'Abkhazia']"
2009-12-15,"The tiny Pacific island of Nauru recognized the rebel Black Sea region of Abkhazia, throwing its weight behind a Russian drive to win international recognition for Georgia's breakaway territories.","['Georgia', 'Abkhazia', 'Nauru']"
2009-12-19,In Georgia a woman and her 8-year-old daughter were killed when a World War II memorial was intentionally blown up in Kutaisi. The 46-meter (150-foot) concrete and bronze war memorial stood on the proposed site for a new parliament building.,['Georgia']
2009-12-22,"Hansjoerg Haber, the EU monitoring mission chief, said Russia has failed to fully observe an EU-brokered peace deal that ended last year's war with Georgia. He said Russia has not met an obligation to withdraw its forces to positions held before the August 2008 conflict.","['Georgia', 'Russia', 'EU']"
2009-12-23,Georgia's Foreign Ministry reached a deal with Russia to open a border crossing that has been closed for three years. The two sides agreed during Swiss-brokered talks that the Verkhny Lars transit point will open in March.,"['Georgia', 'Russia']"
2009-12-25,"Vic Chestnutt (b.1964), singer and songwriter, died in Athens, Georgia, following an intentional overdose. He had been paralyzed in a 1983 car accident, but retained limited use of his arms and hands.","['Georgia', 'USA', 'Pop&Rock;']"
2010-02-12,"The XXI Olympic Winter Games began in Vancouver, British Columbia, with the Olympics' first-ever indoor opening ceremony. Georgian luger Nodar Kumaritashvili died in a horrific crash on a training run, casting a shadow as Vancouver opened the Winter Olympic Games with a daredevil snowboarder, an aboriginal welcome, and Wayne Gretzky lighting the cauldron.","['Georgia', 'Canada', 'Olympics']"
2010-02-16,"Georgia's breakaway Abkhazia region said it would allow sponsor Russia to build a military base on its soil for land troops, strengthening the region's dependence on Moscow and provoking ire from Tbilisi..","['Georgia', 'Russia', 'Abkhazia']"
2010-03-01,"Georgia and Russia reopened their only direct border crossing, more than three years after it was closed amid rising tension that erupted into war in 2008.","['Georgia', 'Russia']"
2010-03-12,Georgian church leader Metropolitan Theodor said convicts would be able to build or maintain monasteries after clerics and prosecutors struck a deal allowing criminals convicted of minor crimes to serve their sentences in the monasteries.,['Georgia']
2010-03-13,In Georgia a hoax television broadcast said Russia had invaded and the president had been killed. It sparked wide anxiety in the country still traumatized by the August 2008 war in which Russian troops advanced deep into the country.,"['Georgia', 'TV']"
2010-05-30,"Voters in Georgia chose local leaders in the first ballot since President Mikhail Saakashvili led the country into a disastrous war with neighboring Russia nearly two years ago. Candidates from President Saakashvili's party dominated local elections, according to preliminary results.",['Georgia']
2010-06-25,Georgian police cordoned off the central square in Gori and at night toppled the a statue of former Russian dictator George Stalin.,['Georgia']
2010-06-27,"It was reported that Vienna residents have become victims of burglary in recent weeks. The Austrian interior ministry suspected that many of the burglers were from the Republic of Georgia and were supported by the Georgian Mafia. The alleged local head, a restaurant owner in Vienna, has been arrested. Police suspected the burglaries were part of plan to finance a coup against Geeorgian Pres. Saakashvili.","['Austria', 'Georgia', 'Mafia', 'Robbery']"
2010-06-27,Authorities in Georgia tore down another monument to Soviet dictator and native son Josef Stalin.,['Georgia']
2010-07-05,"In Tbilisi, Georgia, US Secretary of State Hillary Rodham Clinton pledged US support for the former Soviet state.","['Georgia', 'USA']"
2010-07-19,In Russia the Khamovniki District Court in Moscow said in a statement it has convicted Tariel Oniani (58) on extortion and abduction charges. The native of Georgia had been convicted seven times and is wanted in Spain since 2005 on money laundering charges.,"['Georgia', 'Russia']"
2010-08-11,"Russia said it has deployed high-precision air defense missiles in the breakaway Georgian region of Abkhazia, sending a defiant signal to Tblisi and the West two years after a war with Georgia.","['Georgia', 'Russia', 'Abkhazia']"
2010-11-05,"Georgia's government announced the arrests of 13 people, including four Russian citizens, who are accused of spying for Russia's armed forces. The arrests, which took place in October, were announced on the day Russia's military intelligence agency celebrates its professional holiday, Day of the Military Intelligence Officer.","['Georgia', 'Russia', 'Espionage']"
2010-12-07,"Georgia said it has arrested six people, all of them Georgian citizens, suspected of being agents for Russia and accused them of staging a series of explosions, including one outside the US Embassy in the capital.","['Georgia', 'Russia', 'Espionage']"
2010-07-15,"Ronald Asmus authored &ldquo;A Little War That Shook the World: Georgia, Russia and the Future of the West.&rdquo; It covered the 2008 war in Georgia.","['Georgia', 'Russia', 'Books']"
2010-07-15,Thomas de Waal authored &ldquo;The Caucasus: An Introduction.&rdquo;,"['Azerbaijan', 'Armenia', 'Georgia', 'Russia', 'Chechnya', 'Dagestan', 'USSR', 'Abkhazia', 'South Ossetia']"
2011-04-01,The United Nations' highest court threw out Georgia's complaint accusing Russia and separatist militias of years of ethnic cleansing in two breakaway Georgian provinces. The court said it had no jurisdiction in the case because Russia and Georgia had never attempted to negotiate a settlement to the dispute before Georgia brought it to the court.,"['Georgia', 'Russia', 'UN']"
2011-05-25,"In Georgia some 3,000 anti-government protesters demanded the resignation of Pres. Saakashvili and said they will try to block a May 26 military parade in the capital.",['Georgia']
2011-05-26,Georgian officials went ahead with an Independence Day military parade along the central avenue where two people were killed and almost 40 injured in the violent breakup of an anti-government protest hours earlier.,['Georgia']
2011-07-06,A Georgian court in the Black Sea port of Batumi convicted a Russian citizen and eight Georgians of espionage and gave them prison sentences ranging from 11 to 14 years.,"['Georgia', 'Espionage']"
2011-07-07,"Georgian President Mikhail Saakashvili's personal photographer was arrested on suspicion of espionage, along with his wife and two other photographers.","['Georgia', 'Espionage']"
2011-07-09,"In Georgia Irakli Gedenidze, Zurab Kurtsikidze and another photographer were charged with espionage. Natia Gedenidze was released without charge. Gedenidze, the personal photographer to the Georgian president, confessed to giving another photographer, Zurab Kurtsikidze, details of the president's itinerary, motorcade route and offices for unspecified remuneration.","['Georgia', 'Espionage']"
2011-07-22,Three Georgian photographers were found guilty of spying for Russia but given suspended sentences and released after a 15-minute trial.,"['Georgia', 'Espionage']"
2011-11-13,"Voters in Georgia's breakaway republic of South Ossetia chose a new president for the first time since Georgia and Russia fought a brief war over control of the territory in 2008. South Ossetia has been led since 2001 by Eduard Kokoiti, who has served two terms as president and is now stepping down. Among those favored to succeed him is Anatoly Bibilov, who heads South Ossetia's emergencies services and has the support of Russia's dominant pro-Kremlin party. Anatoly Bibilov and former education minister Alla Dzhioyeva each won about 25 percent of the vote forcing a runoff in two weeks.","['Georgia', 'South Ossetia']"
2011-11-28,Ginger White (46) of Georgia said that she and Republican presidential hopeful Herman Cain had a 13-year extramarital affair that lasted nearly until the former businessman announced his candidacy for the White House several months ago.,"['Georgia', 'USA', 'Sex']"
2011-12-02,"In Canton, Georgia, Puerto Rico-born Jorelys Rivera (7) disappeared from a playground after her babysitter went home to fetch sodas for friends. The girl&rsquo;s body was found on Dec 5 in a trash container and she appeared to have been severely beaten and sexually assaulted. On Dec 7 Ryan Brunn (20), a maintenance worker, was arrested for her murder.","['Georgia', 'USA', 'Murder', 'Puerto Rico', 'Kids', 'Rape']"
2011-12-31,"Georgia&rsquo;s defense ministry said a Georgian soldier has been killed in Afghanistan, the 11th from the ex-Soviet state to die serving alongside NATO-led forces fighting the Taliban.","['Georgia', 'Afghan']"
