1969-07-25,"The Nixon Doctrine was put forth in a press conference in Guam, in which he stated that the US henceforth expected its Asian allies to take care of their own military defense [see Nov 3, 1969].","['USA', 'Guam', 'NixonR']"
1970-07-15,"Geerat ""Gary"" Vermeij, a blind scientist, while studying mollusks in Guam, discovered that predators play a major role in determining how and why species change. In 1992 he was awarded a MacArthur Fellowship and in 1996 published ""Privileged Hands: A Scientific Life.""","['Guam', 'Biology']"
1992-11-30,"The U.S. Supreme Court sustained women's basic right to abortion, voting 6-3 against reviving a 1990 Guam law that would have prohibited nearly all such procedures.","['USA', 'Medical', 'Guam', 'Supreme Court']"
1996-08-31,More than 100 members of the Iraqi National Congress in Irbil were captured by Iraqi secret police and apparently executed. The Congress was set up by the US in 1992 as an alternative to Saddam Hussein. Thousands of opposition members made it to Turkey and were flown to Guam by the US and promised asylum in the US.,"['Iraq', 'Turkey', 'USA', 'Guam']"
1997-08-06,"Korean Air Flight 801 from Seoul, a Boeing 747-300 jumbo jet, crashed into a hillside a short distance from Guam&rsquo;s Agana International Airport killing 228 with 26 survivors. A programming glitch in the ground radar system was later identified as a contributing factor but not the cause.","['South Korea', 'Air Crash', 'Guam']"
1999-12-12,"On Guam a referendum was scheduled to choose independence, US statehood or free association status.","['USA', 'Guam', 'Marianas']"
1999-07-15,"On Guam a new strategy to control the brown tree snakes used aspirin, toxic to the snakes, inserted into frozen baby mice.","['USA', 'Guam', 'Marianas', 'Reptile']"
2001-03-23,It was reported that 22 Guam teenagers had committed suicide over the past 26 months. Members of a secretive club called Prestigious Angels promised to kill themselves if their friends would follow.,"['Suicide', 'Guam']"
2002-12-08,Typhoon Pongsona hit Guam with wind gusts of more than 180 mph. The U.S. territory was declared a federal disaster area.,"['USA', 'Guam']"
2004-03-31,"Air America Radio went live in 3 of largest US markets with a left-leaning, round-the-clock, talk format featuring Al Franken and Janeane Garofalo. Air America was conceived by Anita and Sheldon Drobny of Chicago. The idea was purchased by Guam entrepreneurs Evan M. Cohen and Rex Sorensen, who resigned May 5.","['USA', 'Chicago', 'Radio', 'Guam']"
2004-07-20,Former Guam Gov. Carl Gutierrez (1995-2003) was acquitted on charges he used government workers and public money to build and improve his cliffside ranch.,['Guam']
2005-01-07,"The nuclear submarine USS San Francisco ran aground 350 miles off the Pacific Ocean territory of Guam, injuring about 20 crew members. One died the next day.","['USA', 'Guam']"
2005-02-15,The Guam-based Citizens Security Bank (CSB) ended credit card and other services to the Bank of Marshall Islands. Residents of the Marshall Islands will be unable to use their credit cards after the central Pacific nation's leading bank was cut off from a US partner by the anti-terrorist Patriot Act.,"['Marshall Islands', 'Guam']"
2006-06-20,One of the largest US military exercises in decades got underway off Guam island in the western Pacific.,"['USA', 'Guam']"
2007-09-24,"A US navy MH60 helicopter crashed into a lake on the Pacific island of Guam, killing one crew member.","['USA', 'Air Crash', 'Guam']"
2008-02-23,"A B-2 stealth bomber crashed on take-off from the Pacific island of Guam, the first such incident involving the futuristic craft. Both pilots on board ejected safely as the 1.2-billion-dollar radar-evading plane went down at Andersen airbase.","['USA', 'Air Crash', 'Guam']"
2008-05-04,Democrat Barack Obama beat rival Hillary Clinton by just 7 votes in Guam's nominating contest after record numbers of residents voted in the tiny US territory's primary.,"['USA', 'Guam', 'ObamaB']"
2008-07-21,A US B-52 bomber that was due to fly in a Liberation Day parade in the US territory of Guam crashed into the Pacific Ocean soon after take-off. All of the bomber's six-man crew were killed.,"['USA', 'Air Crash', 'Guam']"
2009-02-17,"In Japan US Secretary of State Hillary Rodham Clinton warned North Korea against following through on a threatened missile launch, saying it would damage its prospects for improved relations with the United States and the world. Clinton also signed an agreement with Japan that will move 8,000 Marines off the southern Japanese island of Okinawa to the US territory of Guam.","['USA', 'Japan', 'North Korea', 'Guam']"
