1595-07-15,"Sir Walter Raleigh explored the South American coast from the Orinoco River to the mouth of the Amazon, an area that he called ""Guiana.""","['Venezuela', 'Britain', 'Guyana']"
1616-03-20,"Walter Raleigh was released from Tower of London to seek gold in Guiana. He took along his son Wat (22), who was killed during an attack on a Spanish outpost.","['Britain', 'Guyana']"
1949-07-15,A memorandum by Severo Mallet-Prevost was published posthumously. He had acted as junior counsel in 1899 land dispute with British Guiana and asserted that Venezuela was pressured to accept the deal or give up territory to the mouth of the Orinoco.,"['Venezuela', 'Guyana']"
1953-10-09,"British troops in Guyana deposed Dr. Jagan and charged that he and his party ""were under the complete control of a communist clique."" Dr. Jagan responded with a civil disobedience campaign and was quickly jailed for 6 months. In 2011 declassified documents revealed that the UK under PM Winston Churchill overthrew the elected government of British Guiana, later Guyana, because he feared its left-wing leader, Cheddi Jagan, and his American wife, Janet Jagan, were leading the British colony into the arms of the Soviet Union.","['Britain', 'Guyana']"
1969-07-15,In Guyana a group opposed to the government of Pres. Forbes Burnham staged an uprising in the Essequibo region. It was asserted that Venezuela had trained and armed the militants.,"['Venezuela', 'Guyana']"
1970-02-23,Guyana became a republic.,['Guyana']
1974-07-15,"In Guyana a small group of pioneers from the Peoples Temple moved to what would become Jamestown after Jim Jones acquired a 25-year lease on 3,853 acres in the Orinoco River basin.","['USA', 'California', 'Guyana', 'Religion']"
1978-07-03,"The Amazon Pact was established. Bolivia, Brazil, Colombia, Ecuador, Guyana, Peru, Suriname, and Venezuela signed the Amazon Pact, a Brazilian initiative designed to coordinate the joint development of the Amazon Basin.","['Brazil', 'Bolivia', 'Peru', 'Colombia', 'Ecuador', 'Venezuela', 'Suriname', 'Guyana']"
1978-11-18,"In Jonestown, Guyana, California Rep. Leo J. Ryan and four other people, investigating the Jim Jones cult, were killed by members of the Peoples Temple. Greg Robinson, a SF Examiner photographer, Don Harris, NBC correspondent, Bob Brown, NBC cameraman, and Patricia Parks, a temple defector, were shot dead. Congressional aide Jackie Speier survived 5 bullets. The killings were followed by a night of mass murder and suicide. 918 people died at Jonestown, including 260 children. In 1982 John Jacobs and Tim Reiterman authored ""Raven: The Untold Story of the Rev. Jim Jones and His People."" In 2010 Laura Johnston Kohl authored &ldquo;Jonestown Survivor: An Insider&rsquo;s Look.&rdquo; In 2011 survivors unveiled a memorial at Evergreen Cemetery in Oakland, Ca., with the names of all the dead.","['USA', 'California', 'Suicide', 'SF', 'Murder', 'Guyana', 'SF Bay Area', 'Journalism']"
1980-05-22,"Larry Layton, former member of the People&rsquo;s Temple, was acquitted of 2 charges of attempted murder by a jury in Georgetown, Guyana.",['Guyana']
1980-10-06,Linden Forbes Burnham (19231985) began serving as president of Guyana.,['Guyana']
1982-12-10,"The UN Law of the Sea (UNCLOS) treaty opened for signature. It extended internationally recognized territorial waters to 200 miles offshore. The convention came into force on November 16, 1994, one year after the sixtieth state, Guyana, signed it. The treaty gave countries the power to restrict fishing within 231 miles of their coasts. The convention created the International Seabed authority and the International Tribunal for the Law of the Sea.","['UN', 'Guyana', 'Fish']"
1985-08-06,"Linden Forbes Burnham (b.1923), president of Guyana, died.",['Guyana']
1992-07-15,"Fair and free elections were introduced in Guyana. Cheddi Jagan was elected president. The People&rsquo;s Progressive Party-Civic (PPP-C), supported by the Indo-Guyanese, gained power following 28 years of rule by the rival People&rsquo;s National Congress Reform (PNC-R), supported by most blacks.",['Guyana']
1997-03-06,"Dr. Cheddi Jagan (78), president of Guyana, died.",['Guyana']
1997-12-15,In Guyana Janet Jagan (77) won the elections for president.,['Guyana']
1998-07-02,"Barbados, Trinidad and Tobago, Guyana and Jamaica reported plans to establish the Caribbean Court of Justice in 1999 and planned to change their constitutions to free themselves of the British Privy Council. The effort was pushed to establish the death penalty.","['Trinidad&Tobago;', 'Jamaica', 'West Indies', 'Barbados', 'Guyana']"
1998-07-02,With Guyana in turmoil Pres. Jagan met with former pres. Hoyte in St. Lucia to make a deal that provided the opposition more say.,"['St. Lucia', 'Guyana']"
1998-10-22,In Guyana police and US anti-drug agents seized 3 tons of cocaine aboard a cargo ship bound for Europe. It was a record bust for Guyana.,"['USA', 'Guyana']"
1999-08-08,"In Guyana Pres. Janet Jagan (78) announced that she was resigning due to ill health and that Bharat Jagdeo (35), her finance minister, would succeed her.",['Guyana']
2000-12-22,"The US, Japan, Europe and other industrial powers agreed to provide debt relief to 22 poor nations: Benin, Burkina Faso, Cameroon, Gambia, Guinea, Guinea-Bissau, Madagascar, Malawi, Mali, Mauritania, Mozambique, Niger, Rwanda, Sao Tome and Principe, Senegal, Tanzania, Uganda, Zambia, Bolivia, Guyana, Honduras and Nicaragua.","['Benin', 'Bolivia', 'Honduras', 'Nicaragua', 'Burkina Faso', 'Guinea-Bissau', 'Mali', 'Niger', 'Senegal', 'USA', 'Japan', 'Cameroon', 'EU', 'Malawi', 'Rwanda', 'Mozambique', 'Uganda', 'Zambia', 'Guyana', 'Madagascar', 'Sao Tome', 'Mauritania', 'Gambia', 'Guinea']"
2001-03-19,In Guyana elections were held for the presidency and 65-seat National Assembly. Bharrat Jagdeo (37) and the People&rsquo;s Progressive Party won a 3rd consecutive term against Desmond Hoyte (72) of the People&rsquo;s National Congress. Some black voters raised accusation of fraud.,"['Guyana', 'Fraud']"
2002-04-21,"The annual environmentalist Goldman Prize winners included: Gwich'in natives Jonathan Solomon, Sarah James and Norman Kassi for their work to prevent oil drilling in the Arctic Nat'l. Wildlife Refuge; Fatima Jibrell of Somalia for her resistance to the charcoal trade threatening the local rain forests; Psit Charnsnoh of Thailand for helping to restore coastal ecosystems; Jean La Rose of Guyana for organizing resistance to mining and logging on native Arawak lands; Alexis Massol-Gonzalez of Puerto Rico for converting a mining zone to a forest reserve; and Jadwiga Lopata of Poland for promoting eco-farming.","['Arctic', 'Poland', 'Environment', 'Thailand', 'Somalia', 'Puerto Rico', 'Guyana']"
2002-07-03,"In Georgetown, Guyana, police opened fire on demonstrators who broke into the presidential compound, killing two people and wounding six others during a protest timed to coincide with the start of a Caribbean summit.",['Guyana']
2002-07-05,In Guyana the Caribbean Community trading bloc wrapped up a summit that was marred early on by violence and admitted Haiti as its 15th member.,['Guyana']
2002-09-26,"In Guyana gunmen opened fire at a bar popular with some ruling party members, killing three people and injuring seven others, including the country's chief prosecutor who was involved in a high-profile treason trial.",['Guyana']
2002-12-22,"In Guyana Desmond Hoyte (b.1929), former President (1985-1992) died.",['Guyana']
2003-09-02,"Ptolemy Alexander Reid (85), former Guyanese Prime Minister, died after suffering a stroke. Reid was named prime minister under President Forbes Burnham, and held the post from 1980 to 1984.",['Guyana']
2003-10-10,Former Guyana vice president and first lady Viola Burnham (72) died after a prolonged battle with cancer. She served as vice president and deputy PM from 1985-1991.,['Guyana']
2004-02-03,The US government revoked Guyana's Home Affairs Minister Ronald Gajraj's travel visa. He has been accused of organizing a hit squad blamed in the deaths of more than 40 suspected criminals last year.,"['USA', 'Guyana']"
2004-03-20,"In Guyana thousands marched through Georgetown, demanding the government order an independent investigation into claims of a state-sponsored hit squad blamed for more than 40 killings in the past year.",['Guyana']
2004-06-24,"George Bacchus (51), a Guyana cattle farmer who prompted an inquiry into an alleged government hit squad, was assassinated.","['Murder', 'Guyana']"
2004-07-15,"Guyana's government gave the indigenous Wai Wai control of 2,400 square miles of tropical forest and savanna, nearly half the size of Connecticut.",['Guyana']
2005-01-19,The US State Department issued a warning asking Americans to defer travel to Guyana because of flooding that has killed at least two people there over the past week.,['Guyana']
2005-03-31,"Guyana police found American missionaries Richard Hicks (42) and his wife Charlene Hicks (58) slain at a farm they rented in southwestern Guyana near the border with Brazil. In 2008 Guyana police issued arrest warrants for two Brazilians accused of the killings. Peter Marare and Aleiman Cassiano Eligenio, who were ranch hands on the couple's farm, faced one count of murder each.","['Brazil', 'USA', 'Murder', 'Guyana']"
2005-06-11,"Finance ministers from the Group of Eight industrialized nations meting in London agreed to a historic deal canceling at least $40 billion worth of debt owed by 18 of the world's poorest nations. These included: Benin, Bolivia, Burkina Faso, Ethiopia, Ghana, Guyana, Honduras, Madagascar, Mali, Mauritania, Mozambique, Nicaragua, Niger, Rwanda, Senegal, Tanzania, Uganda and Zambia.","['Benin', 'Bolivia', 'Honduras', 'Nicaragua', 'Burkina Faso', 'Mali', 'Niger', 'Senegal', 'Ghana', 'Ethiopia', 'Rwanda', 'Mozambique', 'Uganda', 'Zambia', 'Guyana', 'Madagascar', 'Mauritania', 'G8']"
2005-06-21,President Bharrat Jagdeo said Guyana will hire 600 new police officers and loosen rules on wiretapping and asset seizures as part of a strategy to fight increasing drug trafficking.,"['Guyana', 'Drugs']"
2005-09-06,"Nine countries: Antigua, Belize, Grenada, Guyana, Dominica, Suriname, St. Kitts, St. Vincent and the Dominican Republic, signed oil deals with Venezuela in Jamaica. Cuba and Jamaica had previously signed. Chavez urged Caribbean governments to consider Cuba-style socialism as an alternative to capitalism.","['Dominica', 'Belize', 'Venezuela', 'Cuba', 'Suriname', 'Antigua', 'Grenada', 'St. Vincent', 'Guyana', 'St. Kitts & Nevis', 'Dominican Rep.']"
2005-09-20,"A Guyana jury convicted Patricia Alves (43) of manslaughter for killing a friend during an exorcism ritual. Alves was found guilty of killing Kamille Seenauth (34) on Feb. 15, 2002. She allegedly beat Seenauth in an attempt to drive evil spirits out of her. On Sep 28 Alves was sentenced to 10 years in prison.","['Guyana', 'Religion']"
2005-10-28,"Guyanese lawmakers voted to raise the age of female sexual consent from 13 years old to 16, despite months of lobbying from groups who said the age should have been 18.",['Guyana']
2005-12-10,"In, Georgetown, Guyana, the body of Hubert Daniel Thompson (55), an American consultant for the US government's overseas aid agency, was found in his hotel room. Police said they suspect homicide.","['Murder', 'Guyana']"
2005-07-15,In Guyana the failure of a dam during the worst rains in a century flooded dozens of villages and parts of the capital killing 35 people.,['Guyana']
2006-01-21,"Guyana's government deployed soldiers to protect flood control gates and reservoirs after saboteurs set fire to drainage systems in coastal areas threatened by recent flooding. Since December, flooding has covered thousands of acres in waist-deep water and displaced more than 5,000 people.","['Guyana', 'Flood']"
2006-02-26,In Guyana gunmen on a rampage left 8 people dead and a dozen bystanders wounded on the outskirts of Georgetown. About 15 gunmen armed with rifles tried to rob a gas station when security guards responded. They escaped with about $40.,"['Guyana', 'Robbery']"
2006-04-22,"Gunmen burst into the home of Satyadeo Sawh (50), Guyana's agriculture minister, and fatally shot him along with two relatives and a security guard.","['Murder', 'Guyana']"
2006-06-20,A US Embassy spokesman said the United States has asked Suriname to extradite a Guyanese man wanted on drug charges in New York. Shaheed Khan was arrested June 15 by authorities in Suriname.,"['USA', 'Suriname', 'Guyana']"
2006-08-08,"Gunmen with automatic weapons stormed Kaieteur News, Guyana's largest newspaper, killing at least six people and wounding three in an attack that may have been connected to a simultaneous protest at the nation's main prison.",['Guyana']
2006-08-28,"Guyana held elections. Critics accused Guyana's government of turning a blind eye to the cocaine flowing Guyana to the US and Europe. President Bharrat Jagdeo's party appeared headed to victory in Guyana's election, according to vote results.",['Guyana']
2006-08-31,"Guyana&rsquo;s elections commission said President Bharrat Jagdeo won re-election and his ruling People's Progressive Party increased its majority in Guyana's parliament. The PPP received 183,887 votes, or about 55%, and increased its seats in parliament by two to 36.",['Guyana']
2006-12-28,"Guyana police said they had shot and killed Neil Bovell (37), the country's most wanted fugitive after he refused to surrender when they tracked him to his father's house in Georgetown.",['Guyana']
2006-07-15,"Drug trafficking accounted for up to 20% of Guyana&rsquo;s GDP, according to the US State Dept.","['Guyana', 'Drugs']"
2007-01-25,Guyana's president hired former New York City Police Commissioner Bernard Kerik as a state security adviser despite criticism in this South American country over his record of alleged ethics violations.,"['NYC', 'Guyana']"
2007-03-16,"The Inter-American Development Bank announced it would forgive $4.4 billion in debt owed by five of the poorest countries in Latin America and the Caribbean. The bank excused the foreign debts of Bolivia, Honduras, Nicaragua, Haiti and Guyana in an announcement ahead of its annual meeting.","['Haiti', 'Bolivia', 'Honduras', 'Nicaragua', 'Guyana', 'Banking']"
2007-04-11,Guyana's Pres. Bharrat Jagdeo said former NYC police commissioner Bernard Kerik has withdrawn from contracts to advise two Caribbean governments on security because of unresolved legal troubles in the United States.,"['USA', 'NYC', 'Guyana']"
2007-04-28,"Guyana police found the remains of a an elderly woman who was lynched by a crowd of villagers. She had been accused of being an &ldquo;Old Higue,&rdquo; an evil spirit who drinks the blood of human babies.",['Guyana']
2007-08-16,A conservation group said mercury used by gold miners has seeped into rivers and streams and sickened scores of Indian villagers in rural Guyana.,"['Environment', 'Guyana']"
2007-09-07,Guyana officials said pirate attacks along its rivers and Atlantic coast have prompted the South American country to set up an emergency radio network for boaters and place special markings on engines to track stolen equipment.,"['Guyana', 'Pirates']"
2007-09-20,"A UN decision awarded Guyana, rather than Suriname, most of a disputed area of coastal Atlantic Ocean, which may hold a large amount of undiscovered oil.","['Oil', 'Suriname', 'Guyana']"
2007-10-04,"The Wai Wai, an indigenous group in Guyana, backed by government decree and a US-based conservation organization, said it has banned miners and loggers from its section of the Amazon jungle and pledged to pursue an economic strategy based on ecotourism, research and traditional crafts.","['Environment', 'Guyana']"
2007-11-16,Guyana rushed troops and police to its western border a day after Venezuelan soldiers allegedly blew up two Guyanese gold-mining dredges on a river near the frontier.,"['Venezuela', 'Guyana']"
2007-12-07,"The Caribbean Community (Caricom) meeting in Guyana, agreed to open up its markets to certain European goods, on the condition that entertainment workers from the region are allowed free access to Europe.","['EU', 'Guyana', 'Caricom']"
2007-07-15,Guyana&rsquo;s Pres. Bharrat Jagdeo said that under the right circumstances he would cede his country&rsquo;s entire forest to stewardship by outsiders.,"['Guyana', 'Trees']"
2008-01-26,"In Guyana gunmen stormed into Lusignan, a coastal village, and shot dead 11 people with 5 children among the dead. Police and government officials suspected a gang led by Rondell Rawlins, a former Guyanese soldier, is behind the violence. Rawlins has accused security forces of kidnapping his pregnant 18-year-old girlfriend days ago and police say he threatened to carry out attacks until she is found.","['Murder', 'Guyana', 'Kids']"
2008-02-17,"Gunmen in Guyana killed 12 people, including three police officers, in an assault on Bartica, a small town on the Essequibo River. They invaded a police station and made off with ammunition and weapons It was the second major attack blamed on gangs in recent weeks.",['Guyana']
2008-06-16,Guyanese authorities banned imports of pit bulls into the South American nation following a spate of maulings by the breed.,['Guyana']
2008-11-02,"In Guyana American pilots James Barker and Chris Paris and Canadian technician Patrick Murphy were doing uranium survey work for Prometheus Resources Guyana Inc., a subsidiary of U308 Corporation of Toronto, Canada, when the plane went missing.","['Canada', 'USA', 'Air Crash', 'Guyana']"
2009-02-02,Guyana banned nighttime flights because of a strike by air traffic controllers. The strike began the night of Jan 30 over union demands for salary increases of 5 percent. The government says it cannot grant the pay hikes because it needs to upgrade airport safety equipment.,"['Aviation', 'Guyana']"
2009-03-28,"In Guyana Janet Jagan (88), a Chicago native who became Guyana's first white and first female president (1997), died.",['Guyana']
2009-09-14,"The leaders of Brazil and Guyana met to inaugurate the $5 million Takutu River Bridge, that is expected to boost trade between Brazil and the Caribbean. Traffic began crossing the bridge nearly two months ago but today&rsquo;s ceremony was billed as its formal commissioning.","['Brazil', 'Guyana']"
2009-11-06,"Guyanese President Bharrat Jagdeo alleged that recent arson attacks and shootings in his nation are the work of a mastermind living in the US. 3 attackers dressed as police officers firebombed a wooden, colonial-era courthouse and a nearby school on Nov 4, and later shot at two police stations, wounding one officer in the jaw and another in the ankle.","['USA', 'Guyana']"
2009-11-18,"Guyana unveiled a simple, white stone plaque with little fanfare at the jungle clearing where more than 900 members of the cult led by the American preacher Jim Jones died in a night of mass murder and suicide on Nov. 18, 1978.",['Guyana']
2010-03-14,"American rower Katie Spotz (22) completed a solo journey across the Atlantic Ocean, touching a pier in the coffee-brown waters of Guyana to claim a record as the youngest person to accomplish the feat. The athlete from Mentor, Ohio, set out from Dakar, Senegal, on Jan. 3 and endured rough seas during the 2,817-mile (4,533-km) crossing.","['USA', 'Guyana', 'World Record']"
2010-03-28,In Guyana Sangeeta Persaud (15) died after neighbors and a local pastor tried to treat her convulsions with an exorcism at a church.,['Guyana']
2010-07-16,"In Guyana the publisher of Kaieteur News vowed to fight a libel lawsuit filed by President Bharrat Jagdeo for a column that accused the president of racism and of hiring people to disrupt an academic conference. A June 28 column accused Jagdeo and his party, which is dominated by people of East Indian descent, of hiring ""goons"" to noisily disrupt a conference two days earlier.","['Guyana', 'Lawsuit', 'Journalism']"
2010-09-24,In Guyana a teenager (16) was reported missing. Police found her body Oct. 3 inside a suitcase that had been weighted down with dumbbells and tossed in a creek in the capital of Georgetown. On Oct 8 police charge the girl&rsquo;s mother Bibi Sharmina Gopaul and her lover Jarvis Small with murder.,"['Murder', 'Guyana']"
2011-01-05,"In Guyana a grenade that exploded at a bus depot in Georgetown while still in the hands of the man carrying it. He was the only person killed and was described as a Guyana native who had been released from a US prison and deported back to his home country a few years ago. 19 people were wounded by shrapnel in the explosion, including a 4-year-old boy and his 76-year-old grandmother.",['Guyana']
2011-01-13,"Guyana recognized Palestinian statehood, joining a string of other South American nations in a push for Palestinians and Israelis to negotiate a peace deal.","['Israel', 'Palestine', 'Guyana']"
2011-03-09,Guyana police Sgt. Dexter Clemenston was accused of raping and sodomizing a 19-year-old recruit after beating him unconscious at the national force's headquarters.,"['Sex', 'Guyana']"
2011-03-11,"Guyana police said they have arrested a man (22) who had taken over a high school in a rural community, where he beat students with a cane and leather belts and arbitrarily changed school hours. The man, posing as a government official, pulled off his ruse for two weeks until suspicious teachers finally called the Ministry of Education.","['Guyana', 'Education']"
2011-05-19,"Guyana police detained Akbar Muhammad, a visiting US Muslim cleric and longtime aide to Nation of Islam leader Louis Farrakhan, on suspicion of ties to drugs and terrorism. Muhammad was released by Guyanese authorities the next day and demanded an official apology from the government.","['USA', 'Guyana']"
2011-07-30,"A Caribbean Airlines jet coming from New York crashed and broke in two while landing in Guyana with 163 people aboard, causing several injuries but no deaths.","['Air Crash', 'Guyana']"
2011-10-01,"Guyana&rsquo;s Pres. Bharrat Jagdeo banned an opposition television station from broadcasting for four months for airing a slanderous comment about Bishop Juan Edghill, a close presidential associate.",['Guyana']
2011-11-28,"Guyana held elections. The East Indian-dominated People's Progressive Party led by economist Donald Ramotar (61) won the most seats, 32 of 65, but fell short of an absolute majority. Opposition parties could control the parliament if they are able to work together.",['Guyana']
2011-12-03,"Guyana's new Pres. Donald Ramotar (61) was sworn in, pledging that his minority government will work with an opposition-controlled Parliament. Ramotar replaced Bharrat Jagdeo, who served the two-term maximum set by Guyana's constitution.",['Guyana']
2011-12-06,"Guyana police fired tear gas and rubber pellets to disperse about 500 protesters demanding an election recount, a day after the home of a ruling party politician was reportedly firebombed.","['Guyana', 'Mad Crowd']"
2011-12-14,In Guyana a 34-year-old woman told reporters in the South American country that Chief Henry Greene took her to a hotel and raped her. She alleges the incident occurred in late November. The US revoked Greene's visa in 2006 over alleged links to drug trafficking. Greene was soon placed on leave and in January Jamaica sent a team of detectives to probe the rape allegations.,"['Guyana', 'Rape']"
