1973-08-02,"A flash fire killed 51 at the Summerland leisure center on the Isle of Man, UK.","['Isle of Man', 'Fire']"
1974-12-27,"Ned Mandrell (b.~1878), the last native speaker of Manx, died. The Goidelic language, similar to Irish and Scots Gaelic, was once spoken on the Isle of Man.","['Britain', 'Isle of Man', 'Language']"
2002-03-15,"William Scholl (81), creator of Dr. Scholl's sandal, died on the Isle of Man. The family shoe business was begun by his uncle, an American physician, in 1906.","['Isle of Man', 'Shoes']"
2005-02-07,"The freighter M/V Joekulfell sank in the North Atlantic off the Faeroe Islands, killing four crewmembers and leaving two others missing. Five were rescued by helicopter. The Samskip company owned the Isle of Man-flagged vessel. The vessel departed from the Latvian port of Liepaja and was headed to Iceland.","['Latvia', 'Iceland', 'Isle of Man']"
