1362-07-15,In Iceland the Oraefajokull volcano erupted. This eruption was later believed to have eclipsed the 79AD eruption of Mount Vesuvius.,"['Volcano', 'Iceland']"
1783-06-08,"In Iceland the Lakagicar volcano began erupting. Over the next 6 months it built a lava dam 40 miles long and 540 feet high in a month. The Laki volcano wiped out 75% of the crops, which led to a severe famine that killed some 10,000 people, 20% of the population, reducing the population to some 40,000 people. This was described by Haraldur Sigurdson in an article titled Volcanic Pollution and Climate: Eos 63, Aug. 10, 1982. The Laki eruption sent poisonous gases across Europe.","['Volcano', 'Iceland']"
1900-07-15,"The puffin was almost made extinct in the Westmann Islands about this time because of harvesting. The puffin was hunted for its down which was exported to Denmark. The hunting was banned for 30 years and when it was harvested again Icelanders started using a hunting method from the Faroe Islands, where the puffins are caught in a net on a long pole.","['Denmark', 'Iceland', 'Animal']"
1946-07-15,"Halldor Laxness (1902-1998) of Iceland published ""Independent People."" It helped him win the Nobel Prize in literature in 1955.","['Writer', 'Iceland']"
1949-04-04,"The (NATO) North Atlantic Treaty Organization pact was signed by the US, Great Britain, France, Belgium, the Netherlands, Luxembourg, Italy, Portugal, Denmark, Iceland, Norway and Canada. It provided for mutual defense against aggression and for close military cooperation.","['Italy', 'Belgium', 'Portugal', 'Canada', 'Britain', 'USA', 'France', 'NATO', 'Netherlands', 'Luxembourg', 'Denmark', 'Norway', 'Iceland']"
1955-07-15,"Halldor Laxness (1902-1998), Icelandic author, won the Nobel Prize in Literature. His 1946 novel ""Independent People"" helped him win the prize.","['Nobel Prize', 'Writer', 'Iceland']"
1972-08-17,The International Tribunal in The Hague pronounced that the Icelanders did not have sovereignty over the areas between 12 and 50 miles. The Icelandic government protested and decided to take no notice of this decree.,"['Netherlands', 'Iceland', 'Fish']"
1972-09-01,"American Bobby Fischer won the international chess crown in Reykjavik, Iceland, defeating Boris Spassky of the Soviet Union.","['Russia', 'USA', 'USSR', 'Iceland', 'Chess']"
1973-01-23,"Helgafell, an island of Heimaey, Iceland, erupted for the 1st time in 7,000 yrs.","['Volcano', 'Iceland']"
1974-07-15,Sigurdur Hjartarson began collecting penis memorabilia. In 1997 he opened his Icelandic Phallological Museum in Reykjavik.,"['Sex', 'Iceland', 'Museums']"
1974-07-15,Iceland completed its first road around the island.,['Iceland']
1975-10-15,Iceland moved its intl. boundary for fishing rights from 50 to 200 miles.,"['Iceland', 'Fish']"
1976-06-02,Great-Britain & Iceland terminated their codfish war. It was agreed that only 24 British vessels would be allowed in the 200 mile zone and four conservation areas would be completely closed to the British.,"['Britain', 'Iceland', 'Fish']"
1976-07-15,"Rabbits were imported to Iceland from Spain about this time. Some were later released into the wild and began to compete with the native puffin birds, which breed in burrows.","['Spain', 'Iceland', 'Animal']"
1978-11-25,An Icelandic DC-8 jet crashed and killed 183 Muslim pilgrims in Sri Lanka.,"['Air Crash', 'Sri Lanka', 'Iceland']"
1980-08-01,In Iceland Vigdis Finnbogadottir (b.1930) began serving as president and the world&rsquo;s first female head of state. She was re-elected 3 times and retired in 1996.,"['Women', 'Iceland']"
1986-10-11,"President Reagan and Soviet leader Mikhail S. Gorbachev opened two days of talks concerning arms control and human rights in Reykjavik, Iceland.","['Russia', 'USA', 'USSR', 'Iceland', 'ReaganR']"
1986-10-12,"The superpower meeting in Reykjavik, Iceland, ended in stalemate, with President Reagan and Soviet leader Mikhail S. Gorbachev unable to agree on arms control or a date for a full-fledged summit in the United States. Reagan's plans for Star Wars caused his summit meeting with Gorbachev in Iceland to fail.","['Russia', 'USA', 'USSR', 'Iceland', 'Space', 'ReaganR']"
1989-07-15,Iceland stopped whaling.,"['Iceland', 'Whales']"
1989-07-15,"Jon Asgeir Johannesson (20) and his unemployed father opened a discount grocery store, Bonus, in Reykjavik, Iceland. Until this time dominant grocery chains had kept food prices high throughout the nation.",['Iceland']
1991-02-11,The parliament of Iceland confirmed that the recognition of Lithuania from 1922 was fully valid and that diplomatic relations would be established as soon as possible.,"['Lithuania', 'Iceland']"
1991-07-15,David Oddsson became prime minister of Iceland.,['Iceland']
1992-03-05,"In Copenhagen the Ministers for Foreign Affairs of Denmark, Estonia, Finland, Germany, Latvia, Lithuania, Norway, Poland, Russia and Sweden, in the presence of the representative from the European Commission, opened a 2-day meeting and decided to establish a Council of the Baltic Sea States to serve as a forum for guidance and overall coordination among the participating states. Iceland joined the CBSS in 1995","['Russia', 'Germany', 'Poland', 'Estonia', 'Latvia', 'Lithuania', 'Sweden', 'Finland', 'Denmark', 'Norway', 'Iceland']"
1992-07-15,Iceland left the Int&rsquo;l. Whaling Commission when a resolution was passed to outlaw commercial whaling.,"['Iceland', 'Whales']"
1993-07-15,"Bjorgolfur Bjorgolfsson (26) left Iceland and started a soft-drink company in St. Petersburg, Russia. He later expanded into brewing, banking, telecommunications and discount pharmaceuticals. By 2006 his stake in the Iceland-based Actavis Group was valued at $1 billion, making him Iceland&rsquo;s first billionaire.","['Russia', 'Pharma', 'Iceland', 'Telecom', 'Cola']"
1996-06-27,Gay marriages were legalized in Iceland.,"['Gays', 'Iceland']"
1996-06-30,"In Iceland Olafur Ragnar Grimsson, a left-wing career politician, claimed victory in presidential elections.",['Iceland']
1997-05-10,It was reported that Iceland would resume whaling. Whaling had stopped there in 1989.,"['Iceland', 'Whales']"
1997-07-15,"The Icelandic Phallological Museum opened in Reykjavik. It later moved to the quiet fishing village of Husavik, 480 km (298 miles) northeast of the capital. Sigurdur Hjartarson began his collection in 1974 with a single bull's penis that looked something like a riding crop. By 2008 it included 261 preserved members from 90 species.","['Sex', 'Iceland', 'Museums']"
1998-02-08,"In Iceland Halldor Laxness (b.1902), novelist and Nobel Prize winner, died at age 95. His books included ""Independent People"" (1946), ""the Great Weaver of Cashmere,"" ""Salka Valka,"" ""The Atom Station,"" and ""Paradise Reclaimed.""","['Nobel Prize', 'Writer', 'Iceland']"
1998-09-10,"Keiko the killer whale, star of the 1993 ""Free Willy"" movie, was returned to Iceland, where he was captured in 1979 at age 2. Much of his early life was spent at a Mexico City amusement park.","['Mexico', 'Iceland', 'Whales']"
1998-10-12,"Canada planned to begin discussion with Norway, Sweden, Iceland and Liechtenstein for the first trans-Atlantic free-trade pact.","['Canada', 'Sweden', 'Norway', 'Iceland', 'Liechtenstein']"
1999-03-10,In Iceland the parliament passed a resolution to resume whale hunting within its territorial waters.,"['Iceland', 'Whales']"
2000-02-27,In Iceland the Mount Hekla volcano erupted.,"['Volcano', 'Iceland']"
2001-03-06,Two American women died when their twin-engine plane crashed after take-off from Iceland. They were on their way to Britain for a long-distance air race.,"['USA', 'Iceland']"
2002-05-20,In Japan the Int'l. Whaling Commission rejected Iceland's bid for full membership for a 2nd year in a row.,"['Japan', 'Iceland', 'Whales']"
2003-04-24,Iceland opened a filling station for hydrogen-powered vehicles.,"['Cars', 'Iceland']"
2003-05-10,"Iceland voters re-elected David Oddsson, Europe's longest serving prime minister supporting his conservative economic policies rather than the progressive spending plans of the former Reykjavik mayor.",['Iceland']
2003-05-22,"Iceland PM David Oddsson announced that he will step down in September 2004 in favor of the current foreign minister, who leads the other party in his coalition government.",['Iceland']
2003-08-17,"Iceland launched its first whale hunt in more than a decade in the name of scientific research. The US, Britain and several other governments opposed to whaling labeled the hunt unnecessary.","['Iceland', 'Whales']"
2004-01-11,"Danish and Icelandic troops reported a cache of 36 shells buried in the Iraqi desert, and preliminary tests showed they contained a liquid blister agent. The 120mm mortar shells are thought to be left over from the eight-year war between Iraq and neighboring Iran, which ended in 1988.","['Iraq', 'Iran', 'Denmark', 'Iceland']"
2004-05-24,It was reported that Alcoa planned to build a $1 billion aluminum smelter on the island of Trinidad and another in Iceland.,"['Trinidad&Tobago;', 'Iceland']"
2004-08-16,The children&rsquo;s TV show &ldquo;Lazytown&rdquo; made its US premier. Magnus Scheving spent over a decade building the brand in Iceland before moving overseas.,"['USA', 'TV', 'Iceland', 'Kids']"
2004-07-15,Halldor Asgrimson took over as PM of Iceland.,['Iceland']
2004-07-15,"Iceland&rsquo;s PM David Oddsson pushed through a media law aimed at limiting Baugur&rsquo;s interests. Baugur had large retailing interests and in the fall purchased Denmark&rsquo;s Magasin de Nord department-store group. Oddsson, Europe's longest-serving prime minister, stepped down this year following 13-year tenure that transformed Iceland with a strong dose of free market medicine.",['Iceland']
2005-02-07,"The freighter M/V Joekulfell sank in the North Atlantic off the Faeroe Islands, killing four crewmembers and leaving two others missing. Five were rescued by helicopter. The Samskip company owned the Isle of Man-flagged vessel. The vessel departed from the Latvian port of Liepaja and was headed to Iceland.","['Latvia', 'Iceland', 'Isle of Man']"
2005-03-21,Iceland's Parliament awarded citizenship to chess champion Bobby Fischer.,"['Iceland', 'Chess']"
2005-03-24,Chess legend Bobby Fischer walked free from a Japanese detention center and immediately headed to the airport to fly to his new home in Iceland.,"['Japan', 'Iceland', 'Chess']"
2005-07-01,"Police in Iceland charged Jon Asgeir Johannesson, multimillionaire and CEO of Baugur, with fraud. Baugur was taken private in 2003. In October the Supreme Court dismissed 32 of 40 charges. A district court acquitted him of the remaining 8 charges in March, 2006.","['Iceland', 'Fraud']"
2005-10-18,"Transparency International ranked Bangladesh and Chad as the most corrupt on an annual list of corruption levels in 159 nations. At the other end of the scale, Iceland was ranked least corrupt. Turkmenistan, Myanmar, Haiti, Nigeria, Equatorial Guinea, the Ivory Coast and Angola joined Chad and Bangladesh as the most corrupt countries.","['Angola', 'Haiti', 'Bangladesh', 'Ivory Coast', 'Chad', 'Myanmar', 'Nigeria', 'Equatorial Guinea', 'Turkmenistan', 'Iceland', 'Corruption']"
2005-12-10,"Miss Iceland, Unnur Birna Vilhjalmsdottir (21), an anthropology and law student and part-time policewoman, was crowned Miss World on the southern Chinese resort island of Hainan.","['China', 'Iceland']"
2006-06-05,Iceland's PM Halldor Asgrimsson (58) announced he was stepping down in the wake of his party's poor performance in recent local elections.,['Iceland']
2006-06-15,"Geir Haarde became Iceland's new prime minister, marking a return to the office for Iceland's largest political party and a likely shift toward a tighter fiscal policy.",['Iceland']
2006-09-08,The United States Naval Air Station Keflavik (NASKEF) closed at Iceland&rsquo;s Keflavik Int&rsquo;l. Airport.,"['USA', 'Iceland']"
2006-10-17,"Iceland said it would resume commercial whaling after a nearly two-decade moratorium, defying a worldwide ban on hunting the mammals for their meat.","['Iceland', 'Whales']"
2006-11-06,"Transparency International, a watchdog group, reported that nearly three-quarters of 163 countries ranked in a new survey suffer from a perception of serious corruption, while in nearly half it is seen as rampant. Finland, Iceland and New Zealand ranked as the least corrupt, while Haiti, Guinea and Myanmar ranked as most corrupt.","['Haiti', 'Myanmar', 'Finland', 'New Zealand', 'Iceland', 'Guinea', 'Corruption']"
2006-11-24,"Fishing nations led by Iceland and Russia blocked UN negotiators from imposing a full-fledged ban against destructive bottom trawling on the high seas. After weeks of talks in New York, a United Nations committee that oversees high seas fisheries failed to gain unanimous support this week for ending unregulated bottom trawling.","['Russia', 'UN', 'Iceland', 'Fish']"
2007-04-22,The annual Goldman Environmental Prizes were announced on Earth Day. The winners included Julio Cusurichi of Peru for his work to fight illegal logging; Willie Corduff of Ireland for his work to halt an energy project that disregarded local and environmental concerns; Sophia Rabliauskas of Canada for her work to help protect the boreal forest in Manitoba; Orri Vigfussen of Iceland for his work on the North Atlantic Salmon Fund; Ts. Munkhbayar for his work against unregulated mining in Mongolia; and Hammerskjoeld Simwinga for his work in organizing microloan programs in Zambia.,"['Peru', 'Canada', 'Environment', 'Mongolia', 'Ireland', 'Zambia', 'Iceland']"
2007-05-13,Icelandic PM Geir Haarde's centre-right Independence Party came out on top in weekend general elections but it was unclear if his coalition government will stay in power.,['Iceland']
2007-10-09,"In Iceland Yoko Ono urged the world to give peace a chance as she unveiled a monument in memory of her husband, former Beatle John Lennon (d.1980). Ono lit up the Imagine Peace Tower on Videy island near the capital's harbor on what would have been Lennon's 67th birthday.","['Pop&Rock;', 'Iceland', 'Beatles']"
2007-11-08,"Nordic countries again dominated the World Economic Forum's ranking of gender-equal countries. New Zealand squeezed into the top five and the US fell to 31st place. Sweden, Norway, Finland and Iceland retained the top four spots in the 2007 Gender Gap Index released by the Swiss-based think tank.","['Switzerland', 'Sweden', 'Finland', 'New Zealand', 'Norway', 'Iceland', 'Sociology']"
2007-11-27,"Iceland has overtaken Norway as the world's most desirable country to live in, according to an annual UN table that again puts AIDS-afflicted sub-Saharan African states at the bottom.","['Africa', 'Iceland', 'Norfolk Island']"
2008-01-17,"Bobby Fischer (b.1943), the reclusive chess genius, died in Iceland. He became a Cold War hero by dethroning the Soviet world champion in 1972 and later renounced his American citizenship.","['Iceland', 'Chess']"
2008-05-20,Whale hunting season began in Iceland as the country's first whaling ship of the year set sail in defiance of a worldwide moratorium on the practice.,"['Iceland', 'Whales']"
2008-09-29,"Britain seized control of mortgage lender Bradford & Bingley. Germany organized a credit lifeline for blue-chip commercial real estate lender Hypo Real Estate Holding AG, while Iceland's government took over Glitnir bank, the country's third largest.","['Britain', 'Germany', 'Iceland', 'Banking']"
2008-10-05,Iceland&rsquo;s government and banks scrambled to rescue the country&rsquo;s banking system. Its economy was one of the hardest hit by the global financial crises.,"['Iceland', 'Economics', 'Banking']"
2008-10-07,Iceland nationalized its second-largest bank under day-old legislation and negotiated a euro4 billion ($5.4 billion) loan from Russia to shore up the nation's finances amid a full-blown financial crisis.,"['Russia', 'Iceland', 'Banking']"
2008-10-08,Britain added to the financial chaos engulfing Iceland by declaring it planned to sue over lost deposits held by thousands of Britons with Icelandic bank accounts. The news from London overshadowed an emergency loan from Sweden to Iceland's biggest bank.,"['Britain', 'Iceland']"
2008-10-09,"Iceland suspended trading on its stock exchange for two days and took control of the country's largest bank, the third to be placed under its protective umbrella, as it grappled with a banking crisis that is threatening to engulf the entire country.","['Iceland', 'Economics', 'Banking']"
2008-10-14,Iceland's blue chip stocks plunged 77 percent when trading reopened on after a near week-long suspension and an official delegation from the island sought Russian help in saving the economy from collapse.,"['Iceland', 'Economics']"
2008-10-15,Iceland moved to shore up its ravaged economy by slashing borrowing costs and officials pursued efforts to get help from Russia in tackling the worst financial crisis in the island's history.,"['Iceland', 'Economics']"
2008-10-24,"Iceland, where the financial system has all but collapsed, reached a deal with the IMF for $2 billion to help fix its broken banking system, restart currency trading and soften the blow from the global downturn.","['IMF', 'Iceland', 'Big Money']"
2008-10-28,"Iceland&rsquo;s PM Geir Haarde said his country needs about $6 billion in loans to recover from the financial meltdown, just as the country's central bank separately hiked its interest rates by a massive 6 percentage points to 18%.","['Iceland', 'Economics']"
2008-11-17,Iceland moved to secure $6 billion in loans to refloat its collapsed financial system as Britain said it would welcome a government promise to guarantee its citizens' deposits in collapsed internet bank Icesave.,"['Britain', 'Iceland', 'Banking']"
2008-11-19,"The IMF approved a two-year, $2.1 billion support program for Iceland designed to restore confidence and stabilize the country's shattered economy.","['IMF', 'Iceland', 'Big Money']"
2008-11-20,Finland's Finance Ministry said four Nordic countries will lend Iceland $2.5 billion (euro1.98 billion) to help the country recover from its economic meltdown.,"['Finland', 'Iceland', 'Big Money']"
2009-01-26,"Iceland's coalition government collapsed, leaving the island nation in political turmoil amid a financial crisis that has pummeled its economy and required an international bailout to keep the country afloat.",['Iceland']
2009-01-27,Iceland's center-left Social Democratic Alliance Party was chosen to lead the country following the collapse of the island nation's government amid deep economic troubles and intense political discord.,['Iceland']
2009-01-27,"Iceland raised it quota on whale hunting to 250 a year, a dramatic increase over past levels.","['Wales', 'Iceland']"
2009-01-28,"In Iceland both parties of the new coalition government supported the appointment of social affairs minister Johanna Sigurdardottir (66), an openly gay former air hostess, as interim prime minister.","['Gays', 'Iceland']"
2009-02-08,"Sigurdur Helgason (b.1921), former Icelandic airline CEO (1974-1984), died on the Caribbean private island of Mustique. He pioneered cheap flights that carried legions of backpackers between Europe and the United States in the 1960s and '70s.","['Aviation', 'St. Vincent', 'Iceland']"
2009-03-09,"The Icelandic government took control of Straumur Burdaras Investment Bank hf., the last of the major Icelandic banks to collapse after running out of liquidity.","['Iceland', 'Banking']"
2009-04-25,"Icelanders voted in an early parliamentary election. Iceland's leftist coalition won the country's general election, a blow for the pro-business Independence Party that many blamed for the collapse of the country's banking system. Johanna Sigurdardottir, the acting prime minister, was expected to be named prime minister.",['Iceland']
2009-07-16,Iceland&rsquo;s Althingi (parliament) voted 33 to 28 to apply to join the EU.,"['EU', 'Iceland']"
2009-07-23,"Iceland formally applied to join the European Union but said it would not accept a ""rotten deal"" for its fishing industry, a key sector of the island nation's troubled economy.","['EU', 'Iceland']"
2009-08-28,Iceland's parliament approved a controversial deal to pay back billions of euros (dollars) lost by British and Dutch savers in the collapse of the online Icesave bank. The deal provided for the payment of 3.8 billion euros by 2023 to the British and Dutch governments for the compensation they forked out to disgruntled savers.,"['Britain', 'Netherlands', 'Iceland', 'Big Money', 'Banking']"
2010-01-05,"Iceland&rsquo;s Pres. Olafur Ragnar Grimsson rejected a bill passed by parliament on Dec 30 on a state guarantee for &euro;3.9 billion owed to British and Dutch governments. This amount would cover compensation paid to savers in those countries following the collapse of Landsbanki and its internet-banking scheme, Icesave, one of three stricken Icelandic banks nationalized in October 2008.","['Britain', 'Netherlands', 'Iceland', 'Banking']"
2010-03-06,Icelanders voted in a referendum on a $5 billion deal to repay Anglo-Dutch loans. The referendum resoundingly rejected a deal to pay Britain and The Netherlands billions for losses in the Icesave bank collapse.,"['Britain', 'Netherlands', 'Iceland', 'Economics', 'Big Money', 'Banking']"
2010-03-21,"In southern Iceland a volcano erupted overnight, forcing some 600 hundred people to evacuate the area and diverting flights after authorities declared a local state of emergency.","['Volcano', 'Iceland']"
2010-03-24,"Iceland&rsquo;s parliament voted to ban striptease shows, making it an offense for any business to profit from the nudity of its employees. The ban takes effect on 1 July.","['Sex', 'Iceland']"
2010-04-06,Moody's Investor Service downgraded Iceland's debt ratings outlook to negative from stable over concerns about the tiny island nation's ability to tap the foreign credit it needs to stay afloat.,"['Iceland', 'Economics']"
2010-04-14,"In Iceland a volcano under the Eyjafjallajokull glacier erupted for the second time in less than a month, melting ice, shooting smoke and steam into the air, closing a major road and forcing hundreds of people to flee rising floodwaters.","['Volcano', 'Iceland']"
2010-04-15,"British airport operator BAA Ltd. said all flights at London's Heathrow Airport have been suspended for the rest of the day, causing travel chaos as ash clouds from Iceland's spewing volcano halted air traffic across Europe.","['Britain', 'EU', 'Volcano', 'Iceland']"
2010-04-16,"Volcanic ash blanketed parts of rural Iceland and left a widening arc of grounded aircraft across Europe, as thousands of planes stayed on the tarmac to avoid the hazardous cloud. Travel chaos engulfed major European cities and the UN warned of possible health risks from falling ash.","['Aviation', 'Volcano', 'Iceland']"
2010-04-17,"A lingering volcanic ash plume forced extended no-fly restrictions over much of Europe, as Icelandic scientists warned that volcanic activity had increased and showed no sign of abating, a portent of more travel chaos to come. Nearly 17,000 flights to and from Europe were cancelled out of about 22,000 on a normal day.","['EU', 'Aviation', 'Volcano', 'Iceland']"
2010-04-19,The chief of British Airways said test flights have proven that the blanket restrictions EU governments have imposed on flights because of volcanic ash are unnecessary. The airline industry said it has lost at least $1 billion due to five days of closed airports. A senior Western diplomat says several NATO F-16 fighters suffered engine damage after flying through the volcanic ash cloud covering large parts of Europe.,"['Britain', 'NATO', 'Aviation', 'Volcano', 'Iceland']"
2010-05-04,"Iceland's volcanic ash renewed its threat to European air space, forcing Ireland to shut services temporarily for the first time in 12 days. Ireland and Britain lifted flight restrictions after temporarily closing airspace due to the return of ash.","['Britain', 'Ireland', 'Aviation', 'Volcano', 'Iceland']"
2010-05-21,"Norwegian browser developer Opera Software said it is moving its data processing capacity to a newly-built center in Iceland, one of the first foreign investment deals for the crisis-hit island as it tries to rebuild its economy.","['Internet', 'Norway', 'Iceland']"
2010-06-17,"Iceland&rsquo;s parliament voted to create what supporters hoped will be the world&rsquo;s strongest protections for free speech and journalism, passing measures intended to make Iceland a safe haven for investigative reporting.","['Iceland', 'Journalism']"
2010-06-27,Iceland's PM Johanna Sigurdardottir (68) married her partner under a new law legalizing same-sex marriage in the country.,"['Gays', 'Iceland']"
2010-07-05,Authorities in Iceland have exhumed the body of American chess champion Bobby Fischer to determine whether he is the father of a 9-year-old girl from the Philippines.,"['Iceland', 'Chess']"
2010-11-01,"Icelandic Meteorological Office geophysicist Gunnar Gudmundsson said that floodwater is coming from the subglacial Grimsvotn volcano, but there are no signs of the underground tremors that would signal an eruption.","['Volcano', 'Iceland']"
2010-07-15,Sigurdur Gylfi Magnusson authored &ldquo;Wasteland With Words: A Social History of Iceland.&rdquo;,"['Iceland', 'Books']"
2010-07-15,"Gunnar Wetterberg, Swedish historian, authored &ldquo;The Nordic Federal State,&rdquo; which proposed a pan-Nordic federation to unite Denmark, Finland, Iceland, Norway, and Sweden under a single monarch: Denmark&rsquo;s Queen Margrethe.","['Sweden', 'Historian', 'Finland', 'Denmark', 'Norway', 'Iceland', 'Books']"
2011-02-20,"Iceland's Pres. President Olafur R. Grimsson triggered a referendum on an updated plan to pay $5 billion to Britain and Netherlands for debts incurred from the financial crisis, creating new uncertainty over the island's economic recovery.",['Iceland']
2011-04-09,"Icelanders voted in a referendum on whether the nation will repay Britain and the Netherlands in full for compensating their citizens who had deposits in Icesave, a failed online bank. Voters rejected the government-backed deal, sending the dispute to an int&rsquo;l. court.","['Britain', 'Netherlands', 'Iceland', 'Banking']"
2011-05-12,"Arctic Council members signed an agreement in Greenland to coordinate search and rescue operations and pledged to create int&rsquo;l. protocols to prevent and clean up offshore oil spills. The 8 members included the Canada, Denmark, Finland, Iceland, Norway, Russia, Sweden and the USA.","['Arctic', 'Russia', 'Canada', 'USA', 'Oil', 'Sweden', 'Finland', 'Denmark', 'Norway', 'Iceland']"
2011-05-22,"Iceland closed its main international airport and canceled all domestic flights as the Grimsvotn volcano sent a plume of ash, smoke and steam 12 miles (20 km) high.","['Volcano', 'Iceland']"
2011-05-24,"About 250 flights to northern Britain were canceled over concerns about the ash cloud spewing from an Icelandic volcano, but British and Irish officials dismissed fears of a mass shutdown of airspace.","['Britain', 'Aviation', 'Volcano', 'Iceland']"
2011-06-22,"Mob boss James ""Whitey"" Bulger (81) was captured near Los Angeles, along with longtime girlfriend Catherine Greig, after 16 years on the run that embarrassed the FBI and exposed the bureau's corrupt relationship with its underworld informants. Anna Bjornsdottir, a one-time model and Miss Iceland 1974, was later paid a $2 million reward for the tip that led to Bulger's arrest. She had gotten to know Bulger's girl friend Catherine Greig after the two women both took a shared interest in a local stray cat in Santa Monica.","['USA', 'California', 'FBI', 'Mafia', 'Iceland']"
2011-10-01,"Icelanders, angry over citizen costs for the country&rsquo;s economic crises, pelted lawmakers with eggs during a protest at the opening of the new parliamentary session in Reykjavik.",['Iceland']
2011-11-25,"Iceland's interior ministry said it had rejected an application by Huang Nubo's Zhongkun Group to buy 120 square miles (30,639 hectares) of land on the north shore of Iceland for a vast nature retreat in a deal that would have been worth about 1 billion Icelandic kronur ($8.8 million). On Nov 27 Huang said the rejection was indicative of anti-Chinese attitudes in the West.","['China', 'Iceland']"
2011-12-15,"Iceland formally recognized the Palestinian state at a ceremony in Reykjavik, becoming one of the few Western European countries and NATO members to do so.","['Palestine', 'Iceland']"
