1926-07-15,"Firestone Tire and Rubber Co. created the world's largest plantation at Harbel, Liberia, and rubber became the backbone of the economy. Firestone had signed a 99-year concession agreement with the Liberian government in the 1920s to grow and export rubber.","['USA', 'Liberia']"
1948-01-28,"Charles Taylor, later president of Liberia (1997-2003), was born in Arthington, Liberia, into a family descended from freed American slaves.",['Liberia']
1971-07-13,"William Tolbert (1913-1980), the vice-president since 1951, succeeded William Tubman as president of Liberia and continued his policies until his own death in 1980.",['Liberia']
1973-10-03,"Sierra Leone&rsquo;s President Stevens engineered the creation of the Mano River Union, an economic federation of Sierra Leone and Liberia. Guinea joined in 1980.","['Liberia', 'Sierra Leone', 'Guinea']"
1975-05-25,"ECOWAS Treaty1 was signed. The Economic Community of West African States (ECOWAS) was formed in Nigeria with 15 members that included: Benin, Burkina Faso, Cape Verde, Cote d'Ivoire, Gambia, Ghana, Guinea, Guinea-Bissau, Liberia, Mali, Niger, Nigeria, Senegal, Sierra Leone, and Togo.","['Benin', 'Burkina Faso', 'Guinea-Bissau', 'Ivory Coast', 'Mali', 'Niger', 'Senegal', 'Togo', 'Liberia', 'Sierra Leone', 'Ghana', 'Nigeria', 'Gambia', 'Guinea', 'ECOWAS', 'Cape Verde']"
1976-12-21,"The Liberian-registered tanker Argo Merchant ran aground near Nantucket Island, spilling millions of gallons of oil into the North Atlantic.","['USA', 'Oil', 'Environment', 'Liberia', 'Ship']"
1980-04-12,"In Liberia Master Sergeant Samuel K. Doe (1951-1990) of the Krahn tribe staged a coup. Doe, a high school dropout, and a few soldiers killed Pres. William Tolbert and fatally shot a dozen of his ministers. He was backed by the US and became one of Liberia&rsquo;s most brutal dictators.","['USA', 'Liberia']"
1980-05-09,"In Florida 35 motorists were killed when a Liberian-flagged freighter rammed the Sunshine Skyway Bridge over Tampa Bay, causing a 1,400-foot section of the bridge to collapse.","['USA', 'Liberia', 'Florida', 'Tragedy', 'Ship']"
1981-06-27,"The African States members of the Organization of African Unity, meeting in Liberia, adopted a Charter on Human and People&rsquo;s Rights. Article 5 specifically prohibited slavery. It became effective as of October 21, 1986.","['Liberia', 'Africa', 'Black History', 'Slavery']"
1983-07-15,Charles Taylor fled Liberia after being accused of embezzling nearly US$1 million. He was later detained in the United States on a Liberian arrest warrant.,"['USA', 'Liberia']"
1984-07-15,In Liberia Samuel Doe allowed the return of political parties under pressure from the US.,['Liberia']
1985-07-15,"Charles Taylor escaped from a Plymouth County jail in Massachusetts while awaiting extradition to Liberia, where he was accused of embezzling money as an official in the dictatorship of Samuel Doe. He went to Libya received military training as a guest of Col. Moammar Khadafy. Taylor met Foday Sankoh, a corporal from Sierra Leone while training in Libya.","['Libya', 'Liberia', 'Sierra Leone', 'Massachusetts']"
1985-07-15,In Liberia national elections were held and Samuel Doe was elected president.,['Liberia']
1989-12-24,"Charles Taylor, a member of the Gio tribe and a former cabinet minister under Samuel Doe, led a small group of fighters across the border from the Ivory Coast into Liberia. Within a few months he had looted and terrorized much of the countryside and reached the capital. Taylor led the NPFL or National Patriotic Front. The NPFL was composed mainly of the Mano and Gio tribes from northern Nimba County.","['Ivory Coast', 'Liberia']"
1990-07-23,"As rebel forces closed in on presidential palace, Liberian President Samuel K. Doe refused to leave until the civil war was decided. Charles Taylor tried to take Monrovia in this year. He had begun the war in Liberia from the Ivory Coast in 1989.",['Liberia']
1990-07-30,"In Monrovia, Liberia, soldiers opened fire on worshippers in church over 600 Gios and Manos were killed.",['Liberia']
1990-09-09,Liberian dictator Pres. Samuel K. Doe was killed after being captured by rebels led by Prince Johnson. Doe was tortured by rivals and bled to death after an ear was cut off. The remains of Doe&rsquo;s Krahn-dominated army composed the AFL or Armed Forces of Liberia.,['Liberia']
1991-07-15,RUF guerrillas including Sam Bockerie invaded Sierra Leone from Liberia. Charles Taylor formed the guerrillas in 1989.,"['Liberia', 'Sierra Leone']"
1992-07-15,"In West Africa ULIMO, The United Movement of Liberia arose as a guerilla force to stop cooperation between Sierra Leone&rsquo;s rebel leader Foday Sankoh and Charles Taylor.","['Liberia', 'Sierra Leone']"
1993-01-05,"The Braer, a Liberian-registered tanker, ran aground in Scotland's Shetland Islands, spilling some 26 million gallons of light crude oil.","['Oil', 'Environment', 'Liberia', 'Scotland', 'Ship']"
1993-06-06,The Armed forces of Liberia (AFL) killed some 600 refugees at Harbel.,"['Liberia', 'Military Amuck']"
1994-07-15,In Liberia ULIMO split into two factions: ULIMO-K and ULIMO-J. ULIMO-K was composed of members of the Mandingo ethnic group. ULIMO-J was made up of ethnic Krahn led by Roosevelt Johnson.,['Liberia']
1994-07-15,"In Liberia Charles Taylor enlisted Joshua Milton Blahyi, aka Gen&rsquo;l. Butt Naked, into his force. After the fighting Gen&rsquo;. Naked resumed his birth name and turned into an evangelical preacher.",['Liberia']
1995-08-20,"Liberian warlords agreed in Nigeria to end hostilities in six-year old civil war, which had killed 150,000 people. The Economic Community of West African States brokered a peace treaty between two warring movements.","['Liberia', 'Nigeria', 'ECOWAS']"
1996-04-06,"Fighting and looting began in Monrovia, Liberia, and a six year civil war resumed between rival ethnic groups. Supporters of Roosevelt Johnson faced off against  the ruling council of state, which sacked Johnson as rural development minister and ordered his arrest for murder. Johnson accused Charles Taylor of violating the Abuja accord of August, which set up a transitional government.",['Liberia']
1996-05-27,In Liberia the military militias completed their withdrawal from Monrovia.,['Liberia']
1996-06-11,A rusty Russian freighter carrying hundreds of Liberian refugees remained at sea after Ghana refused to let it dock.,"['Russia', 'Liberia', 'Ghana']"
1996-06-17,"In Liberia health workers have dug up an additional 150 bodies, many of them headless, along the beach at Mamba Point. Exhumations started 2 weeks ago and about 500 bodies have been found and reburied.",['Liberia']
1996-09-07,"Emergency food from the World Food Program reached Tubmanburg, Liberia, where half the 35,000 population suffered from extreme hunger.",['Liberia']
1997-01-31,"In Liberia this was the deadline for some 14,000 rebels to hand in their weapons.",['Liberia']
1997-06-03,"Reinforcements from a peace-keeping force in Liberia were sent in to help Nigerian troops against the insurrectionist troops of Sierra Leone. After a bloody coup, 1,200 foreigners fled Sierra Leone aboard an American warship.","['USA', 'Liberia', 'Sierra Leone', 'Nigeria']"
1997-07-15,"In Liberia pres. candidate Ellen Johnson-Sirleaf (58), a banker and UN official, led a women&rsquo;s solidarity march. She had recently emerged as the leading rival of warlord Charles Taylor.",['Liberia']
1997-07-22,In Liberia results from the election showed Charles Taylor in the lead with about 75 of the vote.,['Liberia']
1997-09-08,"In Liberia some 200,000 refugees from Sierra Leone had spilled over from escalating violence.","['Liberia', 'Sierra Leone']"
1997-12-04,"In Liberia Samuel Dokie, an opposition politician, was found slain in Bong County with his wife and bodyguard. He had been reported missing after being arrested by security men in Pres. Taylor&rsquo;s stronghold of Gbarnga.",['Liberia']
1998-06-03,"From Sierra Leone it was reported that 243,000 refugees had fled to camps in Liberia and Guinea in terror of the ousted junta&rsquo;s loyalists.","['Liberia', 'Sierra Leone', 'Guinea']"
1998-09-19,"In Liberia fighting in Monrovia left at least 33 dead as the government tried to arrest Roosevelt Johnson, former rebel leader. The next day he was accused of plotting against Pres. Taylor and fled to the US Embassy.",['Liberia']
1998-09-25,In Liberia the US transported Roosevelt Johnson out of the country to Sierra Leone.,"['USA', 'Liberia', 'Sierra Leone']"
1999-01-15,"Off of Argentina a Liberian tanker collided with a German vessel and leaked over 65,000 gallons of crude oil near the Rio de la Plata, 50 miles north of Buenos Aires.","['Argentina', 'Oil', 'Germany', 'Environment', 'Liberia']"
1999-06-08,In Liberia Pres. Charles Taylor announced that the ECOMAG intervention force would leave for good on July 26 marking the end of the 7-year civil war.,['Liberia']
1999-08-11,In Liberia 6 European relief workers were kidnapped in Kolahun by insurgents based in Guinea.,"['Liberia', 'Guinea']"
1999-08-13,In Liberia 7 abducted aid workers were freed and some 90 other UN and foreign workers fled into Guinea to avoid fighting.,"['UN', 'Liberia', 'Guinea']"
1999-08-20,It was reported that tens thousands of refugees from Sierra Leone had fled to northern Liberia and that many were robbed and killed by retreating rebels.,"['Liberia', 'Sierra Leone']"
1999-08-30,In Sudan southern SPLA rebels rejected an Egyptian-Libyan peace plan. The rebels held that conditions put forward in negotiations were not included in the plan.,"['Liberia', 'Egypt', 'Sudan']"
1999-09-06,"In Libya Moammar Khadafy unveiled plans for a new, safe, 5-passenger ""Rocket of the Jamahiriya"" automobile.","['Liberia', 'Cars']"
2000-03-15,In Liberia the government closed 2 leading independent radio stations saying they posed a security risk.,['Liberia']
2000-04-16,"The rest of the winners of the Goldman Environmental Prize were announced: Nat Quansah (46), an ethnobotonist in Madagascar; Oscar Rivas (45) and Elias Diaz (54) of Paraguay for their work in defeating government plans to reconfigure the Paraguay and Parana rivers for shipping at environmental expense; Vera Mischenko (47) for environmental legal work in Russia; Oral Ataniyazova (43), for founding a clinic and fighting pesticide contamination in Karakalpakstan, an autonomous region of Uzbekistan; and Alexander Peal (55), for environmental work and founding a national park in Liberia.","['Uzbekistan', 'Russia', 'Paraguay', 'Environment', 'Liberia', 'Madagascar']"
2000-05-14,In Sierra Leone rebels handed over 139 UN peacekeepers to Liberia while officials in Freetown secured the release of 18 others. Meanwhile fighting continued for control of Masiaka town 30 miles east of Freetown.,"['UN', 'Liberia', 'Sierra Leone']"
2000-05-22,In Liberia 29 captured UN peacekeepers were freed while in Sierra Leone a halt dozen men with UN uniforms and Zambian insignia were found dead.,"['UN', 'Liberia', 'Sierra Leone', 'Zambia']"
2000-06-29,In Sierra Leone 21 UN peacekeepers were freed by rebels and arrived in Liberia.,"['Liberia', 'Sierra Leone']"
2000-07-31,US and British diplomats accused the Pres. Charles Taylor of Liberia and Pres. Blaise Compaore of Burkina Faso of trading arms for diamonds and aiding the rebels in Sierra Leone.,"['Burkina Faso', 'Britain', 'USA', 'Liberia', 'Sierra Leone', 'Diamonds']"
2000-08-19,"In Monrovia, Liberia, four journalists for British TV were charged with espionage while filming for a 3-part documentary about Liberia, Mauritania, Mali and Angola. They were freed Aug 25.","['Britain', 'Liberia', 'Journalism', 'Espionage']"
2000-12-20,A UN panel linked Liberian Pres. Charles Taylor to illegal diamond smuggling and arms trafficking with the rebels in Sierra Leone.,"['UN', 'Liberia', 'Sierra Leone', 'Diamonds']"
2000-07-15,"A loose coalition named ""Liberians United for Reconciliation and Democracy"" (LURD) began fighting against Charles Taylor. Covert support included the US.","['USA', 'Liberia']"
2000-07-15,"A shipping concern in Virginia, LISCR, helped Pres. Taylor procure weapons in violation of the UN arms embargo. The Liberian International Ship and Corporate Registry began managing Liberia&rsquo;s shipping registry this year.","['USA', 'Liberia', 'Virginia', 'Ship']"
2001-01-19,In Liberia Pres. Charles Taylor said that he has ended support of the RUF in Sierra Leone and would submit to int&rsquo;l. scrutiny of his finances.,"['Liberia', 'Sierra Leone']"
2001-03-07,The UN Security Council imposed an embargo on Liberia&rsquo;s trade in weapons and diamonds in an effort to halt arms to rebels in Sierra Leone.,"['UN', 'Liberia', 'Sierra Leone']"
2001-03-20,Liberia ordered its security forces to seal its border with Sierra Leone.,"['Liberia', 'Sierra Leone']"
2001-05-04,The UN Security Council imposed sanctions against Liberia for failing to sever ties with rebels in Sierra Leone.,"['UN', 'Liberia', 'Sierra Leone']"
2001-05-23,Pres. Bush banned the import of rough diamonds from Liberia in an effort to deprive rebels in Sierra Leone of a source of funds.,"['USA', 'Liberia', 'Sierra Leone', 'BushGW']"
2001-11-02,"It was reported that Ibrahim Bah, a Libyan-trained former Senegalese rebel, lived in Burkina Faso and selected diamond dealers to handle deals in Liberia between rebels from Sierra Leone and the al Qaeda network.","['Burkina Faso', 'Senegal', 'Libya', 'Liberia', 'Sierra Leone', 'al-Qaida', 'Diamonds']"
2002-02-07,"In Liberia rebel forces, Liberians United for Reconciliation and Democracy, attacked Klay Junction 25 miles north of Monrovia.",['Liberia']
2002-02-19,"In Liberia rebels were repelled at Heindi and Bong Mines, 20 miles northeast of Monrovia, as some 15,000 civilians fled.",['Liberia']
2002-04-25,"In Liberia police shut down the independent Analyst newspaper and arrested Tiawan Gongloe, a leading human rights lawyer.",['Liberia']
2002-04-29,"In Liberia Pres. Taylor suspended all political activity. Ellen Johnson-Sirleaf, leader of the opposition Unity Party, returned to Liberia to gear up for elections.",['Liberia']
2002-05-09,"In Liberia many civilians were reported killed as rebels attacked Gbarnga, the stronghold of Pres. Charles Taylor.",['Liberia']
2002-05-13,In Liberia rebels attacked Arthington and threatened to move on Monrovia unless Pres. Charles Taylor is arrested and tried.,['Liberia']
2002-05-16,Liberian forces claimed to have stopped the rebel offensive to have killed 100 in the process.,['Liberia']
2002-05-20,Liberia rejected a cease-fire appeal by neighboring West African nations and ordered its forces to look for a missing British priest and 60-blind Liberian civilians last seen May 13.,['Liberia']
2002-06-08,Liberian troops recaptured a northern town believed to have been used by insurgents as a transit point for supplies and rebels fighters based in neighboring Guinea.,['Liberia']
2002-06-20,"Liberian rebels attacked a refugee camp near the border with Sierra Leone, seizing five nurses and sending thousands fleeing as they battled government troops. Four people died in the fighting.",['Liberia']
2002-07-20,"Refugees in flight from Liberia's war surged to 200,000, and those reaching safety in neighboring Guinea spoke of worsening atrocities by President Charles Taylor's forces: looting, raping, burning and killing trapped villagers. Jubilant government troops strutted through heavily looted Tubmanburg after driving away rebel forces who had controlled it for close to three months.","['Liberia', 'Rape']"
2002-07-26,"Liberian attackers crossed into eastern Sierra Leone and abducted 18 villagers, in the second such raid in just over a week.","['Liberia', 'Sierra Leone']"
2002-09-01,In Liberia rebel forces shelled the northern town of Voinjama in a push to recapture their former stronghold from government forces.,['Liberia']
2002-09-14,"In Liberia Pres. Charles Taylor lifted the state of emergency he imposed eight months ago, declaring that the rebel insurrection against his government had been all but crushed.",['Liberia']
2002-09-21,In Liberia government forces and rebels battled for at least three northern and northwestern towns in a new outbreak of fighting near the border with Guinea.,['Liberia']
2002-12-07,In Liberia civilians were killed in a government offensive on a rebel-held town. Their deaths were blamed on crossfire.,['Liberia']
2002-12-13,"In northwest Liberia an overcrowded boat capsized, killing at least 48 people and leaving more than 100 others missing.","['Liberia', 'Tragedy']"
2003-01-11,It was reported that former combatants from Liberia and Sierra Leone were pouring into Ivory Coast to fight with the rebels.,"['Ivory Coast', 'Liberia', 'Sierra Leone']"
2003-02-01,In Liberia fighting between government and rebel forces raged within 60 miles of Monrovia.,['Liberia']
2003-02-28,"Ivory Coast-based mercenary fighters attacked and captured Toe Town on Liberia's eastern border. Liberia's government considered the assault ""highly provocative"" and ""tantamount to a declaration of war"" by Ivory Coast.","['Ivory Coast', 'Liberia']"
2003-03-03,"A Special Court for Sierra Leone indicted Liberian Pres. Charles Taylor on charges including murder, rape, sexual slavery, conscripting child soldiers and terrorizing civilians for his support of rebels during Sierra Leone civil war. The Indictment was unsealed on June 4, 2003, during Taylor's first overseas trip since his indictment.","['Liberia', 'Sierra Leone']"
2003-04-25,"Fighters from Sierra Leone and Liberia killed rebel leader Sgt. Felix Doh near the town of Gbinta, in western Ivory Coast.","['Ivory Coast', 'Liberia', 'Sierra Leone']"
2003-05-06,"The Liberian government announced that Sam Bockerie (39), a guerrilla RUF leader, was killed in a shootout with Liberian soldiers.",['Liberia']
2003-06-04,"A UN-backed war crimes court indicted Liberian Pres. Charles Taylor, accusing him of ""the greatest responsibility"" in the vicious 10-year civil war in neighboring Sierra Leone.","['UN', 'Liberia', 'Sierra Leone']"
2003-06-05,In Liberia deputy ministers Isaac Nuhan Vaye and John Winpoe Yormie were arrested about the same time that Pres. Taylor announced that a coup plot had been uncovered. Vaye and Yormie were later reported killed.,['Liberia']
2003-06-09,"As rebels bore down on the capital of Liberia, French helicopters rescued more than 500 Americans, Europeans and other foreigners.","['France', 'Liberia']"
2003-06-17,"Liberia's President Charles Taylor pledged to yield power as part of a cease-fire with rebels, but his government quickly hedged on the resignation.",['Liberia']
2003-06-20,In Liberia Pres. Charles Taylor renounced his peace pledge to cede power and announced that he will serve to the January 2004 end of his term &mdash; and might run again.,['Liberia']
2003-06-23,"The main rebel group in Liberia said it was pulling out of peace talks and accused the top peace mediator of allowing Pres. Taylor to renege on a promise to step down.  Swiss authorities ordered a freeze on any bank accounts of Pres. Charles Taylor, so war crimes prosecutors can search for possible illegal diamond profits linked to West Africa's conflicts.","['Liberia', 'Diamonds']"
2003-06-26,"In Monrovia, Liberia, 3 days of rocket and mortar fire left at least 200 civilians dead.",['Liberia']
2003-07-03,The US military commander in Europe was ordered to begin planning for possible American intervention in Liberia.,"['USA', 'Liberia']"
2003-07-04,"Liberia's President Charles Taylor, under US pressure to quit, said he had agreed to step down. A senior Nigerian official said Taylor had accepted an offer of asylum.",['Liberia']
2003-07-06,In Liberia Pres. Charles Taylor announced that he would leave the country and accept refuge in Nigeria.,"['Liberia', 'Nigeria']"
2003-07-08,US military experts arrived in Liberia to assess the need for help in the local civil war.,"['USA', 'Liberia']"
2003-07-12,"Pres. Bush met with Pres. Olusegun Obasanjo in Nigeria. They discussed the circumstances under which Liberian President Charles Taylor will live in exile in Nigeria, Wrapping up a five-day tour of Africa, President Bush said he would not allow terrorists to use the continent as a base ""to threaten the world.""","['Liberia', 'Africa', 'Nigeria', 'BushGW']"
2003-07-20,"In Liberia rebels advanced deeper into the war-ravaged capital, trading mortar, grenade and machine-gun fire with government troops.",['Liberia']
2003-07-21,"In Liberia mortar shells hit the heavily fortified U.S. Embassy in the Monrovia, injuring at least three people. Fighting in the Liberian capital of Monrovia left over 600 dead.",['Liberia']
2003-07-24,"In Monrovia, Liberia, the bloodiest mortar attack in days killed at least 12 men, women and children.",['Liberia']
2003-07-25,Pres. Bush ordered a naval amphibious force from the Mediterranean to position itself off the coast of Liberia.,"['USA', 'Liberia', 'BushGW']"
2003-07-26,"In Liberia a mortar attack into a church harboring thousands of refugees, killed at least 15 and wounded about 55 others.",['Liberia']
2003-07-28,"In Liberia rebels captured the second-largest city of Buchanan, depriving embattled President Charles Taylor of his last significant port outside the besieged capital.",['Liberia']
2003-07-29,"In Liberia Pres. Charles Taylor's forces launched what they called a major counterattack on the key port of Buchanan, battling to take back Liberia's second-largest city a day after it fell to insurgents.",['Liberia']
2003-08-01,"In Monrovia, Liberia, shelling erupted after a one-day lull, killing at least 9 people. Top West African officials flew into the capital to press the country's president to cede power after peacekeepers arrive, but Charles Taylor kept them waiting by reportedly heading to a southern war zone. Taylor actually flew to Libya to gather arms and ammunition.",['Liberia']
2003-08-01,The UN Security Council approved sending a multinational force to Liberia.,"['UN', 'Liberia']"
2003-08-02,In Liberia Pres. Charles Taylor agreed to cede power on Aug. 11.,['Liberia']
2003-08-04,West African forces arrived in Liberia to oversee the departure of President Charles Taylor.,['Liberia']
2003-08-07,"Bangladesh and Namibia pledged more than 6,000 troops for a UN peace-keeping force to replace multinational soldiers now deploying in war-torn Liberia.","['Bangladesh', 'UN', 'Liberia', 'Namibia']"
2003-08-07,In Liberia Charles Taylor picked Vice Pres. Moses Blah (56) as his successor. West African peacekeepers entered Liberia's rebel-besieged capital.,['Liberia']
2003-08-10,Liberian President Charles Taylor delivered a farewell address to a nation bloodied by 14 years of war.,['Liberia']
2003-08-11,"In Liberia Pres. Charles Taylor shook hands with his designated successor as his long-promised resignation ceremony started in Monrovia. A UN official later reported that Taylor took $3 million with him, that had been donated for disarming and demobilizing thousands of armed combatants. Taylor flew into exile in Nigeria following his resignation.","['Liberia', 'Nigeria']"
2003-08-12,"Liberia's leading rebel movement agreed to lift its siege of the capital and vital port within two days, allowing food to flow to hundreds of thousands of hungry people.",['Liberia']
2003-08-14,"Dozens of American troops landed at Liberia's main airport, increasing the U.S. presence to boost West African peacekeepers, as rebels began withdrawing from Monrovia. A ""quick reaction"" force of 150 combat troops were sent to back up Nigerian peacekeepers.","['USA', 'Liberia', 'Nigeria']"
2003-08-14,Rebels lifted their siege of Liberia's capital.,['Liberia']
2003-08-15,"Tens of thousands Liberian civilians, desperate for food, broke through barricades on Monrovia's front-line bridges, reuniting the capital after 10 weeks of rebel siege.",['Liberia']
2003-08-18,"In Accra, Ghana, Liberia's government and rebels signed a peace accord to end 14 years of vicious war with plans for elections in 2 years.","['Liberia', 'Ghana']"
2003-08-21,"Liberia's rebels and government chose Gyude Bryant, a gentle-mannered businessman, to lead a transition administration.",['Liberia']
2003-08-24,"A 150-strong US Marine force ended an 11-day deployment and headed back to warships off the coast of Monrovia, Liberia.","['USA', 'Liberia']"
2003-10-01,"In Liberia West African forces traded their camouflage helmets Wednesday for the blue ones of the UN. Hours later clashes flared between rebels and loyalist forces in Monrovia, leaving three civilians dead.","['UN', 'Liberia']"
2003-10-12,"Taiwan's dwindling number of diplomatic allies shrank by one as Liberia switched ties to the island's rival, China. This reduced Taiwan's recognition to 26 nations, most of them small, developing countries in Africa and Latin America.","['China', 'Taiwan', 'Liberia']"
2003-10-14,"In Liberia businessman Gyude Bryant was sworn in as leader of the post-war government, taking up a 2-year term.",['Liberia']
2003-11-07,"The first UN peace missions to Liberia's rebel-held far east found deserted towns emptied of all but looting insurgents, and terrorized civilians under rebel grip or lying rotting, dead, in the bush.","['UN', 'Liberia']"
2003-11-10,The US State Dept. distanced itself from a congressional push to capture toppled Liberian leader Charles Taylor in Nigeria via a $2 million reward.,"['USA', 'Liberia']"
2003-11-25,Nigeria's President Olusegun Obasanjo said he will surrender ousted Liberian leader Charles Taylor to face a war crimes trial if Liberia asks.,"['Liberia', 'Nigeria']"
2003-12-04,"Interpol put ousted Liberian leader Charles Taylor on its most-wanted list, issuing a ""red notice"" calling for his arrest on war crimes charges in Sierra Leone's civil war.","['Liberia', 'Sierra Leone']"
2003-12-07,In Liberia government troops launched U.N.-sponsored disarmament.,"['UN', 'Liberia']"
2003-12-10,In Liberia rampages by ex-government fighters left at least nine people dead in Monrovia. All but one of the deaths came in fighting between U.N. troops and the ex-militiamen.,['Liberia']
2003-12-15,The UN said it was suspending for a month a disarmament campaign in war-battered Liberia so it can improve a camp for former combatants.,"['UN', 'Liberia']"
2003-12-22,The UN Security Council voted unanimously to maintain sanctions on Liberia including an arms embargo and a ban on importing diamonds from the west African nation.,"['UN', 'Liberia']"
2003-07-15,The UN imposed a ban in Liberia on trade in logs due to uncontrolled and environmentally devastating logging.,"['UN', 'Liberia', 'Trees']"
2004-01-06,"In Liberia the LURD and MODEL rebel groups demanded the resignation of Gyude Bryant, interim government head.",['Liberia']
2004-01-20,"Asha Keita-Conneh, the wife of the leader of Liberia's most powerful rebel movement announced she was taking charge, backed by dozens of guerrilla commanders in ousting a husband whose ambitions she said were endangering the nation's hard-won peace.",['Liberia']
2004-02-06,International donors pledged $520 million to start the long process of turning Liberia from a failed war-ravaged state into a democracy with a thriving economy.,"['Liberia', 'Donation']"
2004-05-24,In Liberia an American citizen working with a U.S. military assessment team was killed in his hotel room in the capital Monrovia.,"['USA', 'Liberia']"
2004-07-23,"President Bush froze the assets of former Liberian President Charles Taylor, his family and top aides and accused them of undermining the country's transition to democracy.","['USA', 'Liberia', 'BushGW']"
2004-10-01,"The United Nations launched a massive voluntary repatriation program to return an estimated 340,000 Liberian refugees still scattered across West Africa.","['UN', 'Liberia']"
2004-10-29,"In Liberia mobs brandishing machetes, sticks and Kalashnikov rifles rampaged through Monrovia, prompting interim head of state Gyude Bryant to order an immediate daylight curfew to stem the rare Muslim-Christian violence. A UN armored vehicle trying to disperse a crowd inadvertently crushed three people to death.","['UN', 'Liberia']"
2004-10-30,Liberians ventured back onto the streets of Monrovia during a temporary lifting of a round-the-clock curfew imposed after at least 7 people were killed in religious riots.,['Liberia']
2004-11-03,"Liberia's three former warring factions jointly announced they had disarmed and disbanded their forces, marking a milestone in a quest for peace in this battered West African nation after nearly 15 years of war.",['Liberia']
2004-12-21,The U.N. Security Council voted unanimously to maintain economic sanctions against Liberia but promised to review a ban on diamond sales in three months and a ban on timber exports in six months.,"['UN', 'Liberia', 'Diamonds']"
2005-05-05,President Bush met with Nigerian Pres. Olusegun Obasanjo. They discussed oil and Obasanjo said he would explore how to address US concerns that former Liberian President Charles Taylor be brought to justice.,"['USA', 'Liberia', 'Nigeria', 'BushGW']"
2005-08-28,"The French civil aviation authority made public for the 1st time a list on its Internet site of airlines banned to land due to safety reasons. They included: Air Koryo of North Korea; Air St. Thomas of the U.S. Virgin Islands; International Air Services of Liberia; Thailand's Phuket Airlines; and Linhas Aereas de Mocambique and Transairways, both from Mozambique.","['France', 'North Korea', 'Liberia', 'Thailand', 'Mozambique', 'Aviation', 'Virgin Islands']"
2005-09-01,"Libyan authorities pardoned 1,675 Libyan and foreign prisoners serving time for minor crimes to mark the 36th anniversary of the revolution, which brought Colonel Muammar Gaddafi to power.",['Liberia']
2005-10-11,"Liberia held presidential elections. 22 candidates included an international soccer star, two former warlords and a Harvard-educated woman. Election officials using battery-powered lanterns counted ballots through the night from the country's first postwar polls. Ex-soccer star George Weah led 21 rivals.",['Liberia']
2005-10-12,Officials said former Finance Minister Ellen Johnson-Sirleaf and soccer star George Weah emerged as early front-runners in Liberia's first post-war elections.,['Liberia']
2005-10-13,"Soccer star George Weah took an early lead as results trickled in from Liberia's first post-war elections, but he seemed likely to face a run-off with former Finance Minister Ellen Johnson-Sirleaf.",['Liberia']
2005-11-08,Liberia held runoff elections.,['Liberia']
2005-11-10,"In Liberia Ellen Johnson-Sirleaf, a former finance minister and Harvard graduate, edged closer to becoming Africa's first elected female leader, while her soccer star opponent alleged fraud in the presidential runoff. With 80% of votes counted, Johnson-Sirleaf had 58% and her opponent, George Weah, had 42%.","['Liberia', 'Fraud']"
2005-11-23,"Officials declared Ellen Johnson-Sirleaf the winner of Liberia's first postwar balloting, making her Africa's first elected female president. She pledged in her acceptance speech to end Liberia's history of corrupt, brutal and male-dominated rule.",['Liberia']
2005-12-01,"A UN Security Council committee called on all governments to freeze the assets and travel of two individuals linked to international gunrunner Victor Bout over past arms sales to Liberia. The council added Syrian-born accountant Richard Ammar Chichakli of Texas and Ukrainian-born businessman Valeriy Naydo, with an address in the United Arab Emirates, to its list of people whose assets and travel are to be frozen around the world.","['UN', 'Liberia']"
2005-12-16,"Liberian electoral authorities dismissed international soccer star George Weah's claims that fraud had robbed him of victory in a presidential run-off vote last month, but his party vowed to appeal.","['Liberia', 'Fraud']"
2005-12-21,"George Weah, the loser of Liberia's first postwar presidential elections, dropped his legal challenge of the results, saying he would accept the outcome in the interest of national reconciliation.",['Liberia']
2005-12-26,"The EU announced a 166 million euros ($196.9 million) aid package for 10 African countries. The aid will go to Sudan, the Democratic Republic of Congo, Burundi, Chad, Tanzania, Uganda, Liberia, the Ivory Coast, Madagascar and Comoros.","['Ivory Coast', 'Burundi', 'Chad', 'EU', 'Liberia', 'Tanzania', 'Sudan', 'Uganda', 'CongoDRC', 'Madagascar', 'Comoros']"
2006-01-06,Liberia's President-elect Ellen Johnson-Sirleaf agreed to pay out benefits and pensions to widows of soldiers killed in a civil war after they blocked roads in the capital Monrovia in protest.,['Liberia']
2006-01-16,"Ellen Johnson Sirleaf pledged a ""fundamental break"" with Liberia's violent past as she was sworn in as president, carving her name into history as Africa's first elected female head of state.",['Liberia']
2006-02-01,"Liberia&rsquo;s Pres. Ellen Johnson Sirleaf fired top officials appointed by a transitional administration to help run the Finance Ministry, a perceived center of corruption.",['Liberia']
2006-02-20,Liberia's president inaugurated a truth commission to investigate crimes and human rights abuses committed in the war-battered country over the last quarter century.,['Liberia']
2006-03-14,"Liberia suspended its acting police chief because five Russian rape suspects left the country. Alfred Karlay, who has only held the post for two weeks, confirmed that he received a letter from the acting justice minister suspending him for a month.","['Russia', 'Liberia', 'Rape']"
2006-03-17,"Liberia said it has asked Nigeria to hand over former Pres. Charles Taylor, who is living there in exile and wanted on war crimes charges for his role in Sierra Leone's civil war.","['Liberia', 'Sierra Leone', 'Nigeria']"
2006-03-21,"President Bush welcomed Liberia&rsquo;s Pres. Ellen Johnson Sirleaf to the White House, calling Africa's first democratically elected female head of state ""a pioneer.""","['USA', 'Liberia', 'BushGW']"
2006-03-25,"Nigeria said it will send back to Liberia exiled ex-president and one-time warlord Charles Taylor, wanted for trial on war crimes by a UN-backed court.","['UN', 'Liberia', 'Nigeria']"
2006-03-28,"Officials said former Liberian President Charles Taylor disappeared from his Nigerian haven, days after his hosts agreed to transfer him to a war crimes tribunal for the murder, rape and maiming of more than a half-million Africans. Taylor was arrested trying to cross the border into Cameroon. He then was flown back to Liberia.","['Liberia', 'Nigeria']"
2006-03-29,"Former Liberian President Charles Taylor, accused of war crimes, was flown to Sierra Leone after he was captured in northern Nigeria.","['Liberia', 'Sierra Leone', 'Nigeria']"
2006-04-03,"Former Liberian President Charles Taylor pleaded not guilty before an international war crimes tribunal in Sierra Leone, denying he'd helped destabilize West Africa through killings, sexual slavery and sending children into combat.","['Liberia', 'Sierra Leone']"
2006-04-04,Charles Taylor appeared in a UN-backed court in Sierra Leone with 11 counts of crimes against humanity and other violations of int&rsquo;l. law.,"['Liberia', 'Sierra Leone']"
2006-04-24,The annual Goldman Environmental Prizes were awarded in San Francisco. The winners included Craig Williams (58) for helping to persuade Congress to order the Defense Dept. to consider alternatives to incinerating chemical weapons; Tarcisio Feitosa (35) of Brazil for his campaign against rampant logging; Olya Melen (26) of Ukraine for her suits forcing the government to scale back a large canal project impacting wetlands; Yu Xiaogang (35) of China for his reports on damages caused by new dams; Silas Siakor (36) of Liberia for his documentation showing how logging was used to fund civil war; and Anne Kajir of Papua New Guinea for her work to get reimbursements from logging companies to peasants.,"['Brazil', 'Ukraine', 'USA', 'China', 'Environment', 'Liberia', 'SF', 'Papua New Guinea']"
2006-05-08,"A report said UN peacekeepers, aid workers and teachers are having sex with Liberian girls as young as 8 in return for money, food or favors, threatening efforts to rebuild a nation wrecked by war.","['UN', 'Liberia']"
2006-05-21,"In Liberia tens of thousands of children marched against hunger, adding their voices to a global event to tackle food shortages that many in the war-battered west African nation have felt firsthand.","['Liberia', 'Food']"
2006-06-01,Swedish lawmakers approved a law that makes it possible for the Scandinavian country to imprison former Liberian President Charles Taylor if a UN-backed tribunal convicts him of war crimes.,"['Liberia', 'Sweden']"
2006-06-05,"Liberia, the first African country led by a democratically elected woman, began recruiting women into its new postwar army.",['Liberia']
2006-06-07,A Dutch court convicted Guus Kouwenhoven (64) of violating a UN arms embargo imposed on the regime of former Liberian President Charles Taylor and sentenced him to eight years in prison. The court found that he had traded guns for timber rights and used his lumber company to smuggle weapons that were later used by militias to commit atrocities against civilians in West Africa.,"['Netherlands', 'Liberia', 'Guns']"
2006-06-13,The UN Security Council eased a ban on weapons sales to Liberia so it could arm newly trained security forces. The US proposed lifting a UN embargo on Liberian timber exports.,"['UN', 'Liberia', 'Trees']"
2006-06-15,"Britain promised to hold Liberia's Charles Taylor in jail if he is convicted of war crimes, paving the way for Liberia's former president to be tried in The Hague.","['Britain', 'Liberia']"
2006-06-20,"A senior UN official marked World Refugee Day by welcoming home 125 Liberians from Sierra Leone where they lived for years seeking haven from Liberia's civil war. Former Liberian President Charles Taylor was taken to a Dutch prison to await a UN war crimes trial for the killing, rape or mutilation of hundreds of thousands in West Africa.","['UN', 'Liberia']"
2006-06-22,"Liberia's truth commission formally began work to document atrocities committed during nearly a quarter-century of conflict including the country's 14-year civil war (1990-2004), which left some 250,000 dead.",['Liberia']
2006-07-24,Liberia began training the first soldiers of a post-war army that officials hope will grow into a small but effective force to take over peacekeeping from UN troops.,['Liberia']
2006-07-26,"Power was restored to parts of Liberia's dilapidated capital Monrovia for the first time in 15 years, another step in the country's emergence from more than a decade of civil war.",['Liberia']
2006-08-30,"Nigerian officials and the UN refugee agency appealed to some 6,000 recalcitrant Liberian refugees to go back home, warning that time and hospitality were fast running out for them.","['Liberia', 'Nigeria']"
2006-10-10,Liberia's truth commission began taking public testimony.,['Liberia']
2006-07-15,"Arcelor Mittal, the world&rsquo;s largest steel company, negotiated a deal with Liberia&rsquo;s government to restart operations at the mine in Nimba County with a new investment of $1.5 billion. The company said it would create some 3,500 jobs.",['Liberia']
2007-01-18,"India prepared to send 125 of its crack policewomen to Liberia to act as UN peacekeepers, the first time the world body has deployed an all-female unit.","['India', 'Liberia']"
2007-02-01,"China&rsquo;s Pres. Hu Jintao arrived in Liberia. He held talks with Liberian Pres. Ellen Johnson Sirleaf and address the parliament, before meeting some 500 Chinese peacekeepers. Jintao was also due to visit Sudan, Zambia, Namibia, South Africa, Mozambique and the Seychelles during his 12-day tour.","['China', 'Liberia']"
2007-02-13,"US Secretary of State Condoleezza Rice said the US plans to cancel $391 million in outstanding debt owed by Liberia, and she urged others to help the struggling West African nation.","['USA', 'Liberia']"
2007-04-27,"The UN Security Council lifted its embargo on Liberia's diamond exports, saying the west African nation has made progress in certifying the origin of its rough diamonds. A multi-day strike at the Firestone Rubber plantation in Liberia turned violent as police clashed with striking workers, leaving at least six people wounded.","['UN', 'Liberia', 'Labor', 'Diamonds']"
2007-05-01,"Liberia relaunched its diamond trade after the UN lifted an embargo, hoping the revival of the industry will fund reconstruction rather than lead to more bloodshed.","['Liberia', 'Diamonds']"
2007-06-04,Charles Taylor boycotted the start of his Liberia war-crimes trial at the Hague.,"['Netherlands', 'Liberia']"
2007-07-20,Officials said Liberia's former House speaker and an ex-military commander have been charged with treason for their involvement in an alleged coup plot.,['Liberia']
2007-07-28,"The Liberian government said it had lifted a six-year moratorium on the diamond trade, put in place after former President Charles Taylor was accused of using ""blood diamonds"" to fuel civil war in neighboring Sierra Leone.","['Liberia', 'Diamonds']"
2007-08-07,"ECOWAS said the last refugees from Liberia and Sierra Leone in Nigeria have been allowed to settle and they will have access to work, education and health on the same terms as Nigerians, West African regional bloc.","['Liberia', 'Sierra Leone', 'Nigeria', 'ECOWAS']"
2007-08-25,"It was reported that Liberia had some 2,511 ships registered under its flag, the world&rsquo;s 2nd largest fleet after Panama, which had 7,357. The population was reported to be 3.3 million, with two-third of the people living on less than a dollar a day. Since 2000 the Liberian International Ship and Corporate Registry, a Virginia-based company, managed the registry.","['USA', 'Liberia', 'Virginia', 'Ship']"
2007-11-02,"A UN helicopter crashed on a routine flight in northern Liberia, killing two crew members and leaving a third missing.","['UN', 'Liberia']"
2007-11-20,"Israel signed an agreement with Liberia to extract diamonds from the African nation, seven months after sanctions barring Liberia from exporting the gems were lifted.","['Liberia', 'Israel', 'Diamonds']"
2007-12-05,"Liberia cleared its debt arrears with the World Bank, paving the way for new development lending and debt cancellation that will help the West African country rebuild after years of civil war.","['Liberia', 'World Bank']"
2007-12-07,"Gyude Bryant, a former president of Liberia (2003-2005), was arrested for violating the conditions of his bail while on trial on charges of embezzling $1.3 million in government funds.","['Liberia', 'Corruption']"
2008-01-20,"Joshua Milton Blahyi (37), one of Liberia's most notorious rebel commanders, known as Gen. Butt Naked for charging into battle wearing only boots, spoke of his role under Charles Taylor in the civil war. He returned last week to confess his role in terrorizing the nation, saying he is responsible for 20,000 deaths.",['Liberia']
2008-02-21,President George W. Bush promised US support for Liberia in its recovery from a crippling civil war as he visited the close U.S. ally on the last stop of a five-nation tour of Africa.,"['USA', 'Liberia', 'BushGW']"
2008-02-28,Liberia's Health Minister Walter Gwanigale said health services are chronically understaffed with only 51 native doctors in the west African nation.,"['Liberia', 'Medical']"
2008-06-01,In Liberia at least eight people suffocated at an overcrowded stadium during a soccer match between Liberia and Gambia.,"['Liberia', 'Soccer', 'Gambia']"
2008-08-18,US and Liberian officials said US Peace Corps volunteers will return to Liberia for the first time since civil war broke out in this West African nation nearly two decades ago.,"['USA', 'Liberia']"
2008-10-30,In Florida the son of former Liberian President Charles Taylor was found guilty by a US court in Miami of torture in the first prosecution under a 14-year-old law that allows citizens to be prosecuted for such crimes committed abroad. Charles Taylor Jr. was arrested at Miami International Airport in 2006 and pleaded guilty to a charge of lying about his father's identity on a passport application.,"['USA', 'Liberia', 'Florida']"
2009-01-09,"In Miami Charles Taylor Jr. (31), the son of former Liberian President Charles Taylor, was sentenced to 97 years in prison for mutilations and executions carried out in Liberia, in the first US prosecution for torture committed abroad.","['USA', 'Liberia', 'Florida']"
2009-01-23,Officials said Liberia's worst caterpillar plague in three decades has spread to neighboring Guinea after swarms of the crop-eating insects devastated more than 45 towns.,"['Liberia', 'Guinea', 'Insects']"
2009-01-25,Liberia&rsquo;s Ministry of Agriculture said it has set up a command post and called on international experts to help fight an invasion by millions of crop-devouring caterpillars that are eating their way across the country with dire economic consequences.,"['Liberia', 'Insects', 'Agriculture']"
2009-03-12,Liberia&rsquo;s agriculture ministry said the country has been hit by a 2nd invasion of crop-destroying caterpillars. Over a hundred villages have so far been affected by the plague.,"['Liberia', 'Insects', 'Agriculture']"
2009-07-02,Liberia's truth and reconciliation commission recommended that ex-President Charles Taylor and seven other former warlords be prosecuted for crimes against humanity for their alleged roles in the West African country's civil war.,['Liberia']
2009-07-06,Liberia's truth and reconciliation commission recommended barring President Ellen Johnson Sirleaf and dozens of other high-profile figures from public office for 30 years for supporting armed groups in the country's civil wars.,['Liberia']
2009-07-16,"In Phoenix, Arizona, 4 boys, all Liberian refugees (9-14) lured a Liberian girl (8) to a storage shed and raped her. Charges against one of the boys, aged 8, were dropped on Dec 16 after a judge ruled the boy was not competent to stand trial.","['USA', 'Liberia', 'Arizona', 'Kids', 'Rape']"
2009-08-13,"In Liberia US Secretary of State Hillary Clinton hailed the country&rsquo;s post-war transition to democracy and threw support behind President Ellen Johnson Sirleaf, who has faced calls to resign because she helped fund a warlord.","['USA', 'Liberia']"
2009-10-28,"In Afghanistan Taliban militants wearing suicide vests and police uniforms stormed a guest house used by UN staff in the heart of Kabul. 11 people were killed, including 5 UN staff, 3 attackers, 2 security guards and an Afghan civilian. Liberian election worker Yah Lydia Wonyene (47) was one of the five UN staffers killed. It was the biggest in a series of attacks intended to undermine next month's presidential runoff election. The assault included rocket attacks at the presidential palace and the city's main luxury hotel. Two NATO members were killed in bomb blasts in the south, including one American.","['USA', 'NATO', 'UN', 'Liberia', 'Afghan']"
2009-10-29,The US rubber company Firestone said in a statement that it has conducted its own extensive testing of discharge water in Liberia and found it was not harmful to human health. The Liberian government has said a three-month investigation found high levels of orthophosphate being released into the water.,"['USA', 'Environment', 'Liberia']"
2009-07-15,"Ellen Johnson Sirleaf, president of Liberia, authored &ldquo;This Child Will Be Great: Memoir of a Remarkable Life by Africa&rsquo;s First Woman President.&rdquo;","['Liberia', 'Women', 'Books']"
2010-02-26,"In Liberia religious clashes in the northern county of Lofa killed four people. The violence erupted in the town of Vionjama after the body of a child ""with body parts extracted"" was found near a mosque. Witnesses said rioters had burned down the Catholic, Baptist and Episcopal churches in the area.","['Liberia', 'Mayhem']"
2010-07-30,"Liberia's government, still recovering from a 14-year civil war and previous decades of poverty and illiteracy, said it will now require all children to get birth certificates, a document most of them lack.",['Liberia']
2010-08-05,"In the Netherlands Naomi Campbell testified before a war crimes tribunal that she had received some ""dirty-looking stones"" after a 1997 dinner party with former Liberian ruler Charles Taylor. Still, the supermodel said she didn't know if the stones were actually diamonds or if the gift came from Taylor himself. Campbell said that she gave the stones to a friend, Jeremy Ratcliffe, who was the director of the Nelson Mandela Children's Fund, intending he use them for charity.","['Netherlands', 'Liberia', 'Diamonds']"
2010-09-22,Liberia's election commission said that Prince Johnson's National Union for Democratic Progress met the requirements for next year's poll. Johnson is best known for the torture and slaying of ousted president Samuel K. Doe in 1990. A videotape of the event shows Johnson drinking beer as he ordered his men to cut off Doe's ears.,['Liberia']
2010-10-30,"Somali pirates overnight took control of the MV Polar, a cargo vessel with 24 crew members aboard. Pirates seized the Liberian-owned ship some 684 miles (1,100 km) east of the Indian Ocean island of Socotra. One of them, Prudente Cabral, died of a stroke in captivity in November. Pirates released the vessel on Aug 26, 2011.","['Liberia', 'Somalia', 'Pirates']"
2010-07-15,The US provided Liberia almost $230 million in aid this year.,"['USA', 'Liberia', 'Donation']"
2011-08-23,Liberia's first constitutional referendum in 25 years was marred by error after the National Election Commission said it had distributed defective ballot papers. It failed to achieve the required two-thirds of votes cast in a poll in which only 34 percent of registered voters showed up and many ballots were invalid.,['Liberia']
2011-09-15,In the Ivory Coast armed men from Liberia began attacking villagers. They killed at least 23 people in days of attacks before retreating across the border.,"['Ivory Coast', 'Liberia']"
2011-10-07,"The Nobel Peace Prize was awarded to Tawakkul Karman (32) of Yemen. She shared the prize with Liberian President Ellen Sirleaf Johnson and Liberian peace activist Leymah Gbowee, as the Nobel committee gave a nod to the Arab Spring.","['Liberia', 'Nobel Prize', 'Yemen', 'Norway']"
2011-10-11,"Liberia held presidential elections. President Ellen Johnson Sirleaf (72), recent Nobel Peace Prize winner, faced 15 opposition candidates including soccer star George Weah. Sirleaf took 44% of the vote, with Tubman, a former diplomat, at 31%. Turnout was 71.4%. With 31% voting for her challenger, Sirleaf would need No. 3 Prince Johnson's endorsement to win the upcoming runoff.",['Liberia']
2011-10-15,A group of Liberian opposition parties said they are pulling out after a recent presidential poll and threatened to refuse the results over allegations that the electoral commission are skewing the outcome in favor of the president.,['Liberia']
2011-10-17,"The offices of a Liberian radio station were set ablaze, in the wake of an arson attack on the ruling party headquarters and opposition discontent over poll results.","['Liberia', 'Radio']"
2011-10-18,"Liberian ex-warlord Prince Johnson, who came third in the presidential polls, announced he would back Nobel peace laureate and incumbent president Ellen Johnson Sirleaf in a run-off election.",['Liberia']
2011-10-19,"Liberia&rsquo;s ex-warlord Prince Johnson, who came third in presidential polls, demanded 30 percent of Liberia's government from incumbent Ellen Johnson Sirleaf in exchange for his valuable support. Johnson reiterated concerns that a win by the Congress for Democratic Change's Tubman would lead to the implementation of a Truth and Reconciliation Commission report, which could see him tried for war crimes.",['Liberia']
2011-11-04,"Liberia&rsquo;s Winston Tubman said he and his running mate, soccer star George Weah, will boycott the Nov 8 runoff because they are not convinced the process will be fair.",['Liberia']
2011-11-07,"In Liberia violence broke out at the headquarters of the main opposition party and at least one person was killed, less than 24 hours before a presidential runoff vote that is being viewed as a test of the country's fragile peace after a devastating civil war.",['Liberia']
2011-11-08,"In Liberia Africa's first elected female president headed toward easy re-election with her sole opponent boycotting a runoff, and ignoring entreaties from the United States and the UN to participate in what observers said was a free and fair vote. Sirleaf won 90.8% of votes cast and Tubman 9%. Only 37.4% of 1.8 million registered voters cast their ballots.",['Liberia']
2011-11-11,Liberia's opposition leader Winston Tubman said he was willing to work with President Ellen Johnson Sirleaf after disputed polls left the war-scarred nation more divided than ever.,['Liberia']
2011-12-08,Liberia and Senegal pledged to reform their laws so that women can confer citizenship on their children. They were among at least 30 countries that let only fathers pass their citizenship to children from marriages with a foreigner.,"['Senegal', 'Liberia', 'Women']"
2011-12-24,"Liberian police  overnight arrested CDC secretary general Acarous Gray, a top official of the main opposition Congress for Democratic Change, as the capital was under curfew after rioting by unpaid government workers.",['Liberia']
