1980-04-01,"The southern African Development Coordination Conference (SADCC) was established by 9 countries with the Lusaka declaration (Angola, Botswana, Lesotho, Malawi, Mozambique, Swaziland, Tanzania, Zambia, Zimbabwe). The main aim was coordinating development projects in order to lessen economic dependence on apartheid South Africa.  On August 17, 1992, it was transformed into the Southern African Development Community (SADC). By 2008 it included 15 members.","['Angola', 'Botswana', 'Lesotho', 'South Africa', 'Malawi', 'Tanzania', 'Mozambique', 'Zimbabwe', 'Zambia', 'Swaziland']"
1985-07-15,In South Africa 2 ANC activists and 8 others were killed in a raid into Lesotho. A government assassin told a court in 1996 that plans for the raid were approved by the highest levels of Pres. Botha&rsquo;s apartheid regime.,"['Lesotho', 'South Africa']"
1986-07-15,"A project began in Lesotho to divert freshwater from the mountains for electricity and for sale to South Africa. The project was sponsored by the World Bank, the European Investment Bank and the African Development Bank at a cost of $3.5 billion. The electricity proved too expensive for most people and the water diversion wreaked environmental havoc downstream. In 2003 the development fund raised from selling the water was shut down. Courts convicted 3 of the world&rsquo;s largest construction firms on corruption charges.","['Lesotho', 'South Africa', 'World Bank', 'Corruption']"
1990-07-15,In Lesotho King Moshoeshoe II was forced into exile after a series of 3 military coups ousted him from the throne. His son Letsie assumed the throne.,['Lesotho']
1994-07-15,In Lesotho Letsie backed a palace coup to reinstate his father as king. He ousted the first government to be elected in a multiparty vote and temporarily assumed the throne.,['Lesotho']
1996-07-15,"In Lesotho Moshoeshoe II, king of Lesotho, was killed in an automobile accident.",['Lesotho']
1997-10-31,"Letsie III (34) was crowned king of Lesotho, a figurehead position.",['Lesotho']
1998-09-21,In Lesotho opposition protestors clashed with South African and Botswanan troops at the royal palace. A faction of the Lesotho army rebelled 11 days ago and deposed the new military leadership. They charged that the May elections swept by the Lesotho Congress party were rigged.,"['Botswana', 'Lesotho', 'South Africa']"
1998-09-22,South African troops poured over the border into Lesotho and 30 people were reported killed.,"['Lesotho', 'South Africa']"
1998-09-23,In Lesotho 9 South Africans and 40 rebels were killed since the SADC (Southern African Development Community) task force entered the country to restore the government of Prime Minister Pakalitha Mosisili.,"['Lesotho', 'South Africa']"
1998-11-30,"Britain along with Lesotho, Burkino Faso, the Ivory Coast and Tajikistan signed a global treaty for an Int&rsquo;l. Criminal Court to try war crimes. The accord was approved in July at conference in Rome and 61 countries had signed on. The court required 60 countries to pass legislation for ratification.","['Burkina Faso', 'Ivory Coast', 'Britain', 'Lesotho', 'Tajikistan', 'ICC']"
1999-04-09,In Lesotho Prime Minister Pakalitha Mosisili announced that South Africa and Botswana would soon pull their forces out of Lesotho following a 7 month peacekeeping operation.,"['Botswana', 'Lesotho', 'South Africa']"
2003-09-07,"Mamohato Bereng Seeiso (62), the queen mother of the tiny mountain kingdom of Lesotho, died after collapsing in a church outside the capital.",['Lesotho']
2004-01-29,"Widespread drought was reported across southern Africa. Lesotho, Malawi, South Africa and Zimbabwe were all affected.","['Lesotho', 'South Africa', 'Malawi', 'Zimbabwe']"
2004-07-15,"The Gates Foundation announced a $44.7 million award at the AIDS Conference in Bangkok to a consortium of TB and AIDS researchers. The 2 diseases were often linked. A UN report cited 7 countries as the hardest hit by the AIDS pandemic: Zimbabwe, Swaziland, Lesotho, Zambia, Malawi, the Central African Republic and Mozambique.","['Lesotho', 'Thailand', 'Malawi', 'Mozambique', 'Zimbabwe', 'Zambia', 'AIDS', 'Donation', 'CAR', 'Swaziland']"
2004-07-15,Chris Bradshaw visited Lesotho and became inspired to found the African Library Project:www.africanlibraryproject.org.,['Lesotho']
2005-03-29,It was reported that China&rsquo;s influence in Africa was expanding rapidly. Chinese projects included the rebuilding of Nigeria&rsquo;s railroad network; the paving of roads in Rwanda; ownership of copper mines in Zambia; timber operations in Equatorial Guinea; supermarket operations in Lesotho and numerous ventures in other African countries.,"['China', 'Lesotho', 'Rwanda', 'Africa', 'Zambia', 'Nigeria', 'Eq. Guinea']"
2005-11-24,"The UN food agency said the United States has thrown a lifeline to six southern African countries, donating food aid valued at $45 million. The food will be distributed across Lesotho, Malawi, Mozambique, Swaziland, Zambia and Zimbabwe.","['USA', 'UN', 'Lesotho', 'Malawi', 'Mozambique', 'Zimbabwe', 'Zambia', 'Swaziland']"
2006-04-28,"Prince Harry, third in line to the British throne, launched a charity in memory of his late mother Princess Diana to help AIDS orphans in Lesotho.","['Britain', 'Lesotho']"
2006-05-16,Irish rock star Bono began a new African tour in Lesotho where he planned to unveil a new initiative to fight AIDS in its ailing textile industry.,"['Lesotho', 'Ireland', 'AIDS']"
2006-08-18,"In Lesotho a 14-nation southern Africa summit closed with a pledge to speed up regional economical integration, even as leaders expressed concern about crisis-plagued member-state Zimbabwe.","['Lesotho', 'Zimbabwe']"
2006-11-24,"In Lesotho Samuella Jacobina Verwey (36), a Dutch aid worker with the Clinton Foundation, was shot to death at the house of Mpho Malie, Lesotho's trade and industry minister. Malie is seen as a major contender for the leadership of the ruling Lesotho Congress for Democracy after the current leader, PM Pakalitha Mosisili, quits.",['Lesotho']
2007-02-17,"Lesotho held elections. The ruling party, which has brought stability to the mountain kingdom, faced a new rival set up on a platform of change.",['Lesotho']
2007-07-15,"The population of Lesotho stood at about 1.8 million and almost one of 4 adults had HIV/AIDS. Lesotho&rsquo;s textile industry, the only industry to speak of, employed some 45,000.","['Lesotho', 'AIDS']"
2008-07-16,"The United States signed a pair of agreements to boost trade and investment ties with countries in southern and eastern Africa. These included the Trade, Investment and Development Cooperation Agreement with the Southern Africa Customs Union (SACU), which includes Botswana, Lesotho, Namibia, South Africa and Swaziland; and the Trade Investment and Framework Agreement (TIFA) with the East African Community, which includes Burundi, Kenya, Rwanda, Tanzania and Uganda.","['Botswana', 'USA', 'Burundi', 'Lesotho', 'South Africa', 'Tanzania', 'Rwanda', 'Kenya', 'Uganda', 'Swaziland', 'Namibia']"
2008-09-08,"Miners in the southern African kingdom of Lesotho found one of the world's largest diamonds, a near-flawless white gem weighing nearly 500 carats.","['Lesotho', 'Diamonds']"
2009-04-22,"In Lesotho a military-style offensive took place on the official residence of the PM Pakalitha Mosisili. Two men were arrested shortly after the shooting. 7 others were arrested across the border in South Africa the day after the shooting. The 9 men were charged with 31 counts, including murder and attempted murder in the attack.",['Lesotho']
2010-09-03,"In Lesotho Thomas Maresco (24), a US Peace Corps volunteer, was shot and killed in an apparent robbery attempt.","['USA', 'Lesotho']"
2010-07-15,"Lesotho, entirely surrounded by South Africa, barely numbered 2 million people.",['Lesotho']
