1297-01-07,Francois Grimaldi (Francois the Crafty) of Genoa disguised himself as a monk and appeared at the fortress on the Rock of Monaco. Once inside he called his reinforcements and seized the place.,"['Italy', 'Monaco']"
1949-07-06,The principality of Monaco joined UNESCO.,['Monaco']
1963-07-15,French residents of Monaco became liable for French taxes.,"['France', 'Monaco']"
1982-09-14,"Princess Grace of Monaco, formerly actress Grace Kelly, died at age 52 of injuries from a car crash the day before. Her daughter Stephanie survived the crash. Kelly rose to prominence in film with 1952's 'High Noon', and she worked with Alfred Hitchcock in several films including 'Rear Window'. Her movie career was a brief six years where she did win an Oscar for 'The Country Girl'. In 1956 she retired from film following her marriage to Prince Rainier of Monaco.","['Monaco', 'Filmstar']"
1982-07-15,"In Monaco an aquarium was emptied that contained the exotic seaweed Caulerpa taxifolia. It mutated and thrived in the Mediterranean Sea and by 1997 occupied 8,000 acres and eliminated everything else. Its growth has tripled annually over the last three years.","['Environment', 'Monaco', 'Botany']"
1999-12-03,"In Monaco billionaire banker Edmund Safra (67), founder of the Republic National Bank of New York, was suffocated to death in a fire set by intruders at his home in Monte Carlo. His American nurse, Ted Maher (41), was jealous of other servants and later admitted that he had set the fire and fabricated the intruder story to gain attention. Maher was convicted in 2002 and sentenced to 10 years in prison. Maher escaped but was soon captured.","['Monaco', 'Murder', 'Fire']"
2002-12-03,"Shanghai will host the 2010 World Exposition after bidding fiercely to organize an event expected to fuel millions of dollars of investment, Expo officials announced in Monaco.","['China', 'Monaco', 'Expo']"
2005-04-06,"Prince Rainier III (b.1923) of Monaco died at age 81, nearly a month after he was hospitalized with a lung infection. His fairy-tale marriage to Hollywood star Grace Kelly brought elegance and glamour to one of Europe's oldest dynasties.",['Monaco']
2005-07-12,Prince Albert II (47) was formally instated as ruler of Monaco.,['Monaco']
2005-11-19,"Prince Albert II formally ascended to Monaco's throne in ceremonies that mixed royal pomp with an emotional remembrance for his late father, Rainier III.",['Monaco']
2007-02-01,"Gian Carlo Menotti (b.1911), Italian composer and Pulitzer Prize winner, died in Monaco. His operas included &ldquo;The Medium&rdquo; (1946) and &ldquo;Amahl and the Night Visitors&rdquo; (1951).","['Italy', 'Monaco', 'Opera', 'Composer']"
2008-10-06,"A panel of scientists met in Monaco for the 2nd international UNESCO symposium on The Ocean in a High-CO2 World. On Jan 30, 2009, they issued the Monaco Declaration, which summed up their deliberations, and reported that acidity of ocean surface waters has increased 30% since the 17th century.","['Environment', 'Monaco']"
2009-04-16,Hotel service in Monaco was limited and casino roulette wheels were expected to stop spinning as employees in the wealthy Mediterranean principality went on strike to protest job cuts.,"['Labor', 'Monaco']"
2011-07-01,"Monaco's reigning prince, Albert II, wed Charlene Wittstock of South Africa in a long-awaited civil ceremony that transformed the one-time Olympic swimmer into the Princess of Monaco.",['Monaco']
