1940-06-26,The Soviet Union delivered an ultimatum to Romania and 2 days later occupied Bessarabia and North Bukovina.,"['Russia', 'Romania', 'USSR', 'Moldova', 'Bessarabia']"
1940-07-15,Moldova was formed from the former Republic of Moldavia and the ceded Romanian territory of Bessarabia.,"['Romania', 'Moldova']"
1941-06-13,"Thousands of Jewish community leaders in Bessarabia (Moldova) were deported to Siberia as part of the general purge. The Soviet Union, which had occupied the former Romanian province a year earlier, loaded 22,600 Moldovans on cargo trains bound for Siberia, where the deportees were used for forced labor.","['Russia', 'Jews', 'USSR', 'Siberia', 'Moldova']"
1944-07-15,"The Soviet army re-conquered Bessarabia. Only then were the two parts of present-day Moldova joined together to form the Moldavian SSR. At the same time, about one-third of Bessarabia, including its entire Black Sea coastline, was incorporated into the Ukrainian SSR. The Transdniester region, having long been part of the Russian Empire and then the Soviet Union, remained more Russified and Sovietized than Right-Bank Moldavia.","['Russia', 'Romania', 'USSR', 'Moldova', 'Transdniestria']"
1991-08-27,Moldova (Moldavia) declared independence from USSR.,"['Russia', 'USSR', 'Moldova']"
1991-12-21,Eleven of the 12 former Soviet republics proclaimed the birth of the Commonwealth of Independent States and the death of the Union of Soviet Socialist Republics.,"['Azerbaijan', 'Kazakhstan', 'Kyrgyzstan', 'Uzbekistan', 'Armenia', 'Belarus', 'Russia', 'Ukraine', 'Tajikistan', 'USSR', 'Turkmenistan', 'Moldova', 'CIS']"
1992-02-14,"The former Soviet republics of Ukraine, Moldova and Azerbaijan rejected a proposal for a unified army, sharply rebuffing Russian President Boris N. Yeltsin.","['Azerbaijan', 'Russia', 'Ukraine', 'Moldova']"
1992-07-15,Russian reactionaries fought against the Soviet breakup and repulsed Moldova&rsquo;s bid to hold on to Transdniestria. A civil war with Moldova left up to 700 people dead.,"['Russia', 'Moldova', 'Transdniestria']"
1992-07-15,"Andrei Ivantoc, a member of the Popular Moldovan Front, was arrested by separatist authorities  of Trans-Dniester. A year later he and the three others were sentenced on charges of committing terrorist acts against citizens of Trans-Dniester. The Popular Moldovan Front called for the reunification of Moldova with neighboring Romania. The group's members were seen as martyrs by some in Moldova and Romania for their opposition to the separatists. Ivantoc was released in 2007.","['Romania', 'Moldova', 'Transdniestria']"
1996-11-18,In Moldova Pres. Mircea Snegur and Parliament Speaker Petru Lucinschi went into 2nd round elections. Voters seemed to seek a diminished relationship with Russia and closer ties with Romania.,['Moldova']
1996-12-02,"In Moldova Petru Lucinschi, a top Communist official in Soviet days, beat incumbent Mircea Snegur 53% to 47%.",['Moldova']
1997-07-15,"Former Soviet republics (Georgia, Ukraine, Uzbekistan, Azerbaijan and Moldova) formed Guuam to seek cooperation outside Russian influence.","['Azerbaijan', 'Uzbekistan', 'Georgia', 'Russia', 'Ukraine', 'Moldova']"
1997-07-15,"A report on Transdniestria described it as a haven for arms smugglers, money launderers and outlaws on the lam.","['Moldova', 'Transdniestria']"
1998-03-22,In Moldova elections were held and the Communist party received about 30% of the vote. Political parties scrambled to form a coalition to keep the Communists out of power.,['Moldova']
1999-02-01,In Moldova Ion Ciubuc announced his resignation as prime minister. He blamed parliament and the ruling coalition for not supporting his efforts to implement market reforms.,['Moldova']
2001-02-25,In Moldova Communists made strong gains in parliamentary elections. They won 70% of the seats and would name the next president.,['Moldova']
2001-07-15,"In Moldova Vladimir Voronin, a former baker and member of the Communist Party, was elected president. He stepped down after serving the maximum two terms.",['Moldova']
2002-11-29,"Romania urged the EU to reject a request by Hungarian producers for the exclusive right to sell a regional brandy in EU countries under the generic name ""palinka."" The Eastern European brandy, made from fermented fruit pears, plums, apricots or grapes, has been produced in the region under different names. In Hungary and in Romania's northwest region of Transylvania, it is called ""palinka,"" or ""palinca,"" while in southern Romania it is called ""tuica,"" and in Moldova and Bulgaria ""rakiya.""","['Romania', 'Bulgaria', 'Hungary', 'Moldova', 'Liquor']"
2003-05-25,"In Moldova the Communist Party consolidated its hold on power in this former Soviet republic, winning over 47 percent of contested posts for mayor and other municipal offices. The Communists, who came to power in 2001, were led by Pres. Vladimir Voronin.",['Moldova']
2003-12-08,"Russian military documents confirmed that dozens of rockets outfitted with dirty bombs appeared to be missing from the military airport at Tiraspol, the capital of Transdniestria.","['Russia', 'Moldova', 'Transdniestria']"
2003-12-27,Russia removed all Soviet-built anti-aircraft missiles from its vast arms depots in a Moldova province to prevent them from falling into the hands of terrorists. The missiles were flown from Transdniestria Province to Moscow.,"['Russia', 'Moldova', 'Transdniestria']"
2003-07-15,Moldova Pres. Voronin rejected a deal on Transdniestra that would have left Russian troops on Moldovan soil for at least 15 years while giving the breakaway region wide autonomy.,"['Russia', 'Moldova', 'Transdniestria']"
2005-03-06,"Moldova held national elections. Nine special stations were opened near the border with Trans-Dniester so the separatist region's 700,000 residents can vote. Trans-Dniester authorities have refused to allow any polling stations on their territory. The governing pro-Western Communists won a parliamentary majority, but fell short of taking enough seats to re-elect President Vladimir Voronin.","['Moldova', 'Transdniestria']"
2005-03-11,"Moldova arrested Valeriu Pasat, former defense minister, on suspicion of pocketing $10 million during the 1997 sale of 21 MiG-29 fighter jets to the US.",['Moldova']
2005-05-12,"Austrian authorities reported the break up a major human trafficking ring led by Romanian, Moldovan and Ukrainian criminals who smuggled more than 5,000 East Europeans to the West, many enduring horrific conditions in tiny hiding spaces in cars, trucks and trailers.","['Austria', 'Ukraine', 'Romania', 'Moldova']"
2005-12-02,"In Kiev 9 presidents from Baltic and Black Sea nations pledged to strengthen democracy in a region traditionally considered Russia's neighborhood. They included Estonia, Georgia, Latvia, Lithuania, Macedonia, Moldova, Slovenia, Romania and the Ukraine.","['Georgia', 'Ukraine', 'Romania', 'Estonia', 'Latvia', 'Lithuania', 'Slovenia', 'Macedonia', 'Moldova']"
2006-04-06,It was reported that Russian health and sanitary officials had imposed a ban on Georgian and Moldovan wines effective May 1. Authorities said the wines contained pesticides and heavy metals. The ban was soon extended to brandy and sparkling wines.,"['Georgia', 'Russia', 'Wine', 'Moldova']"
2006-07-06,"In Moldova an explosion ripped apart a small bus in Tiraspol, capital of the separatist region of Trans-Dniester, killing eight people and injuring 46. The blast was caused by a bomb carried onboard by a passenger. Transdniestrian politicians blamed Moldovan provocateurs.","['Moldova', 'Transdniestria']"
2006-09-17,Voters in Moldova's breakaway Trans-Dniester region overwhelmingly approved a referendum for the separatist government's bid to eventually join Russia.,"['Moldova', 'Transdniestria']"
2006-10-16,"In Moldova an appeals court overturned a guilty verdict against the former defense minister, clearing him of charges he sold 21 fighter planes too cheaply to the US. Valeriu Pasat, who was defense minister from 1997 to 1999 and head of the country's spy services from 1999 to 2002, claimed the case against him was politically motivated because of his support for a movement opposed to Communist President Vladimir Voronin.",['Moldova']
2006-11-28,"Russia&rsquo;s Pres. Putin said the ban on Moldovan wine and meat products would be lifted, a move that appeared to be aimed at easing Moscow's entry into the WTO. Putin also said Russia and Moldova would resume a dialogue aimed at resolving Moldova's conflict with Trans-Dniester.","['Russia', 'WTO', 'Moldova']"
2007-07-09,"An appeals court freed Moldova's former defense minister, overturning his conviction for abusing his position in the 1997 sale of 21 fighter planes to the United States.","['USA', 'Moldova']"
2007-12-16,Russian authorities expelled a Moldovan journalist critical of the Kremlin in a move condemned by media watchdogs.,"['Russia', 'Moldova', 'Journalism']"
2008-04-11,"In Moldova a Sudanese-owned transport plane laden with fuel crashed shortly after takeoff from an airport near the capital and burst into flames, killing all 8 people on board.","['Air Crash', 'Sudan', 'Moldova']"
2008-08-05,"The UN said heavy rains and storms have led to some of the worst floods in 40 years in parts of Ukraine, Moldova and Romania since July 22, causing great damage to homes, infrastructure and farmland. In Ukraine, 34 people have been killed in the west of the country along the Dnestr and Prut rivers; in Moldova, three people are reported to have drowned in the capital Chisinau; in Romania five people have been killed.","['Ukraine', 'Romania', 'UN', 'Moldova', 'Flood']"
2008-08-25,"Russia's parliament voted unanimously to urge the president to recognize the independence of Georgia's two breakaway regions, a move likely to stoke further tensions between Moscow and the small Caucasus nation's Western allies. Russian President Dmitry Medvedev warned ex-Soviet Moldova against repeating Georgia's mistake of trying to use force to seize back control of Transdniestria, a pro-Moscow breakaway region.","['Georgia', 'Russia', 'Abkhazia', 'Moldova', 'Transdniestria', 'South Ossetia']"
2009-01-18,"Moldovan poet Grigore Vieru (b.1935) died in a car crash. He was admired for his courage in promoting Romanian, the country's native language, when Moldova was a Soviet republic. In the 1970s, he wrote ""The Little Bee,"" Moldova's first Romanian-language school manual for young children.","['Poet', 'Moldova']"
2009-04-05,"In Moldova the Communist Party won re-election under alleged ballot rigging. The Communists, in power since 2001, won about 50% of the vote in what international observers said was a fair election. With a population of 4.1 million, Moldova was one of Europe's poorest nations with an average monthly salary of $350. Last year Moldovans abroad sent home $1.6 billion, roughly the same amount as the state budget.",['Moldova']
2009-04-07,"In Moldova anti-communist protesters stormed the Parliament, hurling computers through shattered windows and setting fire to furniture in a violent demonstration against what they said were fraudulent elections. 3 people were left dead and hundreds were detained.","['Moldova', 'Mad Crowd']"
2009-05-07,"The European Union extended its hand to former Soviet republics, holding a summit to draw them closer into the EU orbit despite Russia's deep misgivings. Presidents, premiers and their deputies from 33 nations signed an agreement meant to extend the EU's political and economic ties. The six ex-Soviet republics to whom the partnership would apply are Armenia, Azerbaijan, Belarus, Georgia, Moldova and Ukraine.","['Azerbaijan', 'Armenia', 'Belarus', 'Georgia', 'Ukraine', 'EU', 'Moldova']"
2009-05-12,"Vladimir Voronin (68), Moldova's former president, was voted head of parliament by his Communist Party colleagues. Three opposition parties boycotted the ballot, claiming the country's April 5 election was rigged.",['Moldova']
2009-06-03,"Moldovan lawmakers failed for a second time to elect a president, meaning the Parliament elected in April will be dissolved and a new election will be held this summer.",['Moldova']
2009-06-16,"The US added six African countries to a blacklist of countries trafficking in people, and put US trading partner Malaysia back on the list. Chad, Eritrea, Niger, Mauritania, Swaziland, and Zimbabwe were added to the list in the annual report. Removed from the list were Qatar, Oman, Algeria, and Moldova.","['Algeria', 'Qatar', 'Niger', 'USA', 'Malaysia', 'Chad', 'Zimbabwe', 'Eritrea', 'Moldova', 'Oman', 'Mauritania', 'Swaziland']"
2009-07-29,"Moldova held elections. At least three people were killed and hundreds of others arrested after protesters, some of whom used the social network Twitter to organize after cell phone networks went down, stormed parliament and the president's office. With 98% of the vote counted, the four opposition parties had 50.9 percent to the Communists' 45.1%. A pro-European alliance of four parties won the most seats in the 101-seat parliament but fell short of the 61 votes necessary to elect a president.","['Moldova', 'Mad Crowd']"
2009-08-08,In Moldova the four pro-Western parties that upset the Communists in recent elections agreed on a coalition deal to form a new government.,['Moldova']
2010-02-03,Ukraine's security service said 5 Russian FSB agents were detained last month after being caught trying to obtain confidential military information from a Ukrainian citizen. The FSB said the Ukrainian citizen its agents were working with had himself been apprehended in November while allegedly spying on neighboring Moldova's Moscow-backed breakaway Trans-Dniester republic.,"['Russia', 'Ukraine', 'Moldova', 'Espionage']"
2010-02-16,"In Austria 14 countries and the European Commission adopted the Danube River Basin Management Plan, a cleanup plan for the Danube River and its tributaries. Participating countries included Austria, Bosnia, Bulgaria, Croatia, the Czech Republic, Germany, Hungary, Montenegro, Moldova, Romania, Serbia, Slovakia, Slovenia and Ukraine.","['Austria', 'Bosnia', 'Ukraine', 'Romania', 'Bulgaria', 'Germany', 'Hungary', 'Montenegro', 'Serbia', 'Slovenia', 'Slovakia', 'Environment', 'Croatia', 'Czech Rep.', 'Moldova']"
2010-06-20,"Moldova authorities detained 2 former policemen and another person on suspicion of trying to sell four pounds (nearly two kg) of uranium on the black market, but it was unclear if this was enough for a ""dirty bomb."" The uranium-238 had a value of euro9 million ($11.35 million). This was not made public until Aug 25.","['Moldova', 'Nuclear']"
2010-09-12,"An Egyptian security official said 16 Russians and Moldovans, who killed an Egyptian smuggler, have handed themselves over to police. Some of the would-be migrants to Israel attacked and fatally stabbed smuggler Massud Salim (31) after he attempted to rape one of the female members of the group.","['Russia', 'Egypt', 'Moldova', 'Rape']"
2010-11-28,"Voters in Moldova, Europe's poorest nation, tried to break a political deadlock that has kept it without a functioning government for more than a year. The governing pro-Europe alliance led the opposition Communists in early election results, but it was not clear if the coalition would win enough legislative seats to end the country's year-long political deadlock.",['Moldova']
2010-12-10,"A Moldova court ordered a recount in the inconclusive national election after the Communist Party complained of ""massive irregularities"" in the Nov 28 vote.",['Moldova']
2011-03-11,"In Moldova US Vice President Joe Biden urged the government to fight corruption and implement pro-Western democratic reforms, saying that Washington would offer support to Europe's poorest country as it seeks to move closer to the EU.","['USA', 'Moldova']"
2011-06-28,Moldova officials said 6 people have been arrested for trying to sell an unspecified amount of uranium-235 to a North African country for $28.85 million.,"['Moldova', 'Nuclear']"
2011-12-01,The first talks in nearly six years between Moldova and the pro-Moscow separatist region of Trans-Dniester concluded in Lithuania with an agreement for more meetings at the beginning of next year.,"['Moldova', 'Transdniestria']"
