1522-07-15,Suleiman I captured Rhodes from the Knights Hospitallers of St. John. The knights surrendered after a 6-month siege. In 1530 the knights were resettled on Malta by Charles V.,"['Turkey', 'Malta', 'Greece']"
1565-05-19,"~ Sep 8, In Malta the Great Siege lasted over this period as Suleyman the Magnificent sought to add the island to his conquests. The Turkish army of 40,000 men besieged the Knights of Malta, led by Grand Master Jean de la Valette, at their garrison, St. Elmo. The defenders numbered 540 knights, 400 Spanish troops, and Maltese gentry. In the initial attack 200 of 260 defenders lay dead at the end of the day but the garrison held out. The Turks continued their efforts for four months when reinforcements arrived and saved them. The arrival of a fleet from Spain, the &ldquo;Gran Soccorso,&rdquo; turned the tide. This halted the westward advance of Islam in the Mediterranean. St. Elmo was later transformed into Valletta, the capital of Malta. The Order of St. John continues to thrive to today.","['Turkey', 'Spain', 'Malta']"
1951-07-15,"Libya enacted a constitution that formally protected the minority rights of Jews, Italians, Maltese and Greeks.","['Italy', 'Malta', 'Libya', 'Greece', 'Jews']"
1971-07-15,"John Evans (b.1925), English archeologist, published the comprehensive survey: ""The Prehistoric Antiquities of the Maltese Islands.""","['Britain', 'Malta', 'Books', 'Archeology']"
1972-07-15,"Colin Renfrew wrote ""Before Civilization."" He explored the social implications of the early megalithic temples of Malta.","['Malta', 'Books']"
1977-07-15,"Arvid Pardo of Malta published ""The New International Order and the Law of the Sea with Elisabeth Mann Borgese.","['Malta', 'Books']"
1985-11-23,"Egypt Air flight 648 was hijacked to Malta by Palestinian militant Omar Mohammed Ali Rezaq, a member of the Abu Nidal terrorist group.","['Malta', 'Egypt', 'Palestine', 'Aviation', 'Hijacking']"
1985-11-24,"The hijacking of an Egyptair jetliner parked on the ground in Malta ended violently as Egyptian commandos stormed the plane. Fifty-eight people died in the raid, in addition to two others killed by the hijackers. Ali Rezaq of the Abu Nidal terrorist group was imprisoned in Malta for 7 years and then released. The US FBI apprehended him in Nigeria in 1993 and he was convicted by a US federal jury in 1996 and sentenced to life in prison.","['USA', 'Malta', 'Egypt', 'Palestine', 'Aviation', 'FBI', 'Nigeria', 'Hijacking']"
1988-01-17,"Angelo de Mojana di Cologna, the Grand Master of The Order of St. John (Knights of Malta), died. Fidel Castro declared a national day of mourning in Cuba.","['Malta', 'Cuba']"
1989-12-02,"President Bush and Soviet President Mikhail S. Gorbachev held the first talks of their wind-tossed Malta summit aboard the Soviet cruise ship ""Maxim Gorky.""","['Russia', 'USA', 'Malta', 'USSR', 'BushHW']"
1989-12-03,In Malta Presidents George Bush and Mikhail Gorbachev announce the official end to the Cold War.,"['Russia', 'USA', 'Malta', 'USSR', 'BushHW']"
1990-07-15,"The Europe and North Africa group formed. It gathered leaders from North Africa &mdash; Algeria, Tunisia, Morocco, Mauritania and Libya &mdash; with leaders from France, Italy, Spain, Portugal and Malta.","['Algeria', 'Italy', 'Portugal', 'Spain', 'France', 'Malta', 'Libya', 'Africa', 'Mauritania', 'Tunisia']"
1994-11-16,"The UN Law of the Sea, ratified in 1993, took effect. Arvid Pardo (d.1999 at 85), Maltese delegate to the UN, proposed in 1967 that the bounty of the sea should be considered ""the common heritage of mankind"" and asked that some of the sea's wealth be used to bankroll a fund to help close the gap between rich and poor nations. The International Seabed Authority came into existence as the law took effect. The first Secretary-General of the Authority, Satya Nandan (Fiji) was elected in March 1996, and the Authority became fully operational as an autonomous international organization in June 1996, when it took over the premises and facilities in Kingston, Jamaica. The UN Law of the Sea treaty, which extended internationally recognized territorial waters to 200 miles offshore, came into force one year after the sixtieth state, Guyana, signed it.","['Malta', 'Environment', 'UN', 'Jamaica', 'Fiji', 'Fish']"
1995-10-26,Islamic Jihad leader Fathi Shakaki was shot to death on the Mediterranean island of Malta in a killing his supporters blamed on Israel.,"['Malta', 'Israel', 'Palestine', 'Islam']"
1996-10-27,"In Malta the opposition socialist leader, Alfred Sant, won elections that could return his Labor Party back to power after 16 years. His party has opposed the push to join the European Union. He was sworn in as prime minister by Pres. Ugo Mifsud Bonnici, a former minister of the defeated Nationalist Party.",['Malta']
1999-04-04,Guido De Marco (1931-2010) began serving as president of Malta and continued to 2004. He helped the island nation win European Union membership in 2004.,['Malta']
1999-12-10,"The EU accepted Turkey as a candidate for membership. It also agreed to draft a common defense policy with a deployment force of 60,000 peacekeepers by 2003 to diffuse crises at its doorstep. Preliminary consideration for membership was also granted to Bulgaria, Latvia, Lithuania, Romania, Slovakia, and Malta.","['Turkey', 'Romania', 'Bulgaria', 'EU', 'Latvia', 'Lithuania', 'Malta', 'Slovakia']"
1999-12-12,"The Erika, a Maltese registered oil tanker, broke in two during a storm off the coast of Brest, France, with 8 million gallons of diesel oil. Half the ship was towed to deeper waters and 3 million gallons were spilled. In 2008 a French court found Total SA guilty of maritime pollution and fined it the maximum penalty of $560,000. It also ordered Total and three other defendants to pay total damages of $285 million.","['France', 'Oil', 'Malta', 'Environment']"
2001-05-08,In Malta Pope John Paul II was welcomed on the final stop of his 6-day pilgrimage to retrace the steps of the Apostle Paul.,"['Malta', 'Vatican']"
2002-10-09,"The European Union's executive Commission declared Bulgaria, the Czech Republic, Cyprus, Estonia, Hungary, Latvia, Lithuania, Malta, Poland, Romania, Slovenia, and Slovakia nearly ready for EU membership and recommended they be invited to join in 2004. Romania and Bulgaria likely will be delayed until 2007 because of weak economies, the Commission said, adding Turkey was the weakest link among candidates.","['Romania', 'Bulgaria', 'Hungary', 'EU', 'Poland', 'Cyprus', 'Estonia', 'Latvia', 'Lithuania', 'Malta', 'Slovenia', 'Slovakia', 'Czech Rep.']"
2002-12-13,"The EU reached agreement to accept 10 new countries in 2004. These included Czech Republic, Cyprus, Estonia, Hungary, Latvia, Lithuania, Malta, Poland, Slovakia, and Slovenia.","['Hungary', 'EU', 'Poland', 'Cyprus', 'Estonia', 'Latvia', 'Lithuania', 'Malta', 'Slovenia', 'Slovakia', 'Czech Rep.']"
2003-03-08,"Malta became the first of 10 countries to vote on whether to join the European Union, which is luring new members with a $40 billion aid package. The referendum was approved 53.65 to 46.35%.","['EU', 'Malta']"
2003-04-12,Malta held parliamentary elections. PM Eddie Fenech Adami won and said his nation will go ahead with European Union membership.,"['EU', 'Malta']"
2003-12-06,"The Europe and North Africa summit ended a 2-day meeting in Tunisia. The group, formed in 1990, gathered leaders from North Africa &mdash; Algeria, Tunisia, Morocco, Mauritania and Libya &mdash; with leaders from France, Italy, Spain, Portugal and Malta.","['Algeria', 'Italy', 'Portugal', 'Spain', 'France', 'Malta', 'Libya', 'Morocco', 'Mauritania', 'Tunisia']"
2004-04-27,"Russian Foreign Minister Sergey Lavrov and EU officials signed an accord extending the EU-Russia partnership accord to Estonia, Latvia, Lithuania, Poland, Hungary, the Czech Republic, Slovakia, Slovenia, Cyprus and Malta, which join May 1.","['Russia', 'Hungary', 'EU', 'Poland', 'Cyprus', 'Estonia', 'Latvia', 'Lithuania', 'Malta', 'Slovenia', 'Slovakia', 'Czech Rep.']"
2004-05-01,"Revelers across ex-communist eastern Europe celebrated their historic entry to the European Union. 10 new members (Cyprus, the Czech Republic, Estonia, Hungary, Latvia, Lithuania, Malta, Poland, Slovakia, and Slovenia) joined. Malta joined with 70 exemptions to EU rules. Poland had 43 exemptions. Latvia had 32. The Turkish occupied area of Cyprus was suspended from entry.","['Hungary', 'EU', 'Poland', 'Cyprus', 'Estonia', 'Latvia', 'Lithuania', 'Malta', 'Slovenia', 'Slovakia', 'Czech Rep.']"
2004-07-15,The equity index of the Maltese Stock Exchange (MSE) rose 40%.,['Malta']
2005-12-29,Britain&rsquo;s tax authorities recognized the Maltese Stock Exchange (MSE). The equity index of the MSE rose 60% this year.,"['Britain', 'Malta']"
2007-06-03,"Pope Benedict XVI named four new saints from France, Malta, the Netherlands and Poland at a ceremony in St. Peter's Square. Among those honored was Sister Marie Eugenie de Jesus Milleret, a French nun who in 1839 founded the Religious of the Assumption to educate young girls; the Rev. George Preca of Malta, who founded the Society of Christian Doctrine in 1932 as a group of lay people who teach the faith to others; the Rev. Szymon z Lipnicy of Poland, a Franciscan monk who comforted Poles afflicted by the plague that broke out in Krakow from 1482-83 and died of it himself; and the Rev. Charles of St. Andrew (Dublin), who was born Karel Van Sint Andries Houben in the Netherlands in 1821.","['France', 'Poland', 'Malta', 'Vatican', 'Netherlands', 'Ireland']"
2007-06-25,"Frontex, the EU's external border agency, kicked off a new series of patrols in the Mediterranean coastal area, known as operation Nautilus, in order to halt the influx of illegal immigrants, crossing over from North Africa to Europe. Many migrants aimed to reach Malta as a stepping stone to Italy and Europe.","['EU', 'Malta', 'Africa', 'Migrant']"
2007-07-10,Cyprus and Malta received approval from EU finance ministers to join the euro.,"['EU', 'Cyprus', 'Malta']"
2007-12-20,"Estonia, Hungary, Latvia, Lithuania, Malta, Poland, Slovenia, Slovakia and the Czech Republic halted land and sea border controls at midnight in a wave of new members of Europe's passport-free Schengen zone. They all joined the EU on May 1, 2004.","['Hungary', 'EU', 'Poland', 'Estonia', 'Latvia', 'Lithuania', 'Malta', 'Slovenia', 'Slovakia', 'Czech Rep.']"
2008-01-01,"EU newcomers Cyprus and Malta adopted the euro, bringing to fifteen the number of countries using the currency with increasing clout over the slumping US dollar.","['EU', 'Cyprus', 'Malta']"
2008-01-18,It was reported that the EU&rsquo;s environment commissioner has threatened to take Malta to the European Court of Justice to force an end spring shooting of turtledoves and quail. Bird hunting and trapping is a traditional pastime in Malta where migrating stop twice every year. Numerous protected birds have been killed.,"['EU', 'Malta', 'Birds']"
2008-01-31,It was reported that the EU is suing Malta for permitting residents to hunt 2 species of birds in the spring. The Maltese government said it qualifies for an exemption under EU rules.,"['EU', 'Malta', 'Birds']"
2008-06-04,"An undetermined amount of fuel oil was released after the Greece-registered Syros slammed against the Malta-registered Sea Bird near Montevideo, Uruguay.","['Oil', 'Malta', 'Environment', 'Greece', 'Uruguay', 'Ship']"
2008-08-26,"A Maltese fishing trawler rescued the migrants. Authorities said the survivors first told the fishermen that 10 people were missing, but later said as many as 70 people from Somalia, Eritrea and Sudan made the sea voyage with them.","['Malta', 'Sudan', 'Somalia', 'Eritrea']"
2008-10-30,"Scientists reported that 1 in 17 men living on the coasts of North Africa and southern Europe may have a Phoenician direct male line ancestor. Evidence was based on Y-chromosomes collected in Cyprus, Malta, Morocco, the West Bank, Syria and Tunisia.","['Cyprus', 'Malta', 'Palestine', 'Syria', 'Morocco', 'DNA', 'Tunisia']"
2009-04-18,About 140 migrants remained stranded aboard a Turkish cargo ship for a third day as Malta and Italy argued about which country should accept them.,"['Italy', 'Turkey', 'Malta', 'Migrant']"
2009-04-19,"Italy agreed to accept 140 migrants stranded aboard a Turkish cargo ship that rescued them in the Mediterranean, ending a four-day standoff with Malta about who would take them in.","['Italy', 'Turkey', 'Malta', 'Migrant']"
2009-09-22,"A sharply divided EU failed to protect the threatened bluefin tuna, as the bloc's Mediterranean nations refused to back even a temporary a ban on catching the fish prized by sushi aficionados. Greece, Cyprus, Malta, Spain, France and Italy, with strong fishermen's lobbies at home, insisted on continuing the hunt despite the precarious state of the species. Conservation groups had earlier criticized the EU for not pushing to list the bluefin tuna under the Convention on International Trade in Endangered Species.","['Italy', 'Spain', 'France', 'EU', 'Cyprus', 'Malta', 'Greece', 'Fish']"
2010-04-18,"Pope Benedict XVI met in Malta with a group of clerical sex-abuse victims and promised them with tears in his eyes that the Catholic Church would seek justice for pedophile priests and implement ""effective measures"" to protect young people from abuse. 10 Maltese men came forward earlier this month saying they wanted to meet with the pope to tell him their stories and to request an apology. They said they were abused by 4 priests at a Catholic orphanage.","['Malta', 'Vatican', 'Clergy Sex']"
2010-08-12,"Guido De Marco (79), former president of Malta (1999-2004), died. He helped the island nation win European Union membership (2004).",['Malta']
2010-12-17,Maltese Foreign Minister Tonio Borg promised during a visit to the Gaza Strip to donate funds to the United Nations agency caring for Palestinian refugees.,"['Malta', 'Palestine']"
2011-03-01,Malta said it was refusing to return two Libyan fighter jets that landed on the island last week after their pilots defected.,"['Malta', 'Libya']"
2011-05-28,"Malta, a staunchly Catholic Mediterranean island, voted in favor of introducing divorce in a referendum. Malta was the last remaining European nation to ban divorce. Some 95 percent of the 400,000 population calls itself Roman Catholic.","['Malta', 'Sociology', 'Religion']"
2011-07-25,"Maltese lawmakers have approved a law allowing citizens of this heavily Catholic Mediterranean island to divorce in their own country. The law takes effect in October, after Malta's president signs it. The ruling Nationalist Party had opposed divorce.","['Malta', 'Sociology']"
2011-08-01,Malta sentenced Rev. Charles Pulis and Rev. Godwin Scerri to 5 and 6 years in prison after they were convicted of sexually abusing boys under their care in St Joseph's Home for children more than 20 years ago.,"['Malta', 'Clergy Sex']"
2011-10-31,"A Tunisian court was reported to have issued an international arrest warrant against Suha Arafat (48), the widow of the late Palestinian leader Yasser Arafat over alleged corruption. The case appeared to be connected to a school she founded in 2006 with the wife of the ousted Pres. Ben Ali. She was stripped of her Tunisian citizenship in 2007 following a dispute with the former ruling family and currently lives in Malta.","['Malta', 'Tunisia']"
