1650-07-15,Portuguese rule ended in Oman.,"['Portugal', 'Oman']"
1957-07-15,"The book &ldquo;The Sultan in Oman&rdquo; by Jan Morris (b.1926), British travel writer, was published. It was set in 1955 and described the Sultan&rsquo;s traveling party after a brief war.","['Oman', 'Books']"
1970-07-23,"Sultan Qaboos bin Al Said deposed his father, Sultan Said bin Taimur, and took over rule in Oman.",['Oman']
1981-05-25,"Sheik Zayed bin Sultan Al Nahyan (1918-2004), United Arab Emirates President, urged in 5 other Arab monarchies (Bahrain, Kuwait, Oman, Qatar and Saudi Arabia) to form the Gulf Cooperation Council. The unified economic agreement between the countries of the Gulf Cooperation Council was signed on 11 November 1981 in Riyadh.","['Qatar', 'UAR', 'Bahrain', 'Kuwait', 'Saudi Arabia', 'Oman']"
1981-07-15,Oman established an elected State Consultative Council with an advisory role to the ruler. The elected Consultation / Shura Council (Majlis A'Shura) was established in 1991 and evolved from the State Consultative Council.,['Oman']
1982-07-15,"Efforts to breed captive oryx and release them back into the Arabian Peninsula, the only place this species is found, began in Oman in 1982, a decade after the last one was apparently shot in the wild. By 2011 about 1,000 of the wild Arabian or White Oryx thrived owing to nearly three decades of successful breeding.","['Saudi Arabia', 'Animal', 'Oman']"
1984-07-15,"The space shuttle Challenger turned up images of Oman of what was thought to be the ""lost city of Ubar.""","['NASA', 'Space', 'Oman']"
1984-07-15,"Gulf Cooperation Council (GCC) members (Bahrain, Kuwait, Oman, Qatar and Saudi Arabia, UAR) agreed on the creation of a two-brigade (10,000 troops) Peninsula Shield Force, based in Saudi Arabia near the Kuwaiti and Iraqi borders.","['Qatar', 'UAR', 'Bahrain', 'Kuwait', 'Saudi Arabia', 'Oman']"
1985-07-15,"Gulf Air, a joint venture between Abu Dhabi, Bahrain, Oman and Qatar, decided to cut back its services to Dubai. This prompted Dubai to launch its own airline. The Emirates Airline began in the UAR with 2 rented planes and a $10 million investment from Dubai&rsquo;s ruling family under the direction of Maurice Flanagan. In 2005 the state-owned operation planned to double its 73-plane fleet.","['Qatar', 'UAR', 'Bahrain', 'Aviation', 'Dubai', 'Oman', 'Abu Dhabi']"
1986-07-15,"Oman&rsquo;s first university, the Sultan Qaboos University, opened.","['Oman', 'Education']"
1996-07-15,The basic law of Oman was adopted stipulating that the ruling family meets in the case of a vacuum in power to choose a successor to the sultan within three days.,['Oman']
1997-09-15,In Oman a US Navy F/A-18 crashed and the pilot was killed.,"['USA', 'Air Crash', 'Oman']"
2000-02-03,"The US Navy in the Straits of Hormuz took control of a Russian tanker, Volgoneft-147, on suspicion that is was smuggling oil from Iraq in violation of US sanctions. Tests showed the oil came from Iraq and it was forced to discharge the oil in Oman.","['Iraq', 'Russia', 'USA', 'Oil', 'Oman']"
2000-12-31,"Six Persian Gulf nations (Bahrain, Kuwait, Oman, Qatar, Saudi Arabia and the United Arab Emirates) signed a regional defense pact.","['Qatar', 'UAR', 'Bahrain', 'Kuwait', 'Saudi Arabia', 'Oman']"
2001-03-26,"In Kazakhstan the Caspian Pipeline Consortium began pumping crude oil from the Tengiz field to Novorossiysk, Russia&rsquo;s Black Sea port. The 990-mile Tengiz-Novorossiysk oil pipeline was owned by Kazakhstan, Russia, Oman and 8 oil companies. Chevron held 15% in the 12-partner consortium.","['Kazakhstan', 'Russia', 'Oil', 'Oman', 'Caspian Sea']"
2001-09-23,"The 6-member Persian ""Gulf Cooperation Council"" (Bahrain, Kuwait, Oman, Qatar, Saudi Arabia, UAR) met in Jidda and pledged support for an int&rsquo;l. coalition against terrorism.","['Qatar', 'UAR', 'Bahrain', 'Kuwait', 'Saudi Arabia', 'Oman']"
2004-07-17,"A court in Oman convicted an American woman of murdering her husband and sentenced her to death. Rebecca Thompson, along with her 14-year-old son, Derrick, and two Omani men, were convicted for the Jan 1 killing of Mark Thompson.","['USA', 'Oman']"
2004-11-15,The Bush administration announced that it intended to negotiate trade agreements with Oman and the UAR.,"['UAR', 'USA', 'Oman']"
2005-05-02,"An Oman state security court convicted 30 people of plotting to overthrow the sultan and install an Islamic government, but spared them the death penalty. Another defendant was convicted of a lesser crime.",['Oman']
2005-07-06,"In Jordan over 170 leading Muslim scholars in Amman concluded an Int&rsquo;l Islamic Conference. They affirmed their authority and announced a mutual recognition between Islam&rsquo;s 8 main schools of legal interpretation: 4 Sunni, 2 Shia, the Ibadis of Oman and the small but prestigious Zahiri school.","['Jordan', 'Oman', 'Islam']"
2005-10-05,"Iran's foreign minister met with Omani officials, part of a tour of Gulf countries to win support for his government's standoff with the West over its nuclear program.","['Iran', 'Oman']"
2005-11-11,"US Secretary of State Condoleezza Rice, on a surprise visit to Iraq, pressed for unity among the country's religious factions. In Baghdad gunmen opened fire on the compound of the Embassy of Oman, killing two people and wounding two others. 3 Iraqi police officers were killed when their vehicle was ambushed near Baqouba, 35 miles northeast of Baghdad.","['Iraq', 'USA', 'Oman']"
2006-12-10,"The oil-rich Arab states on the Persian Gulf said that they will consider starting a joint nuclear program for peaceful purposes. The six-nation Gulf Cooperation Council included Saudi Arabia, Kuwait, United Arab Emirates, Qatar, Bahrain and Oman.","['Qatar', 'UAR', 'Bahrain', 'Kuwait', 'Saudi Arabia', 'Oman', 'Nuclear']"
2007-06-04,Oman evacuated an island as Cyclone Gonu drew near the Persian Gulf.,['Oman']
2007-06-06,"Cyclone Gonu battered Oman's coast on its path toward the world's most important crude oil tanker route. It waned after killing 49 in Oman and 9 people in Iran, where severe flooding encircled over 100 villages.","['Iran', 'Oman', 'Hurricane']"
2008-04-14,The Olympic torch arrived in Oman amid tight security and expectations of a smooth relay on the Middle Eastern leg of the flame's round-the-world tour.,"['China', 'Olympics', 'Oman']"
2009-06-16,"The US added six African countries to a blacklist of countries trafficking in people, and put US trading partner Malaysia back on the list. Chad, Eritrea, Niger, Mauritania, Swaziland, and Zimbabwe were added to the list in the annual report. Removed from the list were Qatar, Oman, Algeria, and Moldova.","['Algeria', 'Qatar', 'Niger', 'USA', 'Malaysia', 'Chad', 'Zimbabwe', 'Eritrea', 'Moldova', 'Oman', 'Mauritania', 'Swaziland']"
2009-12-15,"In Kuwait Gulf Arab nations put into force a monetary pact, moving a step closer toward the elusive goal of a single regional currency and greater integration between the mainly oil-rich states. The announcement was made by Kuwait's finance minister came as leaders from the six-member Gulf Cooperation Council nations were wrapping up a two-day summit in which they launched a regional electricity project. The GCC groups Kuwait, Saudi Arabia, Qatar, the United Arab Emirates, Oman and Bahrain.","['Qatar', 'UAR', 'Bahrain', 'Kuwait', 'Saudi Arabia', 'Oman']"
2010-04-06,"Somali pirates aboard the Faize Osamani tried to attack the MV Rising Sun. A hostage onboard the hijacked Indian cargo dhow drowned after the ship was used to attack another vessel and navies intervened. A warship from Oman arrived and 9 hostages jumped overboard to try to swim away from the pirates. One drowned and the other 8 were rescued. The US destroyer USS McFaul arrived on the scene after the Omani forces and helped persuade the ten pirates to surrender, which they did after throwing their weapons overboard.","['USA', 'Somalia', 'Oman', 'Pirates']"
2010-06-06,In Pakistan heavy rains and winds lashed the port city of Karachi as Cyclone Phet swirled along the coastline after claiming the lives of 15 people in Oman.,"['Pakistan', 'Oman', 'Hurricane']"
2010-07-28,"In the waters off Oman an explosion damaged an oil tanker carrying 270,000 tons of oil, near the mouth of the Persian Gulf. Mitsui O.S.K. Lines said the blast on its tanker M. Star caused one minor injury but did not cause an oil leak. Officials said the damage was caused by a freak wave. Japan's ministry said ""A crew member saw light on the horizon just before the explosion, so (Mitsui O.S.K.) believes there is a possibility it was caused by an outside attack.&rdquo; On Aug 4 an obscure al-Qaida-linked group said one of its suicide bombers  attacked the Japanese oil tanker, a claim that, if true, would be the first time the terror network has attacked the Japanese. On Aug 6 the Emirates' WAM news agency quoted an unnamed government official as saying the investigation revealed traces of homemade explosives on the hull of the tanker.","['Japan', 'al-Qaida', 'Oman', 'Ship']"
2010-09-28,Iran offered the first official indication that Oman is playing a role in trying to secure the release of two American men imprisoned for more than a year.,"['USA', 'Iran', 'Oman']"
2010-12-07,"Leaders of six US-allied Gulf Arab nations, the Gulf Cooperation Council (GCC), said they were monitoring with ""utmost concern"" developments in Iran's disputed nuclear program and issued a thinly veiled warning to their Persian neighbor not to meddle in their internal affairs. The 2-day gathering of leaders from the Emirates, Saudi Arabia, Kuwait, Qatar, Bahrain and Oman followed the publication of leaked US diplomatic memos that revealed deeper concern among Gulf Arab leaders over Tehran's nuclear program than had previously been known.","['Qatar', 'UAR', 'Bahrain', 'Iran', 'Kuwait', 'Saudi Arabia', 'Oman', 'Nuclear']"
2011-01-30,"Oman said it has dismantled an Emirati spy ring that was targeting the government and the military in the Gulf sultanate. An official the cell was uncovered five months ago, before it was watched and dismantled by Omani security services.","['UAR', 'Oman', 'Espionage']"
2011-02-26,"Oman's ruler, Sultan Qaboos bin Said, replaced six Cabinet members in a bid to defuse tensions in the country.",['Oman']
2011-02-27,"Omani security forces fired tear gas and rubber bullets at protesters demanding better salaries and measures to curb corruption. At least one person was killed in Sohar. Sultan Qaboos bin Said ordered 50,000 new state positions and a monthly stipend of 150 rials ($390) for job seekers.","['Oman', 'Mad Crowd']"
2011-02-28,In Oman protesters set a supermarket ablaze and rallied at two places in the seaside town of Sohar in a third consecutive day of unrest that has included deadly clashes in the strategic Gulf nation. Police did not respond to today's protest.,"['Oman', 'Mad Crowd']"
2011-03-01,"Oman deployed troops north of the capital Muscat and near the border with the United Arab Emirates, following three straight days of anti-government protests.","['Oman', 'Mad Crowd']"
2011-03-04,Oman said it has reconciled with the United Arab Emirates after Kuwaiti mediation succeeded in resolving tensions over an alleged spy ring.,"['UAR', 'Oman']"
2011-03-05,"Oman's ruler replaced three top government officials, a second major shakeup that was celebrated by some protesters but failed to quell more than a week of widening demonstrations. Workers staged a sit-in at a main oil field in Haima, about 300 miles (500 km) southwest of the capital Muscat, demanding more state investments in the area.",['Oman']
2011-03-08,In Oman more than 150 protesters rallied peacefully outside the state television headquarters in the capital Muscat to call for greater press freedoms.,"['Oman', 'Mad Crowd']"
2011-03-13,Oman's ruler granted lawmaking powers to officials outside the royal family in the boldest reforms yet aimed at quelling protests for jobs and a greater public role in politics.,['Oman']
2011-03-15,"In Oman Sheik Ahmed bin Hamad al-Khalili, highest religious authority in the Persian Gulf kingdom, called for a nationwide alcohol ban and strict monitoring of health clubs in this Muslim country. Al-Khalili told state television that ""drunk people are unproductive people who sink into vice.""","['Liquor', 'Oman']"
2011-03-16,"In Oman about 300 security guards demonstrated in the capital Muscat, calling for better wages and weekends off. They blocked traffic on a downtown street before the inspector general for police and customs addressed them, saying he would study their demands.","['Oman', 'Mad Crowd']"
2011-03-29,Oman said it has detained several anti-government activists who took part in protests that started last month in the northern industrial city of Sohar.,['Oman']
2011-04-02,In Oman dozens of protesters staged a sit-in in Muscat to demand probes into alleged state abuses after clashes with security forces in Sohar left at least one person dead and sharply boosted tensions in the strategic Gulf nation.,"['Oman', 'Mad Crowd']"
2011-04-03,Omani authorities said they have released 57 people arrested in crackdowns against pro-reform protesters.,['Oman']
2011-05-10,"The Gulf Co-operation Council (Bahrain, Kuwait, Qatar, Oman, Saudi Arabia, UAE) said it welcomed Jordan&rsquo;s request to join the 6-member group. Jordan had first applied for membership in the mid-1980s. The GCC said it would encourage Morocco to also join.","['Qatar', 'UAR', 'Bahrain', 'Morocco', 'Kuwait', 'Jordan', 'Saudi Arabia', 'Oman', 'GCC']"
2011-05-28,"May 28, Yemen's government and armed tribesmen seeking President Ali Abdullah Saleh's ouster agreed to a temporary cease-fire to allow for negotiations after five days of clashes that killed at least 124 people. The truce was to expire in the evening. Three French aid workers, two women and one man, were abducted while working for the Triangle Generation Humanitaire. Men linked to an al-Qaida offshoot demanded $12 million in ransom. The 3 aid workers were freed on Nov 13 after Oman and Yemeni tribesmen negotiated their release.","['France', 'Yemen', 'al-Qaida', 'Oman']"
2011-06-28,Judicial authorities in Oman said 15 protesters have been sentenced to jail terms for taking part in violent demonstrations calling for more jobs and other reforms.,['Oman']
2011-09-21,"Americans Shane Bauer and Josh Fattal, jailed in Iran as spies, were released from Tehran's Evin prison after more than two years in custody. A $1 million bail, $500,000 for each one, was posted by Oman.","['USA', 'Iran', 'Oman']"
2011-09-21,"A court in Oman ordered the one-month long closure of the prominent Azzaman newspaper and sentenced two of its editors to jail after the country's justice minister accused them of slander. Editor Ibrahim al-Maamary and managing editor Yussuf al-Haj were each sentenced to five months in prison for ""insulting"" Justice Minister Mohamed al-Hanai in the May articles, which cited claims of embezzlement, graft and other abuses within the ministry.","['Oman', 'Journalism']"
2011-10-12,"Oman&rsquo;s Sultan Qaboos, himself a music enthusiast, officially opened the Royal Opera House of Oman, the first of its kind in the Arabian Peninsula.","['Opera', 'Oman']"
2011-10-15,"In Oman more than 1,300 candidates, including 77 women, sought seats on the 84-member Shura Council, a decade-old body that has no direct authority but advises the ruling sultan. Only a single woman was elected to the nation's top advisory council despite a push by female candidates that followed pro-reform unrest in the Arabian peninsula nation.",['Oman']
2011-10-19,Oman published royal decrees that widen the powers of an 84-seat council that previously had only an advisory role. The members of the Shura Council can now take part in proposing laws to Oman's ruler and can also suggest changes in government regulations.,['Oman']
2011-11-06,Oman state media reported that 4 crewmen died and five are still missing after an Indian ship sank in bad weather off its coast.,"['Tragedy', 'Oman']"
2012-01-01,Omani newspaper Azzaman said it would appeal in the high court the five-month jail sentences handed to two of its staff for insulting the justice minister.,"['Oman', 'Journalism']"
