1502-05-11,"Columbus embarked on his 4th voyage with 150 men in 4 caravels. Among those in the fleet were Columbus's brother Bartholomew, and Columbus' younger son Fernando, then just 13 years old. They reached the coast of Honduras after 8 months and passed south to Panama (1503). The ships included the Capitana, which served as the flagship, and the Vizcaina. In 2006 Klaus Brinkbaumer authored &ldquo;The Voyage of the Vizcaina.&rdquo;","['Honduras', 'Panama', 'Spain']"
1696-07-15,The Company of Scotland began raising money for a colony at Darien on the Isthmus of Panama. The venture collapsed after 4 years and only 3 of 13 ships returned home.,"['Panama', 'Britain', 'Scotland']"
1698-07-14,"The first Company of Scotland expedition of five ships (Saint Andrew, Caledonia, Unicorn, Dolphin, and Endeavour) set sail from the east coast port of Leith  to avoid observation by English warships, with around 1,200 people on board. After calling at Madeira and the West Indies, the fleet made landfall off the coast of Darien on 2 November. The settlers christened their new home ""New Caledonia.""","['Panama', 'Britain', 'Scotland']"
1783-07-24,"Simon Bolivar (d.1830), was born in Caracas, Venezuela. He  was a soldier and statesmen who led armies of liberation throughout much of South America, including Ecuador, Venezuela, Colombia, Panama, Peru and Bolivia, which took its name from Bolivar. Bolivar, called ""the Liberator,"" was a leader in Venezuela for struggles of national independence in South America. He formed a Gran Colombia that lasted 8 years but broke apart into Venezuela, Colombia and Ecuador. Bolivar died of tuberculosis.","['Bolivia', 'Panama', 'Peru', 'Colombia', 'Ecuador', 'Venezuela']"
1830-12-17,"Simon Bolivar (b.1783), called ""the Liberator,"" died of TB in Santa Marta, in Colombia. He was a leader in Venezuela for struggles of  national independence in South America. He formed a Gran Colombia that lasted 8 years, but broke apart into Venezuela, Colombia and Ecuador. In 2006 John Lynch authored &ldquo;Simon Bolivar: A Life.&rdquo;","['Bolivia', 'Panama', 'Peru', 'Colombia', 'Ecuador', 'Venezuela', 'Biography']"
1850-07-15,Panama&rsquo;s city of Colon was founded as the isthmus of Panama became a route for the California gold rush.,['Panama']
1855-07-15,The US built the Panama Railroad.,"['Panama', 'USA']"
1912-07-15,Panama Canal workers rioted on Independence Day.,['Panama']
1914-08-15,"The Panama Canal opened to traffic. The Panama Canal, a 52-mile waterway, was completed. Some 5,000 workers, just 350 of them white, perished in the American effort. In 1977 David McCullough authored ""The Path Between the Seas,"" a definitive account of the building of the Panama Canal. In 2009 Julie Greene authored &ldquo;The Canal Builders: Making America&rsquo;s Empire at the Panama Canal.&rdquo;","['Panama', 'USA']"
1936-08-29,"John McCain, later Arizona Senator and 2008 US presidential candidate, was born at the Coco Solo Naval Air Station in the Panama Canal Zone.","['Panama', 'USA']"
1959-04-20,"British ballerina Margot Fonteyn (1919-1991)) was arrested and briefly detained in a Panama prison. She and her diplomat husband, Roberto Arias, had sought Fidel Castro's help in a revolution that failed because of a last-minute blunder. Fonteyn, born Peggy Hookham, went on to reach even greater creative heights through her acclaimed partnership with Russian dancer Rudolf Nureyev. She returned to Panama with her husband years later and died there.","['Panama', 'Britain', 'Cuba', 'Dance']"
1968-10-11,In Panama Pres. Arnulfo Arias was ousted in a coup by Gen&rsquo;l. Omar Torrijos. Arias was the founder of Panama's special security system and opened the vote to women before he was ousted.,['Panama']
1977-08-10,"US and Panama negotiations for a Panama Canal Zone treaty, begun on February 15, were completed [see Sep 7].","['Panama', 'USA']"
1977-09-07,"Pres. Carter and Gen'l. Torrijos signed the Panama Canal treaties (the Torrijos-Carter Treaties) in Washington, DC. The 2 treaties abrogated the Hay-Bunau Varilla Treaty of 1903 and called for the US to eventually turn over control of the waterway to Panama. The US Southern Command was scheduled to withdraw to new Miami headquarters by the end of 1999. The US agreed to clean up its bases before turning them over. The deal was negotiated by Sol Linowitz (d.2005).","['Panama', 'USA', 'CarterJ']"
1977-07-15,In Panama Gabriel Lewis Galindo (1928-1996) was appointed ambassador to the US with the hope of negotiating the transfer of the Panama Canal to Panama.,"['Panama', 'USA']"
1978-02-08,The deliberations of the Senate were broadcast on radio for the first time as members opened debate on the Panama Canal treaties.,"['Panama', 'USA', 'Radio']"
1978-04-18,"The U.S. Senate voted 68-32 to turn the Panama Canal over to Panamanian control on Dec. 31, 1999.","['Panama', 'USA']"
1978-06-16,President Carter and Panamanian leader Omar Torrijos exchanged instruments of ratification for the Panama Canal treaties.,"['Panama', 'USA', 'CarterJ']"
1979-10-01,"The 1977 Panama Canal Treaties entered into force. The US returned the Canal Zone, but not the canal, to Panama after 75 years.","['Panama', 'USA']"
1979-12-15,"The deposed Shah of Iran left the US for Panama, the same day the International Court of Justice in The Hague ruled that Iran should release all its American hostages.","['Panama', 'USA', 'Netherlands', 'Iran']"
1981-07-31,"The leader of Panama, General Omar Torrijos, died in a plane crash.","['Panama', 'Air Crash']"
1982-04-01,The U.S. transferred the Canal Zone to Panama.,"['Panama', 'USA']"
1983-08-12,General Manuel A. Noriega (b.1938) assumed command of Panama&rsquo;s National Guard.,['Panama']
1984-07-15,"The US Army School of the Americas, a training center for Latin American military officers, was moved from Panama to Fort Benning, Ga.","['GeorgiaUS', 'Panama', 'USA']"
1984-07-15,In Panama Nicolas Ardito Barletta was elected President.,['Panama']
1985-07-15,"In Panama Hugo Spadafora, a dissident leader, was decapitated. Manuel Noriega was later sentenced to 20 years for the murder.",['Panama']
1985-07-15,In Panama Manuel Antonio Noriega overthrew Pres. Barletta.,['Panama']
1987-01-22,"France named Manuel Noriega, head of Panama, a Commander of the Legion of Honor (Legion d&rsquo;Honneur).","['Panama', 'France']"
1988-02-05,"A pair of indictments were unsealed in Florida, accusing Panama's military leader, Gen. Manuel Antonio Noriega, of bribery and drug trafficking.","['Panama', 'USA', 'Florida']"
1988-02-25,"Panama's civilian president, Eric Arturo Delvalle announced the dismissal of Gen. Manuel Antonio Noriega as commander of the country's Defense Forces. The next day, Panama's National Assembly voted to oust Delvalle.",['Panama']
1988-02-26,"Eric Arturo Delvalle, ousted as president of Panama by the country's National Assembly, called for a national strike to repudiate Gen. Manuel Antonio Noriega.",['Panama']
1988-03-11,Pres. Reagan directed that actions be taken to suspend trade preferences available to Panama under the Generalized System of Preferences (GSP) and the Caribbean Basin Initiative.,"['Panama', 'USA', 'ReaganR']"
1988-03-18,"The government of Panama, controlled by Gen. Manuel Antonio Noriega, declared a ""state of urgency"" in a move apparently aimed at forcing the reopening of banks and other businesses that closed during Panama's economic and political crisis.",['Panama']
1988-04-08,Pres. Reagan issued Executive Order 12365 ordering the immediate blocking of all property and interests in property of the Government of Panama.,"['Panama', 'USA', 'ReaganR']"
1988-04-30,"Gen. Manuel Noriega, waving a machete, vowed at a rally to keep fighting U.S. efforts to oust him as Panama's military ruler.","['Panama', 'USA']"
1988-08-25,"In his sharpest attack yet on the Reagan administration's drug policies, Democratic presidential nominee Michael Dukakis criticized U.S. dealings with Panama's military leader, Gen. Manuel Noriega, as ""criminal.""","['Panama', 'USA', 'Massachusetts', 'ReaganR']"
1988-08-26,"Republican presidential nominee George Bush denounced Democrat Michael Dukakis' criticism of Reagan administration drug policies as ""an insult,"" one day after the Massachusetts governor called U.S. dealings with Panamanian General Manuel Noriega ""criminal.""","['Panama', 'USA', 'Massachusetts', 'ReaganR', 'BushHW']"
1988-10-22,"Hurricane Joan hit Nicaragua and killed 148 people. Hurricane Joan caused 216 deaths in the Caribbean or Central America. The storm hit Colombia, Costa Rica, Nicaragua, Panama, and Venezuela.","['Costa Rica', 'Nicaragua', 'Panama', 'Colombia', 'Venezuela', 'WeatherSA', 'Hurricane']"
1989-05-07,"Both sides claimed victory in Panama's national elections, with the opposition also charging a pattern of fraud. Panamanian voters rejected dictator Manuel Noriega's bid for reelection. Backed by a coalition of civilian parties, Guillermo Endara (1936-2009) overwhelmingly won the presidential election, but Noriega refused to recognize the results and unleashed a wave of repression against his opponents.","['Panama', 'Fraud']"
1989-05-08,"Former President Carter, a leader of an international team observing Panama's elections, declared that the armed forces were defrauding the opposition of victory.","['Panama', 'USA', 'CarterJ']"
1989-05-09,"President Bush complained that Panama's elections were marred by ""massive irregularities,"" and he called for worldwide pressure on General Manuel Antonio Noriega to step down as military leader.","['Panama', 'USA', 'BushHW']"
1989-05-10,"In Panama, the government of Gen. Manuel Antonio Noriega announced it had nullified the country's elections, which independent observers said the opposition had won by a 3-1 margin.",['Panama']
1989-05-13,"In unusually strong language, President Bush called on the people of Panama and the country's defense forces to overthrow their military leader, Gen. Manuel Antonio Noriega.","['Panama', 'USA', 'BushHW']"
1989-10-03,"Troops loyal to Panamanian leader General Manuel Noriega crushed a coup attempt by rebel mid-level officers. The officers, including Maj. Moises Giroldi, who led the failed coup against Noriega were later executed. Noriega was convicted in absentia in 1995 and in 1999 Panama sought his extradition to face trial.",['Panama']
1989-12-20,"The United States launched Operation Just Cause, sending troops into Panama to topple the government of Gen. Manuel Noriega. Guillermo Endara replaced Noriega. The US ended on Feb 13, 1990. It cost $182 million and left 23 US casualties with 320 wounded. A 1997 book: ""The Memoirs of Manuel Noriega"" by Noriega and Peter Eisner told his version.","['Panama', 'USA']"
1989-12-24,"Ousted Panamanian ruler Manuel Noriega, who had succeeded in eluding US forces, took refuge at the Vatican's diplomatic mission in Panama City. It took weeks of negotiation and loud rock music played incessantly outside the embassy by American forces before Noriega agreed to give himself up.","['Panama', 'USA', 'Vatican', 'Pop&Rock;']"
1989-12-27,"President Bush, on a visit to Beeville, Texas, said he was determined to bring deposed Panamanian leader Manuel Noriega to justice ""for poisoning the children of the United States"" with illegal drugs.","['Panama', 'USA', 'Texas', 'BushHW']"
1990-01-03,"Ousted Panamanian leader Manuel Noriega surrendered to U.S. forces, 10 days after taking refuge in the Vatican's diplomatic mission.","['Panama', 'USA']"
1990-01-04,Deposed Panamanian leader Manuel Noriega was arraigned in federal district court in Miami on drug-trafficking charges.,"['Panama', 'USA', 'Florida']"
1990-01-05,President Bush told a news conference the United States had a strong case against deposed Panamanian leader Manuel Noriega and said he was convinced Noriega would receive a fair trial on drug-trafficking charges.,"['Panama', 'USA', 'BushHW']"
1990-01-06,"Defense Secretary Dick Cheney told CNN the U.S. invasion of Panama should not be viewed as a new ""Bush doctrine"" inclined toward military intervention in countries where democratic elections had been subverted.","['Panama', 'USA']"
1990-01-17,"A federal judge in Miami set March 1990 for the trial of ex-Panamanian leader Manuel Noriega on drug trafficking charges. After initial delays, Noriega was tried and convicted of racketeering and conspiracy to distribute cocaine, and was sentenced to 40 years in prison, later cut to 30 years.","['Panama', 'USA', 'Florida']"
1990-01-26,"Attorneys for Manuel Noriega challenged the jurisdiction of U.S. courts to try the deposed Panamanian leader on drug-trafficking charges, and said Noriega should be declared a prisoner of war.","['Panama', 'USA']"
1990-03-02,A grenade attack in downtown Panama killed a U.S. soldier and injured 28 other people at the My Place discotheque on Via Espania and Calle 50.,"['Panama', 'USA']"
1991-01-04,Deposed Panamanian leader Manuel Noriega was arraigned in federal district court in Miami on drug-trafficking charges.,"['Panama', 'USA', 'Florida']"
1991-01-18,"The US acknowledged that the CIA and US Army paid Panama&rsquo;s military leader Manuel Noriega $322,226 from 1955-1986. Noriega began receiving money from the CIA in 1976.","['Panama', 'USA', 'CIA']"
1991-04-22,"Sixty people were killed when a strong earthquake shook Costa Rica and neighboring Panama, causing millions of dollars&rsquo; worth of damage.","['Costa Rica', 'Panama', 'Earthquake']"
1991-05-15,"Defense lawyers released docs claiming Noriega is ""CIA's man in Panama.""","['Panama', 'USA', 'CIA']"
1991-09-05,Jury selection began in Miami in the drug and racketeering trial of former Panamanian ruler Manuel Noriega.,"['Panama', 'USA', 'Florida']"
1992-04-09,Former Panamanian ruler Manuel Noriega was convicted in Miami of eight drug and racketeering charges; he is serving a 30-year prison sentence.,"['Panama', 'USA', 'Florida']"
1992-06-10,"In Panama US Sgt. Zak Hernandez (22) was killed by gunfire from a passing car that sprayed the military vehicle in which he was riding. Pedro Miguel Gonzalez, son of a Gerardo Gonzalez who is the President of Congress and leader of the PRD, was arrested and charged along with two others for the killing. They were found not guilty in 1997.","['Panama', 'USA']"
1992-06-11,"President Bush's stopover in Panama en route to the Earth Summit in Brazil was disrupted when riot police fired tear gas at protesters, preventing Bush from speaking at a rally praising the revival of democracy in Panama.","['Panama', 'USA', 'BushHW']"
1992-07-10,"A federal judge in Miami sentenced former Panamanian leader Manuel Noriega, convicted of drug and racketeering charges, to 40 years in prison. However, a judge  in March, 1998, cut Noriega's sentence by ten years, meaning he could be eligible for parole in 2000.","['Panama', 'USA', 'Florida']"
1993-05-25,"In Guatemala President Jorge Serrano Elias engineered a ""self-coup."" He moved to live in Panama and faced extradition attempts. After the failed coup the Congress designated Ramiro de Leon Carpio as president and Arturo Herbruger as vice president to serve to Jan 1996.","['Guatemala', 'Panama']"
1993-11-21,"Three former Panamanian soldiers were found guilty of involvement in the previously unsolved 1971 murder of Hector Gallego, a Colombian Roman Catholic priest.","['Panama', 'Colombia', 'Murder']"
1994-07-07,Panama withdrew its offer to the United States to accept thousands of Haitian refugees.,"['Haiti', 'Panama', 'USA']"
1994-07-19,"A bomb ripped apart a Panama commuter plane, killing 21, including 12 Jews, a day after a car bomb destroyed a Jewish community center in Buenos Aires, Argentina, killing 95 people.","['Panama', 'Air Crash', 'Jews']"
1994-10-12,Panama granted political asylum to ousted Haitian military leader Raoul Cedras.,"['Haiti', 'Panama']"
1994-12-19,CNN publicly acknowledged it had disobeyed a judge's order in broadcasting former Panamanian military ruler Manuel Noriega's prison telephone conversations.,"['Panama', 'USA', 'TV', 'Journalism']"
1994-07-15,"In Panama Ernesto Perez Balladares campaigned for the presidency at the head of the Democratic Revolutionary Party (PRD) and was elected. He was later accused of accepting $51,000 in drug money in the campaign.",['Panama']
1996-06-24,In Panama a coalition of human rights groups called for early elections saying that the president and his party have lost authority to rule. Attorney General Jose Antonio Sossa said that the law for punishing individuals who accept drug money in political campaigns was not yet in effect when drug money went to Pres. Balladares.,['Panama']
1996-07-04,"In Panama police arrested Jaime Revello, a top Colombian drug lord, and seized 4.5 tons of cocaine.","['Panama', 'Colombia']"
1996-07-15,"The US put Belize, Colombia, Costa Rica, Italy, Japan, Mexico, Panama, Vanuatu, and Venezuela under embargo for beastliness to dolphins and whales.","['Italy', 'Belize', 'Costa Rica', 'Panama', 'Colombia', 'Venezuela', 'USA', 'Japan', 'Mexico', 'Whales', 'Vanuatu']"
1997-01-16,"Panama's Law No. 5 was passed and confirmed a deal in which Hutchison Whampoa, a Chinese Hong Kong corporation, agreed to pay $22.5 million a year plus what one Panamanian called ""bucket loads of money"" under the table.","['Panama', 'China']"
1997-07-02,"In Japan the Panamanian registered Diamond Grace oil tanker ran aground in Tokyo Bay and spilled nearly 2 million gallons of oil. The amount spilled was revised to 390,000 gallons.","['Panama', 'Oil', 'Japan', 'Environment', 'Ship']"
1997-08-13,"From Panama it was reported that Pres. Balladares has given journalist Gustavo Gorriti until the end of the month to leave Panama. Mr. Gorriti had published investigative articles detailing the financial dealings of the president&rsquo;s election campaign, his allies and gentlemen of questionable character.","['Panama', 'Journalism']"
1998-03-06,"It was reported that Panama hired a Canadian Indian tribe, the Tsuu T&rsquo;ina, to clean out unexploded bombs and shells from an area of Empire Range, which US military forces abandoned.","['Panama', 'Canada', 'USA', 'AmerIndian']"
1998-12-10,Nicaragua filed a large damage suit against all major US tobacco companies. Guatemala and Panama already had suits on file.,"['Guatemala', 'Nicaragua', 'Panama', 'USA', 'Smoking']"
1999-03-04,Manuel Noriega's sentence was reduced from 40 years to 30 by a federal judge in Florida. He would be eligible for parole in 2007.,"['Panama', 'USA', 'Florida']"
1999-03-11,The US Rodman naval base in Panama was transferred to Panama.,"['Panama', 'USA']"
1999-05-02,"In Panama presidential elections were scheduled. Martin Torrijos, son of Gen'l. Omar Torrijos, was favored over Mireya Moscoso (52), wife of the late Arnulfo Arias. Moscoso led the vote in early returns.",['Panama']
1999-09-01,In Panama Mireya Moscoso began serving as the 1st female president.,['Panama']
1999-11-01,"In Panama the US handed over Howard Air Force Base, Fort Kobbe and the Farfan residential zone.","['Panama', 'USA']"
1999-11-02,In Panama suspected Colombian rebels hijacked 2 helicopters.,"['Panama', 'Colombia']"
1999-12-14,In Panama former US Pres. Jimmy Carter symbolically turned over the Panama Canal. The official ownership transfer date was Dec 31.,"['Panama', 'USA', 'CarterJ']"
1999-12-31,The US was by a 1977 treaty required to give up control of the Panama Canal and withdraw its forces by this date. The treaty also required the US to pay for environmental cleanup.,"['Panama', 'USA']"
1999-07-15,"France tried Manuel Noriega, former dictator of Panama, in absentia on money laundering charges. He was convicted and sentenced to 10 years in prison.","['Panama', 'France']"
2000-06-23,"A Panamanian registered tanker sank off Cape Town, South Africa and at least 1,300 tons of seeped out. Oil began to soak the local penguins at Robben Island.","['Panama', 'Oil', 'Environment', 'South Africa', 'Ship']"
2000-09-24,"Vladimiro Montesinos, Peru&rsquo;s ousted spy chief, fled to Panama.","['Panama', 'Peru']"
2000-10-03,"The Natuna Sea, a Panama-registered tanker, went aground between Indonesia and Singapore and spilled some 2 million gallons of crude oil.","['Panama', 'Oil', 'Indonesia', 'Environment', 'Ship']"
2000-11-17,"In Panama Luis Posada, an anti-Castro terrorist, was arrested along with other Cuban-Americans associated with anti-Communist groups, after Fidel Castro arrived for a regional summit.","['Panama', 'USA', 'Cuba', 'Assassin']"
2001-03-12,"In Mexico the Fox administration announced its "" Plan Puebla-Panama,"" an effort to close the economic gap between the north and poorer south.","['Panama', 'Mexico']"
2001-05-14,Panama agreed to suspend a 66% increase in bus fares for 7 months following protests and riots in which over 100 people were injured.,"['Panama', 'Mad Crowd']"
2001-06-14,In Panama it was reported that 5 patients died from radiation therapy when incorrect data was punched into a computer program.,"['Panama', 'Medical']"
2002-03-19,"Former Panamanian dictator Manuel Noriega's appeal for parole was turned down, despite his attorney's argument that he should be released because of his longtime service to the U.S. government while in power and as a paid CIA source.","['Panama', 'USA']"
2003-01-08,"Manuel Ciervides Lacayo, the Panamanian consul to Guayaquil, Ecuador, was shot and killed while vacationing in Panama.","['Panama', 'Ecuador', 'Murder']"
2003-01-19,"Colombian AUC gunmen kidnapped three Americans (Robert Y. Pelton, Mark Wedeven and Megan A. Smaker) just north of the Colombian border in Panama. The writer and 2 hikers were released Jan 23.","['Panama', 'Colombia', 'USA']"
2003-06-03,"Miss Dominican Republic, 18-year-old Amelia Vega, was crowned in Panama City, Panama, as Miss Universe 2003.","['Panama', 'Dominican Rep.', 'Pageant']"
2003-10-30,"In Panama more than 20,000 teachers and construction workers stayed off the job, staging a daylong strike to demand that the government retain control over the country's social security system.","['Panama', 'Labor']"
2003-11-07,"The defending champion US baseball team failed to qualify for the 2004 Athens Olympics, losing to Mexico 2-1 in the quarterfinals of a qualifying tournament in Panama City, Panama.","['Panama', 'USA', 'Mexico', 'Baseball']"
2003-12-25,"A strong earthquake shook the border of Costa Rica and Panama, killing an infant and leaving dozens of others with mainly minor injuries.","['Costa Rica', 'Panama', 'Earthquake']"
2004-01-10,"Panamanian officials arrested Arcangel de Jesus Henao Montoya, a top leader of the Colombian Norte de Valle drug cartel, in the southern city of Torti and took him to Panama City. He was soon handed over to US officials.","['Panama', 'Colombia', 'USA']"
2004-01-21,"Ecumenical Patriarch Bartholomew arrived in Cuba to consecrate  St. Nicholas Cathedral on Jan. 25, said Metropolitan Athenagoras of Panama and Central America. There were 1,200 practicing Orthodox Christians in Cuba.","['Panama', 'Cuba']"
2004-05-02,"Martin Torrijos (40), son of former military dictator Gen&rsquo;l. Omar Torrijos, was easily elected as Panama's next leader in its first presidential vote since the handover of the Panama Canal and withdrawal of US troops in December 1999. Torrijos promised to tackle vested interests.",['Panama']
2004-07-02,"In Panama a US-registered small jet crashed into an airport hangar during takeoff and burst into flames, killing seven people.","['Panama', 'Air Crash']"
2004-08-26,"Cuba broke diplomatic ties with Panama after the outgoing Panamanian president Mireya Moscoso pardoned four Cuban exiles, including Luis Posada Carriles, the communist government accuses of trying to assassinate President Fidel Castro.","['Panama', 'Cuba']"
2004-09-01,"Martin Torrijos, the son of a former dictator, took office as Panama's president promising jobs, better relations with Cuba and a referendum on a proposed $8 billion expansion of the Panama Canal.","['Panama', 'Cuba']"
2004-11-19,"Cuba and Panama agreed to restore consular relations, taking a step toward renewal of full diplomatic ties at a meeting on the sidelines of an Ibero-American summit.","['Panama', 'Cuba']"
2005-01-11,"Costa Rica Pres. Abel Pacheco signed a decree of national emergency after 3 days of heavy rains forced nearly 13,000 people from their homes and killed at least one person. Panama reported 2 dead.","['Costa Rica', 'Panama']"
2005-03-03,"The seven Central American nations (Belize, Costa Rica, El Salvador, Guatemala, Honduras, Nicaragua and Panama) agreed to create a rapid-response force to combat drug trafficking, terrorism and other regional threats.","['Belize', 'Costa Rica', 'El Salvador', 'Guatemala', 'Honduras', 'Nicaragua', 'Panama', 'Drugs']"
2005-03-18,"Sol Linowitz (91), US diplomat, died. In 1977 he negotiated the 1999 transfer of the Panama Canal to Panama.","['Panama', 'USA']"
2005-03-31,"The president of Ecuador's Supreme Court annulled corruption charges against former President Abdala Bucaram, paving the way for his possible return from political asylum in Panama.","['Panama', 'Ecuador']"
2005-04-04,"Evergreen Int&rsquo;l., a Panamanian shipping line, pleaded guilty to over 2 dozen counts of illegal dumping around the US. It was ordered to pay a fine of $25 million, one of the largest ever imposed for polluting the ocean.","['Panama', 'USA', 'Environment']"
2005-05-25,"Riot police in Panama City fired tear gas and rubber bullets to disperse people throwing bottles and rocks during a protest by an estimated 10,000 workers and students against proposed changes in the country's pension system.","['Panama', 'Labor']"
2005-06-30,"In Honduras Central American leaders agreed to create a regional special forces unit to fight drug trafficking, gang violence and terrorism within their borders. The 2-day regional meeting included the presidents of Costa Rica, Dominican Republic, El Salvador, Guatemala, Honduras, Mexico, Nicaragua, and Panama.","['Costa Rica', 'El Salvador', 'Guatemala', 'Honduras', 'Nicaragua', 'Panama', 'Mexico', 'Drugs', 'Dominican Rep.']"
2005-07-28,"In Panama a 2-day summit started for 25 members of the Association of Caribbean States (ACS). Venezuela said it will continue offering crude on favorable terms, and even in barter trades, to countries in the region. Thirteen of the 15 members of the narrower Caribbean Community group, or Caricom, mainly island nations, have already signed onto Venezuela's oil initiative.","['Panama', 'Venezuela', 'ACS', 'Caricom']"
2005-08-20,"Cuba and Panama restored diplomatic ties, one year after they were broken off in a dispute sparked by the decision by Panama's previous president to pardon four Cuban exiles accused of trying to assassinate Cuban President Fidel Castro.","['Panama', 'Cuba']"
2005-11-07,"President Bush met with Panamanian President Martin Torrijos in Panama City, Panama, where they discussed a free trade agreement. President Bush, in Panama, defended US interrogation practices and called the treatment of terrorism suspects lawful, saying, ""We do not torture.""","['Panama', 'USA', 'BushGW']"
2005-11-30,"In Cuba Panama's President Martin Torrijos greeted dozens of his compatriots as they arrived in Havana for free eye operations, the latest sign of warming relations between the two countries.","['Panama', 'Cuba']"
2006-01-10,"Panama's agricultural minister resigned, accusing the US of pressuring the Central American country to accept lower agricultural inspection standards.","['Panama', 'USA', 'Agriculture']"
2006-01-27,"A Panamanian ship collided with two other vessels near the Peruvian port of Callao, splitting in two and leaving one sailor missing.","['Panama', 'Peru', 'Ship']"
2006-05-14,"Aras Baskauskas, a 24-year-old yoga instructor from Santa Monica, Calif., won ""Survivor: Panama, Exile Island,"" the 12th edition of the CBS reality show.","['Panama', 'USA', 'TV']"
2006-07-11,"Central American presidents agreed on a plan to ease border controls and install a common customs system on the way to negotiating an eventual free-trade agreement with the EU. The agreement signed by Panama, Costa Rica, Guatemala, Nicaragua, El Salvador, Honduras and Belize would allow residents to cross borders without passports or visas.","['Belize', 'Costa Rica', 'El Salvador', 'Guatemala', 'Honduras', 'Nicaragua', 'Panama']"
2006-10-06,"The Panamanian-registered Giant Step ran ashore after catching fire in rough seas off Kashima in eastern Japan, killing one crewman and injuring two others. Of the remaining crew, 13 were rescued but nine are missing.","['Panama', 'Japan', 'Ship']"
2006-10-09,"Panamanian authorities said they suspect a medicine taken to treat high blood pressure may be among the factors leading to the deaths of 21 people since July who have succumbed to a mysterious illness that triggers kidney failure. Panama's health minister stopped sales of the medication, Lisinopril Normon, on Oct 6 and began removing it from pharmacy shelves. About 9,000 Panamanians were taking the medicine. Total deaths eventually reached at least 116 from contaminated medications [see Oct 18].","['Panama', 'Pharma']"
2006-10-18,"Panamanian authorities said that 26 people had died after drinking tainted cough medicine, and five people had been detained on suspicion of selling contaminated material to a factory that produced the medication. Panama set up 34 round-the-clock clinics across the nation to identify the sick and perform blood tests for kidney damage. The contaminated medicines contained a chemical cousin of antifreeze, diethylene glycol, which is used to keep glue and cosmetics moist. Officials believe it turned up in 100,000 bottles of cough syrup, 20,000 of which have not been recovered. In 2007 it was reported that a Chinese factory was the source of a counterfeit chemical that killed dozens of people in Panama after it was used in human medications. Total deaths reached 116 from contaminated medications.","['Panama', 'China', 'Medical', 'Pharma']"
2006-10-22,"Voters in Panama approved a $5.25 billion referendum, pushed by Pres, Torrijos, to expand the Panama Canal. The project was expected to take 8 years and provide some 7,000 jobs.",['Panama']
2006-10-23,"In Panama mechanical problems triggered a fire that raced through a bus in Panama City, killing at least 18 people, injuring 25.",['Panama']
2006-11-01,"Venezuela and US-backed Guatemala agreed to withdraw from the race and support Panama, a compromise reached after voting in the UN General Assembly dragged through 47 rounds of balloting.","['Guatemala', 'Panama', 'Venezuela', 'UN']"
2006-11-03,Latin American and Caribbean nations unanimously endorsed Panama for a seat on the UN Security Council after Guatemala and Venezuela agreed to withdraw to break a deadlock that dragged on through 47 votes in the General Assembly.,"['Panama', 'UN']"
2006-11-07,"Panama won a seat on the UN Security Council on the 48th ballot after US-backed Guatemala and Venezuela, led by leftist anti-American President Hugo Chavez, dropped out to end a deadlock.","['Panama', 'UN']"
2006-11-24,Panama&rsquo;s government said heavy rains and flooding have left at least eight people dead and damaged hundreds of homes.,['Panama']
2007-03-18,Panamanian police working with agents from the US Drug Enforcement Agency  seized a boat off the nation's Pacific coast carrying 21.4 tons of cocaine in one of the biggest maritime cocaine busts anywhere on record.,"['Panama', 'Drugs']"
2007-04-10,"In Panama the charred and mutilated body of Staten Island businesswoman Toni Grossi Abrams (57) was found on the outskirts of Panama City. Debra Ann Ridgley (56) of Pennsylvania, was later arrested as a suspect in the killing but had not been formally charged. Police searched for two other suspects identified as Colombian men, one of whom has previous drug charges against him.","['Panama', 'NYC', 'Pennsylvania', 'Murder']"
2007-07-04,A top Panamanian prosecutor said tests show at least 94 people have died from taking medicine contaminated with diethylene glycol since July 2006 and that 293 more deaths are under investigation. Total deaths reached 116 from contaminated medications.,"['Panama', 'China', 'Medical', 'Pharma']"
2007-07-20,"China said it had shut down several firms at the heart of food and drug safety scares, including a chemical plant implicated in the deaths of 94 people in Panama. China also said that it ""strongly opposed"" decisions by the United States to initiate anti-dumping and countervailing duty investigations on imports of some woven sacks and steel pipes from China. Total deaths in Panama reached 116 from contaminated medications.","['Panama', 'USA', 'China', 'Pharma']"
2007-08-27,Panama&rsquo;s cabinet resigned after a tainted medicine scandal and the government&rsquo;s failure to implement construction safety standards.,['Panama']
2007-09-01,"In Panama Pedro Miguel Gonzalez Pinzon, a man wanted in the US on charges of involvement in the killing of an American soldier 15 years ago in Panama, was elected president of that country's congress.",['Panama']
2007-09-03,Panamanian President Martin Torrijos celebrated the start of construction on two wider sets of locks being added to both sides of the Panama canal.,['Panama']
2007-12-09,"Anne Darwin, whose husband is accused of faking his own death in an insurance scam, was arrested upon her return to Britain from Panama on suspicion of fraud. Police said Darwin masterminded an elaborate fraud to pay off family debts.","['Panama', 'Britain', 'Scam', 'Fraud']"
2007-12-25,"In Panama the bodies of Michael Klein (37), a California hedge fund manager, his daughter Talia Klein (13) and pilot Edwin Lasso (23) were found in an uninhabited region known as Las Ovejas on the slope of the Baru volcano. Francesca Lewis (12) survived the Dec 23 crash, but cold, wet weather prevented authorities from evacuating her immediately.","['Panama', 'USA', 'Air Crash']"
2008-04-04,"In Panama Cecilio Padron (66), a Cuban-American businessman tied to an influential anti-Castro organization, was kidnapped. He was released on Feb 23, 2009 following a $3 million ransom. Three national police officers and two civilians were later detained in connection with the kidnapping. The police were accused of handing Padron over to his kidnappers in exchange for $500 each.","['Panama', 'USA']"
2008-05-29,Chile's national police chief and 10 other people were killed when the aging Panamanian government helicopter they were riding in crashed into a three-story building in the heart of Panama City.,"['Panama', 'Chile', 'Air Crash']"
2008-06-09,Panama security forces found 6 tons of cocaine in 273 packets on board three boats off Coiba island. Police were searching for 15 people who escaped the raid.,"['Panama', 'Drugs']"
2008-07-01,"Panama's Supreme Court overturned a presidential pardon of four Cuban emigres accused of plotting to kill Fidel Castro, including former CIA operative Luis Posada Carriles. The court ruled that 180 pardons granted in 2004 by outgoing President Mireya Moscoso, including those the four Cubans, were unconstitutional.","['Panama', 'Cuba']"
2008-08-20,Panama&rsquo;s President Martin Torrijos signed an executive order creating a new intelligence agency and a border police force to combat growing drug crimes. This prompted concerns of a return to its militarized past.,['Panama']
2009-02-28,"In Panama Tomas Altamirano Mantovani (49), a prominent ruling party lawmaker and son of a former vice president, died in a traffic accident.",['Panama']
2009-05-03,"Panama held elections. Ricardo Martinelli (57), a conservative supermarket magnate, was favored to win the presidential elections. Martinelli won the election in a landslide, promising to guide the country through the world economic crisis and an ambitious expansion of the Panama Canal.",['Panama']
2009-05-29,"The nonbinding New York Declaration, an agreement between the signatory flag states which condemns acts of piracy and armed robbery against vessels and seafarers, was originally tabled by The Bahamas, the Republic of Liberia, the Republic of Marshall Islands and the Republic of Panama, four nations that account for more than half of global shipping.","['Bahamas', 'Panama', 'Marshall Islands', 'Somalia', 'Ship', 'Pirates']"
2009-07-01,"Businessman Ricardo Martinelli (57) was sworn in as Panama's new president, promising to start the biggest job-creation push ever in the country. Martinelli said he wants to make the nation of 3.3 million inhabitants the best place to do business in Latin America.",['Panama']
2009-08-11,"Canada signed a free trade deal with Panama and said it wanted to conclude more such agreements, given that talks to open up the global trading system were going nowhere.","['Panama', 'Canada']"
2009-09-28,"Guillermo Endara (73), Panama&rsquo;s former President (1989-1994), died. He led Panama to democracy after the US invasion that toppled dictator Gen. Manuel Noriega.",['Panama']
2009-10-31,"In Playa Blanca, Panama, 2 teenage boys wounded an American and a Russian tourist in a botched robbery attempt. Police announced the arrest of the 2 teenagers on Nov 3.","['Panama', 'USA', 'Robbery', 'Teens Amuck']"
2009-11-02,"Panama's government said it is building four air and sea monitoring stations on its Pacific coast to fight trafficking of drugs, weapons and migrants. Assistant Interior Minister Alejandro Garuz said the sites will be manned by the national police, border agents and other government agencies.",['Panama']
2010-01-14,In Panama former Pres. Ernesto Perez Balladares (194-1999) was put under house arrest while authorities investigate accusations that he laundered money.,['Panama']
2010-01-27,Panama's national police force killed three guerrillas from a Colombian rebel group in a confrontation along the sparsely populated frontier between the two countries. Two others were captured while and one escaped.,"['Panama', 'Colombia']"
2010-03-21,"In Panama Cheryl Lynn Hughes (50), an American, went missing in western Bocas del Toro province. Police on July 20 found her body and the skeletal remains of another person buried in the back patio of a hotel owned by William Adolfo Cortez, of Texas.","['Panama', 'USA', 'Murder']"
2010-04-26,"Former Panamanian dictator Manuel Noriega extradited was from the US to France to face money laundering charges in a French courtroom, opening up a whole new legal battle for the strongman who spent two decades behind bars in Florida for drug trafficking.","['Panama', 'USA', 'France']"
2010-04-30,"Panama police found an arsenal of assault rifles, grenades and almost a half million rounds of ammunition at the home of Professor Vinicio Jimenez, a Guatemalan-born sociology professor. Their raid netted 47 assault rifles, 24 machine pistols, 487,900 rounds of ammunition and almost 4,000 grenades and grenade-style munitions.","['Panama', 'Guns']"
2010-07-02,A Panamanian court dropped money laundering charges against former Nicaraguan President Arnoldo Aleman. The court argued the charges against Aleman were similar to charges he has faced in Nicaragua.,"['Nicaragua', 'Panama']"
2010-07-07,A French court convicted Manuel Noriega of money-laundering and sentenced Panama's former dictator to seven years in jail after he spent two decades in a US prison.,"['Panama', 'France']"
2010-07-08,"In western Panama striking banana plantation workers and police clashed, leaving one man dead and 100 people hurt. A 2nd man was killed by police on July 10.","['Panama', 'Labor']"
2010-07-26,"In Nicaragua William Adolfo Cortez of Texas and his wife Jane, an American couple wanted in Panama in the March 21 death of a US woman, were arrested by the Nicaraguan army at the border with Costa Rica.","['Nicaragua', 'Panama', 'USA']"
2010-07-30,"In Panama William Dathan Holbert, a jailed US man, admitted killing five other Americans so he could take over their businesses and other properties in a Panamanian resort area. Laura Michelle Reese, his wife, refused to talk. Holbert said his first killings in Panama occurred about three years ago, when he fatally shot a US citizen named Mike Brown, his wife and small son in the head.","['Panama', 'USA', 'Murder']"
2010-08-03,Authorities in Panama said they recovered three more bodies on property owned by a jailed US man who prosecutors say has confessed to killing five fellow Americans to get their money and property in a Panamanian resort area.,"['Panama', 'USA', 'Murder']"
2010-12-08,In Panama historic flooding forced the closure of the Panama Canal for the first time in 21 years.,"['Panama', 'Flood']"
2010-12-10,"Panama&rsquo;s President Ricardo Martinelli said he will declare a national state of emergency allowing the government to mobilize more resources for affected areas. Heavy rains and flooding in Panama have killed 10 people and forced more than 4,700 from their homes.","['Panama', 'Flood']"
2011-02-10,"Panamanian lawmakers repealed a law preventing foreign government investment in mining, clearing the way for Canada's Inmet Mining to build the largest copper mine in Central America.","['Panama', 'Canada']"
2011-02-24,"In Panama Rene Sanabria, a retired Bolivian police Gen., was arrested at Washington's request and extradited to the US. He had an initial federal court appearance in Miami the next day on charges he ran a cocaine trafficking ring. Sanabria headed the FELCN counternarcotics police in 2007-2008. Other alleged members of the trafficking organization were identified by Bolivian authorities as Col. Milton Sanchez Pantoja, Maj. Edwin Raul Ona Moncada and Capt. Franz Hernando Siles Rios. On Sep 23 Sanabria was sentenced to 14 years in prison.","['Bolivia', 'Panama', 'USA', 'Drugs']"
2011-02-25,Panama customs director Gloria Moreno de Lopez said that nearly a half ton (421 kilos) shark fins were found at Panama's international airport in a shipment labeled as dried fish. She says the container originated in Ecuador and was bound for New York City.,"['Panama', 'Ecuador', 'Animal']"
2011-06-22,"In Guatemala the World Bank unveiled a billion-dollar plan to fund security measures in Central America, amid other hundred-million-dollar pledges from donors bidding to cut a wave of drug gang-related violence sweeping the region. The announcement came as leaders of Belize, Costa Rica, El Salvador, Guatemala, Honduras, Nicaragua, and Panama attended the Central American Security Conference aiming to curb crime fueled by a spillover from Mexico's war on drug cartels.","['Belize', 'Costa Rica', 'El Salvador', 'Guatemala', 'Honduras', 'Nicaragua', 'Panama', 'World Bank']"
2011-07-30,Panamanian police seized more than half a ton of heroin inside an abandoned truck parked along a road in the remote coastal town of Gobea. It was the largest seizure of the drug in the country's history.,"['Panama', 'Drugs']"
2011-08-02,French authorities agreed to extradite Manuel Noriega back to Panama.,"['Panama', 'France']"
2011-09-05,Authorities in Panama arrested 80 Panamanians and Colombians breaking up a major cocaine trafficking organization that moved drugs from Colombia to Panama and then north to Mexico and the United States.,"['Panama', 'Colombia']"
2011-09-16,Authorities in Panama said they have found five bodies buried under the floor of a house and believe the remains are of young people of Chinese origin who were kidnapped for ransom in the past two years.,['Panama']
2011-10-12,"The US Congress approved free trade agreements with South Korea, Colombia and Panama, ending a four-year drought in the forming of new trade partnerships and giving the White House and Capitol Hill the opportunity to show they can work together to stimulate the economy and put people back to work.","['Panama', 'Colombia', 'USA', 'South Korea']"
2011-10-21,"Pres. Obama signed free trade agreements with Colombia, Panama and South Korea.","['Panama', 'Colombia', 'USA', 'South Korea', 'ObamaB']"
2011-11-23,"A French court ruled that former dictator Manuel Noriega can be extradited to Panama to serve time for past crimes, more than 20 years after being ousted and arrested in a US invasion.","['Panama', 'France']"
2011-12-03,"In Panama a small plane, piloted by a US citizen, crashed about 50 miles west of Panama City, killing pilot Monty Polo and Panamanian passenger Josue Cedeno.","['Panama', 'USA', 'Air Crash']"
2011-12-11,"Ex-Panama dictator Noriega was flown home for new punishment after 22 years in US, French jails.",['Panama']
