1508-08-12,"Ponce de Leon arrived and conquered the island of Boriquen (Puerto Rico). Spain had appointed him to colonize Puerto Rico. He explored Puerto Rico and Spanish ships under his command began to capture Bahamanian Tainos to work as slaves on Hispaniola. His settlement at Caparra, 2 miles south of San Juan Bay, was plagued by Taino Indians and cannibalistic Carib Indians.","['Spain', 'Puerto Rico', 'Explorer']"
1575-09-21,A major hurricane hit Puerto Rico on the feast day of St. Matthew and became known as the San Mateo hurricane.,"['Puerto Rico', 'Hurricane']"
1804-09-21,Another major hurricane hit Puerto Rico on the feast day of St. Matthew and became known as the San Mateo II hurricane [see 1575].,"['Puerto Rico', 'Hurricane']"
1898-07-25,US Gen&rsquo;l. Nelson A. Miles (1839-1925) landed troops at Guanica on the southern coast of Puerto Rico. Spain and the US came to terms at the Treaty of Paris and the US acquired Puerto Rico. Puerto Rico became a US territory. He was promoted to lieutenant general in 1901. He retired from the army in 1903. His books include Personal Recollections and Observations (1896) and Serving the Republic (1911).,"['USA', 'Writer', 'Puerto Rico']"
1917-03-02,"President Woodrow Wilson signed the Jones-Shafroth Act. This law gave Puerto Ricans U.S. citizenship. The Jones Act separated the Executive, Judicial, and Legislative branches of Puerto Rican government, provided civil rights to the individual, and created a locally elected bicameral legislature. The two houses were a Senate consisting of 19 members and a 39-member House of Representatives. However, the Governor and the President of the United States had the power to veto any law passed by the legislature. Also, the United States Congress had the power to stop any action taken by the legislature in Puerto Rico.","['USA', 'Puerto Rico', 'WilsonW']"
1950-11-01,"Two members of a Puerto Rican nationalist movement, Oscar Collazo and Griselio Torresola, tried to force their way into Blair House in Washington to assassinate President Truman. The attempt failed, and one of the pair Griselio Torresola, was shot dead. On July 24, 1952, Truman commuted Collazo&rsquo;s death sentence to life imprisonment, on the same day he signed an act enlarging the self-government of Puerto Rico. In 2005 Stephen Hunter authored &ldquo;American Gunfight: The Plot to Kill Harry Truman.&rdquo;","['Puerto Rico', 'TrumanH']"
1951-07-15,"In Puerto Rico Rio Piedras, a suburb of San Juan, merged with San Juan. It is an industrial and agricultural trading center. The Univ. of Puerto Rico Medical Sciences campus is located there.","['USA', 'Puerto Rico']"
1954-03-01,"Puerto Rican nationalists opened fire from the gallery of the U.S. House of Representatives, wounding five congressmen. In 1998 the granddaughter of one of the nationalists published a family memoir. Lolita Lebron (1919-2010), Rafael Cancel Miranda, Irving Flores and Andres Figueroa Cordero all received lengthy prison sentences. President Jimmy Carter granted them clemency in 1979 and they were released.",['Puerto Rico']
1968-07-15,"Nicky Cruz (b.1939 in Puerto Rico), former NYC city gangster, wrote his autobiography ""Run, Baby, Run."" He had converted to Christianity in 1958 and begun ministering to inner city youth.","['USA', 'Puerto Rico', 'Books', 'Biography']"
1971-08-29,"Nathan Leopold (b.1904), US kidnapper and murderer of Bobby Franks (1924), died in Puerto Rico.","['USA', 'Puerto Rico']"
1972-12-31,"Roberto Clemente (b.1934), baseball player, died in a plane crash while enroute from Puerto Rico to help earthquake victims in Nicaragua. In 2006 David Maraniss authored &ldquo;Clemente.&rdquo;","['Nicaragua', 'Air Crash', 'Baseball', 'Puerto Rico', 'Biography']"
1973-10-22,"Pablo Casals (96), Spanish cellist, conductor and composer died in Rio Piedras, Puerto Rico.","['Spain', 'Composer', 'Puerto Rico']"
1975-01-24,"In New York City, the FALN, a militant group seeking independence for Puerto Rico, sets off a bomb in Fraunces Tavern. Four people were killed and 53 injured.","['USA', 'NYC', 'Puerto Rico', 'Terrorism']"
1976-07-15,"Section 936 provided US firms operating in Puerto Rico with tax-free income. It helped to stimulate industrialization and infrastructure development on the island. However it skewed investment towards technologies that were too advanced for Puerto Rico&rsquo;s stage of development. On August 20, 1996 the U.S. Congress repealed Section 936 of the US Internal Revenue Code, with a clause that retains its benefit for ten years of existing corporations. Section 30A was created to substitute Section 936.","['USA', 'Taxes', 'Puerto Rico']"
1976-07-15,"The Summit of leading industrial nations was held in San Juan, Puerto Rico. The addition of Canada let it be called the Group of Seven or G-7.","['Puerto Rico', 'G7']"
1978-03-22,"Karl Wallenda, the 73-year-old patriarch of ""The Flying Wallendas"" high-wire act, fell to his death while attempting to walk a cable strung between two hotels in San Juan, Puerto Rico.",['Puerto Rico']
1979-04-28,"Carlos Muniz Varela, a Cuban travel agent and an activist for Puerto Rico's independence, was killed in Puerto Rico.","['Murder', 'Puerto Rico']"
1979-09-10,Four Puerto Rican nationalists imprisoned for a 1954 attack on the House of Representatives and a 1950 attempt on the life of President Truman were granted clemency by President Carter.,"['USA', 'Puerto Rico', 'CarterJ', 'TrumanH']"
1980-04-05,Eleven Puerto Rican FALN members were arrested for attempting to rob an armored truck at Northwestern University; three were linked to the raid on the Carter-Mondale campaign headquarters. Several of those arrested were granted clemency in 1999.,"['USA', 'Puerto Rico']"
1982-02-28,"The FALN, a Puerto Rican Nationalist Group, bombed Wall Street. 4 powerful bombs detonated in front of business institutions in New York's financial district.","['USA', 'NYC', 'Puerto Rico']"
1983-09-12,"Filiberto Ojeda Rios (d.2005), a Puerto Rican nationalist leader, was involved in the robbery of a Connecticut armored truck. It was considered an act of domestic terrorism because the money was used to fund activities by the Puerto Rican nationalist Macheteros, or Cane Cutters. Only about $80,000 of the $7 million was recovered. In 2005 Rios was shot and killed by FBI agents in Puerto Rico. In 2008 Avelino Gonzalez Claudio (65), a Puerto Rican militant suspected in the Connecticut robbery, was arrested in Puerto Rico, where he lived quietly under an assumed name. In 2011 FBI agents arrested Norberto Gonzalez Claudio, one of two remaining fugitives from the robbery.","['USA', 'Puerto Rico', 'Connecticut', 'Robbery']"
1985-10-07,"In Ponce, Puerto Rico, a mudslide followed Tropical Storm Isabel and killed at least 129 people in the island's worst disaster this century.","['Puerto Rico', 'Tragedy']"
1986-12-31,"A fire at the Dupont Plaza Hotel in San Juan, Puerto Rico, killed 97 and injured 140 people. Three hotel workers later pleaded guilty to charges in connection with the blaze.","['Puerto Rico', 'Fire']"
1989-09-18,"Hurricane Hugo reached Puerto Rico, causing extensive damage as it continued to barrel toward the U.S. mainland.","['Puerto Rico', 'Hurricane']"
1989-09-24,"Residents of Charleston, S.C., attended church services as they faced a third day of recovering from the devastation of Hurricane Hugo. Hugo caused 56 deaths in the Caribbean and 29 in the United States. The storm hit Guadeloupe, Montserrat, the U.S. Virgin Islands and Puerto Rico before striking South Carolina.","['USA', 'South Carolina', 'Puerto Rico', 'Guadeloupe', 'Montserrat', 'Virgin Islands', 'WeatherUS', 'Hurricane']"
1991-04-07,"In Puerto Rico 3 prisoners escaped from the Rio Piedras State Penitentiary in a hijacked helicopter with the help of accomplices. Two were recaptured, while a third remained at large.","['Puerto Rico', 'Hijacking']"
1991-07-15,"Russian sculptor Zurab Tsereteli built a colossal statue of Christopher Columbus, titled ""Birth of a New World,"" to commemorate the 500th anniversary of Columbus' 1492 arrival in the Western Hemisphere. Several US cities including New York, Miami and Baltimore refused to accept it for reasons ranging from cost to appearance. Puerto Rico accepted the statue as a gift in 1998, using $2.4 million in public funds to bring it to the island after a former mayor envisioned it as the main attraction for Catano, a seaside suburb of San Juan. But officials said it would block airplane flight paths while residents protested plans to demolish homes to make room for it. In 2008 it was placed in storage in Mayaguez. In 2011 San Juan Mayor Jorge Santini said he would consider setting up the statue somewhere in the island's capital.","['Artist', 'Russia', 'USA', 'Puerto Rico']"
1992-10-12,Arecibo radio telescope in Puerto Rico began a microwave search for occupied planets.,"['Puerto Rico', 'Space', 'Telecom']"
1992-07-15,"In Puerto Rico two toddlers, ages 2 and 3, were killed. The mother of Eliezer Marquez Navedo (17) was convicted. She was sentenced to 26 years in prison but paroled for good behavior after seven. In 2009 Eliezer Marquez Navedo was charged with the murder of an American tourist.","['Murder', 'Puerto Rico']"
1993-11-14,"Residents of Puerto Rico voted in a plebiscite to maintain the island's existing U.S. commonwealth status, derailing the efforts of those favoring statehood.","['USA', 'Puerto Rico']"
1994-09-07,U.S. Marines began training on a Puerto Rican island amid talk in Washington of a U.S.-led intervention in Haiti.,"['Haiti', 'USA', 'Puerto Rico']"
1994-07-15,In Puerto Rico the Federal Death Penalty Act broadened the range of crimes punishable by death.,['Puerto Rico']
1994-07-15,In Puerto Rico a record 995 people were killed.,"['Murder', 'Puerto Rico']"
1996-09-10,"Hurricane Hortense pounded Puerto Rico, causing at least 21 deaths and destroying thousands of homes.","['Puerto Rico', 'Hurricane']"
1996-09-11,Hurricane Hortense left 14 dead in Puerto Rico and the Dominican Republic. It then hit the Turks and Caicos Islands with 90 mph winds.,"['Puerto Rico', 'Dominican Rep.', 'Hurricane']"
1996-11-21,"Thirty-three people were killed, and more than 100 injured, when an explosion blamed on leaking gas ripped through a six-story building in San Juan, Puerto Rico.",['Puerto Rico']
1998-02-12,NASA planned a rocket launch from Tortuguero base in Puerto Rico. 10 more rockets were planned for launch over the next 30 days.,"['NASA', 'Puerto Rico']"
1998-03-04,"The US House approved a special referendum in Puerto Rico that would allow voters to choose one of 3 options: continued commonwealth status, statehood or independence.","['USA', 'Puerto Rico']"
1998-06-18,"In Puerto Rico fearing loss of their jobs 6,400 workers of Telefonica went on strike and began cutting telephone cables.","['Puerto Rico', 'Telecom']"
1998-06-24,In Puerto Rico Gov. Pedro Rossello signed a law completed the $1.9 billion sale of Telefonica to a US consortium led by GTE.,"['Puerto Rico', 'Telecom']"
1998-06-25,"In Puerto Rico protestors planted bombs, smashed bank machines and burned telephone cables in reaction to the privatization of the phone company.","['Puerto Rico', 'Telecom']"
1998-06-28,In Puerto Rico the Greater Committee of Labor Organizations voted for a work stoppage over the sale of the state phone company.,"['Puerto Rico', 'Telecom']"
1998-07-07,In Puerto Rico a general 2 day strike was called against the sale of the phone company and the San Juan Int&rsquo;l. Airport was blocked for a short time.,"['Puerto Rico', 'Telecom']"
1998-07-14,In Puerto Rico the telephone union gave in after a 26-day strike and agreed to go back to work.,"['Puerto Rico', 'Telecom']"
1998-07-21,Puerto Rico accepted a sweetened GTE-led bid for the government owned phone system that included concessions to appease workers.,"['Puerto Rico', 'Telecom']"
1998-07-25,The governor of Puerto Rico called for a December referendum on statehood.,['Puerto Rico']
1998-08-13,Puerto Rico approved a Dec. 13 referendum for statehood.,['Puerto Rico']
1998-09-21,Hurricane Georges roared through Puerto Rico and the northeast Caribbean. Georges threatened the islands of the Caribbean. The storm hit Puerto Rico and killed at least 5 people as winds reached 130 mph. One woman was killed on St. Kitts.,"['Puerto Rico', 'Hurricane']"
1998-09-22,"Hurricane Georges hit the Dominican Republic and at least 12 people were killed. Three people were killed in St. Kitts, 2 in Antigua and 4 in Puerto Rico.","['Antigua', 'Puerto Rico', 'St. Kitts & Nevis', 'Dominican Rep.', 'Hurricane']"
1998-09-24,Hurricane Georges charged toward Florida Keys. The death toll from Hurricane Georges reached 443. The Dominican Republic toll was later set at 265; 172 in Haiti; 6 in Cuba; 11 in Puerto Rico; 2 in Antigua; 4 in St. Kitts and Nevis and 1 in the Bahamas.,"['Haiti', 'Bahamas', 'Cuba', 'Florida', 'Antigua', 'Puerto Rico', 'St. Kitts & Nevis', 'Dominican Rep.', 'Hurricane']"
1998-12-13,"Puerto Rico voters rejected statehood by a vote of 50.2% to 46.5%. The winning option was none of the above, but interpreted as a decision to remain as commonwealth, a US territory with local autonomy.","['USA', 'Puerto Rico']"
1999-04-19,"In Puerto Rico two US Marine jets in training dropped bombs over the island of Vieques and missed their targets. One civilian, David Sanes Rodriguez, was killed and 4 people were injured.","['USA', 'Puerto Rico']"
1999-06-23,"In Canada police announced the break-up of a major Asian drug organization that had moved heroin valued in the millions through Vancouver in containers. 28 people were arrested in Vancouver, New York, Puerto Rico, Hong Kong and Thailand following a 3-year investigation.","['Canada', 'Hong Kong', 'Thailand', 'New York', 'Puerto Rico', 'Drugs']"
1999-07-04,"In Puerto Rico anti US Navy protests drew some 50,000 people.","['USA', 'Puerto Rico']"
1999-08-11,Pres. Clinton offered conditional amnesty to imprisoned Puerto Rican militants (FALN). The separatists were responsible for at least 150 bombings over a 9-year period that killed 6 people and injured over 70.,"['USA', 'Puerto Rico', 'ClintonB']"
1999-09-07,In NY twelve Puerto Rican prisoners agreed to accept Pres. Clinton's offer of conditional amnesty. The House of Rep. Later condemned the offer in a symbolic vote of 311-41.,"['USA', 'New York', 'Puerto Rico', 'ClintonB']"
1999-09-10,Eleven Puerto Rican nationalists were freed under the clemency deal offered by Pres. Clinton. The US government began freeing 14 Puerto Rican nationalists granted clemency by President Clinton.,"['USA', 'Puerto Rico', 'ClintonB']"
1999-10-18,A US presidential panel recommended that Navy gunnery on the Vieques Island of Puerto Rico be reduced and abandoned in 5 years.,"['USA', 'Puerto Rico']"
1999-10-19,Puerto Rico Gov. Pedro Rossello told a US congressional committee that live firing exercises on Vieques could not be resumed.,"['USA', 'Puerto Rico']"
1999-12-03,Pres. Clinton offered to reduce bombing practice on Vieques in the spring and use only dummy bombs plus $40 million in economic incentives with phase out in 5 years. Puerto Rico rejected the offer.,"['USA', 'Puerto Rico', 'ClintonB']"
2000-01-17,A boat carrying 40 migrants trying to illegally reach Puerto Rico sank off the Dominican coast after leaving Sabana de la Mar and at least 8 people were killed.,"['Puerto Rico', 'Tragedy', 'Dominican Rep.', 'Migrant']"
2000-01-31,"The US persuaded Puerto Rico to continue use of the Navy firing range off Vieques Island with dummy bombs in exchange for $40 million. A vote by islanders to approve live ammunition would bring Puerto Rico an additional $50 million. A no vote would require clean up and a halt to training by May 1, 2003.","['USA', 'Puerto Rico']"
2000-03-08,Near Puerto Rico at least 10 people died when a boat carrying some 70 illegal immigrants from the Dominican Republic capsized.,"['Puerto Rico', 'Tragedy', 'Dominican Rep.']"
2000-05-01,In Puerto Rico 2 US warships arrived off the coast of Vieques and some 50 protestors braced for the arrival of federal agents.,"['USA', 'Puerto Rico']"
2000-05-04,In Puerto Rico US federal agents moved and arrested 216 protestors from the bombing range on Vieques Island.,"['USA', 'Puerto Rico']"
2000-05-08,In Puerto Rico the US Navy resumed practice bombing on Vieques Island with dummy bombs.,"['USA', 'Puerto Rico']"
2000-06-11,"In NYC&rsquo;s Central Park young male gangs attacked some 47 women with harassment, molestation and robbery during the annual Puerto Rico Day parade. Some of the assaults were captured on home video. 16 of 60 suspects were arrested over the next week. Some police officers also faced discipline for lack of response.","['NYC', 'Puerto Rico', 'Teens Amuck']"
2000-06-25,In Puerto Rico US Navy bombing in Vieques resumed with nonexplosive dummy bombs after 37 demonstrators were arrested. A fatal accident had prompted a yearlong occupation by protesters.,"['USA', 'Puerto Rico']"
2000-08-06,"In San Juan, Puerto Rico, thousands rallied to protest new US military exercises on Vieques.","['USA', 'Puerto Rico']"
2000-08-08,"Some 109 nuclear waste sites in 27 states, Puerto Rico and territorial islands of the Pacific would remain dangerous for centuries according to a new report by the US National Research Council.","['USA', 'Puerto Rico', 'Nuclear']"
2000-10-13,A US federal appeals court ruled that residents of Puerto Rico cannot vote in presidential elections unless the island becomes a state or the US Constitution is amended.,"['USA', 'Puerto Rico']"
2001-04-26,A US federal judge ruled that military exercises could resume on Vieques Island. Puerto Ricans mobilized for mass demonstrations.,"['USA', 'Puerto Rico']"
2001-04-27,In Puerto Rico the US Navy resumed bombing exercises on Vieques Island where 14 protesters were arrested.,"['USA', 'Puerto Rico']"
2001-05-11,"Denise Quinones August of Puerto Rico won the Miss Universe contest held in Bayamon, Puerto Rico.","['Puerto Rico', 'Pageant']"
2001-06-14,"Pres. Bush ordered a stop to the Navy bombing exercises on Puerto Rico&rsquo;s Vieques Island. Cleanup was estimated to cost hundreds of millions and take decades. Bombing practice was set to stop by May, 2003.","['USA', 'Puerto Rico', 'BushGW']"
2001-06-18,The US Navy dropped dummy bombs on Vieques island. A number of protesters were arrested for trespassing.,"['USA', 'Puerto Rico']"
2001-07-07,"In Puerto Rico Parmenio Medina (62), a Colombian-born journalist, was gunned down in his car. He ran a radio program called ""La Patada,"" or ""The Kick,"" which denounced fraud at a religious radio station. In 2007 a court convicted Omar Chaves, a businessman, of ordering the murder of the journalist. Chaves also got a 12-year prison sentence on a fraud count. His partner, Father Minor de Jesus Calvo, was acquitted of the killing, but was convicted of fraud and sentenced to 15 years in jail.","['Radio', 'Murder', 'Puerto Rico', 'Religion', 'Robbery', 'Fraud']"
2001-07-29,In Puerto Rico the residents of Vieques island voted on stopping the practice bombing by the US military. Opponents of the navy bombing gathered 68% of the vote.,"['USA', 'Puerto Rico']"
2001-08-02,"On Vieques, Puerto Rico, the US Navy used tear gas and foam rubber projectiles to clear protesters and journalists.","['USA', 'Puerto Rico']"
2002-01-23,In Puerto Rico 17 people were charged in a corruption scandal that involved $4.3 million in diverted federal funds.,['Puerto Rico']
2002-04-21,"The annual environmentalist Goldman Prize winners included: Gwich'in natives Jonathan Solomon, Sarah James and Norman Kassi for their work to prevent oil drilling in the Arctic Nat'l. Wildlife Refuge; Fatima Jibrell of Somalia for her resistance to the charcoal trade threatening the local rain forests; Psit Charnsnoh of Thailand for helping to restore coastal ecosystems; Jean La Rose of Guyana for organizing resistance to mining and logging on native Arawak lands; Alexis Massol-Gonzalez of Puerto Rico for converting a mining zone to a forest reserve; and Jadwiga Lopata of Poland for promoting eco-farming.","['Arctic', 'Poland', 'Environment', 'Thailand', 'Somalia', 'Puerto Rico', 'Guyana']"
2002-08-07,"A U.S. Air Force cargo plane crashed on a Puerto Rican mountaintop with at least 10 military personnel on board, and all were feared dead.","['USA', 'Air Crash', 'Puerto Rico']"
2002-09-04,In Puerto Rico US Navy security officers fired tear gas at protesters who hurled rocks over a fence during bombing exercises on the island of Vieques.,"['USA', 'Puerto Rico']"
2002-09-07,U.S. Navy fighter jets dropped dummy bombs and inert missiles on Vieques in military exercises that have divided this outlying Puerto Rican island for years.,"['USA', 'Puerto Rico']"
2002-12-31,In Puerto Rico police recaptured one of five convicts who escaped from prison when a helicopter swooped into their maximum security compound and spirited them away.,['Puerto Rico']
2003-01-13,"Protesters waved Puerto Rican flags and shouted ""Navy get out!"" as fighter jets dropped inert bombs over Vieques in what the Navy says will be its last round of training on the island.","['USA', 'Puerto Rico']"
2003-02-08,"The US Navy conducted its last scheduled round of weapons tests on Vieques Island, Puerto Rico.","['USA', 'Puerto Rico']"
2003-02-09,The U.S. Navy ended its last planned bombing exercises on Puerto Rico's Vieques Island.,"['USA', 'Puerto Rico']"
2003-04-30,"The U.S. Navy withdrew from its disputed Vieques bombing range in Puerto Rico, prompting celebrations by islanders.","['USA', 'Puerto Rico']"
2003-06-12,"Puerto Rico police arrested more than 1,000 people during a major anti-drug operation.","['Puerto Rico', 'Drugs']"
2003-07-20,"In Puerto Rico Jose Antonio Rivera Robles, was beaten to death at a gas station after he reportedly stole a police car. In 2009 a jury in US federal court convicted four Puerto Rican police officers in the beating death. Two other officers previously pleaded guilty to felony federal civil rights charges in the case.","['USA', 'Puerto Rico']"
2003-08-05,"Catalino ""Tite"" Curet Alonso (77), a Puerto Rican composer who wrote nearly 2,000 dance songs and ballads, died in Baltimore.","['Composer', 'Puerto Rico']"
2003-09-23,Puerto Rico's congressional delegate said the United States will close its Roosevelt Roads Naval Station in eastern Puerto Rico within the next six months.,"['USA', 'Puerto Rico']"
2003-10-21,"Luis A. Ferre (99), a philanthropist and former governor of Puerto Rico who became the patriarch of the territory's US statehood movement, died.",['Puerto Rico']
2003-11-02,"In Havana, Cuba, 71 American firms from 18 states and Puerto Rico opened trade fair displays under an exception in a 42-year US trade embargo.","['USA', 'Cuba', 'Puerto Rico']"
2003-11-09,"Former Gov. Pedro Rossello won Puerto Rico's pro-statehood nomination for governor in a primary, clearing the way for him to run again in the territory's elections next year.",['Puerto Rico']
2003-12-30,"Miriam Naveira was sworn in as the new chief justice of Puerto Rico's Supreme Court, making her the first woman to hold the post.",['Puerto Rico']
2004-01-17,"Rafael Cordero Santiago (61), the mayor of the Puerto Rican city of Ponce, died after suffering a brain hemorrhage.",['Puerto Rico']
2004-02-11,"In Puerto Rico 4 people were killed in separate shootings over the last 24 hours, pushing the number of deaths past the 100 mark for this year. There were 780 killings in 2003, compared with 781 in 2002. Police say most of the violence on the island of 4 million people is drug-related.","['Puerto Rico', 'Drugs']"
2004-03-31,"The US Navy closed Naval Station Roosevelt Roads, its last base in Puerto Rico. It was transferred to a special naval agency that will coordinate the closing process. The base had been used for 6 decades to keep watch over the Caribbean.","['USA', 'Puerto Rico']"
2004-09-15,"Tropical Storm Jeanne lashed Puerto Rico with damaging winds and rain that knocked out power, flooded roads and killed two people. It soon strengthened from a tropical storm into the 6th hurricane of the season.","['Puerto Rico', 'Hurricane']"
2004-10-08,"A Puerto Rican attorney asked a federal appeals court to end ""the state of servitude"" that island residents find themselves in and allow them to vote in the Nov. 2 presidential election.",['Puerto Rico']
2004-11-01,"Puerto Ricans long have been U.S. citizens but cannot vote for the U.S. president, a situation that former Gov. Pedro Rossello promises to change if elected to return to the island's top job.","['USA', 'Puerto Rico']"
2004-11-02,"Puerto Rico's delegate to the US Congress clung to an extremely narrow lead in the race for governor against former Gov. Pedro Rossello, who promised to fight for statehood.","['USA', 'Puerto Rico']"
2004-11-03,"Puerto Rico's delegate to the U.S. Congress, who favors the island's current status as a U.S. commonwealth, claimed victory in a gubernatorial race so close that a recount has been ordered.","['USA', 'Puerto Rico']"
2004-11-20,Puerto Rico's two highest courts ordered election authorities in separate rulings to immediately begin recounting votes cast in the extremely tight Nov. 2 gubernatorial elections.,['Puerto Rico']
2004-12-03,"A boat carrying at least 91 Dominican migrants apparently trying to reach Puerto Rico illegally capsized, killing eight people.","['Puerto Rico', 'Dominican Rep.', 'Migrant']"
2004-12-23,"Acevedo Vila, Puerto Rico's congressional envoy, who favors the island's status as a U.S. territory narrowly, won a recount in the governor's race.",['Puerto Rico']
2004-12-29,"Puerto Rico's governor-elect said he opposes the war in Iraq and wants to see a reduction in the number of U.S. troops, including islanders, posted in the troubled country.","['USA', 'Puerto Rico']"
2004-07-15,"Venezuela&rsquo;s government built a $9 million outpost on Isla de Aves, 380 miles from its coast and much closer to Dominica, Antigua and Puerto Rico. The island measured 1,900 feet long and 1,640 feet wide. Fishing waters offshore teem with tuna, grouper and red snapper, while oil and natural gas are thought to lie under the sea floor.","['Dominica', 'Venezuela', 'Oil', 'Antigua', 'Puerto Rico', 'Gas', 'Fish']"
2004-07-15,"Puerto Rico&rsquo;s annual income per person was around $12,000 for this year.","['USA', 'Money', 'Puerto Rico', 'Economics']"
2005-03-16,"Puerto Rico Gov. Anibal Acevedo Vila unveiled proposals to eliminate more than 23,000 government jobs and close several public agencies, vowing to pull Puerto Rico out of a cycle of budget deficits and debt.",['Puerto Rico']
2005-04-30,Students and administrators at the main campus of Puerto Rico's largest university agreed to end a 3-week-old strike called to protest a 33 percent tuition increase.,['Puerto Rico']
2005-07-10,"Puerto Ricans voted to do away with half their lawmakers, endorsing a referendum for a one-house legislature.",['Puerto Rico']
2005-07-21,A truck strike paralyzed fuel deliveries across Puerto Rico.,['Puerto Rico']
2005-07-22,Truck drivers in Puerto Rico ended a three-day strike that paralyzed gasoline deliveries.,['Puerto Rico']
2005-09-23,"In Puerto Rico FBI agents shot and killed Filiberto Ojeda Rios (72), a Puerto Rican nationalist leader wanted in the 1983 robbery of a Connecticut armored truck.","['USA', 'FBI', 'Puerto Rico', 'Connecticut', 'Robbery']"
2005-09-23,"In Puerto Rico real estate developer Adam Anhang (b.1973), a Canadian businessman, was killed. His wife, Aura Vazquez, sued Anhang's parents six months after Anhang was beaten and stabbed to death. She accused them of seizing control of his estate and blocking her from it. Vazquez was later charged by a US grand jury with offering a man $3 million to kill Anhang. Jonathan Roman Rivera (22) spent eight months in maximum security prison after he was sentenced to 105 years for the slaying. Rivera was released in June 2008 after another man was indicted for the murder. In 2009 Rivera sued more than a dozen police officials and prosecutors for his ordeal, seeking $12 million in damages.","['Canada', 'Murder', 'Puerto Rico']"
2005-10-05,"Drug agents found 3,904 pounds of cocaine in the steel oxygen tank, one of the largest drug busts in Puerto Rico's history. The DEA has estimated that as much as 20 percent of the cocaine that reaches the US moves through the Caribbean. Traffickers love Puerto Rico because after their drugs arrive on the island, they can be hidden amid regular cargo and shipped onward, bypassing routine searches because Puerto Rico is part of the United States.","['USA', 'Puerto Rico', 'Drugs']"
2006-02-10,"FBI agents in Puerto Rico searched five homes and a business to thwart what the agency said was a ""domestic terrorist attack"" planned by militants favoring independence for the US island territory.","['USA', 'FBI', 'Puerto Rico']"
2006-02-26,"More than 1,000 demonstrators chanting anti-FBI slogans and carrying Puerto Rican flags marched through the capital of this U.S. island territory.","['USA', 'FBI', 'Puerto Rico']"
2006-03-02,"Puerto Rico's Gov. Anibal Acevedo Vila signed into law a ban on smoking in enclosed public places, the toughest anti-tobacco prohibition in the Caribbean.","['Puerto Rico', 'Smoking']"
2006-04-23,"Powerful waves capsized a boat carrying Dominican migrants near a popular surfing beach off the coast of Puerto Rico killing at least five people. Small boats frequently attempt to smuggle migrants from the Dominican Republic to the US Caribbean territory, a roughly 70-mile journey across the often-perilous Mona Passage.","['Puerto Rico', 'Dominican Rep.', 'Migrant']"
2006-04-25,"In Puerto Rico Gov. Acevedo Vila warned in a televised address that ""Beginning next Monday, May 1, the majority of agencies of the central government will not be able to operate."" Puerto Rico's House of Representatives wants to impose a 4 percent sales tax instead and has refused to review the governor's plan. The island now has no sales tax.",['Puerto Rico']
2006-04-28,"More than 45,000 Puerto Ricans marched through the streets of San Juan demanding politicians resolve a budget impasse that could lead to a government shutdown next week.",['Puerto Rico']
2006-05-01,"The government of Puerto Rico ran out of money, forcing the US commonwealth to close public schools and shut down government offices, putting almost 100,000 people out of work.","['Puerto Rico', 'Economics']"
2006-05-04,Puerto Rico moved a step closer to resolving a partial government shutdown as the island's Senate voted to impose a sales tax of 5.9% and a new levy on large corporations.,['Puerto Rico']
2006-05-08,Puerto Rico's governor and legislative leaders have agreed to abide by the recommendations of a commission seeking a solution to a fiscal crisis that has partially closed the island's government.,['Puerto Rico']
2006-05-10,"Puerto Rican officials resolved a budget impasse that put more than 95,000 public employees out of work, crippled government services and hurt business in this U.S. island territory.",['Puerto Rico']
2006-05-13,"Puerto Rican lawmakers approved the first key pieces of legislation aimed at resolving a budget crisis that has kept more than 100,000 public employees out of work since May 1.",['Puerto Rico']
2006-07-03,"It was reported that 579 Cubans had entered the US over the last 9 months by landing on Puerto Rico&rsquo;s Mona Island, 40 miles from the coast of the Dominican Rep.","['USA', 'Cuba', 'Puerto Rico']"
2006-07-23,Zuleyka Rivera Mendoza (18) of Puerto Rico was crowned as Miss Universe 2006. She hoped to someday star in US and Latin American films.,"['USA', 'Puerto Rico', 'Pageant']"
2006-07-29,"In Puerto Rico drug kingpin Jose Lopez Rosario (b.1976), who allegedly controlled the drug trade in the US island's northeastern region, died from gunshot wounds received on July 23. His death and his alleged connections to political figures were controversial in Puerto Rico, as local newspapers such as El Nuevo Dia and El Vocero covered the story for days after he died.",['Puerto Rico']
2007-01-06,"Seven people were killed in shootings across Puerto Rico, prompting the US territory's police chief to plead for tougher gun laws.","['USA', 'Guns', 'Puerto Rico']"
2007-03-01,In Puerto Rico the US attorney's office in San Juan announced that a US federal grand jury indicted seven people in a case where terminally ill cancer patients were allegedly injected with a bogus cure made from the patients' own blood.,"['Puerto Rico', 'Cancer', 'Scam']"
2007-03-02,People caught smoking in bars and restaurants in Puerto Rico faced fines as a ban on lighting up in enclosed public spaces took effect.,"['Puerto Rico', 'Smoking']"
2007-03-12,In Puerto Rico union leader Wallis Rivera Rodriguez (51) was allegedly killed because he was going to reveal financial wrongdoing at an apartment complex. In 2009 Jose Juan Viera Morales was extradited from New Jersey to face murder charges and for conspiring to distribute drugs.,"['USA', 'Murder', 'Puerto Rico']"
2007-04-09,"Puerto Rico seven inmates, convicted of homicides, escaped from prison using ventilation ducts.",['Puerto Rico']
2007-04-22,"Trustees said a fund to compensate Puerto Rico for damages from a 1994 oil spill will be used to build an artificial reef, create a shoreline nature reserve and restore the walls of a Spanish colonial fort.",['Puerto Rico']
2007-06-13,"In Puerto Rico Inter American University professor Leonardo Gamallo Sotolongo disappeared after going to pay Jorge Aguilera Enchautegui for work on his yard. Sotolongo&rsquo;s body was found near a garbage dump two weeks later. On Feb 25, 2010, the FBI arrested Aguilera at a motel in Orlando, Florida, for carjacking and the slaying of Sotolongo.","['USA', 'Murder', 'Florida', 'Puerto Rico']"
2007-06-14,"In Puerto Rico 5 men robbed a Loomis Fargo armored car. The next day Angel Fernandez Ramos, a Puerto Rican police officer assigned to a DEA anti-drugs unit, was arrested and charged with carrying out the $515,000 armored car heist with three relatives and another man.","['Puerto Rico', 'Robbery']"
2007-06-25,"Puerto Rico's Gov. Anibal Acevedo Vila acknowledged that he is the target of a US grand jury investigation into campaign finances, a revelation further jeopardizing his bid for re-election.",['Puerto Rico']
2007-08-02,"US federal agents arrested dozens of doctors accused of obtaining medical licenses through fraud or bribery, carrying out sweeping raids across Puerto Rico. The FDA accused 88 doctors of falsified credentials.","['USA', 'Medical', 'Puerto Rico', 'FDA', 'Fraud']"
2007-08-10,"In Puerto Rico a police officer shot and killed Miguel Caceres Cruz during a struggle at a traffic jam. Javier Pagan Cruz, the officer who fired the shots, was convicted of murder and a weapons charge and sentenced to 109 years in prison. Prosecutors later said two associate police could have prevented the slaying. In 2011 a jury acquitted the two police officers of being accessories to murder.","['Murder', 'Puerto Rico', 'Mad Police']"
2007-09-30,"So far this year, according to the Pan American Health Organization, 630,356 dengue cases have been reported in the Americas, most in Brazil, Venezuela, or Colombia, with 12,147 cases of hemorrhagic fever and 183 deaths. The Dominican Republic has reported 25 deaths, while Puerto Rico claimed 5,592 suspected cases and three deaths.","['Brazil', 'Colombia', 'Venezuela', 'Microbiology', 'Puerto Rico', 'Dominican Rep.']"
2007-10-09,"In Puerto Rico animal control workers seized dozens of dogs and cats from housing projects in the town of Barceloneta and hurled them to their deaths from a bridge in the neighboring town of Vega Baja. Mayor Sol Luis Fontanez blamed a contractor hired to take the animals to a shelter. In 2008 a Puerto Rican judge found a contractor and two of his workers not guilty of animal cruelty due to lack of evidence. International anger led more than 50,000 people worldwide to sign a petition threatening to boycott travel to the Caribbean island. Tourism officials estimated Puerto Rico lost more than $15 million as a result.","['Puerto Rico', 'Animal']"
2007-10-28,"Puerto Rican and US archaeologists said they have found the best-preserved pre-Columbian site in the Caribbean, which could shed light on virtually every aspect of Indian life in the region. Artifacts of Taino or pre-Taino people dated from 600 A.D. to 1500 A.D.","['USA', 'Puerto Rico']"
2007-10-30,In Puerto Rico federal authorities arrested more than two dozen people in a crackdown on fraudulent medical licenses on the island.,"['Medical', 'Puerto Rico']"
2007-12-12,"Tropical Storm Olga soaked portions of the Caribbean, triggering floods and landslides that killed at least 38 people in the Dominican Republic, Haiti and Puerto Rico.","['Haiti', 'Puerto Rico', 'Dominican Rep.']"
2007-12-12,US federal agents and local police launched raids in several Puerto Rican cities with arrest warrants for 121 drug suspects.,"['USA', 'FBI', 'Puerto Rico', 'Drugs']"
2008-01-03,"Puerto Rico halted all bird imports after a rare outbreak of avian flu in nearby Dominican Republic, where authorities killed more than 100 chickens, including fighting roosters that tested positive for the lethal virus. The ban forced the cancellation of more than 100 cockfights, dealing a blow to the lucrative industry.","['Bird Flu', 'Puerto Rico', 'Dominican Rep.']"
2008-02-23,"in Puerto Rico Eddie Maco Campbells (b.1970) of Oakland, Ca., was shot and killed after an argument at a bar in the popular tourist area of Isla Verde. On March 13, 2009, a judge in Puerto Rico found Jose Perez Pagan guilty of murdering Campbells.","['Murder', 'Puerto Rico', 'SF Bay Area']"
2008-03-05,In Puerto Rico public school teachers voted to suspend a 10-day strike that shuttered classrooms and sparked clashes between protesters and police.,"['Labor', 'Puerto Rico', 'Education']"
2008-03-27,"Puerto Rico&rsquo;s Gov. Anibal Acevedo Vila was charged with 19 counts in a campaign finance probe, including conspiracy to violate US federal campaign laws and giving false testimony to the FBI. 12 others were also charged in the corruption probe.","['Puerto Rico', 'Govm&rsquo;t Scandal', 'Corruption']"
2008-04-13,"The winners of this year&rsquo;s Goldman Awards were reported to be: Feliciano dos Santos (43) of Mozambique, the director of Estamos, an environmental group promoting sanitation, sustainable development and reforestation; Marina Rikhvanova (46), founder of Baikal Environmental Wave, which forced the rerouting of an oil pipeline in the Baikal basin; Pablo Fajardo (35) and Luis Yanza (48) of Ecuador, co-founders of the Amazon Defense Front, which accused Texaco (now Chevron) of dumping oil and wastewater into local streams; Rosa Hilda Ramos (63) of Puerto Rico, head of a movement to protect the Las Cicharillas Marsh; Ignace Schops (43) of Belgium, head of a movement to establish Belgium&rsquo;s 1st and only national park; Jesus Leon (42) of Mexico, co-founder of the Center for Integral Small Farmer Development of the Mixtec (CEDICAM).","['Belgium', 'Russia', 'Ecuador', 'Environment', 'Mozambique', 'Mexico', 'Puerto Rico']"
2008-06-01,NY Sen. Hillary Rodham Clinton won Puerto Rico's Democratic presidential primary 68-32%. Only 16% of the voters went to the polls.,"['USA', 'Puerto Rico']"
2008-08-19,"A US federal grand jury handed down a new indictment against Puerto Rico Gov. Anibal Acevedo Vila, charging him with four counts of wire fraud and one count of conspiracy to commit money laundering in connection with alleged campaign finance violations.","['USA', 'Puerto Rico', 'Govm&rsquo;t. Scandal']"
2008-08-25,"In Puerto Rico US federal agents arrested 59 alleged members of a drug trafficking ring in coordinated raids in a number of small towns, where some housing projects were under siege by gangsters. Home to nearly 4 million people, Puerto Rico&rsquo;s homicide rate was more than three times the US national average. Authorities said drug trafficking was behind the majority of the killings.","['USA', 'Puerto Rico', 'Drugs']"
2008-08-29,"The San Juan Star, Puerto Rico's Pulitzer Prize-winning English-language newspaper, closed. The owner blamed the union for not agreeing to benefit cuts and layoffs to offset declining revenue.","['Puerto Rico', 'Journalism']"
2008-10-02,"The US FBI arrested Puerto Rico Sen. Jorge de Castro Font (45) for providing political favors in exchange for cash and services totaling roughly half a million dollars. He was indicted by a federal grand jury on 31 criminal counts including bribery, wire fraud and money laundering.","['FBI', 'Puerto Rico', 'Fraud']"
2008-10-27,"It was reported that a new study, released last week, has found dangerous levels of toxic metals in produce grown on Vieques Island, Puerto Rico, formerly used as a Navy bombing range, despite US government claims that the soil there is safe.","['USA', 'Puerto Rico']"
2008-11-04,"Puerto Rico voted to oust incumbent Gov. Anibal Acevedo Vila, who is under indictment for allegedly violating campaign finance laws. Challenger Luis Fortuno of the pro-statehood New Progressive Party, vowed to fight crime and spur the island's troubled economy. On March 20, 2009, a jury found Vila not guilty on all 9 charges against him.",['Puerto Rico']
2008-11-19,The US Coast Guard suspended its search for roughly 90 migrants feared dead after their makeshift boat apparently sank in an often-stormy stretch of water between the Dominican Republic and Puerto Rico. The boat left the southeastern Dominican Republic on the night of Nov 12 and a woman whose boyfriend was on the boat alerted authorities that it was missing on Nov 16.,"['USA', 'Puerto Rico', 'Dominican Rep.']"
2008-12-03,"In Puerto Rico a Rockwell International 690B plane slammed into El Yunque mountain, killing Caribbean pilot Ken Webster and two US tourists on board. A spokesman for the Medical Mutual of Ohio health insurance company later identified the two Americans as Kent W. Clapp, the firm's chief executive, and his fiancee, Tracy Turner.","['USA', 'Air Crash', 'Ohio', 'Puerto Rico']"
2008-12-19,Federal agents in Puerto Rico arrested three island police officers accused of providing security for drug traffickers.,"['USA', 'Puerto Rico', 'Drugs']"
2009-01-02,"Luis Fortuno (48), Puerto Rico's new governor was sworn, inheriting an island government that is battling a recession, a soaring murder rate and a deficit of more than $1 billion.",['Puerto Rico']
2009-01-23,"In Puerto Rico three of five co-defendants reached plea agreements days after another co-defendant, former Acevedo aide Eneidy Coreano, agreed to testify in a federal corruption trial against former Gov. Anibal Acevedo Vila and have her charges dropped.","['Puerto Rico', 'Govm&rsquo;t Scandal']"
2009-02-04,"In Puerto Rico Sara Kuszak (35) made a desperate call for help from the trunk of her kidnapper's car, about an hour before she was found dead with her throat slashed. Eliezer Marquez Navedo (36) confessed to kidnapping the pregnant tourist as she was jogging and killing her. The FBI used a signal from the victim's cell phone to help locate the suspect. Navedo was later convicted of kidnapping, rape and murder and sentenced to 105 years in prison.","['USA', 'Murder', 'FBI', 'Puerto Rico']"
2009-02-08,A single-engine plane carrying six US citizens crashed into the Atlantic Ocean off the north coast of Puerto Rico.,"['USA', 'Air Crash', 'Puerto Rico']"
2009-04-01,"Puerto Rican actor Miguelangel Suarez (69) died. His career included minor roles in last year's epic ""Che"" and Woody Allen's ""Bananas.""","['Puerto Rico', 'Film Star']"
2009-04-02,In Puerto Rico FBI agents and police arrested at least 35 suspects in an alleged drug trafficking ring blamed for seven murders.,"['FBI', 'Puerto Rico', 'Drugs']"
2009-04-02,"The director of the US Mint unveiled the first US coin with an inscription in Spanish, a quarter honoring Puerto Rico as the ""Isla del Encanto"" (Island of Enchantment).","['USA', 'Money', 'Puerto Rico']"
2009-04-12,In Puerto Rico Army Spc. Nokware Rosado Munoz (28) had been arguing with his pregnant wife about his upcoming redeployment to Iraq before hanging himself.,"['Iraq', 'Suicide', 'Puerto Rico']"
2009-05-29,"Puerto Rico fired nearly 8,000 government workers, the start of a wave of layoffs aimed at closing a budget deficit as the island struggles through its third year of recession.","['Labor', 'Puerto Rico']"
2009-06-21,"In San Juan, Puerto Rico, a lone man who robbed $340,000 from a popular hotel and casino by threatening a supervisor's family.","['Puerto Rico', 'Robbery']"
2009-08-07,"The US Environmental Protection Agency said the US Department of Agriculture  has agreed to pay $30,000 in penalties for alleged improper maintenance of underground storage tanks in Puerto Rico.","['USA', 'Environment', 'Puerto Rico']"
2009-08-15,"In Puerto Rico Ricardo Lebron Berrios (23), a prisoner being taken to jail to face car theft charges, allegedly shot one police officer to death and gravely wounded a second, then escaped in their squad car.",['Puerto Rico']
2009-09-15,In Puerto Rico several employees of American Airlines were among a group of at least 20 people arrested on suspicion of aiding a smuggling ring that shipped drugs from Puerto Rico's main airport to the US mainland.,"['USA', 'Aviation', 'Puerto Rico', 'Drugs']"
2009-09-18,"Puerto Rican authorities captured Angel Ayala Vazquez, also known as ""Angelo Millones,"" an alleged dealer they say led a violent drug ring in at least two sprawling housing projects in Puerto Rico and trafficked narcotics to the US mainland.","['Puerto Rico', 'Drugs']"
2009-09-24,In Puerto Rico police officer Luis Martinez was killed in the northern coastal city of Manati. In 2011 suspect Anthony Rivera Morales (23) was arrested at a homeless shelter in New York and extradited back to the US island territory to face murder charges.,"['USA', 'Murder', 'Puerto Rico']"
2009-09-25,"Puerto Rico's government announced that it will lay off more than 16,000 public workers in the US Caribbean territory, adding to an unemployment rate higher than that of any US state.","['Puerto Rico', 'Economics']"
2009-09-29,In southern Puerto Rico hundreds of US and local agents swept into a town to break up violent drug rings accused of operating out of several public housing projects.,"['USA', 'Puerto Rico', 'Drugs']"
2009-10-02,"In Puerto Rico some 500 law officers swarmed into a public housing project and other sites to dismantle a trafficking ring allegedly run by the island's top drug suspect, Angel Ayala Vazquez, a man described as an aspiring Robin Hood and a patron to reggaeton stars. Ayala, better known as ""Angelo Millones,"" was captured last month following a seven-year investigation.","['Puerto Rico', 'Drugs']"
2009-10-14,"In Puerto Rico labor unions called for an island-wide strike and a march near the capital to protest government layoffs in Puerto Rico, where more than 20,000 public employees have been dismissed as the island struggles to pull out of a three-year recession.","['Labor', 'Puerto Rico']"
2009-10-15,"In Puerto Rico thousands of demonstrators swarmed the financial hub of San Juan, blocking highways and setting fires in the streets of the capital to protest massive layoffs of government workers. Gov. Luis Fortuno has said the dismissal of more than 20,000 public employees was necessary to close a $3.2 billion deficit and pull the economy out of a 3-year recession.","['Puerto Rico', 'Mad Crowd']"
2009-10-17,"In Puerto Rico gunmen opened fire into a bar in Toa Baja shortly before midnight and killed seven people, injuring 20 others. On Oct 27 Wilfredo Semprit Santana, the owner of the bar, was arrested and charged with drug trafficking.","['Murder', 'Puerto Rico', 'Drugs']"
2009-10-23,"In Puerto Rico an earthshaking explosion at the Caribbean Petroleum Corp. in the suburb of Bayamon, just west of the capital of San Juan, led to the evacuation of more than 1,500 people. Authorities wee concerned about those downwind of the fire.","['Oil', 'Puerto Rico']"
2009-10-30,"In Puerto Rico new Gov. Luis Fortuno's issued an order allowing large-scale development inside a 3,200-acre parcel of land immediately north of El Yunque, the only tropical rain forest in the US National Forest system. Previous Gov. Anibal Acevedo Vila had declared the Northeast Ecological Corridor off-limits to all but small, eco-friendly projects after a preservation campaign backed by actor Benicio del Toro and attorney Robert F. Kennedy Jr.","['Environment', 'Puerto Rico']"
2009-11-13,"In Puerto Rico the dismembered body of college student Jorge Steven Lopez Mercado (19) was discovered along a road in the interior town of Cayey. Lopez was widely known as a volunteer for organizations advocating HIV prevention and gay rights. Suspect Juan Martinez Matos (26), was soon arrested and allegedly confessed to killing Lopez and mutilating his body. He was charged with first-degree murder and weapons violations and jailed on $4 million bond.","['Gays', 'Puerto Rico']"
2009-11-19,In Las Vegas Manny Pacquiao of the Philippines demolished Puerto Rican Miguel Cotto to become the only man in history to win seven titles in as many weight classes.,"['Philippines', 'Nevada', 'Boxing', 'Puerto Rico']"
2009-12-22,In Puerto Rico Gov. Luis Fortuno signed legislation that lowered the blood alcohol limit for drivers ages 18 to 20 to .02% from the standard .08% that applies to all other drivers on the US island.,"['Puerto Rico', 'Liquor']"
2010-01-08,In Puerto Rico officials said they have killed 800 monkeys blamed for scavenging crops and damaging natural resources in southwest region. Most of those killed were patas monkeys. About 200 rhesus monkeys were sent to the Caribbean Primate Research Center at the University of Puerto Rico and to other countries. The monkeys had escaped from research labs in the 1960s and '70s.,"['Puerto Rico', 'Animal', 'Primates']"
2010-02-26,"Health officials in Puerto Rico declared an epidemic of dengue fever. Health Secretary Lorenzo Gonzalez says 210 cases have been confirmed for January, more than triple the number in the same month of 2007.","['Microbiology', 'Puerto Rico']"
2010-04-19,"In Puerto Rico the naked body of Ashley Santiago Ocasio (31), born as Juan Antonio), was found at his home in the town of Corozal. Rico Ashley Santiago Ocasio (31), a transgender beauty salon owner with high cheekbones and a flair for fashion, had been shot in the head. Her car was missing and there were no signs of a break-in.","['Gays', 'Murder', 'Puerto Rico']"
2010-04-30,"In Puerto Rico regulators shut down three banks that had struggled to stay afloat during Puerto Rico's grinding, four-year recession. A judge in Puerto Rico sentenced two former police officers to prison for the beating death of a suspect who was detained in 2003 for allegedly stealing a patrol car.","['Puerto Rico', 'Banking']"
2010-05-10,"In Puerto Rico a group of people including nine American Airlines employees pleaded guilty to a drug-smuggling scheme that spanned a decade and targeted cities across the United States. They were arrested in September as part of a joint investigation called ""Operation Heavy Cargo.""","['USA', 'Puerto Rico', 'Drugs']"
2010-05-11,In Puerto Rico hundreds of police and federal agents raided a public housing complex and arrested more than three dozen people allegedly involved in selling an estimated $65 million worth of drugs.,"['Puerto Rico', 'Drugs']"
2010-06-10,"In Puerto Rico Jose Claudio Montes, also known as ""Chiki Bazooka,"" was captured by the FBI inside a housing project where he allegedly controlled the trade of heroin, cocaine and marijuana. 532 pounds (241kg) of cocaine was seized hidden on a pleasure craft named ""La Burla"" &mdash; Spanish for ""Mockery."" It was intercepted off Puerto Rico's west coast. Immigration and Customs Enforcement agents arrested the two Puerto Rican men and one Dominican man aboard.","['FBI', 'Puerto Rico']"
2010-06-16,In Puerto Rico negotiators reached an agreement to end a strike that has paralyzed the University of Puerto Rico for nearly two months. On June 21 students ratified the agreement.,"['Labor', 'Puerto Rico', 'Education']"
2010-06-22,"Puerto Rican Sen. Hector Martinez Maldonado (41) was indicted for allegedly supporting legislation in favor of a private security company in exchange for a trip to Las Vegas to watch a boxing match. Martinez was first elected senator in 2004 and re-elected in 2008. He resigned in March as head of an important judicial committee citing a federal investigation, but he denied any wrongdoing.","['Puerto Rico', 'Corruption']"
2010-06-27,"It was reported that thousands of Puerto Ricans have been caught up in a lucrative document-fraud scheme to hide illegal immigrants in the United States. The island government's only answer so far is to void every Puerto Rican birth certificate as of July 1 and require about 5 million people, including 1.4 million on the US mainland, to reapply for new ones with security features. New birth certificates will be issued starting July 1, and all old birth certificates will be annulled by Sept. 30.","['USA', 'Puerto Rico', 'Fraud']"
2010-07-09,In Puerto Rico hundreds of US drug agents and local police swept through public housing projects at dawn on the island's west coast in what officials described as the largest operation of its kind in the American territory.,"['Puerto Rico', 'Drugs']"
2010-07-17,"In Puerto Rico US federal authorities arrested Jose Figueroa Agosto (45), a fugitive alleged drug kingpin, after a decade-long chase through the Caribbean marked by his narrow escapes and public taunting that he paid off police to remain free.","['USA', 'Puerto Rico']"
2010-07-25,Puerto Rico's Gov. Luis Fortuno declared a state of emergency for 17 flooded communities in the US territory due to a weather system that later turned into Tropical Storm Bonnie.,['Puerto Rico']
2010-08-10,"In Puerto Rico Coraly Campos feuded with her partner and told him he would never see the two children again. She then beat them, stabbed them with a kitchen knife and set the house afire. Her 3-year-old daughter and 1-year-old son died in the attack in the city of Trujillo Alto. Campos also tried to kill herself. On March 11, 2011, Campos (21) was convicted of first-degree murder, child abuse, arson, domestic abuse and violation of weapons laws.","['Murder', 'Puerto Rico', 'Mad Woman']"
2010-08-26,"Puerto Rican teachers walked off their jobs in a one-day strike over staff and funding levels, giving students a day off barely 3 weeks into the new academic year.","['Labor', 'Puerto Rico', 'Education']"
2010-09-15,"In Puerto Rico a man, accused of dragging a stubborn horse last February alongside his truck, became the first person convicted by a local jury under an animal protection law enacted after dogs were thrown to their deaths from a bridge. On Nov 17 Georgenan Lopez (24) received a 12-year prison sentence, becoming the first person convicted by a jury under the animal cruelty law implemented in August 2008.","['Puerto Rico', 'Animal', 'Horse']"
2010-09-29,"In Puerto Rico 7 US Postal Service workers were indicted on charges they shipped thousands of parcels of heroin, cocaine and marijuana through the mail.","['USA', 'Postage', 'Puerto Rico']"
2010-09-29,"In Puerto Rico police fatally shot William Malaret Pagan (77) after he opened fire at them, a killing that comes as Puerto Rico's law enforcement officers are under scrutiny for allegedly using excessive force. Pagan shot at officers when they tried to arrest his son on drug charges. The killing happened hours before Gov. Luis Fortuno publicly introduced an independent monitor he appointed to assist a federal investigation into allegations of excessive force and corruption among police.",['Puerto Rico']
2010-09-30,"Puerto Rico police charged a couple with repeatedly raping their six children and forcing them to participate in drug-fueled orgies. Police said the alleged abuse occurred daily from 2001 to 2004. The three girls were 3, 5 and 7 years old at the time. The boys were 9, 10 and 11.","['Sex', 'Puerto Rico', 'Rape']"
2010-10-06,"In Puerto Rico FBI agents began arresting police officers accused of corruption. Local newspaper El Nuevo Dia reported that police and corrections officers were among 133 people named in the federal indictments, yet to be opened.","['FBI', 'Puerto Rico', 'Corruption']"
2010-11-22,"US federal agents fanned out across Puerto Rico seeking to arrest 17 alleged members of a drug smuggling organization. Luis Figueroa, the younger brother of smuggling leader Jose Figueroa Agosto, had boarded the Caribbean Princess with his wife, two children and in-laws before the operation began. Agents waiting on board the ship arrested him without incident before the ship reached its first port-of-call in the US Virgin Islands.","['USA', 'Puerto Rico']"
2010-12-20,In Puerto Rico at least 17 people were detained as students at the largest public university in the Caribbean clashed with police during an indefinite strike over a new fee.,"['Puerto Rico', 'Mad Crowd', 'Education']"
2010-12-20,A Puerto Rico National Guard UH-72 Lakota helicopter crashed in the ocean while returning from a drug raid on Vieques. 3 bodies of the six people on board were found and the remaining were feared dead. The last body was recovered on Jan 23.,"['Air Crash', 'Puerto Rico']"
2011-01-01,"In Puerto Rico Justino Sanchez Diaz (48) attacked his family with gasoline and a blowtorch. 2 of his victims soon died from their wounds and Diaz was charged with murder. The mother of Diaz and Jesus Sanchez 4th died of their injuries on Jan 4. On Jan 6 Kate Donahue (25) of Seattle, who was engaged to Sanchez, died of her injuries. On Jan 29 Nereida Vazquez, who had been in an induced coma for weeks, died of a lung infection brought on by her injuries. In September Diaz was convicted of killing 6 people and was sentenced to 198 years in prison.","['USA', 'Puerto Rico', 'Washington', 'Fire', 'Mad Man']"
2011-01-04,"In Puerto Rico police officers seized nearly 200 bags of cocaine and roughly 30 bags each of heroin and marijuana. A caiman was tied near the drugs, which were found during a routine patrol in La Perla neighborhood of historic Old San Juan.","['Puerto Rico', 'Drugs']"
2011-02-04,"US federal authorities said they are charging 23 people with moving drugs and illicit money through the Caribbean on behalf of a major Colombian drug cartel. 21 of the suspects have been arrested so far in Colombia, Puerto Rico, the Dominican Republic, New York, Miami and the US Virgin Islands.","['Colombia', 'USA', 'Puerto Rico', 'Drugs', 'Dominican Rep.', 'Virgin Islands']"
2011-02-09,The Puerto Rican Association of University Professors began staging a 24-hour strike in support of students who have clashed with police during protests over a new fee.,"['Puerto Rico', 'Education']"
2011-02-17,In Puerto Rico police arrested 469 people over the last 36 hours in a sweep that targeted people accused of crimes ranging from murder to traffic violations.,['Puerto Rico']
2011-02-24,"In Puerto Rico US federal officials said Alexis Candelario Santana is among five people indicted on federal racketeering charges involving an organization that sold drugs in Puerto Rico. The indictment of Santana accused him of 21 homicides from 1993 to 2009, though it does not charge him with murder. The five faced 17 charges including violating the Racketeer Influenced and Corrupt Organizations Act (RICO Act), a charge that is viewed as easier to prove because it targets behavior patterns instead of criminal acts.","['USA', 'Puerto Rico']"
2011-02-27,"In Puerto Rico Rep. Rolando Crespo (35), a member of the party that favors US statehood for the Caribbean island territory, resigned his seat, two days after officials disclosed that a drug test showed he had used cocaine.","['Puerto Rico', 'Govm&rsquo;t Scandal']"
2011-03-07,"In Puerto Rico a jury convicted Sen. Hector Martinez and island businessman Juan Bravo Fernandez, who owns one of the island's largest security companies, of bribery in a high-profile trial that featured allegations the lawmaker accepted a trip to Las Vegas to see a boxing match in exchange for political favors.","['Puerto Rico', 'Corruption']"
2011-03-09,"In Puerto Rico masked gunmen raided a waterfront casino, forced gamblers to the floor and fled with more than $200,000, leaving a trail of bills fluttering along the beach.","['Puerto Rico', 'Robbery']"
2011-04-11,"In Puerto Rico Hilton Cordero Rosario, the police commissioner of San Juan, was charged with sexually assaulting a minor and producing child pornography in a case that emerged after his teenage daughter accused him of molesting her. In December he was indicted on 22 charges of child pornography.","['Sex', 'Puerto Rico', 'Teens Amuck']"
2011-04-14,Federal authorities in Puerto Rico seized $1.35 million in cash hidden inside a car aboard a cargo ship that arrived from Philadelphia.,['Puerto Rico']
2011-04-14,"Augusto Marin (b.1921), one of Puerto Rico's best-known painters and muralists, died. He was best known for large paintings and murals in the modern style that blended Caribbean and religious elements.","['Artist', 'Puerto Rico']"
2011-04-26,"A Puerto Rico jury convicted Angel Ayala Vazquez, once considered the top local drug dealer, of conspiracy to distribute cocaine, heroin and pills at public housing projects in the community of Bayamon. Also convicted was his brother, Luis Cruz Vazquez. On October 26 Ayala was sentenced to life in prison.","['Puerto Rico', 'Drugs']"
2011-05-10,"In Puerto Rico Norberto Gonzalez Claudio (65), part of a radical group that stole the money to aid their struggle for Puerto Rican independence, was captured while out for a morning jog. A judge soon ordered that he be sent to Connecticut to face charges in the theft of $7 million from an armored car depot in 1983.","['USA', 'Puerto Rico']"
2011-05-17,"In Puerto Rico Jorge de Castro Font (47), an influential former senator whose testimony helped convict an ex-colleague and has bolstered federal investigations against other high-ranking politicians, was sentenced to five years in prison after having pleaded guilty to corruption charges. De Castro was accused of soliciting up to $525,000 in cash and other benefits including meals and private flights from 2005 to 2008 and of promising to block or advance certain bills as chair of the powerful rules committee.","['Puerto Rico', 'Corruption']"
2011-05-19,In Puerto Rico a jury convicted five people of fraudulently obtaining medical licenses to work as doctors in the US territory.,"['Medical', 'Puerto Rico']"
2011-05-27,"In Italy a Naples hospital said Puerto Rican tourist Oscar Antonio Mendoza (66), who was knocked to the ground by muggers trying to grab his Rolex, has died, nine days after he was hospitalized with severe head injuries.","['Italy', 'Puerto Rico']"
2011-06-14,"President Obama became the first president since John F. Kennedy to make an official visit to Puerto Rico. Despite sweltering temperatures, he was greeted enthusiastically by thousands of Puerto Ricans. Obama spent time with Luis Fortuno, the island&rsquo;s Republican governor, and he gave a speech in which he expressed his appreciation for the culture and heritage of the Puerto Rican people. Regarding the issue of Puerto Rico&rsquo;s status, Obama said there should be a referendum, and if the voters choose statehood, or choose independence, his administration would respect their decision.","['USA', 'Puerto Rico', 'ObamaB']"
2011-06-15,"In Puerto Rico Doral Bank executive Maurice J. Spagnoletti was shot to death on a busy highway in San Juan. The 56-year-old father previously held bank executive posts in South Carolina, Indiana and Pennsylvania. An investigator said the slaying could be linked to an audit Spagnoletti was conducting at the bank.","['Murder', 'Puerto Rico', 'Banking']"
2011-06-27,"In Puerto Rico Luis Calderon Rodriguez, sub-director of the water and sewer authority in the city of Carolina, was arrested and removed from his post. He was charged with conspiracy to commit bribery involving programs that use US federal funds.","['Puerto Rico', 'Corruption']"
2011-06-29,"Puerto Rican authorities broke up the island's largest heroin distribution ring with a raid on La Perla, a notorious seaside slum, after a grand jury indicted 114 people on drug and weapons charges.","['Puerto Rico', 'Drugs']"
2011-07-02,"Puerto Rico's police chief, Jose Figueroa Sancha, resigned amid sharp criticism over a rising homicide rate in the US territory and allegations of police abuse.",['Puerto Rico']
2011-07-07,"Ricardo Alegria (90), a Puerto Rican scholar, died. He was known for his pioneering studies of the island's native Taino culture and is credited with preserving the capital's colonial district.",['Puerto Rico']
2011-08-22,"In Puerto Rico Hurricane Irene, the first hurricane of the Atlantic storm season, cut power to more than a million people, downing trees and flooding streets, before heading out over warm ocean water on a path that could take it to the US mainland by the end of the week.","['Puerto Rico', 'Hurricane']"
2011-08-31,In Puerto Rico former Arecibo police officer David Gonzalez Perez was found guilty of providing security to drug dealers.,"['Puerto Rico', 'Corruption']"
2011-09-02,"In Puerto Rico Raymar Lucena Rivera, president of a local trucking corporation, was arrested following accusations that he laundered more than $7 million in drug proceeds.",['Puerto Rico']
2011-09-13,"In Puerto Rico a 14-year-old girl went on a playground rampage with a hypodermic needle, stabbing 37 classmates in the southern coastal town of Arroyo. On Dec 2 she was sentenced to two years of probation.","['Puerto Rico', 'Teens Amuck']"
2011-09-21,"In Puerto Rico the FBI arrested six current and former employees of the Department of Education on charges that include bribery and money laundering. Agents arrested a total of 9 people and planned to arrest 4 more, including a person in Tampa, Florida.","['FBI', 'Puerto Rico', 'Education']"
2011-10-14,"Puerto Rico's Corrections Department said it plans to dismiss 97 officers and suspend more than 100 others who face charges of drug consumption, contraband smuggling and unjustified absences.","['Puerto Rico', 'Corruption']"
2011-11-02,"Police in Puerto Rico reportedly stopped an erratic driver and seized $500,000 in cash during the routine traffic stop.",['Puerto Rico']
2011-11-07,In Puerto Rico eight shackled prisoners drowned after a van they were being transported in was engulfed by muddy floodwaters in the northern coastal city of Arecibo. On Nov 10 prosecutors charged prison guard Hector Cruz Santiago with eight counts of negligent homicide over the drowning deaths of the inmates.,"['Puerto Rico', 'Tragedy']"
2011-11-12,"Puerto Rico reported that 983 people have been killed so far this year, equal to the number of killings reported for all of last year when the US Caribbean territory marked its second highest number of slayings ever. A record 995 people were killed in 1994 in this island of 4 million people.","['Murder', 'Puerto Rico']"
2011-11-14,Puerto Rico police captured drug smuggler Carlos Morales Davila between Puerto Rico and the island of Vieques. He was expected to be extradited to Miami.,"['USA', 'Puerto Rico']"
2011-11-16,Federal agents in Puerto Rico said they have seized 225 kg (nearly 500 pounds) of cocaine more than $4 million from a house owned by pro boxer Ivan Calderon. Calderon said the house was one of a number of investment properties he owns and that he was not aware of any illegal activities there.,"['Boxing', 'Puerto Rico', 'Drugs']"
2011-11-17,"It was reported that French company Fonroche plans invest $115 million to build a 44-megawatt solar farm in Puerto Rico. The farm will be built on 160 acres (65 hectares) and will provide power to the state-owned electric company as part of a 20-year, $240 million contract.","['France', 'Puerto Rico']"
2011-11-17,Puerto Rico's governor said he's allocating $20 million to provide police with more training and resources as the island suffers a record number of killings this year.,['Puerto Rico']
2011-12-02,"In Puerto Rico a man opened fire inside an unemployment office in Caguas, killing Luis Lopez Rodriguez (27) and wounding another in what an official said appeared to be targeted attack.","['Murder', 'Puerto Rico']"
2011-12-02,"In Canton, Georgia, Puerto Rico-born Jorelys Rivera (7) disappeared from a playground after her babysitter went home to fetch sodas for friends. The girl&rsquo;s body was found on Dec 5 in a trash container and she appeared to have been severely beaten and sexually assaulted. On Dec 7 Ryan Brunn (20), a maintenance worker, was arrested for her murder.","['Georgia', 'USA', 'Murder', 'Puerto Rico', 'Kids', 'Rape']"
2011-12-09,"Puerto Rico&rsquo;s most wanted criminal, Miguel Diaz Rivera (39), was arrested in the Dominican capital of Santo Domingo. He is accused of running a drug trafficking network in at least five Puerto Rican cities.","['Puerto Rico', 'Dominican Rep.']"
2011-12-27,The governor of Puerto Rico signed 4 laws that he said will help track suspects and provide aid to crime victims as the island struggles with a record number of killings.,['Puerto Rico']
2011-12-29,In Puerto Rico FBI agent Daniel Knapp (43) drowned after trying to rescue a swimmer in distress at Hidden Beach in the coastal city of Fajardo.,"['USA', 'FBI', 'Puerto Rico']"
