1977-06-05,In the Seychelles France Albert Rene (b.1935) seized power in a coup. He continued as president to 2004.,['Seychelles']
1981-11-25,In the Seychelle Islands a group of mercenaries poising as a touring rugby team staged an ill-fated attempted takeover of the country.,['Seychelles']
1986-07-15,"A US military base on the Mauritius island of Diego Garcia became fully operational and was intensely involved in 1990 when Iraq invaded Kuwait. In the 1960s and 1970s Britain destroyed houses, slaughtered animals, and turfed out some 2,000 inhabitants from the Chagos islands to Mauritius and the Seychelles.","['Britain', 'USA', 'Mauritius', 'Seychelles']"
1993-07-15,In the Seychelles Albert Rene restored multiparty democracy and went on to win three straight elections.,['Seychelles']
1996-04-03,"Carl Stokes died of cancer AT 68. He was elected mayor of Cleveland in 1967, the first black mayor of a major US city. He had been on medical leave from his post since 1994 as ambassador to the Seychelles.","['USA', 'Ohio', 'Seychelles']"
1997-11-22,"The Miss World pageant in the Seychelles Islands was won by Diana Hayden (24), Miss India.","['India', 'Seychelles', 'Pageant']"
2001-09-02,In the Seychelles voting ended. Pres. France Albert Rene won another 5 year term.,['Seychelles']
2002-07-05,"Former Madagascar President Didier Ratsiraka fled to the Seychelles with his family, apparently ending more than six months of turmoil in his island nation.","['Madagascar', 'Seychelles']"
2002-12-07,In the Seychelles after 3 days of voting Pres. France Albert Rene's party retained control of parliament even though the main opposition party more than tripled its number of seats.,['Seychelles']
2004-04-14,"Seychelles Pres. France Albert Rene, one of Africa's longest-serving leaders, said he was ready to step down after nearly 3 decades at the helm of this Indian Ocean nation.",['Seychelles']
2006-07-30,"The Seychelles held presidential elections. External debt was reported to be $590 million for the population of 82,000 people.",['Seychelles']
2006-08-01,"Officials said incumbent Seychelles President James Michel of the People's Progressive Front won nearly 54% of the vote over the weekend, while opposition leader Wavel Ramkalawan got 46%.",['Seychelles']
2009-02-28,"The yacht Serenity, with two crew from the Seychelles on board, left the islands en route to Madagascar and disappeared. One of the crew called his family on March 24, saying he was being held by Somali pirates and begging for help.","['Somalia', 'Seychelles', 'Pirates']"
2009-04-01,A tourist yacht and its crew of seven was hijacked by Somali pirates near the Seychelles islands off Africa's east coast.,"['Somalia', 'Seychelles', 'Pirates']"
2009-04-28,"The Seychelles Coast Guard said it had arrested nine suspected pirates believed to be behind the weekend attempt to hijack the melody, a luxury cruise liner carrying an estimated 1,000 tourists in the Indian Ocean. The Spanish navy had tracked the skiff and apprehended the suspects. They were then turned over to the Seychelles Coast Guard.","['Spain', 'Somalia', 'Seychelles', 'Pirates']"
2009-08-29,"The EU signed a temporary trade pact with Mauritius, Seychelles, Zimbabwe and Madagascar calling for tariffs on European goods to be removed over the next 15 years.","['EU', 'Zimbabwe', 'Mauritius', 'Madagascar', 'Seychelles']"
2009-09-06,"Somali authorities, who say they were not informed of a hostage exchange plan, stopped a deal to swap three hostages held by Somali pirates with 23 suspected pirates, who had been held in the Seychelles.","['Somalia', 'Seychelles', 'Pirates']"
2009-10-13,"French soldiers in the Indian Ocean opened fire on pirates, warding off an attack on two French tuna fishing vessels off the Seychelles Islands.","['France', 'Somalia', 'Seychelles', 'Pirates']"
2010-07-26,The island nation of Seychelles said it has prosecuted and convicted Somali pirates for the first time. A Seychelles court sentenced 11 Somali pirates to 10 years in prison each for their attempt to hijack the Seychelles coast guard patrol boat Topaz last December.,"['Somalia', 'Seychelles', 'Pirates']"
2010-11-23,The EU&rsquo;s anti-piracy naval force said that have caught 16 suspected Somali pirates over the past 5 days in the Indian Ocean with the help of the Seychelles coast guard.,"['EU', 'Somalia', 'Seychelles', 'Pirates']"
2011-05-21,Seychelles' incumbent President James Michel said he was confident of re-election as residents of the archipelago's three main islands voted on the final day of a three-day polling. Michel from the ruling Lepep party took 55 percent of the vote.,['Seychelles']
2011-12-02,The Seychelles invited Beijing to set up a military base on the archipelago to beef up the fight against piracy there.,"['China', 'Seychelles', 'Pirates']"
2011-12-13,"An American military drone MQ-9 Reaper, which had been used to monitor piracy off the East African coast, crashed at an airport on the island nation of Seychelles during a routine patrol.","['USA', 'Seychelles', 'Pirates']"
