1848-07-03,"Gen. Peter Von Scholten, faced with the likely destruction of towns and plantations by a slave revolt, declared the slaves of the Danish West Indies (later US Virgin Islands) to be freed.","['Denmark', 'Virgin Islands', 'Slavery']"
1867-07-15,"Denmark reached a deal to transfer Saint Thomas and Saint John (part of the Virgin Islands) to the United States to the US for $7.5 million, but a hurricane, earthquake, tsunami and fire, as well as domestic and int&rsquo;l. political conflicts delayed the transfer for 50 years.","['USA', 'Denmark', 'Virgin Islands']"
1886-07-15,"Peter ""Black Prince"" Jackson (1861-1901), St. Croix-born boxer, won the Australian heavyweight championship. In 1892 he won the British Empire title.","['Australia', 'Boxing', 'Virgin Islands']"
1917-03-31,The United States took possession of the Virgin Islands. The purchase from Denmark for $25 million had been set up in 1916.,"['USA', 'Denmark', 'Virgin Islands']"
1989-09-17,"Hurricane Hugo slammed into several Caribbean islands, including St. Croix, which was the hardest hit. The 4 day sweep through the Caribbean killed 62.","['Virgin Islands', 'Hurricane']"
1989-09-24,"Residents of Charleston, S.C., attended church services as they faced a third day of recovering from the devastation of Hurricane Hugo. Hugo caused 56 deaths in the Caribbean and 29 in the United States. The storm hit Guadeloupe, Montserrat, the U.S. Virgin Islands and Puerto Rico before striking South Carolina.","['USA', 'South Carolina', 'Puerto Rico', 'Guadeloupe', 'Montserrat', 'Virgin Islands', 'WeatherUS', 'Hurricane']"
1992-07-15,"The Very Long Baseline Array (VLBA) was completed. It is a string of 10 25-meter radio telescopes that stretch from the Virgin Islands to Hawaii. They operate in the cm. radio wavelengths. Data from each station is merged through radio interferometry into a primary image whose angular resolution equals that of a single telescope nearly 5,000 miles in diameter.","['USA', 'Radio', 'Virgin Islands', 'Telecom', 'Hawaii']"
1995-09-15,"Hurricane ""Marilyn,"" the third major storm to batter the Caribbean in less than a month, hit the Virgin Islands with heavy rains and 100 mile-an-hour winds.","['Virgin Islands', 'Hurricane']"
1996-07-08,Hurricane Bertha slammed into the US Virgin Islands with torrential rains and winds that gusted to 105 mph.,"['Virgin Islands', 'Hurricane']"
1999-11-17,Hurricane Lenny hit the Virgin Islands with 150 mph winds with most of the force over St. Croix.,"['Virgin Islands', 'Hurricane']"
2003-06-17,"The Virgin Islands Party was swept from power after spending 17 years at the helm, according to final election results.",['Virgin Islands']
2004-11-13,"At least 5,500 residents of St. Croix, the largest of the US Virgin Islands, have signed a petition asking Congress to make the island its own U.S. territory.","['USA', 'Virgin Islands']"
2005-05-09,Actress Renee Zellweger married country music star Kenny Chesney on the island of St. John in the US Virgin Islands. The marriage was annulled just months later.,"['Filmstar', 'Pop&Rock;', 'Virgin Islands']"
2005-06-20,"A US federal judge threw out evidence against four men charged with laundering more than $60 million through their chain of US Virgin Islands grocery stores, ruling that FBI agents acted in ""reckless disregard for the truth.""","['USA', 'Virgin Islands']"
2005-08-28,"The French civil aviation authority made public for the 1st time a list on its Internet site of airlines banned to land due to safety reasons. They included: Air Koryo of North Korea; Air St. Thomas of the U.S. Virgin Islands; International Air Services of Liberia; Thailand's Phuket Airlines; and Linhas Aereas de Mocambique and Transairways, both from Mozambique.","['France', 'North Korea', 'Liberia', 'Thailand', 'Mozambique', 'Aviation', 'Virgin Islands']"
2005-09-08,"In the Virgin Islands Elena Lin Yee was arrested and charged with impersonating a US government official and misuse of official documents. Yee used fake credentials to pose as a US ambassador to Grenada, the wife of a former US ambassador to the UN and a US ambassador-at-large.",['Virgin Islands']
2006-09-26,"A former chief of environmental protection in the US Virgin Islands pleaded guilty to charges of conspiracy to defraud the islands' government of more than $1 million. Hollis Griffin (43) acknowledged engaging in a five-year bribery scheme that paid up to $350,000 in kickbacks to at least four government officials in exchange for consulting contracts worth $1.4 million.","['Environment', 'Virgin Islands', 'Govm&rsquo;t Scandal', 'Corruption']"
2006-10-31,"A leading researcher said large species of coral that form underwater reefs and create rich habitat for marine life are disappearing from around the U.S. Virgin Islands, Jamaica and elsewhere in the Caribbean.","['Environment', 'Jamaica', 'Virgin Islands']"
2006-12-28,"Senators of the US Virgin Islands passed Act 6905 in a special session. It raised the governor&rsquo;s salary from $80,000 to $150,000 and senators&rsquo; salaries from $65,000 to $80,000. The average income on St. Croix was $26, 548.","['USA', 'Virgin Islands']"
2006-07-15,"The population St. Thomas, one of the US Virgin Islands, was about 55,000. The total population of the Virgin Islands was about 109,000.","['USA', 'Virgin Islands']"
2006-07-15,Gov. Charles Turnbull of the Virgin Islands told the US Senate that a government crackdown on tax abuse was forcing many legitimate businesses to close their doors.,"['USA', 'Taxes', 'Virgin Islands']"
2007-06-19,"James Cockayne (21) of New Hope, Pa., was beaten and stabbed to death in the Virgin Islands. 3 men, Anselmo Boston, Kamal Thomas and Jahleel Ward, were arrested after the parents of Cockayne appeared on US news programs and accused Virgin Islands detectives of botching an investigation into their son's death. On Oct 10, 2008, Ward was found guilty of first-degree murder and other charges. Anselmo Boston and Kamal Thomas were found guilty on two counts each of third-degree assault, among other charges.","['Pennsylvania', 'Murder', 'Virgin Islands']"
2007-08-03,"Virgin Islands&rsquo; authorities arrested Kamal Thomas and charged him with first-degree murder and assault, as well as using a dangerous weapon while committing a crime. James Cockayne (21) of new Hope, Pa., was killed on June 19 near a shopping center.","['USA', 'Pennsylvania', 'Murder', 'Virgin Islands']"
2007-09-25,"A large swath of coastal land was secured by The Trust for Public Land, paving the way for the biggest expansion of the US Virgin Islands National Park since it was created more than 50 years ago. The pristine property on St. John, known as Estate Maho Bay, will be transferred to the National Park Service when federal funds become available in 2-3 years.","['Environment', 'Virgin Islands', 'Real Estate']"
2007-11-13,"The British Virgin Islands told the US there is overwhelming evidence that Leonid Reiman, Russia&rsquo;s Telecommunications Minister owns much of Russia&rsquo;s telecom industry through an offshore fund.","['Russia', 'USA', 'Virgin Islands', 'Telecom']"
2008-02-09,"Sen. Barack Obama swept the Louisiana primary and caucuses in Nebraska and Washington state, slicing into Sen. Hillary Rodham Clinton's slender delegate lead in their historic race for the Democratic presidential nomination. Obama also won almost 90% in the Virgin Islands. McCain narrowly won Washington while Huckabee took Kansas along with a narrow win in Louisiana.","['USA', 'Louisiana', 'Kansas', 'Washington', 'Nebraska', 'Virgin Islands', 'ObamaB']"
2008-07-31,A US Virgin Islands hospital fired four board members after a US government audit found alleged financial mismanagement and the use of taxpayer money to fund lucrative pay packages for top administrators.,"['USA', 'Virgin Islands']"
2008-08-14,"In the Virgin Islands 2 former government officials faced prison after being found guilty of running a million-dollar bribery and kickback scheme. Dean Plaskett, former commissioner of the islands' planning and natural resources department, was sentenced to nine years in prison. Marc Biggs, former commissioner of the property and procurement office, will serve seven years.","['Virgin Islands', 'Corruption']"
2008-08-21,"In the Virgin Islands a judge imposed a life sentence on Daniel Castillo, convicted of strangling Laquina Hennis, a 12-year-old girl, last year.","['Murder', 'Virgin Islands']"
2008-09-07,In the Virgin Islands US federal agent William Clark (33) intervened in a couple's drunken fight outside his apartment and shot Marcus Sukow to death. Clark was charged with murder and faced trial. In 2010 the case was dismissed on a technicality: that proper procedure was not followed in identifying Sukow's body to the medical examiner.,"['USA', 'Murder', 'Virgin Islands']"
2008-10-16,Hurricane Omar passed the Virgin Islands overnight leaving oil spills in St. Croix as 40 boats sank or washed ashore.,"['Virgin Islands', 'Hurricane']"
2008-10-26,"Gabriel Lerner (27) was kidnapped and killed after he offered 2 men a ride in St. Thomas, US Virgin Islands. Lerner was from the Milwaukee area and worked as a clerk for a Superior Court judge on the island. On March 4, 2011, Auriel Frett (24) was convicted of first degree murder for the slaying. Jurors deliberated less than three hours before reaching the verdict. The co-defendant, who was 17 at the time of the murder, pleaded guilty last year. He was sentenced to 20 years in prison.","['USA', 'Murder', 'Wisconsin', 'Virgin Islands']"
2009-01-19,"Some 25 people, most of them Haitians, were aboard an overloaded boat that was illegally traveling the 100-mile (160-kilometer) passage from the Dutch territory of St. Maarten to the British Virgin Islands. They were apparently island-hopping in hopes of eventually reaching US shores when the boat hit a reef, pitching passengers into the ocean. 13 migrants were rescued by a passing fishing boat. In September 4 men, two Sri Lankans and two residents of St. Kitts, were convicted and sentenced to prison terms ranging up to 2 1/2 years for organizing the doomed sea voyage from St. Maarten.","['Haiti', 'Tragedy', 'Virgin Islands']"
2009-04-30,Police in the US Virgin Islands canceled the popular J'ouvert carnival after four people were wounded in a shooting and two stabbings.,"['USA', 'Virgin Islands']"
2009-09-03,In the US Virgin Islands two ticket agent contractors who worked for Delta Airlines and an airport employee were arrested after being indicted by a federal grand jury on charges of conspiracy to smuggle illegal immigrants into the US.,"['USA', 'Aviation', 'Virgin Islands', 'Migrant']"
2009-10-27,"A jury in the British Virgin Islands convicted dive shop owner David Swain of drowning his wife, Shelley Tyre (46) during a 1999 scuba-diving trip in what prosecutors called a near perfect murder. Authorities charged Swain with murder after a 2006 civil trial in Rhode Island found him responsible for his wife's death. That jury awarded Tyre's family $3.5 million, but Swain filed for bankruptcy and has not paid the sum. On Nov 10 a judge sentenced Swain to 25 years in jail. In 2011 Swain walked free after judges with the Eastern Caribbean Supreme Court of Appeal found problems with the jury instructions during the 2009 trial.","['USA', 'Murder', 'Virgin Islands']"
2009-10-29,"In the US Virgin Islands a small plane crashed into a field and burst into flames shortly after taking off in St. Croix, killing all three people on board.","['Air Crash', 'Virgin Islands']"
2010-03-17,US federal authorities won a court order requiring officials in the US Virgin Islands to repair sewage plants that have dumped raw waste at beaches renowned for snorkeling and surfing.,"['USA', 'Environment', 'Virgin Islands']"
2010-07-12,In the US Virgin Islands a Puerto Rican tourist (14) was killed in front of her horrified family when she was caught in the crossfire of a gunfight attributed to warring gangs.,['Virgin Islands']
2010-10-19,"Two employees of the US Virgin Islands' tax bureau were accused of leading a scheme that pilfered as much as $500,000 from the government using fraudulent tax refund checks. Tax bureau employees Tiffanne Sutton and Colette Hacket-Browne and others had allegedly taken part in tax fraud since 2006.","['USA', 'Taxes', 'Virgin Islands', 'Fraud']"
2011-01-09,"In the US Virgin Islands a traffic stop led to the seizure of 228 kg (502 pounds) of cocaine from Miguel Pascual, a Dominican national. The drugs had an approximate street value of more than $6 million.","['Drugs', 'Virgin Islands']"
2011-02-04,"US federal authorities said they are charging 23 people with moving drugs and illicit money through the Caribbean on behalf of a major Colombian drug cartel. 21 of the suspects have been arrested so far in Colombia, Puerto Rico, the Dominican Republic, New York, Miami and the US Virgin Islands.","['Colombia', 'USA', 'Puerto Rico', 'Drugs', 'Dominican Rep.', 'Virgin Islands']"
2011-06-17,The Virgin Islands government said it has transferred 66 male inmates to the US mainland to improve security at a prison that federal officials have said is out of control. Gov. John de Jongh said the transfer of inmates from the Golden Grove prison on the island of St. Croix to prisons in Virginia and Florida was planned months before the federal government requested to take over the prison.,"['USA', 'Virgin Islands']"
2011-06-24,In the US Virgin Islands a 6-week embezzlement case against three former hospital executives ended in mistrial. A US government audit had accused the three of colluding with the hospital's board to hide bloated compensation packages and of lying to legislators about hospital funds.,['Virgin Islands']
2011-06-28,"U.S. Virgin Islands Immigration and Customs Enforcement said officers have found 531 kg of cocaine, worth about $16 million, some marijuana and two pistols at a house on St. Thomas.","['USA', 'Drugs', 'Virgin Islands']"
2011-10-26,A high-end jewelry manufacturer in the US Virgin Islands was ordered to forfeit thousands of pounds (kg) of protected black coral and pay a $1.8 million fine for trading in it. Gem Manufacturing Inc. pleaded guilty to seven counts of violating the Endangered Species Act and the Lacey Act.,"['USA', 'Animal', 'Virgin Islands']"
2011-11-07,"The British Virgin Islands held elections. The main opposition party, The National Democratic Party, dominated parliamentary elections with nine of 13 parliamentary seats, putting party leader Orlando Smith, the islands' No. 1 politician, in line to be premier of the offshore corporate haven for the next four years.","['Britain', 'Virgin Islands']"
2011-11-15,US Federal agents said they have seized 709 pounds (321 kg) of cocaine and arrested three men off the US island of St. John. The suspects' boat was first spotted Nov 11 by a maritime surveillance aircraft flying over the US Virgin Islands.,"['USA', 'Virgin Islands']"
