1892-07-15,"Samoa made a decision to stay behind a day on the international date line and align it-self with US traders based in California. In 2011 it planned to leap 24 hours into the future so that it can be on the same weekday as Australia, New Zealand and eastern Asia.","['Samoa', 'Time']"
1962-01-01,Samoa became independent from New Zealand. Malietoa Tanumafili II nursed Samoa to independence and presided as head of state jointly for 16 months and thereafter on his own for 43 years.,"['New Zealand', 'Samoa']"
1971-07-15,"Australia joined with New Zealand and 14 independent of self-governing island nations to form the South Pacific Forum. The name was changed in 2000 to Pacific Islands Forum. Member states include: Australia, the Cook Islands, the Federated States of Micronesia, Fiji, Kiribati, the Marshall Islands, Nauru, New Zealand, Niue, Palau, Papua New Guinea, Samoa, the Solomon Islands, Tonga, Tuvalu, and Vanuatu. Since 2006, associate members territories are New Caledonia and French Polynesia.","['Australia', 'Marshall Islands', 'New Zealand', 'Solomons', 'Samoa', 'Fiji', 'Cook Islands', 'Vanuatu', 'Nauru', 'Papua New Guinea', 'Micronesia', 'Kiribati', 'Niue', 'Palau', 'Tonga', 'Tuvalu']"
1983-07-15,"Derek Freeman published ""Margaret Mead in Samoa,"" in which he laid waste Mead's portrayal of 1920s Samoan society.","['Samoa', 'Books', 'Anthropology']"
1997-04-14,In SF the winners of the 1997 Goldman Environmental Prize were: Included were Juan Pablo Orrego of Chile for his battle to stop the damming of the Bio Bio River.,"['Russia', 'Chile', 'Britain', 'Indonesia', 'Environment', 'Ohio', 'Africa', 'Samoa']"
2000-07-15,"Global Domains International, Inc. (GDI) launched the .WS  Internet domain in partnership with the the island nation of Samoa.","['USA', 'Internet', 'Samoa']"
2001-07-15,"Samoa&rsquo;s population was about 171,000.",['Samoa']
2002-06-04,New Zealand's prime minister apologized for mistakes her country made during its 48-year rule over the tiny South Pacific island chain of Samoa.,"['New Zealand', 'Samoa']"
2003-08-14,"The 16-member Pacific Islands Forum (Australia, New Zealand, Fiji, the Cook Islands, the Federated States of Micronesia, Kiribati, Nauru, Niue, Palau, Papua New Guinea, the Marshall Islands, Samoa, the Solomon Islands, Tonga, Tuvalu and Vanuatu) planned to create a region-wide aviation market aimed at encouraging tourism.","['Australia', 'Marshall Islands', 'New Zealand', 'Solomons', 'Samoa', 'Fiji', 'Cook Islands', 'Vanuatu', 'Nauru', 'Papua New Guinea', 'Micronesia', 'Kiribati', 'Palau', 'Tonga', 'Tuvalu', 'Nieu']"
2007-05-11,"Malietoa Tanumafili II, head of state of Samoa, died at age 94-95.",['Samoa']
2009-01-06,"Pres. Bush designated parts of 3 Pacific island chains as national monuments to protect them from oil and gas extraction and commercial fishing. The areas totaled some 195,274 square miles and included the Mariana Trench as well as waters and coral surrounding 3 islands in the Northern Mariana Islands, Rose Atoll in American Samoa and 7 islands along the equator in the central Pacific Ocean.","['USA', 'Environment', 'Samoa', 'Marianas', 'BushGW']"
2009-09-29,"A magnitude 8.0-8.3 earthquake struck about 120 miles south of the islands of Samoa, population about 180,000 people, and American Samoa, a US territory of 65,000. Four tsunami waves 15 to 20 feet (4 to 6 meters) high roared ashore on American Samoa, reaching up to a mile (1.5km) inland. At least 142 were killed in Samoa and at least 32 on American Samoa and leaving dozens missing. Authorities in Tonga, south of the Samoas, confirmed at least 9 dead.","['Earthquake', 'Samoa', 'Tonga', 'Amer. Samoa']"
2011-05-09,"It was reported that Samoa plans to leap 24 hours into the future, erasing a day and putting a new kink in the Pacific's jagged international date line so that it can be on the same weekday as Australia, New Zealand and eastern Asia.","['Samoa', 'Time']"
2011-12-29,"At midnight Samoa leaped to Dec 31 to align itself with trading partners in its South Pacific region. For the country&rsquo;s 186,000 citizens, Dec 30 will simply not exist.","['Calendar', 'Samoa']"
2011-12-30,"At midnight on Dec 29 Samoa leaped to Dec 31 to align itself with trading partners. For the country&rsquo;s 186,000 citizens, Dec 30, 2011 will simply not exist.","['Calendar', 'Samoa']"
