"Country Code",1960,1961,1962,1963,1964,1965,1966,1967,1968,1969,1970,1971,1972,1973,1974,1975,1976,1977,1978,1979,1980,1981,1982,1983,1984,1985,1986,1987,1988,1989,1990,1991,1992,1993,1994,1995,1996,1997,1998,1999,2000,2001,2002,2003,2004,2005,2006,2007,2008,2009,2010,2011ABW,,,,,,,,,,,,,,,,,,,,,,,,,,,,,,,,,,,1.00000000000000E-01,,,6.00000000000000E-01,,,8.00000000000000E-01,,,,,,,9.00000000000000E-01,,,,
ARE,,,,,,,,,,,,,,,,,,,,,,,,,,,,,,,,,,,,9.00000000000000E+00,,,,,9.00000000000000E+00,,,,,5.60000000000000E+00,,,5.20000000000000E+00,,,
ARG,,,,,,,,,,,,,,,,,,,,,,,,,,,,,,,5.00000000000000E-01,5.00000000000000E-01,6.00000000000000E-01,6.00000000000000E-01,6.00000000000000E-01,6.00000000000000E-01,1.10000000000000E+00,1.10000000000000E+00,1.10000000000000E+00,1.10000000000000E+00,1.00000000000000E+00,1.20000000000000E+00,1.30000000000000E+00,1.70000000000000E+00,1.40000000000000E+00,1.50000000000000E+00,1.40000000000000E+00,1.30000000000000E+00,1.80000000000000E+00,1.80000000000000E+00,,
ARM,,,,,,,,,,,,,,,,,,,,,,,,,,,,,,,,,,,,,,,,,,,4.76000000000000E+01,4.83000000000000E+01,4.88000000000000E+01,4.61000000000000E+01,4.63000000000000E+01,4.35000000000000E+01,3.94000000000000E+01,,,
ASM,,,,,,,,,,,,,,,,,,,,,,,,,,,,,,,3.80000000000000E+00,,,,,,,,,,,,,,,,,,,,,
ATG,,,,,,,,,,,,,,,,,,,,,,,,,,,,,,,,,,,,,,,,,,4.10000000000000E+00,4.40000000000000E+00,4.40000000000000E+00,4.40000000000000E+00,4.40000000000000E+00,4.40000000000000E+00,4.40000000000000E+00,4.40000000000000E+00,,,
AUS,,,,,,,,,,,,,,,,,,,,,7.80000000000000E+00,7.60000000000000E+00,7.70000000000000E+00,8.00000000000000E+00,7.50000000000000E+00,7.30000000000000E+00,7.20000000000000E+00,6.90000000000000E+00,7.00000000000000E+00,6.70000000000000E+00,6.70000000000000E+00,6.60000000000000E+00,6.40000000000000E+00,6.50000000000000E+00,6.20000000000000E+00,6.00000000000000E+00,6.20000000000000E+00,6.30000000000000E+00,6.00000000000000E+00,6.10000000000000E+00,6.10000000000000E+00,5.90000000000000E+00,5.50000000000000E+00,4.90000000000000E+00,4.60000000000000E+00,4.50000000000000E+00,4.30000000000000E+00,4.20000000000000E+00,4.20000000000000E+00,,,
AUT,,,,,,,,,,,,,,,,,,,,,,,,8.30000000000000E+00,8.50000000000000E+00,8.00000000000000E+00,7.60000000000000E+00,7.70000000000000E+00,7.40000000000000E+00,7.10000000000000E+00,6.80000000000000E+00,6.60000000000000E+00,6.40000000000000E+00,6.20000000000000E+00,6.60000000000000E+00,6.60000000000000E+00,6.40000000000000E+00,6.10000000000000E+00,5.90000000000000E+00,5.60000000000000E+00,5.50000000000000E+00,5.30000000000000E+00,5.30000000000000E+00,5.40000000000000E+00,4.80000000000000E+00,5.50000000000000E+00,5.40000000000000E+00,5.60000000000000E+00,5.60000000000000E+00,5.40000000000000E+00,,
AZE,,,,,,,,,,,,,,,,,,,,,,,,,,,,,,,,,,,,,,,,3.75000000000000E+01,3.64000000000000E+01,3.74000000000000E+01,4.09000000000000E+01,4.09000000000000E+01,4.09000000000000E+01,4.11000000000000E+01,4.13000000000000E+01,3.95000000000000E+01,3.68000000000000E+01,,,
BDI,,,,,,,,,,,,,,,,,,,,,,,,,,,,,,,,,,,,,,,8.67000000000000E+01,,,,,,,,,,,,,
BEL,,,,,,,,,,,,,,,,,,,,,3.70000000000000E+00,3.80000000000000E+00,3.80000000000000E+00,3.80000000000000E+00,3.80000000000000E+00,3.70000000000000E+00,3.70000000000000E+00,3.60000000000000E+00,3.60000000000000E+00,3.80000000000000E+00,3.80000000000000E+00,3.00000000000000E+00,3.10000000000000E+00,3.10000000000000E+00,3.40000000000000E+00,3.10000000000000E+00,3.10000000000000E+00,3.00000000000000E+00,2.70000000000000E+00,2.70000000000000E+00,2.40000000000000E+00,1.70000000000000E+00,2.30000000000000E+00,2.20000000000000E+00,2.70000000000000E+00,2.40000000000000E+00,2.50000000000000E+00,2.30000000000000E+00,2.00000000000000E+00,1.90000000000000E+00,,
BEN,,,,,,,,,,,,,,,,,,,,,,,,,,,,,,,,,,,,,,,,,,,,5.31000000000000E+01,,,,,,,,
BFA,,,,,,,,,,,,,,,,,,,,,,,,,,,,,,,,,,,,,,,,,,,,8.28000000000000E+01,,,,,,,,
BGD,,,,,,,,,,,,,,,,,,,,,,,,,6.35000000000000E+01,6.23000000000000E+01,6.23000000000000E+01,,,6.04000000000000E+01,,5.44000000000000E+01,,,,,5.44000000000000E+01,,,,5.33000000000000E+01,,,4.98000000000000E+01,,4.18000000000000E+01,,,,,,
BGR,,,,,,,,,,,,,,,,,,,,,,,,,,,,,,,,,,,,,,,,,1.53000000000000E+01,1.20000000000000E+01,1.29000000000000E+01,1.35000000000000E+01,1.27000000000000E+01,1.06000000000000E+01,9.80000000000000E+00,9.10000000000000E+00,8.90000000000000E+00,8.60000000000000E+00,,
BHR,,,,,,,,,,,,,,,,,,,,,,3.00000000000000E+00,2.90000000000000E+00,,,,,,,,,2.90000000000000E+00,,,,,,,,,,1.90000000000000E+00,,,,,,,,,,
BHS,,,,,,,,,,,,,,,,,,,,,,,,,,,7.80000000000000E+00,,,6.40000000000000E+00,,8.60000000000000E+00,8.60000000000000E+00,9.00000000000000E+00,8.80000000000000E+00,7.30000000000000E+00,8.10000000000000E+00,6.00000000000000E+00,6.00000000000000E+00,6.70000000000000E+00,,6.80000000000000E+00,5.60000000000000E+00,5.30000000000000E+00,8.20000000000000E+00,6.40000000000000E+00,4.40000000000000E+00,4.20000000000000E+00,4.90000000000000E+00,5.10000000000000E+00,,
BLR,,,,,,,,,,,,,,,,,,,,,,,,,,,,,,,,,,,,,,,,,,,,,,1.67000000000000E+01,,,1.52600000000000E+01,,,
BLZ,,,,,,,,,,,,,,,,,,,,,,,,,,,,,,,,,,3.30000000000000E+01,3.09000000000000E+01,3.62000000000000E+01,3.84000000000000E+01,4.03000000000000E+01,3.41000000000000E+01,3.69000000000000E+01,,,,,,2.80000000000000E+01,,,,,,
BMU,,,,,,,,,,,,,,,,,,,,,,,,,,,,,,,,,,,,,,,,,2.40000000000000E+00,2.90000000000000E+00,3.10000000000000E+00,3.00000000000000E+00,3.00000000000000E+00,,,,,,,
BOL,,,,,,,,,,,,,,,,,,,,,5.21000000000000E+01,5.21000000000000E+01,5.29000000000000E+01,5.39000000000000E+01,5.38000000000000E+01,5.41000000000000E+01,5.40000000000000E+01,5.41000000000000E+01,5.40000000000000E+01,3.00000000000000E+00,1.90000000000000E+00,2.30000000000000E+00,2.70000000000000E+00,2.80000000000000E+00,2.40000000000000E+00,3.00000000000000E+00,6.40000000000000E+00,7.00000000000000E+00,,3.70000000000000E+01,3.79000000000000E+01,4.29000000000000E+01,4.23000000000000E+01,3.54000000000000E+01,3.54000000000000E+01,3.82000000000000E+01,3.95000000000000E+01,3.43000000000000E+01,,,,
BRA,,,,,,,,,,,,,,,,,,,,,,3.36000000000000E+01,3.44000000000000E+01,3.09000000000000E+01,3.51000000000000E+01,3.37000000000000E+01,3.15000000000000E+01,2.94000000000000E+01,2.94000000000000E+01,2.81000000000000E+01,2.81000000000000E+01,,3.06000000000000E+01,2.96000000000000E+01,,2.84000000000000E+01,2.74000000000000E+01,2.68000000000000E+01,2.60000000000000E+01,2.68000000000000E+01,2.32000000000000E+01,2.36000000000000E+01,2.35000000000000E+01,2.39000000000000E+01,2.45000000000000E+01,2.37000000000000E+01,2.25000000000000E+01,2.15000000000000E+01,2.06000000000000E+01,2.05000000000000E+01,,
BRB,,,,,,,,,,,,,,,,,,,,,,9.80000000000000E+00,8.70000000000000E+00,8.30000000000000E+00,1.02000000000000E+01,9.40000000000000E+00,8.80000000000000E+00,9.00000000000000E+00,8.70000000000000E+00,6.60000000000000E+00,6.90000000000000E+00,6.40000000000000E+00,8.00000000000000E+00,6.30000000000000E+00,6.00000000000000E+00,5.50000000000000E+00,6.10000000000000E+00,6.50000000000000E+00,5.00000000000000E+00,5.20000000000000E+00,4.10000000000000E+00,4.80000000000000E+00,4.90000000000000E+00,5.30000000000000E+00,4.20000000000000E+00,,,,,,,
BRN,,,,,,,,,,,,,,,,,,,,,,,,,,,,,,,,2.20000000000000E+00,,,,,,,,,,2.10000000000000E+00,,,,,,,,,,
BTN,,,,,,,,,,,,,,,,,,,,,,,,,,,,,,,,,,,,,,,,,,,,7.10000000000000E+01,,3.26000000000000E+01,,,,,,
BWA,,,,,,,,,,,,,,,,,,,,,,,,,,5.53000000000000E+01,,,,,,,,,,,1.96000000000000E+01,,2.62000000000000E+01,,2.19000000000000E+01,1.68000000000000E+01,,2.86000000000000E+01,,3.51000000000000E+01,3.51000000000000E+01,,,,,
CAN,,,,,,,,,,,,,,,,,,,,,7.00000000000000E+00,7.00000000000000E+00,6.80000000000000E+00,7.10000000000000E+00,7.00000000000000E+00,6.60000000000000E+00,6.40000000000000E+00,6.10000000000000E+00,5.70000000000000E+00,5.40000000000000E+00,5.40000000000000E+00,5.70000000000000E+00,5.50000000000000E+00,5.60000000000000E+00,5.40000000000000E+00,5.50000000000000E+00,5.40000000000000E+00,5.20000000000000E+00,5.10000000000000E+00,4.80000000000000E+00,4.50000000000000E+00,3.90000000000000E+00,3.80000000000000E+00,3.90000000000000E+00,3.70000000000000E+00,3.70000000000000E+00,3.60000000000000E+00,3.40000000000000E+00,3.30000000000000E+00,,,
CHE,,,,,,,,,,,,,,,,,,,,,7.90000000000000E+00,7.30000000000000E+00,7.20000000000000E+00,7.20000000000000E+00,6.90000000000000E+00,6.80000000000000E+00,6.40000000000000E+00,5.90000000000000E+00,5.50000000000000E+00,5.10000000000000E+00,4.80000000000000E+00,4.70000000000000E+00,4.60000000000000E+00,4.80000000000000E+00,4.80000000000000E+00,5.00000000000000E+00,5.40000000000000E+00,5.40000000000000E+00,5.50000000000000E+00,5.60000000000000E+00,5.20000000000000E+00,4.90000000000000E+00,4.90000000000000E+00,4.80000000000000E+00,4.60000000000000E+00,4.60000000000000E+00,4.70000000000000E+00,4.80000000000000E+00,4.10000000000000E+00,3.80000000000000E+00,,
CHL,,,,,,,,,,,,,,,,,,,,,2.19000000000000E+01,2.10000000000000E+01,2.22000000000000E+01,2.18000000000000E+01,2.16000000000000E+01,2.70000000000000E+01,2.74000000000000E+01,2.73000000000000E+01,2.63000000000000E+01,2.53000000000000E+01,2.53000000000000E+01,2.48000000000000E+01,2.36000000000000E+01,2.16000000000000E+01,2.13000000000000E+01,2.06000000000000E+01,2.02000000000000E+01,1.92000000000000E+01,1.94000000000000E+01,1.93000000000000E+01,1.93000000000000E+01,1.81000000000000E+01,1.79000000000000E+01,1.81000000000000E+01,1.76000000000000E+01,1.71000000000000E+01,1.67000000000000E+01,1.61000000000000E+01,1.54000000000000E+01,,,
CMR,,,,,,,,,,,,,,,,,,,,,,,,,,,,,,,,,,,,,,,,,,5.77000000000000E+01,,,,,,,,,,
COG,,,,,,,,,,,,,,,,,,,,,,,,,,,,,,,,,,,,,,,,,,,,,,3.13000000000000E+01,,,,,,
COL,,,,,,,,,,,,,,,,,,,,,1.90000000000000E+00,,,,,1.70000000000000E+00,1.80000000000000E+00,1.90000000000000E+00,1.80000000000000E+00,1.70000000000000E+00,1.90000000000000E+00,1.80000000000000E+00,1.90000000000000E+00,1.50000000000000E+00,1.70000000000000E+00,1.40000000000000E+00,1.60000000000000E+00,1.40000000000000E+00,1.40000000000000E+00,1.60000000000000E+00,1.60000000000000E+00,3.25000000000000E+01,2.92000000000000E+01,2.93000000000000E+01,2.83000000000000E+01,3.04000000000000E+01,2.98000000000000E+01,2.54000000000000E+01,2.50000000000000E+01,2.68000000000000E+01,,
CRI,,,,,,,,,,,,,,,,,,,,,3.44000000000000E+01,3.52000000000000E+01,3.82000000000000E+01,3.60000000000000E+01,3.68000000000000E+01,3.53000000000000E+01,3.44000000000000E+01,3.61000000000000E+01,3.61000000000000E+01,3.41000000000000E+01,3.36000000000000E+01,3.33000000000000E+01,3.19000000000000E+01,2.95000000000000E+01,2.83000000000000E+01,2.82000000000000E+01,2.83000000000000E+01,2.72000000000000E+01,2.69000000000000E+01,2.69000000000000E+01,2.73000000000000E+01,2.19000000000000E+01,2.21000000000000E+01,2.10000000000000E+01,2.04000000000000E+01,2.08000000000000E+01,1.94000000000000E+01,1.79000000000000E+01,1.72000000000000E+01,,,
CUB,,,,,,,,,,,,,,,,,,,,,,,,,,,,,,,,,,,,3.16000000000000E+01,3.15000000000000E+01,3.16000000000000E+01,2.69000000000000E+01,3.42000000000000E+01,3.43000000000000E+01,2.85000000000000E+01,2.86000000000000E+01,2.87000000000000E+01,2.75000000000000E+01,2.65000000000000E+01,2.63000000000000E+01,2.50000000000000E+01,2.47000000000000E+01,,,
CYM,,,,,,,,,,,,,,,,,,,,,,,,,,,,,,,,2.10000000000000E+00,,,,,,,,,,,,,,2.60000000000000E+00,3.50000000000000E+00,3.20000000000000E+00,3.00000000000000E+00,,,
CYP,,,,,,,,,,,,,,,,,,,,,1.49000000000000E+01,1.47000000000000E+01,1.43000000000000E+01,1.43000000000000E+01,1.43000000000000E+01,1.39000000000000E+01,1.34000000000000E+01,1.32000000000000E+01,1.28000000000000E+01,1.25000000000000E+01,1.20000000000000E+01,1.15000000000000E+01,1.13000000000000E+01,1.13000000000000E+01,1.11000000000000E+01,1.09000000000000E+01,,,,5.10000000000000E+00,5.70000000000000E+00,5.50000000000000E+00,6.00000000000000E+00,6.00000000000000E+00,5.70000000000000E+00,5.50000000000000E+00,5.30000000000000E+00,6.00000000000000E+00,5.50000000000000E+00,4.60000000000000E+00,,
CZE,,,,,,,,,,,,,,,,,,,,,,,,,,,,,,,,,,8.80000000000000E+00,7.80000000000000E+00,7.40000000000000E+00,7.10000000000000E+00,6.90000000000000E+00,6.50000000000000E+00,6.20000000000000E+00,6.10000000000000E+00,5.90000000000000E+00,5.80000000000000E+00,5.50000000000000E+00,5.30000000000000E+00,4.80000000000000E+00,4.50000000000000E+00,4.40000000000000E+00,4.00000000000000E+00,3.80000000000000E+00,,
DEU,,,,,,,,,,,,,,,,,,,,,,,,,,,,,,,,4.20000000000000E+00,3.80000000000000E+00,3.60000000000000E+00,3.40000000000000E+00,3.30000000000000E+00,3.20000000000000E+00,3.20000000000000E+00,3.10000000000000E+00,3.20000000000000E+00,3.00000000000000E+00,3.00000000000000E+00,2.90000000000000E+00,2.90000000000000E+00,2.90000000000000E+00,2.90000000000000E+00,2.80000000000000E+00,2.80000000000000E+00,2.20000000000000E+00,2.00000000000000E+00,,
DMA,,,,,,,,,,,,,,,,,,,,,,,,,,,,,,3.87000000000000E+01,,4.02000000000000E+01,,,,,,3.14000000000000E+01,,3.43000000000000E+01,,2.94000000000000E+01,,,,,,,,,,
DNK,,,,,,,,,,,,,,,,,,,,,,1.05000000000000E+01,,1.03000000000000E+01,9.40000000000000E+00,9.20000000000000E+00,8.20000000000000E+00,7.70000000000000E+00,7.90000000000000E+00,7.90000000000000E+00,7.80000000000000E+00,7.90000000000000E+00,7.20000000000000E+00,7.30000000000000E+00,7.00000000000000E+00,5.90000000000000E+00,5.50000000000000E+00,5.40000000000000E+00,5.30000000000000E+00,4.60000000000000E+00,4.70000000000000E+00,4.50000000000000E+00,4.40000000000000E+00,4.50000000000000E+00,4.10000000000000E+00,4.10000000000000E+00,4.10000000000000E+00,3.90000000000000E+00,4.10000000000000E+00,3.80000000000000E+00,,
DOM,,,,,,,,,,,,,,,,,,,,,,,,,,,,,,,,2.74000000000000E+01,2.56000000000000E+01,2.28000000000000E+01,1.98000000000000E+01,2.05000000000000E+01,2.67000000000000E+01,2.72000000000000E+01,2.39000000000000E+01,2.40000000000000E+01,2.26000000000000E+01,2.12000000000000E+01,2.31000000000000E+01,1.97000000000000E+01,2.12000000000000E+01,2.06000000000000E+01,2.16000000000000E+01,2.10000000000000E+01,,,,
DZA,,,,,,,,,,,,,,,,,,,,,,,,,,,,,,,,,,,,,,,,,,2.25000000000000E+01,,2.28000000000000E+01,2.04000000000000E+01,,,,,,,
ECA,,,,,,,,,,,,,,,,,,,,,,,,,,,,,,,,,,,,,,,,2.54537678356662E+01,2.38134151960338E+01,2.32833205985811E+01,2.17003865752432E+01,2.13714409785857E+01,2.09632350625037E+01,1.94442507252625E+01,1.87667284804105E+01,1.68261539062299E+01,1.58115366058527E+01,,,
ECS,,,,,,,,,,,,,,,,,,,,,,,,,,,,,,,,,,,,,,1.23557378820891E+01,1.22617284456198E+01,1.31963041088027E+01,1.24558193926270E+01,1.24008950401013E+01,1.17871216061132E+01,1.15911599092767E+01,1.13738522257916E+01,1.07888137309363E+01,1.03092357981498E+01,9.43045567717696E+00,8.81294693212780E+00,,,
ECU,,,,,,,,,,,,,,,,,,,,,,,,,,,,,,,1.03000000000000E+01,1.13000000000000E+01,9.60000000000000E+00,1.04000000000000E+01,9.80000000000000E+00,8.80000000000000E+00,9.50000000000000E+00,9.80000000000000E+00,1.05000000000000E+01,1.05000000000000E+01,3.40000000000000E+01,3.40000000000000E+01,1.10000000000000E+01,3.49000000000000E+01,3.54000000000000E+01,3.46000000000000E+01,3.40000000000000E+01,3.33000000000000E+01,3.30000000000000E+01,3.35000000000000E+01,,
EGY,,,,,,,,,,,,,,,,,,,,,4.49000000000000E+01,4.28000000000000E+01,4.16000000000000E+01,4.09000000000000E+01,3.93000000000000E+01,,,,,3.46000000000000E+01,3.49000000000000E+01,2.94000000000000E+01,3.45000000000000E+01,3.25000000000000E+01,3.22000000000000E+01,3.20000000000000E+01,,2.91000000000000E+01,2.85000000000000E+01,2.80000000000000E+01,2.74000000000000E+01,2.78000000000000E+01,2.75000000000000E+01,2.77000000000000E+01,2.81000000000000E+01,2.71000000000000E+01,2.83000000000000E+01,2.77000000000000E+01,2.82000000000000E+01,,,
EMU,,,,,,,,,,,,,,,,,,,,,,,,,,,,,,,,7.60882465087098E+00,7.11727925816943E+00,6.82248165815774E+00,6.83439062388927E+00,6.56523183294951E+00,6.39764484523323E+00,6.30275626317605E+00,6.14645503823632E+00,5.90405092120548E+00,5.67755268882315E+00,5.59908748428935E+00,5.44643725014955E+00,5.44717118004069E+00,5.13224399685707E+00,5.03901395382882E+00,4.97087131068282E+00,4.78108846501987E+00,4.24269382027303E+00,4.31754346647039E+00,,
ESP,,,,,,,,,,,,,,,,,,,,,1.96000000000000E+01,1.92000000000000E+01,1.92000000000000E+01,1.93000000000000E+01,1.92000000000000E+01,1.91000000000000E+01,1.71000000000000E+01,1.61000000000000E+01,1.53000000000000E+01,1.39000000000000E+01,1.26000000000000E+01,1.15000000000000E+01,1.05000000000000E+01,1.06000000000000E+01,1.05000000000000E+01,1.00000000000000E+01,9.50000000000000E+00,9.20000000000000E+00,9.00000000000000E+00,8.40000000000000E+00,7.80000000000000E+00,7.80000000000000E+00,7.20000000000000E+00,6.80000000000000E+00,6.60000000000000E+00,6.40000000000000E+00,5.80000000000000E+00,5.60000000000000E+00,5.10000000000000E+00,5.50000000000000E+00,,
EST,,,,,,,,,,,,,,,,,,,,,,,,,,,,,,2.72000000000000E+01,2.65000000000000E+01,2.40000000000000E+01,2.25000000000000E+01,2.01000000000000E+01,1.76000000000000E+01,1.25000000000000E+01,1.21000000000000E+01,1.18000000000000E+01,1.12000000000000E+01,1.03000000000000E+01,9.70000000000000E+00,9.90000000000000E+00,9.60000000000000E+00,8.40000000000000E+00,8.10000000000000E+00,7.20000000000000E+00,6.70000000000000E+00,6.40000000000000E+00,5.30000000000000E+00,5.60000000000000E+00,,
ETH,,,,,,,,,,,,,,,,,,,,,,,,,,,,,,,,,,,,,,,,,,,,,8.69000000000000E+01,8.32000000000000E+01,,,,8.70000000000000E+00,,
EUU,,,,,,,,,,,,,,,,,,,,,,,,,,,,,,,,8.22330835372812E+00,7.75339100165999E+00,7.76025821707705E+00,9.17308692636826E+00,8.86559433710815E+00,8.72897776535867E+00,8.70494120532102E+00,8.48054055391998E+00,8.22003852673374E+00,8.17646379620458E+00,7.93045327668851E+00,7.46348210915677E+00,7.35011170255472E+00,6.90924682858770E+00,6.75777279261874E+00,6.51687309596090E+00,6.23825333227697E+00,5.75960770281397E+00,5.68975287980389E+00,,
FIN,,,,,,,,,,,,,,,,,,,,,1.46000000000000E+01,1.44000000000000E+01,1.51000000000000E+01,1.45000000000000E+01,1.39000000000000E+01,1.34000000000000E+01,1.31000000000000E+01,1.25000000000000E+01,1.18000000000000E+01,1.15000000000000E+01,1.08000000000000E+01,1.07000000000000E+01,1.12000000000000E+01,1.13000000000000E+01,1.09000000000000E+01,1.00000000000000E+01,9.20000000000000E+00,8.80000000000000E+00,8.10000000000000E+00,8.10000000000000E+00,7.90000000000000E+00,7.40000000000000E+00,6.80000000000000E+00,6.60000000000000E+00,6.60000000000000E+00,6.50000000000000E+00,6.30000000000000E+00,6.20000000000000E+00,6.10000000000000E+00,6.30000000000000E+00,,
FRA,,,,,,,,,,,,,,,,,,,,,9.00000000000000E+00,8.80000000000000E+00,8.50000000000000E+00,8.30000000000000E+00,8.20000000000000E+00,8.00000000000000E+00,7.80000000000000E+00,7.40000000000000E+00,7.10000000000000E+00,6.70000000000000E+00,6.40000000000000E+00,6.20000000000000E+00,6.70000000000000E+00,6.20000000000000E+00,6.20000000000000E+00,5.80000000000000E+00,5.80000000000000E+00,5.60000000000000E+00,5.50000000000000E+00,5.30000000000000E+00,5.20000000000000E+00,5.10000000000000E+00,5.20000000000000E+00,5.60000000000000E+00,4.90000000000000E+00,4.80000000000000E+00,5.00000000000000E+00,4.60000000000000E+00,3.50000000000000E+00,3.90000000000000E+00,,
FRO,,,,,,,,,,,,,,,,,,,,,,,,,,,,,,,,,,,,,,,,,,,,,,2.00000000000000E+01,,,,,,
GAB,,,,,,,,,,,,,,,,,,,,,,,,,,,,,,,,,,2.56000000000000E+01,,,,,,,,,,,,1.73000000000000E+01,,,,,,
GBR,,,,,,,,,,,,,,,,,,,,,3.40000000000000E+00,3.60000000000000E+00,3.60000000000000E+00,3.60000000000000E+00,3.50000000000000E+00,3.50000000000000E+00,3.40000000000000E+00,3.30000000000000E+00,3.20000000000000E+00,3.10000000000000E+00,2.90000000000000E+00,3.10000000000000E+00,3.10000000000000E+00,2.80000000000000E+00,2.80000000000000E+00,2.70000000000000E+00,2.60000000000000E+00,2.50000000000000E+00,2.40000000000000E+00,2.20000000000000E+00,2.20000000000000E+00,2.00000000000000E+00,2.00000000000000E+00,1.80000000000000E+00,1.90000000000000E+00,1.90000000000000E+00,1.90000000000000E+00,1.90000000000000E+00,2.00000000000000E+00,1.60000000000000E+00,,
GEO,,,,,,,,,,,,,,,,,,,,,,,,,,,,,,,,,,,,,,,4.62000000000000E+01,5.04000000000000E+01,4.70000000000000E+01,5.27000000000000E+01,5.24000000000000E+01,5.31000000000000E+01,5.17000000000000E+01,5.17000000000000E+01,5.34000000000000E+01,5.05000000000000E+01,,,,
GHA,,,,,,,,,,,,,,,,,,,,,,,,,,,,,,,,,6.62000000000000E+01,,,,,,,5.98000000000000E+01,,,,,,,,,,,,
GIN,,,,,,,,,,,,,,,,,,,,,,,,,,,,,,,,,,,7.29000000000000E+01,,,,,,,,,,,,,,,,,
GMB,,,,,,,,,,,,,,,,,,,,,,,,,,,,,,,,,,5.37000000000000E+01,,,,,,,,,,,,,,,,,,
GNQ,,,,,,,,,,,,,,,,,,,,,,,,6.81000000000000E+01,,,,,,,,,,,,,,,,,,,,,,,,,,,,
GRC,,,,,,,,,,,,,,,,,,,,,,2.57000000000000E+01,2.48000000000000E+01,2.52000000000000E+01,2.45000000000000E+01,2.43000000000000E+01,2.40000000000000E+01,2.26000000000000E+01,2.26000000000000E+01,2.16000000000000E+01,2.04000000000000E+01,1.99000000000000E+01,1.95000000000000E+01,1.91000000000000E+01,1.86000000000000E+01,1.85000000000000E+01,1.82000000000000E+01,1.79000000000000E+01,1.64000000000000E+01,1.61000000000000E+01,1.61000000000000E+01,1.52000000000000E+01,1.44000000000000E+01,1.43000000000000E+01,1.17000000000000E+01,1.15000000000000E+01,1.12000000000000E+01,1.10000000000000E+01,1.10000000000000E+01,1.18000000000000E+01,,
GRD,,,,,,,,,,,,,,,,,,,,,,,,,,,,,2.37000000000000E+01,,,,,,2.34000000000000E+01,,1.82000000000000E+01,,1.65000000000000E+01,,,,,,,,,,,,,
GTM,,,,,,,,,,,,,,,,,,,,,,6.07000000000000E+01,6.07000000000000E+01,,,,,6.35000000000000E+01,,6.13000000000000E+01,1.77000000000000E+01,1.94000000000000E+01,,,6.04000000000000E+01,,,,4.97000000000000E+01,,5.18000000000000E+01,,5.01000000000000E+01,4.65000000000000E+01,5.06000000000000E+01,,4.38000000000000E+01,,,,,
GUY,,,,,,,,,,,,,,,,,,,,,,,,,,,,,,,,,,,,,,3.35000000000000E+01,,,,3.35000000000000E+01,2.73000000000000E+01,,,,,,,,,
HIC,,,,,,,,,,,,,,,,,,,,,,,,,,,,,,,,6.34990171822776E+00,5.98026536554349E+00,5.73884304445769E+00,6.31591819861806E+00,6.08931968685900E+00,5.96191498180527E+00,5.77884265124357E+00,5.66587194539674E+00,5.46814330592729E+00,5.31773638625725E+00,5.11370513494505E+00,5.05086350371777E+00,4.61556715032079E+00,4.43400531588344E+00,4.36525677963647E+00,4.19951255828755E+00,4.09739466459632E+00,3.94708384073187E+00,,,
HKG,,,,,,,,,,,,,,,,,,,,,1.50000000000000E+00,1.10000000000000E+00,1.40000000000000E+00,1.30000000000000E+00,1.30000000000000E+00,1.70000000000000E+00,1.70000000000000E+00,1.60000000000000E+00,1.30000000000000E+00,1.10000000000000E+00,1.00000000000000E+00,9.00000000000000E-01,8.00000000000000E-01,8.00000000000000E-01,8.00000000000000E-01,7.00000000000000E-01,5.00000000000000E-01,4.00000000000000E-01,4.00000000000000E-01,4.00000000000000E-01,3.00000000000000E-01,3.00000000000000E-01,3.00000000000000E-01,3.00000000000000E-01,3.00000000000000E-01,3.00000000000000E-01,3.00000000000000E-01,2.00000000000000E-01,3.00000000000000E-01,,,
HND,,,,,,,,,,,,,,,,,,,,,,,,,,,,,,,6.52000000000000E+01,,5.27000000000000E+01,,5.10000000000000E+01,5.04000000000000E+01,5.35000000000000E+01,5.25000000000000E+01,4.86000000000000E+01,4.98000000000000E+01,,5.16000000000000E+01,5.31000000000000E+01,5.19000000000000E+01,4.84000000000000E+01,5.13000000000000E+01,4.98000000000000E+01,4.77000000000000E+01,,,,
HRV,,,,,,,,,,,,,,,,,,,,,,,,,,,,,,,,,,,,,1.88000000000000E+01,1.67000000000000E+01,1.61000000000000E+01,1.61000000000000E+01,1.39000000000000E+01,1.58000000000000E+01,1.54000000000000E+01,1.62000000000000E+01,1.55000000000000E+01,1.60000000000000E+01,1.37000000000000E+01,1.20000000000000E+01,1.23000000000000E+01,1.28000000000000E+01,,
HTI,,,,,,,,,,,,,,,,,,,,,8.13000000000000E+01,8.10000000000000E+01,7.61000000000000E+01,7.61000000000000E+01,,,,,7.61000000000000E+01,,7.61000000000000E+01,,,,,,,,,6.25000000000000E+01,,,,,,,,,,,,
HUN,,,,,,,,,,,,,,,,,,,,,2.44000000000000E+01,2.49000000000000E+01,2.59000000000000E+01,2.60000000000000E+01,2.57000000000000E+01,2.50000000000000E+01,2.42000000000000E+01,2.34000000000000E+01,2.29000000000000E+01,2.24000000000000E+01,2.12000000000000E+01,1.94000000000000E+01,,,1.14000000000000E+01,1.07000000000000E+01,1.13000000000000E+01,1.06000000000000E+01,1.04000000000000E+01,9.70000000000000E+00,9.00000000000000E+00,8.40000000000000E+00,8.40000000000000E+00,7.80000000000000E+00,7.50000000000000E+00,6.90000000000000E+00,6.70000000000000E+00,6.60000000000000E+00,6.30000000000000E+00,6.30000000000000E+00,,
IDN,,,,,,,,,,,,,,,,,,,,,5.75000000000000E+01,,5.52000000000000E+01,,,5.53000000000000E+01,5.47000000000000E+01,5.46000000000000E+01,5.54000000000000E+01,5.57000000000000E+01,5.56000000000000E+01,5.35000000000000E+01,5.38000000000000E+01,5.02000000000000E+01,4.54000000000000E+01,4.41000000000000E+01,4.34000000000000E+01,4.07000000000000E+01,4.43000000000000E+01,4.33000000000000E+01,4.44000000000000E+01,4.33000000000000E+01,4.37000000000000E+01,4.57000000000000E+01,4.26000000000000E+01,4.38000000000000E+01,4.25000000000000E+01,4.11000000000000E+01,4.06000000000000E+01,4.02000000000000E+01,,
IMY,,,,,,,,,,,,,,,,,,,,,,,,,,,,,,,,,,,,,,,,,,2.20000000000000E+00,,,,,2.90000000000000E+00,,,,,
IND,,,,,,,,,,,,,,,,,,,,,,,,,,,,,,,,,,,,,,,,,5.39000000000000E+01,,,,,4.92000000000000E+01,,,,,,
IRL,,,,,,,,,,,,,,,,,,,,,,,,2.16000000000000E+01,2.13000000000000E+01,2.01000000000000E+01,2.06000000000000E+01,2.07000000000000E+01,2.09000000000000E+01,2.06000000000000E+01,2.07000000000000E+01,1.91000000000000E+01,1.91000000000000E+01,1.79000000000000E+01,1.72000000000000E+01,1.67000000000000E+01,1.53000000000000E+01,1.49000000000000E+01,1.33000000000000E+01,1.27000000000000E+01,1.18000000000000E+01,1.06000000000000E+01,1.08000000000000E+01,9.80000000000000E+00,9.90000000000000E+00,9.20000000000000E+00,8.80000000000000E+00,8.50000000000000E+00,9.00000000000000E+00,8.30000000000000E+00,,
IRN,,,,,,,,,,,,,,,,,,,,,,,,,,,,,,,,,,,,,2.39000000000000E+01,,,,,,,,,2.26000000000000E+01,2.13000000000000E+01,2.05000000000000E+01,1.93000000000000E+01,,,
IRQ,,,,,,,,,,,,,,,,,,,,,,,,,,,,,,,,,,,,,,,,,,,,,1.40000000000000E+01,,2.20000000000000E+01,1.22000000000000E+01,1.71000000000000E+01,,,
ISL,,,,,,,,,,,,,,,,,,,,,,,,,,,,,,,,1.44000000000000E+01,1.55000000000000E+01,1.43000000000000E+01,1.32000000000000E+01,1.40000000000000E+01,1.38000000000000E+01,1.23000000000000E+01,1.20000000000000E+01,1.28000000000000E+01,1.17000000000000E+01,1.15000000000000E+01,1.06000000000000E+01,1.03000000000000E+01,9.30000000000000E+00,9.60000000000000E+00,9.20000000000000E+00,8.80000000000000E+00,7.00000000000000E+00,6.70000000000000E+00,,
ISR,,,,,,,,,,,,,,,,,,,,,7.60000000000000E+00,7.50000000000000E+00,7.10000000000000E+00,7.10000000000000E+00,6.70000000000000E+00,6.80000000000000E+00,6.70000000000000E+00,6.60000000000000E+00,6.00000000000000E+00,6.10000000000000E+00,5.30000000000000E+00,4.60000000000000E+00,4.60000000000000E+00,4.70000000000000E+00,4.40000000000000E+00,4.20000000000000E+00,3.60000000000000E+00,3.40000000000000E+00,3.30000000000000E+00,3.30000000000000E+00,3.20000000000000E+00,3.10000000000000E+00,3.00000000000000E+00,2.80000000000000E+00,3.10000000000000E+00,3.10000000000000E+00,2.70000000000000E+00,2.60000000000000E+00,2.50000000000000E+00,2.50000000000000E+00,,
ITA,,,,,,,,,,,,,,,,,,,,,1.31000000000000E+01,1.25000000000000E+01,1.16000000000000E+01,1.16000000000000E+01,1.13000000000000E+01,1.06000000000000E+01,1.03000000000000E+01,1.02000000000000E+01,9.60000000000000E+00,9.10000000000000E+00,8.70000000000000E+00,8.30000000000000E+00,7.70000000000000E+00,7.00000000000000E+00,6.90000000000000E+00,6.70000000000000E+00,6.40000000000000E+00,6.20000000000000E+00,6.20000000000000E+00,5.90000000000000E+00,5.70000000000000E+00,5.70000000000000E+00,5.50000000000000E+00,5.30000000000000E+00,4.80000000000000E+00,4.80000000000000E+00,4.90000000000000E+00,4.60000000000000E+00,4.30000000000000E+00,4.40000000000000E+00,,
JAM,,,,,,,,,,,,,,,,,,,,,,,,,,,,,,,,,3.59000000000000E+01,3.40000000000000E+01,3.26000000000000E+01,3.18000000000000E+01,3.10000000000000E+01,2.92000000000000E+01,2.90000000000000E+01,2.87000000000000E+01,2.88000000000000E+01,2.84000000000000E+01,2.74000000000000E+01,2.86000000000000E+01,2.55000000000000E+01,2.51000000000000E+01,2.56000000000000E+01,2.47000000000000E+01,2.57000000000000E+01,2.83000000000000E+01,,
JOR,,,,,,,,,,,,,,,,,,,,,,,,7.00000000000000E+00,,,5.80000000000000E+00,6.90000000000000E+00,,,,,,,,,,,,,5.10000000000000E+00,4.20000000000000E+00,4.10000000000000E+00,3.80000000000000E+00,,,,,,2.80000000000000E+00,,
JPN,,,,,,,,,,,,,,,,,,,,,8.70000000000000E+00,8.40000000000000E+00,8.20000000000000E+00,8.00000000000000E+00,7.60000000000000E+00,7.60000000000000E+00,7.30000000000000E+00,7.20000000000000E+00,6.90000000000000E+00,6.70000000000000E+00,6.30000000000000E+00,6.00000000000000E+00,5.80000000000000E+00,5.40000000000000E+00,5.30000000000000E+00,5.20000000000000E+00,5.00000000000000E+00,4.90000000000000E+00,4.80000000000000E+00,4.80000000000000E+00,4.70000000000000E+00,4.60000000000000E+00,4.50000000000000E+00,4.50000000000000E+00,4.40000000000000E+00,4.40000000000000E+00,4.20000000000000E+00,4.20000000000000E+00,4.20000000000000E+00,,,
KAZ,,,,,,,,,,,,,,,,,,,,,,,,,,,,,,,,,,,,,,,,3.33000000000000E+01,,3.68000000000000E+01,3.62000000000000E+01,3.64000000000000E+01,3.49000000000000E+01,3.34000000000000E+01,3.28000000000000E+01,3.26000000000000E+01,3.11000000000000E+01,,,
KEN,,,,,,,,,,,,,,,,,,,,,,,,,,,,,,,,,,,,,,,,,,,,,,5.45000000000000E+01,,,,,,
KGZ,,,,,,,,,,,,,,,,,,,,,,,,,,,,,,,,,,,,,4.69000000000000E+01,4.79000000000000E+01,4.90000000000000E+01,5.17000000000000E+01,5.17000000000000E+01,5.14000000000000E+01,4.94000000000000E+01,4.34000000000000E+01,3.91000000000000E+01,3.93000000000000E+01,3.69000000000000E+01,,,,,
KHM,,,,,,,,,,,,,,,,,,,,,,,,,,,,,,,,,,,,,,,7.16000000000000E+01,,7.24000000000000E+01,7.08000000000000E+01,,,,,,,,,,
KIR,,,,,,,,,,,,,,,,,,,,,,,,,,,,,,,,,,,,,,,,,3.70000000000000E+00,,,,,,,,,,,
KNA,,,,,,,,,,,,,,,,,,,,,,,,,4.00000000000000E+01,,,,,,,,,,,,,,,,,4.00000000000000E-01,,,,,,,,,,
KOR,,,,,,,,,,,,,,,,,,,,,3.10000000000000E+01,3.12000000000000E+01,2.96000000000000E+01,2.78000000000000E+01,2.52000000000000E+01,2.31000000000000E+01,2.19000000000000E+01,2.02000000000000E+01,1.91000000000000E+01,1.80000000000000E+01,1.63000000000000E+01,1.49000000000000E+01,1.40000000000000E+01,1.30000000000000E+01,1.21000000000000E+01,1.09000000000000E+01,1.03000000000000E+01,9.90000000000000E+00,1.09000000000000E+01,1.04000000000000E+01,9.50000000000000E+00,9.00000000000000E+00,8.40000000000000E+00,7.90000000000000E+00,7.30000000000000E+00,7.20000000000000E+00,7.00000000000000E+00,7.00000000000000E+00,6.60000000000000E+00,,,
KWT,,,,,,,,,,,,,,,,,,,,,,,,8.00000000000000E-01,,,,,1.70000000000000E+00,,,,,,,,,,,,,,,,,3.60000000000000E+00,,,,,,
LAC,,,,,,,,,,,,,,,,,,,,,,,,,,,,,,,,,2.07403201933264E+01,2.23476111094298E+01,,2.24029189931294E+01,2.19873410410152E+01,2.20813157513018E+01,2.11120878903477E+01,2.21718066419857E+01,2.04662633440326E+01,2.26851163983334E+01,2.25344281025462E+01,2.29804486752583E+01,2.29723097016313E+01,2.19937884406147E+01,2.17605418028135E+01,1.99791343548000E+01,1.84666030398176E+01,,,
LAO,,,,,,,,,,,,,,,,,,,,,,,,,,,,,,,,,,,,8.12000000000000E+01,,,,,,,,,,,,,,,,
LBR,,,,,,,,,,,,,,,,,,,,,,,,,,,,,,,,,,,,,,,,,,,,,,,,4.65000000000000E+01,,,,
LCA,,,,,,,,,,,,,,,,,,,,,,,,,,,,,,,,,,3.00000000000000E+01,3.36000000000000E+01,2.93000000000000E+01,3.02000000000000E+01,2.55000000000000E+01,2.80000000000000E+01,2.65000000000000E+01,2.61000000000000E+01,,1.51000000000000E+01,1.63000000000000E+01,1.88000000000000E+01,,,,,,,
LCN,,,,,,,,,,,,,,,,,,,,,,,,,,,,,,,,,2.05901477924963E+01,2.22096691954816E+01,,2.22592896440717E+01,2.18363018424227E+01,2.19319815378033E+01,2.09650558278403E+01,2.20170248728041E+01,2.03284976250461E+01,2.25221935722934E+01,2.23740696884633E+01,2.28137188540485E+01,2.28023890325135E+01,2.18381255456532E+01,2.16062685149081E+01,1.98351913218466E+01,1.83338229988067E+01,,,
LKA,,,,,,,,,,,,,,,,,,,,,,4.42000000000000E+01,,,,4.72000000000000E+01,,,,,,,,3.69000000000000E+01,4.08000000000000E+01,3.55000000000000E+01,3.28000000000000E+01,,3.77000000000000E+01,,,,3.18000000000000E+01,3.16000000000000E+01,3.09000000000000E+01,2.89000000000000E+01,2.91000000000000E+01,2.84000000000000E+01,3.00000000000000E+01,3.04000000000000E+01,,
LMC,,,,,,,,,,,,,,,,,,,,,,,,,,,,,,,,,,,,,,,,,4.98852642426446E+01,,,,,4.58326833495849E+01,,,,,,
LSO,,,,,,,,,,,,,,,,,,,,,,,,,,,,,,,,,,,,,,6.56000000000000E+01,,7.82000000000000E+01,,,,,,,,,,,,
LTU,,,,,,,,,,,,,,,,,,,,,,,,,,,,,,,,,,,,,,2.32000000000000E+01,2.24000000000000E+01,2.31000000000000E+01,2.24000000000000E+01,2.19000000000000E+01,2.14000000000000E+01,2.12000000000000E+01,1.82000000000000E+01,1.66000000000000E+01,1.46000000000000E+01,1.29000000000000E+01,1.00000000000000E+01,1.17000000000000E+01,,
LUX,,,,,,,,,,,,,,,,,,,,,,,,4.60000000000000E+00,4.30000000000000E+00,4.10000000000000E+00,3.80000000000000E+00,3.70000000000000E+00,3.70000000000000E+00,3.60000000000000E+00,3.40000000000000E+00,,6.60000000000000E+00,3.50000000000000E+00,3.40000000000000E+00,4.00000000000000E+00,3.20000000000000E+00,3.00000000000000E+00,3.70000000000000E+00,2.20000000000000E+00,3.10000000000000E+00,1.90000000000000E+00,2.60000000000000E+00,3.20000000000000E+00,2.30000000000000E+00,2.20000000000000E+00,2.30000000000000E+00,2.40000000000000E+00,2.00000000000000E+00,1.70000000000000E+00,,
LVA,,,,,,,,,,,,,,,,,,,,,,,,,,,,,,,,,,,,,1.98000000000000E+01,2.32000000000000E+01,2.07000000000000E+01,1.78000000000000E+01,1.62000000000000E+01,1.80000000000000E+01,1.83000000000000E+01,1.67000000000000E+01,1.60000000000000E+01,1.53000000000000E+01,1.36000000000000E+01,1.18000000000000E+01,9.90000000000000E+00,1.15000000000000E+01,,
MAC,,,,,,,,,,,,,,,,,,,,,,,,,,,,,,9.00000000000000E-01,2.00000000000000E-01,1.00000000000000E-01,3.00000000000000E-01,3.00000000000000E-01,0.00000000000000E+00,3.00000000000000E-01,3.00000000000000E-01,2.00000000000000E-01,2.00000000000000E-01,1.00000000000000E-01,2.00000000000000E-01,1.00000000000000E-01,2.00000000000000E-01,4.00000000000000E-01,3.00000000000000E-01,2.00000000000000E-01,2.00000000000000E-01,1.00000000000000E-01,2.00000000000000E-01,,,
MAR,,,,,,,,,,,,,,,,,,,,,,,,,,,,,,,4.10000000000000E+00,4.20000000000000E+00,3.80000000000000E+00,3.50000000000000E+00,4.14000000000000E+01,5.70000000000000E+00,6.80000000000000E+00,5.40000000000000E+00,5.00000000000000E+00,5.60000000000000E+00,5.00000000000000E+00,5.00000000000000E+00,4.01000000000000E+01,3.92000000000000E+01,4.04000000000000E+01,3.96000000000000E+01,3.67000000000000E+01,3.55000000000000E+01,3.42000000000000E+01,,,
MDA,,,,,,,,,,,,,,,,,,,,,,,,,,,,,,,,,,,,,,,,,5.20000000000000E+01,5.18000000000000E+01,5.07000000000000E+01,4.43000000000000E+01,4.10000000000000E+01,4.11000000000000E+01,3.53000000000000E+01,3.55000000000000E+01,3.37000000000000E+01,,,
MDG,,,,,,,,,,,,,,,,,,,,,,,,,,,,,,,,,,,,,,,,,,,,7.67000000000000E+01,,7.98000000000000E+01,,,,,,
MDV,,,,,,,,,,,,,,,,,,,,,,,,,,,,,,,2.81000000000000E+01,,,,,2.70000000000000E+01,,,,,1.79000000000000E+01,,,2.18000000000000E+01,,,1.40000000000000E+01,,,,,
MEA,,,,,,,,,,,,,,,,,,,,,,,,,,,,,,,,,,,,,,,,,,,,,,,2.25951084460337E+01,2.09654974046064E+01,2.05412546534806E+01,,,
MEX,,,,,,,,,,,,,,,,,,,,,,,,,,,,,,,2.86000000000000E+01,3.38000000000000E+01,,3.39000000000000E+01,,3.03000000000000E+01,2.81000000000000E+01,2.96000000000000E+01,2.54000000000000E+01,2.64000000000000E+01,2.32000000000000E+01,2.36000000000000E+01,2.34000000000000E+01,2.21000000000000E+01,2.16000000000000E+01,2.06000000000000E+01,1.99000000000000E+01,1.89000000000000E+01,1.86000000000000E+01,,,
MHL,,,,,,,,,,,,,,,,,,,,,,,,,,,,,,,,,,,,,,,,2.71000000000000E+01,,,,,,,,,,,,
MKD,,,,,,,,,,,,,,,,,,,,,,,,,,,,,,,,,,,,,,,,,,,2.34000000000000E+01,2.19000000000000E+01,1.80000000000000E+01,1.98000000000000E+01,2.00000000000000E+01,1.89000000000000E+01,1.96000000000000E+01,,,
MLI,,,,,,,,,,,,,,,,,,,,,,,,,,,,,,,,,,,,,,,,,,,,,4.98000000000000E+01,,6.78000000000000E+01,,,,,
MLT,,,,,,,,,,,,,,,,,,,,,,,,,,,,,,,,,,,,,,,,,2.10000000000000E+00,2.70000000000000E+00,2.80000000000000E+00,2.80000000000000E+00,2.40000000000000E+00,2.20000000000000E+00,2.30000000000000E+00,2.20000000000000E+00,2.30000000000000E+00,1.90000000000000E+00,,
MNA,,,,,,,,,,,,,,,,,,,,,,,,,,,,,,,,,,,,,,,,,,,,,,,2.62179497705717E+01,2.39937324298961E+01,2.45817432134651E+01,,,
MNE,,,,,,,,,,,,,,,,,,,,,,,,,,,,,,,,,,,,,,,,,,,,1.02000000000000E+01,,8.50000000000000E+00,,2.00000000000000E+00,2.00000000000000E+00,2.00000000000000E+00,,
MNG,,,,,,,,,,,,,,,,,,,,,,,,,,,,,,,,,,4.19000000000000E+01,4.58000000000000E+01,4.71000000000000E+01,4.79000000000000E+01,4.97000000000000E+01,5.07000000000000E+01,5.06000000000000E+01,5.06000000000000E+01,5.01000000000000E+01,4.74000000000000E+01,4.38000000000000E+01,4.29000000000000E+01,4.30000000000000E+01,4.21000000000000E+01,4.06000000000000E+01,3.91000000000000E+01,,,
MNP,,,,,,,,,,,,,,,,,,,,,,,,,,,,,,,4.10000000000000E+00,,,,,2.20000000000000E+00,,,,,,,,,,,,,,,,
MOZ,,,,,,,,,,,,,,,,,,,,,,,,,,,,,,,,,,,,,,,,,,,,6.92000000000000E+01,,,,,,,,
MUS,,,,,,,,,,,,,,,,,,,,,,,,,,,,,,,1.77000000000000E+01,,1.50000000000000E+01,,1.45000000000000E+01,1.42000000000000E+01,1.38000000000000E+01,1.35000000000000E+01,1.29000000000000E+01,1.24000000000000E+01,1.29000000000000E+01,1.25000000000000E+01,1.11000000000000E+01,1.09000000000000E+01,1.09000000000000E+01,1.05000000000000E+01,1.04000000000000E+01,9.90000000000000E+00,9.60000000000000E+00,,,
MYS,,,,,,,,,,,,,,,,,,,,,3.39000000000000E+01,3.29000000000000E+01,2.81000000000000E+01,2.84000000000000E+01,2.82000000000000E+01,2.86000000000000E+01,2.97000000000000E+01,3.09000000000000E+01,3.07000000000000E+01,2.89000000000000E+01,2.64000000000000E+01,2.68000000000000E+01,2.27000000000000E+01,2.22000000000000E+01,,2.16000000000000E+01,2.06000000000000E+01,1.89000000000000E+01,2.07000000000000E+01,2.09000000000000E+01,2.07000000000000E+01,1.68000000000000E+01,1.68000000000000E+01,1.61000000000000E+01,1.68000000000000E+01,1.71000000000000E+01,1.72000000000000E+01,1.75000000000000E+01,1.67000000000000E+01,,,
NAC,,,,,,,,,,,,,,,,,,,,,,,,,,,,,,,,4.34951295632779E+00,4.32669810691032E+00,4.15410980205803E+00,4.13495772619566E+00,4.14364785937851E+00,4.04286368486109E+00,3.93336659955454E+00,3.92404154318501E+00,3.71541168358059E+00,3.59659956897240E+00,3.35840863787001E+00,3.52977574476597E+00,2.46199464962390E+00,2.44153424527664E+00,2.35087409253278E+00,2.25059927290226E+00,2.14190339168184E+00,2.22403994827115E+00,,,
NAM,,,,,,,,,,,,,,,,,,,,,,,,,,,,,,,,4.52000000000000E+01,,,,,,3.76000000000000E+01,,,3.28000000000000E+01,,,,3.37000000000000E+01,,,,2.27000000000000E+01,,,
NCL,,,,,,,,,,,,,,,,,,,,,,,,,,,,,,,,,,,,,9.20000000000000E+00,,,,,,,,,,,,,,,
NER,,,,,,,,,,,,,,,,,,,,,,,,,,,,,,,,,,,,,,,,,,,,,,6.41000000000000E+01,,,,,,
NGA,,,,,,,,,,,,,,,,,,,,,,,,3.90000000000000E+01,,,5.12000000000000E+01,,,,,,,,,,,,,,,,,,4.91000000000000E+01,,,,,,,
NIC,,,,,,,,,,,,,,,,,,,,,,,,,,,,,,,,,,,,,,,,,,,,4.31000000000000E+01,4.20000000000000E+01,4.13000000000000E+01,4.17000000000000E+01,4.19000000000000E+01,,,,
NLD,,,,,,,,,,,,,,,,,,,,,6.00000000000000E+00,6.50000000000000E+00,6.00000000000000E+00,6.50000000000000E+00,5.90000000000000E+00,6.30000000000000E+00,5.70000000000000E+00,5.60000000000000E+00,5.50000000000000E+00,5.40000000000000E+00,5.20000000000000E+00,5.30000000000000E+00,4.60000000000000E+00,4.80000000000000E+00,4.80000000000000E+00,4.70000000000000E+00,4.50000000000000E+00,4.40000000000000E+00,4.00000000000000E+00,3.70000000000000E+00,3.70000000000000E+00,3.50000000000000E+00,3.30000000000000E+00,3.60000000000000E+00,4.00000000000000E+00,4.00000000000000E+00,4.00000000000000E+00,3.70000000000000E+00,3.40000000000000E+00,3.30000000000000E+00,,
NOR,,,,,,,,,,,,,,,,,,,,,9.90000000000000E+00,9.80000000000000E+00,9.60000000000000E+00,9.50000000000000E+00,9.50000000000000E+00,9.20000000000000E+00,9.00000000000000E+00,8.50000000000000E+00,8.10000000000000E+00,8.50000000000000E+00,8.30000000000000E+00,7.90000000000000E+00,7.40000000000000E+00,7.60000000000000E+00,7.30000000000000E+00,7.30000000000000E+00,7.30000000000000E+00,7.10000000000000E+00,6.60000000000000E+00,6.50000000000000E+00,6.00000000000000E+00,5.80000000000000E+00,5.70000000000000E+00,5.30000000000000E+00,5.20000000000000E+00,4.80000000000000E+00,4.80000000000000E+00,4.30000000000000E+00,3.80000000000000E+00,4.10000000000000E+00,,
NPL,,,,,,,,,,,,,,,,,,,,,,,,,,,,,,,,7.49000000000000E+01,,,,,,,,6.71000000000000E+01,,6.02000000000000E+01,,,,,,,,,,
NZL,,,,,,,,,,,,,,,,,,,,,,,,,,,1.28000000000000E+01,1.24000000000000E+01,1.25000000000000E+01,1.24000000000000E+01,1.28000000000000E+01,1.32000000000000E+01,1.34000000000000E+01,1.30000000000000E+01,1.27000000000000E+01,1.22000000000000E+01,1.19000000000000E+01,1.12000000000000E+01,1.08000000000000E+01,1.18000000000000E+01,1.12000000000000E+01,1.17000000000000E+01,1.14000000000000E+01,1.04000000000000E+01,9.50000000000000E+00,8.90000000000000E+00,8.70000000000000E+00,9.10000000000000E+00,8.80000000000000E+00,8.60000000000000E+00,,
OEC,,,,,,,,,,,,,,,,,,,,,,,,,,,,,,,,6.41282812253427E+00,6.03388506266861E+00,5.77896041203835E+00,6.37240881794773E+00,6.13403444477108E+00,5.96982154831876E+00,5.79324580827598E+00,5.68493518862777E+00,5.44967122923761E+00,5.27343544166650E+00,5.09802099815548E+00,5.06044444374059E+00,4.61872306421652E+00,4.43974538604506E+00,4.34537305214404E+00,4.19990009215019E+00,4.08076077023266E+00,3.89391576657937E+00,,,
OED,,,,,,,,,,,,,,,,,,,,,,,,,,,,,,,,1.02430156311045E+01,7.75578210324622E+00,9.72797574454923E+00,7.94884390493240E+00,9.52498152629703E+00,9.24893052769493E+00,9.25734867699030E+00,8.82430142116972E+00,8.74652726377134E+00,8.11196413157447E+00,8.02050336579787E+00,7.82602553832440E+00,7.32939190357243E+00,7.22954465200409E+00,6.86196440844541E+00,6.58655773281972E+00,6.23883535049075E+00,6.08655264863297E+00,,,
OMN,,,,,,,,,,,,,,,,,,,,,,,,,,,,,,,,,,9.60000000000000E+00,,,7.50000000000000E+00,,,,6.60000000000000E+00,,,,,,,,,,,
PAK,,,,,,,,,,,,,,,,,,,,,,,,,,4.79000000000000E+01,5.12000000000000E+01,4.52000000000000E+01,4.84000000000000E+01,4.84000000000000E+01,4.84000000000000E+01,4.48000000000000E+01,4.48000000000000E+01,4.40000000000000E+01,4.62000000000000E+01,4.39000000000000E+01,4.39000000000000E+01,4.07000000000000E+01,4.37000000000000E+01,4.36000000000000E+01,4.44000000000000E+01,4.44000000000000E+01,3.82000000000000E+01,3.82000000000000E+01,3.81000000000000E+01,3.81000000000000E+01,3.72000000000000E+01,3.64000000000000E+01,3.69000000000000E+01,,,
PAN,,,,,,,,,,,,,,,,,,,,,,,3.72000000000000E+01,3.77000000000000E+01,3.87000000000000E+01,3.98000000000000E+01,3.92000000000000E+01,3.64000000000000E+01,4.11000000000000E+01,4.09000000000000E+01,,3.75000000000000E+01,3.47000000000000E+01,3.22000000000000E+01,2.82000000000000E+01,2.91000000000000E+01,2.85000000000000E+01,2.69000000000000E+01,2.57000000000000E+01,2.53000000000000E+01,2.47000000000000E+01,2.55000000000000E+01,2.49000000000000E+01,2.49000000000000E+01,2.31000000000000E+01,2.22000000000000E+01,2.23000000000000E+01,2.13000000000000E+01,1.99000000000000E+01,,,
PER,,,,,,,,,,,,,,,,,,,,,,,,,,,,9.00000000000000E-01,,,1.70000000000000E+00,1.20000000000000E+00,1.10000000000000E+00,9.00000000000000E-01,5.00000000000000E-01,1.60000000000000E+00,7.60000000000000E+00,9.80000000000000E+00,7.00000000000000E+00,7.90000000000000E+00,8.90000000000000E+00,1.09000000000000E+01,1.27000000000000E+01,1.43000000000000E+01,1.48000000000000E+01,1.47000000000000E+01,1.45000000000000E+01,1.23000000000000E+01,1.03000000000000E+01,,,
PHL,,,,,,,,,,,,,,,,,,,,,5.98000000000000E+01,5.92000000000000E+01,5.97000000000000E+01,5.93000000000000E+01,5.83000000000000E+01,5.83000000000000E+01,5.84000000000000E+01,5.64000000000000E+01,5.43000000000000E+01,5.32000000000000E+01,5.31000000000000E+01,5.39000000000000E+01,5.34000000000000E+01,5.34000000000000E+01,5.28000000000000E+01,5.17000000000000E+01,4.84000000000000E+01,4.76000000000000E+01,4.61000000000000E+01,4.60000000000000E+01,4.50000000000000E+01,4.51000000000000E+01,4.48000000000000E+01,4.43000000000000E+01,4.37000000000000E+01,4.36000000000000E+01,4.35000000000000E+01,4.27000000000000E+01,4.29000000000000E+01,4.23000000000000E+01,,
POL,,,,,,,,,,,,,,,,,,,,,,,,,,,,,,,,,,,2.40000000000000E+01,2.27000000000000E+01,2.22000000000000E+01,2.07000000000000E+01,1.94000000000000E+01,1.85000000000000E+01,1.91000000000000E+01,1.92000000000000E+01,1.98000000000000E+01,1.91000000000000E+01,1.86000000000000E+01,1.80000000000000E+01,1.64000000000000E+01,1.52000000000000E+01,1.41000000000000E+01,1.34000000000000E+01,,
PRI,,,,,,,,,,,,,,,,,,,,,8.00000000000000E+00,7.60000000000000E+00,7.60000000000000E+00,8.30000000000000E+00,7.80000000000000E+00,8.00000000000000E+00,7.20000000000000E+00,5.60000000000000E+00,6.00000000000000E+00,6.00000000000000E+00,5.50000000000000E+00,5.70000000000000E+00,5.40000000000000E+00,5.40000000000000E+00,5.60000000000000E+00,4.70000000000000E+00,4.30000000000000E+00,4.50000000000000E+00,4.00000000000000E+00,3.50000000000000E+00,3.10000000000000E+00,3.40000000000000E+00,3.30000000000000E+00,3.40000000000000E+00,3.50000000000000E+00,3.30000000000000E+00,2.30000000000000E+00,1.90000000000000E+00,2.30000000000000E+00,,,
PRT,,,,,,,,,,,,,,,,,,,,,2.23000000000000E+01,2.06000000000000E+01,2.06000000000000E+01,2.00000000000000E+01,2.05000000000000E+01,2.07000000000000E+01,1.88000000000000E+01,1.87000000000000E+01,1.77000000000000E+01,1.64000000000000E+01,1.56000000000000E+01,1.51000000000000E+01,1.04000000000000E+01,1.04000000000000E+01,1.08000000000000E+01,1.06000000000000E+01,1.12000000000000E+01,1.17000000000000E+01,1.25000000000000E+01,1.13000000000000E+01,1.12000000000000E+01,1.18000000000000E+01,1.14000000000000E+01,1.19000000000000E+01,1.16000000000000E+01,1.09000000000000E+01,1.11000000000000E+01,1.11000000000000E+01,1.06000000000000E+01,1.09000000000000E+01,,
PRY,,,,,,,,,,,,,,,,,,,,,,,1.50000000000000E+00,6.20000000000000E+00,5.00000000000000E+00,4.40000000000000E+00,4.70000000000000E+00,4.50000000000000E+00,4.00000000000000E+00,3.00000000000000E+00,3.00000000000000E+00,1.70000000000000E+00,3.00000000000000E+00,2.40000000000000E+00,6.00000000000000E+00,4.25000000000000E+01,,3.58000000000000E+01,3.67000000000000E+01,3.83000000000000E+01,3.90000000000000E+01,3.90000000000000E+01,4.26000000000000E+01,3.98000000000000E+01,3.90000000000000E+01,3.88000000000000E+01,3.71000000000000E+01,3.33000000000000E+01,3.11000000000000E+01,,,
PYF,,,,,,,,,,,,,,,,,,,,,,,,,,,,,,,,,,,,,,,,,,,1.20000000000000E+01,,,,,,,,,
QAT,,,,,,,,,,,,,,,,,,,,,,,,,,,,,,,,,,,,,,4.30000000000000E+00,,,,2.70000000000000E+00,,,3.20000000000000E+00,,3.50000000000000E+00,2.70000000000000E+00,,,,
ROM,,,,,,,,,,,,,,,,,,,,,2.24000000000000E+01,2.21000000000000E+01,2.19000000000000E+01,2.23000000000000E+01,2.24000000000000E+01,2.26000000000000E+01,2.25000000000000E+01,2.23000000000000E+01,2.25000000000000E+01,2.24000000000000E+01,2.46000000000000E+01,2.63000000000000E+01,2.88000000000000E+01,3.22000000000000E+01,3.48000000000000E+01,3.53000000000000E+01,3.43000000000000E+01,3.53000000000000E+01,3.69000000000000E+01,3.89000000000000E+01,4.04000000000000E+01,3.99000000000000E+01,3.46000000000000E+01,3.44000000000000E+01,3.10000000000000E+01,3.14000000000000E+01,2.97000000000000E+01,2.82000000000000E+01,2.73000000000000E+01,2.78000000000000E+01,,
RUS,,,,,,,,,,,,,,,,,,,,,,,,,,,,,,,,,,,,,,1.60000000000000E+01,1.55000000000000E+01,1.75000000000000E+01,1.71000000000000E+01,1.46000000000000E+01,1.36000000000000E+01,1.34000000000000E+01,1.24000000000000E+01,1.23000000000000E+01,1.21000000000000E+01,1.10000000000000E+01,1.05000000000000E+01,,,
RWA,,,,,,,,,,,,,,,,,,,,,,,,,,,,,,8.34000000000000E+01,,,,,,,,,,,,,,,,,,,,,,
SAS,,,,,,,,,,,,,,,,,,,,,,,,,,,,,,,,,,,,,,,,,5.28647492685798E+01,,,,,4.70110073841142E+01,,,,,,
SAU,,,,,,,,,,,,,,,,,,,,,,,,,,,,,,,,,,,,,,,,7.10000000000000E+00,6.70000000000000E+00,6.80000000000000E+00,5.30000000000000E+00,,,,4.60000000000000E+00,5.40000000000000E+00,5.60000000000000E+00,4.70000000000000E+00,,
SEN,,,,,,,,,,,,,,,,,,,,,,,,,,,,,,,,,,,,,,,,,,4.69000000000000E+01,,,,,3.41000000000000E+01,,,,,
SGP,,,,,,,,,,,,,,,,,,,,,1.50000000000000E+00,1.30000000000000E+00,1.10000000000000E+00,1.20000000000000E+00,9.00000000000000E-01,8.00000000000000E-01,1.00000000000000E+00,1.10000000000000E+00,6.00000000000000E-01,6.00000000000000E-01,6.00000000000000E-01,4.00000000000000E-01,5.00000000000000E-01,4.00000000000000E-01,4.00000000000000E-01,3.00000000000000E-01,3.00000000000000E-01,1.40000000000000E+00,1.10000000000000E+00,1.20000000000000E+00,,1.20000000000000E+00,1.10000000000000E+00,1.10000000000000E+00,1.10000000000000E+00,,1.60000000000000E+00,1.60000000000000E+00,1.60000000000000E+00,1.50000000000000E+00,,
SLE,,,,,,,,,,,,,,,,,,,,,,,,,,,,,,,,,,,,,,,,,,,,6.26000000000000E+01,6.60000000000000E+01,,,,,,,
SLV,,,,,,,,,,,,,,,,,,,,,5.10000000000000E+01,,,,,4.57000000000000E+01,2.20000000000000E+00,,1.18000000000000E+01,1.54000000000000E+01,1.13000000000000E+01,1.49000000000000E+01,4.78000000000000E+01,,4.03000000000000E+01,3.87000000000000E+01,4.03000000000000E+01,3.81000000000000E+01,3.73000000000000E+01,3.41000000000000E+01,3.39000000000000E+01,3.38000000000000E+01,3.19000000000000E+01,2.85000000000000E+01,3.00000000000000E+01,3.09000000000000E+01,2.93000000000000E+01,2.83000000000000E+01,,,,
SMR,,,,,,,,,,,,,,,,,,,,,5.40000000000000E+00,5.40000000000000E+00,5.30000000000000E+00,5.20000000000000E+00,5.00000000000000E+00,3.30000000000000E+00,3.10000000000000E+00,3.00000000000000E+00,2.80000000000000E+00,2.60000000000000E+00,2.40000000000000E+00,2.20000000000000E+00,2.10000000000000E+00,1.90000000000000E+00,,1.50000000000000E+00,1.50000000000000E+00,1.40000000000000E+00,1.30000000000000E+00,1.30000000000000E+00,,5.00000000000000E-01,5.00000000000000E-01,4.00000000000000E-01,5.00000000000000E-01,6.00000000000000E-01,5.00000000000000E-01,5.00000000000000E-01,4.00000000000000E-01,,,
SRB,,,,,,,,,,,,,,,,,,,,,,,,,,,,,,,,,,,,,,,,,,,,,2.39000000000000E+01,2.33000000000000E+01,2.15000000000000E+01,2.17000000000000E+01,2.45000000000000E+01,2.49000000000000E+01,,
STP,,,,,,,,,,,,,,,,,,,,,4.24000000000000E+01,5.37000000000000E+01,4.62000000000000E+01,5.68000000000000E+01,4.58000000000000E+01,,,,,,,4.23000000000000E+01,,,,,,,,,3.06000000000000E+01,,,,,,,,,,,
SUR,,,,,,,,,,,,,,,,,,,,,,,,,,,,,,,4.60000000000000E+00,,4.80000000000000E+00,5.70000000000000E+00,8.10000000000000E+00,8.80000000000000E+00,7.90000000000000E+00,6.30000000000000E+00,6.70000000000000E+00,8.40000000000000E+00,,,,,9.90000000000000E+00,,,,,,,
SVK,,,,,,,,,,,,,,,,,,,,,,,,,,,,,,,,,,,1.26000000000000E+01,1.14000000000000E+01,1.09000000000000E+01,1.14000000000000E+01,1.04000000000000E+01,9.60000000000000E+00,8.90000000000000E+00,8.20000000000000E+00,8.00000000000000E+00,7.70000000000000E+00,6.90000000000000E+00,6.40000000000000E+00,5.90000000000000E+00,5.80000000000000E+00,5.50000000000000E+00,4.80000000000000E+00,,
SVN,,,,,,,,,,,,,,,,,,,,,,,,,,,,,,,,,,1.11000000000000E+01,1.19000000000000E+01,1.04000000000000E+01,1.07000000000000E+01,1.18000000000000E+01,1.17000000000000E+01,1.06000000000000E+01,9.40000000000000E+00,1.01000000000000E+01,9.60000000000000E+00,8.40000000000000E+00,9.60000000000000E+00,8.60000000000000E+00,9.80000000000000E+00,1.00000000000000E+01,9.10000000000000E+00,9.20000000000000E+00,,
SWE,,,,,,,,,,,,,,,,,,,,,7.60000000000000E+00,7.70000000000000E+00,7.70000000000000E+00,7.60000000000000E+00,7.10000000000000E+00,6.80000000000000E+00,5.20000000000000E+00,5.50000000000000E+00,5.50000000000000E+00,5.20000000000000E+00,4.90000000000000E+00,4.70000000000000E+00,4.70000000000000E+00,4.90000000000000E+00,5.00000000000000E+00,4.50000000000000E+00,4.30000000000000E+00,4.00000000000000E+00,3.70000000000000E+00,3.70000000000000E+00,3.50000000000000E+00,3.30000000000000E+00,3.20000000000000E+00,3.20000000000000E+00,3.20000000000000E+00,3.00000000000000E+00,3.00000000000000E+00,3.40000000000000E+00,3.30000000000000E+00,3.30000000000000E+00,,
SYR,,,,,,,,,,,,,,,,,,,,,,,,2.72000000000000E+01,2.21000000000000E+01,,,,,2.27000000000000E+01,,2.31000000000000E+01,,2.60000000000000E+01,2.26000000000000E+01,2.07000000000000E+01,,1.70000000000000E+01,,2.34000000000000E+01,2.62000000000000E+01,2.55000000000000E+01,2.47000000000000E+01,2.26000000000000E+01,,,,1.81000000000000E+01,,,,
TCD,,,,,,,,,,,,,,,,,,,,,,,,,,,,,,,,,,8.03000000000000E+01,,,,,,,,,,,,,,,,,,
TGO,,,,,,,,,,,,,,,,,,,,,,,,,,,,,,,,,,,,,,,,,,,,,,,6.05000000000000E+01,,,,,
THA,,,,,,,,,,,,,,,,,,,,,6.78000000000000E+01,6.17000000000000E+01,5.97000000000000E+01,6.21000000000000E+01,6.29000000000000E+01,6.72000000000000E+01,6.55000000000000E+01,6.40000000000000E+01,6.55000000000000E+01,6.58000000000000E+01,6.31000000000000E+01,5.99000000000000E+01,5.98000000000000E+01,5.61000000000000E+01,5.51000000000000E+01,5.08000000000000E+01,4.88000000000000E+01,4.94000000000000E+01,5.23000000000000E+01,4.98000000000000E+01,4.98000000000000E+01,4.80000000000000E+01,4.78000000000000E+01,4.68000000000000E+01,4.39000000000000E+01,4.42000000000000E+01,4.31000000000000E+01,4.33000000000000E+01,4.43000000000000E+01,4.37000000000000E+01,,
TJK,,,,,,,,,,,,,,,,,,,,,,,,,,,,,,,,,,,,,,,,,,,,,4.18000000000000E+01,,,,,,,
TON,,,,,,,,,,,,,,,,,,,,,,,,,5.78000000000000E+01,,,,,,,,,,,,,,,,,,,5.06000000000000E+01,,,,,,,,
TTO,,,,,,,,,,,,,,,,,,,,,1.09000000000000E+01,9.90000000000000E+00,9.80000000000000E+00,9.60000000000000E+00,1.02000000000000E+01,1.24000000000000E+01,1.28000000000000E+01,1.37000000000000E+01,1.51000000000000E+01,1.68000000000000E+01,1.52000000000000E+01,1.44000000000000E+01,1.48000000000000E+01,1.44000000000000E+01,1.58000000000000E+01,1.38000000000000E+01,1.25000000000000E+01,1.26000000000000E+01,1.08000000000000E+01,1.12000000000000E+01,9.80000000000000E+00,1.06000000000000E+01,9.80000000000000E+00,8.30000000000000E+00,6.30000000000000E+00,6.10000000000000E+00,6.10000000000000E+00,5.10000000000000E+00,5.20000000000000E+00,,,
TUN,,,,,,,,,,,,,,,,,,,,,3.45000000000000E+01,,,,,,,,,2.65000000000000E+01,,,,,,,,,,,,,,,,,,,,,,
TUR,,,,,,,,,,,,,,,,,,,,,,,3.70000000000000E+00,4.50000000000000E+00,3.80000000000000E+00,3.03000000000000E+01,,,3.39000000000000E+01,3.45000000000000E+01,3.36000000000000E+01,3.50000000000000E+01,3.33000000000000E+01,3.31000000000000E+01,3.25000000000000E+01,3.23000000000000E+01,3.15000000000000E+01,3.10000000000000E+01,3.05000000000000E+01,3.09000000000000E+01,2.70000000000000E+01,2.77000000000000E+01,2.48000000000000E+01,2.44000000000000E+01,2.56000000000000E+01,2.17000000000000E+01,1.98000000000000E+01,1.68000000000000E+01,1.71000000000000E+01,1.72000000000000E+01,,
TZA,,,,,,,,,,,,,,,,,,,,,,,,,,,,,,,,,,,,,,,,,,8.02000000000000E+01,,,,,7.12000000000000E+01,,,,,
UGA,,,,,,,,,,,,,,,,,,,,,,,,,,,,,,,,,,,,,,,,,,,,6.17000000000000E+01,,6.86000000000000E+01,,,,,,
URY,,,,,,,,,,,,,,,,,,,,,,,,,0.00000000000000E+00,,0.00000000000000E+00,0.00000000000000E+00,0.00000000000000E+00,0.00000000000000E+00,0.00000000000000E+00,0.00000000000000E+00,7.00000000000000E+00,6.00000000000000E+00,6.20000000000000E+00,7.10000000000000E+00,,,5.70000000000000E+00,5.80000000000000E+00,6.20000000000000E+00,6.10000000000000E+00,6.40000000000000E+00,6.70000000000000E+00,7.40000000000000E+00,7.10000000000000E+00,1.54000000000000E+01,1.56000000000000E+01,,,,
USA,,,,,,,,,,,,,,,,,,,,,5.00000000000000E+00,4.90000000000000E+00,5.10000000000000E+00,5.00000000000000E+00,4.70000000000000E+00,4.50000000000000E+00,4.40000000000000E+00,4.30000000000000E+00,4.10000000000000E+00,4.10000000000000E+00,4.10000000000000E+00,4.20000000000000E+00,4.20000000000000E+00,4.00000000000000E+00,4.00000000000000E+00,4.00000000000000E+00,3.90000000000000E+00,3.80000000000000E+00,3.80000000000000E+00,3.60000000000000E+00,3.50000000000000E+00,3.30000000000000E+00,3.50000000000000E+00,2.30000000000000E+00,2.30000000000000E+00,2.20000000000000E+00,2.10000000000000E+00,2.00000000000000E+00,2.10000000000000E+00,,,
VCT,,,,,,,,,,,,,,,,,,,,,,,,,,,,,,,,3.06000000000000E+01,,,,,,,,,,2.02000000000000E+01,,,,,,,,,,
VEN,,,,,,,,,,,,,,,,,,,,,1.99000000000000E+01,1.93000000000000E+01,1.90000000000000E+01,1.97000000000000E+01,2.14000000000000E+01,2.15000000000000E+01,2.05000000000000E+01,1.92000000000000E+01,1.84000000000000E+01,1.85000000000000E+01,1.85000000000000E+01,1.76000000000000E+01,1.65000000000000E+01,1.56000000000000E+01,1.92000000000000E+01,1.91000000000000E+01,1.93000000000000E+01,1.56000000000000E+01,1.47000000000000E+01,1.49000000000000E+01,1.57000000000000E+01,1.45000000000000E+01,1.50000000000000E+01,1.60000000000000E+01,1.55000000000000E+01,1.44000000000000E+01,1.36000000000000E+01,1.31000000000000E+01,1.27000000000000E+01,,,
VNM,,,,,,,,,,,,,,,,,,,,,,,,,,,,,,,,,,,,,6.95000000000000E+01,6.45000000000000E+01,6.39000000000000E+01,6.45000000000000E+01,6.42000000000000E+01,6.30000000000000E+01,6.10000000000000E+01,5.77000000000000E+01,5.59000000000000E+01,,4.96000000000000E+01,,,,,
WBG,,,,,,,,,,,,,,,,,,,,,,,,,,,,,,,,,,,,,1.18000000000000E+01,1.03000000000000E+01,9.50000000000000E+00,9.30000000000000E+00,9.80000000000000E+00,9.10000000000000E+00,1.19000000000000E+01,1.19000000000000E+01,1.20000000000000E+01,1.10000000000000E+01,1.20000000000000E+01,1.08000000000000E+01,1.01000000000000E+01,,,
WSM,,,,,,,,,,,,,,,,,,,,,,,,,,,,,,,,,,,,,,,,,,5.03000000000000E+01,,,,,,,,,,
YEM,,,,,,,,,,,,,,,,,,,,,,,,,,,,,,,,4.35000000000000E+01,,,4.50000000000000E+01,,,,4.66000000000000E+01,4.31000000000000E+01,,,,,,,,,,,,
ZAF,,,,,,,,,,,,,,,,,,,,,,,,,,,,,,,,,,,,,,,,,1.53000000000000E+01,1.29000000000000E+01,1.42000000000000E+01,1.28000000000000E+01,1.04000000000000E+01,8.60000000000000E+00,9.00000000000000E+00,1.06000000000000E+01,6.80000000000000E+00,6.30000000000000E+00,,
ZMB,,,,,,,,,,,,,,,,,,,,,,,,,,,,,,,4.66000000000000E+01,,,,,,,,6.35000000000000E+01,,6.52000000000000E+01,,,,,,,,,,,
ZWE,,,,,,,,,,,,,,,,,,,,,,,,,,,,,,,,,,,,,,,,5.09000000000000E+01,,,,,,,,,,,,
