"Country Code",1960,1961,1962,1963,1964,1965,1966,1967,1968,1969,1970,1971,1972,1973,1974,1975,1976,1977,1978,1979,1980,1981,1982,1983,1984,1985,1986,1987,1988,1989,1990,1991,1992,1993,1994,1995,1996,1997,1998,1999,2000,2001,2002,2003,2004,2005,2006,2007,2008,2009,2010,2011ABW,,,,,,,,,,,,,,,,,,,,,,,,,,,,,,,,1.00000000000000E+01,,,,,,,,,1.32000000000000E+01,,,,,,,1.16000000000000E+01,,,,
ARE,,,,,,,,,,,,,,,,,,,,,,,,,,,,,,,,,,,,,,,,,,,,,,3.30000000000000E+00,,,4.90000000000000E+00,,,
ARG,,,,,,,,,,,,,,,,,,,,,,,,,,,,,,,3.16000000000000E+01,3.04000000000000E+01,3.12000000000000E+01,3.27000000000000E+01,3.09000000000000E+01,3.20000000000000E+01,3.14000000000000E+01,3.03000000000000E+01,3.00000000000000E+01,2.99000000000000E+01,3.03000000000000E+01,3.12000000000000E+01,3.30000000000000E+01,3.00000000000000E+01,2.92000000000000E+01,2.88000000000000E+01,2.75000000000000E+01,2.68000000000000E+01,2.68000000000000E+01,2.70000000000000E+01,,
ARM,,,,,,,,,,,,,,,,,,,,,,,,,,,,,,,,,,,,,,,,,,,,,,,,,3.77000000000000E+01,,,
ASM,,,,,,,,,,,,,,,,,,,,,,,,,,,,,,,3.00000000000000E+00,,,,,,,,,,,,,,,,,,,,,
ATG,,,,,,,,,,,,,,,,,,,,,,,,,,,,,,,,2.07000000000000E+01,,,,,,,,,,1.39000000000000E+01,,,,,,,,,,
AUS,,,,,,,,,,,,,,,,,,,,,,,,,,,,1.77000000000000E+01,1.77000000000000E+01,1.72000000000000E+01,1.72000000000000E+01,1.79000000000000E+01,1.85000000000000E+01,1.90000000000000E+01,1.83000000000000E+01,1.79000000000000E+01,1.76000000000000E+01,1.74000000000000E+01,1.71000000000000E+01,1.71000000000000E+01,1.67000000000000E+01,1.66000000000000E+01,1.66000000000000E+01,1.62000000000000E+01,1.59000000000000E+01,1.55000000000000E+01,1.51000000000000E+01,1.45000000000000E+01,1.41000000000000E+01,1.41000000000000E+01,,
AUT,,,,,,,,,,,,,,,,,,,,,,,,,,,,,,,,,,,1.19000000000000E+01,1.44000000000000E+01,1.46000000000000E+01,1.43000000000000E+01,1.43000000000000E+01,1.41000000000000E+01,1.43000000000000E+01,1.43000000000000E+01,1.46000000000000E+01,1.43000000000000E+01,1.48000000000000E+01,1.52000000000000E+01,1.53000000000000E+01,1.61000000000000E+01,1.57000000000000E+01,1.55000000000000E+01,,
AZE,,,,,,,,,,,,,,,,,,,,,,,,,,,,,,,,,,,,,,,,,,,,6.57000000000000E+01,6.68000000000000E+01,6.62000000000000E+01,5.26000000000000E+01,4.93000000000000E+01,5.23000000000000E+01,,,
BDI,,,,,,,,,,,,,,,,,,,,,,,,,,,,,,,,,,,,,,,8.99000000000000E+01,,,,,,,,,,,,,
BEL,,,,,,,,,,,,,,,,,,,,,1.61000000000000E+01,1.66000000000000E+01,1.70000000000000E+01,1.79000000000000E+01,1.92000000000000E+01,1.97000000000000E+01,1.91000000000000E+01,1.90000000000000E+01,1.87000000000000E+01,2.02000000000000E+01,2.01000000000000E+01,1.85000000000000E+01,1.88000000000000E+01,1.92000000000000E+01,1.93000000000000E+01,1.90000000000000E+01,1.94000000000000E+01,1.87000000000000E+01,1.90000000000000E+01,1.82000000000000E+01,1.77000000000000E+01,1.68000000000000E+01,1.69000000000000E+01,1.70000000000000E+01,1.70000000000000E+01,1.75000000000000E+01,1.76000000000000E+01,1.74000000000000E+01,1.70000000000000E+01,1.77000000000000E+01,,
BEN,,,,,,,,,,,,,,,,,,,,,,,,,,,,,,,,,,,,,,,,,,,,8.37000000000000E+01,,,,,,,,
BFA,,,,,,,,,,,,,,,,,,,,,,,,,,9.40000000000000E+01,,,,,,,,,9.29000000000000E+01,,,,,,,,,9.16000000000000E+01,,,,,,,,
BGD,,,,,,,,,,,,,,,,,,,,,,,,,,,,,,,,,,,,,6.02000000000000E+01,,,,5.99000000000000E+01,,,8.38000000000000E+01,,8.48000000000000E+01,,,,,,
BGR,,,,,,,,,,,,,,,,,,,,,,,,,,,,,,,,,,,,,,,,,1.93000000000000E+01,1.83000000000000E+01,1.78000000000000E+01,1.90000000000000E+01,1.87000000000000E+01,1.66000000000000E+01,1.59000000000000E+01,1.51000000000000E+01,1.47000000000000E+01,1.48000000000000E+01,,
BHS,,,,,,,,,,,,,,,,,,,,,,,,,,,,,,,,1.48000000000000E+01,1.72000000000000E+01,1.59000000000000E+01,1.72000000000000E+01,1.63000000000000E+01,1.95000000000000E+01,1.89000000000000E+01,1.93000000000000E+01,2.08000000000000E+01,,1.83000000000000E+01,2.00000000000000E+01,1.79000000000000E+01,1.78000000000000E+01,,,,1.71000000000000E+01,,,
BIH,,,,,,,,,,,,,,,,,,,,,,,,,,,,,,,,,,,,,,,,,,,,,,,2.80000000000000E+01,2.73000000000000E+01,2.76000000000000E+01,,,
BLZ,,,,,,,,,,,,,,,,,,,,,,,,,,,,,,,,,,3.20000000000000E+01,3.30000000000000E+01,3.44000000000000E+01,3.79000000000000E+01,3.81000000000000E+01,3.58000000000000E+01,3.78000000000000E+01,,,,,,3.30000000000000E+01,,,,,,
BOL,,,,,,,,,,,,,,,,,,,,,,,,,,,,,,3.97000000000000E+01,3.73000000000000E+01,3.66000000000000E+01,3.76000000000000E+01,3.70000000000000E+01,3.78000000000000E+01,4.08000000000000E+01,4.28000000000000E+01,4.69000000000000E+01,,6.28000000000000E+01,6.38000000000000E+01,6.21000000000000E+01,6.37000000000000E+01,5.60000000000000E+01,5.71000000000000E+01,5.99000000000000E+01,6.12000000000000E+01,5.67000000000000E+01,,,,
BRA,,,,,,,,,,,,,,,,,,,,,,,,,,,,,,,3.53000000000000E+01,,3.91000000000000E+01,3.89000000000000E+01,,4.00000000000000E+01,3.94000000000000E+01,2.21000000000000E+01,2.26000000000000E+01,2.31000000000000E+01,3.42000000000000E+01,3.99000000000000E+01,3.97000000000000E+01,3.99000000000000E+01,3.91000000000000E+01,3.61000000000000E+01,3.52000000000000E+01,3.40000000000000E+01,3.27000000000000E+01,3.26000000000000E+01,,
BRB,,,,,,,,,,,,,,,,,,,,,,,,,,,,,,,1.54000000000000E+01,1.60000000000000E+01,1.64000000000000E+01,1.76000000000000E+01,1.57000000000000E+01,1.56000000000000E+01,1.56000000000000E+01,1.54000000000000E+01,1.57000000000000E+01,1.79000000000000E+01,1.69000000000000E+01,1.84000000000000E+01,1.82000000000000E+01,1.94000000000000E+01,1.98000000000000E+01,,,,,,,
BRN,,,,,,,,,,,,,,,,,,,,,,,,,,,,,,,,5.60000000000000E+00,,,,,,,,,,,,,,,,,,,,
BTN,,,,,,,,,,,,,,,,,,,,,,,,,,,,,,,,,,,,,,,,,,,,7.56000000000000E+01,,1.93000000000000E+01,,,,,,
BWA,,,,,,,,,,,,,,,,,,,,,,,,,4.53000000000000E+01,,,,,,,,,,3.28000000000000E+01,,,,9.40000000000000E+00,,1.19000000000000E+01,1.53000000000000E+01,,8.10000000000000E+00,,,3.78000000000000E+01,,,,,
CAN,,,,,,,,,,,,,,,,,,,,,9.90000000000000E+00,1.00000000000000E+01,1.08000000000000E+01,1.12000000000000E+01,1.11000000000000E+01,1.18000000000000E+01,1.11000000000000E+01,1.72000000000000E+01,1.74000000000000E+01,1.70000000000000E+01,1.77000000000000E+01,1.87000000000000E+01,1.88000000000000E+01,1.96000000000000E+01,1.93000000000000E+01,1.92000000000000E+01,1.99000000000000E+01,2.04000000000000E+01,2.04000000000000E+01,2.04000000000000E+01,1.94000000000000E+01,1.87000000000000E+01,1.84000000000000E+01,1.88000000000000E+01,1.90000000000000E+01,1.91000000000000E+01,1.86000000000000E+01,1.92000000000000E+01,1.91000000000000E+01,,,
CHE,,,,,,,,,,,,,,,,,,,,,,,,,,,,,,,,1.61000000000000E+01,1.58000000000000E+01,1.72000000000000E+01,1.67000000000000E+01,1.79000000000000E+01,1.96000000000000E+01,2.01000000000000E+01,1.95000000000000E+01,2.00000000000000E+01,2.02000000000000E+01,1.94000000000000E+01,1.92000000000000E+01,1.98000000000000E+01,1.88000000000000E+01,1.82000000000000E+01,1.79000000000000E+01,1.80000000000000E+01,1.81000000000000E+01,1.72000000000000E+01,,
CHL,,,,,,,,,,,,,,,,,,,,,,,,,,,,,,,2.77000000000000E+01,,2.73000000000000E+01,,2.70000000000000E+01,,3.23000000000000E+01,3.15000000000000E+01,3.26000000000000E+01,3.33000000000000E+01,3.33000000000000E+01,3.37000000000000E+01,3.39000000000000E+01,3.43000000000000E+01,3.38000000000000E+01,3.22000000000000E+01,3.04000000000000E+01,2.92000000000000E+01,2.82000000000000E+01,,,
CIV,,,,,,,,,,,,,,,,,,,,,,,,,,,,,,,,,,,,,,,,,,,7.01000000000000E+01,,,,,,,,,
CMR,,,,,,,,,,,,,,,,,,,,,,,,,,,,,,,,,,,,,7.48000000000000E+01,,,,,6.65000000000000E+01,,,,,,,,,,
COG,,,,,,,,,,,,,,,,,,,,,,,,,,,,,,,,,,,,,,,,,,,,,,6.17000000000000E+01,,,,,,
COL,,,,,,,,,,,,,,,,,,,,,,,,,,,,,,,,,3.51000000000000E+01,3.48000000000000E+01,3.34000000000000E+01,3.72000000000000E+01,3.70000000000000E+01,3.89000000000000E+01,3.83000000000000E+01,4.18000000000000E+01,4.96000000000000E+01,5.43000000000000E+01,5.36000000000000E+01,5.13000000000000E+01,5.24000000000000E+01,5.22000000000000E+01,5.03000000000000E+01,4.67000000000000E+01,5.27000000000000E+01,5.37000000000000E+01,,
CPV,,,,,,,,,,,,,,,,,,,,,,,,,,,,,,,,,,,,,,,,,3.91000000000000E+01,,,,,,,,,,,
CRI,,,,,,,,,,,,,,,,,,,,,,,,,,,,3.33000000000000E+01,3.25000000000000E+01,3.24000000000000E+01,3.29000000000000E+01,3.25000000000000E+01,3.09000000000000E+01,2.99000000000000E+01,3.00000000000000E+01,3.05000000000000E+01,3.15000000000000E+01,3.20000000000000E+01,3.13000000000000E+01,3.08000000000000E+01,3.19000000000000E+01,3.25000000000000E+01,,3.14000000000000E+01,3.22000000000000E+01,2.95000000000000E+01,3.10000000000000E+01,2.87000000000000E+01,2.86000000000000E+01,,,
CUB,,,,,,,,,,,,,,,,,,,,,,,,,,,,,,,,,,,,2.04000000000000E+01,2.01000000000000E+01,2.11000000000000E+01,2.23000000000000E+01,2.39000000000000E+01,2.48000000000000E+01,2.61000000000000E+01,2.62000000000000E+01,2.67000000000000E+01,2.70000000000000E+01,2.62000000000000E+01,2.39000000000000E+01,2.33000000000000E+01,2.29000000000000E+01,,,
CYM,,,,,,,,,,,,,,,,,,,,,,,,,,,,,,,,,,,,,,,,,,,,,,,1.36000000000000E+01,1.03000000000000E+01,1.24000000000000E+01,,,
CYP,,,,,,,,,,,,,,,,,,,,,,,,,,,,,,,,,,,,,,,,2.90000000000000E+01,2.98000000000000E+01,2.95000000000000E+01,2.86000000000000E+01,3.01000000000000E+01,2.99000000000000E+01,2.87000000000000E+01,2.67000000000000E+01,2.61000000000000E+01,2.56000000000000E+01,2.48000000000000E+01,,
CZE,,,,,,,,,,,,,,,,,,,,,,,,,,,,,,,,,,1.56000000000000E+01,1.62000000000000E+01,1.69000000000000E+01,1.72000000000000E+01,1.73000000000000E+01,1.85000000000000E+01,1.93000000000000E+01,1.99000000000000E+01,2.00000000000000E+01,2.10000000000000E+01,2.21000000000000E+01,2.19000000000000E+01,2.08000000000000E+01,2.06000000000000E+01,2.07000000000000E+01,2.05000000000000E+01,2.08000000000000E+01,,
DEU,,,,,,,,,,,,,,,,,,,,,1.10000000000000E+01,1.11000000000000E+01,1.12000000000000E+01,1.13000000000000E+01,1.23000000000000E+01,1.22000000000000E+01,1.20000000000000E+01,1.18000000000000E+01,1.09000000000000E+01,1.08000000000000E+01,1.21000000000000E+01,1.09000000000000E+01,1.14000000000000E+01,1.18000000000000E+01,1.23000000000000E+01,1.23000000000000E+01,1.26000000000000E+01,1.30000000000000E+01,1.31000000000000E+01,1.31000000000000E+01,1.32000000000000E+01,1.32000000000000E+01,1.33000000000000E+01,1.39000000000000E+01,1.47000000000000E+01,1.48000000000000E+01,1.45000000000000E+01,1.43000000000000E+01,1.40000000000000E+01,1.42000000000000E+01,,
DJI,,,,,,,,,,,,,,,,,,,,,,,,,,,,,,,,1.91000000000000E+01,,,,,,,,,,,,,,,,,,,,
DMA,,,,,,,,,,,,,,,,,,,,,,,,,,,,,,,,4.08000000000000E+01,,,,,,3.75000000000000E+01,,4.52000000000000E+01,,3.55000000000000E+01,,,,,,,,,,
DNK,,,,,,,,,,,,,,,,,,,,,,,,1.85000000000000E+01,1.59000000000000E+01,1.54000000000000E+01,1.43000000000000E+01,1.45000000000000E+01,1.42000000000000E+01,1.45000000000000E+01,1.50000000000000E+01,1.40000000000000E+01,1.38000000000000E+01,1.40000000000000E+01,1.22000000000000E+01,1.22000000000000E+01,1.20000000000000E+01,1.24000000000000E+01,1.26000000000000E+01,1.21000000000000E+01,1.21000000000000E+01,1.25000000000000E+01,1.21000000000000E+01,1.20000000000000E+01,1.19000000000000E+01,1.19000000000000E+01,1.19000000000000E+01,1.24000000000000E+01,1.24000000000000E+01,1.27000000000000E+01,,
DOM,,,,,,,,,,,,,,,,,,,,,,,,,,,,,,,,4.72000000000000E+01,4.75000000000000E+01,4.60000000000000E+01,4.39000000000000E+01,4.67000000000000E+01,5.00000000000000E+01,5.13000000000000E+01,5.20000000000000E+01,5.38000000000000E+01,5.03000000000000E+01,5.15000000000000E+01,5.29000000000000E+01,5.36000000000000E+01,5.22000000000000E+01,5.43000000000000E+01,5.45000000000000E+01,5.35000000000000E+01,,,,
DZA,,,,,,,,,,,,,,,,,,,,,,,,,,,,,,,,,,,,,,,,,,3.78000000000000E+01,,3.52000000000000E+01,3.77000000000000E+01,3.44000000000000E+01,,,,,,
ECA,,,,,,,,,,,,,,,,,,,,,,,,,,,,,,,,,,,,1.97212917262917E+01,1.94334253018625E+01,1.97092051059903E+01,2.09305007072494E+01,2.29184283697359E+01,2.22287840499882E+01,2.23793026827945E+01,2.15686063250484E+01,2.28082359187720E+01,2.32156979975410E+01,2.27483030634565E+01,2.14335576275724E+01,2.00321672132018E+01,2.03606360656767E+01,,,
ECS,,,,,,,,,,,,,,,,,,,,,,,,,,,,,,,,,2.12446410133914E+01,2.06919964919642E+01,2.08819438376534E+01,2.02082348916842E+01,2.01768349369491E+01,2.01575454296426E+01,2.03983601780617E+01,2.10714836352833E+01,2.06293478078726E+01,2.06553877916973E+01,2.03471050402099E+01,2.10004662248906E+01,2.12939087849434E+01,2.09703886864659E+01,2.03639341851454E+01,1.97087544227745E+01,1.96796179593980E+01,,,
ECU,,,,,,,,,,,,,,,,,,,,,,,,,,,,,3.78000000000000E+01,3.88000000000000E+01,3.97000000000000E+01,3.85000000000000E+01,4.19000000000000E+01,4.07000000000000E+01,4.04000000000000E+01,3.99000000000000E+01,4.16000000000000E+01,4.03000000000000E+01,3.95000000000000E+01,3.92000000000000E+01,4.41000000000000E+01,4.48000000000000E+01,3.65000000000000E+01,4.18000000000000E+01,4.44000000000000E+01,4.37000000000000E+01,4.29000000000000E+01,4.17000000000000E+01,4.03000000000000E+01,4.18000000000000E+01,,
EGY,,,,,,,,,,,,,,,,,,,,,,,,,,,,,,,,,,4.27000000000000E+01,4.18000000000000E+01,4.19000000000000E+01,,3.90000000000000E+01,4.04000000000000E+01,3.96000000000000E+01,3.94000000000000E+01,3.92000000000000E+01,4.16000000000000E+01,4.18000000000000E+01,4.17000000000000E+01,3.78000000000000E+01,3.63000000000000E+01,3.86000000000000E+01,,,,
EMU,,,,,,,,,,,,,,,,,,,,,,,,,,,,,,,,2.02381556111628E+01,2.05470883179490E+01,2.05856857236366E+01,2.04971247619098E+01,2.04978993472385E+01,2.06453777115908E+01,2.05573521764386E+01,2.03493363647017E+01,1.99697317738759E+01,1.96610242264994E+01,1.95210394065634E+01,1.94614413682130E+01,1.97254703008051E+01,2.00592276223892E+01,1.98744773820664E+01,1.98068965410014E+01,1.96702104532089E+01,1.93414527667562E+01,1.95546520690952E+01,,
ESP,,,,,,,,,,,,,,,,,,,,,2.75000000000000E+01,2.75000000000000E+01,2.76000000000000E+01,2.80000000000000E+01,2.94000000000000E+01,2.90000000000000E+01,2.82000000000000E+01,2.90000000000000E+01,2.82000000000000E+01,2.72000000000000E+01,2.61000000000000E+01,2.54000000000000E+01,2.58000000000000E+01,2.65000000000000E+01,2.70000000000000E+01,2.61000000000000E+01,2.61000000000000E+01,2.52000000000000E+01,2.43000000000000E+01,2.34000000000000E+01,2.20000000000000E+01,2.19000000000000E+01,2.13000000000000E+01,2.05000000000000E+01,2.07000000000000E+01,2.06000000000000E+01,2.06000000000000E+01,2.05000000000000E+01,2.08000000000000E+01,2.01000000000000E+01,,
EST,,,,,,,,,,,,,,,,,,,,,,,,,,,,,,2.00000000000000E+00,2.90000000000000E+00,4.30000000000000E+00,6.60000000000000E+00,9.20000000000000E+00,1.04000000000000E+01,8.90000000000000E+00,9.80000000000000E+00,1.01000000000000E+01,1.09000000000000E+01,1.10000000000000E+01,1.16000000000000E+01,1.10000000000000E+01,1.07000000000000E+01,1.18000000000000E+01,1.29000000000000E+01,1.12000000000000E+01,1.11000000000000E+01,1.23000000000000E+01,1.04000000000000E+01,1.14000000000000E+01,,
ETH,,,,,,,,,,,,,,,,,,,,,,6.47000000000000E+01,,,,,,7.01000000000000E+01,,,,,,,5.49000000000000E+01,,,,,9.00000000000000E+01,,,,,4.09000000000000E+01,9.03000000000000E+01,4.18000000000000E+01,,,,,
EUU,,,,,,,,,,,,,,,,,,,,,,,,,,,,,,,,2.00336768002215E+01,2.12507302567305E+01,2.12529491517276E+01,2.12124391002369E+01,2.13178189857041E+01,2.13243264783928E+01,2.12616538384121E+01,2.10302782470780E+01,2.10284230831323E+01,2.07897664401883E+01,2.07002934550036E+01,2.03607748868934E+01,2.05668653191428E+01,2.06583436586220E+01,2.04330175598172E+01,2.02457113633578E+01,2.00670501487421E+01,1.97343424711736E+01,1.99375316163627E+01,,
FIN,,,,,,,,,,,,,,,,,,,,,1.87000000000000E+01,1.85000000000000E+01,1.84000000000000E+01,1.86000000000000E+01,1.80000000000000E+01,1.72000000000000E+01,1.78000000000000E+01,1.86000000000000E+01,1.88000000000000E+01,1.97000000000000E+01,1.95000000000000E+01,1.96000000000000E+01,2.05000000000000E+01,2.10000000000000E+01,2.11000000000000E+01,2.04000000000000E+01,2.15000000000000E+01,2.08000000000000E+01,1.98000000000000E+01,1.76000000000000E+01,1.77000000000000E+01,1.67000000000000E+01,1.65000000000000E+01,1.65000000000000E+01,1.63000000000000E+01,1.65000000000000E+01,1.70000000000000E+01,1.66000000000000E+01,1.67000000000000E+01,1.80000000000000E+01,,
FJI,,,,,,,,,,,,,,,,,,,,,,,,,,,,,,,,,,,,,,,,,,,,,,3.99000000000000E+01,,,,,,
FRA,,,,,,,,,,,,,,,,,,,,,1.73000000000000E+01,1.71000000000000E+01,1.67000000000000E+01,1.81000000000000E+01,1.86000000000000E+01,1.82000000000000E+01,1.83000000000000E+01,1.81000000000000E+01,1.81000000000000E+01,1.74000000000000E+01,1.79000000000000E+01,1.74000000000000E+01,1.73000000000000E+01,1.65000000000000E+01,1.66000000000000E+01,1.60000000000000E+01,1.58000000000000E+01,1.55000000000000E+01,1.51000000000000E+01,1.48000000000000E+01,1.40000000000000E+01,1.33000000000000E+01,1.33000000000000E+01,1.44000000000000E+01,1.40000000000000E+01,1.40000000000000E+01,1.44000000000000E+01,1.41000000000000E+01,1.34000000000000E+01,1.42000000000000E+01,,
GAB,,,,,,,,,,,,,,,,,,,,,,,,,,,,,,,,,,3.79000000000000E+01,,,,,,,,,,,,4.64000000000000E+01,,,,,,
GBR,,,,,,,,,,,,,,,,,,,,,1.09000000000000E+01,1.19000000000000E+01,1.22000000000000E+01,1.35000000000000E+01,1.47000000000000E+01,1.47000000000000E+01,1.50000000000000E+01,1.66000000000000E+01,1.70000000000000E+01,1.89000000000000E+01,1.90000000000000E+01,1.87000000000000E+01,1.74000000000000E+01,1.73000000000000E+01,1.79000000000000E+01,1.80000000000000E+01,1.73000000000000E+01,1.71000000000000E+01,1.63000000000000E+01,1.68000000000000E+01,1.60000000000000E+01,1.62000000000000E+01,1.65000000000000E+01,1.70000000000000E+01,1.75000000000000E+01,1.74000000000000E+01,1.76000000000000E+01,1.78000000000000E+01,1.77000000000000E+01,1.80000000000000E+01,,
GEO,,,,,,,,,,,,,,,,,,,,,,,,,,,,,,,,,,,,,,,5.62000000000000E+01,5.61000000000000E+01,6.16000000000000E+01,6.43000000000000E+01,6.48000000000000E+01,6.61000000000000E+01,6.70000000000000E+01,6.54000000000000E+01,,,6.33000000000000E+01,,,
GNQ,,,,,,,,,,,,,,,,,,,,,,,,6.83000000000000E+01,,,,,,,,,,,,,,,,,,,,,,,,,,,,
GRC,,,,,,,,,,,,,,,,,,,,,,4.99000000000000E+01,4.97000000000000E+01,4.98000000000000E+01,4.90000000000000E+01,4.89000000000000E+01,4.91000000000000E+01,4.84000000000000E+01,4.86000000000000E+01,4.78000000000000E+01,4.74000000000000E+01,4.76000000000000E+01,4.82000000000000E+01,4.77000000000000E+01,4.76000000000000E+01,4.74000000000000E+01,4.69000000000000E+01,4.68000000000000E+01,4.49000000000000E+01,4.38000000000000E+01,4.37000000000000E+01,4.22000000000000E+01,4.14000000000000E+01,4.11000000000000E+01,3.94000000000000E+01,3.90000000000000E+01,3.93000000000000E+01,3.87000000000000E+01,3.82000000000000E+01,3.89000000000000E+01,,
GRD,,,,,,,,,,,,,,,,,,,,,,,,,,,,,,,,1.82000000000000E+01,,,,,2.75000000000000E+01,,2.46000000000000E+01,,,,,,,,,,,,,
GTM,,,,,,,,,,,,,,,,,,,,,,,,,,,,,,,,,,,5.40000000000000E+01,,,,4.38000000000000E+01,,4.58000000000000E+01,,5.84000000000000E+01,5.10000000000000E+01,5.08000000000000E+01,,,,,,,
GUY,,,,,,,,,,,,,,,,,,,,,,,,,,,,,,,,,4.78000000000000E+01,,,,,,,,,,,,,,,,,,,
HIC,,,,,,,,,,,,,,,,,,,,,,,,,,,,,,,,1.75353694309431E+01,1.78906987369329E+01,1.78559120983217E+01,1.76196443866816E+01,1.73973365550699E+01,1.73967383419897E+01,1.72209332367568E+01,1.69579894904699E+01,1.68486525521487E+01,1.64443997065761E+01,1.63630401830052E+01,1.63378262639781E+01,1.65335578032049E+01,1.65723134492238E+01,1.62229369177900E+01,1.60957130486993E+01,1.58993104264725E+01,1.55909967338983E+01,,,
HKG,,,,,,,,,,,,,,,,,,,,,,,,,,,,,,,,,,1.50000000000000E+01,1.43000000000000E+01,1.43000000000000E+01,1.46000000000000E+01,1.39000000000000E+01,1.41000000000000E+01,1.47000000000000E+01,1.45000000000000E+01,1.66000000000000E+01,1.80000000000000E+01,1.74000000000000E+01,1.70000000000000E+01,1.68000000000000E+01,1.70000000000000E+01,1.58000000000000E+01,1.55000000000000E+01,,,
HND,,,,,,,,,,,,,,,,,,,,,,,,,,,,,,,4.95000000000000E+01,5.43000000000000E+01,5.07000000000000E+01,,5.11000000000000E+01,5.08000000000000E+01,5.48000000000000E+01,5.37000000000000E+01,5.18000000000000E+01,5.19000000000000E+01,,5.18000000000000E+01,5.40000000000000E+01,5.33000000000000E+01,5.28000000000000E+01,5.13000000000000E+01,5.24000000000000E+01,5.16000000000000E+01,,,,
HRV,,,,,,,,,,,,,,,,,,,,,,,,,,,,,,,,,,,,,2.92000000000000E+01,2.67000000000000E+01,2.59000000000000E+01,2.62000000000000E+01,2.54000000000000E+01,2.70000000000000E+01,2.56000000000000E+01,2.52000000000000E+01,2.43000000000000E+01,2.54000000000000E+01,2.44000000000000E+01,2.27000000000000E+01,2.26000000000000E+01,2.28000000000000E+01,,
HTI,,,,,,,,,,,,,,,,,,,,,,,,,,,,,,,8.12000000000000E+01,,,,,,,,,,,,,,,,,,,,,
HUN,,,,,,,,,,,,,,,,,,,,,,,,,,,,,,,,,1.61000000000000E+01,1.52000000000000E+01,1.50000000000000E+01,1.54000000000000E+01,1.64000000000000E+01,1.60000000000000E+01,1.50000000000000E+01,1.90000000000000E+01,1.85000000000000E+01,1.75000000000000E+01,1.70000000000000E+01,1.69000000000000E+01,1.76000000000000E+01,1.70000000000000E+01,1.57000000000000E+01,1.51000000000000E+01,1.53000000000000E+01,1.54000000000000E+01,,
IDN,,,,,,,,,,,,,,,,,,,,,,,,,,,,,,,,,,,,,,,,,,6.44000000000000E+01,6.58000000000000E+01,6.71000000000000E+01,6.62000000000000E+01,6.53000000000000E+01,6.51000000000000E+01,6.41000000000000E+01,,6.56000000000000E+01,,
IMY,,,,,,,,,,,,,,,,,,,,,,,,,,,,,,,,,,,,,,,,,,2.03000000000000E+01,,,,,,,,,,
IND,,,,,,,,,,,,,,,,,,,,,,,,,,,,,,,,,,,,,,,,,,,,,,8.24000000000000E+01,,,,,,
IRL,,,,,,,,,,,,,,,,,,,,,,,,3.02000000000000E+01,3.08000000000000E+01,2.99000000000000E+01,2.97000000000000E+01,3.11000000000000E+01,3.19000000000000E+01,3.15000000000000E+01,3.18000000000000E+01,3.01000000000000E+01,3.12000000000000E+01,3.05000000000000E+01,3.00000000000000E+01,2.95000000000000E+01,2.78000000000000E+01,2.79000000000000E+01,2.73000000000000E+01,2.61000000000000E+01,2.60000000000000E+01,2.54000000000000E+01,2.55000000000000E+01,2.48000000000000E+01,2.53000000000000E+01,2.43000000000000E+01,2.35000000000000E+01,2.47000000000000E+01,2.51000000000000E+01,2.61000000000000E+01,,
IRN,,,,,,,,,,,,,,,,,,,,,,,,,,,,,,,,,,,,,4.56000000000000E+01,,,,,,,,,3.99000000000000E+01,,4.62000000000000E+01,4.56000000000000E+01,,,
ISL,,,,,,,,,,,,,,,,,,,,,,,,,,,,,,,,2.71000000000000E+01,2.56000000000000E+01,2.43000000000000E+01,2.54000000000000E+01,2.66000000000000E+01,2.39000000000000E+01,2.32000000000000E+01,2.38000000000000E+01,2.37000000000000E+01,2.40000000000000E+01,2.29000000000000E+01,2.35000000000000E+01,1.91000000000000E+01,1.88000000000000E+01,2.01000000000000E+01,2.06000000000000E+01,1.87000000000000E+01,1.69000000000000E+01,1.69000000000000E+01,,
ISR,,,,,,,,,,,,,,,,,,,,,,,,,,,,,,,,,,,,1.93000000000000E+01,2.00000000000000E+01,1.97000000000000E+01,1.95000000000000E+01,1.94000000000000E+01,1.83000000000000E+01,1.76000000000000E+01,1.76000000000000E+01,1.81000000000000E+01,1.72000000000000E+01,1.74000000000000E+01,1.71000000000000E+01,1.65000000000000E+01,1.67000000000000E+01,,,
ITA,,,,,,,,,,,,,,,,,,,,,2.93000000000000E+01,2.99000000000000E+01,3.00000000000000E+01,3.02000000000000E+01,3.11000000000000E+01,3.06000000000000E+01,3.04000000000000E+01,3.10000000000000E+01,3.12000000000000E+01,3.11000000000000E+01,3.05000000000000E+01,3.06000000000000E+01,3.11000000000000E+01,3.09000000000000E+01,3.11000000000000E+01,3.18000000000000E+01,3.20000000000000E+01,3.19000000000000E+01,3.20000000000000E+01,3.16000000000000E+01,3.18000000000000E+01,3.17000000000000E+01,3.13000000000000E+01,3.12000000000000E+01,3.17000000000000E+01,3.07000000000000E+01,3.03000000000000E+01,3.00000000000000E+01,2.95000000000000E+01,2.93000000000000E+01,,
JAM,,,,,,,,,,,,,,,,,,,,,,,,,,,,,,,,4.73000000000000E+01,4.71000000000000E+01,4.52000000000000E+01,4.51000000000000E+01,4.43000000000000E+01,4.40000000000000E+01,4.43000000000000E+01,4.51000000000000E+01,4.48000000000000E+01,4.47000000000000E+01,4.41000000000000E+01,4.29000000000000E+01,4.32000000000000E+01,4.20000000000000E+01,4.11000000000000E+01,4.22000000000000E+01,4.06000000000000E+01,4.46000000000000E+01,,,
JOR,,,,,,,,,,,,,,,,,,,,,,,,,,,,,,,,,,,,,,,,,,1.25000000000000E+01,1.14000000000000E+01,1.04000000000000E+01,1.15000000000000E+01,1.10000000000000E+01,1.04000000000000E+01,9.30000000000000E+00,9.90000000000000E+00,1.86000000000000E+01,,
JPN,,,,,,,,,,,,,,,,,,,,,2.27000000000000E+01,2.24000000000000E+01,2.18000000000000E+01,2.13000000000000E+01,2.08000000000000E+01,2.08000000000000E+01,2.04000000000000E+01,2.04000000000000E+01,2.00000000000000E+01,1.94000000000000E+01,1.89000000000000E+01,1.80000000000000E+01,1.73000000000000E+01,1.66000000000000E+01,1.64000000000000E+01,1.61000000000000E+01,1.58000000000000E+01,1.59000000000000E+01,1.56000000000000E+01,1.58000000000000E+01,1.55000000000000E+01,1.50000000000000E+01,1.48000000000000E+01,1.47000000000000E+01,1.47000000000000E+01,1.45000000000000E+01,1.39000000000000E+01,1.36000000000000E+01,1.34000000000000E+01,,,
KAZ,,,,,,,,,,,,,,,,,,,,,,,,,,,,,,,,,,,,,,,,,,3.90000000000000E+01,3.64000000000000E+01,3.68000000000000E+01,3.59000000000000E+01,3.41000000000000E+01,3.43000000000000E+01,3.40000000000000E+01,3.25000000000000E+01,,,
KEN,,,,,,,,,,,,,,,,,,,,,,,,,,,,,,,,,,,,,,,,5.00000000000000E+01,,,,,,,,,,,,
KGZ,,,,,,,,,,,,,,,,,,,,,,,,,,,,,,,,,,,,,,,,,,,5.83000000000000E+01,5.30000000000000E+01,5.16000000000000E+01,5.20000000000000E+01,4.98000000000000E+01,,,,,
KHM,,,,,,,,,,,,,,,,,,,,,,,,,,,,,,,,,,,,,,,,,8.12000000000000E+01,8.08000000000000E+01,,,,,,,,,,
KNA,,,,,,,,,,,,,,,,,,,,,,,,,,,,,,,,1.71000000000000E+01,,,,,,,,,,1.47000000000000E+01,,,,,,,,,,
KOR,,,,,,,,,,,,,,,,,,,,,4.78000000000000E+01,4.79000000000000E+01,4.75000000000000E+01,4.62000000000000E+01,4.29000000000000E+01,4.20000000000000E+01,4.14000000000000E+01,3.97000000000000E+01,3.92000000000000E+01,3.81000000000000E+01,3.69000000000000E+01,3.65000000000000E+01,3.66000000000000E+01,3.65000000000000E+01,3.58000000000000E+01,3.51000000000000E+01,3.50000000000000E+01,3.54000000000000E+01,3.70000000000000E+01,3.68000000000000E+01,3.57000000000000E+01,3.60000000000000E+01,3.57000000000000E+01,3.53000000000000E+01,3.44000000000000E+01,3.40000000000000E+01,3.32000000000000E+01,3.23000000000000E+01,3.19000000000000E+01,,,
KWT,,,,,,,,,,,,,,,,,,,,,,,,,,,,,,,,,,,,,,,,,,,,,,3.40000000000000E+00,,,,,,
LAC,,,,,,,,,,,,,,,,,,,,,,,,,,,,,,,,,3.95634653945626E+01,3.98095037008707E+01,,3.91549640713035E+01,3.89195811705263E+01,3.26823655413514E+01,3.23972508814044E+01,3.32339066370137E+01,3.77238494539971E+01,4.04234295281458E+01,4.02250719217569E+01,3.99776360741819E+01,3.98382068023606E+01,3.81945795948405E+01,3.70805358512375E+01,3.59249783716147E+01,3.50624434735221E+01,,,
LAO,,,,,,,,,,,,,,,,,,,,,,,,,,,,,,,,,,,,8.57000000000000E+01,,,,,,,,,,,,,,,,
LBN,,,,,,,,,,,,,,,,,,,,,,,,,,,,,,,,,,,,,,,,,,,,,4.35000000000000E+01,,,4.38000000000000E+01,,,,
LBR,,,,,,,,,,,,,,,,,,,,,,,,,,,,,,,,,,,,,,,,,,,,,,,,7.33000000000000E+01,,,,
LCA,,,,,,,,,,,,,,,,,,,,,,,,,,,,,,,,,,3.94000000000000E+01,4.49000000000000E+01,3.94000000000000E+01,4.12000000000000E+01,3.77000000000000E+01,3.80000000000000E+01,3.73000000000000E+01,3.88000000000000E+01,,,,,,,,,,,
LCN,,,,,,,,,,,,,,,,,,,,,,,,,,,,,,,,,3.93752526902380E+01,3.96158169994022E+01,,3.89775495562277E+01,3.87427532800649E+01,3.25618792564944E+01,3.22756303200103E+01,3.31157093385362E+01,3.75737496953401E+01,4.02325167319893E+01,4.00474669234949E+01,3.97973611191527E+01,3.96603165201083E+01,3.80511585865561E+01,3.69888083340651E+01,3.58437087373206E+01,3.49709188922689E+01,,,
LKA,,,,,,,,,,,,,,,,,,,,,,,,,,,,,,,,,,4.23000000000000E+01,4.08000000000000E+01,4.17000000000000E+01,4.05000000000000E+01,4.17000000000000E+01,4.41000000000000E+01,4.24000000000000E+01,4.34000000000000E+01,4.20000000000000E+01,4.25000000000000E+01,4.26000000000000E+01,4.11000000000000E+01,4.02000000000000E+01,4.40000000000000E+01,4.28000000000000E+01,4.24000000000000E+01,4.11000000000000E+01,,
LMC,,,,,,,,,,,,,,,,,,,,,,,,,,,,,,,,,,,,,,,,,,,,,,7.22625124388336E+01,,,,,,
LSO,,,,,,,,,,,,,,,,,,,,,,,,,,,,1.83000000000000E+01,,,,,,,,,,6.59000000000000E+01,,4.60000000000000E+00,,,,,,,,,,,,
LTU,,,,,,,,,,,,,,,,,,,,,,,,,,,,,,,,,,,,,,2.15000000000000E+01,2.21000000000000E+01,2.36000000000000E+01,2.28000000000000E+01,2.46000000000000E+01,2.37000000000000E+01,2.39000000000000E+01,2.18000000000000E+01,1.92000000000000E+01,1.76000000000000E+01,1.63000000000000E+01,1.42000000000000E+01,1.48000000000000E+01,,
LUX,,,,,,,,,,,,,,,,,,,,,,,,1.17000000000000E+01,1.18000000000000E+01,1.16000000000000E+01,1.04000000000000E+01,1.06000000000000E+01,1.09000000000000E+01,1.13000000000000E+01,1.13000000000000E+01,1.07000000000000E+01,1.02000000000000E+01,1.14000000000000E+01,1.06000000000000E+01,1.18000000000000E+01,1.09000000000000E+01,9.90000000000000E+00,1.09000000000000E+01,9.70000000000000E+00,1.08000000000000E+01,8.20000000000000E+00,9.60000000000000E+00,8.50000000000000E+00,9.20000000000000E+00,8.70000000000000E+00,8.90000000000000E+00,8.20000000000000E+00,6.60000000000000E+00,1.02000000000000E+01,,
LVA,,,,,,,,,,,,,,,,,,,,,,,,,,,,,,,,,,,,,1.64000000000000E+01,2.05000000000000E+01,1.84000000000000E+01,1.71000000000000E+01,1.63000000000000E+01,1.71000000000000E+01,1.57000000000000E+01,1.49000000000000E+01,1.40000000000000E+01,1.35000000000000E+01,1.33000000000000E+01,1.29000000000000E+01,1.27000000000000E+01,1.44000000000000E+01,,
MAC,,,,,,,,,,,,,,,,,,,,,,,,,,,,,,,,,,,,,1.38000000000000E+01,1.23000000000000E+01,1.28000000000000E+01,1.44000000000000E+01,1.51000000000000E+01,1.37000000000000E+01,1.42000000000000E+01,1.43000000000000E+01,1.53000000000000E+01,1.38000000000000E+01,1.19000000000000E+01,1.15000000000000E+01,9.80000000000000E+00,,,
MAR,,,,,,,,,,,,,,,,,,,,,,,,,,,,,,,,,,,5.25000000000000E+01,,,,5.16000000000000E+01,5.27000000000000E+01,3.42000000000000E+01,3.54000000000000E+01,5.61000000000000E+01,5.91000000000000E+01,6.06000000000000E+01,6.04000000000000E+01,5.31000000000000E+01,5.11000000000000E+01,5.24000000000000E+01,,,
MDA,,,,,,,,,,,,,,,,,,,,,,,,,,,,,,,,,,,,,,,,3.21000000000000E+01,3.63000000000000E+01,3.90000000000000E+01,4.04000000000000E+01,3.71000000000000E+01,3.68000000000000E+01,3.82000000000000E+01,3.48000000000000E+01,3.63000000000000E+01,3.51000000000000E+01,,,
MDG,,,,,,,,,,,,,,,,,,,,,,,,,,,,,,,,,,8.37000000000000E+01,,,,,,,,,,8.13000000000000E+01,,8.39000000000000E+01,,,,,,
MDV,,,,,,,,,,,,,,,,,,,,,,,,,,,,,,,4.70000000000000E+01,,,,,6.17000000000000E+01,,,,,7.07000000000000E+01,,,,,,2.91000000000000E+01,,,,,
MEA,,,,,,,,,,,,,,,,,,,,,,,,,,,,,,,,,,,,,,,,,,,,,,3.80085927911732E+01,,,,,,
MEX,,,,,,,,,,,,,,,,,,,,,,,,,,,,,,,3.19000000000000E+01,4.73000000000000E+01,4.59000000000000E+01,4.63000000000000E+01,4.42000000000000E+01,4.18000000000000E+01,4.09000000000000E+01,4.11000000000000E+01,3.90000000000000E+01,3.84000000000000E+01,3.65000000000000E+01,3.70000000000000E+01,3.71000000000000E+01,3.67000000000000E+01,3.64000000000000E+01,3.58000000000000E+01,3.45000000000000E+01,3.43000000000000E+01,3.37000000000000E+01,,,
MHL,,,,,,,,,,,,,,,,,,,,,,,,,,,,,,,,,,,,,,,,2.71000000000000E+01,,,,,,,,,,,,
MKD,,,,,,,,,,,,,,,,,,,,,,,,,,,,,,,,,,,,,,,2.41000000000000E+01,2.75000000000000E+01,2.65000000000000E+01,2.98000000000000E+01,2.99000000000000E+01,2.82000000000000E+01,2.78000000000000E+01,3.08000000000000E+01,3.15000000000000E+01,3.07000000000000E+01,3.01000000000000E+01,,,
MLI,,,,,,,,,,,,,,,,,,,,,,,,,,,,,,,,,,,3.25000000000000E+01,,,,,,,,,,8.48000000000000E+01,,8.34000000000000E+01,7.65000000000000E+01,,,,
MLT,,,,,,,,,,,,,,,,,,,,,,,,,,,,,,,,,,,,,,,,,1.49000000000000E+01,1.50000000000000E+01,1.88000000000000E+01,1.63000000000000E+01,1.77000000000000E+01,1.72000000000000E+01,1.75000000000000E+01,1.72000000000000E+01,1.70000000000000E+01,1.68000000000000E+01,,
MNA,,,,,,,,,,,,,,,,,,,,,,,,,,,,,,,,,,,,,,,,,,,,,,4.06282284753427E+01,,4.34584479105866E+01,,,,
MNE,,,,,,,,,,,,,,,,,,,,,,,,,,,,,,,,,,,,,,,,,,,,,,2.30000000000000E+01,,,,,,
MNG,,,,,,,,,,,,,,,,,,,,,,,,,,,,,,,,,,,,,,,,,6.01000000000000E+01,,,6.25000000000000E+01,,,,,,,,
MOZ,,,,,,,,,,,,,,,,,,,,,,,,,,,,,,,,,,,,,,,,,,,,8.43000000000000E+01,,,,,,,,
MUS,,,,,,,,,,,,,,,,,,,,,,,,,,,,,,,1.77000000000000E+01,,,,,2.12000000000000E+01,,,,,2.07000000000000E+01,,,,2.20000000000000E+01,2.12000000000000E+01,2.10000000000000E+01,2.21000000000000E+01,2.16000000000000E+01,,,
MWI,,,,,,,,,,,,,,,,,,,,,,,,,,,,7.10000000000000E+01,,,,,,,,,,,,,,,,,,,,,,,,
MYS,,,,,,,,,,,,,,,,,,,,,,,,,,,,,,,,3.42000000000000E+01,,,,2.75000000000000E+01,2.75000000000000E+01,2.52000000000000E+01,2.75000000000000E+01,2.57000000000000E+01,2.70000000000000E+01,2.54000000000000E+01,2.36000000000000E+01,2.45000000000000E+01,2.66000000000000E+01,2.62000000000000E+01,2.78000000000000E+01,2.75000000000000E+01,2.78000000000000E+01,,,
NAC,,,,,,,,,,,,,,,,,,,,,,,,,,,,,,,,1.15874349033264E+01,1.13991726743574E+01,1.17379720486905E+01,1.11675853826864E+01,1.07906167281468E+01,1.07619488113980E+01,1.05383542393889E+01,1.02686656028247E+01,1.00060286343140E+01,9.64327534490189E+00,9.49294684379021E+00,9.39252482553230E+00,9.81246656014937E+00,9.92106848378146E+00,9.83600210205844E+00,9.60399515268171E+00,9.49468330725989E+00,9.41635953444036E+00,,,
NAM,,,,,,,,,,,,,,,,,,,,,,,,,,,,,,,,,,,3.30000000000000E+01,,,2.53000000000000E+01,,,3.01000000000000E+01,2.79000000000000E+01,,,2.36000000000000E+01,,,,,,,
NCL,,,,,,,,,,,,,,,,,,,,,,,,,,,,,,,,,,,,,1.95000000000000E+01,,,,,,,,,,,,,,,
NER,,,,,,,,,,,,,,,,,,,,,,,,,,,,,,,,,,,,,,,,,,,,,,8.38000000000000E+01,,,,,,
NIC,,,,,,,,,,,,,,,,,,,,,,,,,,,,,,,,,,4.27000000000000E+01,,3.78000000000000E+01,3.89000000000000E+01,3.61000000000000E+01,3.70000000000000E+01,3.78000000000000E+01,4.86000000000000E+01,3.70000000000000E+01,3.73000000000000E+01,5.36000000000000E+01,5.22000000000000E+01,5.07000000000000E+01,5.02000000000000E+01,5.07000000000000E+01,,,,
NLD,,,,,,,,,,,,,,,,,,,,,,,,,,,,1.15000000000000E+01,1.19000000000000E+01,1.17000000000000E+01,1.19000000000000E+01,1.14000000000000E+01,1.23000000000000E+01,1.28000000000000E+01,1.33000000000000E+01,1.37000000000000E+01,1.36000000000000E+01,1.38000000000000E+01,1.31000000000000E+01,1.28000000000000E+01,1.26000000000000E+01,1.29000000000000E+01,1.34000000000000E+01,1.36000000000000E+01,1.41000000000000E+01,1.46000000000000E+01,1.51000000000000E+01,1.57000000000000E+01,1.58000000000000E+01,1.61000000000000E+01,,
NOR,,,,,,,,,,,,,,,,,,,,,1.70000000000000E+01,1.63000000000000E+01,1.66000000000000E+01,1.65000000000000E+01,1.66000000000000E+01,1.55000000000000E+01,1.57000000000000E+01,1.48000000000000E+01,1.49000000000000E+01,1.52000000000000E+01,1.46000000000000E+01,1.43000000000000E+01,1.36000000000000E+01,1.32000000000000E+01,1.28000000000000E+01,1.21000000000000E+01,1.14000000000000E+01,1.13000000000000E+01,1.13000000000000E+01,1.02000000000000E+01,9.90000000000000E+00,9.40000000000000E+00,1.00000000000000E+01,1.01000000000000E+01,1.05000000000000E+01,1.02000000000000E+01,1.17000000000000E+01,1.10000000000000E+01,1.10000000000000E+01,1.10000000000000E+01,,
NPL,,,,,,,,,,,,,,,,,,,,,,,,,,,,,,,,,,,,,,,,,,6.63000000000000E+01,,,,,,,,,,
NZL,,,,,,,,,,,,,,,,,,,,,,1.70000000000000E+01,,,,,2.16000000000000E+01,2.19000000000000E+01,2.34000000000000E+01,2.43000000000000E+01,2.47000000000000E+01,2.53000000000000E+01,2.63000000000000E+01,2.63000000000000E+01,2.57000000000000E+01,2.54000000000000E+01,2.58000000000000E+01,2.49000000000000E+01,2.54000000000000E+01,2.61000000000000E+01,2.56000000000000E+01,2.46000000000000E+01,2.43000000000000E+01,2.44000000000000E+01,2.38000000000000E+01,2.27000000000000E+01,2.18000000000000E+01,2.10000000000000E+01,2.12000000000000E+01,,,
OEC,,,,,,,,,,,,,,,,,,,,,,,,,,,,,,,,1.75289440342301E+01,1.78805528147722E+01,1.78754264012190E+01,1.76280323716359E+01,1.74155758390985E+01,1.73569549418630E+01,1.72083482488720E+01,1.69241770053984E+01,1.67851154641963E+01,1.64196284824790E+01,1.62774531433757E+01,1.62434843948325E+01,1.64530340723497E+01,1.65123111493827E+01,1.63003863306393E+01,1.60242756775873E+01,1.58350783551779E+01,1.56588569158600E+01,,,
OED,,,,,,,,,,,,,,,,,,,,,,,,,,,,,,,,2.18513637572051E+01,2.19903296567093E+01,2.19563333948017E+01,2.16182863080432E+01,2.11063857164501E+01,2.11419661789490E+01,2.10620021069792E+01,2.06811106472870E+01,2.05442808488606E+01,1.99010523747039E+01,1.98771663818647E+01,1.97367361228433E+01,1.98693507113140E+01,1.99701809397410E+01,1.95839454058157E+01,1.91077661387156E+01,1.87571998843355E+01,1.85403997291302E+01,,,
OMN,,,,,,,,,,,,,,,,,,,,,,,,,,,,,,,,,,1.35000000000000E+01,,,1.35000000000000E+01,,,,1.16000000000000E+01,,,,,,,,,,,
PAK,,,,,,,,,,,,,,,,,,,,,,,,,,,,,,,,,,,,6.46000000000000E+01,6.46000000000000E+01,6.30000000000000E+01,6.31000000000000E+01,6.31000000000000E+01,6.40000000000000E+01,6.40000000000000E+01,5.97000000000000E+01,5.97000000000000E+01,6.08000000000000E+01,6.08000000000000E+01,5.99000000000000E+01,5.94000000000000E+01,6.05000000000000E+01,,,
PAN,,,,,,,,,,,,,,,,,,,,,,,4.15000000000000E+01,3.72000000000000E+01,3.94000000000000E+01,4.17000000000000E+01,4.04000000000000E+01,4.12000000000000E+01,4.75000000000000E+01,4.68000000000000E+01,,,4.31000000000000E+01,4.08000000000000E+01,3.80000000000000E+01,3.87000000000000E+01,3.88000000000000E+01,4.03000000000000E+01,3.83000000000000E+01,3.84000000000000E+01,3.97000000000000E+01,3.98000000000000E+01,3.99000000000000E+01,4.05000000000000E+01,3.91000000000000E+01,3.91000000000000E+01,3.73000000000000E+01,3.41000000000000E+01,3.28000000000000E+01,,,
PER,,,,,,,,,,,,,,,,,,,,,,,,,,,,,,,3.69000000000000E+01,3.86000000000000E+01,3.96000000000000E+01,3.83000000000000E+01,3.77000000000000E+01,3.79000000000000E+01,4.33000000000000E+01,4.56000000000000E+01,4.28000000000000E+01,4.53000000000000E+01,4.52000000000000E+01,4.69000000000000E+01,3.55000000000000E+01,3.92000000000000E+01,3.77000000000000E+01,3.73000000000000E+01,3.51000000000000E+01,3.40000000000000E+01,4.10000000000000E+01,,,
PHL,,,,,,,,,,,,,,,,,,,,,,,,,,,,,,,,,,,,,,,4.97000000000000E+01,4.99000000000000E+01,4.93000000000000E+01,4.99000000000000E+01,5.07000000000000E+01,4.94000000000000E+01,4.72000000000000E+01,4.91000000000000E+01,4.85000000000000E+01,4.73000000000000E+01,4.71000000000000E+01,,,
POL,,,,,,,,,,,,,,,,,,,,,,,,,,,,,,,,,3.12000000000000E+01,3.22000000000000E+01,3.24000000000000E+01,3.14000000000000E+01,3.11000000000000E+01,3.00000000000000E+01,2.91000000000000E+01,2.92000000000000E+01,2.95000000000000E+01,2.99000000000000E+01,3.04000000000000E+01,2.98000000000000E+01,2.89000000000000E+01,2.79000000000000E+01,2.66000000000000E+01,2.55000000000000E+01,2.50000000000000E+01,2.49000000000000E+01,,
PRI,,,,,,,,,,,,,,,,,,,,,,,,,,,,,,,,2.00000000000000E+01,1.96000000000000E+01,1.96000000000000E+01,2.06000000000000E+01,2.02000000000000E+01,1.95000000000000E+01,1.93000000000000E+01,1.86000000000000E+01,1.97000000000000E+01,1.97000000000000E+01,1.87000000000000E+01,2.00000000000000E+01,1.94000000000000E+01,1.96000000000000E+01,1.98000000000000E+01,2.03000000000000E+01,2.05000000000000E+01,2.03000000000000E+01,,,
PRT,,,,,,,,,,,,,,,,,,,,,,,,,,,2.93000000000000E+01,2.97000000000000E+01,2.95000000000000E+01,2.90000000000000E+01,2.78000000000000E+01,2.88000000000000E+01,2.67000000000000E+01,2.65000000000000E+01,2.85000000000000E+01,2.96000000000000E+01,3.01000000000000E+01,2.95000000000000E+01,2.94000000000000E+01,2.77000000000000E+01,2.72000000000000E+01,2.92000000000000E+01,2.90000000000000E+01,2.85000000000000E+01,2.77000000000000E+01,2.69000000000000E+01,2.57000000000000E+01,2.61000000000000E+01,2.54000000000000E+01,2.59000000000000E+01,,
PRY,,,,,,,,,,,,,,,,,,,,,,,,,,,,,,,3.11000000000000E+01,3.08000000000000E+01,3.18000000000000E+01,3.12000000000000E+01,3.66000000000000E+01,,3.96000000000000E+01,5.41000000000000E+01,5.50000000000000E+01,5.42000000000000E+01,4.35000000000000E+01,5.52000000000000E+01,5.80000000000000E+01,5.66000000000000E+01,5.69000000000000E+01,5.46000000000000E+01,5.40000000000000E+01,5.10000000000000E+01,4.87000000000000E+01,,,
PYF,,,,,,,,,,,,,,,,,,,,,,,,,,,,,,,,,,,,,,,,,,,2.13000000000000E+01,,,,,,,,,
QAT,,,,,,,,,,,,,,,,,,,,,,,,,,,,,,,,,,,,,,1.40000000000000E+00,,,,,,,1.30000000000000E+00,,,,,,,
ROM,,,,,,,,,,,,,,,,,,,,,,,,,,,,,,,1.87000000000000E+01,2.52000000000000E+01,3.14000000000000E+01,3.16000000000000E+01,3.10000000000000E+01,3.32000000000000E+01,3.33000000000000E+01,3.49000000000000E+01,3.70000000000000E+01,3.94000000000000E+01,4.18000000000000E+01,4.24000000000000E+01,3.70000000000000E+01,3.68000000000000E+01,3.42000000000000E+01,3.55000000000000E+01,3.44000000000000E+01,3.39000000000000E+01,3.27000000000000E+01,3.30000000000000E+01,,
RUS,,,,,,,,,,,,,,,,,,,,,,,,,,,,,,,,,1.01000000000000E+01,7.60000000000000E+00,7.90000000000000E+00,7.90000000000000E+00,7.20000000000000E+00,5.50000000000000E+00,5.40000000000000E+00,1.10000000000000E+01,1.05000000000000E+01,8.40000000000000E+00,8.10000000000000E+00,8.00000000000000E+00,8.20000000000000E+00,8.30000000000000E+00,8.20000000000000E+00,8.00000000000000E+00,7.90000000000000E+00,,,
RWA,,,,,,,,,,,,,,,,,,,,,,,,,,,,,,,,,,,,,8.89000000000000E+01,,,,,,,,,,,,,,,
SAS,,,,,,,,,,,,,,,,,,,,,,,,,,,,,,,,,,,,,,,,,,,,,,7.97920729980286E+01,,,,,,
SEN,,,,,,,,,,,,,,,,,,,,,,,,,,,,,,,,7.80000000000000E+01,,,,,,,,,,7.32000000000000E+01,,,,,,,,,,
SGP,,,,,,,,,,,,,,,,,,,,,,,,,,,1.89000000000000E+01,1.90000000000000E+01,1.83000000000000E+01,1.80000000000000E+01,,1.72000000000000E+01,1.76000000000000E+01,1.79000000000000E+01,1.77000000000000E+01,1.47000000000000E+01,1.93000000000000E+01,1.77000000000000E+01,1.86000000000000E+01,1.96000000000000E+01,1.35000000000000E+01,1.94000000000000E+01,1.91000000000000E+01,1.87000000000000E+01,1.97000000000000E+01,,1.87000000000000E+01,1.93000000000000E+01,1.90000000000000E+01,9.35000000000000E+01,,
SLE,,,,,,,,,,,,,,,,,,,,,,,,,,,,,,,,,,,,,,,,,,,,,8.87000000000000E+01,,,,,,,
SLV,,,,,,,,,,,,,,,,,,,,,,,,,,,,,,,,,,3.70000000000000E+01,4.12000000000000E+01,3.95000000000000E+01,3.95000000000000E+01,3.91000000000000E+01,3.77000000000000E+01,3.56000000000000E+01,3.93000000000000E+01,3.89000000000000E+01,3.98000000000000E+01,3.68000000000000E+01,3.44000000000000E+01,3.82000000000000E+01,3.47000000000000E+01,3.57000000000000E+01,,,,
SMR,,,,,,,,,,,,,,,,,,,,,,,,,,,,,,,,,,,,1.70000000000000E+01,1.69000000000000E+01,1.66000000000000E+01,1.57000000000000E+01,1.54000000000000E+01,,1.33000000000000E+01,1.36000000000000E+01,1.34000000000000E+01,1.31000000000000E+01,1.27000000000000E+01,1.17000000000000E+01,1.13000000000000E+01,1.09000000000000E+01,,,
SRB,,,,,,,,,,,,,,,,,,,,,,,,,,,,,,,,,,,,,,,,,,,,,3.24000000000000E+01,3.04000000000000E+01,3.02000000000000E+01,2.96000000000000E+01,3.52000000000000E+01,,,
STP,,,,,,,,,,,,,,,,,,,,,,,,,,,,,,,,2.64000000000000E+01,,,,,,,,,,,,,,,,,,,,
SUR,,,,,,,,,,,,,,,,,,,,,,,,,,,,,,,,,,,,1.79000000000000E+01,2.23000000000000E+01,2.35000000000000E+01,2.06000000000000E+01,,,,,,,,,,,,,
SVK,,,,,,,,,,,,,,,,,,,,,,,,,,,,,,,,,,,8.60000000000000E+00,8.70000000000000E+00,8.70000000000000E+00,8.30000000000000E+00,9.10000000000000E+00,1.04000000000000E+01,1.08000000000000E+01,1.14000000000000E+01,1.19000000000000E+01,1.30000000000000E+01,1.60000000000000E+01,1.71000000000000E+01,1.67000000000000E+01,1.73000000000000E+01,1.84000000000000E+01,2.03000000000000E+01,,
SVN,,,,,,,,,,,,,,,,,,,,,,,,,,,,,,,,,,1.80000000000000E+01,2.03000000000000E+01,1.92000000000000E+01,1.99000000000000E+01,2.07000000000000E+01,2.18000000000000E+01,2.10000000000000E+01,1.85000000000000E+01,1.97000000000000E+01,1.90000000000000E+01,1.66000000000000E+01,1.78000000000000E+01,1.68000000000000E+01,1.86000000000000E+01,1.81000000000000E+01,1.69000000000000E+01,1.90000000000000E+01,,
SWE,,,,,,,,,,,,,,,,,,,,,1.05000000000000E+01,1.05000000000000E+01,1.08000000000000E+01,1.05000000000000E+01,1.02000000000000E+01,9.60000000000000E+00,8.30000000000000E+00,1.31000000000000E+01,1.28000000000000E+01,1.30000000000000E+01,1.29000000000000E+01,1.30000000000000E+01,1.43000000000000E+01,1.55000000000000E+01,1.57000000000000E+01,1.73000000000000E+01,1.73000000000000E+01,1.65000000000000E+01,1.57000000000000E+01,1.61000000000000E+01,1.59000000000000E+01,1.52000000000000E+01,1.53000000000000E+01,1.50000000000000E+01,1.50000000000000E+01,1.50000000000000E+01,1.51000000000000E+01,1.49000000000000E+01,1.44000000000000E+01,1.47000000000000E+01,,
SWZ,,,,,,,,,,,,,,,,,,,,,,,,,,,,,,,,,,,,,,1.61000000000000E+01,,,,,,,,,,,,,,
SYC,,,,,,,,,,,,,,,,,,,,,,,,,,,,1.53000000000000E+01,,,,,,,,,,,,,,,,,,,,,,,,
SYR,,,,,,,,,,,,,,,,,,,,,,,,,,,,,,,,,,,,,,,,,,5.02000000000000E+01,,,,,,4.85000000000000E+01,,,,
TCA,,,,,,,,,,,,,,,,,,,,,,,,,,,,,,,,,,,,,,,,,,,,1.20000000000000E+01,1.16000000000000E+01,9.50000000000000E+00,6.30000000000000E+00,5.70000000000000E+00,,,,
TCD,,,,,,,,,,,,,,,,,,,,,,,,,,,,,,,,,,8.99000000000000E+01,,,,,,,,,,,,,,,,,,
TGO,,,,,,,,,,,,,,,,,,,,,,,,,,,,,,,,,,,,,,,,,,,,,,,8.34000000000000E+01,,,,,
THA,,,,,,,,,,,,,,,,,,,,,,,,,,,,7.01000000000000E+01,7.04000000000000E+01,7.07000000000000E+01,6.90000000000000E+01,6.70000000000000E+01,6.62000000000000E+01,6.32000000000000E+01,6.26000000000000E+01,6.17000000000000E+01,5.95000000000000E+01,6.03000000000000E+01,6.25000000000000E+01,6.11000000000000E+01,5.98000000000000E+01,5.92000000000000E+01,5.94000000000000E+01,5.91000000000000E+01,5.55000000000000E+01,5.55000000000000E+01,5.57000000000000E+01,5.54000000000000E+01,5.63000000000000E+01,5.43000000000000E+01,,
TJK,,,,,,,,,,,,,,,,,,,,,,,,,,,,,,,,,,,,,,,,,,,,4.24000000000000E+01,,,,,,,,
TON,,,,,,,,,,,,,,,,,,,,,,,,,,,,,,,,,,,,,5.64000000000000E+01,,,,,,,,,,,,,,,
TTO,,,,,,,,,,,,,,,,,,,,,,,,,,,,2.53000000000000E+01,2.66000000000000E+01,2.55000000000000E+01,2.61000000000000E+01,2.36000000000000E+01,2.53000000000000E+01,2.65000000000000E+01,2.59000000000000E+01,2.61000000000000E+01,2.51000000000000E+01,2.40000000000000E+01,2.35000000000000E+01,2.42000000000000E+01,2.42000000000000E+01,2.48000000000000E+01,2.47000000000000E+01,2.38000000000000E+01,2.37000000000000E+01,2.28000000000000E+01,,,,,,
TUN,,,,,,,,,,,,,,,,,,,,,,,,,,,,,,3.01000000000000E+01,,,,,2.89000000000000E+01,,,,,,,,,,,,,,,,,
TUR,,,,,,,,,,,,,,,,,,,,,,,,,,,,,5.22000000000000E+01,5.35000000000000E+01,5.35000000000000E+01,5.42000000000000E+01,5.33000000000000E+01,5.28000000000000E+01,5.27000000000000E+01,5.21000000000000E+01,5.05000000000000E+01,4.98000000000000E+01,4.94000000000000E+01,4.96000000000000E+01,4.65000000000000E+01,4.75000000000000E+01,4.51000000000000E+01,4.45000000000000E+01,4.50000000000000E+01,4.22000000000000E+01,4.00000000000000E+01,3.68000000000000E+01,3.61000000000000E+01,3.66000000000000E+01,,
TUV,,,,,,,,,,,,,,,,,,,,,,,,,,,,,,,,,,,,,,,,,,,4.30000000000000E+00,,,,,,,,,
TZA,,,,,,,,,,,,,,,,,,,,,,,,,,,,,,,,,,,,,,,,,,9.02000000000000E+01,,,,,8.47000000000000E+01,,,,,
UGA,,,,,,,,,,,,,,,,,,,,,,,,,,,,,,,,,,,,,,,,,,,7.99000000000000E+01,7.78000000000000E+01,,,,,,,,
UKR,,,,,,,,,,,,,,,,,,,,,,,,,,,,,,,,,,,,9.00000000000000E+00,9.30000000000000E+00,1.35000000000000E+01,1.55000000000000E+01,8.50000000000000E+00,9.40000000000000E+00,1.07000000000000E+01,1.18000000000000E+01,1.24000000000000E+01,1.66000000000000E+01,1.71000000000000E+01,1.81000000000000E+01,1.82000000000000E+01,1.68000000000000E+01,,,
URY,,,,,,,,,,,,,,,,,,,,,,,,,,,,,,,,,,,,,,,3.02000000000000E+01,3.05000000000000E+01,3.04000000000000E+01,3.22000000000000E+01,3.44000000000000E+01,3.45000000000000E+01,3.33000000000000E+01,3.24000000000000E+01,3.23000000000000E+01,3.22000000000000E+01,,,,
USA,,,,,,,,,,,,,,,,,,,,,1.14000000000000E+01,1.13000000000000E+01,1.16000000000000E+01,1.17000000000000E+01,1.13000000000000E+01,1.09000000000000E+01,1.08000000000000E+01,1.08000000000000E+01,1.08000000000000E+01,1.06000000000000E+01,1.05000000000000E+01,1.08000000000000E+01,1.06000000000000E+01,1.09000000000000E+01,1.03000000000000E+01,9.90000000000000E+00,9.80000000000000E+00,9.50000000000000E+00,9.20000000000000E+00,8.90000000000000E+00,8.60000000000000E+00,8.50000000000000E+00,8.40000000000000E+00,8.80000000000000E+00,8.90000000000000E+00,8.80000000000000E+00,8.60000000000000E+00,8.40000000000000E+00,8.30000000000000E+00,,,
VCT,,,,,,,,,,,,,,,,,,,,,,,,,,,,,,,,2.86000000000000E+01,,,,,,,,,,,,,,,,,,,,
VEN,,,,,,,,,,,,,,,,,,,,,,,,,,,,,,,,,,,4.24000000000000E+01,4.07000000000000E+01,4.06000000000000E+01,3.71000000000000E+01,3.91000000000000E+01,4.06000000000000E+01,4.20000000000000E+01,3.97000000000000E+01,3.88000000000000E+01,3.94000000000000E+01,4.52000000000000E+01,4.36000000000000E+01,4.28000000000000E+01,4.14000000000000E+01,4.22000000000000E+01,4.33000000000000E+01,,
VNM,,,,,,,,,,,,,,,,,,,,,,,,,,,,,,,,,,,,,7.94000000000000E+01,7.77000000000000E+01,7.52000000000000E+01,7.81000000000000E+01,7.72000000000000E+01,7.45000000000000E+01,7.54000000000000E+01,7.35000000000000E+01,7.02000000000000E+01,,,,,,,
WBG,,,,,,,,,,,,,,,,,,,,,,,,,,,,,,,,,,,,,4.46000000000000E+01,3.73000000000000E+01,3.37000000000000E+01,3.03000000000000E+01,3.19000000000000E+01,3.83000000000000E+01,4.11000000000000E+01,4.23000000000000E+01,4.14000000000000E+01,4.00000000000000E+01,3.98000000000000E+01,3.84000000000000E+01,3.37000000000000E+01,3.36000000000000E+01,,
YEM,,,,,,,,,,,,,,,,,,,,,,,,,,,,,,,,,,,,,,,,4.93000000000000E+01,,,,,,,,,,,,
ZAF,,,,,,,,,,,,,,,,,,,,,,,,,,,,,,,,,,,,,,,,,,1.74000000000000E+01,1.73000000000000E+01,1.76000000000000E+01,1.83000000000000E+01,,,1.62000000000000E+01,1.55000000000000E+01,1.58000000000000E+01,,
ZMB,,,,,,,,,,,,,,,,,,,,,3.77000000000000E+01,,,,,,,,,,5.84000000000000E+01,6.15000000000000E+01,,,,,6.83000000000000E+01,,7.35000000000000E+01,,7.43000000000000E+01,,,,,,,,,,,
ZWE,,,,,,,,,,,,,,,,,,,,,,,,,,,,,,,,,,,4.70000000000000E+01,,,4.40000000000000E+01,,4.51000000000000E+01,,,4.90000000000000E+01,,,,,,,,,
