"Country Code",1960,1961,1962,1963,1964,1965,1966,1967,1968,1969,1970,1971,1972,1973,1974,1975,1976,1977,1978,1979,1980,1981,1982,1983,1984,1985,1986,1987,1988,1989,1990,1991,1992,1993,1994,1995,1996,1997,1998,1999,2000,2001,2002,2003,2004,2005,2006,2007,2008,2009,2010,2011AFG,,,,,,,,,,,,,,,,,,,,,,,,,,,,,,,,7.90000000000000E+01,7.90000000000000E+01,7.91000000000000E+01,7.90000000000000E+01,7.90000000000000E+01,7.91000000000000E+01,7.90000000000000E+01,7.92000000000000E+01,7.92000000000000E+01,7.92000000000000E+01,7.94000000000000E+01,7.93000000000000E+01,7.84000000000000E+01,7.90000000000000E+01,7.83000000000000E+01,7.90000000000000E+01,7.85000000000000E+01,7.94000000000000E+01,7.76000000000000E+01,,
AGO,,,,,,,,,,,,,,,,,,,,,,,,,,,,,,,,8.32000000000000E+01,8.30000000000000E+01,8.25000000000000E+01,8.37000000000000E+01,8.42000000000000E+01,8.43000000000000E+01,8.36000000000000E+01,8.32000000000000E+01,8.33000000000000E+01,8.33000000000000E+01,8.32000000000000E+01,8.36000000000000E+01,8.31000000000000E+01,8.32000000000000E+01,8.34000000000000E+01,8.30000000000000E+01,8.27000000000000E+01,8.22000000000000E+01,8.15000000000000E+01,,
ALB,,,,,,,,,,,,,,,,,,,,,,,,,,,,,,,,6.02000000000000E+01,5.87000000000000E+01,5.77000000000000E+01,5.84000000000000E+01,5.95000000000000E+01,6.13000000000000E+01,5.84000000000000E+01,6.12000000000000E+01,6.06000000000000E+01,5.97000000000000E+01,5.94000000000000E+01,5.88000000000000E+01,5.88000000000000E+01,5.82000000000000E+01,5.83000000000000E+01,5.86000000000000E+01,5.92000000000000E+01,5.96000000000000E+01,5.78000000000000E+01,,
ARB,,,,,,,,,,,,,,,,,,,,,,,,,,,,,,,,6.96382713318657E+01,6.92864979143161E+01,6.89851964074716E+01,6.90027596252587E+01,6.89477656538382E+01,6.89684034771387E+01,6.90665279426367E+01,6.90948279154319E+01,6.88508965839179E+01,6.82798945186665E+01,6.83377151733397E+01,6.81417002782358E+01,6.79545464960388E+01,6.86848293228410E+01,6.92532732798541E+01,6.97862248195043E+01,6.97515240325197E+01,7.03487479446537E+01,7.06950658380310E+01,,
ARE,,,,,,,,,,,,,,,,,,,,,,,,,,,,,,,,8.96000000000000E+01,8.96000000000000E+01,8.95000000000000E+01,9.02000000000000E+01,9.01000000000000E+01,8.98000000000000E+01,8.93000000000000E+01,8.95000000000000E+01,8.96000000000000E+01,8.97000000000000E+01,8.96000000000000E+01,8.95000000000000E+01,8.95000000000000E+01,8.90000000000000E+01,8.91000000000000E+01,8.94000000000000E+01,8.97000000000000E+01,9.00000000000000E+01,9.00000000000000E+01,,
ARG,,,,,,,,,,,,,,,,,,,,,,,,,,,,,,,,7.36000000000000E+01,7.25000000000000E+01,6.99000000000000E+01,6.83000000000000E+01,6.38000000000000E+01,6.50000000000000E+01,6.67000000000000E+01,6.83000000000000E+01,6.77000000000000E+01,6.65000000000000E+01,6.44000000000000E+01,6.51000000000000E+01,6.69000000000000E+01,6.95000000000000E+01,7.13000000000000E+01,7.20000000000000E+01,7.30000000000000E+01,7.30000000000000E+01,7.25000000000000E+01,,
ARM,,,,,,,,,,,,,,,,,,,,,,,,,,,,,,,,5.57000000000000E+01,4.99000000000000E+01,5.09000000000000E+01,5.32000000000000E+01,5.58000000000000E+01,5.55000000000000E+01,5.49000000000000E+01,5.44000000000000E+01,5.28000000000000E+01,5.11000000000000E+01,4.95000000000000E+01,5.45000000000000E+01,5.28000000000000E+01,5.10000000000000E+01,5.29000000000000E+01,5.47000000000000E+01,5.69000000000000E+01,5.61000000000000E+01,5.51000000000000E+01,,
AUS,,,,,,,,,,,,,,,,,,,,,,,,,,,,,,,,6.73000000000000E+01,6.58000000000000E+01,6.53000000000000E+01,6.63000000000000E+01,6.74000000000000E+01,6.72000000000000E+01,6.67000000000000E+01,6.70000000000000E+01,6.73000000000000E+01,6.77000000000000E+01,6.70000000000000E+01,6.72000000000000E+01,6.75000000000000E+01,6.78000000000000E+01,6.87000000000000E+01,6.89000000000000E+01,6.96000000000000E+01,6.97000000000000E+01,6.80000000000000E+01,,
AUT,,,,,,,,,,,,,,,,,,,,,,,,,,,,,,,,6.76000000000000E+01,6.76000000000000E+01,6.70000000000000E+01,6.77000000000000E+01,6.80000000000000E+01,6.70000000000000E+01,6.63000000000000E+01,6.62000000000000E+01,6.65000000000000E+01,6.64000000000000E+01,6.54000000000000E+01,6.54000000000000E+01,6.50000000000000E+01,6.28000000000000E+01,6.40000000000000E+01,6.49000000000000E+01,6.62000000000000E+01,6.61000000000000E+01,6.47000000000000E+01,,
AZE,,,,,,,,,,,,,,,,,,,,,,,,,,,,,,,,6.62000000000000E+01,6.53000000000000E+01,6.43000000000000E+01,6.38000000000000E+01,6.21000000000000E+01,6.32000000000000E+01,6.37000000000000E+01,6.43000000000000E+01,6.66000000000000E+01,6.55000000000000E+01,6.41000000000000E+01,6.26000000000000E+01,6.09000000000000E+01,6.21000000000000E+01,6.22000000000000E+01,6.22000000000000E+01,6.18000000000000E+01,6.17000000000000E+01,6.21000000000000E+01,,
BDI,,,,,,,,,,,,,,,,,,,,,,,,,,,,,,,,8.37000000000000E+01,8.36000000000000E+01,8.35000000000000E+01,8.36000000000000E+01,8.35000000000000E+01,8.35000000000000E+01,8.37000000000000E+01,8.37000000000000E+01,8.32000000000000E+01,8.29000000000000E+01,8.26000000000000E+01,8.23000000000000E+01,8.17000000000000E+01,8.16000000000000E+01,8.12000000000000E+01,8.12000000000000E+01,8.11000000000000E+01,8.12000000000000E+01,8.10000000000000E+01,,
BEL,,,,,,,,,,,,,,,,,,,,,,,,,,,,,,,,5.84000000000000E+01,5.80000000000000E+01,5.67000000000000E+01,5.63000000000000E+01,5.66000000000000E+01,5.63000000000000E+01,5.62000000000000E+01,5.59000000000000E+01,5.66000000000000E+01,5.81000000000000E+01,5.69000000000000E+01,5.62000000000000E+01,5.55000000000000E+01,5.57000000000000E+01,5.67000000000000E+01,5.64000000000000E+01,5.71000000000000E+01,5.69000000000000E+01,5.60000000000000E+01,,
BEN,,,,,,,,,,,,,,,,,,,,,,,,,,,,,,,,8.84000000000000E+01,8.74000000000000E+01,8.69000000000000E+01,8.64000000000000E+01,8.57000000000000E+01,8.50000000000000E+01,8.39000000000000E+01,8.27000000000000E+01,8.16000000000000E+01,8.06000000000000E+01,7.94000000000000E+01,7.83000000000000E+01,7.82000000000000E+01,7.82000000000000E+01,7.82000000000000E+01,7.82000000000000E+01,7.81000000000000E+01,7.81000000000000E+01,7.72000000000000E+01,,
BFA,,,,,,,,,,,,,,,,,,,,,,,,,,,,,,,,8.81000000000000E+01,8.80000000000000E+01,8.81000000000000E+01,8.80000000000000E+01,8.82000000000000E+01,8.81000000000000E+01,8.81000000000000E+01,8.81000000000000E+01,8.81000000000000E+01,8.80000000000000E+01,8.80000000000000E+01,8.80000000000000E+01,8.80000000000000E+01,8.79000000000000E+01,8.80000000000000E+01,8.80000000000000E+01,8.81000000000000E+01,8.82000000000000E+01,8.80000000000000E+01,,
BGD,,,,,,,,,,,,,,,,,,,,,,,,,,,,,,,,8.68000000000000E+01,8.49000000000000E+01,8.59000000000000E+01,8.51000000000000E+01,8.42000000000000E+01,8.47000000000000E+01,8.41000000000000E+01,8.42000000000000E+01,8.35000000000000E+01,8.32000000000000E+01,8.29000000000000E+01,8.26000000000000E+01,8.16000000000000E+01,8.13000000000000E+01,8.18000000000000E+01,8.06000000000000E+01,8.02000000000000E+01,7.97000000000000E+01,7.95000000000000E+01,,
BGR,,,,,,,,,,,,,,,,,,,,,,,,,,,,,,,,5.00000000000000E+01,5.27000000000000E+01,4.76000000000000E+01,4.79000000000000E+01,5.01000000000000E+01,5.10000000000000E+01,5.05000000000000E+01,5.10000000000000E+01,4.96000000000000E+01,4.79000000000000E+01,4.49000000000000E+01,4.58000000000000E+01,4.81000000000000E+01,4.98000000000000E+01,5.07000000000000E+01,5.33000000000000E+01,5.63000000000000E+01,5.88000000000000E+01,5.70000000000000E+01,,
BHR,,,,,,,,,,,,,,,,,,,,,,,,,,,,,,,,8.37000000000000E+01,8.37000000000000E+01,8.36000000000000E+01,8.36000000000000E+01,8.36000000000000E+01,8.34000000000000E+01,8.29000000000000E+01,8.28000000000000E+01,8.27000000000000E+01,8.26000000000000E+01,8.25000000000000E+01,8.25000000000000E+01,8.26000000000000E+01,8.24000000000000E+01,8.25000000000000E+01,8.22000000000000E+01,8.21000000000000E+01,8.18000000000000E+01,8.15000000000000E+01,,
BHS,,,,,,,,,,,,,,,,,,,,,,,,,,,,,,,,6.98000000000000E+01,6.91000000000000E+01,7.04000000000000E+01,7.08000000000000E+01,7.28000000000000E+01,7.34000000000000E+01,7.31000000000000E+01,7.45000000000000E+01,7.45000000000000E+01,7.43000000000000E+01,7.38000000000000E+01,7.21000000000000E+01,7.14000000000000E+01,7.19000000000000E+01,7.19000000000000E+01,7.36000000000000E+01,7.37000000000000E+01,7.28000000000000E+01,6.87000000000000E+01,,
BIH,,,,,,,,,,,,,,,,,,,,,,,,,,,,,,,,4.80000000000000E+01,4.64000000000000E+01,4.50000000000000E+01,4.49000000000000E+01,4.74000000000000E+01,5.10000000000000E+01,5.07000000000000E+01,5.06000000000000E+01,5.10000000000000E+01,4.99000000000000E+01,4.94000000000000E+01,4.96000000000000E+01,4.93000000000000E+01,4.94000000000000E+01,4.93000000000000E+01,4.82000000000000E+01,4.98000000000000E+01,5.35000000000000E+01,5.15000000000000E+01,,
BLR,,,,,,,,,,,,,,,,,,,,,,,,,,,,,,,,6.59000000000000E+01,6.49000000000000E+01,6.40000000000000E+01,6.30000000000000E+01,6.20000000000000E+01,6.19000000000000E+01,6.11000000000000E+01,6.00000000000000E+01,5.88000000000000E+01,5.88000000000000E+01,5.87000000000000E+01,5.88000000000000E+01,5.89000000000000E+01,5.91000000000000E+01,5.91000000000000E+01,5.92000000000000E+01,5.93000000000000E+01,5.94000000000000E+01,5.96000000000000E+01,,
BLZ,,,,,,,,,,,,,,,,,,,,,,,,,,,,,,,,7.53000000000000E+01,7.49000000000000E+01,7.55000000000000E+01,7.45000000000000E+01,7.45000000000000E+01,7.37000000000000E+01,7.56000000000000E+01,7.37000000000000E+01,7.47000000000000E+01,7.52000000000000E+01,7.62000000000000E+01,7.55000000000000E+01,7.52000000000000E+01,7.49000000000000E+01,7.50000000000000E+01,7.54000000000000E+01,7.61000000000000E+01,7.63000000000000E+01,7.53000000000000E+01,,
BOL,,,,,,,,,,,,,,,,,,,,,,,,,,,,,,,,7.82000000000000E+01,7.81000000000000E+01,7.86000000000000E+01,7.84000000000000E+01,7.85000000000000E+01,7.87000000000000E+01,7.86000000000000E+01,7.90000000000000E+01,7.92000000000000E+01,7.87000000000000E+01,7.82000000000000E+01,7.84000000000000E+01,7.85000000000000E+01,7.90000000000000E+01,7.84000000000000E+01,7.85000000000000E+01,7.84000000000000E+01,7.85000000000000E+01,7.83000000000000E+01,,
BRA,,,,,,,,,,,,,,,,,,,,,,,,,,,,,,,,7.84000000000000E+01,8.07000000000000E+01,8.06000000000000E+01,8.04000000000000E+01,8.00000000000000E+01,7.81000000000000E+01,7.79000000000000E+01,7.67000000000000E+01,7.60000000000000E+01,7.57000000000000E+01,7.54000000000000E+01,7.57000000000000E+01,7.51000000000000E+01,7.63000000000000E+01,7.67000000000000E+01,7.72000000000000E+01,7.72000000000000E+01,7.79000000000000E+01,7.69000000000000E+01,,
BRB,,,,,,,,,,,,,,,,,,,,,,,,,,,,,,,,6.54000000000000E+01,6.12000000000000E+01,6.01000000000000E+01,6.36000000000000E+01,6.55000000000000E+01,6.75000000000000E+01,6.89000000000000E+01,7.09000000000000E+01,7.16000000000000E+01,7.20000000000000E+01,7.15000000000000E+01,7.09000000000000E+01,7.01000000000000E+01,7.19000000000000E+01,7.23000000000000E+01,7.24000000000000E+01,7.31000000000000E+01,7.27000000000000E+01,7.21000000000000E+01,,
BRN,,,,,,,,,,,,,,,,,,,,,,,,,,,,,,,,7.86000000000000E+01,7.83000000000000E+01,7.78000000000000E+01,7.75000000000000E+01,7.72000000000000E+01,7.68000000000000E+01,7.64000000000000E+01,7.61000000000000E+01,7.58000000000000E+01,7.54000000000000E+01,7.49000000000000E+01,7.45000000000000E+01,7.40000000000000E+01,7.34000000000000E+01,7.29000000000000E+01,7.25000000000000E+01,7.18000000000000E+01,7.12000000000000E+01,7.15000000000000E+01,,
BTN,,,,,,,,,,,,,,,,,,,,,,,,,,,,,,,,6.61000000000000E+01,6.68000000000000E+01,6.73000000000000E+01,6.78000000000000E+01,6.79000000000000E+01,6.88000000000000E+01,6.94000000000000E+01,6.96000000000000E+01,7.00000000000000E+01,7.03000000000000E+01,7.04000000000000E+01,7.03000000000000E+01,7.09000000000000E+01,7.02000000000000E+01,6.93000000000000E+01,6.87000000000000E+01,6.75000000000000E+01,6.72000000000000E+01,6.86000000000000E+01,,
BWA,,,,,,,,,,,,,,,,,,,,,,,,,,,,,,,,6.41000000000000E+01,6.57000000000000E+01,6.51000000000000E+01,6.53000000000000E+01,6.51000000000000E+01,6.52000000000000E+01,6.56000000000000E+01,6.59000000000000E+01,6.45000000000000E+01,6.35000000000000E+01,6.38000000000000E+01,6.43000000000000E+01,6.35000000000000E+01,6.41000000000000E+01,6.48000000000000E+01,6.82000000000000E+01,6.82000000000000E+01,6.82000000000000E+01,6.80000000000000E+01,,
CAF,,,,,,,,,,,,,,,,,,,,,,,,,,,,,,,,8.09000000000000E+01,8.09000000000000E+01,8.10000000000000E+01,8.11000000000000E+01,8.10000000000000E+01,8.05000000000000E+01,8.10000000000000E+01,8.08000000000000E+01,8.06000000000000E+01,8.05000000000000E+01,8.04000000000000E+01,8.03000000000000E+01,8.02000000000000E+01,8.04000000000000E+01,8.04000000000000E+01,8.04000000000000E+01,8.03000000000000E+01,8.02000000000000E+01,8.04000000000000E+01,,
CAN,,,,,,,,,,,,,,,,,,,,,,,,,,,,,,,,6.69000000000000E+01,6.49000000000000E+01,6.44000000000000E+01,6.50000000000000E+01,6.52000000000000E+01,6.49000000000000E+01,6.53000000000000E+01,6.58000000000000E+01,6.66000000000000E+01,6.72000000000000E+01,6.67000000000000E+01,6.69000000000000E+01,6.74000000000000E+01,6.76000000000000E+01,6.75000000000000E+01,6.76000000000000E+01,6.79000000000000E+01,6.80000000000000E+01,6.60000000000000E+01,,
CHE,,,,,,,,,,,,,,,,,,,,,,,,,,,,,,,,8.08000000000000E+01,7.94000000000000E+01,7.87000000000000E+01,7.77000000000000E+01,7.76000000000000E+01,7.61000000000000E+01,7.51000000000000E+01,7.58000000000000E+01,7.60000000000000E+01,7.57000000000000E+01,7.59000000000000E+01,7.45000000000000E+01,7.36000000000000E+01,7.28000000000000E+01,7.20000000000000E+01,7.26000000000000E+01,7.33000000000000E+01,7.29000000000000E+01,7.09000000000000E+01,,
CHL,,,,,,,,,,,,,,,,,,,,,,,,,,,,,,,,7.24000000000000E+01,7.18000000000000E+01,7.39000000000000E+01,7.21000000000000E+01,7.22000000000000E+01,7.24000000000000E+01,7.23000000000000E+01,7.20000000000000E+01,6.89000000000000E+01,6.79000000000000E+01,6.78000000000000E+01,6.72000000000000E+01,6.72000000000000E+01,6.76000000000000E+01,6.78000000000000E+01,6.83000000000000E+01,6.92000000000000E+01,7.08000000000000E+01,6.68000000000000E+01,,
CHN,,,,,,,,,,,,,,,,,,,,,,,,,,,,,,,,8.02000000000000E+01,8.09000000000000E+01,8.10000000000000E+01,8.10000000000000E+01,8.09000000000000E+01,8.09000000000000E+01,8.09000000000000E+01,8.07000000000000E+01,8.02000000000000E+01,8.00000000000000E+01,7.98000000000000E+01,8.03000000000000E+01,7.99000000000000E+01,7.91000000000000E+01,7.85000000000000E+01,7.79000000000000E+01,7.74000000000000E+01,7.67000000000000E+01,7.64000000000000E+01,,
CIV,,,,,,,,,,,,,,,,,,,,,,,,,,,,,,,,8.14000000000000E+01,7.98000000000000E+01,7.99000000000000E+01,7.99000000000000E+01,8.04000000000000E+01,7.97000000000000E+01,7.90000000000000E+01,7.82000000000000E+01,7.81000000000000E+01,7.79000000000000E+01,7.80000000000000E+01,7.80000000000000E+01,7.80000000000000E+01,7.81000000000000E+01,7.81000000000000E+01,7.81000000000000E+01,7.80000000000000E+01,7.79000000000000E+01,7.81000000000000E+01,,
CMR,,,,,,,,,,,,,,,,,,,,,,,,,,,,,,,,7.55000000000000E+01,7.55000000000000E+01,7.55000000000000E+01,7.55000000000000E+01,7.56000000000000E+01,7.52000000000000E+01,7.51000000000000E+01,7.50000000000000E+01,7.49000000000000E+01,7.49000000000000E+01,7.47000000000000E+01,7.46000000000000E+01,7.45000000000000E+01,7.44000000000000E+01,7.43000000000000E+01,7.44000000000000E+01,7.44000000000000E+01,7.44000000000000E+01,7.42000000000000E+01,,
COG,,,,,,,,,,,,,,,,,,,,,,,,,,,,,,,,7.77000000000000E+01,7.76000000000000E+01,7.74000000000000E+01,7.72000000000000E+01,7.74000000000000E+01,7.73000000000000E+01,7.71000000000000E+01,7.71000000000000E+01,7.69000000000000E+01,7.71000000000000E+01,7.69000000000000E+01,7.69000000000000E+01,7.67000000000000E+01,7.68000000000000E+01,7.69000000000000E+01,7.68000000000000E+01,7.66000000000000E+01,7.68000000000000E+01,7.68000000000000E+01,,
COL,,,,,,,,,,,,,,,,,,,,,,,,,,,,,,,,6.88000000000000E+01,6.99000000000000E+01,7.06000000000000E+01,7.03000000000000E+01,7.02000000000000E+01,6.93000000000000E+01,7.00000000000000E+01,7.06000000000000E+01,7.06000000000000E+01,7.05000000000000E+01,6.96000000000000E+01,6.92000000000000E+01,6.94000000000000E+01,7.02000000000000E+01,7.11000000000000E+01,7.02000000000000E+01,7.09000000000000E+01,7.06000000000000E+01,7.00000000000000E+01,,
COM,,,,,,,,,,,,,,,,,,,,,,,,,,,,,,,,8.01000000000000E+01,8.04000000000000E+01,7.99000000000000E+01,7.94000000000000E+01,7.94000000000000E+01,7.89000000000000E+01,7.86000000000000E+01,7.81000000000000E+01,7.78000000000000E+01,7.76000000000000E+01,7.77000000000000E+01,7.79000000000000E+01,7.81000000000000E+01,7.83000000000000E+01,7.87000000000000E+01,7.89000000000000E+01,7.92000000000000E+01,7.94000000000000E+01,7.95000000000000E+01,,
CPV,,,,,,,,,,,,,,,,,,,,,,,,,,,,,,,,7.88000000000000E+01,7.89000000000000E+01,7.90000000000000E+01,7.88000000000000E+01,7.86000000000000E+01,7.83000000000000E+01,7.80000000000000E+01,7.77000000000000E+01,7.75000000000000E+01,7.69000000000000E+01,7.66000000000000E+01,7.62000000000000E+01,7.59000000000000E+01,7.57000000000000E+01,7.56000000000000E+01,7.55000000000000E+01,7.54000000000000E+01,7.52000000000000E+01,7.53000000000000E+01,,
CRI,,,,,,,,,,,,,,,,,,,,,,,,,,,,,,,,7.93000000000000E+01,7.93000000000000E+01,7.98000000000000E+01,8.02000000000000E+01,8.01000000000000E+01,7.73000000000000E+01,7.95000000000000E+01,8.06000000000000E+01,7.89000000000000E+01,7.84000000000000E+01,7.72000000000000E+01,7.66000000000000E+01,7.60000000000000E+01,7.57000000000000E+01,7.70000000000000E+01,7.67000000000000E+01,7.82000000000000E+01,7.81000000000000E+01,7.64000000000000E+01,,
CUB,,,,,,,,,,,,,,,,,,,,,,,,,,,,,,,,7.10000000000000E+01,6.83000000000000E+01,7.00000000000000E+01,7.05000000000000E+01,6.71000000000000E+01,6.73000000000000E+01,6.72000000000000E+01,6.73000000000000E+01,6.66000000000000E+01,6.66000000000000E+01,6.69000000000000E+01,6.68000000000000E+01,6.68000000000000E+01,6.65000000000000E+01,6.61000000000000E+01,6.56000000000000E+01,6.61000000000000E+01,6.79000000000000E+01,6.57000000000000E+01,,
CYP,,,,,,,,,,,,,,,,,,,,,,,,,,,,,,,,7.06000000000000E+01,7.13000000000000E+01,7.05000000000000E+01,7.09000000000000E+01,6.98000000000000E+01,6.94000000000000E+01,7.02000000000000E+01,6.87000000000000E+01,6.77000000000000E+01,6.84000000000000E+01,6.88000000000000E+01,6.84000000000000E+01,6.82000000000000E+01,6.90000000000000E+01,6.80000000000000E+01,6.79000000000000E+01,6.82000000000000E+01,6.79000000000000E+01,6.70000000000000E+01,,
CZE,,,,,,,,,,,,,,,,,,,,,,,,,,,,,,,,6.96000000000000E+01,6.93000000000000E+01,6.90000000000000E+01,6.89000000000000E+01,6.90000000000000E+01,6.90000000000000E+01,6.77000000000000E+01,6.66000000000000E+01,6.48000000000000E+01,6.41000000000000E+01,6.42000000000000E+01,6.48000000000000E+01,6.40000000000000E+01,6.33000000000000E+01,6.42000000000000E+01,6.46000000000000E+01,6.55000000000000E+01,6.59000000000000E+01,6.37000000000000E+01,,
DEU,,,,,,,,,,,,,,,,,,,,,,,,,,,,,,,,6.92000000000000E+01,6.75000000000000E+01,6.58000000000000E+01,6.52000000000000E+01,6.46000000000000E+01,6.33000000000000E+01,6.27000000000000E+01,6.27000000000000E+01,6.30000000000000E+01,6.28000000000000E+01,6.21000000000000E+01,6.09000000000000E+01,6.00000000000000E+01,5.90000000000000E+01,5.93000000000000E+01,5.99000000000000E+01,6.13000000000000E+01,6.21000000000000E+01,6.14000000000000E+01,,
DNK,,,,,,,,,,,,,,,,,,,,,,,,,,,,,,,,6.83000000000000E+01,6.80000000000000E+01,6.56000000000000E+01,6.63000000000000E+01,6.89000000000000E+01,6.89000000000000E+01,6.99000000000000E+01,6.91000000000000E+01,6.94000000000000E+01,6.88000000000000E+01,6.93000000000000E+01,6.91000000000000E+01,6.83000000000000E+01,6.83000000000000E+01,6.83000000000000E+01,6.92000000000000E+01,6.88000000000000E+01,6.92000000000000E+01,6.60000000000000E+01,,
DOM,,,,,,,,,,,,,,,,,,,,,,,,,,,,,,,,7.45000000000000E+01,7.42000000000000E+01,7.41000000000000E+01,7.58000000000000E+01,7.74000000000000E+01,7.52000000000000E+01,7.54000000000000E+01,7.56000000000000E+01,7.55000000000000E+01,7.49000000000000E+01,7.41000000000000E+01,7.37000000000000E+01,7.35000000000000E+01,7.27000000000000E+01,7.25000000000000E+01,7.27000000000000E+01,7.26000000000000E+01,7.30000000000000E+01,7.28000000000000E+01,,
DZA,,,,,,,,,,,,,,,,,,,,,,,,,,,,,,,,6.10000000000000E+01,5.98000000000000E+01,6.02000000000000E+01,5.98000000000000E+01,5.76000000000000E+01,5.81000000000000E+01,5.91000000000000E+01,5.92000000000000E+01,5.94000000000000E+01,5.65000000000000E+01,5.85000000000000E+01,5.96000000000000E+01,6.12000000000000E+01,6.58000000000000E+01,6.77000000000000E+01,7.02000000000000E+01,6.92000000000000E+01,7.13000000000000E+01,7.12000000000000E+01,,
EAP,,,,,,,,,,,,,,,,,,,,,,,,,,,,,,,,8.00984363267901E+01,8.07045465446313E+01,8.06315210968948E+01,8.05260171825734E+01,8.04549606246240E+01,8.06041630862987E+01,8.04681691917864E+01,7.99091049128518E+01,7.97717344863900E+01,7.95656438811029E+01,7.93304047984973E+01,7.96260338544265E+01,7.93801609612474E+01,7.87456860602245E+01,7.81899552720934E+01,7.77608949635066E+01,7.74297300131747E+01,7.68715999628616E+01,7.67308211493522E+01,,
EAS,,,,,,,,,,,,,,,,,,,,,,,,,,,,,,,,7.94248987451135E+01,7.99726752292893E+01,7.98841328212671E+01,7.97864134155286E+01,7.97143434814050E+01,7.98466854744676E+01,7.97051458399080E+01,7.90159923686178E+01,7.88272793966993E+01,7.86429116850606E+01,7.83896922274879E+01,7.86115080410683E+01,7.83594501367192E+01,7.77952069661301E+01,7.73090926602901E+01,7.69377287898772E+01,7.66887510820902E+01,7.61543804858760E+01,7.58515563855391E+01,,
ECA,,,,,,,,,,,,,,,,,,,,,,,,,,,,,,,,6.56637537631522E+01,6.64944926168261E+01,6.56862673074791E+01,6.49071710217619E+01,6.42554435898774E+01,6.36265587733005E+01,6.26595259679838E+01,6.16338852887218E+01,6.11210558345725E+01,6.14358432253249E+01,6.13582711050949E+01,6.09491349942891E+01,6.07230129722289E+01,6.11544947138130E+01,6.18248300496491E+01,6.20395006350808E+01,6.30674033862958E+01,6.32049352631677E+01,6.14849735635097E+01,,
ECS,,,,,,,,,,,,,,,,,,,,,,,,,,,,,,,,6.49371767456038E+01,6.44158169317811E+01,6.31360030799252E+01,6.23786116525091E+01,6.20848781193124E+01,6.16466003670905E+01,6.12883963877660E+01,6.10409678141238E+01,6.08585453839224E+01,6.11405784450884E+01,6.11260018787828E+01,6.06881721225911E+01,6.04955012457340E+01,6.05902765578533E+01,6.10573318144584E+01,6.14169803524726E+01,6.22431976802418E+01,6.23882511860848E+01,6.06036415868365E+01,,
ECU,,,,,,,,,,,,,,,,,,,,,,,,,,,,,,,,7.34000000000000E+01,7.30000000000000E+01,7.51000000000000E+01,7.30000000000000E+01,7.44000000000000E+01,7.35000000000000E+01,7.21000000000000E+01,7.47000000000000E+01,7.40000000000000E+01,7.33000000000000E+01,7.30000000000000E+01,7.28000000000000E+01,7.24000000000000E+01,7.39000000000000E+01,7.39000000000000E+01,7.41000000000000E+01,7.48000000000000E+01,7.41000000000000E+01,7.39000000000000E+01,,
EGY,,,,,,,,,,,,,,,,,,,,,,,,,,,,,,,,7.07000000000000E+01,7.09000000000000E+01,7.01000000000000E+01,6.99000000000000E+01,6.97000000000000E+01,7.06000000000000E+01,7.07000000000000E+01,7.08000000000000E+01,7.06000000000000E+01,7.01000000000000E+01,6.99000000000000E+01,6.90000000000000E+01,6.88000000000000E+01,6.85000000000000E+01,6.82000000000000E+01,6.86000000000000E+01,6.85000000000000E+01,6.90000000000000E+01,7.08000000000000E+01,,
EMU,,,,,,,,,,,,,,,,,,,,,,,,,,,,,,,,6.37326950565810E+01,6.22656304773485E+01,6.06019179405354E+01,5.97063274219217E+01,5.94916222942341E+01,5.91304934091992E+01,5.90592040230987E+01,5.94849873293736E+01,5.98842607309916E+01,6.04040759460736E+01,6.05568063145270E+01,6.02783997835840E+01,6.00672863766104E+01,5.98211030465753E+01,6.00229086091236E+01,6.04408839671842E+01,6.10127217357543E+01,6.09368121035594E+01,5.91975135880920E+01,,
ERI,,,,,,,,,,,,,,,,,,,,,,,,,,,,,,,,7.68000000000000E+01,7.65000000000000E+01,7.65000000000000E+01,7.63000000000000E+01,7.53000000000000E+01,7.54000000000000E+01,7.54000000000000E+01,7.53000000000000E+01,7.55000000000000E+01,7.54000000000000E+01,7.63000000000000E+01,7.62000000000000E+01,7.62000000000000E+01,7.65000000000000E+01,7.67000000000000E+01,7.67000000000000E+01,7.70000000000000E+01,7.68000000000000E+01,7.74000000000000E+01,,
ESP,,,,,,,,,,,,,,,,,,,,,,,,,,,,,,,,5.91000000000000E+01,5.68000000000000E+01,5.33000000000000E+01,5.23000000000000E+01,5.26000000000000E+01,5.29000000000000E+01,5.39000000000000E+01,5.56000000000000E+01,5.76000000000000E+01,5.91000000000000E+01,6.03000000000000E+01,6.04000000000000E+01,6.10000000000000E+01,6.14000000000000E+01,6.28000000000000E+01,6.36000000000000E+01,6.36000000000000E+01,6.13000000000000E+01,5.62000000000000E+01,,
EST,,,,,,,,,,,,,,,,,,,,,,,,,,,,,,,,7.43000000000000E+01,7.16000000000000E+01,6.82000000000000E+01,6.63000000000000E+01,6.36000000000000E+01,6.31000000000000E+01,6.24000000000000E+01,6.21000000000000E+01,5.89000000000000E+01,5.69000000000000E+01,5.84000000000000E+01,5.80000000000000E+01,5.94000000000000E+01,5.87000000000000E+01,5.96000000000000E+01,6.29000000000000E+01,6.49000000000000E+01,6.51000000000000E+01,5.73000000000000E+01,,
ETH,,,,,,,,,,,,,,,,,,,,,,,,,,,,,,,,8.71000000000000E+01,8.73000000000000E+01,8.77000000000000E+01,8.75000000000000E+01,8.70000000000000E+01,8.69000000000000E+01,8.69000000000000E+01,8.69000000000000E+01,8.69000000000000E+01,8.71000000000000E+01,8.73000000000000E+01,8.77000000000000E+01,8.80000000000000E+01,8.83000000000000E+01,8.86000000000000E+01,8.83000000000000E+01,8.81000000000000E+01,8.78000000000000E+01,8.78000000000000E+01,,
EUU,,,,,,,,,,,,,,,,,,,,,,,,,,,,,,,,6.40304310341817E+01,6.26360359858521E+01,6.09821202572547E+01,6.02481228983204E+01,6.02950464633212E+01,6.00522978581428E+01,6.01876743827772E+01,6.04444106998536E+01,6.04557509006481E+01,6.06042943633559E+01,6.05269001465213E+01,5.99120280960281E+01,5.98019256976529E+01,5.96257566454276E+01,5.99408166146708E+01,6.04595282970644E+01,6.11683556660037E+01,6.13653812024139E+01,5.94064815424236E+01,,
FIN,,,,,,,,,,,,,,,,,,,,,,,,,,,,,,,,6.49000000000000E+01,5.97000000000000E+01,5.59000000000000E+01,5.51000000000000E+01,5.53000000000000E+01,5.52000000000000E+01,5.77000000000000E+01,5.86000000000000E+01,6.13000000000000E+01,6.21000000000000E+01,6.24000000000000E+01,6.19000000000000E+01,6.13000000000000E+01,6.07000000000000E+01,5.96000000000000E+01,6.05000000000000E+01,6.13000000000000E+01,6.20000000000000E+01,5.92000000000000E+01,,
FJI,,,,,,,,,,,,,,,,,,,,,,,,,,,,,,,,7.88000000000000E+01,7.85000000000000E+01,7.74000000000000E+01,7.68000000000000E+01,7.63000000000000E+01,7.52000000000000E+01,7.53000000000000E+01,7.56000000000000E+01,7.50000000000000E+01,7.50000000000000E+01,7.50000000000000E+01,7.47000000000000E+01,7.55000000000000E+01,7.55000000000000E+01,7.56000000000000E+01,7.55000000000000E+01,7.58000000000000E+01,7.58000000000000E+01,7.54000000000000E+01,,
FRA,,,,,,,,,,,,,,,,,,,,,,,,,,,,,,,,5.96000000000000E+01,5.88000000000000E+01,5.74000000000000E+01,5.62000000000000E+01,5.66000000000000E+01,5.65000000000000E+01,5.60000000000000E+01,5.62000000000000E+01,5.63000000000000E+01,5.74000000000000E+01,5.80000000000000E+01,5.78000000000000E+01,5.78000000000000E+01,5.76000000000000E+01,5.76000000000000E+01,5.73000000000000E+01,5.75000000000000E+01,5.79000000000000E+01,5.66000000000000E+01,,
GAB,,,,,,,,,,,,,,,,,,,,,,,,,,,,,,,,6.81000000000000E+01,6.73000000000000E+01,6.78000000000000E+01,6.77000000000000E+01,6.77000000000000E+01,6.75000000000000E+01,6.75000000000000E+01,6.72000000000000E+01,6.61000000000000E+01,6.66000000000000E+01,6.68000000000000E+01,6.65000000000000E+01,6.66000000000000E+01,6.64000000000000E+01,6.64000000000000E+01,6.61000000000000E+01,6.62000000000000E+01,6.57000000000000E+01,6.53000000000000E+01,,
GBR,,,,,,,,,,,,,,,,,,,,,,,,,,,,,,,,6.66000000000000E+01,6.40000000000000E+01,6.24000000000000E+01,6.27000000000000E+01,6.34000000000000E+01,6.34000000000000E+01,6.44000000000000E+01,6.51000000000000E+01,6.52000000000000E+01,6.56000000000000E+01,6.56000000000000E+01,6.52000000000000E+01,6.56000000000000E+01,6.56000000000000E+01,6.58000000000000E+01,6.55000000000000E+01,6.56000000000000E+01,6.56000000000000E+01,6.34000000000000E+01,,
GEO,,,,,,,,,,,,,,,,,,,,,,,,,,,,,,,,6.59000000000000E+01,6.33000000000000E+01,6.11000000000000E+01,6.11000000000000E+01,6.09000000000000E+01,6.40000000000000E+01,6.50000000000000E+01,6.36000000000000E+01,6.37000000000000E+01,6.57000000000000E+01,6.69000000000000E+01,6.35000000000000E+01,6.62000000000000E+01,6.35000000000000E+01,6.24000000000000E+01,6.27000000000000E+01,6.32000000000000E+01,6.11000000000000E+01,6.11000000000000E+01,,
GHA,,,,,,,,,,,,,,,,,,,,,,,,,,,,,,,,6.66000000000000E+01,6.99000000000000E+01,6.67000000000000E+01,6.70000000000000E+01,6.72000000000000E+01,6.82000000000000E+01,6.83000000000000E+01,6.91000000000000E+01,6.90000000000000E+01,6.88000000000000E+01,6.87000000000000E+01,6.85000000000000E+01,6.84000000000000E+01,6.83000000000000E+01,6.81000000000000E+01,6.80000000000000E+01,6.78000000000000E+01,6.77000000000000E+01,6.78000000000000E+01,,
GIN,,,,,,,,,,,,,,,,,,,,,,,,,,,,,,,,8.65000000000000E+01,8.66000000000000E+01,8.66000000000000E+01,8.66000000000000E+01,8.66000000000000E+01,8.65000000000000E+01,8.65000000000000E+01,8.64000000000000E+01,8.63000000000000E+01,8.63000000000000E+01,8.62000000000000E+01,8.61000000000000E+01,8.60000000000000E+01,8.60000000000000E+01,8.59000000000000E+01,8.59000000000000E+01,8.58000000000000E+01,8.58000000000000E+01,8.56000000000000E+01,,
GMB,,,,,,,,,,,,,,,,,,,,,,,,,,,,,,,,8.01000000000000E+01,8.01000000000000E+01,8.02000000000000E+01,8.01000000000000E+01,7.98000000000000E+01,8.02000000000000E+01,8.01000000000000E+01,8.02000000000000E+01,8.01000000000000E+01,8.01000000000000E+01,8.00000000000000E+01,7.98000000000000E+01,8.01000000000000E+01,8.00000000000000E+01,7.96000000000000E+01,7.96000000000000E+01,7.95000000000000E+01,7.94000000000000E+01,7.93000000000000E+01,,
GNB,,,,,,,,,,,,,,,,,,,,,,,,,,,,,,,,7.53000000000000E+01,7.52000000000000E+01,7.54000000000000E+01,7.56000000000000E+01,7.59000000000000E+01,7.61000000000000E+01,7.65000000000000E+01,7.58000000000000E+01,7.74000000000000E+01,7.76000000000000E+01,7.76000000000000E+01,7.77000000000000E+01,7.75000000000000E+01,7.78000000000000E+01,7.78000000000000E+01,7.77000000000000E+01,7.76000000000000E+01,7.77000000000000E+01,7.78000000000000E+01,,
GNQ,,,,,,,,,,,,,,,,,,,,,,,,,,,,,,,,8.51000000000000E+01,8.69000000000000E+01,8.65000000000000E+01,8.70000000000000E+01,8.72000000000000E+01,8.88000000000000E+01,9.06000000000000E+01,8.75000000000000E+01,8.75000000000000E+01,8.71000000000000E+01,8.84000000000000E+01,8.68000000000000E+01,8.64000000000000E+01,8.70000000000000E+01,8.58000000000000E+01,8.53000000000000E+01,8.61000000000000E+01,8.56000000000000E+01,8.52000000000000E+01,,
GRC,,,,,,,,,,,,,,,,,,,,,,,,,,,,,,,,6.27000000000000E+01,6.27000000000000E+01,6.16000000000000E+01,6.19000000000000E+01,6.18000000000000E+01,6.20000000000000E+01,6.14000000000000E+01,6.11000000000000E+01,6.06000000000000E+01,6.07000000000000E+01,6.03000000000000E+01,6.04000000000000E+01,6.10000000000000E+01,6.10000000000000E+01,6.11000000000000E+01,6.16000000000000E+01,6.18000000000000E+01,6.19000000000000E+01,6.05000000000000E+01,,
GTM,,,,,,,,,,,,,,,,,,,,,,,,,,,,,,,,8.48000000000000E+01,8.50000000000000E+01,8.52000000000000E+01,8.52000000000000E+01,8.45000000000000E+01,8.39000000000000E+01,8.42000000000000E+01,8.44000000000000E+01,8.47000000000000E+01,8.45000000000000E+01,8.50000000000000E+01,8.33000000000000E+01,8.33000000000000E+01,8.34000000000000E+01,8.48000000000000E+01,8.60000000000000E+01,8.57000000000000E+01,8.55000000000000E+01,8.52000000000000E+01,,
GUY,,,,,,,,,,,,,,,,,,,,,,,,,,,,,,,,7.49000000000000E+01,7.42000000000000E+01,7.41000000000000E+01,7.40000000000000E+01,7.41000000000000E+01,7.38000000000000E+01,7.35000000000000E+01,7.40000000000000E+01,7.44000000000000E+01,7.48000000000000E+01,7.53000000000000E+01,7.25000000000000E+01,7.29000000000000E+01,7.34000000000000E+01,7.34000000000000E+01,7.42000000000000E+01,7.44000000000000E+01,7.36000000000000E+01,7.35000000000000E+01,,
HIC,,,,,,,,,,,,,,,,,,,,,,,,,,,,,,,,6.81614563386283E+01,6.72570480324671E+01,6.65029361748104E+01,6.63080581470815E+01,6.64666062231884E+01,6.63517177848262E+01,6.64762444777367E+01,6.63701956466615E+01,6.63518505043932E+01,6.65404119461861E+01,6.61724896305508E+01,6.55347143888400E+01,6.51833929648805E+01,6.52531681407922E+01,6.55259726246261E+01,6.58791682428657E+01,6.62561670360471E+01,6.59941002446508E+01,6.38234951749151E+01,,
HKG,,,,,,,,,,,,,,,,,,,,,,,,,,,,,,,,7.75000000000000E+01,7.67000000000000E+01,7.61000000000000E+01,7.52000000000000E+01,7.36000000000000E+01,7.31000000000000E+01,7.32000000000000E+01,7.07000000000000E+01,6.88000000000000E+01,6.93000000000000E+01,6.83000000000000E+01,6.61000000000000E+01,6.52000000000000E+01,6.61000000000000E+01,6.63000000000000E+01,6.65000000000000E+01,6.82000000000000E+01,6.78000000000000E+01,6.48000000000000E+01,,
HND,,,,,,,,,,,,,,,,,,,,,,,,,,,,,,,,8.36000000000000E+01,8.47000000000000E+01,8.49000000000000E+01,8.51000000000000E+01,8.53000000000000E+01,8.51000000000000E+01,8.61000000000000E+01,8.53000000000000E+01,8.55000000000000E+01,8.45000000000000E+01,8.32000000000000E+01,8.29000000000000E+01,8.13000000000000E+01,8.04000000000000E+01,8.12000000000000E+01,8.09000000000000E+01,8.09000000000000E+01,8.07000000000000E+01,7.77000000000000E+01,,
HPC,,,,,,,,,,,,,,,,,,,,,,,,,,,,,,,,7.89219982326945E+01,7.87749398253131E+01,7.87327141026015E+01,7.87495125884630E+01,7.88376093755791E+01,7.88778723873023E+01,7.88569534137224E+01,7.88638145214368E+01,7.88546479887706E+01,7.88117252061226E+01,7.88840592810226E+01,7.87530094450603E+01,7.86464841496498E+01,7.86287031870061E+01,7.85648821216225E+01,7.89568319019784E+01,7.88724670583932E+01,7.88331318102292E+01,7.86345717940266E+01,,
HRV,,,,,,,,,,,,,,,,,,,,,,,,,,,,,,,,6.16000000000000E+01,6.21000000000000E+01,6.18000000000000E+01,6.07000000000000E+01,6.01000000000000E+01,5.96000000000000E+01,5.90000000000000E+01,5.73000000000000E+01,5.60000000000000E+01,5.41000000000000E+01,5.35000000000000E+01,5.27000000000000E+01,5.34000000000000E+01,5.44000000000000E+01,5.43000000000000E+01,5.43000000000000E+01,5.62000000000000E+01,5.67000000000000E+01,5.56000000000000E+01,,
HTI,,,,,,,,,,,,,,,,,,,,,,,,,,,,,,,,7.30000000000000E+01,7.31000000000000E+01,7.28000000000000E+01,7.20000000000000E+01,7.55000000000000E+01,7.44000000000000E+01,7.39000000000000E+01,7.36000000000000E+01,7.67000000000000E+01,7.64000000000000E+01,7.62000000000000E+01,7.64000000000000E+01,7.66000000000000E+01,7.62000000000000E+01,7.72000000000000E+01,7.74000000000000E+01,7.76000000000000E+01,7.74000000000000E+01,7.81000000000000E+01,,
HUN,,,,,,,,,,,,,,,,,,,,,,,,,,,,,,,,5.64000000000000E+01,5.65000000000000E+01,5.27000000000000E+01,5.22000000000000E+01,5.26000000000000E+01,5.17000000000000E+01,5.18000000000000E+01,5.21000000000000E+01,5.34000000000000E+01,5.39000000000000E+01,5.41000000000000E+01,5.40000000000000E+01,5.46000000000000E+01,5.43000000000000E+01,5.43000000000000E+01,5.47000000000000E+01,5.47000000000000E+01,5.39000000000000E+01,5.28000000000000E+01,,
IDN,,,,,,,,,,,,,,,,,,,,,,,,,,,,,,,,7.91000000000000E+01,7.98000000000000E+01,7.91000000000000E+01,7.81000000000000E+01,7.83000000000000E+01,8.01000000000000E+01,7.98000000000000E+01,7.72000000000000E+01,8.00000000000000E+01,8.02000000000000E+01,7.89000000000000E+01,7.86000000000000E+01,7.91000000000000E+01,7.88000000000000E+01,7.79000000000000E+01,7.84000000000000E+01,7.86000000000000E+01,7.86000000000000E+01,7.95000000000000E+01,,
IND,,,,,,,,,,,,,,,,,,,,,,,,,,,,,,,,8.05000000000000E+01,8.01000000000000E+01,8.01000000000000E+01,8.04000000000000E+01,7.97000000000000E+01,7.94000000000000E+01,7.94000000000000E+01,7.93000000000000E+01,7.90000000000000E+01,7.86000000000000E+01,7.86000000000000E+01,7.85000000000000E+01,7.88000000000000E+01,7.85000000000000E+01,7.82000000000000E+01,7.81000000000000E+01,7.79000000000000E+01,7.79000000000000E+01,7.77000000000000E+01,,
IRL,,,,,,,,,,,,,,,,,,,,,,,,,,,,,,,,5.96000000000000E+01,5.82000000000000E+01,5.74000000000000E+01,5.83000000000000E+01,6.00000000000000E+01,6.04000000000000E+01,6.13000000000000E+01,6.40000000000000E+01,6.64000000000000E+01,6.82000000000000E+01,6.85000000000000E+01,6.76000000000000E+01,6.74000000000000E+01,6.78000000000000E+01,6.93000000000000E+01,7.01000000000000E+01,6.98000000000000E+01,6.75000000000000E+01,6.22000000000000E+01,,
IRN,,,,,,,,,,,,,,,,,,,,,,,,,,,,,,,,7.23000000000000E+01,7.11000000000000E+01,7.03000000000000E+01,6.94000000000000E+01,6.84000000000000E+01,6.70000000000000E+01,6.70000000000000E+01,6.70000000000000E+01,6.71000000000000E+01,6.73000000000000E+01,6.65000000000000E+01,6.62000000000000E+01,6.66000000000000E+01,6.79000000000000E+01,6.70000000000000E+01,6.66000000000000E+01,6.62000000000000E+01,6.47000000000000E+01,6.72000000000000E+01,,
IRQ,,,,,,,,,,,,,,,,,,,,,,,,,,,,,,,,6.02000000000000E+01,6.12000000000000E+01,6.01000000000000E+01,6.00000000000000E+01,5.99000000000000E+01,5.98000000000000E+01,5.97000000000000E+01,5.95000000000000E+01,5.94000000000000E+01,5.92000000000000E+01,5.91000000000000E+01,5.89000000000000E+01,5.21000000000000E+01,5.26000000000000E+01,5.82000000000000E+01,5.85000000000000E+01,5.78000000000000E+01,5.89000000000000E+01,5.78000000000000E+01,,
ISL,,,,,,,,,,,,,,,,,,,,,,,,,,,,,,,,8.23000000000000E+01,8.15000000000000E+01,7.99000000000000E+01,7.98000000000000E+01,8.05000000000000E+01,8.10000000000000E+01,8.05000000000000E+01,8.24000000000000E+01,8.37000000000000E+01,8.42000000000000E+01,8.41000000000000E+01,8.13000000000000E+01,8.17000000000000E+01,8.09000000000000E+01,8.08000000000000E+01,8.16000000000000E+01,8.22000000000000E+01,8.08000000000000E+01,7.58000000000000E+01,,
ISR,,,,,,,,,,,,,,,,,,,,,,,,,,,,,,,,5.81000000000000E+01,5.74000000000000E+01,5.87000000000000E+01,6.01000000000000E+01,6.01000000000000E+01,5.95000000000000E+01,5.84000000000000E+01,5.77000000000000E+01,5.72000000000000E+01,5.71000000000000E+01,5.67000000000000E+01,5.56000000000000E+01,5.54000000000000E+01,5.62000000000000E+01,5.69000000000000E+01,5.77000000000000E+01,5.92000000000000E+01,6.21000000000000E+01,5.79000000000000E+01,,
ITA,,,,,,,,,,,,,,,,,,,,,,,,,,,,,,,,6.17000000000000E+01,5.99000000000000E+01,5.89000000000000E+01,5.72000000000000E+01,5.62000000000000E+01,5.59000000000000E+01,5.57000000000000E+01,5.57000000000000E+01,5.58000000000000E+01,5.60000000000000E+01,5.64000000000000E+01,5.69000000000000E+01,5.74000000000000E+01,5.79000000000000E+01,5.73000000000000E+01,5.76000000000000E+01,5.77000000000000E+01,5.74000000000000E+01,5.64000000000000E+01,,
JAM,,,,,,,,,,,,,,,,,,,,,,,,,,,,,,,,7.25000000000000E+01,7.22000000000000E+01,7.09000000000000E+01,7.16000000000000E+01,7.04000000000000E+01,7.05000000000000E+01,6.95000000000000E+01,6.96000000000000E+01,6.94000000000000E+01,6.92000000000000E+01,6.88000000000000E+01,6.78000000000000E+01,6.98000000000000E+01,6.92000000000000E+01,6.96000000000000E+01,7.01000000000000E+01,7.00000000000000E+01,6.90000000000000E+01,6.74000000000000E+01,,
JOR,,,,,,,,,,,,,,,,,,,,,,,,,,,,,,,,5.98000000000000E+01,6.06000000000000E+01,6.16000000000000E+01,6.25000000000000E+01,6.59000000000000E+01,6.68000000000000E+01,6.67000000000000E+01,6.70000000000000E+01,6.67000000000000E+01,6.61000000000000E+01,6.55000000000000E+01,6.47000000000000E+01,6.50000000000000E+01,6.68000000000000E+01,6.66000000000000E+01,6.68000000000000E+01,6.70000000000000E+01,6.75000000000000E+01,6.67000000000000E+01,,
JPN,,,,,,,,,,,,,,,,,,,,,,,,,,,,,,,,7.61000000000000E+01,7.64000000000000E+01,7.63000000000000E+01,7.57000000000000E+01,7.53000000000000E+01,7.52000000000000E+01,7.51000000000000E+01,7.41000000000000E+01,7.32000000000000E+01,7.25000000000000E+01,7.18000000000000E+01,7.08000000000000E+01,7.03000000000000E+01,7.00000000000000E+01,7.00000000000000E+01,7.01000000000000E+01,7.05000000000000E+01,7.02000000000000E+01,6.80000000000000E+01,,
KAZ,,,,,,,,,,,,,,,,,,,,,,,,,,,,,,,,7.22000000000000E+01,7.00000000000000E+01,7.09000000000000E+01,7.25000000000000E+01,7.00000000000000E+01,6.86000000000000E+01,6.84000000000000E+01,6.82000000000000E+01,6.79000000000000E+01,6.82000000000000E+01,6.96000000000000E+01,7.02000000000000E+01,7.01000000000000E+01,6.97000000000000E+01,7.01000000000000E+01,7.04000000000000E+01,7.11000000000000E+01,7.20000000000000E+01,7.22000000000000E+01,,
KEN,,,,,,,,,,,,,,,,,,,,,,,,,,,,,,,,8.11000000000000E+01,8.09000000000000E+01,8.08000000000000E+01,8.08000000000000E+01,8.07000000000000E+01,8.05000000000000E+01,8.02000000000000E+01,8.02000000000000E+01,7.99000000000000E+01,7.98000000000000E+01,7.98000000000000E+01,7.95000000000000E+01,7.96000000000000E+01,7.97000000000000E+01,7.98000000000000E+01,7.99000000000000E+01,8.00000000000000E+01,8.00000000000000E+01,8.00000000000000E+01,,
KGZ,,,,,,,,,,,,,,,,,,,,,,,,,,,,,,,,6.77000000000000E+01,6.73000000000000E+01,6.73000000000000E+01,6.77000000000000E+01,6.74000000000000E+01,6.84000000000000E+01,6.86000000000000E+01,6.75000000000000E+01,6.86000000000000E+01,6.90000000000000E+01,6.87000000000000E+01,6.56000000000000E+01,6.74000000000000E+01,6.83000000000000E+01,7.03000000000000E+01,7.15000000000000E+01,7.28000000000000E+01,7.37000000000000E+01,7.30000000000000E+01,,
KHM,,,,,,,,,,,,,,,,,,,,,,,,,,,,,,,,8.35000000000000E+01,8.36000000000000E+01,8.42000000000000E+01,8.45000000000000E+01,8.35000000000000E+01,8.24000000000000E+01,8.23000000000000E+01,8.18000000000000E+01,8.19000000000000E+01,8.25000000000000E+01,8.36000000000000E+01,8.40000000000000E+01,8.46000000000000E+01,8.50000000000000E+01,8.43000000000000E+01,8.36000000000000E+01,8.30000000000000E+01,8.28000000000000E+01,8.39000000000000E+01,,
KOR,,,,,,,,,,,,,,,,,,,,,,,,,,,,,,,,7.20000000000000E+01,7.23000000000000E+01,7.18000000000000E+01,7.29000000000000E+01,7.34000000000000E+01,7.36000000000000E+01,7.31000000000000E+01,6.84000000000000E+01,6.83000000000000E+01,6.97000000000000E+01,6.98000000000000E+01,7.09000000000000E+01,7.06000000000000E+01,7.08000000000000E+01,7.04000000000000E+01,7.01000000000000E+01,7.02000000000000E+01,6.95000000000000E+01,6.91000000000000E+01,,
KWT,,,,,,,,,,,,,,,,,,,,,,,,,,,,,,,,8.07000000000000E+01,8.25000000000000E+01,8.28000000000000E+01,8.36000000000000E+01,8.42000000000000E+01,8.45000000000000E+01,8.47000000000000E+01,8.47000000000000E+01,8.46000000000000E+01,8.44000000000000E+01,8.42000000000000E+01,8.36000000000000E+01,8.32000000000000E+01,8.24000000000000E+01,8.17000000000000E+01,8.15000000000000E+01,8.14000000000000E+01,8.12000000000000E+01,8.08000000000000E+01,,
LAC,,,,,,,,,,,,,,,,,,,,,,,,,,,,,,,,7.67320119686739E+01,7.75201366916046E+01,7.76469221805736E+01,7.70224240977944E+01,7.59356521956784E+01,7.54047376919932E+01,7.59209596294850E+01,7.57191102609875E+01,7.52387607106663E+01,7.48202615681315E+01,7.43767469935721E+01,7.41849983061472E+01,7.39982628230191E+01,7.47618931254975E+01,7.51715370772839E+01,7.56211703422150E+01,7.57741094229613E+01,7.60690715293806E+01,7.48103390991537E+01,,
LAO,,,,,,,,,,,,,,,,,,,,,,,,,,,,,,,,8.09000000000000E+01,8.06000000000000E+01,8.04000000000000E+01,8.01000000000000E+01,7.99000000000000E+01,8.03000000000000E+01,8.01000000000000E+01,8.00000000000000E+01,7.98000000000000E+01,7.96000000000000E+01,7.93000000000000E+01,7.90000000000000E+01,7.85000000000000E+01,7.78000000000000E+01,7.84000000000000E+01,7.81000000000000E+01,7.77000000000000E+01,7.75000000000000E+01,7.77000000000000E+01,,
LBN,,,,,,,,,,,,,,,,,,,,,,,,,,,,,,,,6.69000000000000E+01,6.50000000000000E+01,6.50000000000000E+01,6.50000000000000E+01,6.52000000000000E+01,6.54000000000000E+01,6.55000000000000E+01,6.56000000000000E+01,6.54000000000000E+01,6.61000000000000E+01,6.59000000000000E+01,6.60000000000000E+01,6.60000000000000E+01,6.61000000000000E+01,6.57000000000000E+01,6.53000000000000E+01,6.44000000000000E+01,6.45000000000000E+01,6.56000000000000E+01,,
LBR,,,,,,,,,,,,,,,,,,,,,,,,,,,,,,,,7.22000000000000E+01,7.22000000000000E+01,7.23000000000000E+01,7.22000000000000E+01,7.20000000000000E+01,7.19000000000000E+01,7.18000000000000E+01,7.17000000000000E+01,7.16000000000000E+01,7.15000000000000E+01,7.14000000000000E+01,7.13000000000000E+01,7.00000000000000E+01,7.10000000000000E+01,7.10000000000000E+01,7.09000000000000E+01,7.08000000000000E+01,7.06000000000000E+01,7.05000000000000E+01,,
LBY,,,,,,,,,,,,,,,,,,,,,,,,,,,,,,,,6.94000000000000E+01,6.81000000000000E+01,6.82000000000000E+01,6.88000000000000E+01,6.79000000000000E+01,6.93000000000000E+01,6.91000000000000E+01,6.91000000000000E+01,6.94000000000000E+01,6.99000000000000E+01,6.95000000000000E+01,7.02000000000000E+01,7.22000000000000E+01,7.20000000000000E+01,7.28000000000000E+01,7.29000000000000E+01,7.33000000000000E+01,7.31000000000000E+01,7.32000000000000E+01,,
LCN,,,,,,,,,,,,,,,,,,,,,,,,,,,,,,,,7.64323182273767E+01,7.72101134385039E+01,7.73480515227945E+01,7.67513491395778E+01,7.56861538771554E+01,7.51818932009838E+01,7.57034226690359E+01,7.55136026886000E+01,7.50345289981246E+01,7.46259736003170E+01,7.41871417809267E+01,7.39989742883304E+01,7.38207949389888E+01,7.45898596560897E+01,7.49998778429968E+01,7.54443590091504E+01,7.55920611176376E+01,7.58714192479910E+01,7.46110414297348E+01,,
LDC,,,,,,,,,,,,,,,,,,,,,,,,,,,,,,,,8.16614082606282E+01,8.10828767755756E+01,8.12739574367678E+01,8.11014159352247E+01,8.09030354213627E+01,8.09116889479592E+01,8.07215276806273E+01,8.07509181638647E+01,8.06177223581166E+01,8.05185411991917E+01,8.04570645996944E+01,8.03252408529345E+01,8.00377477307787E+01,7.99067257329332E+01,7.98708614186282E+01,7.98431708034805E+01,7.96307400624418E+01,7.94877048690814E+01,7.93407482803945E+01,,
LIC,,,,,,,,,,,,,,,,,,,,,,,,,,,,,,,,8.23816707998666E+01,8.19007229411857E+01,8.21494927918011E+01,8.19427851047653E+01,8.16717500957661E+01,8.14953116126751E+01,8.12812443057039E+01,8.12650859801814E+01,8.11436006892243E+01,8.10396500511668E+01,8.09898250822144E+01,8.08828651161225E+01,8.06045013413334E+01,8.05826580151035E+01,8.05858960474106E+01,8.05575941219183E+01,8.03955529210068E+01,8.02523650018682E+01,8.01545572344970E+01,,
LKA,,,,,,,,,,,,,,,,,,,,,,,,,,,,,,,,6.99000000000000E+01,6.95000000000000E+01,6.98000000000000E+01,7.03000000000000E+01,6.89000000000000E+01,7.04000000000000E+01,7.11000000000000E+01,7.29000000000000E+01,7.28000000000000E+01,7.24000000000000E+01,7.23000000000000E+01,7.18000000000000E+01,7.21000000000000E+01,7.17000000000000E+01,7.21000000000000E+01,7.25000000000000E+01,7.23000000000000E+01,7.23000000000000E+01,7.19000000000000E+01,,
LMC,,,,,,,,,,,,,,,,,,,,,,,,,,,,,,,,7.74985416407735E+01,7.73317417837979E+01,7.70550123333152E+01,7.71553474817800E+01,7.68182037119096E+01,7.68657889120627E+01,7.67073842688824E+01,7.63014320629333E+01,7.63350778413715E+01,7.59691738833884E+01,7.58244658821411E+01,7.56590907332123E+01,7.57598300890544E+01,7.55948511958565E+01,7.54790314579716E+01,7.56224687927390E+01,7.55711167278527E+01,7.55788919620931E+01,7.55865795811265E+01,,
LMY,,,,,,,,,,,,,,,,,,,,,,,,,,,,,,,,7.75938077903161E+01,7.78611258398163E+01,7.77417603504605E+01,7.76314611573329E+01,7.72547250559114E+01,7.71352901972418E+01,7.70299590599571E+01,7.66849202259898E+01,7.64454648400165E+01,7.61967983024617E+01,7.60244488606419E+01,7.60434263832912E+01,7.59153961884458E+01,7.58085756668906E+01,7.56624093602162E+01,7.56255820650848E+01,7.55467828483365E+01,7.53807622831719E+01,7.50832398338739E+01,,
LSO,,,,,,,,,,,,,,,,,,,,,,,,,,,,,,,,6.03000000000000E+01,6.45000000000000E+01,5.75000000000000E+01,6.12000000000000E+01,6.11000000000000E+01,5.88000000000000E+01,5.62000000000000E+01,5.98000000000000E+01,6.34000000000000E+01,6.87000000000000E+01,6.70000000000000E+01,6.34000000000000E+01,6.67000000000000E+01,6.43000000000000E+01,6.28000000000000E+01,6.80000000000000E+01,6.40000000000000E+01,6.59000000000000E+01,6.19000000000000E+01,,
LTU,,,,,,,,,,,,,,,,,,,,,,,,,,,,,,,,6.22000000000000E+01,6.64000000000000E+01,6.41000000000000E+01,5.92000000000000E+01,5.88000000000000E+01,5.93000000000000E+01,6.02000000000000E+01,5.90000000000000E+01,5.82000000000000E+01,5.44000000000000E+01,5.26000000000000E+01,5.66000000000000E+01,5.82000000000000E+01,5.71000000000000E+01,5.78000000000000E+01,5.84000000000000E+01,5.98000000000000E+01,5.92000000000000E+01,5.16000000000000E+01,,
LUX,,,,,,,,,,,,,,,,,,,,,,,,,,,,,,,,6.81000000000000E+01,6.71000000000000E+01,6.68000000000000E+01,6.51000000000000E+01,6.46000000000000E+01,6.42000000000000E+01,6.41000000000000E+01,6.42000000000000E+01,6.39000000000000E+01,6.46000000000000E+01,6.43000000000000E+01,6.49000000000000E+01,6.28000000000000E+01,6.24000000000000E+01,6.29000000000000E+01,6.22000000000000E+01,6.13000000000000E+01,6.06000000000000E+01,6.06000000000000E+01,,
LVA,,,,,,,,,,,,,,,,,,,,,,,,,,,,,,,,6.53000000000000E+01,6.50000000000000E+01,6.46000000000000E+01,6.20000000000000E+01,6.44000000000000E+01,5.91000000000000E+01,5.79000000000000E+01,5.75000000000000E+01,5.77000000000000E+01,5.52000000000000E+01,5.49000000000000E+01,5.66000000000000E+01,5.83000000000000E+01,5.99000000000000E+01,6.00000000000000E+01,6.26000000000000E+01,6.46000000000000E+01,6.46000000000000E+01,5.58000000000000E+01,,
MAC,,,,,,,,,,,,,,,,,,,,,,,,,,,,,,,,7.01000000000000E+01,7.04000000000000E+01,6.98000000000000E+01,6.88000000000000E+01,6.99000000000000E+01,7.72000000000000E+01,7.68000000000000E+01,7.44000000000000E+01,7.10000000000000E+01,6.89000000000000E+01,7.02000000000000E+01,6.71000000000000E+01,6.68000000000000E+01,6.88000000000000E+01,7.01000000000000E+01,7.26000000000000E+01,7.41000000000000E+01,7.60000000000000E+01,7.27000000000000E+01,,
MAR,,,,,,,,,,,,,,,,,,,,,,,,,,,,,,,,7.13000000000000E+01,7.17000000000000E+01,7.20000000000000E+01,7.19000000000000E+01,7.24000000000000E+01,7.22000000000000E+01,7.26000000000000E+01,7.26000000000000E+01,6.99000000000000E+01,6.96000000000000E+01,7.03000000000000E+01,7.09000000000000E+01,7.08000000000000E+01,7.17000000000000E+01,7.13000000000000E+01,7.21000000000000E+01,7.18000000000000E+01,7.23000000000000E+01,7.28000000000000E+01,,
MDA,,,,,,,,,,,,,,,,,,,,,,,,,,,,,,,,6.43000000000000E+01,6.38000000000000E+01,6.33000000000000E+01,6.25000000000000E+01,6.16000000000000E+01,6.33000000000000E+01,6.09000000000000E+01,6.16000000000000E+01,5.67000000000000E+01,5.73000000000000E+01,5.67000000000000E+01,5.55000000000000E+01,5.17000000000000E+01,4.86000000000000E+01,4.66000000000000E+01,4.66000000000000E+01,4.82000000000000E+01,4.94000000000000E+01,4.90000000000000E+01,,
MDG,,,,,,,,,,,,,,,,,,,,,,,,,,,,,,,,8.63000000000000E+01,8.60000000000000E+01,8.63000000000000E+01,8.56000000000000E+01,8.64000000000000E+01,8.67000000000000E+01,8.73000000000000E+01,8.76000000000000E+01,8.78000000000000E+01,8.80000000000000E+01,8.69000000000000E+01,8.67000000000000E+01,8.61000000000000E+01,8.69000000000000E+01,8.76000000000000E+01,8.75000000000000E+01,8.73000000000000E+01,8.71000000000000E+01,8.70000000000000E+01,,
MDV,,,,,,,,,,,,,,,,,,,,,,,,,,,,,,,,6.95000000000000E+01,6.94000000000000E+01,6.93000000000000E+01,6.90000000000000E+01,6.88000000000000E+01,6.83000000000000E+01,6.77000000000000E+01,6.74000000000000E+01,6.72000000000000E+01,6.71000000000000E+01,6.77000000000000E+01,6.81000000000000E+01,6.87000000000000E+01,6.94000000000000E+01,7.12000000000000E+01,7.02000000000000E+01,7.05000000000000E+01,6.97000000000000E+01,7.27000000000000E+01,,
MEA,,,,,,,,,,,,,,,,,,,,,,,,,,,,,,,,6.95856798150461E+01,6.92489811156623E+01,6.88694131926073E+01,6.87111871534783E+01,6.84206079179590E+01,6.81357223102421E+01,6.81762380246170E+01,6.82256629462892E+01,6.80269860134219E+01,6.75290220196132E+01,6.74208864159996E+01,6.71780743874771E+01,6.70896060946651E+01,6.80694600533594E+01,6.83901611767373E+01,6.87740351667348E+01,6.87274837949859E+01,6.90388346945126E+01,6.98211386450231E+01,,
MEX,,,,,,,,,,,,,,,,,,,,,,,,,,,,,,,,8.24000000000000E+01,8.26000000000000E+01,8.29000000000000E+01,8.11000000000000E+01,7.81000000000000E+01,7.96000000000000E+01,8.14000000000000E+01,8.15000000000000E+01,8.17000000000000E+01,8.09000000000000E+01,8.05000000000000E+01,7.98000000000000E+01,7.92000000000000E+01,7.92000000000000E+01,7.85000000000000E+01,7.95000000000000E+01,7.90000000000000E+01,7.88000000000000E+01,7.62000000000000E+01,,
MIC,,,,,,,,,,,,,,,,,,,,,,,,,,,,,,,,7.70499064086368E+01,7.73986097022943E+01,7.72330314085468E+01,7.71297322766414E+01,7.67363124711981E+01,7.66192551752937E+01,7.65225985890177E+01,7.61338164935529E+01,7.58756239590984E+01,7.56049596467039E+01,7.54131137537979E+01,7.54431853777851E+01,7.53295144837953E+01,7.52075324442170E+01,7.50376029789062E+01,7.49945151180427E+01,7.49209759927739E+01,7.47462765306838E+01,7.44162896487317E+01,,
MKD,,,,,,,,,,,,,,,,,,,,,,,,,,,,,,,,4.66000000000000E+01,4.66000000000000E+01,4.60000000000000E+01,4.65000000000000E+01,4.64000000000000E+01,4.53000000000000E+01,4.30000000000000E+01,4.47000000000000E+01,4.51000000000000E+01,4.54000000000000E+01,4.62000000000000E+01,4.45000000000000E+01,4.09000000000000E+01,3.99000000000000E+01,4.06000000000000E+01,4.30000000000000E+01,4.34000000000000E+01,4.40000000000000E+01,4.46000000000000E+01,,
MLI,,,,,,,,,,,,,,,,,,,,,,,,,,,,,,,,6.17000000000000E+01,6.12000000000000E+01,6.16000000000000E+01,6.17000000000000E+01,6.17000000000000E+01,6.19000000000000E+01,6.16000000000000E+01,6.15000000000000E+01,6.13000000000000E+01,6.09000000000000E+01,6.13000000000000E+01,6.08000000000000E+01,6.08000000000000E+01,6.06000000000000E+01,6.07000000000000E+01,6.06000000000000E+01,6.06000000000000E+01,6.06000000000000E+01,6.01000000000000E+01,,
MLT,,,,,,,,,,,,,,,,,,,,,,,,,,,,,,,,6.75000000000000E+01,6.71000000000000E+01,6.64000000000000E+01,6.60000000000000E+01,6.67000000000000E+01,6.75000000000000E+01,6.72000000000000E+01,6.68000000000000E+01,6.66000000000000E+01,6.71000000000000E+01,6.84000000000000E+01,6.61000000000000E+01,6.62000000000000E+01,6.52000000000000E+01,6.46000000000000E+01,6.45000000000000E+01,6.45000000000000E+01,6.44000000000000E+01,6.32000000000000E+01,,
MMR,,,,,,,,,,,,,,,,,,,,,,,,,,,,,,,,8.57000000000000E+01,8.58000000000000E+01,8.56000000000000E+01,8.55000000000000E+01,8.54000000000000E+01,8.53000000000000E+01,8.52000000000000E+01,8.52000000000000E+01,8.51000000000000E+01,8.48000000000000E+01,8.45000000000000E+01,8.42000000000000E+01,8.39000000000000E+01,8.36000000000000E+01,8.32000000000000E+01,8.29000000000000E+01,8.26000000000000E+01,8.25000000000000E+01,8.24000000000000E+01,,
MNA,,,,,,,,,,,,,,,,,,,,,,,,,,,,,,,,6.86694052950029E+01,6.84000579353604E+01,6.79177459472740E+01,6.76376812582923E+01,6.71695516181738E+01,6.69497280451632E+01,6.70758512742264E+01,6.71968925904215E+01,6.68707356607702E+01,6.63228133089520E+01,6.61778988851106E+01,6.59260050998831E+01,6.57429201347076E+01,6.67646403235276E+01,6.70968376473639E+01,6.75204171881380E+01,6.72554419095976E+01,6.73947103490447E+01,6.83721252100567E+01,,
MNG,,,,,,,,,,,,,,,,,,,,,,,,,,,,,,,,6.46000000000000E+01,6.54000000000000E+01,6.52000000000000E+01,6.48000000000000E+01,6.67000000000000E+01,6.48000000000000E+01,6.47000000000000E+01,6.47000000000000E+01,6.47000000000000E+01,6.45000000000000E+01,6.47000000000000E+01,6.49000000000000E+01,6.72000000000000E+01,6.83000000000000E+01,6.73000000000000E+01,6.75000000000000E+01,6.78000000000000E+01,6.73000000000000E+01,6.43000000000000E+01,,
MOZ,,,,,,,,,,,,,,,,,,,,,,,,,,,,,,,,8.16000000000000E+01,8.13000000000000E+01,8.18000000000000E+01,8.18000000000000E+01,8.16000000000000E+01,8.17000000000000E+01,8.17000000000000E+01,8.15000000000000E+01,8.12000000000000E+01,8.13000000000000E+01,8.13000000000000E+01,8.11000000000000E+01,8.10000000000000E+01,8.11000000000000E+01,8.10000000000000E+01,8.09000000000000E+01,8.08000000000000E+01,8.07000000000000E+01,8.07000000000000E+01,,
MRT,,,,,,,,,,,,,,,,,,,,,,,,,,,,,,,,5.36000000000000E+01,5.35000000000000E+01,5.37000000000000E+01,5.32000000000000E+01,5.38000000000000E+01,5.35000000000000E+01,5.30000000000000E+01,5.33000000000000E+01,5.35000000000000E+01,5.32000000000000E+01,5.32000000000000E+01,5.31000000000000E+01,5.33000000000000E+01,5.33000000000000E+01,5.33000000000000E+01,5.35000000000000E+01,5.30000000000000E+01,5.32000000000000E+01,5.28000000000000E+01,,
MUS,,,,,,,,,,,,,,,,,,,,,,,,,,,,,,,,7.54000000000000E+01,7.55000000000000E+01,7.56000000000000E+01,7.61000000000000E+01,7.50000000000000E+01,7.54000000000000E+01,7.58000000000000E+01,7.57000000000000E+01,7.57000000000000E+01,7.56000000000000E+01,7.61000000000000E+01,7.49000000000000E+01,7.39000000000000E+01,7.32000000000000E+01,7.25000000000000E+01,7.21000000000000E+01,7.21000000000000E+01,7.28000000000000E+01,7.15000000000000E+01,,
MWI,,,,,,,,,,,,,,,,,,,,,,,,,,,,,,,,7.51000000000000E+01,7.44000000000000E+01,7.47000000000000E+01,7.38000000000000E+01,7.44000000000000E+01,7.42000000000000E+01,7.41000000000000E+01,7.39000000000000E+01,7.41000000000000E+01,7.42000000000000E+01,7.43000000000000E+01,7.47000000000000E+01,7.49000000000000E+01,7.49000000000000E+01,7.48000000000000E+01,7.47000000000000E+01,7.43000000000000E+01,7.41000000000000E+01,7.42000000000000E+01,,
MYS,,,,,,,,,,,,,,,,,,,,,,,,,,,,,,,,7.82000000000000E+01,7.78000000000000E+01,7.85000000000000E+01,7.86000000000000E+01,7.86000000000000E+01,7.91000000000000E+01,7.91000000000000E+01,7.86000000000000E+01,7.79000000000000E+01,7.85000000000000E+01,7.81000000000000E+01,7.79000000000000E+01,7.76000000000000E+01,7.75000000000000E+01,7.73000000000000E+01,7.72000000000000E+01,7.71000000000000E+01,7.69000000000000E+01,7.61000000000000E+01,,
NAC,,,,,,,,,,,,,,,,,,,,,,,,,,,,,,,,6.94104362067924E+01,6.87560221790953E+01,6.88848683315524E+01,6.93066304044134E+01,6.97773093890862E+01,6.98363234740871E+01,7.02364517388696E+01,7.05577265233529E+01,7.07301527074842E+01,7.09715114117690E+01,6.99325637966310E+01,6.87856948124664E+01,6.80284664937326E+01,6.84079262701392E+01,6.87565627889084E+01,6.91254692584232E+01,6.88868839604038E+01,6.78206187893293E+01,6.44761960745986E+01,,
NAM,,,,,,,,,,,,,,,,,,,,,,,,,,,,,,,,5.30000000000000E+01,5.29000000000000E+01,5.30000000000000E+01,5.26000000000000E+01,5.19000000000000E+01,5.13000000000000E+01,5.06000000000000E+01,5.11000000000000E+01,5.15000000000000E+01,5.14000000000000E+01,5.27000000000000E+01,5.21000000000000E+01,5.14000000000000E+01,5.06000000000000E+01,5.00000000000000E+01,5.01000000000000E+01,4.99000000000000E+01,4.97000000000000E+01,4.97000000000000E+01,,
NER,,,,,,,,,,,,,,,,,,,,,,,,,,,,,,,,8.57000000000000E+01,8.51000000000000E+01,8.49000000000000E+01,8.46000000000000E+01,8.39000000000000E+01,8.41000000000000E+01,8.38000000000000E+01,8.40000000000000E+01,8.35000000000000E+01,8.32000000000000E+01,8.32000000000000E+01,8.30000000000000E+01,8.31000000000000E+01,8.28000000000000E+01,8.31000000000000E+01,8.30000000000000E+01,8.30000000000000E+01,8.31000000000000E+01,8.26000000000000E+01,,
NGA,,,,,,,,,,,,,,,,,,,,,,,,,,,,,,,,7.03000000000000E+01,7.02000000000000E+01,7.00000000000000E+01,6.98000000000000E+01,6.96000000000000E+01,6.96000000000000E+01,6.94000000000000E+01,6.93000000000000E+01,6.91000000000000E+01,6.91000000000000E+01,6.92000000000000E+01,6.95000000000000E+01,6.91000000000000E+01,6.90000000000000E+01,6.88000000000000E+01,6.88000000000000E+01,6.88000000000000E+01,6.87000000000000E+01,6.87000000000000E+01,,
NIC,,,,,,,,,,,,,,,,,,,,,,,,,,,,,,,,7.90000000000000E+01,7.86000000000000E+01,7.96000000000000E+01,7.90000000000000E+01,7.74000000000000E+01,7.84000000000000E+01,7.96000000000000E+01,8.02000000000000E+01,7.97000000000000E+01,7.95000000000000E+01,7.83000000000000E+01,7.71000000000000E+01,7.50000000000000E+01,7.54000000000000E+01,7.55000000000000E+01,7.48000000000000E+01,7.50000000000000E+01,7.49000000000000E+01,7.27000000000000E+01,,
NLD,,,,,,,,,,,,,,,,,,,,,,,,,,,,,,,,6.64000000000000E+01,6.69000000000000E+01,6.60000000000000E+01,6.53000000000000E+01,6.56000000000000E+01,6.64000000000000E+01,6.81000000000000E+01,6.95000000000000E+01,6.99000000000000E+01,7.13000000000000E+01,7.18000000000000E+01,7.20000000000000E+01,7.04000000000000E+01,6.97000000000000E+01,6.92000000000000E+01,6.99000000000000E+01,7.09000000000000E+01,7.15000000000000E+01,7.04000000000000E+01,,
NOC,,,,,,,,,,,,,,,,,,,,,,,,,,,,,,,,7.37410276167874E+01,,7.34712358632723E+01,7.37337928139508E+01,7.37714968736876E+01,7.37062877031928E+01,7.36665693316780E+01,7.30019216365342E+01,7.29518412594714E+01,7.28874523697927E+01,7.29960766276871E+01,7.24981847264315E+01,7.27984299863422E+01,7.34235956222526E+01,7.34859803306512E+01,7.35031114535731E+01,7.44176614616145E+01,7.47728176476930E+01,7.42735798374928E+01,,
NOR,,,,,,,,,,,,,,,,,,,,,,,,,,,,,,,,6.64000000000000E+01,6.56000000000000E+01,6.49000000000000E+01,6.58000000000000E+01,6.63000000000000E+01,6.80000000000000E+01,7.01000000000000E+01,7.13000000000000E+01,7.02000000000000E+01,7.07000000000000E+01,7.07000000000000E+01,6.96000000000000E+01,6.82000000000000E+01,6.78000000000000E+01,6.76000000000000E+01,6.90000000000000E+01,7.00000000000000E+01,7.08000000000000E+01,6.84000000000000E+01,,
NPL,,,,,,,,,,,,,,,,,,,,,,,,,,,,,,,,8.25000000000000E+01,8.22000000000000E+01,8.17000000000000E+01,8.12000000000000E+01,8.08000000000000E+01,7.88000000000000E+01,7.90000000000000E+01,7.93000000000000E+01,8.01000000000000E+01,7.97000000000000E+01,7.82000000000000E+01,7.87000000000000E+01,7.91000000000000E+01,7.90000000000000E+01,7.85000000000000E+01,7.83000000000000E+01,7.82000000000000E+01,7.85000000000000E+01,7.86000000000000E+01,,
NZL,,,,,,,,,,,,,,,,,,,,,,,,,,,,,,,,6.56000000000000E+01,6.50000000000000E+01,6.56000000000000E+01,6.72000000000000E+01,6.93000000000000E+01,6.98000000000000E+01,6.91000000000000E+01,6.77000000000000E+01,6.81000000000000E+01,6.89000000000000E+01,6.99000000000000E+01,7.07000000000000E+01,7.04000000000000E+01,7.17000000000000E+01,7.22000000000000E+01,7.28000000000000E+01,7.31000000000000E+01,7.21000000000000E+01,7.10000000000000E+01,,
OEC,,,,,,,,,,,,,,,,,,,,,,,,,,,,,,,,6.79040822070584E+01,6.69766603931526E+01,6.61833328007572E+01,6.59615124672108E+01,6.61069425667665E+01,6.59862012465629E+01,6.61165026948796E+01,6.60369500545004E+01,6.60170650714020E+01,6.62142800373612E+01,6.58135701743927E+01,6.51586118097128E+01,6.47601892801401E+01,6.47827921952543E+01,6.50499213951756E+01,6.54041881807061E+01,6.57255066988254E+01,6.53990731319402E+01,6.30900766975502E+01,,
OED,,,,,,,,,,,,,,,,,,,,,,,,,,,,,,,,6.91357802712887E+01,6.83182343063855E+01,6.76186368341251E+01,6.73248029782560E+01,6.72712919380167E+01,6.73035103637275E+01,6.75427235557640E+01,6.74733015730682E+01,6.73786944930369E+01,6.74346822675670E+01,6.69500333851387E+01,6.62035682061483E+01,6.57715949126792E+01,6.58898758513937E+01,6.60926179028101E+01,6.64209457720979E+01,6.66674259712604E+01,6.63968396476411E+01,6.40097964926220E+01,,
OMN,,,,,,,,,,,,,,,,,,,,,,,,,,,,,,,,7.58000000000000E+01,7.63000000000000E+01,7.65000000000000E+01,7.65000000000000E+01,7.65000000000000E+01,7.61000000000000E+01,7.57000000000000E+01,7.49000000000000E+01,7.41000000000000E+01,7.40000000000000E+01,7.37000000000000E+01,7.33000000000000E+01,7.31000000000000E+01,7.31000000000000E+01,7.30000000000000E+01,7.28000000000000E+01,7.25000000000000E+01,7.26000000000000E+01,7.18000000000000E+01,,
PAK,,,,,,,,,,,,,,,,,,,,,,,,,,,,,,,,8.06000000000000E+01,8.10000000000000E+01,8.02000000000000E+01,8.05000000000000E+01,8.02000000000000E+01,8.03000000000000E+01,8.04000000000000E+01,7.99000000000000E+01,8.00000000000000E+01,7.93000000000000E+01,7.87000000000000E+01,7.84000000000000E+01,7.80000000000000E+01,7.85000000000000E+01,7.89000000000000E+01,8.05000000000000E+01,8.06000000000000E+01,8.07000000000000E+01,8.13000000000000E+01,,
PAN,,,,,,,,,,,,,,,,,,,,,,,,,,,,,,,,6.87000000000000E+01,7.11000000000000E+01,7.35000000000000E+01,7.28000000000000E+01,7.35000000000000E+01,7.27000000000000E+01,7.28000000000000E+01,7.44000000000000E+01,7.49000000000000E+01,7.25000000000000E+01,7.17000000000000E+01,7.19000000000000E+01,7.23000000000000E+01,7.37000000000000E+01,7.46000000000000E+01,7.49000000000000E+01,7.66000000000000E+01,8.02000000000000E+01,7.61000000000000E+01,,
PER,,,,,,,,,,,,,,,,,,,,,,,,,,,,,,,,6.92000000000000E+01,6.91000000000000E+01,7.01000000000000E+01,7.10000000000000E+01,7.08000000000000E+01,7.03000000000000E+01,7.08000000000000E+01,7.02000000000000E+01,7.04000000000000E+01,7.06000000000000E+01,7.04000000000000E+01,7.09000000000000E+01,7.08000000000000E+01,7.09000000000000E+01,7.11000000000000E+01,7.11000000000000E+01,7.12000000000000E+01,7.11000000000000E+01,7.04000000000000E+01,,
PHL,,,,,,,,,,,,,,,,,,,,,,,,,,,,,,,,7.64000000000000E+01,7.67000000000000E+01,7.59000000000000E+01,7.65000000000000E+01,7.70000000000000E+01,7.77000000000000E+01,7.70000000000000E+01,7.61000000000000E+01,7.52000000000000E+01,7.34000000000000E+01,7.42000000000000E+01,7.34000000000000E+01,7.37000000000000E+01,7.33000000000000E+01,7.36000000000000E+01,7.31000000000000E+01,7.37000000000000E+01,7.30000000000000E+01,7.27000000000000E+01,,
PNG,,,,,,,,,,,,,,,,,,,,,,,,,,,,,,,,7.21000000000000E+01,7.15000000000000E+01,7.06000000000000E+01,7.03000000000000E+01,7.07000000000000E+01,7.06000000000000E+01,7.09000000000000E+01,7.16000000000000E+01,7.17000000000000E+01,7.20000000000000E+01,7.23000000000000E+01,7.25000000000000E+01,7.26000000000000E+01,7.25000000000000E+01,7.25000000000000E+01,7.25000000000000E+01,7.23000000000000E+01,7.20000000000000E+01,7.25000000000000E+01,,
POL,,,,,,,,,,,,,,,,,,,,,,,,,,,,,,,,6.24000000000000E+01,6.13000000000000E+01,6.04000000000000E+01,5.87000000000000E+01,5.84000000000000E+01,5.84000000000000E+01,5.89000000000000E+01,5.83000000000000E+01,5.57000000000000E+01,5.42000000000000E+01,5.27000000000000E+01,5.05000000000000E+01,5.01000000000000E+01,5.06000000000000E+01,5.23000000000000E+01,5.42000000000000E+01,5.66000000000000E+01,5.90000000000000E+01,5.71000000000000E+01,,
PRI,,,,,,,,,,,,,,,,,,,,,,,,,,,,,,,,5.02000000000000E+01,4.93000000000000E+01,4.98000000000000E+01,5.09000000000000E+01,5.08000000000000E+01,5.24000000000000E+01,5.31000000000000E+01,5.34000000000000E+01,5.24000000000000E+01,5.25000000000000E+01,5.20000000000000E+01,5.20000000000000E+01,5.26000000000000E+01,5.35000000000000E+01,5.37000000000000E+01,5.30000000000000E+01,5.17000000000000E+01,5.00000000000000E+01,4.79000000000000E+01,,
PRK,,,,,,,,,,,,,,,,,,,,,,,,,,,,,,,,7.68000000000000E+01,7.69000000000000E+01,7.71000000000000E+01,7.74000000000000E+01,7.72000000000000E+01,7.46000000000000E+01,7.42000000000000E+01,7.32000000000000E+01,7.33000000000000E+01,7.31000000000000E+01,7.24000000000000E+01,7.28000000000000E+01,7.28000000000000E+01,7.31000000000000E+01,7.29000000000000E+01,7.29000000000000E+01,7.28000000000000E+01,7.23000000000000E+01,7.20000000000000E+01,,
PRT,,,,,,,,,,,,,,,,,,,,,,,,,,,,,,,,7.13000000000000E+01,6.84000000000000E+01,6.66000000000000E+01,6.52000000000000E+01,6.43000000000000E+01,6.41000000000000E+01,6.45000000000000E+01,6.74000000000000E+01,6.71000000000000E+01,6.75000000000000E+01,6.80000000000000E+01,6.78000000000000E+01,6.61000000000000E+01,6.55000000000000E+01,6.47000000000000E+01,6.51000000000000E+01,6.50000000000000E+01,6.50000000000000E+01,6.32000000000000E+01,,
PRY,,,,,,,,,,,,,,,,,,,,,,,,,,,,,,,,8.19000000000000E+01,8.20000000000000E+01,8.15000000000000E+01,8.16000000000000E+01,8.44000000000000E+01,8.35000000000000E+01,8.26000000000000E+01,8.22000000000000E+01,8.12000000000000E+01,8.04000000000000E+01,8.02000000000000E+01,7.81000000000000E+01,8.01000000000000E+01,8.02000000000000E+01,8.13000000000000E+01,8.06000000000000E+01,8.19000000000000E+01,8.37000000000000E+01,8.20000000000000E+01,,
QAT,,,,,,,,,,,,,,,,,,,,,,,,,,,,,,,,9.36000000000000E+01,9.34000000000000E+01,9.33000000000000E+01,9.32000000000000E+01,9.30000000000000E+01,9.27000000000000E+01,9.23000000000000E+01,9.21000000000000E+01,9.19000000000000E+01,9.17000000000000E+01,9.12000000000000E+01,9.11000000000000E+01,9.11000000000000E+01,9.20000000000000E+01,9.13000000000000E+01,9.23000000000000E+01,9.25000000000000E+01,9.26000000000000E+01,9.25000000000000E+01,,
ROM,,,,,,,,,,,,,,,,,,,,,,,,,,,,,,,,6.76000000000000E+01,6.69000000000000E+01,6.68000000000000E+01,6.68000000000000E+01,6.73000000000000E+01,6.81000000000000E+01,6.92000000000000E+01,6.80000000000000E+01,6.71000000000000E+01,6.60000000000000E+01,6.49000000000000E+01,5.91000000000000E+01,5.85000000000000E+01,5.72000000000000E+01,5.67000000000000E+01,5.74000000000000E+01,5.81000000000000E+01,5.86000000000000E+01,5.53000000000000E+01,,
RUS,,,,,,,,,,,,,,,,,,,,,,,,,,,,,,,,6.51000000000000E+01,6.84000000000000E+01,6.76000000000000E+01,6.55000000000000E+01,6.39000000000000E+01,6.26000000000000E+01,6.08000000000000E+01,5.93000000000000E+01,5.91000000000000E+01,6.08000000000000E+01,6.18000000000000E+01,6.24000000000000E+01,6.21000000000000E+01,6.24000000000000E+01,6.31000000000000E+01,6.35000000000000E+01,6.54000000000000E+01,6.52000000000000E+01,6.35000000000000E+01,,
RWA,,,,,,,,,,,,,,,,,,,,,,,,,,,,,,,,8.83000000000000E+01,8.82000000000000E+01,8.82000000000000E+01,8.89000000000000E+01,8.85000000000000E+01,8.78000000000000E+01,8.71000000000000E+01,8.66000000000000E+01,8.61000000000000E+01,8.56000000000000E+01,8.51000000000000E+01,8.45000000000000E+01,8.42000000000000E+01,8.39000000000000E+01,8.37000000000000E+01,8.38000000000000E+01,8.40000000000000E+01,8.43000000000000E+01,8.43000000000000E+01,,
SAS,,,,,,,,,,,,,,,,,,,,,,,,,,,,,,,,8.08917693487503E+01,8.04444354319814E+01,8.04626433442523E+01,8.06526212860686E+01,7.99802093994970E+01,7.98044386632318E+01,7.97765453674315E+01,7.97017294968703E+01,7.94319256078844E+01,7.90220667892492E+01,7.89168818374577E+01,7.87843365445854E+01,7.88777821244617E+01,7.86739864900919E+01,7.85208345145785E+01,7.85072483138968E+01,7.83167322220587E+01,7.83016541690663E+01,7.81622844666463E+01,,
SAU,,,,,,,,,,,,,,,,,,,,,,,,,,,,,,,,7.63000000000000E+01,7.64000000000000E+01,7.64000000000000E+01,7.69000000000000E+01,7.67000000000000E+01,7.58000000000000E+01,7.55000000000000E+01,7.51000000000000E+01,7.66000000000000E+01,7.62000000000000E+01,7.64000000000000E+01,7.62000000000000E+01,7.67000000000000E+01,7.72000000000000E+01,7.66000000000000E+01,7.54000000000000E+01,7.58000000000000E+01,7.60000000000000E+01,7.56000000000000E+01,,
SDN,,,,,,,,,,,,,,,,,,,,,,,,,,,,,,,,7.20000000000000E+01,6.97000000000000E+01,6.95000000000000E+01,6.99000000000000E+01,7.03000000000000E+01,7.04000000000000E+01,7.06000000000000E+01,7.01000000000000E+01,6.99000000000000E+01,7.02000000000000E+01,7.00000000000000E+01,6.98000000000000E+01,6.99000000000000E+01,6.96000000000000E+01,6.96000000000000E+01,6.98000000000000E+01,6.95000000000000E+01,6.91000000000000E+01,6.90000000000000E+01,,
SEN,,,,,,,,,,,,,,,,,,,,,,,,,,,,,,,,7.75000000000000E+01,7.73000000000000E+01,7.73000000000000E+01,7.72000000000000E+01,7.75000000000000E+01,7.72000000000000E+01,7.72000000000000E+01,7.73000000000000E+01,7.73000000000000E+01,7.70000000000000E+01,7.70000000000000E+01,7.67000000000000E+01,7.71000000000000E+01,7.70000000000000E+01,7.69000000000000E+01,7.66000000000000E+01,7.68000000000000E+01,7.67000000000000E+01,7.64000000000000E+01,,
SGP,,,,,,,,,,,,,,,,,,,,,,,,,,,,,,,,7.87000000000000E+01,7.86000000000000E+01,7.82000000000000E+01,7.86000000000000E+01,7.68000000000000E+01,7.76000000000000E+01,7.77000000000000E+01,7.64000000000000E+01,7.48000000000000E+01,7.47000000000000E+01,7.61000000000000E+01,7.47000000000000E+01,7.42000000000000E+01,7.32000000000000E+01,7.31000000000000E+01,7.37000000000000E+01,7.39000000000000E+01,7.31000000000000E+01,7.15000000000000E+01,,
SLB,,,,,,,,,,,,,,,,,,,,,,,,,,,,,,,,4.47000000000000E+01,4.42000000000000E+01,4.41000000000000E+01,4.39000000000000E+01,4.36000000000000E+01,4.38000000000000E+01,4.43000000000000E+01,4.46000000000000E+01,4.50000000000000E+01,4.64000000000000E+01,4.75000000000000E+01,4.82000000000000E+01,4.82000000000000E+01,4.79000000000000E+01,4.78000000000000E+01,4.77000000000000E+01,4.72000000000000E+01,4.69000000000000E+01,4.80000000000000E+01,,
SLE,,,,,,,,,,,,,,,,,,,,,,,,,,,,,,,,6.45000000000000E+01,6.47000000000000E+01,6.46000000000000E+01,6.45000000000000E+01,6.42000000000000E+01,6.36000000000000E+01,6.40000000000000E+01,6.43000000000000E+01,6.43000000000000E+01,6.46000000000000E+01,6.46000000000000E+01,6.44000000000000E+01,6.41000000000000E+01,6.41000000000000E+01,6.42000000000000E+01,6.43000000000000E+01,6.44000000000000E+01,6.45000000000000E+01,6.43000000000000E+01,,
SLV,,,,,,,,,,,,,,,,,,,,,,,,,,,,,,,,7.64000000000000E+01,7.51000000000000E+01,7.33000000000000E+01,7.57000000000000E+01,7.65000000000000E+01,7.51000000000000E+01,7.38000000000000E+01,7.45000000000000E+01,7.35000000000000E+01,7.25000000000000E+01,7.14000000000000E+01,7.11000000000000E+01,7.17000000000000E+01,7.11000000000000E+01,7.09000000000000E+01,7.18000000000000E+01,7.13000000000000E+01,7.08000000000000E+01,6.94000000000000E+01,,
SOM,,,,,,,,,,,,,,,,,,,,,,,,,,,,,,,,7.77000000000000E+01,7.74000000000000E+01,7.73000000000000E+01,7.70000000000000E+01,7.72000000000000E+01,7.74000000000000E+01,7.77000000000000E+01,7.80000000000000E+01,7.83000000000000E+01,7.84000000000000E+01,7.86000000000000E+01,7.86000000000000E+01,7.86000000000000E+01,7.86000000000000E+01,7.86000000000000E+01,7.86000000000000E+01,7.86000000000000E+01,7.85000000000000E+01,7.86000000000000E+01,,
SSA,,,,,,,,,,,,,,,,,,,,,,,,,,,,,,,,7.49076004141850E+01,7.48011062445618E+01,7.46664958244430E+01,7.49045392756208E+01,7.50035330336549E+01,7.48262715251110E+01,7.46125256603319E+01,7.45452984445651E+01,7.44344838785466E+01,7.42627833073551E+01,7.42764099737800E+01,7.42651154323032E+01,7.41280544669191E+01,7.43386713099354E+01,7.42749686323944E+01,7.46345902083223E+01,7.47550079641503E+01,7.47343954844995E+01,7.46104284040661E+01,,
SSF,,,,,,,,,,,,,,,,,,,,,,,,,,,,,,,,7.49163910720187E+01,7.48114314848164E+01,7.46764999659905E+01,7.49146871467271E+01,7.50137090840022E+01,7.48378937401797E+01,7.46258147361748E+01,7.45560881594267E+01,7.44454137165362E+01,7.42735922731513E+01,7.42884090369851E+01,7.42758837456379E+01,7.41387199869656E+01,7.43497945384438E+01,7.42851856313161E+01,7.46441120051855E+01,7.47651909492275E+01,7.47441871507314E+01,7.46200014454525E+01,,
SUR,,,,,,,,,,,,,,,,,,,,,,,,,,,,,,,,6.02000000000000E+01,5.87000000000000E+01,6.05000000000000E+01,5.92000000000000E+01,6.19000000000000E+01,6.10000000000000E+01,6.10000000000000E+01,6.09000000000000E+01,5.98000000000000E+01,5.99000000000000E+01,6.02000000000000E+01,5.99000000000000E+01,6.01000000000000E+01,6.01000000000000E+01,5.98000000000000E+01,5.98000000000000E+01,6.00000000000000E+01,6.02000000000000E+01,6.00000000000000E+01,,
SVK,,,,,,,,,,,,,,,,,,,,,,,,,,,,,,,,6.52000000000000E+01,6.28000000000000E+01,6.18000000000000E+01,6.00000000000000E+01,6.03000000000000E+01,6.18000000000000E+01,6.06000000000000E+01,5.97000000000000E+01,5.66000000000000E+01,5.50000000000000E+01,5.51000000000000E+01,5.54000000000000E+01,5.67000000000000E+01,5.67000000000000E+01,5.80000000000000E+01,6.00000000000000E+01,6.12000000000000E+01,6.27000000000000E+01,6.07000000000000E+01,,
SVN,,,,,,,,,,,,,,,,,,,,,,,,,,,,,,,,5.70000000000000E+01,5.59000000000000E+01,5.29000000000000E+01,5.97000000000000E+01,6.14000000000000E+01,6.00000000000000E+01,6.06000000000000E+01,6.14000000000000E+01,6.03000000000000E+01,5.98000000000000E+01,6.11000000000000E+01,6.12000000000000E+01,5.93000000000000E+01,6.18000000000000E+01,6.21000000000000E+01,6.25000000000000E+01,6.39000000000000E+01,6.30000000000000E+01,6.15000000000000E+01,,
SWE,,,,,,,,,,,,,,,,,,,,,,,,,,,,,,,,6.92000000000000E+01,6.53000000000000E+01,6.13000000000000E+01,6.09000000000000E+01,6.18000000000000E+01,6.09000000000000E+01,6.08000000000000E+01,6.20000000000000E+01,6.28000000000000E+01,6.26000000000000E+01,6.45000000000000E+01,6.38000000000000E+01,6.34000000000000E+01,6.31000000000000E+01,6.34000000000000E+01,6.41000000000000E+01,6.51000000000000E+01,6.54000000000000E+01,6.32000000000000E+01,,
SWZ,,,,,,,,,,,,,,,,,,,,,,,,,,,,,,,,6.48000000000000E+01,6.51000000000000E+01,6.52000000000000E+01,6.52000000000000E+01,6.50000000000000E+01,6.48000000000000E+01,6.48000000000000E+01,6.43000000000000E+01,6.38000000000000E+01,6.32000000000000E+01,6.28000000000000E+01,6.25000000000000E+01,6.23000000000000E+01,6.18000000000000E+01,6.14000000000000E+01,6.11000000000000E+01,6.08000000000000E+01,6.05000000000000E+01,6.03000000000000E+01,,
SYR,,,,,,,,,,,,,,,,,,,,,,,,,,,,,,,,7.75000000000000E+01,7.75000000000000E+01,7.76000000000000E+01,7.78000000000000E+01,7.82000000000000E+01,7.54000000000000E+01,7.53000000000000E+01,7.67000000000000E+01,7.62000000000000E+01,7.49000000000000E+01,7.32000000000000E+01,7.21000000000000E+01,7.23000000000000E+01,7.38000000000000E+01,7.47000000000000E+01,7.55000000000000E+01,7.60000000000000E+01,7.65000000000000E+01,7.60000000000000E+01,,
TCD,,,,,,,,,,,,,,,,,,,,,,,,,,,,,,,,7.51000000000000E+01,7.47000000000000E+01,7.49000000000000E+01,7.49000000000000E+01,7.47000000000000E+01,7.47000000000000E+01,7.47000000000000E+01,7.46000000000000E+01,7.43000000000000E+01,7.44000000000000E+01,7.46000000000000E+01,7.43000000000000E+01,7.42000000000000E+01,7.41000000000000E+01,7.31000000000000E+01,7.30000000000000E+01,7.30000000000000E+01,7.30000000000000E+01,7.26000000000000E+01,,
TGO,,,,,,,,,,,,,,,,,,,,,,,,,,,,,,,,8.08000000000000E+01,8.06000000000000E+01,8.01000000000000E+01,8.11000000000000E+01,8.06000000000000E+01,8.05000000000000E+01,8.01000000000000E+01,7.98000000000000E+01,7.99000000000000E+01,7.97000000000000E+01,7.96000000000000E+01,7.96000000000000E+01,7.98000000000000E+01,7.96000000000000E+01,7.96000000000000E+01,7.96000000000000E+01,7.95000000000000E+01,7.95000000000000E+01,7.95000000000000E+01,,
THA,,,,,,,,,,,,,,,,,,,,,,,,,,,,,,,,8.38000000000000E+01,8.42000000000000E+01,8.33000000000000E+01,8.29000000000000E+01,8.25000000000000E+01,8.20000000000000E+01,8.19000000000000E+01,7.95000000000000E+01,7.87000000000000E+01,7.93000000000000E+01,7.97000000000000E+01,8.00000000000000E+01,7.99000000000000E+01,8.01000000000000E+01,8.00000000000000E+01,7.99000000000000E+01,8.01000000000000E+01,7.99000000000000E+01,7.97000000000000E+01,,
TJK,,,,,,,,,,,,,,,,,,,,,,,,,,,,,,,,6.88000000000000E+01,6.68000000000000E+01,6.55000000000000E+01,6.23000000000000E+01,6.00000000000000E+01,5.66000000000000E+01,5.69000000000000E+01,5.80000000000000E+01,5.85000000000000E+01,6.01000000000000E+01,6.17000000000000E+01,6.28000000000000E+01,6.40000000000000E+01,6.51000000000000E+01,6.54000000000000E+01,6.60000000000000E+01,6.66000000000000E+01,6.72000000000000E+01,6.78000000000000E+01,,
TKM,,,,,,,,,,,,,,,,,,,,,,,,,,,,,,,,6.26000000000000E+01,6.24000000000000E+01,6.18000000000000E+01,6.03000000000000E+01,5.97000000000000E+01,5.94000000000000E+01,5.75000000000000E+01,5.88000000000000E+01,6.09000000000000E+01,6.24000000000000E+01,6.37000000000000E+01,6.42000000000000E+01,6.47000000000000E+01,6.49000000000000E+01,6.50000000000000E+01,6.51000000000000E+01,6.52000000000000E+01,6.52000000000000E+01,6.56000000000000E+01,,
TMP,,,,,,,,,,,,,,,,,,,,,,,,,,,,,,,,7.88000000000000E+01,7.89000000000000E+01,7.90000000000000E+01,7.92000000000000E+01,7.91000000000000E+01,7.89000000000000E+01,7.84000000000000E+01,7.77000000000000E+01,7.74000000000000E+01,7.68000000000000E+01,7.77000000000000E+01,7.77000000000000E+01,7.82000000000000E+01,7.87000000000000E+01,7.91000000000000E+01,7.89000000000000E+01,7.94000000000000E+01,7.94000000000000E+01,7.96000000000000E+01,,
TTO,,,,,,,,,,,,,,,,,,,,,,,,,,,,,,,,5.64000000000000E+01,5.90000000000000E+01,6.10000000000000E+01,6.31000000000000E+01,6.47000000000000E+01,6.60000000000000E+01,6.72000000000000E+01,6.82000000000000E+01,6.85000000000000E+01,6.91000000000000E+01,6.99000000000000E+01,7.02000000000000E+01,7.05000000000000E+01,7.21000000000000E+01,7.27000000000000E+01,7.36000000000000E+01,7.51000000000000E+01,7.47000000000000E+01,7.50000000000000E+01,,
TUN,,,,,,,,,,,,,,,,,,,,,,,,,,,,,,,,6.43000000000000E+01,6.39000000000000E+01,6.34000000000000E+01,6.36000000000000E+01,6.31000000000000E+01,6.26000000000000E+01,6.21000000000000E+01,6.18000000000000E+01,6.16000000000000E+01,6.15000000000000E+01,6.16000000000000E+01,6.12000000000000E+01,6.14000000000000E+01,6.15000000000000E+01,6.14000000000000E+01,6.10000000000000E+01,6.12000000000000E+01,6.13000000000000E+01,6.09000000000000E+01,,
TUR,,,,,,,,,,,,,,,,,,,,,,,,,,,,,,,,7.35000000000000E+01,7.29000000000000E+01,7.14000000000000E+01,7.19000000000000E+01,7.20000000000000E+01,7.23000000000000E+01,7.19000000000000E+01,7.14000000000000E+01,6.99000000000000E+01,6.87000000000000E+01,6.63000000000000E+01,6.37000000000000E+01,6.27000000000000E+01,6.44000000000000E+01,6.47000000000000E+01,6.34000000000000E+01,6.32000000000000E+01,6.31000000000000E+01,6.00000000000000E+01,,
TZA,,,,,,,,,,,,,,,,,,,,,,,,,,,,,,,,7.76000000000000E+01,7.75000000000000E+01,7.75000000000000E+01,7.75000000000000E+01,7.75000000000000E+01,7.75000000000000E+01,7.74000000000000E+01,7.74000000000000E+01,7.73000000000000E+01,7.73000000000000E+01,7.91000000000000E+01,7.83000000000000E+01,7.74000000000000E+01,7.63000000000000E+01,7.49000000000000E+01,8.07000000000000E+01,8.07000000000000E+01,8.08000000000000E+01,8.07000000000000E+01,,
UGA,,,,,,,,,,,,,,,,,,,,,,,,,,,,,,,,8.90000000000000E+01,8.90000000000000E+01,8.91000000000000E+01,8.90000000000000E+01,8.91000000000000E+01,8.90000000000000E+01,8.89000000000000E+01,8.88000000000000E+01,8.88000000000000E+01,8.88000000000000E+01,8.87000000000000E+01,8.88000000000000E+01,8.87000000000000E+01,8.86000000000000E+01,8.86000000000000E+01,8.86000000000000E+01,8.84000000000000E+01,8.83000000000000E+01,8.83000000000000E+01,,
UKR,,,,,,,,,,,,,,,,,,,,,,,,,,,,,,,,6.53000000000000E+01,6.44000000000000E+01,6.40000000000000E+01,6.45000000000000E+01,6.46000000000000E+01,6.26000000000000E+01,6.10000000000000E+01,5.86000000000000E+01,5.76000000000000E+01,5.70000000000000E+01,5.68000000000000E+01,5.74000000000000E+01,5.75000000000000E+01,5.79000000000000E+01,6.01000000000000E+01,6.05000000000000E+01,6.09000000000000E+01,6.11000000000000E+01,5.94000000000000E+01,,
UMC,,,,,,,,,,,,,,,,,,,,,,,,,,,,,,,,7.67054254936355E+01,7.74503624237482E+01,7.73720069152189E+01,7.71095680024508E+01,7.66713257250783E+01,7.64220547031512E+01,7.63736560443165E+01,7.59977113705186E+01,7.54998620719143E+01,7.53051789961813E+01,7.50725142017808E+01,7.52634354597277E+01,7.49694073975519E+01,7.48816683224438E+01,7.46640742506519E+01,7.44595473103029E+01,7.43630103642572E+01,7.40260389234413E+01,7.33955259819282E+01,,
URY,,,,,,,,,,,,,,,,,,,,,,,,,,,,,,,,7.04000000000000E+01,7.04000000000000E+01,7.00000000000000E+01,6.96000000000000E+01,6.90000000000000E+01,6.81000000000000E+01,6.86000000000000E+01,6.91000000000000E+01,6.93000000000000E+01,6.94000000000000E+01,6.95000000000000E+01,6.95000000000000E+01,6.95000000000000E+01,6.95000000000000E+01,7.02000000000000E+01,6.96000000000000E+01,7.12000000000000E+01,7.17000000000000E+01,7.15000000000000E+01,,
USA,,,,,,,,,,,,,,,,,,,,,,,,,,,,,,,,6.97000000000000E+01,6.92000000000000E+01,6.94000000000000E+01,6.98000000000000E+01,7.03000000000000E+01,7.04000000000000E+01,7.08000000000000E+01,7.11000000000000E+01,7.12000000000000E+01,7.14000000000000E+01,7.03000000000000E+01,6.90000000000000E+01,6.81000000000000E+01,6.85000000000000E+01,6.89000000000000E+01,6.93000000000000E+01,6.90000000000000E+01,6.78000000000000E+01,6.43000000000000E+01,,
UZB,,,,,,,,,,,,,,,,,,,,,,,,,,,,,,,,5.87000000000000E+01,5.68000000000000E+01,5.64000000000000E+01,5.53000000000000E+01,5.50000000000000E+01,5.57000000000000E+01,5.63000000000000E+01,5.67000000000000E+01,5.71000000000000E+01,5.75000000000000E+01,5.80000000000000E+01,5.83000000000000E+01,5.87000000000000E+01,5.97000000000000E+01,6.03000000000000E+01,6.10000000000000E+01,6.19000000000000E+01,6.26000000000000E+01,6.29000000000000E+01,,
VEN,,,,,,,,,,,,,,,,,,,,,,,,,,,,,,,,7.41000000000000E+01,7.53000000000000E+01,7.60000000000000E+01,7.46000000000000E+01,7.35000000000000E+01,7.25000000000000E+01,7.35000000000000E+01,7.27000000000000E+01,6.98000000000000E+01,7.06000000000000E+01,7.13000000000000E+01,6.90000000000000E+01,6.90000000000000E+01,7.02000000000000E+01,7.27000000000000E+01,7.41000000000000E+01,7.44000000000000E+01,7.45000000000000E+01,7.48000000000000E+01,,
VNM,,,,,,,,,,,,,,,,,,,,,,,,,,,,,,,,7.96000000000000E+01,7.95000000000000E+01,7.90000000000000E+01,7.89000000000000E+01,7.86000000000000E+01,7.83000000000000E+01,7.65000000000000E+01,7.67000000000000E+01,7.65000000000000E+01,7.55000000000000E+01,7.62000000000000E+01,7.60000000000000E+01,7.57000000000000E+01,7.54000000000000E+01,7.51000000000000E+01,7.47000000000000E+01,7.45000000000000E+01,7.43000000000000E+01,7.44000000000000E+01,,
WBG,,,,,,,,,,,,,,,,,,,,,,,,,,,,,,,,5.14000000000000E+01,5.57000000000000E+01,4.92000000000000E+01,5.02000000000000E+01,5.06000000000000E+01,5.02000000000000E+01,5.27000000000000E+01,5.70000000000000E+01,5.90000000000000E+01,5.74000000000000E+01,4.93000000000000E+01,4.41000000000000E+01,4.84000000000000E+01,4.81000000000000E+01,5.10000000000000E+01,5.12000000000000E+01,5.39000000000000E+01,5.19000000000000E+01,5.10000000000000E+01,,
WLD,,,,,,,,,,,,,,,,,,,,,,,,,,,,,,,,7.56361449922234E+01,7.56797093556654E+01,7.54466706910311E+01,7.53372871711722E+01,7.50837450539774E+01,7.49841698542397E+01,7.49436868349483E+01,7.46653493923985E+01,7.44875763252417E+01,7.43404942959761E+01,7.41462977918891E+01,7.40556042599214E+01,7.39005420351841E+01,7.38403760177453E+01,7.37843852897306E+01,7.38301699512732E+01,7.38436798626715E+01,7.36685185019856E+01,7.30410129351410E+01,,
YEM,,,,,,,,,,,,,,,,,,,,,,,,,,,,,,,,6.47000000000000E+01,6.52000000000000E+01,6.50000000000000E+01,6.52000000000000E+01,6.49000000000000E+01,6.47000000000000E+01,6.41000000000000E+01,6.41000000000000E+01,6.42000000000000E+01,6.41000000000000E+01,6.39000000000000E+01,6.38000000000000E+01,6.39000000000000E+01,6.38000000000000E+01,6.31000000000000E+01,6.35000000000000E+01,6.37000000000000E+01,6.41000000000000E+01,6.42000000000000E+01,,
ZAF,,,,,,,,,,,,,,,,,,,,,,,,,,,,,,,,4.79000000000000E+01,4.81000000000000E+01,4.81000000000000E+01,5.05000000000000E+01,5.21000000000000E+01,4.98000000000000E+01,4.86000000000000E+01,4.79000000000000E+01,4.79000000000000E+01,4.59000000000000E+01,4.48000000000000E+01,4.46000000000000E+01,4.41000000000000E+01,4.69000000000000E+01,4.69000000000000E+01,4.79000000000000E+01,5.02000000000000E+01,5.11000000000000E+01,4.94000000000000E+01,,
ZAR,,,,,,,,,,,,,,,,,,,,,,,,,,,,,,,,7.86000000000000E+01,7.87000000000000E+01,7.87000000000000E+01,7.92000000000000E+01,7.94000000000000E+01,7.94000000000000E+01,7.92000000000000E+01,7.94000000000000E+01,7.93000000000000E+01,7.92000000000000E+01,7.94000000000000E+01,7.95000000000000E+01,7.96000000000000E+01,7.95000000000000E+01,7.94000000000000E+01,7.92000000000000E+01,7.92000000000000E+01,7.90000000000000E+01,7.90000000000000E+01,,
ZMB,,,,,,,,,,,,,,,,,,,,,,,,,,,,,,,,6.14000000000000E+01,6.12000000000000E+01,6.05000000000000E+01,6.15000000000000E+01,6.20000000000000E+01,6.45000000000000E+01,6.52000000000000E+01,6.76000000000000E+01,6.74000000000000E+01,6.68000000000000E+01,6.69000000000000E+01,6.68000000000000E+01,6.70000000000000E+01,6.70000000000000E+01,6.70000000000000E+01,6.70000000000000E+01,6.70000000000000E+01,6.70000000000000E+01,6.76000000000000E+01,,
ZWE,,,,,,,,,,,,,,,,,,,,,,,,,,,,,,,,7.46000000000000E+01,7.47000000000000E+01,7.40000000000000E+01,7.55000000000000E+01,7.49000000000000E+01,7.44000000000000E+01,7.32000000000000E+01,7.30000000000000E+01,7.28000000000000E+01,7.23000000000000E+01,7.20000000000000E+01,7.19000000000000E+01,7.09000000000000E+01,7.26000000000000E+01,7.21000000000000E+01,7.11000000000000E+01,7.05000000000000E+01,6.89000000000000E+01,7.06000000000000E+01,,
