"Country Code",1960,1961,1962,1963,1964,1965,1966,1967,1968,1969,1970,1971,1972,1973,1974,1975,1976,1977,1978,1979,1980,1981,1982,1983,1984,1985,1986,1987,1988,1989,1990,1991,1992,1993,1994,1995,1996,1997,1998,1999,2000,2001,2002,2003,2004,2005,2006,2007,2008,2009,2010,2011ABW,,,,,,,,,,,,,,,,,,,,,,,,,,,,,,,,4.40000000000000E+01,,,4.34000000000000E+01,,,,,,4.83000000000000E+01,,,,,,,4.86000000000000E+01,,,,
ADO,,,,,,,,,,,,,,,,,,,,,,,,,,,,,,,,,,,,,,,,,,,,4.56000000000000E+01,4.57000000000000E+01,4.58000000000000E+01,4.61000000000000E+01,4.66000000000000E+01,4.68000000000000E+01,4.73000000000000E+01,,
AFG,,,,,,,,,,,,,,,,,,,,,,,,,,,,,,,,,,,,,,,,,,,1.92000000000000E+01,1.78000000000000E+01,1.85000000000000E+01,2.59000000000000E+01,1.80000000000000E+01,1.76000000000000E+01,1.84000000000000E+01,,,
AGO,,,,,,,,,,,,,,,,,,,,,,,,,,,,,,,,,,,,,2.35000000000000E+01,,,,,,,,,,,,,,,
ALB,,,,,,,,,,,,,,,,,,,,,,,,,,,,,,,,,,,,,,,,2.92000000000000E+01,2.89000000000000E+01,2.69000000000000E+01,3.16000000000000E+01,3.30000000000000E+01,,,,,,,,
ARB,,,,,,,,,,,,,,,,,,,,,,,,,,,,,,,,,,,,,,,,,,,,,,,1.65801922376867E+01,,,,,
ARE,,,,,,,,,,,,,,,,,,,,,,,,,,,,,,,,,,,,,,,,,,,,,,,,,2.01000000000000E+01,,,
ARG,,,,,,,,,,,,,,,,,,,,,,,,,,,,,,,3.71000000000000E+01,3.66000000000000E+01,3.78000000000000E+01,3.89000000000000E+01,3.81000000000000E+01,3.99000000000000E+01,3.96000000000000E+01,3.96000000000000E+01,4.09000000000000E+01,4.21000000000000E+01,4.26000000000000E+01,4.33000000000000E+01,4.59000000000000E+01,4.55000000000000E+01,4.48000000000000E+01,4.51000000000000E+01,4.50000000000000E+01,,,,,
ARM,,,,,,,,,,,,,,,,,,,,,,,,,,,,,,,,,,,,,,,,,,,4.50000000000000E+01,4.50000000000000E+01,4.34000000000000E+01,4.12000000000000E+01,4.15000000000000E+01,4.14000000000000E+01,4.04000000000000E+01,,,
ASM,,,,,,,,,,,,,,,,,,,,,,,,,,,,,,,4.17000000000000E+01,,,,,,,,,,,,,,,,,,,,,
ATG,,,,,,,,,,,,,,,,,,,,,,,,,,,,,,,,,,,,,,,,,,5.06000000000000E+01,5.06000000000000E+01,5.06000000000000E+01,5.06000000000000E+01,5.06000000000000E+01,5.06000000000000E+01,5.06000000000000E+01,5.06000000000000E+01,,,
AUS,,,,,,,,,,,,,,,,,,,,,,,,,,,,,,,4.37000000000000E+01,4.45000000000000E+01,4.43000000000000E+01,4.47000000000000E+01,4.47000000000000E+01,4.52000000000000E+01,4.52000000000000E+01,4.53000000000000E+01,4.55000000000000E+01,4.58000000000000E+01,4.63000000000000E+01,4.69000000000000E+01,4.67000000000000E+01,4.70000000000000E+01,4.67000000000000E+01,4.70000000000000E+01,4.71000000000000E+01,4.70000000000000E+01,4.71000000000000E+01,4.72000000000000E+01,,
AUT,,,,,,,,,,,,,,,,,,,,,,,,,,,,,,,4.15000000000000E+01,4.17000000000000E+01,4.24000000000000E+01,4.27000000000000E+01,4.28000000000000E+01,4.26000000000000E+01,4.27000000000000E+01,4.30000000000000E+01,4.32000000000000E+01,4.35000000000000E+01,4.37000000000000E+01,4.42000000000000E+01,4.49000000000000E+01,4.55000000000000E+01,4.62000000000000E+01,4.66000000000000E+01,4.66000000000000E+01,4.63000000000000E+01,4.70000000000000E+01,4.78000000000000E+01,,
AZE,,,,,,,,,,,,,,,,,,,,,,,,,,,,,,,,,,,,,,4.75000000000000E+01,4.75000000000000E+01,4.75000000000000E+01,4.76000000000000E+01,4.70000000000000E+01,4.66000000000000E+01,4.62000000000000E+01,4.49000000000000E+01,4.65000000000000E+01,4.61000000000000E+01,4.46000000000000E+01,4.36000000000000E+01,4.29000000000000E+01,,
BDI,,,,,,,,,,,,,,,,,,,,,,,,,,,,,,,1.43000000000000E+01,,,,,,,,,,,,,,,,,,,,,
BEL,,,,,,,,,,,,,,,,,,,,,,,,,,,,,,,3.87000000000000E+01,3.97000000000000E+01,4.06000000000000E+01,4.12000000000000E+01,4.10000000000000E+01,4.12000000000000E+01,4.14000000000000E+01,4.20000000000000E+01,4.24000000000000E+01,4.34000000000000E+01,4.34000000000000E+01,4.34000000000000E+01,4.39000000000000E+01,4.44000000000000E+01,4.47000000000000E+01,4.53000000000000E+01,4.57000000000000E+01,4.60000000000000E+01,4.66000000000000E+01,4.69000000000000E+01,,
BEN,,,,,,,,,,,,,,,,,,,,,,,,,,,,,,,,,2.07000000000000E+01,,,,,,,,,,2.43000000000000E+01,,,,,,,,,
BFA,,,,,,,,,,,,,,,,,,,,,,,,,,,,,,,2.30000000000000E+01,,,,,2.21000000000000E+01,,2.31000000000000E+01,,2.26000000000000E+01,2.32000000000000E+01,2.33000000000000E+01,2.32000000000000E+01,2.36000000000000E+01,2.48000000000000E+01,2.54000000000000E+01,2.65000000000000E+01,2.65000000000000E+01,,,,
BGD,,,,,,,,,,,,,,,,,,,,,,,,,,,,,,,,2.02000000000000E+01,,,,,2.67000000000000E+01,,,,2.47000000000000E+01,,,2.16000000000000E+01,,2.01000000000000E+01,,,,,,
BGR,,,,,,,,,,,,,,,,,,,,,,,,,,,,,,,,,,5.21000000000000E+01,5.22000000000000E+01,5.24000000000000E+01,5.25000000000000E+01,5.24000000000000E+01,5.27000000000000E+01,5.24000000000000E+01,5.28000000000000E+01,5.31000000000000E+01,5.31000000000000E+01,5.31000000000000E+01,5.27000000000000E+01,5.22000000000000E+01,5.14000000000000E+01,5.13000000000000E+01,5.09000000000000E+01,5.11000000000000E+01,,
BHR,,,,,,,,,,,,,,,,,,,,,,,,,,,,,,,7.60000000000000E+00,7.90000000000000E+00,8.70000000000000E+00,9.60000000000000E+00,1.03000000000000E+01,,,1.06000000000000E+01,,1.23000000000000E+01,1.24000000000000E+01,1.32000000000000E+01,1.27000000000000E+01,1.28000000000000E+01,1.15000000000000E+01,1.10000000000000E+01,1.03000000000000E+01,9.80000000000000E+00,9.60000000000000E+00,9.60000000000000E+00,,
BHS,,,,,,,,,,,,,,,,,,,,,,,,,,,,,,,,4.96000000000000E+01,4.88000000000000E+01,4.86000000000000E+01,4.89000000000000E+01,4.94000000000000E+01,4.76000000000000E+01,4.81000000000000E+01,4.94000000000000E+01,4.84000000000000E+01,,4.98000000000000E+01,4.97000000000000E+01,5.01000000000000E+01,5.04000000000000E+01,5.00000000000000E+01,4.97000000000000E+01,4.88000000000000E+01,4.92000000000000E+01,5.02000000000000E+01,,
BIH,,,,,,,,,,,,,,,,,,,,,,,,,,,,,,,,,,,,,,,,,,,,,,,3.52000000000000E+01,3.47000000000000E+01,3.57000000000000E+01,,,
BLR,,,,,,,,,,,,,,,,,,,,,,,,,,,,,,,5.54000000000000E+01,5.53000000000000E+01,5.54000000000000E+01,5.54000000000000E+01,5.60000000000000E+01,5.62000000000000E+01,5.64000000000000E+01,5.61000000000000E+01,5.56000000000000E+01,5.54000000000000E+01,5.59000000000000E+01,5.60000000000000E+01,5.62000000000000E+01,5.63000000000000E+01,5.62000000000000E+01,5.61000000000000E+01,5.60000000000000E+01,5.60000000000000E+01,5.60000000000000E+01,5.58000000000000E+01,,
BLZ,,,,,,,,,,,,,,,,,,,,,,,,,,,,,,,,,,3.39000000000000E+01,3.27000000000000E+01,3.30000000000000E+01,3.33000000000000E+01,3.32000000000000E+01,3.44000000000000E+01,3.41000000000000E+01,,3.50000000000000E+01,3.40000000000000E+01,,,3.65000000000000E+01,3.59000000000000E+01,3.77000000000000E+01,,,,
BMU,,,,,,,,,,,,,,,,,,,,,,,,,,,,,,,4.87000000000000E+01,4.91000000000000E+01,4.96000000000000E+01,4.98000000000000E+01,5.03000000000000E+01,5.04000000000000E+01,5.04000000000000E+01,5.05000000000000E+01,5.03000000000000E+01,4.99000000000000E+01,4.98000000000000E+01,4.93000000000000E+01,4.94000000000000E+01,4.89000000000000E+01,4.87000000000000E+01,4.86000000000000E+01,4.85000000000000E+01,4.87000000000000E+01,,,,
BOL,,,,,,,,,,,,,,,,,,,,,,,,,,,,,,,3.52000000000000E+01,3.48000000000000E+01,3.42000000000000E+01,3.68000000000000E+01,3.53000000000000E+01,3.59000000000000E+01,3.69000000000000E+01,3.61000000000000E+01,,3.45000000000000E+01,3.86000000000000E+01,3.81000000000000E+01,3.82000000000000E+01,,3.61000000000000E+01,3.77000000000000E+01,4.24000000000000E+01,3.81000000000000E+01,,,,
BRA,,,,,,,,,,,,,,,,,,,,,,,,,,,,,,,3.51000000000000E+01,,3.74000000000000E+01,3.75000000000000E+01,3.80000000000000E+01,3.85000000000000E+01,3.89000000000000E+01,3.91000000000000E+01,3.96000000000000E+01,4.03000000000000E+01,4.03000000000000E+01,4.07000000000000E+01,4.10000000000000E+01,4.14000000000000E+01,4.16000000000000E+01,4.15000000000000E+01,4.18000000000000E+01,4.16000000000000E+01,,,,
BRB,,,,,,,,,,,,,,,,,,,,,,,,,,,,,,,4.68000000000000E+01,4.64000000000000E+01,4.89000000000000E+01,4.81000000000000E+01,4.80000000000000E+01,4.93000000000000E+01,4.79000000000000E+01,4.88000000000000E+01,4.80000000000000E+01,4.90000000000000E+01,4.99000000000000E+01,5.01000000000000E+01,5.00000000000000E+01,5.11000000000000E+01,5.13000000000000E+01,5.20000000000000E+01,5.12000000000000E+01,5.04000000000000E+01,5.07000000000000E+01,,,
BRN,,,,,,,,,,,,,,,,,,,,,,,,,,,,,,,,2.25000000000000E+01,,,1.95000000000000E+01,1.72000000000000E+01,1.90000000000000E+01,1.99000000000000E+01,2.38000000000000E+01,2.67000000000000E+01,3.03000000000000E+01,2.89000000000000E+01,2.90000000000000E+01,3.03000000000000E+01,,,,,,,,
BTN,,,,,,,,,,,,,,,,,,,,,,,,,,,,,,,,,,,,,,,,,,,,,,,,,,2.68000000000000E+01,,
BWA,,,,,,,,,,,,,,,,,,,,,,,,,,,,,,,3.35000000000000E+01,3.34000000000000E+01,3.66000000000000E+01,,,3.84000000000000E+01,3.86000000000000E+01,3.91000000000000E+01,3.88000000000000E+01,4.05000000000000E+01,4.29000000000000E+01,4.11000000000000E+01,4.24000000000000E+01,4.08000000000000E+01,3.95000000000000E+01,4.26000000000000E+01,4.36000000000000E+01,4.34000000000000E+01,,4.52000000000000E+01,,
CAF,,,,,,,,,,,,,,,,,,,,,,,,,,,,,,,,,,,,,,,,,,,,4.68000000000000E+01,,,,,,,,
CAN,,,,,,,,,,,,,,,,,,,,,,,,,,,,,,,4.69000000000000E+01,4.78000000000000E+01,4.80000000000000E+01,4.81000000000000E+01,4.78000000000000E+01,4.80000000000000E+01,4.80000000000000E+01,4.81000000000000E+01,4.83000000000000E+01,4.82000000000000E+01,4.83000000000000E+01,4.88000000000000E+01,4.88000000000000E+01,4.92000000000000E+01,4.94000000000000E+01,4.94000000000000E+01,4.95000000000000E+01,4.98000000000000E+01,4.99000000000000E+01,5.06000000000000E+01,,
CHE,,,,,,,,,,,,,,,,,,,,,,,,,,,,,,,4.34000000000000E+01,4.37000000000000E+01,4.36000000000000E+01,4.33000000000000E+01,4.37000000000000E+01,4.42000000000000E+01,4.49000000000000E+01,4.53000000000000E+01,4.57000000000000E+01,4.59000000000000E+01,4.57000000000000E+01,4.63000000000000E+01,4.71000000000000E+01,4.69000000000000E+01,4.71000000000000E+01,4.71000000000000E+01,4.69000000000000E+01,4.68000000000000E+01,4.79000000000000E+01,4.78000000000000E+01,,
CHL,,,,,,,,,,,,,,,,,,,,,,,,,,,,,,,3.73000000000000E+01,3.66000000000000E+01,3.74000000000000E+01,3.75000000000000E+01,3.76000000000000E+01,3.73000000000000E+01,3.68000000000000E+01,3.72000000000000E+01,3.17000000000000E+01,3.27000000000000E+01,3.28000000000000E+01,3.29000000000000E+01,3.32000000000000E+01,3.35000000000000E+01,3.42000000000000E+01,3.44000000000000E+01,3.49000000000000E+01,3.55000000000000E+01,3.62000000000000E+01,3.69000000000000E+01,,
CHN,,,,,,,,,,,,,,,,,,,,,,,,,,,,,,,3.78000000000000E+01,3.79000000000000E+01,3.58000000000000E+01,3.73000000000000E+01,3.81000000000000E+01,3.87000000000000E+01,3.87000000000000E+01,3.88000000000000E+01,3.79000000000000E+01,3.91000000000000E+01,,,,,,,,,,,,
CIV,,,,,,,,,,,,,,,,,,,,,,,,,,,,,,,,,,,,,,,2.06000000000000E+01,,,,,,,,,,,,,
CMR,,,,,,,,,,,,,,,,,,,,,,,,,,,,,,,,,,,,,1.92000000000000E+01,,,,,2.22000000000000E+01,,,,,,,,,,
COG,,,,,,,,,,,,,,,,,,,,,,,,,,,,,,,2.61000000000000E+01,,,,,,,,,,,,,,,,,,,,,
COL,,,,,,,,,,,,,,,,,,,,,,,,,,,,,,,4.18000000000000E+01,4.36000000000000E+01,4.44000000000000E+01,4.46000000000000E+01,4.36000000000000E+01,4.49000000000000E+01,4.47000000000000E+01,4.61000000000000E+01,4.58000000000000E+01,4.78000000000000E+01,4.88000000000000E+01,4.91000000000000E+01,5.01000000000000E+01,4.88000000000000E+01,4.83000000000000E+01,4.74000000000000E+01,4.66000000000000E+01,4.75000000000000E+01,4.75000000000000E+01,,,
COM,,,,,,,,,,,,,,,,,,,,,,,,,,,,,,,,,,,,,1.80000000000000E+01,,,,,,,,,,,,,,,
CPV,,,,,,,,,,,,,,,,,,,,,,,,,,,,,,,,,,,,,,,,,3.89000000000000E+01,,,,,,,,,,,
CRI,,,,,,,,,,,,,,,,,,,,,,,,,,,,,,,3.72000000000000E+01,3.74000000000000E+01,3.78000000000000E+01,3.63000000000000E+01,3.65000000000000E+01,3.67000000000000E+01,3.72000000000000E+01,3.75000000000000E+01,3.88000000000000E+01,3.95000000000000E+01,3.93000000000000E+01,4.01000000000000E+01,3.99000000000000E+01,3.95000000000000E+01,3.85000000000000E+01,3.96000000000000E+01,4.07000000000000E+01,4.11000000000000E+01,4.15000000000000E+01,4.13000000000000E+01,,
CUB,,,,,,,,,,,,,,,,,,,,,,,,,,,,,,,,,,,,4.23000000000000E+01,4.20000000000000E+01,4.23000000000000E+01,4.29000000000000E+01,4.33000000000000E+01,4.33000000000000E+01,4.28000000000000E+01,4.23000000000000E+01,4.28000000000000E+01,4.26000000000000E+01,4.26000000000000E+01,4.27000000000000E+01,4.37000000000000E+01,4.34000000000000E+01,,,
CYM,,,,,,,,,,,,,,,,,,,,,,,,,,,,,,,,5.00000000000000E+01,,,,,,5.18000000000000E+01,,,5.12000000000000E+01,,5.18000000000000E+01,5.42000000000000E+01,5.22000000000000E+01,4.95000000000000E+01,4.94000000000000E+01,4.93000000000000E+01,5.05000000000000E+01,,,
CYP,,,,,,,,,,,,,,,,,,,,,,,,,,,,,,,,,,,,4.13000000000000E+01,4.16000000000000E+01,4.20000000000000E+01,4.24000000000000E+01,4.32000000000000E+01,4.44000000000000E+01,4.74000000000000E+01,4.82000000000000E+01,4.93000000000000E+01,4.82000000000000E+01,4.77000000000000E+01,4.81000000000000E+01,4.91000000000000E+01,4.87000000000000E+01,4.83000000000000E+01,,
CZE,,,,,,,,,,,,,,,,,,,,,,,,,,,,,,,5.10000000000000E+01,4.83000000000000E+01,4.57000000000000E+01,4.60000000000000E+01,4.64000000000000E+01,4.63000000000000E+01,4.63000000000000E+01,4.62000000000000E+01,4.62000000000000E+01,4.65000000000000E+01,4.65000000000000E+01,4.66000000000000E+01,4.67000000000000E+01,4.68000000000000E+01,4.71000000000000E+01,4.66000000000000E+01,4.64000000000000E+01,4.63000000000000E+01,4.60000000000000E+01,4.63000000000000E+01,,
DEU,,,,,,,,,,,,,,,,,,,,,,,,,,,,,,,,4.27000000000000E+01,4.26000000000000E+01,4.27000000000000E+01,4.30000000000000E+01,4.30000000000000E+01,4.37000000000000E+01,4.40000000000000E+01,4.42000000000000E+01,4.48000000000000E+01,4.51000000000000E+01,4.55000000000000E+01,4.59000000000000E+01,4.64000000000000E+01,4.66000000000000E+01,4.66000000000000E+01,4.69000000000000E+01,4.69000000000000E+01,4.68000000000000E+01,4.81000000000000E+01,,
DJI,,,,,,,,,,,,,,,,,,,,,,,,,,,,,,,,,,,,,,,,,,,2.67000000000000E+01,,,,,,,,,
DMA,,,,,,,,,,,,,,,,,,,,,,,,,,,,,,,,3.97000000000000E+01,,,,,,4.68000000000000E+01,,4.40000000000000E+01,,4.38000000000000E+01,,,,,,,,,,
DNK,,,,,,,,,,,,,,,,,,,,,,,,,,,,,,,4.80000000000000E+01,4.82000000000000E+01,4.84000000000000E+01,4.87000000000000E+01,4.77000000000000E+01,4.65000000000000E+01,4.73000000000000E+01,4.76000000000000E+01,4.81000000000000E+01,4.83000000000000E+01,4.85000000000000E+01,4.89000000000000E+01,4.90000000000000E+01,4.83000000000000E+01,4.88000000000000E+01,4.87000000000000E+01,4.88000000000000E+01,4.90000000000000E+01,4.93000000000000E+01,4.95000000000000E+01,,
DOM,,,,,,,,,,,,,,,,,,,,,,,,,,,,,,,,3.15000000000000E+01,3.13000000000000E+01,3.14000000000000E+01,3.26000000000000E+01,3.40000000000000E+01,3.23000000000000E+01,3.21000000000000E+01,3.46000000000000E+01,3.46000000000000E+01,3.73000000000000E+01,3.69000000000000E+01,3.82000000000000E+01,3.90000000000000E+01,3.80000000000000E+01,3.77000000000000E+01,3.93000000000000E+01,3.88000000000000E+01,,,,
DZA,,,,,,,,,,,,,,,,,,,,,,,,,,,,,,,,,,,,,,,,,,1.34000000000000E+01,,1.42000000000000E+01,1.45000000000000E+01,1.47000000000000E+01,1.50000000000000E+01,1.68000000000000E+01,1.50000000000000E+01,,,
EAP,,,,,,,,,,,,,,,,,,,,,,,,,,,,,,,3.70388156587487E+01,3.74526815774424E+01,3.56967321773057E+01,3.69542611350018E+01,3.75808673539554E+01,3.78126339555364E+01,3.79908680647780E+01,3.82847806244220E+01,3.77453050778687E+01,3.87062851747024E+01,,,,,,,,,,,,
EAS,,,,,,,,,,,,,,,,,,,,,,,,,,,,,,,3.72165897184129E+01,3.76314650947408E+01,3.60692371814654E+01,3.72020312543732E+01,3.77861522025341E+01,3.79924707460409E+01,3.81827937679031E+01,3.84820573135420E+01,3.79841488633729E+01,3.88880707730458E+01,,,,,,,,,,,,
ECA,,,,,,,,,,,,,,,,,,,,,,,,,,,,,,,,,4.57948451078495E+01,4.56241864124434E+01,4.63585377689969E+01,4.61042339744783E+01,4.61403478815756E+01,4.65226654648448E+01,4.68145153941953E+01,4.67475240213285E+01,4.70729991913543E+01,4.62400453598252E+01,4.73410939680012E+01,4.76332892040531E+01,4.82040349197022E+01,4.81267096493147E+01,4.81210212641464E+01,4.80963617303819E+01,4.82044870198397E+01,4.82975308924989E+01,,
ECS,,,,,,,,,,,,,,,,,,,,,,,,,,,,,,,,4.16907756573979E+01,4.42986810599797E+01,4.44217750598568E+01,4.48393859186007E+01,4.48851299237801E+01,4.51929961843358E+01,4.53651223512535E+01,4.55208767691099E+01,4.56655183663926E+01,4.59039783678562E+01,4.56837001380692E+01,4.64113898950734E+01,4.66544670805437E+01,4.70565078864826E+01,4.70561940779387E+01,4.71659591012788E+01,4.72167146418497E+01,4.73882227488677E+01,4.77878356657848E+01,,
ECU,,,,,,,,,,,,,,,,,,,,,,,,,,,,,,,3.09000000000000E+01,3.15000000000000E+01,3.34000000000000E+01,3.20000000000000E+01,3.29000000000000E+01,3.33000000000000E+01,3.33000000000000E+01,3.38000000000000E+01,3.33000000000000E+01,3.90000000000000E+01,3.93000000000000E+01,3.87000000000000E+01,3.81000000000000E+01,,3.92000000000000E+01,4.02000000000000E+01,3.87000000000000E+01,,,,,
EGY,,,,,,,,,,,,,,,,,,,,,,,,,,,,,,,2.05000000000000E+01,1.87000000000000E+01,1.78000000000000E+01,1.88000000000000E+01,1.89000000000000E+01,1.89000000000000E+01,,1.89000000000000E+01,2.00000000000000E+01,2.09000000000000E+01,1.90000000000000E+01,2.07000000000000E+01,2.24000000000000E+01,1.99000000000000E+01,1.88000000000000E+01,1.77000000000000E+01,1.81000000000000E+01,1.90000000000000E+01,1.80000000000000E+01,1.81000000000000E+01,,
EMU,,,,,,,,,,,,,,,,,,,,,,,,,,,,,,,3.99188538709573E+01,4.09510561602799E+01,4.14831890074096E+01,4.17873797726734E+01,4.19751941976416E+01,4.21546358578548E+01,4.27597612389161E+01,4.30368830977895E+01,4.31733417191497E+01,4.36547262902010E+01,4.39809627054146E+01,4.43815013369636E+01,4.47649040914193E+01,4.51694928360699E+01,4.55990156678444E+01,4.57961610953852E+01,4.60932844754275E+01,4.63605542605916E+01,4.66150225897882E+01,4.74547809757771E+01,,
ERI,,,,,,,,,,,,,,,,,,,,,,,,,,,,,,,,,,,,,3.11000000000000E+01,,,,,,,,,,,,,,,
ESP,,,,,,,,,,,,,,,,,,,,,,,,,,,,,,,3.23000000000000E+01,3.30000000000000E+01,3.37000000000000E+01,3.47000000000000E+01,3.55000000000000E+01,3.57000000000000E+01,3.66000000000000E+01,3.72000000000000E+01,3.71000000000000E+01,3.80000000000000E+01,3.89000000000000E+01,3.94000000000000E+01,4.00000000000000E+01,4.07000000000000E+01,4.15000000000000E+01,4.23000000000000E+01,4.30000000000000E+01,4.37000000000000E+01,4.49000000000000E+01,4.65000000000000E+01,,
EST,,,,,,,,,,,,,,,,,,,,,,,,,,,,,,,5.23000000000000E+01,5.17000000000000E+01,5.12000000000000E+01,5.14000000000000E+01,5.11000000000000E+01,5.08000000000000E+01,5.13000000000000E+01,5.09000000000000E+01,5.14000000000000E+01,5.16000000000000E+01,5.17000000000000E+01,5.17000000000000E+01,5.15000000000000E+01,5.15000000000000E+01,5.22000000000000E+01,5.26000000000000E+01,5.25000000000000E+01,5.23000000000000E+01,5.18000000000000E+01,5.44000000000000E+01,,
ETH,,,,,,,,,,,,,,,,,,,,,,,,,,,,,,,,,,,,,,,,4.09000000000000E+01,,,,,4.06000000000000E+01,4.38000000000000E+01,4.73000000000000E+01,,,,,
EUU,,,,,,,,,,,,,,,,,,,,,,,,,,,,,,,4.20705075042176E+01,4.25009175394331E+01,4.30884811759453E+01,4.35654719745821E+01,4.37949616544672E+01,4.40649454701965E+01,4.45933442822630E+01,4.46091265062015E+01,4.46641885369503E+01,4.49442410061572E+01,4.51967562922232E+01,4.54763671785520E+01,4.57536050694835E+01,4.59907551098442E+01,4.63151066723303E+01,4.63502422696171E+01,4.65344539174672E+01,4.66395405597456E+01,4.68147276087287E+01,4.75252221593983E+01,,
FIN,,,,,,,,,,,,,,,,,,,,,,,,,,,,,,,5.06000000000000E+01,5.14000000000000E+01,5.22000000000000E+01,5.21000000000000E+01,5.19000000000000E+01,5.11000000000000E+01,5.06000000000000E+01,5.03000000000000E+01,4.98000000000000E+01,5.03000000000000E+01,5.03000000000000E+01,5.02000000000000E+01,5.07000000000000E+01,5.06000000000000E+01,5.07000000000000E+01,5.09000000000000E+01,5.10000000000000E+01,5.10000000000000E+01,5.07000000000000E+01,5.15000000000000E+01,,
FJI,,,,,,,,,,,,,,,,,,,,,,,,,,,,,,,2.99000000000000E+01,,,3.03000000000000E+01,,,3.15000000000000E+01,3.26000000000000E+01,3.40000000000000E+01,3.49000000000000E+01,3.32000000000000E+01,,,,,2.96000000000000E+01,,,,,,
FRA,,,,,,,,,,,,,,,,,,,,,,,,,,,,,,,4.47000000000000E+01,4.50000000000000E+01,4.57000000000000E+01,4.64000000000000E+01,4.62000000000000E+01,4.63000000000000E+01,4.72000000000000E+01,4.73000000000000E+01,4.74000000000000E+01,4.74000000000000E+01,4.74000000000000E+01,4.75000000000000E+01,4.79000000000000E+01,4.82000000000000E+01,4.83000000000000E+01,4.86000000000000E+01,4.89000000000000E+01,4.93000000000000E+01,4.92000000000000E+01,4.94000000000000E+01,,
FRO,,,,,,,,,,,,,,,,,,,,,,,,,,,,,,,,,,,,,,,,,,,,,,4.58000000000000E+01,,,,,,
GAB,,,,,,,,,,,,,,,,,,,,,,,,,,,,,,,,,,2.93000000000000E+01,,,,,,,,,,,,,,,,,,
GBR,,,,,,,,,,,,,,,,,,,,,,,,,,,,,,,4.40000000000000E+01,4.52000000000000E+01,4.57000000000000E+01,4.67000000000000E+01,4.70000000000000E+01,4.69000000000000E+01,4.79000000000000E+01,4.71000000000000E+01,4.66000000000000E+01,4.59000000000000E+01,4.60000000000000E+01,4.61000000000000E+01,4.63000000000000E+01,4.60000000000000E+01,4.63000000000000E+01,4.63000000000000E+01,4.64000000000000E+01,4.61000000000000E+01,4.63000000000000E+01,4.69000000000000E+01,,
GEO,,,,,,,,,,,,,,,,,,,,,,,,,,,,,,,,,,,,,,,4.94000000000000E+01,4.92000000000000E+01,,,4.96000000000000E+01,4.89000000000000E+01,5.03000000000000E+01,4.85000000000000E+01,4.85000000000000E+01,4.78000000000000E+01,4.62000000000000E+01,4.76000000000000E+01,,
GHA,,,,,,,,,,,,,,,,,,,,,,,,,,,,,,,,,,,,,,,,,3.17000000000000E+01,,,,,,,,,,,
GIB,,,,,,,,,,,,,,,,,,,,,,,,,,,,,,,3.45000000000000E+01,3.28000000000000E+01,3.39000000000000E+01,3.70000000000000E+01,3.84000000000000E+01,3.77000000000000E+01,3.68000000000000E+01,3.72000000000000E+01,3.77000000000000E+01,3.93000000000000E+01,3.97000000000000E+01,3.99000000000000E+01,4.02000000000000E+01,4.16000000000000E+01,4.15000000000000E+01,4.19000000000000E+01,4.15000000000000E+01,4.10000000000000E+01,,4.12000000000000E+01,,
GIN,,,,,,,,,,,,,,,,,,,,,,,,,,,,,,,,,,,,,,,,2.40000000000000E+01,2.42000000000000E+01,2.52000000000000E+01,2.52000000000000E+01,2.56000000000000E+01,2.60000000000000E+01,2.85000000000000E+01,2.87000000000000E+01,2.88000000000000E+01,2.85000000000000E+01,,,
GMB,,,,,,,,,,,,,,,,,,,,,,,,,,,,,,,,,,,,,,,3.39000000000000E+01,3.17000000000000E+01,,,,,,,,,,,,
GNB,,,,,,,,,,,,,,,,,,,,,,,,,,,,,,,1.08000000000000E+01,,,,,,,,,,,,,,,,,,,,,
GNQ,,,,,,,,,,,,,,,,,,,,,,,,,,,,,,,1.05000000000000E+01,,,,,,,,,,,,,,,,,,,,,
GRC,,,,,,,,,,,,,,,,,,,,,,,,,,,,,,,3.50000000000000E+01,3.48000000000000E+01,3.59000000000000E+01,3.63000000000000E+01,3.64000000000000E+01,3.76000000000000E+01,3.77000000000000E+01,3.88000000000000E+01,3.80000000000000E+01,3.88000000000000E+01,3.91000000000000E+01,3.96000000000000E+01,3.98000000000000E+01,4.01000000000000E+01,4.09000000000000E+01,4.10000000000000E+01,4.16000000000000E+01,4.20000000000000E+01,4.22000000000000E+01,4.32000000000000E+01,,
GRD,,,,,,,,,,,,,,,,,,,,,,,,,,,,,,,,,,,4.04000000000000E+01,,4.26000000000000E+01,,4.26000000000000E+01,,,,,,,,,,,,,
GRL,,,,,,,,,,,,,,,,,,,,,,,,,,,,,,,,,,,,,4.99000000000000E+01,4.97000000000000E+01,4.97000000000000E+01,4.94000000000000E+01,4.88000000000000E+01,4.96000000000000E+01,4.91000000000000E+01,4.94000000000000E+01,4.95000000000000E+01,4.93000000000000E+01,,,,,,
GTM,,,,,,,,,,,,,,,,,,,,,,,,,,,,,,,3.68000000000000E+01,3.84000000000000E+01,,,,,,,,,4.00000000000000E+01,,4.03000000000000E+01,4.20000000000000E+01,3.94000000000000E+01,,4.30000000000000E+01,,,,,
GUM,,,,,,,,,,,,,,,,,,,,,,,,,,,,,,,,,,,,4.33000000000000E+01,4.38000000000000E+01,4.59000000000000E+01,4.52000000000000E+01,4.53000000000000E+01,4.56000000000000E+01,4.57000000000000E+01,4.58000000000000E+01,4.24000000000000E+01,4.33000000000000E+01,4.45000000000000E+01,4.46000000000000E+01,4.41000000000000E+01,4.33000000000000E+01,4.24000000000000E+01,,
GUY,,,,,,,,,,,,,,,,,,,,,,,,,,,,,,,,,,,,,,3.85000000000000E+01,,,,,3.47000000000000E+01,,,,,,,,,
HIC,,,,,,,,,,,,,,,,,,,,,,,,,,,,,,,4.30210384896413E+01,4.33382666752480E+01,4.36854841107903E+01,4.39150098680012E+01,4.39965273372149E+01,4.41727033333045E+01,4.45119268156862E+01,4.45472936430499E+01,4.46376753429465E+01,4.47810325432622E+01,4.49075849124920E+01,4.51483490030551E+01,4.53915283755111E+01,4.57596614347336E+01,4.58930689787137E+01,4.59171454257998E+01,4.58731032207039E+01,4.59722070030553E+01,4.61622500156913E+01,4.70057672248214E+01,,
HKG,,,,,,,,,,,,,,,,,,,,,,,,,,,,,,,4.12000000000000E+01,4.15000000000000E+01,4.16000000000000E+01,4.20000000000000E+01,4.22000000000000E+01,4.25000000000000E+01,4.26000000000000E+01,4.33000000000000E+01,4.37000000000000E+01,4.41000000000000E+01,4.48000000000000E+01,4.55000000000000E+01,4.59000000000000E+01,4.68000000000000E+01,4.73000000000000E+01,4.78000000000000E+01,4.79000000000000E+01,4.82000000000000E+01,4.86000000000000E+01,4.99000000000000E+01,,
HND,,,,,,,,,,,,,,,,,,,,,,,,,,,,,,,4.14000000000000E+01,,4.08000000000000E+01,,,,4.26000000000000E+01,4.32000000000000E+01,4.24000000000000E+01,4.24000000000000E+01,,4.20000000000000E+01,4.09000000000000E+01,4.06000000000000E+01,4.25000000000000E+01,4.15000000000000E+01,4.22000000000000E+01,4.19000000000000E+01,,,,
HRV,,,,,,,,,,,,,,,,,,,,,,,,,,,,,,,4.32000000000000E+01,4.38000000000000E+01,4.48000000000000E+01,4.57000000000000E+01,4.64000000000000E+01,4.66000000000000E+01,4.67000000000000E+01,4.69000000000000E+01,4.76000000000000E+01,4.77000000000000E+01,4.70000000000000E+01,4.67000000000000E+01,4.69000000000000E+01,4.61000000000000E+01,4.57000000000000E+01,4.59000000000000E+01,4.69000000000000E+01,4.55000000000000E+01,4.58000000000000E+01,4.56000000000000E+01,,
HTI,,,,,,,,,,,,,,,,,,,,,,,,,,,,,,,4.42000000000000E+01,,,,,,,,,,,,,,,,,,,,,
HUN,,,,,,,,,,,,,,,,,,,,,,,,,,,,,,,,,4.92000000000000E+01,4.94000000000000E+01,4.89000000000000E+01,4.80000000000000E+01,4.80000000000000E+01,4.75000000000000E+01,4.81000000000000E+01,4.87000000000000E+01,4.86000000000000E+01,4.85000000000000E+01,4.84000000000000E+01,4.91000000000000E+01,4.89000000000000E+01,4.87000000000000E+01,4.83000000000000E+01,4.80000000000000E+01,4.84000000000000E+01,4.87000000000000E+01,,
IDN,,,,,,,,,,,,,,,,,,,,,,,,,,,,,,,2.92000000000000E+01,3.01000000000000E+01,3.04000000000000E+01,3.03000000000000E+01,3.01000000000000E+01,2.90000000000000E+01,2.96000000000000E+01,3.00000000000000E+01,3.13000000000000E+01,3.11000000000000E+01,3.17000000000000E+01,3.07000000000000E+01,2.97000000000000E+01,2.95000000000000E+01,2.90000000000000E+01,3.03000000000000E+01,3.13000000000000E+01,3.09000000000000E+01,3.24000000000000E+01,,,
IND,,,,,,,,,,,,,,,,,,,,,,,,,,,,,,,1.27000000000000E+01,1.30000000000000E+01,1.33000000000000E+01,1.37000000000000E+01,1.41000000000000E+01,1.44000000000000E+01,1.49000000000000E+01,1.55000000000000E+01,1.60000000000000E+01,1.63000000000000E+01,1.66000000000000E+01,1.68000000000000E+01,1.73000000000000E+01,1.76000000000000E+01,1.79000000000000E+01,1.81000000000000E+01,,,,,,
IRL,,,,,,,,,,,,,,,,,,,,,,,,,,,,,,,4.17000000000000E+01,4.14000000000000E+01,4.28000000000000E+01,4.34000000000000E+01,4.40000000000000E+01,4.44000000000000E+01,4.47000000000000E+01,4.52000000000000E+01,4.57000000000000E+01,4.61000000000000E+01,4.63000000000000E+01,4.65000000000000E+01,4.75000000000000E+01,4.74000000000000E+01,4.75000000000000E+01,4.77000000000000E+01,4.75000000000000E+01,4.82000000000000E+01,4.92000000000000E+01,5.16000000000000E+01,,
IRN,,,,,,,,,,,,,,,,,,,,,,,,,,,,,,,1.05000000000000E+01,1.08000000000000E+01,1.12000000000000E+01,1.16000000000000E+01,1.20000000000000E+01,,,1.48000000000000E+01,1.54000000000000E+01,1.41000000000000E+01,1.36000000000000E+01,1.16000000000000E+01,1.20000000000000E+01,1.21000000000000E+01,1.30000000000000E+01,1.61000000000000E+01,,,,,,
IRQ,,,,,,,,,,,,,,,,,,,,,,,,,,,,,,,,,,,,,,,,,,,,,1.60000000000000E+01,,1.53000000000000E+01,,1.21000000000000E+01,,,
ISL,,,,,,,,,,,,,,,,,,,,,,,,,,,,,,,,5.26000000000000E+01,5.22000000000000E+01,5.28000000000000E+01,5.36000000000000E+01,5.40000000000000E+01,5.27000000000000E+01,5.19000000000000E+01,5.25000000000000E+01,5.26000000000000E+01,5.22000000000000E+01,5.23000000000000E+01,5.30000000000000E+01,5.25000000000000E+01,5.18000000000000E+01,5.22000000000000E+01,5.09000000000000E+01,5.00000000000000E+01,4.94000000000000E+01,5.11000000000000E+01,,
ISR,,,,,,,,,,,,,,,,,,,,,,,,,,,,,,,4.30000000000000E+01,4.29000000000000E+01,4.36000000000000E+01,4.41000000000000E+01,4.48000000000000E+01,4.55000000000000E+01,4.61000000000000E+01,4.66000000000000E+01,4.75000000000000E+01,4.80000000000000E+01,4.83000000000000E+01,4.84000000000000E+01,4.87000000000000E+01,4.89000000000000E+01,4.87000000000000E+01,4.93000000000000E+01,4.90000000000000E+01,4.90000000000000E+01,4.93000000000000E+01,4.95000000000000E+01,,
ITA,,,,,,,,,,,,,,,,,,,,,,,,,,,,,,,3.59000000000000E+01,3.60000000000000E+01,3.64000000000000E+01,3.60000000000000E+01,3.64000000000000E+01,3.70000000000000E+01,3.77000000000000E+01,3.80000000000000E+01,3.85000000000000E+01,3.91000000000000E+01,3.98000000000000E+01,4.06000000000000E+01,4.09000000000000E+01,4.12000000000000E+01,4.27000000000000E+01,4.26000000000000E+01,4.28000000000000E+01,4.30000000000000E+01,4.35000000000000E+01,4.39000000000000E+01,,
JAM,,,,,,,,,,,,,,,,,,,,,,,,,,,,,,,4.73000000000000E+01,4.72000000000000E+01,4.75000000000000E+01,4.84000000000000E+01,4.83000000000000E+01,4.73000000000000E+01,4.69000000000000E+01,4.62000000000000E+01,4.66000000000000E+01,4.52000000000000E+01,4.50000000000000E+01,4.49000000000000E+01,4.62000000000000E+01,4.63000000000000E+01,4.52000000000000E+01,4.56000000000000E+01,4.58000000000000E+01,4.63000000000000E+01,4.82000000000000E+01,,,
JOR,,,,,,,,,,,,,,,,,,,,,,,,,,,,,,,,1.10000000000000E+01,1.13000000000000E+01,1.15000000000000E+01,1.17000000000000E+01,1.20000000000000E+01,1.22000000000000E+01,1.38000000000000E+01,1.40000000000000E+01,1.42000000000000E+01,1.44000000000000E+01,1.41000000000000E+01,1.49000000000000E+01,1.39000000000000E+01,,1.37000000000000E+01,1.55000000000000E+01,1.58000000000000E+01,1.57000000000000E+01,,,
JPN,,,,,,,,,,,,,,,,,,,,,,,,,,,,,,,3.80000000000000E+01,3.84000000000000E+01,3.86000000000000E+01,3.87000000000000E+01,3.89000000000000E+01,3.89000000000000E+01,3.92000000000000E+01,3.95000000000000E+01,3.96000000000000E+01,3.97000000000000E+01,4.00000000000000E+01,4.04000000000000E+01,4.06000000000000E+01,4.08000000000000E+01,4.12000000000000E+01,4.13000000000000E+01,4.16000000000000E+01,4.16000000000000E+01,4.18000000000000E+01,4.23000000000000E+01,,
KAZ,,,,,,,,,,,,,,,,,,,,,,,,,,,,,,,,,,,,,,,,,,4.85000000000000E+01,4.81000000000000E+01,4.87000000000000E+01,4.94000000000000E+01,4.91000000000000E+01,4.99000000000000E+01,5.01000000000000E+01,5.00000000000000E+01,,,
KEN,,,,,,,,,,,,,,,,,,,,,,,,,,,,,,,2.14000000000000E+01,2.22000000000000E+01,2.42000000000000E+01,2.30000000000000E+01,2.55000000000000E+01,2.66000000000000E+01,2.94000000000000E+01,3.22000000000000E+01,,,,,,,,,,,,,,
KGZ,,,,,,,,,,,,,,,,,,,,,,,,,,,,,,,,,,,,,4.85000000000000E+01,4.92000000000000E+01,4.90000000000000E+01,4.77000000000000E+01,4.58000000000000E+01,4.56000000000000E+01,4.49000000000000E+01,4.73000000000000E+01,4.94000000000000E+01,5.19000000000000E+01,5.22000000000000E+01,5.08000000000000E+01,5.15000000000000E+01,5.06000000000000E+01,,
KHM,,,,,,,,,,,,,,,,,,,,,,,,,,,,,,,,,,,,,,,,,4.11000000000000E+01,4.33000000000000E+01,,,4.35000000000000E+01,,,,,,,
KIR,,,,,,,,,,,,,,,,,,,,,,,,,,,,,,,,,,,,,,,,,3.68000000000000E+01,,,,,3.85000000000000E+01,,,,,,
KOR,,,,,,,,,,,,,,,,,,,,,,,,,,,,,,,3.81000000000000E+01,3.80000000000000E+01,3.78000000000000E+01,3.76000000000000E+01,3.80000000000000E+01,3.80000000000000E+01,3.85000000000000E+01,3.91000000000000E+01,3.83000000000000E+01,3.93000000000000E+01,4.01000000000000E+01,4.08000000000000E+01,4.11000000000000E+01,4.12000000000000E+01,4.16000000000000E+01,4.18000000000000E+01,4.20000000000000E+01,4.21000000000000E+01,4.22000000000000E+01,4.21000000000000E+01,,
KWT,,,,,,,,,,,,,,,,,,,,,,,,,,,,,,,,,,,,,,2.35000000000000E+01,2.32000000000000E+01,,,,,,,,,,,,,
LAC,,,,,,,,,,,,,,,,,,,,,,,,,,,,,,,3.67466693089254E+01,,3.79985874977642E+01,3.74168543303735E+01,3.83861211399199E+01,3.85302318014051E+01,3.83426806203225E+01,3.85843822521003E+01,3.89925642903818E+01,3.98088072053442E+01,4.01725101942477E+01,4.05718184750090E+01,4.10469069127093E+01,4.13073953689963E+01,4.10298860307475E+01,4.13107879610818E+01,4.14090818528127E+01,4.12197694216724E+01,,,,
LAO,,,,,,,,,,,,,,,,,,,,,,,,,,,,,,,2.03000000000000E+01,,,,,,,,,,,,,,,3.21000000000000E+01,,,,,,
LBN,,,,,,,,,,,,,,,,,,,,,,,,,,,,,,,,,,,,1.42000000000000E+01,,,,,,,,,,,,,,,,
LBR,,,,,,,,,,,,,,,,,,,,,,,,,,,,,,,,,,,,,,,,,,,1.14000000000000E+01,,,,,,,,,
LBY,,,,,,,,,,,,,,,,,,,,,,,,,,,,,,,,,,,,,,,,,,1.58000000000000E+01,,,,,,,,,,
LCA,,,,,,,,,,,,,,,,,,,,,,,,,,,,,,,,,,,5.18000000000000E+01,4.74000000000000E+01,4.92000000000000E+01,4.85000000000000E+01,4.76000000000000E+01,5.13000000000000E+01,4.94000000000000E+01,,4.78000000000000E+01,4.59000000000000E+01,4.75000000000000E+01,,,,,,,
LCN,,,,,,,,,,,,,,,,,,,,,,,,,,,,,,,3.68529256558568E+01,,3.81001687639475E+01,3.75093038194186E+01,3.84769656835538E+01,3.85945362961691E+01,3.83950996384819E+01,3.86238778578199E+01,3.90224032275535E+01,3.98256349708154E+01,4.01762324065394E+01,4.05903534012714E+01,4.10596158048168E+01,4.13164508547042E+01,4.10453968562254E+01,4.13284374252884E+01,4.14192160044182E+01,4.12360415258932E+01,,,,
LIE,,,,,,,,,,,,,,,,,,,,,,,,,,,,,,,,,,,,,,,,,3.87000000000000E+01,3.87000000000000E+01,3.91000000000000E+01,3.89000000000000E+01,3.91000000000000E+01,3.94000000000000E+01,,,,,,
LKA,,,,,,,,,,,,,,,,,,,,,,,,,,,,,,,,,,,,,,3.02000000000000E+01,3.13000000000000E+01,3.02000000000000E+01,3.02000000000000E+01,3.04000000000000E+01,3.09000000000000E+01,3.00000000000000E+01,3.10000000000000E+01,3.19000000000000E+01,3.22000000000000E+01,3.10000000000000E+01,3.08000000000000E+01,3.10000000000000E+01,,
LMC,,,,,,,,,,,,,,,,,,,,,,,,,,,,,,,1.98673661339941E+01,2.14231703524023E+01,2.13913540814004E+01,2.14704165134609E+01,2.20382605578175E+01,2.20562644728494E+01,2.41913629389499E+01,2.47480235558920E+01,2.53716840847596E+01,2.52250314335765E+01,2.53782225850840E+01,2.36839119553489E+01,2.56605444577468E+01,2.53835807032410E+01,2.54747077503660E+01,2.44269038109104E+01,,,,,,
LMY,,,,,,,,,,,,,,,,,,,,,,,,,,,,,,,3.19771050865616E+01,3.19362693253531E+01,3.26528837483590E+01,3.34200171525227E+01,3.38276203180071E+01,3.42927200407865E+01,3.44566696078435E+01,3.48854196767554E+01,3.47534862888947E+01,3.49939055604116E+01,,,,,,,,,,,,
LSO,,,,,,,,,,,,,,,,,,,,,,,,,,,,,,,,,,,,,,5.16000000000000E+01,,5.10000000000000E+01,,,,,,,,,,,,
LTU,,,,,,,,,,,,,,,,,,,,,,,,,,,,,,,5.54000000000000E+01,5.43000000000000E+01,5.35000000000000E+01,5.34000000000000E+01,5.24000000000000E+01,5.27000000000000E+01,5.24000000000000E+01,5.19000000000000E+01,5.23000000000000E+01,5.20000000000000E+01,5.32000000000000E+01,5.27000000000000E+01,5.26000000000000E+01,5.32000000000000E+01,5.33000000000000E+01,5.30000000000000E+01,5.29000000000000E+01,5.30000000000000E+01,,,,
LUX,,,,,,,,,,,,,,,,,,,,,,,,,,,,,,,,,,,,,,,,,,,,4.06000000000000E+01,4.19000000000000E+01,4.24000000000000E+01,4.32000000000000E+01,4.38000000000000E+01,4.33000000000000E+01,4.29000000000000E+01,,
LVA,,,,,,,,,,,,,,,,,,,,,,,,,,,,,,,,,5.18000000000000E+01,,5.41000000000000E+01,5.31000000000000E+01,5.33000000000000E+01,5.38000000000000E+01,5.18000000000000E+01,5.27000000000000E+01,5.31000000000000E+01,5.25000000000000E+01,5.31000000000000E+01,5.33000000000000E+01,5.32000000000000E+01,5.34000000000000E+01,5.28000000000000E+01,5.20000000000000E+01,5.27000000000000E+01,5.53000000000000E+01,,
MAC,,,,,,,,,,,,,,,,,,,,,,,,,,,,,,,4.27000000000000E+01,4.28000000000000E+01,4.40000000000000E+01,4.36000000000000E+01,4.50000000000000E+01,4.53000000000000E+01,4.65000000000000E+01,4.65000000000000E+01,4.74000000000000E+01,4.88000000000000E+01,4.89000000000000E+01,4.88000000000000E+01,5.02000000000000E+01,4.90000000000000E+01,4.94000000000000E+01,4.95000000000000E+01,4.81000000000000E+01,4.81000000000000E+01,,,,
MAR,,,,,,,,,,,,,,,,,,,,,,,,,,,,,,,,,,,2.09000000000000E+01,,,,,,,,2.21000000000000E+01,2.32000000000000E+01,2.29000000000000E+01,2.28000000000000E+01,2.10000000000000E+01,2.07000000000000E+01,2.08000000000000E+01,,,
MCO,,,,,,,,,,,,,,,,,,,,,,,,,,,,,,,,,,,,,,,,,3.92000000000000E+01,,,,,,,,,,,
MDA,,,,,,,,,,,,,,,,,,,,,,,,,,,,,,,,,,,,,,,,5.29000000000000E+01,5.28000000000000E+01,5.26000000000000E+01,5.36000000000000E+01,5.46000000000000E+01,5.46000000000000E+01,5.49000000000000E+01,5.35000000000000E+01,5.46000000000000E+01,5.41000000000000E+01,5.43000000000000E+01,,
MDG,,,,,,,,,,,,,,,,,,,,,,,,,,,,,,,,,,3.08000000000000E+01,,,,,,,,,,3.72000000000000E+01,,3.77000000000000E+01,,,,,,
MDV,,,,,,,,,,,,,,,,,,,,,,,,,,,,,,,1.58000000000000E+01,,,,,3.24000000000000E+01,,,,,4.06000000000000E+01,,,,,,3.00000000000000E+01,,,,,
MEA,,,,,,,,,,,,,,,,,,,,,,,,,,,,,,,,,,,,,,,,,,1.85034276772862E+01,2.09609271055058E+01,1.92408723479143E+01,1.87330447352415E+01,,,,,,,
MEX,,,,,,,,,,,,,,,,,,,,,,,,,,,,,,,,3.65000000000000E+01,,3.49000000000000E+01,,3.61000000000000E+01,3.62000000000000E+01,3.63000000000000E+01,3.64000000000000E+01,3.64000000000000E+01,3.73000000000000E+01,3.73000000000000E+01,3.75000000000000E+01,3.69000000000000E+01,3.75000000000000E+01,3.91000000000000E+01,3.93000000000000E+01,3.94000000000000E+01,3.94000000000000E+01,,,
MHL,,,,,,,,,,,,,,,,,,,,,,,,,,,,,,,,,,,,,,,,2.93000000000000E+01,,,,,,,,,,,,
MIC,,,,,,,,,,,,,,,,,,,,,,,,,,,,,,,3.24835272088185E+01,3.26431202304634E+01,3.28708507191364E+01,3.36458648613893E+01,3.40291383888754E+01,3.45476105051737E+01,3.47609346176191E+01,3.49936619955942E+01,3.47629991532673E+01,3.51510288346303E+01,,,,3.22514319535731E+01,3.22432602909484E+01,,,,,,,
MKD,,,,,,,,,,,,,,,,,,,,,,,,,,,,,,,3.83000000000000E+01,3.82000000000000E+01,3.85000000000000E+01,3.88000000000000E+01,3.85000000000000E+01,3.85000000000000E+01,3.87000000000000E+01,3.95000000000000E+01,4.03000000000000E+01,4.13000000000000E+01,4.16000000000000E+01,4.19000000000000E+01,4.22000000000000E+01,4.41000000000000E+01,4.32000000000000E+01,4.26000000000000E+01,4.26000000000000E+01,4.30000000000000E+01,4.19000000000000E+01,4.22000000000000E+01,,
MLI,,,,,,,,,,,,,,,,,,,,,,,,,,,,,,,,,,,,,,2.73000000000000E+01,,,,,,,3.46000000000000E+01,,,,,,,
MLT,,,,,,,,,,,,,,,,,,,,,,,,,,,,,,,,,,,2.84000000000000E+01,2.87000000000000E+01,2.94000000000000E+01,2.98000000000000E+01,3.04000000000000E+01,3.10000000000000E+01,3.27000000000000E+01,3.12000000000000E+01,3.43000000000000E+01,3.35000000000000E+01,3.31000000000000E+01,3.38000000000000E+01,3.46000000000000E+01,3.57000000000000E+01,3.59000000000000E+01,3.60000000000000E+01,,
MMR,,,,,,,,,,,,,,,,,,,,,,,,,,,,,,,3.07000000000000E+01,,,,,3.36000000000000E+01,3.52000000000000E+01,,3.57000000000000E+01,,,,,,,,,,,,,
MNA,,,,,,,,,,,,,,,,,,,,,,,,,,,,,,,,,,,1.75130002993831E+01,,,,,,,1.59972754238157E+01,1.88892353156820E+01,1.69849143283754E+01,1.64158390041990E+01,1.78431994119097E+01,,,,,,
MNE,,,,,,,,,,,,,,,,,,,,,,,,,,,,,,,,,,3.87000000000000E+01,3.98000000000000E+01,4.01000000000000E+01,4.17000000000000E+01,4.24000000000000E+01,4.24000000000000E+01,4.32000000000000E+01,4.40000000000000E+01,4.43000000000000E+01,,,,4.34000000000000E+01,,,,4.63000000000000E+01,,
MNG,,,,,,,,,,,,,,,,,,,,,,,,,,,,,,,,,,4.85000000000000E+01,4.73000000000000E+01,4.62000000000000E+01,4.71000000000000E+01,4.66000000000000E+01,4.70000000000000E+01,4.69000000000000E+01,4.86000000000000E+01,4.89000000000000E+01,4.99000000000000E+01,4.93000000000000E+01,5.12000000000000E+01,5.12000000000000E+01,5.20000000000000E+01,5.12000000000000E+01,5.11000000000000E+01,,,
MNP,,,,,,,,,,,,,,,,,,,,,,,,,,,,,,,4.40000000000000E+01,,,,,4.39000000000000E+01,,,,,,,,,,,,,,,,
MOZ,,,,,,,,,,,,,,,,,,,,,,,,,,,,,,,1.14000000000000E+01,,,,,,,,,,,,,,,,,,,,,
MRT,,,,,,,,,,,,,,,,,,,,,,,,,,,,,,,,,,,,,,,,,3.58000000000000E+01,,,,,,,,,,,
MUS,,,,,,,,,,,,,,,,,,,,,,,,,,,,,,,3.74000000000000E+01,3.61000000000000E+01,3.66000000000000E+01,3.69000000000000E+01,3.64000000000000E+01,3.71000000000000E+01,3.71000000000000E+01,3.74000000000000E+01,3.82000000000000E+01,3.84000000000000E+01,3.86000000000000E+01,3.90000000000000E+01,3.81000000000000E+01,3.84000000000000E+01,3.75000000000000E+01,3.69000000000000E+01,3.72000000000000E+01,3.72000000000000E+01,3.70000000000000E+01,3.67000000000000E+01,,
MWI,,,,,,,,,,,,,,,,,,,,,,,,,,,,,,,1.05000000000000E+01,1.04000000000000E+01,1.06000000000000E+01,1.06000000000000E+01,1.08000000000000E+01,1.13000000000000E+01,,,,,,,,,,,,,,,,
MYS,,,,,,,,,,,,,,,,,,,,,,,,,,,,,,,,3.53000000000000E+01,,,,3.52000000000000E+01,3.53000000000000E+01,3.49000000000000E+01,3.54000000000000E+01,3.54000000000000E+01,3.79000000000000E+01,3.72000000000000E+01,3.73000000000000E+01,3.79000000000000E+01,3.83000000000000E+01,3.85000000000000E+01,3.87000000000000E+01,3.90000000000000E+01,3.92000000000000E+01,,,
NAC,,,,,,,,,,,,,,,,,,,,,,,,,,,,,,,4.66305424242477E+01,4.70818962128470E+01,4.72806737500263E+01,4.73803095845024E+01,4.72591901213882E+01,4.72784737824051E+01,4.73682358173770E+01,4.73779557599570E+01,4.74883620850011E+01,4.76592410501886E+01,4.74894247741842E+01,4.75404923901344E+01,4.76332752477963E+01,4.78570313842189E+01,4.77006340998255E+01,4.75206713484549E+01,4.75319833906920E+01,4.76568403551371E+01,4.79366741768925E+01,4.85490439440384E+01,,
NAM,,,,,,,,,,,,,,,,,,,,,,,,,,,,,,,,,,,,,,,,,4.28000000000000E+01,4.07000000000000E+01,,,4.14000000000000E+01,,,,,,,
NCL,,,,,,,,,,,,,,,,,,,,,,,,,,,,,,,,,,,,,4.09000000000000E+01,,,,,,,,,,,,,,,
NER,,,,,,,,,,,,,,,,,,,,,,,,,,,,,,,,,,,,,,,,,,,,,,2.54000000000000E+01,2.72000000000000E+01,3.04000000000000E+01,3.61000000000000E+01,,,
NGA,,,,,,,,,,,,,,,,,,,,,,,,,,,,,,,,,,,,,,,,1.90000000000000E+01,1.86000000000000E+01,1.93000000000000E+01,2.01000000000000E+01,2.08000000000000E+01,2.10000000000000E+01,2.11000000000000E+01,,,,,,
NIC,,,,,,,,,,,,,,,,,,,,,,,,,,,,,,,,,,,,,,,,,,,,3.95000000000000E+01,3.86000000000000E+01,3.83000000000000E+01,3.86000000000000E+01,3.81000000000000E+01,,,,
NLD,,,,,,,,,,,,,,,,,,,,,,,,,,,,,,,3.77000000000000E+01,3.86000000000000E+01,4.01000000000000E+01,4.10000000000000E+01,4.14000000000000E+01,4.17000000000000E+01,4.20000000000000E+01,4.27000000000000E+01,4.30000000000000E+01,4.35000000000000E+01,4.39000000000000E+01,4.43000000000000E+01,4.50000000000000E+01,4.57000000000000E+01,4.57000000000000E+01,4.62000000000000E+01,4.67000000000000E+01,4.73000000000000E+01,4.77000000000000E+01,4.75000000000000E+01,,
NOR,,,,,,,,,,,,,,,,,,,,,,,,,,,,,,,4.70000000000000E+01,4.75000000000000E+01,4.75000000000000E+01,4.78000000000000E+01,4.77000000000000E+01,4.77000000000000E+01,4.78000000000000E+01,4.80000000000000E+01,4.81000000000000E+01,4.83000000000000E+01,4.82000000000000E+01,4.83000000000000E+01,4.89000000000000E+01,4.91000000000000E+01,4.92000000000000E+01,4.90000000000000E+01,4.93000000000000E+01,4.92000000000000E+01,4.91000000000000E+01,5.01000000000000E+01,,
NPL,,,,,,,,,,,,,,,,,,,,,,,,,,,,,,,,,,,,,,,,1.51000000000000E+01,,1.40000000000000E+01,,,,,,,,,,
NZL,,,,,,,,,,,,,,,,,,,,,,,,,,,,,,,4.78000000000000E+01,4.83000000000000E+01,4.87000000000000E+01,4.85000000000000E+01,4.88000000000000E+01,4.90000000000000E+01,4.91000000000000E+01,4.92000000000000E+01,4.95000000000000E+01,4.99000000000000E+01,4.98000000000000E+01,5.00000000000000E+01,5.00000000000000E+01,5.06000000000000E+01,5.00000000000000E+01,5.00000000000000E+01,5.01000000000000E+01,4.99000000000000E+01,5.02000000000000E+01,5.06000000000000E+01,,
OEC,,,,,,,,,,,,,,,,,,,,,,,,,,,,,,,4.30658199643513E+01,4.33688110578462E+01,4.37096034530204E+01,4.39368565803052E+01,4.40268915624252E+01,4.42070113101450E+01,4.45438755840042E+01,4.46249568718449E+01,4.46964730739705E+01,4.49523373098882E+01,4.50745798944140E+01,4.53252267853012E+01,4.55551467561571E+01,4.57907211747028E+01,4.59274031662468E+01,4.59296064234823E+01,4.60708583860146E+01,4.61788797531073E+01,4.64417297855287E+01,4.70432133852385E+01,,
OED,,,,,,,,,,,,,,,,,,,,,,,,,,,,,,,4.30118851384381E+01,4.21436501716423E+01,4.28221058369361E+01,4.27409029169693E+01,4.31552146072933E+01,4.29832250539830E+01,4.32834833083938E+01,4.33882759070684E+01,4.34041333345802E+01,4.36290902296986E+01,4.38734122811044E+01,4.40841597257280E+01,4.43175041212455E+01,4.45133387246341E+01,4.46931311446067E+01,4.47946018424489E+01,4.49317925578677E+01,4.50436366038799E+01,4.52659820366460E+01,4.62381351946219E+01,,
OMN,,,,,,,,,,,,,,,,,,,,,,,,,,,,,,,1.87000000000000E+01,1.92000000000000E+01,2.03000000000000E+01,2.09000000000000E+01,2.02000000000000E+01,2.09000000000000E+01,2.19000000000000E+01,2.20000000000000E+01,2.26000000000000E+01,2.34000000000000E+01,2.45000000000000E+01,2.53000000000000E+01,,,,,,,2.19000000000000E+01,,,
PAK,,,,,,,,,,,,,,,,,,,,,,,,,,,,,,,7.70000000000000E+00,9.50000000000000E+00,1.02000000000000E+01,9.50000000000000E+00,9.50000000000000E+00,8.80000000000000E+00,8.80000000000000E+00,1.22000000000000E+01,9.80000000000000E+00,9.90000000000000E+00,1.30000000000000E+01,1.30000000000000E+01,1.36000000000000E+01,1.36000000000000E+01,1.39000000000000E+01,1.39000000000000E+01,1.34000000000000E+01,1.32000000000000E+01,1.26000000000000E+01,,,
PAN,,,,,,,,,,,,,,,,,,,,,,,,,,,,,,,,,4.34000000000000E+01,4.29000000000000E+01,4.23000000000000E+01,4.27000000000000E+01,4.25000000000000E+01,4.35000000000000E+01,4.17000000000000E+01,4.22000000000000E+01,4.30000000000000E+01,4.30000000000000E+01,4.35000000000000E+01,4.40000000000000E+01,4.36000000000000E+01,4.34000000000000E+01,4.25000000000000E+01,4.31000000000000E+01,4.22000000000000E+01,4.21000000000000E+01,,
PER,,,,,,,,,,,,,,,,,,,,,,,,,,,,,,,,,,,,,3.14000000000000E+01,3.25000000000000E+01,3.35000000000000E+01,3.55000000000000E+01,3.33000000000000E+01,3.46000000000000E+01,3.50000000000000E+01,3.60000000000000E+01,3.48000000000000E+01,3.51000000000000E+01,3.49000000000000E+01,3.68000000000000E+01,3.75000000000000E+01,,,
PHL,,,,,,,,,,,,,,,,,,,,,,,,,,,,,,,,4.04000000000000E+01,4.03000000000000E+01,4.03000000000000E+01,4.01000000000000E+01,4.00000000000000E+01,3.88000000000000E+01,3.97000000000000E+01,4.05000000000000E+01,4.04000000000000E+01,4.09000000000000E+01,4.12000000000000E+01,4.19000000000000E+01,4.13000000000000E+01,4.07000000000000E+01,4.14000000000000E+01,4.19000000000000E+01,4.19000000000000E+01,4.17000000000000E+01,4.19000000000000E+01,,
PLW,,,,,,,,,,,,,,,,,,,,,,,,,,,,,,,3.95000000000000E+01,,,,,4.22000000000000E+01,,,,,3.96000000000000E+01,,,,,,,,,,,
PNG,,,,,,,,,,,,,,,,,,,,,,,,,,,,,,,2.79000000000000E+01,,,,,,,,,,3.21000000000000E+01,,,,,,,,,,,
POL,,,,,,,,,,,,,,,,,,,,,,,,,,,,,,,,,,,,4.73000000000000E+01,4.71000000000000E+01,4.66000000000000E+01,4.68000000000000E+01,4.71000000000000E+01,4.69000000000000E+01,4.70000000000000E+01,4.75000000000000E+01,4.77000000000000E+01,4.72000000000000E+01,4.67000000000000E+01,4.66000000000000E+01,4.67000000000000E+01,4.73000000000000E+01,4.76000000000000E+01,,
PRI,,,,,,,,,,,,,,,,,,,,,,,,,,,,,,,4.65000000000000E+01,4.64000000000000E+01,4.58000000000000E+01,4.53000000000000E+01,4.47000000000000E+01,4.39000000000000E+01,4.27000000000000E+01,4.16000000000000E+01,4.06000000000000E+01,4.00000000000000E+01,3.96000000000000E+01,4.13000000000000E+01,4.07000000000000E+01,4.01000000000000E+01,3.99000000000000E+01,4.05000000000000E+01,4.08000000000000E+01,4.15000000000000E+01,4.17000000000000E+01,,,
PRK,,,,,,,,,,,,,,,,,,,,,,,,,,,,,,,4.07000000000000E+01,,,,,,,,,,,,,,,,,,,,,
PRT,,,,,,,,,,,,,,,,,,,,,,,,,,,,,,,4.25000000000000E+01,4.29000000000000E+01,4.45000000000000E+01,4.47000000000000E+01,4.51000000000000E+01,4.59000000000000E+01,4.58000000000000E+01,4.57000000000000E+01,4.53000000000000E+01,4.57000000000000E+01,4.57000000000000E+01,4.62000000000000E+01,4.64000000000000E+01,4.69000000000000E+01,4.74000000000000E+01,4.73000000000000E+01,4.73000000000000E+01,4.76000000000000E+01,4.76000000000000E+01,4.89000000000000E+01,,
PRY,,,,,,,,,,,,,,,,,,,,,,,,,,,,,,,4.10000000000000E+01,3.99000000000000E+01,4.42000000000000E+01,4.27000000000000E+01,4.07000000000000E+01,,4.19000000000000E+01,,,,3.93000000000000E+01,,3.77000000000000E+01,3.89000000000000E+01,4.00000000000000E+01,4.01000000000000E+01,3.87000000000000E+01,4.02000000000000E+01,3.95000000000000E+01,,,
PYF,,,,,,,,,,,,,,,,,,,,,,,,,,,,,,,,,,,,4.23000000000000E+01,4.28000000000000E+01,4.24000000000000E+01,4.19000000000000E+01,4.17000000000000E+01,4.24000000000000E+01,4.18000000000000E+01,4.25000000000000E+01,4.22000000000000E+01,4.27000000000000E+01,4.25000000000000E+01,4.28000000000000E+01,4.27000000000000E+01,,,,
QAT,,,,,,,,,,,,,,,,,,,,,,,,,,,,,,,,,,,,,,1.42000000000000E+01,,,,1.45000000000000E+01,,,1.55000000000000E+01,,1.46000000000000E+01,1.23000000000000E+01,,9.80000000000000E+00,,
ROM,,,,,,,,,,,,,,,,,,,,,,,,,,,,,,,4.19000000000000E+01,4.30000000000000E+01,4.25000000000000E+01,4.22000000000000E+01,4.30000000000000E+01,4.20000000000000E+01,4.30000000000000E+01,4.35000000000000E+01,4.40000000000000E+01,4.48000000000000E+01,4.55000000000000E+01,4.57000000000000E+01,4.52000000000000E+01,4.53000000000000E+01,4.65000000000000E+01,4.62000000000000E+01,4.66000000000000E+01,4.61000000000000E+01,4.58000000000000E+01,4.63000000000000E+01,,
RUS,,,,,,,,,,,,,,,,,,,,,,,,,,,,,,,,,5.12000000000000E+01,5.03000000000000E+01,5.02000000000000E+01,5.02000000000000E+01,5.01000000000000E+01,5.01000000000000E+01,5.03000000000000E+01,5.02000000000000E+01,5.04000000000000E+01,5.04000000000000E+01,5.06000000000000E+01,5.10000000000000E+01,5.09000000000000E+01,5.09000000000000E+01,5.12000000000000E+01,5.10000000000000E+01,5.06000000000000E+01,5.28000000000000E+01,,
RWA,,,,,,,,,,,,,,,,,,,,,,,,,,,,,,,,,,,,3.24000000000000E+01,,,,,3.30000000000000E+01,,,,,,,,,,,
SAS,,,,,,,,,,,,,,,,,,,,,,,,,,,,,,,1.24860913839883E+01,1.40207432045692E+01,1.31643064909965E+01,1.35115639089220E+01,1.38889810782892E+01,1.41787230699023E+01,1.64809558526325E+01,1.56408326725898E+01,1.60554430661893E+01,1.62157917555993E+01,1.78865599073270E+01,1.67409669933286E+01,1.73806865267317E+01,1.81896750592690E+01,1.79072184836901E+01,1.84136266588319E+01,,,,,,
SAU,,,,,,,,,,,,,,,,,,,,,,,,,,,,,,,,,,,,,,,,1.49000000000000E+01,1.40000000000000E+01,1.42000000000000E+01,1.40000000000000E+01,,,,1.46000000000000E+01,1.47000000000000E+01,1.46000000000000E+01,,,
SDN,,,,,,,,,,,,,,,,,,,,,,,,,,,,,,,2.22000000000000E+01,,2.01000000000000E+01,,,,,,,,,,,,,,,,,,,
SEN,,,,,,,,,,,,,,,,,,,,,,,,,,,,,,,,,,,,,,,,,,1.06000000000000E+01,,,,,,,,,,
SGP,,,,,,,,,,,,,,,,,,,,,,,,,,,,,,,,4.25000000000000E+01,4.29000000000000E+01,4.33000000000000E+01,4.30000000000000E+01,4.10000000000000E+01,4.47000000000000E+01,4.18000000000000E+01,4.25000000000000E+01,4.28000000000000E+01,,4.36000000000000E+01,4.32000000000000E+01,4.35000000000000E+01,4.40000000000000E+01,,4.48000000000000E+01,4.51000000000000E+01,4.57000000000000E+01,4.54000000000000E+01,,
SLB,,,,,,,,,,,,,,,,,,,,,,,,,,,,,,,,,,,,,,,,3.08000000000000E+01,,,,,,,,,,,,
SLE,,,,,,,,,,,,,,,,,,,,,,,,,,,,,,,,,,,,,,,,,,,,,2.32000000000000E+01,,,,,,,
SLV,,,,,,,,,,,,,,,,,,,,,,,,,,,,,,,4.55000000000000E+01,4.66000000000000E+01,4.65000000000000E+01,,4.73000000000000E+01,4.62000000000000E+01,4.64000000000000E+01,4.61000000000000E+01,4.78000000000000E+01,4.85000000000000E+01,4.91000000000000E+01,4.83000000000000E+01,4.95000000000000E+01,4.79000000000000E+01,4.78000000000000E+01,4.85000000000000E+01,4.86000000000000E+01,4.80000000000000E+01,,,,
SMR,,,,,,,,,,,,,,,,,,,,,,,,,,,,,,,4.04000000000000E+01,4.08000000000000E+01,4.05000000000000E+01,4.03000000000000E+01,,3.99000000000000E+01,3.99000000000000E+01,4.05000000000000E+01,4.04000000000000E+01,4.12000000000000E+01,,4.15000000000000E+01,4.17000000000000E+01,4.19000000000000E+01,4.22000000000000E+01,4.21000000000000E+01,4.21000000000000E+01,4.22000000000000E+01,4.22000000000000E+01,4.31000000000000E+01,,
SOM,,,,,,,,,,,,,,,,,,,,,,,,,,,,,,,2.17000000000000E+01,,,,,,,,,,,,,,,,,,,,,
SRB,,,,,,,,,,,,,,,,,,,,,,,,,,,,,,,,,,3.87000000000000E+01,3.98000000000000E+01,4.01000000000000E+01,4.17000000000000E+01,4.24000000000000E+01,4.24000000000000E+01,4.32000000000000E+01,4.40000000000000E+01,4.43000000000000E+01,,,4.39000000000000E+01,4.16000000000000E+01,4.35000000000000E+01,4.39000000000000E+01,4.40000000000000E+01,4.37000000000000E+01,,
STP,,,,,,,,,,,,,,,,,,,,,,,,,,,,,,,,3.21000000000000E+01,,,,,,,,,,,,,,,,,,,,
SUR,,,,,,,,,,,,,,,,,,,,,,,,,,,,,,,4.10000000000000E+01,,3.72000000000000E+01,3.83000000000000E+01,3.72000000000000E+01,3.58000000000000E+01,3.66000000000000E+01,3.65000000000000E+01,3.47000000000000E+01,3.77000000000000E+01,,,,,3.81000000000000E+01,,,,,,,
svk,,,,,,,,,,,,,,,,,,,,,,,,,,,,,,,4.68000000000000E+01,4.49000000000000E+01,4.73000000000000E+01,4.73000000000000E+01,4.74000000000000E+01,4.72000000000000E+01,4.72000000000000E+01,4.75000000000000E+01,4.76000000000000E+01,4.84000000000000E+01,4.89000000000000E+01,4.90000000000000E+01,4.86000000000000E+01,4.87000000000000E+01,4.85000000000000E+01,4.81000000000000E+01,4.72000000000000E+01,4.74000000000000E+01,4.77000000000000E+01,4.80000000000000E+01,,
SVN,,,,,,,,,,,,,,,,,,,,,,,,,,,,,,,4.78000000000000E+01,4.81000000000000E+01,4.85000000000000E+01,4.88000000000000E+01,4.87000000000000E+01,4.80000000000000E+01,4.90000000000000E+01,4.65000000000000E+01,4.81000000000000E+01,4.79000000000000E+01,4.80000000000000E+01,4.77000000000000E+01,4.79000000000000E+01,4.74000000000000E+01,4.76000000000000E+01,4.74000000000000E+01,4.79000000000000E+01,4.68000000000000E+01,4.74000000000000E+01,4.81000000000000E+01,,
SWE,,,,,,,,,,,,,,,,,,,,,,,,,,,,,,,5.05000000000000E+01,5.07000000000000E+01,5.15000000000000E+01,5.20000000000000E+01,5.16000000000000E+01,5.13000000000000E+01,5.11000000000000E+01,5.09000000000000E+01,5.05000000000000E+01,5.05000000000000E+01,5.06000000000000E+01,5.07000000000000E+01,5.09000000000000E+01,5.09000000000000E+01,5.09000000000000E+01,5.05000000000000E+01,5.03000000000000E+01,5.01000000000000E+01,4.99000000000000E+01,5.02000000000000E+01,,
SWZ,,,,,,,,,,,,,,,,,,,,,,,,,,,,,,,,,,3.52000000000000E+01,3.44000000000000E+01,3.32000000000000E+01,3.30000000000000E+01,3.24000000000000E+01,,,,,,,,,,,,,,
SYC,,,,,,,,,,,,,,,,,,,,,,,,,,,,,,,,,4.94000000000000E+01,,,,,,,,,,,,,,,,,,,
SYR,,,,,,,,,,,,,,,,,,,,,,,,,,,,,,,,1.52000000000000E+01,,,,,,,,,,1.61000000000000E+01,1.59000000000000E+01,1.61000000000000E+01,,,,1.63000000000000E+01,,1.53000000000000E+01,,
TCA,,,,,,,,,,,,,,,,,,,,,,,,,,,,,,,,,,,,,,,,,,,,4.10000000000000E+01,4.22000000000000E+01,4.16000000000000E+01,4.05000000000000E+01,3.81000000000000E+01,,,,
TCD,,,,,,,,,,,,,,,,,,,,,,,,,,,,,,,3.80000000000000E+00,5.50000000000000E+00,,,,,,,,,,,,,,,,,,,,
TGO,,,,,,,,,,,,,,,,,,,,,,,,,,,,,,,4.10000000000000E+01,,,,,,,,,,,,,,,,,,,,,
THA,,,,,,,,,,,,,,,,,,,,,,,,,,,,,,,4.19000000000000E+01,4.19000000000000E+01,4.15000000000000E+01,4.18000000000000E+01,4.19000000000000E+01,4.13000000000000E+01,4.08000000000000E+01,4.24000000000000E+01,4.35000000000000E+01,4.39000000000000E+01,4.41000000000000E+01,4.43000000000000E+01,4.42000000000000E+01,4.45000000000000E+01,4.40000000000000E+01,4.54000000000000E+01,4.51000000000000E+01,4.50000000000000E+01,4.54000000000000E+01,4.55000000000000E+01,,
TJK,,,,,,,,,,,,,,,,,,,,,,,,,,,,,,,,3.65000000000000E+01,3.74000000000000E+01,4.05000000000000E+01,3.93000000000000E+01,4.02000000000000E+01,4.07000000000000E+01,4.09000000000000E+01,4.30000000000000E+01,4.17000000000000E+01,4.00000000000000E+01,4.09000000000000E+01,4.16000000000000E+01,4.11000000000000E+01,3.98000000000000E+01,3.94000000000000E+01,3.71000000000000E+01,,,,,
TKM,,,,,,,,,,,,,,,,,,,,,,,,,,,,,,,,,,,,3.99000000000000E+01,,,,,,,4.21000000000000E+01,,,,,,,,,
TMP,,,,,,,,,,,,,,,,,,,,,,,,,,,,,,,,,,,,,,,,,,3.50000000000000E+01,,,,,,,,,,
TON,,,,,,,,,,,,,,,,,,,,,,,,,,,,,,,,,,,,,3.56000000000000E+01,,,,,,,,,,,,,,,
TTO,,,,,,,,,,,,,,,,,,,,,,,,,,,,,,,3.56000000000000E+01,3.63000000000000E+01,3.83000000000000E+01,3.85000000000000E+01,3.88000000000000E+01,3.92000000000000E+01,3.97000000000000E+01,3.88000000000000E+01,3.94000000000000E+01,3.99000000000000E+01,4.00000000000000E+01,3.99000000000000E+01,4.14000000000000E+01,4.19000000000000E+01,4.35000000000000E+01,4.39000000000000E+01,,,,,,
TUN,,,,,,,,,,,,,,,,,,,,,,,,,,,,,,,,,,,2.27000000000000E+01,,,,,2.41000000000000E+01,2.43000000000000E+01,2.46000000000000E+01,2.49000000000000E+01,2.50000000000000E+01,,,,,,,,
TUR,,,,,,,,,,,,,,,,,,,,,,,,,,,,,,,,1.60000000000000E+01,1.72000000000000E+01,1.67000000000000E+01,1.77000000000000E+01,1.79000000000000E+01,1.76000000000000E+01,1.82000000000000E+01,1.87000000000000E+01,1.90000000000000E+01,1.95000000000000E+01,1.95000000000000E+01,2.13000000000000E+01,2.10000000000000E+01,2.04000000000000E+01,2.09000000000000E+01,2.15000000000000E+01,2.24000000000000E+01,2.30000000000000E+01,2.35000000000000E+01,,
TUV,,,,,,,,,,,,,,,,,,,,,,,,,,,,,,,,,,,,,,,,,,,3.43000000000000E+01,3.91000000000000E+01,3.39000000000000E+01,,,,,,,
TZA,,,,,,,,,,,,,,,,,,,,,,,,,,,,,,,,,,,,,,,,,,,,,,,3.05000000000000E+01,,,,,
UGA,,,,,,,,,,,,,,,,,,,,,,,,,,,,,,,,,,,,,,,,,,,,3.90000000000000E+01,,,,,,,,
UKR,,,,,,,,,,,,,,,,,,,,,,,,,,,,,,,4.66000000000000E+01,4.70000000000000E+01,4.52000000000000E+01,4.49000000000000E+01,5.10000000000000E+01,5.07000000000000E+01,5.06000000000000E+01,5.20000000000000E+01,5.31000000000000E+01,5.32000000000000E+01,5.29000000000000E+01,,5.44000000000000E+01,5.44000000000000E+01,5.51000000000000E+01,5.49000000000000E+01,5.46000000000000E+01,5.47000000000000E+01,5.46000000000000E+01,,,
UMC,,,,,,,,,,,,,,,,,,,,,,,,,,,,,,,3.79322062632136E+01,3.77356417843842E+01,3.74753864984895E+01,3.84405957922355E+01,3.90617566866381E+01,3.95405654674779E+01,3.94634545516366E+01,3.95355193817488E+01,3.89955210025992E+01,3.99646299442422E+01,,,,,,,,,,,,
URY,,,,,,,,,,,,,,,,,,,,,,,,,,,,,,,4.23000000000000E+01,,,,4.35000000000000E+01,,,,,,4.64000000000000E+01,4.65000000000000E+01,4.58000000000000E+01,4.81000000000000E+01,,4.88000000000000E+01,4.51000000000000E+01,4.55000000000000E+01,,,,
USA,,,,,,,,,,,,,,,,,,,,,,,,,,,,,,,4.66000000000000E+01,4.70000000000000E+01,4.72000000000000E+01,4.73000000000000E+01,4.72000000000000E+01,4.72000000000000E+01,4.73000000000000E+01,4.73000000000000E+01,4.74000000000000E+01,4.76000000000000E+01,4.74000000000000E+01,4.74000000000000E+01,4.75000000000000E+01,4.77000000000000E+01,4.75000000000000E+01,4.73000000000000E+01,4.73000000000000E+01,4.74000000000000E+01,4.77000000000000E+01,4.83000000000000E+01,,
UZB,,,,,,,,,,,,,,,,,,,,,,,,,,,,,,,,3.70000000000000E+01,3.71000000000000E+01,3.65000000000000E+01,3.65000000000000E+01,3.60000000000000E+01,3.69000000000000E+01,3.71000000000000E+01,3.72000000000000E+01,3.72000000000000E+01,3.71000000000000E+01,4.16000000000000E+01,3.71000000000000E+01,3.70000000000000E+01,4.06000000000000E+01,4.03000000000000E+01,4.03000000000000E+01,3.94000000000000E+01,,,,
VEN,,,,,,,,,,,,,,,,,,,,,,,,,,,,,,,3.52000000000000E+01,3.57000000000000E+01,3.57000000000000E+01,3.47000000000000E+01,3.57000000000000E+01,3.67000000000000E+01,3.74000000000000E+01,3.78000000000000E+01,3.87000000000000E+01,3.92000000000000E+01,3.98000000000000E+01,4.14000000000000E+01,4.18000000000000E+01,4.22000000000000E+01,4.21000000000000E+01,4.16000000000000E+01,4.10000000000000E+01,4.14000000000000E+01,4.16000000000000E+01,,,
VIR,,,,,,,,,,,,,,,,,,,,,,,,,,,,,,,,,,,4.83000000000000E+01,,,,,,,,,,,,,,,,,
VNM,,,,,,,,,,,,,,,,,,,,,,,,,,,,,,,,,,,,,4.10000000000000E+01,4.10000000000000E+01,4.22000000000000E+01,4.19000000000000E+01,4.07000000000000E+01,4.07000000000000E+01,4.08000000000000E+01,4.01000000000000E+01,4.04000000000000E+01,,,,,,,
VUT,,,,,,,,,,,,,,,,,,,,,,,,,,,,,,,,,,,,,,,,,,,,,3.75000000000000E+01,3.79000000000000E+01,3.83000000000000E+01,3.78000000000000E+01,3.89000000000000E+01,,,
WBG,,,,,,,,,,,,,,,,,,,,,,,,,,,,,,,,,,,,,1.53000000000000E+01,1.33000000000000E+01,1.22000000000000E+01,1.25000000000000E+01,1.35000000000000E+01,1.59000000000000E+01,1.70000000000000E+01,1.68000000000000E+01,1.79000000000000E+01,1.61000000000000E+01,1.71000000000000E+01,1.70000000000000E+01,1.79000000000000E+01,,,
WLD,,,,,,,,,,,,,,,,,,,,,,,,,,,,,,,3.45509509238947E+01,3.48253618372414E+01,3.53277301449002E+01,3.59218006236899E+01,3.62729119272283E+01,3.66676540091790E+01,3.67675010395202E+01,3.71666263655005E+01,3.70651310243192E+01,3.72023824340952E+01,3.60555317380112E+01,,,3.62240903107949E+01,3.67761425524793E+01,3.62840795131696E+01,,,,,,
WSM,,,,,,,,,,,,,,,,,,,,,,,,,,,,,,,,,,,,,,,,,,3.67000000000000E+01,,,,,,,,,,
YEM,,,,,,,,,,,,,,,,,,,,,,,,,,,,,,,,,,,6.40000000000000E+00,,,,,6.40000000000000E+00,7.00000000000000E+00,6.50000000000000E+00,,6.10000000000000E+00,6.00000000000000E+00,,6.30000000000000E+00,6.20000000000000E+00,,,,
ZAF,,,,,,,,,,,,,,,,,,,,,,,,,,,,,,,,,,,,,,,,,4.11000000000000E+01,4.20000000000000E+01,4.07000000000000E+01,4.16000000000000E+01,4.08000000000000E+01,4.14000000000000E+01,4.13000000000000E+01,4.20000000000000E+01,4.40000000000000E+01,4.51000000000000E+01,,
ZAR,,,,,,,,,,,,,,,,,,,,,,,,,,,,,,,2.59000000000000E+01,,,,,,,,,,,,,,,,,,,,,
ZMB,,,,,,,,,,,,,,,,,,,,,,,,,,,,,,,1.66000000000000E+01,,,,,,,,,,2.20000000000000E+01,,,,,,,,,,,
ZWE,,,,,,,,,,,,,,,,,,,,,,,,,,,,,,,1.54000000000000E+01,1.56000000000000E+01,1.52000000000000E+01,1.62000000000000E+01,1.68000000000000E+01,1.72000000000000E+01,1.77000000000000E+01,1.80000000000000E+01,1.86000000000000E+01,1.89000000000000E+01,2.04000000000000E+01,2.15000000000000E+01,2.19000000000000E+01,,,,,,,,,
