"Country Code",1960,1961,1962,1963,1964,1965,1966,1967,1968,1969,1970,1971,1972,1973,1974,1975,1976,1977,1978,1979,1980,1981,1982,1983,1984,1985,1986,1987,1988,1989,1990,1991,1992,1993,1994,1995,1996,1997,1998,1999,2000,2001,2002,2003,2004,2005,2006,2007,2008,2009,2010,2011ABW,,,,,,,,,,,,,,,,,,,,,,,,,,,,,,,,6.00000000000000E-01,,,6.00000000000000E-01,,,,,,4.00000000000000E-01,,,,,,,4.00000000000000E-01,,,,
ARE,,,,,,,,,,,,,,,,,,,,,,,,,,,,,,,,,,,,,,,,,,,,,,0.00000000000000E+00,,,0.00000000000000E+00,,,
ARG,,,,,,,,,,,,,,,,,,,,,,,,,,,,,,,2.50000000000000E+00,1.90000000000000E+00,2.10000000000000E+00,2.20000000000000E+00,2.60000000000000E+00,2.10000000000000E+00,2.80000000000000E+00,2.40000000000000E+00,2.20000000000000E+00,2.00000000000000E+00,1.80000000000000E+00,1.80000000000000E+00,1.60000000000000E+00,2.40000000000000E+00,2.20000000000000E+00,1.90000000000000E+00,1.60000000000000E+00,1.40000000000000E+00,1.20000000000000E+00,1.20000000000000E+00,,
ARM,,,,,,,,,,,,,,,,,,,,,,,,,,,,,,,,,,,,,,,,,,,,,,,,,1.71000000000000E+01,,,
ASM,,,,,,,,,,,,,,,,,,,,,,,,,,,,,,,3.00000000000000E-01,,,,,,,,,,,,,,,,,,,,,
ATG,,,,,,,,,,,,,,,,,,,,,,,,,,,,,,,,9.00000000000000E-01,,,,,,,,,,5.00000000000000E-01,,,,,,,,,,
AUS,,,,,,,,,,,,,,,,,,,,,,,,,,,,1.40000000000000E+00,1.40000000000000E+00,1.20000000000000E+00,1.20000000000000E+00,1.20000000000000E+00,1.40000000000000E+00,1.40000000000000E+00,1.40000000000000E+00,1.30000000000000E+00,1.20000000000000E+00,1.30000000000000E+00,1.00000000000000E+00,1.20000000000000E+00,1.10000000000000E+00,6.00000000000000E-01,6.00000000000000E-01,5.00000000000000E-01,5.00000000000000E-01,4.00000000000000E-01,4.00000000000000E-01,4.00000000000000E-01,3.00000000000000E-01,3.00000000000000E-01,,
AUT,,,,,,,,,,,,,,,,,,,,,,,,,,,,,,,,,,,5.20000000000000E+00,5.30000000000000E+00,5.50000000000000E+00,4.90000000000000E+00,4.40000000000000E+00,4.30000000000000E+00,4.10000000000000E+00,3.90000000000000E+00,3.80000000000000E+00,3.20000000000000E+00,1.60000000000000E+00,1.90000000000000E+00,2.10000000000000E+00,2.90000000000000E+00,2.70000000000000E+00,2.50000000000000E+00,,
AZE,,,,,,,,,,,,,,,,,,,,,,,,,,,,,,,,,,,,,,,,,,,,2.07000000000000E+01,1.86000000000000E+01,1.68000000000000E+01,,,,,,
BDI,,,,,,,,,,,,,,,,,,,,,,,,,,,,,,,,,,,,,,,9.40000000000000E+00,,,,,,,,,,,,,
BEL,,,,,,,,,,,,,,,,,,,,,8.00000000000000E+00,8.10000000000000E+00,8.20000000000000E+00,8.70000000000000E+00,1.02000000000000E+01,9.60000000000000E+00,8.40000000000000E+00,7.20000000000000E+00,6.10000000000000E+00,6.80000000000000E+00,6.20000000000000E+00,5.10000000000000E+00,5.90000000000000E+00,5.50000000000000E+00,5.10000000000000E+00,5.40000000000000E+00,5.40000000000000E+00,5.00000000000000E+00,4.10000000000000E+00,5.30000000000000E+00,4.20000000000000E+00,4.00000000000000E+00,3.80000000000000E+00,3.20000000000000E+00,3.30000000000000E+00,3.40000000000000E+00,3.00000000000000E+00,2.50000000000000E+00,2.20000000000000E+00,2.20000000000000E+00,,
BEN,,,,,,,,,,,,,,,,,,,,,,,,,,,,,,,,,,,,,,,,,,,,1.82000000000000E+01,,,,,,,,
BFA,,,,,,,,,,,,,,,,,,,,,,,,,,8.91000000000000E+01,,,,,,,,,8.73000000000000E+01,,,,,,,,,8.03000000000000E+01,,,,,,,,
BGD,,,,,,,,,,,,,,,,,,,,,,,,,,,,,,,,,,,,,7.73000000000000E+01,,,,7.32000000000000E+01,,,4.80000000000000E+01,,6.01000000000000E+01,,,,,,
BGR,,,,,,,,,,,,,,,,,,,,,,,,,,,,,,,,,,,,,,,,,2.40000000000000E+00,2.00000000000000E+00,2.30000000000000E+00,2.70000000000000E+00,3.00000000000000E+00,2.30000000000000E+00,1.80000000000000E+00,1.60000000000000E+00,1.50000000000000E+00,1.50000000000000E+00,,
BHS,,,,,,,,,,,,,,,,,,,,,,,,,,,,,,,,7.00000000000000E-01,6.00000000000000E-01,6.00000000000000E-01,4.00000000000000E-01,1.00000000000000E+00,1.10000000000000E+00,2.00000000000000E-01,4.00000000000000E-01,4.00000000000000E-01,,2.00000000000000E-01,7.00000000000000E-01,1.00000000000000E-01,5.00000000000000E-01,,,,3.00000000000000E-01,,,
BIH,,,,,,,,,,,,,,,,,,,,,,,,,,,,,,,,,,,,,,,,,,,,,,,1.10000000000000E+01,8.90000000000000E+00,1.04000000000000E+01,,,
BLZ,,,,,,,,,,,,,,,,,,,,,,,,,,,,,,,,,,2.60000000000000E+00,4.80000000000000E+00,4.30000000000000E+00,4.10000000000000E+00,4.20000000000000E+00,4.70000000000000E+00,3.50000000000000E+00,,,,,,4.30000000000000E+00,,,,,,
BOL,,,,,,,,,,,,,,,,,,,,,,,,,,,,,,8.30000000000000E+00,6.70000000000000E+00,8.80000000000000E+00,8.00000000000000E+00,1.18000000000000E+01,1.26000000000000E+01,1.51000000000000E+01,1.49000000000000E+01,1.42000000000000E+01,,3.75000000000000E+01,3.67000000000000E+01,4.02000000000000E+01,3.88000000000000E+01,3.39000000000000E+01,3.39000000000000E+01,3.68000000000000E+01,3.87000000000000E+01,3.44000000000000E+01,,,,
BRA,,,,,,,,,,,,,,,,,,,,,,,,,,,,,,,9.40000000000000E+00,,1.19000000000000E+01,1.18000000000000E+01,,1.14000000000000E+01,1.03000000000000E+01,,,,5.50000000000000E+00,9.80000000000000E+00,9.80000000000000E+00,9.30000000000000E+00,9.10000000000000E+00,9.00000000000000E+00,8.10000000000000E+00,7.70000000000000E+00,6.80000000000000E+00,6.30000000000000E+00,,
BRB,,,,,,,,,,,,,,,,,,,,,,,,,,,,,,,6.00000000000000E-01,4.00000000000000E-01,2.00000000000000E-01,2.00000000000000E-01,0.00000000000000E+00,0.00000000000000E+00,4.00000000000000E-01,0.00000000000000E+00,0.00000000000000E+00,0.00000000000000E+00,2.00000000000000E-01,2.00000000000000E-01,0.00000000000000E+00,0.00000000000000E+00,2.00000000000000E-01,,,,,,,
BRN,,,,,,,,,,,,,,,,,,,,,,,,,,,,,,,,6.00000000000000E-01,,,,,,,,,,,,,,,,,,,,
BTN,,,,,,,,,,,,,,,,,,,,,,,,,,,,,,,,,,,,,,,,,,,,7.63000000000000E+01,,5.17000000000000E+01,,,,,,
BWA,,,,,,,,,,,,,,,,,,,,,,,,,4.00000000000000E-01,,,,,,,,,,6.80000000000000E+00,,,,1.24000000000000E+01,,1.73000000000000E+01,1.20000000000000E+00,,2.20000000000000E+00,,,4.40000000000000E+00,,,,,
CAN,,,,,,,,,,,,,,,,,,,,,2.00000000000000E+00,2.10000000000000E+00,2.00000000000000E+00,1.80000000000000E+00,1.70000000000000E+00,1.80000000000000E+00,1.50000000000000E+00,1.40000000000000E+00,1.10000000000000E+00,1.00000000000000E+00,9.00000000000000E-01,9.00000000000000E-01,8.00000000000000E-01,9.00000000000000E-01,7.00000000000000E-01,7.00000000000000E-01,7.00000000000000E-01,7.00000000000000E-01,7.00000000000000E-01,5.00000000000000E-01,4.00000000000000E-01,3.00000000000000E-01,3.00000000000000E-01,3.00000000000000E-01,3.00000000000000E-01,2.00000000000000E-01,2.00000000000000E-01,2.00000000000000E-01,2.00000000000000E-01,,,
CHE,,,,,,,,,,,,,,,,,,,,,,,,,,,,,,,,6.40000000000000E+00,6.10000000000000E+00,5.90000000000000E+00,5.70000000000000E+00,5.20000000000000E+00,4.60000000000000E+00,4.50000000000000E+00,4.10000000000000E+00,4.00000000000000E+00,3.60000000000000E+00,3.40000000000000E+00,3.40000000000000E+00,3.10000000000000E+00,2.80000000000000E+00,2.90000000000000E+00,3.20000000000000E+00,3.20000000000000E+00,2.60000000000000E+00,2.70000000000000E+00,,
CHL,,,,,,,,,,,,,,,,,,,,,,,,,,,,,,,,,,,,,3.90000000000000E+00,4.20000000000000E+00,3.90000000000000E+00,3.70000000000000E+00,3.80000000000000E+00,3.50000000000000E+00,3.50000000000000E+00,3.30000000000000E+00,3.40000000000000E+00,3.20000000000000E+00,3.00000000000000E+00,2.80000000000000E+00,2.70000000000000E+00,,,
CIV,,,,,,,,,,,,,,,,,,,,,,,,,,,,,,,,,,,,,,,,,,,4.42000000000000E+01,,,,,,,,,
CMR,,,,,,,,,,,,,,,,,,,,,,,,,,,,,,,,,,,,,2.16000000000000E+01,,,,,2.72000000000000E+01,,,,,,,,,,
COG,,,,,,,,,,,,,,,,,,,,,,,,,,,,,,,,,,,,,,,,,,,,,,4.70000000000000E+00,,,,,,
COL,,,,,,,,,,,,,,,,,,,,,,,,,,,,,,,,,2.40000000000000E+00,2.10000000000000E+00,2.20000000000000E+00,1.70000000000000E+00,1.70000000000000E+00,1.80000000000000E+00,1.60000000000000E+00,2.50000000000000E+00,5.30000000000000E+00,8.30000000000000E+00,8.90000000000000E+00,8.20000000000000E+00,8.10000000000000E+00,8.50000000000000E+00,8.40000000000000E+00,5.70000000000000E+00,5.80000000000000E+00,7.30000000000000E+00,,
CPV,,,,,,,,,,,,,,,,,,,,,,,,,,,,,,,,,,,,,,,,,1.48000000000000E+01,,,,,,,,,,,
CRI,,,,,,,,,,,,,,,,,,,,,,,,,,,,3.80000000000000E+00,4.90000000000000E+00,3.70000000000000E+00,6.30000000000000E+00,4.90000000000000E+00,3.80000000000000E+00,4.20000000000000E+00,3.70000000000000E+00,5.00000000000000E+00,3.90000000000000E+00,4.10000000000000E+00,4.00000000000000E+00,4.20000000000000E+00,3.30000000000000E+00,3.60000000000000E+00,,3.60000000000000E+00,3.50000000000000E+00,3.50000000000000E+00,3.20000000000000E+00,2.80000000000000E+00,2.60000000000000E+00,,,
CYP,,,,,,,,,,,,,,,,,,,,,,,,,,,,,,,,,,,,,,,,4.70000000000000E+00,6.60000000000000E+00,6.20000000000000E+00,6.10000000000000E+00,6.50000000000000E+00,6.20000000000000E+00,4.80000000000000E+00,3.60000000000000E+00,2.70000000000000E+00,3.00000000000000E+00,3.50000000000000E+00,,
CZE,,,,,,,,,,,,,,,,,,,,,,,,,,,,,,,,,,4.00000000000000E-01,6.00000000000000E-01,8.00000000000000E-01,8.00000000000000E-01,7.00000000000000E-01,9.00000000000000E-01,1.00000000000000E+00,1.00000000000000E+00,1.10000000000000E+00,1.20000000000000E+00,1.20000000000000E+00,1.10000000000000E+00,1.30000000000000E+00,1.20000000000000E+00,1.10000000000000E+00,1.00000000000000E+00,1.00000000000000E+00,,
DEU,,,,,,,,,,,,,,,,,,,,,7.60000000000000E+00,7.20000000000000E+00,6.80000000000000E+00,6.50000000000000E+00,,,,,,,,2.90000000000000E+00,2.90000000000000E+00,2.80000000000000E+00,2.60000000000000E+00,2.60000000000000E+00,1.90000000000000E+00,1.80000000000000E+00,1.80000000000000E+00,1.50000000000000E+00,1.40000000000000E+00,2.10000000000000E+00,1.90000000000000E+00,1.70000000000000E+00,1.90000000000000E+00,1.90000000000000E+00,1.70000000000000E+00,1.80000000000000E+00,1.50000000000000E+00,1.00000000000000E+00,,
DMA,,,,,,,,,,,,,,,,,,,,,,,,,,,,,,,,2.90000000000000E+00,,,,,,3.30000000000000E+00,,1.90000000000000E+00,,1.90000000000000E+00,,,,,,,,,,
DNK,,,,,,,,,,,,,,,,,,,,,,,,6.60000000000000E+00,5.60000000000000E+00,5.30000000000000E+00,4.70000000000000E+00,4.80000000000000E+00,4.50000000000000E+00,4.00000000000000E+00,4.00000000000000E+00,3.80000000000000E+00,3.60000000000000E+00,3.60000000000000E+00,2.90000000000000E+00,2.30000000000000E+00,1.80000000000000E+00,2.20000000000000E+00,2.40000000000000E+00,1.90000000000000E+00,1.80000000000000E+00,1.50000000000000E+00,1.50000000000000E+00,1.30000000000000E+00,1.50000000000000E+00,1.40000000000000E+00,1.20000000000000E+00,8.00000000000000E-01,5.00000000000000E-01,5.00000000000000E-01,,
DOM,,,,,,,,,,,,,,,,,,,,,,,,,,,,,,,,3.70000000000000E+00,3.90000000000000E+00,4.40000000000000E+00,4.50000000000000E+00,4.00000000000000E+00,2.70000000000000E+00,2.90000000000000E+00,3.00000000000000E+00,2.80000000000000E+00,2.50000000000000E+00,2.50000000000000E+00,1.90000000000000E+00,2.00000000000000E+00,2.20000000000000E+00,5.00000000000000E+00,3.70000000000000E+00,3.40000000000000E+00,,,,
DZA,,,,,,,,,,,,,,,,,,,,,,,,,,,,,,,,,,,,,,,,,,6.10000000000000E+00,,7.20000000000000E+00,1.36000000000000E+01,7.30000000000000E+00,,,,,,
ECA,,,,,,,,,,,,,,,,,,,,,,,,,,,,,,,,,,,,9.29332341380945E+00,9.70170716719245E+00,9.13411865501934E+00,1.00813547256310E+01,1.08170593105074E+01,8.98548795594852E+00,8.72344902327412E+00,7.88307185118557E+00,8.26210496394904E+00,7.42008007912226E+00,6.51268690638224E+00,5.41349903125411E+00,4.75264102608912E+00,5.32975939744212E+00,,,
ECS,,,,,,,,,,,,,,,,,,,,,,,,,,,,,,,,,6.93669831353431E+00,6.30577499637541E+00,6.66987368153095E+00,6.16967960088502E+00,6.16472445834038E+00,5.75876867966940E+00,6.00390738991758E+00,6.09470965500645E+00,5.33744003348522E+00,5.33488192933524E+00,4.91283997080420E+00,5.03083321106944E+00,4.48865168882237E+00,4.01491689438408E+00,3.41056885360754E+00,3.07823976130124E+00,3.23360529182465E+00,,,
ECU,,,,,,,,,,,,,,,,,,,,,,,,,,,,,7.00000000000000E+00,8.20000000000000E+00,1.13000000000000E+01,1.04000000000000E+01,1.16000000000000E+01,1.06000000000000E+01,1.10000000000000E+01,1.25000000000000E+01,1.09000000000000E+01,8.80000000000000E+00,1.07000000000000E+01,9.90000000000000E+00,1.86000000000000E+01,2.41000000000000E+01,8.60000000000000E+00,1.70000000000000E+01,2.21000000000000E+01,1.85000000000000E+01,2.25000000000000E+01,2.05000000000000E+01,1.87000000000000E+01,1.95000000000000E+01,,
EGY,,,,,,,,,,,,,,,,,,,,,,,,,,,,,,,,,,3.28000000000000E+01,3.35000000000000E+01,2.98000000000000E+01,,3.00000000000000E+01,2.33000000000000E+01,2.20000000000000E+01,2.60000000000000E+01,1.70000000000000E+01,1.95000000000000E+01,2.58000000000000E+01,3.22000000000000E+01,3.15000000000000E+01,3.26000000000000E+01,3.39000000000000E+01,,,,
EMU,,,,,,,,,,,,,,,,,,,,,,,,,,,,,,,,5.45390518556507E+00,5.45996032633843E+00,5.22541453090968E+00,4.88215190718373E+00,4.67646724654030E+00,4.18808918374445E+00,3.97307827107766E+00,3.75953419483201E+00,3.39991174616686E+00,3.17415021569293E+00,3.23903885951863E+00,3.03023171729219E+00,2.87086384031946E+00,2.45436866309155E+00,2.26299348433879E+00,2.06624605526255E+00,1.93446767706953E+00,1.74732586126838E+00,1.53588702145233E+00,,
ESP,,,,,,,,,,,,,,,,,,,,,1.96000000000000E+01,1.95000000000000E+01,1.86000000000000E+01,1.80000000000000E+01,1.69000000000000E+01,1.61000000000000E+01,1.44000000000000E+01,1.33000000000000E+01,1.25000000000000E+01,1.18000000000000E+01,1.05000000000000E+01,9.60000000000000E+00,8.60000000000000E+00,8.40000000000000E+00,7.50000000000000E+00,6.40000000000000E+00,5.80000000000000E+00,5.20000000000000E+00,4.80000000000000E+00,4.10000000000000E+00,3.70000000000000E+00,3.30000000000000E+00,3.00000000000000E+00,2.80000000000000E+00,2.40000000000000E+00,2.40000000000000E+00,1.90000000000000E+00,1.60000000000000E+00,1.40000000000000E+00,1.20000000000000E+00,,
EST,,,,,,,,,,,,,,,,,,,,,,,,,,,,,,1.90000000000000E+00,2.30000000000000E+00,2.40000000000000E+00,2.80000000000000E+00,3.40000000000000E+00,3.20000000000000E+00,1.90000000000000E+00,2.00000000000000E+00,1.00000000000000E+00,1.00000000000000E+00,1.00000000000000E+00,9.00000000000000E-01,9.00000000000000E-01,6.00000000000000E-01,4.00000000000000E-01,5.00000000000000E-01,2.00000000000000E-01,0.00000000000000E+00,0.00000000000000E+00,0.00000000000000E+00,2.00000000000000E-01,,
ETH,,,,,,,,,,,,,,,,,,,,,,8.42000000000000E+01,,,,,,7.26000000000000E+01,,,,,,,6.96000000000000E+01,,,,,6.36000000000000E+01,,,,,9.90000000000000E+00,6.85000000000000E+01,1.27000000000000E+01,,,,,
EUU,,,,,,,,,,,,,,,,,,,,,,,,,,,,,,,,4.45889645157863E+00,5.85075682593642E+00,5.65931819794228E+00,5.41224328547784E+00,5.26250678692464E+00,5.08734853828755E+00,4.96770088381272E+00,4.78591141459754E+00,4.56380962784869E+00,4.40095151455461E+00,4.36977089995835E+00,3.77802945368468E+00,3.64131722374007E+00,3.28356428852929E+00,3.07411420057892E+00,2.81417326926941E+00,2.70802330978011E+00,2.51100329821788E+00,2.33422634509602E+00,,
FIN,,,,,,,,,,,,,,,,,,,,,5.00000000000000E+00,5.10000000000000E+00,5.10000000000000E+00,2.00000000000000E+00,1.60000000000000E+00,1.50000000000000E+00,1.20000000000000E+00,9.00000000000000E-01,8.00000000000000E-01,1.20000000000000E+00,1.10000000000000E+00,1.00000000000000E+00,9.00000000000000E-01,1.00000000000000E+00,8.00000000000000E-01,1.40000000000000E+00,1.40000000000000E+00,8.00000000000000E-01,5.00000000000000E-01,8.00000000000000E-01,6.00000000000000E-01,6.00000000000000E-01,5.00000000000000E-01,4.00000000000000E-01,3.00000000000000E-01,4.00000000000000E-01,5.00000000000000E-01,4.00000000000000E-01,4.00000000000000E-01,4.00000000000000E-01,,
FJI,,,,,,,,,,,,,,,,,,,,,,,,,,,,,,,,,,,,,,,,,,,,,,1.99000000000000E+01,,,,,,
FRA,,,,,,,,,,,,,,,,,,,,,0.00000000000000E+00,0.00000000000000E+00,0.00000000000000E+00,9.00000000000000E+00,9.10000000000000E+00,8.50000000000000E+00,7.90000000000000E+00,7.10000000000000E+00,6.60000000000000E+00,5.80000000000000E+00,5.50000000000000E+00,5.00000000000000E+00,4.90000000000000E+00,4.40000000000000E+00,4.20000000000000E+00,3.80000000000000E+00,3.40000000000000E+00,3.20000000000000E+00,2.90000000000000E+00,2.80000000000000E+00,2.30000000000000E+00,2.00000000000000E+00,2.00000000000000E+00,2.00000000000000E+00,1.90000000000000E+00,1.60000000000000E+00,1.40000000000000E+00,1.00000000000000E+00,1.00000000000000E+00,1.00000000000000E+00,,
GAB,,,,,,,,,,,,,,,,,,,,,,,,,,,,,,,,,,5.30000000000000E+00,,,,,,,,,,,,6.70000000000000E+00,,,,,,
GBR,,,,,,,,,,,,,,,,,,,,,,,,3.00000000000000E-01,2.00000000000000E-01,0.00000000000000E+00,0.00000000000000E+00,3.00000000000000E-01,3.00000000000000E-01,7.00000000000000E-01,7.00000000000000E-01,8.00000000000000E-01,1.10000000000000E+00,9.00000000000000E-01,8.00000000000000E-01,8.00000000000000E-01,7.00000000000000E-01,7.00000000000000E-01,6.00000000000000E-01,5.00000000000000E-01,6.00000000000000E-01,5.00000000000000E-01,5.00000000000000E-01,4.00000000000000E-01,5.00000000000000E-01,5.00000000000000E-01,4.00000000000000E-01,5.00000000000000E-01,5.00000000000000E-01,4.00000000000000E-01,,
GEO,,,,,,,,,,,,,,,,,,,,,,,,,,,,,,,,,,,,,,,4.02000000000000E+01,4.02000000000000E+01,3.67000000000000E+01,4.02000000000000E+01,3.71000000000000E+01,3.88000000000000E+01,3.76000000000000E+01,3.90000000000000E+01,,,3.79000000000000E+01,,,
GNQ,,,,,,,,,,,,,,,,,,,,,,,,7.65000000000000E+01,,,,,,,,,,,,,,,,,,,,,,,,,,,,
GRC,,,,,,,,,,,,,,,,,,,,,,3.64000000000000E+01,3.00000000000000E+01,3.60000000000000E+01,3.57000000000000E+01,3.39000000000000E+01,3.57000000000000E+01,3.39000000000000E+01,3.21000000000000E+01,3.13000000000000E+01,2.77000000000000E+01,2.52000000000000E+01,2.60000000000000E+01,2.52000000000000E+01,2.56000000000000E+01,2.51000000000000E+01,2.42000000000000E+01,2.36000000000000E+01,2.13000000000000E+01,1.85000000000000E+01,1.72000000000000E+01,1.49000000000000E+01,1.41000000000000E+01,1.38000000000000E+01,1.14000000000000E+01,1.13000000000000E+01,1.09000000000000E+01,1.06000000000000E+01,9.80000000000000E+00,9.70000000000000E+00,,
GRD,,,,,,,,,,,,,,,,,,,,,,,,,,,,,,,,1.30000000000000E+00,,,,,6.00000000000000E-01,,1.70000000000000E+00,,,,,,,,,,,,,
GTM,,,,,,,,,,,,,,,,,,,,,,,,,,,,,,,,,,,9.10000000000000E+00,,,,1.31000000000000E+01,,1.51000000000000E+01,,2.54000000000000E+01,2.63000000000000E+01,2.14000000000000E+01,,,,,,,
HIC,,,,,,,,,,,,,,,,,,,,,,,,,,,,,,,,5.53848410241228E+00,5.39572672229988E+00,5.07515982656976E+00,4.74537484449697E+00,4.56051931629670E+00,4.34689036648581E+00,4.13281595702099E+00,3.99593633228206E+00,3.71547694812839E+00,3.54310853507379E+00,3.44001068802822E+00,3.25818115502073E+00,3.12808876284430E+00,2.88779601273803E+00,2.73609177976805E+00,2.49547261363819E+00,2.37702323642609E+00,2.23985029647178E+00,,,
HKG,,,,,,,,,,,,,,,,,,,,,,,,,,,,,,,,,,2.00000000000000E+00,1.70000000000000E+00,1.50000000000000E+00,1.40000000000000E+00,1.40000000000000E+00,1.20000000000000E+00,1.50000000000000E+00,1.20000000000000E+00,1.20000000000000E+00,1.30000000000000E+00,1.40000000000000E+00,1.40000000000000E+00,1.40000000000000E+00,1.20000000000000E+00,1.10000000000000E+00,1.00000000000000E+00,,,
HND,,,,,,,,,,,,,,,,,,,,,,,,,,,,,,,6.30000000000000E+00,6.60000000000000E+00,7.00000000000000E+00,,6.10000000000000E+00,6.50000000000000E+00,1.05000000000000E+01,1.08000000000000E+01,1.07000000000000E+01,1.43000000000000E+01,,1.13000000000000E+01,1.10000000000000E+01,1.01000000000000E+01,9.10000000000000E+00,8.30000000000000E+00,1.09000000000000E+01,1.11000000000000E+01,,,,
HRV,,,,,,,,,,,,,,,,,,,,,,,,,,,,,,,,,,,,,1.24000000000000E+01,1.15000000000000E+01,1.00000000000000E+01,9.00000000000000E+00,8.20000000000000E+00,7.80000000000000E+00,7.50000000000000E+00,6.30000000000000E+00,4.40000000000000E+00,4.00000000000000E+00,3.60000000000000E+00,3.70000000000000E+00,3.70000000000000E+00,3.90000000000000E+00,,
HTI,,,,,,,,,,,,,,,,,,,,,,,,,,,,,,,1.12000000000000E+01,,,,,,,,,,,,,,,,,,,,,
HUN,,,,,,,,,,,,,,,,,,,,,,,,,,,,,,,,,1.80000000000000E+00,1.70000000000000E+00,1.60000000000000E+00,1.60000000000000E+00,1.70000000000000E+00,1.70000000000000E+00,1.10000000000000E+00,1.10000000000000E+00,1.00000000000000E+00,1.00000000000000E+00,1.00000000000000E+00,7.00000000000000E-01,7.00000000000000E-01,7.00000000000000E-01,8.00000000000000E-01,7.00000000000000E-01,5.00000000000000E-01,5.00000000000000E-01,,
IDN,,,,,,,,,,,,,,,,,,,,,,,,,,,,,,,,,,,,,,,,,,3.86000000000000E+01,3.62000000000000E+01,4.15000000000000E+01,3.85000000000000E+01,3.75000000000000E+01,3.41000000000000E+01,3.36000000000000E+01,,3.24000000000000E+01,,
IND,,,,,,,,,,,,,,,,,,,,,,,,,,,,,,,,,,,,,,,,,,,,,,3.82000000000000E+01,,,,,,
IRL,,,,,,,,,,,,,,,,,,,,,,,,6.80000000000000E+00,5.70000000000000E+00,6.50000000000000E+00,3.60000000000000E+00,4.10000000000000E+00,3.70000000000000E+00,3.70000000000000E+00,3.50000000000000E+00,2.60000000000000E+00,2.00000000000000E+00,2.30000000000000E+00,2.10000000000000E+00,1.90000000000000E+00,1.50000000000000E+00,1.80000000000000E+00,2.00000000000000E+00,1.80000000000000E+00,1.90000000000000E+00,1.50000000000000E+00,1.20000000000000E+00,1.40000000000000E+00,9.00000000000000E-01,9.00000000000000E-01,9.00000000000000E-01,1.00000000000000E+00,8.00000000000000E-01,9.00000000000000E-01,,
IRN,,,,,,,,,,,,,,,,,,,,,,,,,,,,,,,,,,,,,2.08000000000000E+01,,,,,,,,,3.69000000000000E+01,,3.27000000000000E+01,2.97000000000000E+01,,,
ISL,,,,,,,,,,,,,,,,,,,,,,,,,,,,,,,,3.00000000000000E+00,2.70000000000000E+00,2.80000000000000E+00,2.50000000000000E+00,1.50000000000000E+00,8.00000000000000E-01,6.00000000000000E-01,3.00000000000000E-01,3.00000000000000E-01,5.00000000000000E-01,3.00000000000000E-01,3.00000000000000E-01,1.00000000000000E-01,0.00000000000000E+00,1.00000000000000E-01,0.00000000000000E+00,0.00000000000000E+00,0.00000000000000E+00,8.00000000000000E-01,,
ISR,,,,,,,,,,,,,,,,,,,,,,,,,,,,,,,,,,,,1.20000000000000E+00,1.10000000000000E+00,9.00000000000000E-01,9.00000000000000E-01,8.00000000000000E-01,8.00000000000000E-01,8.00000000000000E-01,7.00000000000000E-01,7.00000000000000E-01,6.00000000000000E-01,5.00000000000000E-01,5.00000000000000E-01,4.00000000000000E-01,3.00000000000000E-01,,,
ITA,,,,,,,,,,,,,,,,,,,,,1.11000000000000E+01,1.08000000000000E+01,1.02000000000000E+01,1.03000000000000E+01,1.12000000000000E+01,1.06000000000000E+01,1.01000000000000E+01,1.00000000000000E+01,9.50000000000000E+00,8.30000000000000E+00,7.40000000000000E+00,7.30000000000000E+00,8.90000000000000E+00,8.50000000000000E+00,7.90000000000000E+00,7.70000000000000E+00,7.20000000000000E+00,6.80000000000000E+00,6.60000000000000E+00,5.80000000000000E+00,5.80000000000000E+00,6.10000000000000E+00,5.90000000000000E+00,5.90000000000000E+00,3.70000000000000E+00,2.80000000000000E+00,2.70000000000000E+00,2.60000000000000E+00,2.50000000000000E+00,2.20000000000000E+00,,
JAM,,,,,,,,,,,,,,,,,,,,,,,,,,,,,,,,4.50000000000000E+00,4.10000000000000E+00,3.20000000000000E+00,3.40000000000000E+00,3.90000000000000E+00,3.60000000000000E+00,3.20000000000000E+00,3.40000000000000E+00,3.00000000000000E+00,3.00000000000000E+00,3.40000000000000E+00,2.50000000000000E+00,2.20000000000000E+00,2.40000000000000E+00,2.50000000000000E+00,2.20000000000000E+00,2.20000000000000E+00,2.10000000000000E+00,,,
JOR,,,,,,,,,,,,,,,,,,,,,,,,,,,,,,,,,,,,,,,,,,1.70000000000000E+00,1.00000000000000E+00,7.00000000000000E-01,7.00000000000000E-01,8.00000000000000E-01,8.00000000000000E-01,8.00000000000000E-01,6.00000000000000E-01,5.00000000000000E-01,,
JPN,,,,,,,,,,,,,,,,,,,,,2.29000000000000E+01,2.23000000000000E+01,2.20000000000000E+01,2.08000000000000E+01,2.03000000000000E+01,2.00000000000000E+01,1.94000000000000E+01,1.93000000000000E+01,1.86000000000000E+01,1.77000000000000E+01,1.67000000000000E+01,1.55000000000000E+01,1.43000000000000E+01,1.31000000000000E+01,1.28000000000000E+01,1.25000000000000E+01,1.20000000000000E+01,1.16000000000000E+01,1.13000000000000E+01,1.11000000000000E+01,1.06000000000000E+01,1.01000000000000E+01,9.50000000000000E+00,9.20000000000000E+00,8.90000000000000E+00,8.60000000000000E+00,7.60000000000000E+00,7.30000000000000E+00,6.90000000000000E+00,,,
KAZ,,,,,,,,,,,,,,,,,,,,,,,,,,,,,,,,,,,,,,,,,,1.20000000000000E+00,1.30000000000000E+00,1.20000000000000E+00,1.30000000000000E+00,9.00000000000000E-01,1.10000000000000E+00,1.10000000000000E+00,9.00000000000000E-01,,,
KEN,,,,,,,,,,,,,,,,,,,,,,,,,,,,,,,,,,,,,,,,5.32000000000000E+01,,,,,,,,,,,,
KGZ,,,,,,,,,,,,,,,,,,,,,,,,,,,,,,,,,,,,,,,,,,,1.59000000000000E+01,1.77000000000000E+01,2.18000000000000E+01,2.10000000000000E+01,1.93000000000000E+01,,,,,
KHM,,,,,,,,,,,,,,,,,,,,,,,,,,,,,,,,,,,,,,,,,5.90000000000000E+01,5.33000000000000E+01,,,,,,,,,,
KNA,,,,,,,,,,,,,,,,,,,,,,,,,,,,,,,,1.30000000000000E+00,,,,,,,,,,8.00000000000000E-01,,,,,,,,,,
KOR,,,,,,,,,,,,,,,,,,,,,3.74000000000000E+01,3.82000000000000E+01,3.64000000000000E+01,3.39000000000000E+01,3.25000000000000E+01,3.06000000000000E+01,2.92000000000000E+01,2.74000000000000E+01,2.73000000000000E+01,2.56000000000000E+01,2.45000000000000E+01,2.37000000000000E+01,2.29000000000000E+01,2.38000000000000E+01,2.27000000000000E+01,2.13000000000000E+01,2.06000000000000E+01,1.97000000000000E+01,2.25000000000000E+01,2.03000000000000E+01,1.92000000000000E+01,1.81000000000000E+01,1.71000000000000E+01,1.67000000000000E+01,1.48000000000000E+01,1.40000000000000E+01,1.35000000000000E+01,1.27000000000000E+01,1.25000000000000E+01,,,
KWT,,,,,,,,,,,,,,,,,,,,,,,,,,,,,,,,,,,,,,,,,,,,,,0.00000000000000E+00,,,,,,
LAC,,,,,,,,,,,,,,,,,,,,,,,,,,,,,,,,,1.04367161507676E+01,1.08688069204785E+01,,1.02783220085898E+01,9.55347082981909E+00,,,,7.70414747650985E+00,9.85048022006108E+00,9.64235931989589E+00,9.35996018907226E+00,9.33532462676169E+00,8.70822547012983E+00,8.34014904521955E+00,7.69520384943640E+00,6.81770146944461E+00,,,
LAO,,,,,,,,,,,,,,,,,,,,,,,,,,,,,,,,,,,,3.76000000000000E+01,,,,,,,,,,6.42000000000000E+01,,,,,,
LBN,,,,,,,,,,,,,,,,,,,,,,,,,,,,,,,,,,,,,,,,,,,,,4.00000000000000E+00,,,5.90000000000000E+00,,,,
LBR,,,,,,,,,,,,,,,,,,,,,,,,,,,,,,,,,,,,,,,,,,,,,,,,5.62000000000000E+01,,,,
LCA,,,,,,,,,,,,,,,,,,,,,,,,,,,,,,,,,,4.10000000000000E+00,2.60000000000000E+00,3.00000000000000E+00,2.20000000000000E+00,2.20000000000000E+00,1.10000000000000E+00,1.60000000000000E+00,1.40000000000000E+00,,,,,,,,,,,
LCN,,,,,,,,,,,,,,,,,,,,,,,,,,,,,,,,,1.03400971988500E+01,1.07673519765422E+01,,1.01862109657317E+01,9.46617047824078E+00,,,,7.63830041451557E+00,9.74917650731821E+00,9.54815651384463E+00,9.26833004495540E+00,9.24385744785626E+00,8.63608379836028E+00,8.28678685203072E+00,7.64768064327232E+00,6.76880437021613E+00,,,
LKA,,,,,,,,,,,,,,,,,,,,,,,,,,,,,,,,,,1.87000000000000E+01,1.88000000000000E+01,1.91000000000000E+01,1.89000000000000E+01,1.83000000000000E+01,2.70000000000000E+01,2.48000000000000E+01,2.65000000000000E+01,2.13000000000000E+01,2.30000000000000E+01,2.13000000000000E+01,1.98000000000000E+01,1.82000000000000E+01,2.17000000000000E+01,2.17000000000000E+01,2.22000000000000E+01,2.23000000000000E+01,,
LMC,,,,,,,,,,,,,,,,,,,,,,,,,,,,,,,,,,,,,,,,,,,,,,3.45884594818296E+01,,,,,,
LSO,,,,,,,,,,,,,,,,,,,,,,,,,,,,2.59000000000000E+01,,,,,,,,,,,,,,,,,,,,,,,,
LTU,,,,,,,,,,,,,,,,,,,,,,,,,,,,,,,,,,,,,,4.70000000000000E+00,4.10000000000000E+00,4.40000000000000E+00,3.50000000000000E+00,3.60000000000000E+00,4.40000000000000E+00,4.60000000000000E+00,4.20000000000000E+00,3.90000000000000E+00,3.40000000000000E+00,2.40000000000000E+00,2.00000000000000E+00,2.10000000000000E+00,,
LUX,,,,,,,,,,,,,,,,,,,,,,,,7.80000000000000E+00,6.40000000000000E+00,5.80000000000000E+00,4.50000000000000E+00,4.90000000000000E+00,4.40000000000000E+00,4.10000000000000E+00,4.10000000000000E+00,4.00000000000000E+00,2.60000000000000E+00,3.50000000000000E+00,3.00000000000000E+00,3.30000000000000E+00,1.80000000000000E+00,1.40000000000000E+00,1.40000000000000E+00,1.50000000000000E+00,1.30000000000000E+00,1.10000000000000E+00,1.30000000000000E+00,3.00000000000000E-01,8.00000000000000E-01,6.00000000000000E-01,5.00000000000000E-01,3.00000000000000E-01,5.00000000000000E-01,1.10000000000000E+00,,
LVA,,,,,,,,,,,,,,,,,,,,,,,,,,,,,,,,,,,,,5.10000000000000E+00,7.50000000000000E+00,6.20000000000000E+00,5.70000000000000E+00,4.30000000000000E+00,4.80000000000000E+00,4.50000000000000E+00,3.90000000000000E+00,3.90000000000000E+00,2.10000000000000E+00,1.40000000000000E+00,1.60000000000000E+00,1.20000000000000E+00,1.30000000000000E+00,,
MAC,,,,,,,,,,,,,,,,,,,,,,,,,,,,,,,,,,,,,2.30000000000000E+00,3.20000000000000E+00,3.10000000000000E+00,3.30000000000000E+00,2.90000000000000E+00,2.80000000000000E+00,2.50000000000000E+00,2.80000000000000E+00,3.50000000000000E+00,2.30000000000000E+00,1.80000000000000E+00,1.40000000000000E+00,1.40000000000000E+00,,,
MAR,,,,,,,,,,,,,,,,,,,,,,,,,,,,,,,,,,,2.93000000000000E+01,,,,5.09000000000000E+01,5.49000000000000E+01,5.50000000000000E+00,5.10000000000000E+00,5.25000000000000E+01,5.25000000000000E+01,5.61000000000000E+01,5.57000000000000E+01,5.53000000000000E+01,5.18000000000000E+01,4.86000000000000E+01,,,
MDA,,,,,,,,,,,,,,,,,,,,,,,,,,,,,,,,,,,,,,,,8.00000000000000E+00,8.80000000000000E+00,1.07000000000000E+01,1.02000000000000E+01,3.40000000000000E+00,1.50000000000000E+00,1.40000000000000E+00,4.30000000000000E+00,3.40000000000000E+00,3.50000000000000E+00,,,
MDG,,,,,,,,,,,,,,,,,,,,,,,,,,,,,,,,,,4.16000000000000E+01,,,,,,,,,,5.19000000000000E+01,,7.30000000000000E+01,,,,,,
MDV,,,,,,,,,,,,,,,,,,,,,,,,,,,,,,,6.60000000000000E+00,,,,,1.21000000000000E+01,,,,,3.40000000000000E+00,,,,,,2.29000000000000E+01,,,,,
MEA,,,,,,,,,,,,,,,,,,,,,,,,,,,,,,,,,,,,,,,,,,,,,,2.88067422426057E+01,,,,,,
MEX,,,,,,,,,,,,,,,,,,,,,,,,,,,,,,,1.20000000000000E+00,1.74000000000000E+01,1.62000000000000E+01,1.77000000000000E+01,1.67000000000000E+01,1.70000000000000E+01,1.61000000000000E+01,1.80000000000000E+01,1.50000000000000E+01,1.44000000000000E+01,1.26000000000000E+01,1.19000000000000E+01,1.24000000000000E+01,1.14000000000000E+01,1.17000000000000E+01,1.09000000000000E+01,1.04000000000000E+01,1.00000000000000E+01,9.70000000000000E+00,,,
MHL,,,,,,,,,,,,,,,,,,,,,,,,,,,,,,,,,,,,,,,,0.00000000000000E+00,,,,,,,,,,,,
MKD,,,,,,,,,,,,,,,,,,,,,,,,,,,,,,,,,,,,,,,1.20000000000000E+01,1.62000000000000E+01,1.65000000000000E+01,2.18000000000000E+01,1.92000000000000E+01,1.81000000000000E+01,1.20000000000000E+01,1.67000000000000E+01,1.70000000000000E+01,1.49000000000000E+01,1.66000000000000E+01,,,
MLI,,,,,,,,,,,,,,,,,,,,,,,,,,,,,,,,,,,7.20000000000000E+01,,,,,,,,,,1.02000000000000E+01,,4.67000000000000E+01,3.41000000000000E+01,,,,
MLT,,,,,,,,,,,,,,,,,,,,,,,,,,,,,,,,,,,,,,,,,2.00000000000000E-01,2.00000000000000E-01,4.00000000000000E-01,7.00000000000000E-01,2.00000000000000E-01,2.00000000000000E-01,0.00000000000000E+00,2.00000000000000E-01,2.00000000000000E-01,2.00000000000000E-01,,
MNA,,,,,,,,,,,,,,,,,,,,,,,,,,,,,,,,,,,,,,,,,,,,,,3.19116623481059E+01,,3.43775869058185E+01,,,,
MNE,,,,,,,,,,,,,,,,,,,,,,,,,,,,,,,,,,,,,,,,,,,,,,2.60000000000000E+00,,,,,,
MNG,,,,,,,,,,,,,,,,,,,,,,,,,,,,,,,,,,,,,,,,,3.86000000000000E+01,,,3.17000000000000E+01,,,,,,,,
MOZ,,,,,,,,,,,,,,,,,,,,,,,,,,,,,,,,,,,,,,,,,,,,5.68000000000000E+01,,,,,,,,
MUS,,,,,,,,,,,,,,,,,,,,,,,,,,,,,,,3.10000000000000E+00,,,,,4.10000000000000E+00,,,,,1.70000000000000E+00,,,,4.70000000000000E+00,4.70000000000000E+00,4.80000000000000E+00,4.70000000000000E+00,4.40000000000000E+00,,,
MWI,,,,,,,,,,,,,,,,,,,,,,,,,,,,4.00000000000000E-01,,,,,,,,,,,,,,,,,,,,,,,,
MYS,,,,,,,,,,,,,,,,,,,,,,,,,,,,,,,,8.10000000000000E+00,,,,1.32000000000000E+01,1.38000000000000E+01,1.24000000000000E+01,1.20000000000000E+01,1.17000000000000E+01,1.11000000000000E+01,1.03000000000000E+01,9.60000000000000E+00,9.60000000000000E+00,9.60000000000000E+00,8.50000000000000E+00,9.00000000000000E+00,8.80000000000000E+00,8.10000000000000E+00,,,
NAC,,,,,,,,,,,,,,,,,,,,,,,,,,,,,,,,5.39321208572587E-01,5.29103752460478E-01,4.47764416860807E-01,2.47141368004152E-01,2.46955937722163E-01,2.46715953942358E-01,2.46565862718850E-01,1.56653657325770E-01,1.38077415467046E-01,1.28852397781275E-01,1.19490744906872E-01,1.20097037824904E-01,1.20483033896526E-01,1.20699280898131E-01,1.10342289662652E-01,1.10367969614411E-01,1.10549772767891E-01,1.10661969542397E-01,,,
NAM,,,,,,,,,,,,,,,,,,,,,,,,,,,,,,,,,,,3.15000000000000E+01,,,1.81000000000000E+01,,,4.10000000000000E+00,2.20000000000000E+01,,,5.80000000000000E+00,,,,1.10000000000000E+00,,,
NCL,,,,,,,,,,,,,,,,,,,,,,,,,,,,,,,,,,,,,5.00000000000000E-01,,,,,,,,,,,,,,,
NER,,,,,,,,,,,,,,,,,,,,,,,,,,,,,,,,,,,,,,,,,,,,,,2.80000000000000E+00,,,,,,
NIC,,,,,,,,,,,,,,,,,,,,,,,,,,,,,,,,,,3.60000000000000E+00,,3.70000000000000E+00,3.80000000000000E+00,4.00000000000000E+00,5.50000000000000E+00,4.90000000000000E+00,1.10000000000000E+01,,4.20000000000000E+00,1.20000000000000E+01,1.04000000000000E+01,1.17000000000000E+01,9.40000000000000E+00,8.70000000000000E+00,,,,
NLD,,,,,,,,,,,,,,,,,,,,,,,,,,,,5.30000000000000E+00,4.90000000000000E+00,4.80000000000000E+00,5.10000000000000E+00,3.80000000000000E+00,2.60000000000000E+00,2.90000000000000E+00,2.50000000000000E+00,2.50000000000000E+00,2.10000000000000E+00,2.10000000000000E+00,1.80000000000000E+00,1.60000000000000E+00,1.60000000000000E+00,1.40000000000000E+00,1.10000000000000E+00,9.00000000000000E-01,9.00000000000000E-01,1.00000000000000E+00,1.00000000000000E+00,9.00000000000000E-01,8.00000000000000E-01,7.00000000000000E-01,,
NOR,,,,,,,,,,,,,,,,,,,,,6.20000000000000E+00,6.20000000000000E+00,5.20000000000000E+00,4.60000000000000E+00,4.60000000000000E+00,4.00000000000000E+00,4.90000000000000E+00,3.60000000000000E+00,3.50000000000000E+00,3.10000000000000E+00,2.60000000000000E+00,2.00000000000000E+00,1.90000000000000E+00,1.70000000000000E+00,1.30000000000000E+00,1.50000000000000E+00,1.30000000000000E+00,9.00000000000000E-01,1.20000000000000E+00,5.00000000000000E-01,5.00000000000000E-01,7.00000000000000E-01,5.00000000000000E-01,5.00000000000000E-01,4.00000000000000E-01,5.00000000000000E-01,5.00000000000000E-01,3.00000000000000E-01,6.00000000000000E-01,3.00000000000000E-01,,
NPL,,,,,,,,,,,,,,,,,,,,,,,,,,,,,,,,,,,,,,,,,,1.29000000000000E+01,,,,,,,,,,
NZL,,,,,,,,,,,,,,,,,,,,,,1.10000000000000E+00,,,,,1.60000000000000E+00,1.00000000000000E+00,1.00000000000000E+00,1.10000000000000E+00,1.90000000000000E+00,1.90000000000000E+00,1.80000000000000E+00,1.60000000000000E+00,1.70000000000000E+00,1.60000000000000E+00,1.80000000000000E+00,1.30000000000000E+00,1.40000000000000E+00,1.30000000000000E+00,1.30000000000000E+00,1.20000000000000E+00,1.00000000000000E+00,9.00000000000000E-01,9.00000000000000E-01,9.00000000000000E-01,1.30000000000000E+00,1.50000000000000E+00,1.30000000000000E+00,,,
OEC,,,,,,,,,,,,,,,,,,,,,,,,,,,,,,,,5.56296789290729E+00,5.41886249437137E+00,5.11464116447081E+00,4.78193152399981E+00,4.59739433977505E+00,4.35043914790468E+00,4.13779993890450E+00,4.00710254390936E+00,3.72390686475662E+00,3.56101201209407E+00,3.45449465034187E+00,3.27098476722380E+00,3.14147322696021E+00,2.90519932409251E+00,2.75419627752823E+00,2.51337628278060E+00,2.39346731509117E+00,2.26086496991387E+00,,,
OED,,,,,,,,,,,,,,,,,,,,,,,,,,,,,,,,8.27490413911708E+00,7.74125101368139E+00,7.19834399672269E+00,7.09241331371168E+00,6.97619311454429E+00,6.72248337224030E+00,6.41794999450720E+00,6.18763087195699E+00,5.96776346740875E+00,5.34130050966393E+00,5.24874431293933E+00,5.05676647753838E+00,4.80782184022222E+00,4.60558159913277E+00,4.20719270905729E+00,3.89274846849248E+00,3.65770308658100E+00,3.54389883213509E+00,,,
PAK,,,,,,,,,,,,,,,,,,,,,,,,,,,,,,,,,,,,6.17000000000000E+01,6.17000000000000E+01,5.41000000000000E+01,6.33000000000000E+01,6.33000000000000E+01,5.01000000000000E+01,5.01000000000000E+01,4.69000000000000E+01,4.69000000000000E+01,5.28000000000000E+01,5.28000000000000E+01,5.92000000000000E+01,6.19000000000000E+01,6.50000000000000E+01,,,
PAN,,,,,,,,,,,,,,,,,,,,,,,3.00000000000000E+00,3.40000000000000E+00,2.00000000000000E+00,2.90000000000000E+00,2.30000000000000E+00,3.80000000000000E+00,4.70000000000000E+00,3.30000000000000E+00,,,2.20000000000000E+00,2.40000000000000E+00,1.60000000000000E+00,3.00000000000000E+00,2.80000000000000E+00,2.80000000000000E+00,2.90000000000000E+00,2.10000000000000E+00,1.80000000000000E+00,3.30000000000000E+00,3.20000000000000E+00,4.00000000000000E+00,3.60000000000000E+00,5.50000000000000E+00,5.00000000000000E+00,4.00000000000000E+00,4.40000000000000E+00,,,
PER,,,,,,,,,,,,,,,,,,,,,,,,,,,,,,,9.20000000000000E+00,5.90000000000000E+00,7.30000000000000E+00,9.20000000000000E+00,8.30000000000000E+00,8.30000000000000E+00,1.01000000000000E+01,1.21000000000000E+01,1.17000000000000E+01,1.06000000000000E+01,1.07000000000000E+01,1.15000000000000E+01,7.50000000000000E+00,7.60000000000000E+00,8.70000000000000E+00,5.90000000000000E+00,6.60000000000000E+00,6.00000000000000E+00,8.70000000000000E+00,,,
PHL,,,,,,,,,,,,,,,,,,,,,,,,,,,,,,,,,,,,,,,1.83000000000000E+01,1.92000000000000E+01,1.68000000000000E+01,1.77000000000000E+01,1.83000000000000E+01,1.73000000000000E+01,1.61000000000000E+01,1.75000000000000E+01,1.74000000000000E+01,1.70000000000000E+01,1.74000000000000E+01,,,
POL,,,,,,,,,,,,,,,,,,,,,,,,,,,,,,,,,7.80000000000000E+00,8.40000000000000E+00,7.40000000000000E+00,7.70000000000000E+00,7.90000000000000E+00,6.70000000000000E+00,6.30000000000000E+00,5.80000000000000E+00,6.60000000000000E+00,6.80000000000000E+00,6.90000000000000E+00,7.20000000000000E+00,7.30000000000000E+00,7.00000000000000E+00,6.20000000000000E+00,6.00000000000000E+00,5.90000000000000E+00,5.70000000000000E+00,,
PRI,,,,,,,,,,,,,,,,,,,,,,,,,,,,,,,,2.10000000000000E+00,1.80000000000000E+00,1.70000000000000E+00,1.70000000000000E+00,1.80000000000000E+00,1.70000000000000E+00,1.50000000000000E+00,1.30000000000000E+00,1.30000000000000E+00,1.00000000000000E+00,1.00000000000000E+00,1.20000000000000E+00,1.10000000000000E+00,9.00000000000000E-01,9.00000000000000E-01,0.00000000000000E+00,0.00000000000000E+00,0.00000000000000E+00,,,
PRT,,,,,,,,,,,,,,,,,,,,,,,,,,,7.10000000000000E+00,6.50000000000000E+00,5.50000000000000E+00,4.70000000000000E+00,4.00000000000000E+00,5.90000000000000E+00,2.40000000000000E+00,2.40000000000000E+00,2.70000000000000E+00,2.60000000000000E+00,2.00000000000000E+00,1.90000000000000E+00,3.00000000000000E+00,2.80000000000000E+00,3.30000000000000E+00,3.60000000000000E+00,2.80000000000000E+00,2.10000000000000E+00,2.10000000000000E+00,2.10000000000000E+00,1.80000000000000E+00,1.50000000000000E+00,1.20000000000000E+00,1.10000000000000E+00,,
PRY,,,,,,,,,,,,,,,,,,,,,,,,,,,,,,,1.00000000000000E-01,4.00000000000000E-01,1.00000000000000E+00,2.90000000000000E+00,4.30000000000000E+00,,7.20000000000000E+00,8.10000000000000E+00,9.90000000000000E+00,9.10000000000000E+00,8.60000000000000E+00,1.03000000000000E+01,1.20000000000000E+01,1.00000000000000E+01,1.13000000000000E+01,9.60000000000000E+00,1.08000000000000E+01,8.90000000000000E+00,1.10000000000000E+01,,,
PYF,,,,,,,,,,,,,,,,,,,,,,,,,,,,,,,,,,,,,,,,,,,3.00000000000000E+00,,,,,,,,,
QAT,,,,,,,,,,,,,,,,,,,,,,,,,,,,,,,,,,,,,,0.00000000000000E+00,,,,,,,0.00000000000000E+00,,,,,,,
ROM,,,,,,,,,,,,,,,,,,,,,,,,,,,,,,,,5.60000000000000E+00,2.20000000000000E+01,2.29000000000000E+01,2.42000000000000E+01,2.37000000000000E+01,2.56000000000000E+01,2.69000000000000E+01,2.76000000000000E+01,2.90000000000000E+01,2.93000000000000E+01,2.91000000000000E+01,2.34000000000000E+01,2.34000000000000E+01,2.12000000000000E+01,2.12000000000000E+01,1.99000000000000E+01,1.99000000000000E+01,1.89000000000000E+01,1.92000000000000E+01,,
RUS,,,,,,,,,,,,,,,,,,,,,,,,,,,,,,,,,1.00000000000000E-01,1.00000000000000E-01,1.00000000000000E-01,2.00000000000000E-01,1.00000000000000E-01,1.00000000000000E-01,1.00000000000000E-01,1.00000000000000E-01,1.00000000000000E-01,1.00000000000000E-01,1.00000000000000E-01,1.00000000000000E-01,1.00000000000000E-01,1.00000000000000E-01,1.00000000000000E-01,1.00000000000000E-01,1.00000000000000E-01,,,
RWA,,,,,,,,,,,,,,,,,,,,,,,,,,,,,,,,,,,,,3.00000000000000E+01,,,,,,,,,,,,,,,
SAS,,,,,,,,,,,,,,,,,,,,,,,,,,,,,,,,,,,,,,,,,,,,,,4.23773967305494E+01,,,,,,
SEN,,,,,,,,,,,,,,,,,,,,,,,,,,,,,,,,3.24000000000000E+01,,,,,,,,,,2.47000000000000E+01,,,,,,,,,,
SGP,,,,,,,,,,,,,,,,,,,,,,,,,,,3.60000000000000E+00,3.90000000000000E+00,3.30000000000000E+00,2.80000000000000E+00,,2.10000000000000E+00,1.90000000000000E+00,1.90000000000000E+00,2.10000000000000E+00,1.80000000000000E+00,2.20000000000000E+00,2.20000000000000E+00,2.10000000000000E+00,2.20000000000000E+00,6.00000000000000E-01,2.00000000000000E+00,1.60000000000000E+00,1.50000000000000E+00,1.40000000000000E+00,,1.10000000000000E+00,1.30000000000000E+00,1.10000000000000E+00,1.00000000000000E+00,,
SLE,,,,,,,,,,,,,,,,,,,,,,,,,,,,,,,,,,,,,,,,,,,,,2.16000000000000E+01,,,,,,,
SLV,,,,,,,,,,,,,,,,,,,,,,,,,,,,,,,,,,8.60000000000000E+00,8.10000000000000E+00,8.30000000000000E+00,9.40000000000000E+00,7.00000000000000E+00,1.06000000000000E+01,8.60000000000000E+00,7.40000000000000E+00,1.06000000000000E+01,8.60000000000000E+00,9.00000000000000E+00,7.70000000000000E+00,1.03000000000000E+01,9.90000000000000E+00,1.00000000000000E+01,,,,
SMR,,,,,,,,,,,,,,,,,,,,,,,,,,,,,,,,,,,,6.00000000000000E-01,5.00000000000000E-01,3.00000000000000E-01,3.00000000000000E-01,3.00000000000000E-01,,0.00000000000000E+00,0.00000000000000E+00,0.00000000000000E+00,0.00000000000000E+00,0.00000000000000E+00,0.00000000000000E+00,0.00000000000000E+00,0.00000000000000E+00,,,
SRB,,,,,,,,,,,,,,,,,,,,,,,,,,,,,,,,,,,,,,,,,,,,,1.27000000000000E+01,1.39000000000000E+01,1.16000000000000E+01,1.19000000000000E+01,1.56000000000000E+01,,,
STP,,,,,,,,,,,,,,,,,,,,,,,,,,,,,,,,7.00000000000000E-01,,,,,,,,,,,,,,,,,,,,
SUR,,,,,,,,,,,,,,,,,,,,,,,,,,,,,,,,,,,,2.20000000000000E+00,2.60000000000000E+00,3.80000000000000E+00,1.60000000000000E+00,,,,,,,,,,,,,
SVK,,,,,,,,,,,,,,,,,,,,,,,,,,,,,,,,,,,2.00000000000000E-01,2.00000000000000E-01,2.00000000000000E-01,1.00000000000000E-01,1.00000000000000E-01,2.00000000000000E-01,2.00000000000000E-01,2.00000000000000E-01,2.00000000000000E-01,2.00000000000000E-01,2.00000000000000E-01,1.00000000000000E-01,1.00000000000000E-01,1.00000000000000E-01,2.00000000000000E-01,3.00000000000000E-01,,
SVN,,,,,,,,,,,,,,,,,,,,,,,,,,,,,,,,,,4.60000000000000E+00,7.60000000000000E+00,6.60000000000000E+00,5.60000000000000E+00,8.90000000000000E+00,8.30000000000000E+00,7.30000000000000E+00,6.50000000000000E+00,7.00000000000000E+00,6.10000000000000E+00,5.60000000000000E+00,6.90000000000000E+00,6.40000000000000E+00,7.10000000000000E+00,7.10000000000000E+00,5.80000000000000E+00,6.90000000000000E+00,,
SWE,,,,,,,,,,,,,,,,,,,,,9.00000000000000E-01,8.00000000000000E-01,7.00000000000000E-01,6.00000000000000E-01,6.00000000000000E-01,4.00000000000000E-01,3.00000000000000E-01,7.00000000000000E-01,6.00000000000000E-01,5.00000000000000E-01,5.00000000000000E-01,5.00000000000000E-01,5.00000000000000E-01,6.00000000000000E-01,6.00000000000000E-01,6.00000000000000E-01,6.00000000000000E-01,5.00000000000000E-01,6.00000000000000E-01,7.00000000000000E-01,3.00000000000000E-01,5.00000000000000E-01,4.00000000000000E-01,4.00000000000000E-01,4.00000000000000E-01,3.00000000000000E-01,2.00000000000000E-01,3.00000000000000E-01,3.00000000000000E-01,2.00000000000000E-01,,
SWZ,,,,,,,,,,,,,,,,,,,,,,,,,,,,,,,,,,,,,,1.50000000000000E+00,,,,,,,,,,,,,,
SYR,,,,,,,,,,,,,,,,,,,,,,,,,,,,,,,,,,,,,,,,,,4.42000000000000E+01,,,,,,1.90000000000000E+01,,,,
TCD,,,,,,,,,,,,,,,,,,,,,,,,,,,,,,,,,,4.44000000000000E+01,,,,,,,,,,,,,,,,,,
TGO,,,,,,,,,,,,,,,,,,,,,,,,,,,,,,,,,,,,,,,,,,,,,,,2.84000000000000E+01,,,,,
THA,,,,,,,,,,,,,,,,,,,,,,,,,,,,5.46000000000000E+01,5.81000000000000E+01,5.85000000000000E+01,5.61000000000000E+01,5.32000000000000E+01,5.35000000000000E+01,4.96000000000000E+01,4.86000000000000E+01,4.65000000000000E+01,4.44000000000000E+01,4.51000000000000E+01,4.36000000000000E+01,4.03000000000000E+01,3.98000000000000E+01,3.59000000000000E+01,3.74000000000000E+01,3.52000000000000E+01,3.14000000000000E+01,3.08000000000000E+01,3.05000000000000E+01,2.99000000000000E+01,3.11000000000000E+01,2.85000000000000E+01,,
TJK,,,,,,,,,,,,,,,,,,,,,,,,,,,,,,,,,,,,,,,,,,,,3.35000000000000E+01,,,,,,,,
TON,,,,,,,,,,,,,,,,,,,,,,,,,,,,,,,,,,,,,3.36000000000000E+01,,,,,,,,,,,,,,,
TTO,,,,,,,,,,,,,,,,,,,,,,,,,,,,8.80000000000000E+00,8.60000000000000E+00,8.90000000000000E+00,6.50000000000000E+00,6.30000000000000E+00,6.20000000000000E+00,6.90000000000000E+00,6.80000000000000E+00,6.00000000000000E+00,4.30000000000000E+00,4.20000000000000E+00,4.00000000000000E+00,3.50000000000000E+00,2.90000000000000E+00,2.20000000000000E+00,1.90000000000000E+00,2.00000000000000E+00,1.80000000000000E+00,1.70000000000000E+00,,,,,,
TUN,,,,,,,,,,,,,,,,,,,,,,,,,,,,,,2.18000000000000E+01,,,,,8.00000000000000E-01,,,,,,,,,,,,,,,,,
TUR,,,,,,,,,,,,,,,,,,,,,,,,,,,,,7.02000000000000E+01,7.12000000000000E+01,6.92000000000000E+01,7.13000000000000E+01,6.54000000000000E+01,6.37000000000000E+01,6.41000000000000E+01,6.50000000000000E+01,6.53000000000000E+01,6.00000000000000E+01,6.00000000000000E+01,6.12000000000000E+01,5.21000000000000E+01,5.33000000000000E+01,4.96000000000000E+01,4.90000000000000E+01,4.98000000000000E+01,4.17000000000000E+01,3.90000000000000E+01,3.46000000000000E+01,3.44000000000000E+01,3.48000000000000E+01,,
TUV,,,,,,,,,,,,,,,,,,,,,,,,,,,,,,,,,,,,,,,,,,,1.00000000000000E-01,,,,,,,,,
TZA,,,,,,,,,,,,,,,,,,,,,,,,,,,,,,,,,,,,,,,,,,4.60000000000000E+00,,,,,1.30000000000000E+01,,,,,
UGA,,,,,,,,,,,,,,,,,,,,,,,,,,,,,,,,,,,,,,,,,,,4.33000000000000E+01,4.05000000000000E+01,,,,,,,,
UKR,,,,,,,,,,,,,,,,,,,,,,,,,,,,,,,,,,,,2.00000000000000E-01,2.00000000000000E-01,3.00000000000000E-01,2.00000000000000E-01,1.30000000000000E+00,1.50000000000000E+00,1.70000000000000E+00,2.30000000000000E+00,2.00000000000000E+00,6.00000000000000E-01,5.00000000000000E-01,3.00000000000000E-01,3.00000000000000E-01,3.00000000000000E-01,,,
URY,,,,,,,,,,,,,,,,,,,,,,,,,,,,,,,,,,,,,,,2.60000000000000E+00,2.50000000000000E+00,2.30000000000000E+00,2.40000000000000E+00,1.40000000000000E+00,2.00000000000000E+00,2.80000000000000E+00,2.20000000000000E+00,3.40000000000000E+00,3.00000000000000E+00,,,,
USA,,,,,,,,,,,,,,,,,,,,,1.30000000000000E+00,1.20000000000000E+00,1.20000000000000E+00,1.10000000000000E+00,9.00000000000000E-01,8.00000000000000E-01,7.00000000000000E-01,6.00000000000000E-01,6.00000000000000E-01,6.00000000000000E-01,5.00000000000000E-01,5.00000000000000E-01,5.00000000000000E-01,4.00000000000000E-01,2.00000000000000E-01,2.00000000000000E-01,2.00000000000000E-01,2.00000000000000E-01,1.00000000000000E-01,1.00000000000000E-01,1.00000000000000E-01,1.00000000000000E-01,1.00000000000000E-01,1.00000000000000E-01,1.00000000000000E-01,1.00000000000000E-01,1.00000000000000E-01,1.00000000000000E-01,1.00000000000000E-01,,,
VCT,,,,,,,,,,,,,,,,,,,,,,,,,,,,,,,,2.70000000000000E+00,,,,,,,,,,,,,,,,,,,,
VEN,,,,,,,,,,,,,,,,,,,,,,,,,,,,,,,,,,,1.20000000000000E+00,1.40000000000000E+00,1.20000000000000E+00,9.00000000000000E-01,1.60000000000000E+00,2.50000000000000E+00,2.30000000000000E+00,3.30000000000000E+00,3.80000000000000E+00,3.90000000000000E+00,3.10000000000000E+00,2.40000000000000E+00,2.00000000000000E+00,1.70000000000000E+00,1.60000000000000E+00,1.20000000000000E+00,,
VNM,,,,,,,,,,,,,,,,,,,,,,,,,,,,,,,,,,,,,6.15000000000000E+01,5.59000000000000E+01,5.32000000000000E+01,5.42000000000000E+01,5.31000000000000E+01,5.29000000000000E+01,5.26000000000000E+01,5.03000000000000E+01,4.72000000000000E+01,,,,,,,
WBG,,,,,,,,,,,,,,,,,,,,,,,,,,,,,,,,,,,,,2.80000000000000E+01,2.85000000000000E+01,2.75000000000000E+01,2.77000000000000E+01,3.34000000000000E+01,2.67000000000000E+01,2.90000000000000E+01,3.26000000000000E+01,3.22000000000000E+01,3.08000000000000E+01,3.15000000000000E+01,3.45000000000000E+01,2.61000000000000E+01,1.98000000000000E+01,,
WSM,,,,,,,,,,,,,,,,,,,,,,,,,,,,,,,,,,,,,,,,,,3.57000000000000E+01,,,,,,,,,,
YEM,,,,,,,,,,,,,,,,,,,,,,,,,,,,,,,,,,,,,,,,3.00000000000000E-01,,,,,,,,,,,,
ZAF,,,,,,,,,,,,,,,,,,,,,,,,,,,,,,,,,,,,,,,,,,1.70000000000000E+00,1.40000000000000E+00,1.10000000000000E+00,1.10000000000000E+00,,,6.00000000000000E-01,1.40000000000000E+00,1.40000000000000E+00,,
ZMB,,,,,,,,,,,,,,,,,,,,,1.72000000000000E+01,,,,,,,,,,5.57000000000000E+01,4.56000000000000E+01,,,,,4.32000000000000E+01,,3.94000000000000E+01,,6.18000000000000E+01,,,,,,,,,,,
ZWE,,,,,,,,,,,,,,,,,,,,,,,,,,,,,,,,,,,2.05000000000000E+01,,,1.59000000000000E+01,,1.61000000000000E+01,,,1.36000000000000E+01,,,,,,,,,
