"Country Code",1960,1961,1962,1963,1964,1965,1966,1967,1968,1969,1970,1971,1972,1973,1974,1975,1976,1977,1978,1979,1980,1981,1982,1983,1984,1985,1986,1987,1988,1989,1990,1991,1992,1993,1994,1995,1996,1997,1998,1999,2000,2001,2002,2003,2004,2005,2006,2007,2008,2009,2010,2011ABW,,,,,,,,,,,,,,,,,,,,,,,,,,,,,,,,,,,2.84000000000000E+01,,,2.56000000000000E+01,,,2.67000000000000E+01,,,,,,,3.29000000000000E+01,,,,
ARE,,,,,,,,,,,,,,,,,,,,,,,,,,,,,,,,,,,,3.62000000000000E+01,,,,,3.62000000000000E+01,,,,,4.48000000000000E+01,,,2.83000000000000E+01,,,
ARG,,,,,,,,,,,,,,,,,,,,,,,,,,,,,,,3.94000000000000E+01,3.99000000000000E+01,3.71000000000000E+01,3.75000000000000E+01,3.69000000000000E+01,3.46000000000000E+01,3.26000000000000E+01,3.40000000000000E+01,3.40000000000000E+01,3.22000000000000E+01,3.11000000000000E+01,3.00000000000000E+01,2.79000000000000E+01,2.92000000000000E+01,3.13000000000000E+01,3.27000000000000E+01,3.29000000000000E+01,3.39000000000000E+01,3.36000000000000E+01,3.28000000000000E+01,,
ARM,,,,,,,,,,,,,,,,,,,,,,,,,,,,,,,,,,,,,,,,,,,2.21000000000000E+01,2.19000000000000E+01,2.07000000000000E+01,2.11000000000000E+01,2.08000000000000E+01,2.14000000000000E+01,2.54000000000000E+01,,,
ASM,,,,,,,,,,,,,,,,,,,,,,,,,,,,,,,4.30000000000000E+01,,,,,,,,,,,,,,,,,,,,,
ATG,,,,,,,,,,,,,,,,,,,,,,,,,,,,,,,,,,,,,,,,,,2.44000000000000E+01,2.61000000000000E+01,2.61000000000000E+01,2.61000000000000E+01,2.61000000000000E+01,2.61000000000000E+01,2.61000000000000E+01,2.61000000000000E+01,,,
AUS,,,,,,,,,,,,,,,,,,,,,3.93000000000000E+01,3.86000000000000E+01,3.79000000000000E+01,3.63000000000000E+01,3.60000000000000E+01,3.55000000000000E+01,3.48000000000000E+01,3.45000000000000E+01,3.48000000000000E+01,3.51000000000000E+01,3.39000000000000E+01,3.22000000000000E+01,3.22000000000000E+01,3.21000000000000E+01,3.20000000000000E+01,3.15000000000000E+01,3.10000000000000E+01,3.07000000000000E+01,3.04000000000000E+01,2.99000000000000E+01,3.06000000000000E+01,2.97000000000000E+01,2.99000000000000E+01,3.01000000000000E+01,3.07000000000000E+01,3.08000000000000E+01,3.12000000000000E+01,3.12000000000000E+01,3.17000000000000E+01,,,
AUT,,,,,,,,,,,,,,,,,,,,,,,,4.93000000000000E+01,4.87000000000000E+01,4.88000000000000E+01,4.87000000000000E+01,4.87000000000000E+01,4.85000000000000E+01,4.85000000000000E+01,4.86000000000000E+01,4.83000000000000E+01,4.70000000000000E+01,4.71000000000000E+01,4.38000000000000E+01,4.34000000000000E+01,4.27000000000000E+01,4.18000000000000E+01,4.21000000000000E+01,4.26000000000000E+01,4.26000000000000E+01,4.19000000000000E+01,4.23000000000000E+01,4.25000000000000E+01,3.95000000000000E+01,3.96000000000000E+01,4.04000000000000E+01,3.91000000000000E+01,3.74000000000000E+01,3.67000000000000E+01,,
AZE,,,,,,,,,,,,,,,,,,,,,,,,,,,,,,,,,,,,,,,,1.42000000000000E+01,1.39000000000000E+01,1.41000000000000E+01,1.52000000000000E+01,1.52000000000000E+01,1.52000000000000E+01,1.52000000000000E+01,1.61000000000000E+01,1.66000000000000E+01,1.82000000000000E+01,,,
BDI,,,,,,,,,,,,,,,,,,,,,,,,,,,,,,,,,,,,,,,4.10000000000000E+00,,,,,,,,,,,,,
BEL,,,,,,,,,,,,,,,,,,,,,4.30000000000000E+01,4.15000000000000E+01,4.04000000000000E+01,3.96000000000000E+01,3.90000000000000E+01,3.85000000000000E+01,3.80000000000000E+01,3.74000000000000E+01,3.97000000000000E+01,4.02000000000000E+01,3.95000000000000E+01,4.01000000000000E+01,4.05000000000000E+01,3.97000000000000E+01,3.86000000000000E+01,3.81000000000000E+01,3.73000000000000E+01,3.74000000000000E+01,3.74000000000000E+01,3.62000000000000E+01,3.62000000000000E+01,3.54000000000000E+01,3.56000000000000E+01,3.49000000000000E+01,3.57000000000000E+01,3.50000000000000E+01,3.56000000000000E+01,3.50000000000000E+01,3.63000000000000E+01,3.47000000000000E+01,,
BEN,,,,,,,,,,,,,,,,,,,,,,,,,,,,,,,,,,,,,,,,,,,,9.80000000000000E+00,,,,,,,,
BFA,,,,,,,,,,,,,,,,,,,,,,,,,,,,,,,,,,,,,,,,,,,,4.70000000000000E+00,,,,,,,,
BGD,,,,,,,,,,,,,,,,,,,,,,,,,9.30000000000000E+00,1.00000000000000E+01,9.80000000000000E+00,,,1.09000000000000E+01,,1.57000000000000E+01,,,,,1.08000000000000E+01,,,,1.10000000000000E+01,,,1.23000000000000E+01,,1.51000000000000E+01,,,,,,
BGR,,,,,,,,,,,,,,,,,,,,,,,,,,,,,,,,,,,,,,,,,3.75000000000000E+01,3.63000000000000E+01,3.61000000000000E+01,3.58000000000000E+01,3.67000000000000E+01,3.89000000000000E+01,4.01000000000000E+01,4.16000000000000E+01,4.32000000000000E+01,4.26000000000000E+01,,
BHR,,,,,,,,,,,,,,,,,,,,,,3.82000000000000E+01,3.78000000000000E+01,,,,,,,,,3.28000000000000E+01,,,,,,,,,,3.18000000000000E+01,,,,,,,,,,
BHS,,,,,,,,,,,,,,,,,,,,,,,,,,,2.24000000000000E+01,,,2.21000000000000E+01,,2.42000000000000E+01,2.42000000000000E+01,1.87000000000000E+01,1.96000000000000E+01,2.23000000000000E+01,2.23000000000000E+01,2.24000000000000E+01,2.44000000000000E+01,2.65000000000000E+01,,2.71000000000000E+01,2.83000000000000E+01,2.56000000000000E+01,2.63000000000000E+01,2.96000000000000E+01,3.06000000000000E+01,2.94000000000000E+01,2.73000000000000E+01,2.79000000000000E+01,,
BLR,,,,,,,,,,,,,,,,,,,,,,,,,,,,,,,,,,,,,,,,,,,,,,3.23000000000000E+01,,,3.31400000000000E+01,,,
BLZ,,,,,,,,,,,,,,,,,,,,,,,,,,,,,,,,,,2.33000000000000E+01,2.26000000000000E+01,2.15000000000000E+01,1.97000000000000E+01,1.96000000000000E+01,2.13000000000000E+01,1.93000000000000E+01,,,,,,2.18000000000000E+01,,,,,,
BMU,,,,,,,,,,,,,,,,,,,,,,,,,,,,,,,,,,,,,,,,,2.53000000000000E+01,1.96000000000000E+01,1.97000000000000E+01,1.97000000000000E+01,2.05000000000000E+01,,,,,,,
BOL,,,,,,,,,,,,,,,,,,,,,2.12000000000000E+01,2.02000000000000E+01,1.77000000000000E+01,1.79000000000000E+01,1.73000000000000E+01,1.63000000000000E+01,1.29000000000000E+01,1.31000000000000E+01,1.31000000000000E+01,3.42000000000000E+01,3.46000000000000E+01,3.97000000000000E+01,4.21000000000000E+01,3.82000000000000E+01,4.02000000000000E+01,3.86000000000000E+01,3.87000000000000E+01,3.96000000000000E+01,,2.64000000000000E+01,2.68000000000000E+01,2.24000000000000E+01,2.45000000000000E+01,2.84000000000000E+01,2.84000000000000E+01,2.63000000000000E+01,2.35000000000000E+01,2.81000000000000E+01,,,,
BRA,,,,,,,,,,,,,,,,,,,,,,3.00000000000000E+01,2.84000000000000E+01,3.12000000000000E+01,2.67000000000000E+01,2.70000000000000E+01,2.92000000000000E+01,2.95000000000000E+01,2.90000000000000E+01,2.91000000000000E+01,2.81000000000000E+01,,2.69000000000000E+01,2.72000000000000E+01,,2.64000000000000E+01,2.66000000000000E+01,2.68000000000000E+01,2.70000000000000E+01,2.58000000000000E+01,2.67000000000000E+01,2.69000000000000E+01,2.75000000000000E+01,2.66000000000000E+01,2.68000000000000E+01,2.73000000000000E+01,2.75000000000000E+01,2.84000000000000E+01,2.93000000000000E+01,2.88000000000000E+01,,
BRB,,,,,,,,,,,,,,,,,,,,,,2.37000000000000E+01,2.74000000000000E+01,2.69000000000000E+01,2.56000000000000E+01,2.79000000000000E+01,2.69000000000000E+01,2.73000000000000E+01,2.90000000000000E+01,3.07000000000000E+01,2.88000000000000E+01,2.60000000000000E+01,2.59000000000000E+01,2.46000000000000E+01,2.52000000000000E+01,2.55000000000000E+01,2.49000000000000E+01,2.66000000000000E+01,2.88000000000000E+01,3.04000000000000E+01,2.93000000000000E+01,2.83000000000000E+01,2.66000000000000E+01,2.55000000000000E+01,2.62000000000000E+01,,,,,,,
BRN,,,,,,,,,,,,,,,,,,,,,,,,,,,,,,,,3.14000000000000E+01,,,,,,,,,,2.86000000000000E+01,,,,,,,,,,
BTN,,,,,,,,,,,,,,,,,,,,,,,,,,,,,,,,,,,,,,,,,,,,4.10000000000000E+00,,2.37000000000000E+01,,,,,,
BWA,,,,,,,,,,,,,,,,,,,,,,,,,,1.72000000000000E+01,,,,,,,,,,,3.04000000000000E+01,,2.67000000000000E+01,,2.63000000000000E+01,3.11000000000000E+01,,2.80000000000000E+01,,1.92000000000000E+01,1.92000000000000E+01,,,,,
CAN,,,,,,,,,,,,,,,,,,,,,3.70000000000000E+01,3.71000000000000E+01,3.52000000000000E+01,3.38000000000000E+01,3.43000000000000E+01,3.41000000000000E+01,3.39000000000000E+01,3.37000000000000E+01,3.44000000000000E+01,3.46000000000000E+01,3.36000000000000E+01,3.17000000000000E+01,3.08000000000000E+01,3.04000000000000E+01,3.09000000000000E+01,3.11000000000000E+01,3.10000000000000E+01,3.12000000000000E+01,3.21000000000000E+01,3.23000000000000E+01,3.22000000000000E+01,3.21000000000000E+01,3.23000000000000E+01,3.20000000000000E+01,3.22000000000000E+01,3.21000000000000E+01,3.19000000000000E+01,3.15000000000000E+01,3.17000000000000E+01,,,
CHE,,,,,,,,,,,,,,,,,,,,,4.67000000000000E+01,4.66000000000000E+01,4.57000000000000E+01,4.53000000000000E+01,4.47000000000000E+01,4.43000000000000E+01,4.40000000000000E+01,4.32000000000000E+01,4.25000000000000E+01,4.19000000000000E+01,4.11000000000000E+01,3.96000000000000E+01,3.87000000000000E+01,3.76000000000000E+01,3.73000000000000E+01,3.80000000000000E+01,3.63000000000000E+01,3.51000000000000E+01,3.50000000000000E+01,3.48000000000000E+01,3.55000000000000E+01,3.53000000000000E+01,3.44000000000000E+01,3.31000000000000E+01,3.29000000000000E+01,3.32000000000000E+01,3.33000000000000E+01,3.33000000000000E+01,3.03000000000000E+01,3.01000000000000E+01,,
CHL,,,,,,,,,,,,,,,,,,,,,2.68000000000000E+01,2.74000000000000E+01,2.10000000000000E+01,2.09000000000000E+01,2.32000000000000E+01,2.38000000000000E+01,2.48000000000000E+01,2.69000000000000E+01,2.95000000000000E+01,3.12000000000000E+01,3.03000000000000E+01,3.14000000000000E+01,3.17000000000000E+01,3.25000000000000E+01,3.14000000000000E+01,3.15000000000000E+01,3.21000000000000E+01,3.35000000000000E+01,3.14000000000000E+01,2.88000000000000E+01,2.89000000000000E+01,2.94000000000000E+01,2.97000000000000E+01,2.94000000000000E+01,2.97000000000000E+01,2.91000000000000E+01,2.99000000000000E+01,3.05000000000000E+01,3.07000000000000E+01,,,
CMR,,,,,,,,,,,,,,,,,,,,,,,,,,,,,,,,,,,,,,,,,,1.09000000000000E+01,,,,,,,,,,
COG,,,,,,,,,,,,,,,,,,,,,,,,,,,,,,,,,,,,,,,,,,,,,,2.00000000000000E+01,,,,,,
COL,,,,,,,,,,,,,,,,,,,,,3.90000000000000E+01,,,,,3.37000000000000E+01,3.28000000000000E+01,3.45000000000000E+01,3.43000000000000E+01,3.40000000000000E+01,3.47000000000000E+01,3.40000000000000E+01,3.51000000000000E+01,3.56000000000000E+01,3.61000000000000E+01,3.67000000000000E+01,3.38000000000000E+01,3.22000000000000E+01,3.08000000000000E+01,2.74000000000000E+01,3.02000000000000E+01,1.92000000000000E+01,2.24000000000000E+01,2.09000000000000E+01,2.15000000000000E+01,2.12000000000000E+01,2.27000000000000E+01,2.30000000000000E+01,2.27000000000000E+01,2.24000000000000E+01,,
CRI,,,,,,,,,,,,,,,,,,,,,2.53000000000000E+01,2.31000000000000E+01,2.12000000000000E+01,2.17000000000000E+01,2.13000000000000E+01,2.14000000000000E+01,2.36000000000000E+01,2.53000000000000E+01,2.39000000000000E+01,2.60000000000000E+01,2.65000000000000E+01,2.63000000000000E+01,2.68000000000000E+01,2.70000000000000E+01,2.76000000000000E+01,2.54000000000000E+01,2.52000000000000E+01,2.64000000000000E+01,2.54000000000000E+01,2.60000000000000E+01,2.49000000000000E+01,2.66000000000000E+01,2.65000000000000E+01,2.63000000000000E+01,2.65000000000000E+01,2.64000000000000E+01,2.67000000000000E+01,2.75000000000000E+01,2.66000000000000E+01,,,
CUB,,,,,,,,,,,,,,,,,,,,,,,,,,,,,,,,,,,,2.66000000000000E+01,2.65000000000000E+01,2.65000000000000E+01,2.39000000000000E+01,2.19000000000000E+01,2.19000000000000E+01,2.27000000000000E+01,2.27000000000000E+01,2.28000000000000E+01,2.25000000000000E+01,2.25000000000000E+01,2.13000000000000E+01,2.15000000000000E+01,2.19000000000000E+01,,,
CYM,,,,,,,,,,,,,,,,,,,,,,,,,,,,,,,,3.41000000000000E+01,,,,,,,,,,,,,,3.93000000000000E+01,3.73000000000000E+01,3.36000000000000E+01,3.28000000000000E+01,,,
CYP,,,,,,,,,,,,,,,,,,,,,3.65000000000000E+01,3.55000000000000E+01,3.49000000000000E+01,3.40000000000000E+01,3.38000000000000E+01,3.33000000000000E+01,3.29000000000000E+01,3.22000000000000E+01,3.21000000000000E+01,3.14000000000000E+01,3.13000000000000E+01,3.16000000000000E+01,3.13000000000000E+01,3.08000000000000E+01,3.06000000000000E+01,3.01000000000000E+01,,,,3.12000000000000E+01,3.13000000000000E+01,3.22000000000000E+01,3.16000000000000E+01,3.19000000000000E+01,3.30000000000000E+01,3.44000000000000E+01,3.24000000000000E+01,3.27000000000000E+01,3.36000000000000E+01,3.23000000000000E+01,,
CZE,,,,,,,,,,,,,,,,,,,,,,,,,,,,,,,,,,5.11000000000000E+01,5.06000000000000E+01,5.05000000000000E+01,5.02000000000000E+01,5.04000000000000E+01,5.01000000000000E+01,4.94000000000000E+01,4.87000000000000E+01,4.90000000000000E+01,4.89000000000000E+01,4.88000000000000E+01,4.89000000000000E+01,4.94000000000000E+01,4.99000000000000E+01,5.03000000000000E+01,5.07000000000000E+01,4.94000000000000E+01,,
DEU,,,,,,,,,,,,,,,,,,,,,,,,,,,,,,,,5.04000000000000E+01,5.00000000000000E+01,4.92000000000000E+01,4.84000000000000E+01,4.75000000000000E+01,4.71000000000000E+01,4.65000000000000E+01,4.61000000000000E+01,4.57000000000000E+01,4.54000000000000E+01,4.46000000000000E+01,4.42000000000000E+01,4.32000000000000E+01,4.29000000000000E+01,4.12000000000000E+01,4.09000000000000E+01,4.14000000000000E+01,4.12000000000000E+01,4.08000000000000E+01,,
DMA,,,,,,,,,,,,,,,,,,,,,,,,,,,,,,3.56000000000000E+01,,2.65000000000000E+01,,,,,,2.43000000000000E+01,,2.19000000000000E+01,,2.65000000000000E+01,,,,,,,,,,
DNK,,,,,,,,,,,,,,,,,,,,,,4.05000000000000E+01,,3.89000000000000E+01,3.58000000000000E+01,3.75000000000000E+01,3.75000000000000E+01,3.79000000000000E+01,3.60000000000000E+01,3.64000000000000E+01,3.67000000000000E+01,3.67000000000000E+01,3.67000000000000E+01,3.57000000000000E+01,3.57000000000000E+01,3.66000000000000E+01,3.63000000000000E+01,3.61000000000000E+01,3.66000000000000E+01,3.65000000000000E+01,3.54000000000000E+01,3.42000000000000E+01,3.39000000000000E+01,3.36000000000000E+01,3.37000000000000E+01,3.37000000000000E+01,3.29000000000000E+01,3.19000000000000E+01,3.18000000000000E+01,2.94000000000000E+01,,
DOM,,,,,,,,,,,,,,,,,,,,,,,,,,,,,,,,2.26000000000000E+01,2.27000000000000E+01,2.48000000000000E+01,2.53000000000000E+01,2.56000000000000E+01,2.81000000000000E+01,2.73000000000000E+01,2.79000000000000E+01,2.75000000000000E+01,2.64000000000000E+01,2.61000000000000E+01,2.40000000000000E+01,2.67000000000000E+01,2.68000000000000E+01,2.60000000000000E+01,2.61000000000000E+01,2.62000000000000E+01,,,,
DZA,,,,,,,,,,,,,,,,,,,,,,,,,,,,,,,,,,,,,,,,,,2.36000000000000E+01,,2.38000000000000E+01,2.56000000000000E+01,,,,,,,
ECA,,,,,,,,,,,,,,,,,,,,,,,,,,,,,,,,,,,,,,,,3.06133920551147E+01,3.12279691257363E+01,3.08587000039320E+01,3.15369035730863E+01,3.25586675649268E+01,3.23770746072276E+01,3.31680865913336E+01,3.35207767195826E+01,3.43533349975586E+01,3.50473016255067E+01,,,
ECS,,,,,,,,,,,,,,,,,,,,,,,,,,,,,,,,,,,,,,3.76839115643530E+01,3.73457369502834E+01,3.63255289373090E+01,3.63724450595169E+01,3.60318351329357E+01,3.59509032626561E+01,3.60931685653996E+01,3.58299917297213E+01,3.59259692036251E+01,3.61475975299393E+01,3.65761530949975E+01,3.65943005067113E+01,,,
ECU,,,,,,,,,,,,,,,,,,,,,,,,,,,,,,,3.00000000000000E+01,2.81000000000000E+01,2.88000000000000E+01,3.01000000000000E+01,2.76000000000000E+01,2.65000000000000E+01,2.62000000000000E+01,2.65000000000000E+01,2.64000000000000E+01,2.88000000000000E+01,2.34000000000000E+01,2.37000000000000E+01,2.77000000000000E+01,2.28000000000000E+01,2.16000000000000E+01,2.19000000000000E+01,2.31000000000000E+01,2.30000000000000E+01,2.36000000000000E+01,2.38000000000000E+01,,
EGY,,,,,,,,,,,,,,,,,,,,,2.06000000000000E+01,2.27000000000000E+01,2.26000000000000E+01,2.27000000000000E+01,2.21000000000000E+01,,,,,2.51000000000000E+01,2.39000000000000E+01,2.69000000000000E+01,2.46000000000000E+01,2.51000000000000E+01,2.51000000000000E+01,2.49000000000000E+01,,2.56000000000000E+01,2.52000000000000E+01,2.52000000000000E+01,2.46000000000000E+01,2.38000000000000E+01,2.29000000000000E+01,2.29000000000000E+01,2.35000000000000E+01,2.54000000000000E+01,2.58000000000000E+01,2.65000000000000E+01,2.73000000000000E+01,,,
EMU,,,,,,,,,,,,,,,,,,,,,,,,,,,,,,,,4.19994428482287E+01,4.22323977491748E+01,4.13502197083517E+01,4.07378112948275E+01,4.05203759609718E+01,4.01150627120446E+01,3.98935677207438E+01,4.00943255546616E+01,3.98923541011623E+01,3.96461987314776E+01,3.95574684967378E+01,3.92394711125685E+01,3.88720604075157E+01,3.87248102547848E+01,3.82409606887687E+01,3.82739413837772E+01,3.82942909686048E+01,3.79367236899925E+01,3.67530303070125E+01,,
ESP,,,,,,,,,,,,,,,,,,,,,4.18000000000000E+01,4.11000000000000E+01,3.98000000000000E+01,3.95000000000000E+01,3.88000000000000E+01,3.77000000000000E+01,3.81000000000000E+01,3.87000000000000E+01,3.93000000000000E+01,4.01000000000000E+01,4.09000000000000E+01,4.08000000000000E+01,4.07000000000000E+01,3.90000000000000E+01,3.83000000000000E+01,3.86000000000000E+01,3.79000000000000E+01,3.87000000000000E+01,3.95000000000000E+01,4.02000000000000E+01,4.03000000000000E+01,4.15000000000000E+01,4.14000000000000E+01,4.18000000000000E+01,4.17000000000000E+01,4.12000000000000E+01,4.18000000000000E+01,4.16000000000000E+01,4.01000000000000E+01,3.60000000000000E+01,,
EST,,,,,,,,,,,,,,,,,,,,,,,,,,,,,,4.22000000000000E+01,4.19000000000000E+01,4.23000000000000E+01,4.15000000000000E+01,3.87000000000000E+01,3.83000000000000E+01,4.14000000000000E+01,4.15000000000000E+01,4.18000000000000E+01,4.18000000000000E+01,4.05000000000000E+01,4.25000000000000E+01,4.24000000000000E+01,4.08000000000000E+01,4.18000000000000E+01,4.42000000000000E+01,4.40000000000000E+01,4.56000000000000E+01,4.82000000000000E+01,4.82000000000000E+01,4.23000000000000E+01,,
ETH,,,,,,,,,,,,,,,,,,,,,,,,,,,,,,,,,,,,,,,,,,,,,3.60000000000000E+00,5.10000000000000E+00,,,,2.54000000000000E+01,,
EUU,,,,,,,,,,,,,,,,,,,,,,,,,,,,,,,,4.21857586659972E+01,4.20193487324317E+01,4.14037199999815E+01,4.04280891485968E+01,4.01690124375755E+01,3.98643566385953E+01,3.96036835250640E+01,3.96563339694665E+01,3.92106335667307E+01,3.88348933717474E+01,3.86522122611836E+01,3.83659074406226E+01,3.80305038806897E+01,3.78861803189859E+01,3.76204156086727E+01,3.77383234081777E+01,3.80102402587903E+01,3.77791688220284E+01,3.65364637004437E+01,,
FIN,,,,,,,,,,,,,,,,,,,,,4.37000000000000E+01,4.46000000000000E+01,4.35000000000000E+01,4.33000000000000E+01,4.29000000000000E+01,4.23000000000000E+01,4.22000000000000E+01,4.14000000000000E+01,4.12000000000000E+01,4.14000000000000E+01,4.17000000000000E+01,3.97000000000000E+01,3.79000000000000E+01,3.68000000000000E+01,3.66000000000000E+01,3.83000000000000E+01,3.83000000000000E+01,3.86000000000000E+01,3.89000000000000E+01,3.92000000000000E+01,3.91000000000000E+01,3.86000000000000E+01,3.89000000000000E+01,3.83000000000000E+01,3.74000000000000E+01,3.77000000000000E+01,3.78000000000000E+01,3.82000000000000E+01,3.81000000000000E+01,3.72000000000000E+01,,
FRA,,,,,,,,,,,,,,,,,,,,,4.40000000000000E+01,4.35000000000000E+01,4.30000000000000E+01,4.22000000000000E+01,4.13000000000000E+01,4.05000000000000E+01,4.00000000000000E+01,3.95000000000000E+01,3.91000000000000E+01,3.89000000000000E+01,3.88000000000000E+01,3.85000000000000E+01,3.89000000000000E+01,3.70000000000000E+01,3.60000000000000E+01,3.64000000000000E+01,3.62000000000000E+01,3.63000000000000E+01,3.60000000000000E+01,3.60000000000000E+01,3.62000000000000E+01,3.59000000000000E+01,3.54000000000000E+01,3.40000000000000E+01,3.42000000000000E+01,3.38000000000000E+01,3.43000000000000E+01,3.37000000000000E+01,3.39000000000000E+01,3.35000000000000E+01,,
FRO,,,,,,,,,,,,,,,,,,,,,,,,,,,,,,,,,,,,,,,,,,,,,,3.33000000000000E+01,,,,,,
GAB,,,,,,,,,,,,,,,,,,,,,,,,,,,,,,,,,,1.87000000000000E+01,,,,,,,,,,,,1.86000000000000E+01,,,,,,
GBR,,,,,,,,,,,,,,,,,,,,,4.69000000000000E+01,4.51000000000000E+01,4.39000000000000E+01,4.27000000000000E+01,4.14000000000000E+01,4.08000000000000E+01,4.00000000000000E+01,3.95000000000000E+01,4.38000000000000E+01,4.39000000000000E+01,4.36000000000000E+01,4.23000000000000E+01,4.11000000000000E+01,4.05000000000000E+01,3.85000000000000E+01,3.80000000000000E+01,3.82000000000000E+01,3.78000000000000E+01,3.75000000000000E+01,3.66000000000000E+01,3.62000000000000E+01,3.56000000000000E+01,3.48000000000000E+01,3.42000000000000E+01,3.30000000000000E+01,3.30000000000000E+01,3.27000000000000E+01,3.32000000000000E+01,3.16000000000000E+01,2.98000000000000E+01,,
GEO,,,,,,,,,,,,,,,,,,,,,,,,,,,,,,,,,,,,,,,1.44000000000000E+01,1.37000000000000E+01,1.52000000000000E+01,1.24000000000000E+01,1.26000000000000E+01,1.21000000000000E+01,1.32000000000000E+01,1.37000000000000E+01,1.37000000000000E+01,1.65000000000000E+01,,,,
GHA,,,,,,,,,,,,,,,,,,,,,,,,,,,,,,,,,1.04000000000000E+01,,,,,,,1.35000000000000E+01,,,,,,,,,,,,
GIN,,,,,,,,,,,,,,,,,,,,,,,,,,,,,,,,,,,9.20000000000000E+00,,,,,,,,,,,,,,,,,
GMB,,,,,,,,,,,,,,,,,,,,,,,,,,,,,,,,,,1.07000000000000E+01,,,,,,,,,,,,,,,,,,
GNQ,,,,,,,,,,,,,,,,,,,,,,,,7.10000000000000E+00,,,,,,,,,,,,,,,,,,,,,,,,,,,,
GRC,,,,,,,,,,,,,,,,,,,,,,3.39000000000000E+01,3.40000000000000E+01,3.41000000000000E+01,3.33000000000000E+01,3.29000000000000E+01,3.36000000000000E+01,3.37000000000000E+01,3.28000000000000E+01,3.30000000000000E+01,3.33000000000000E+01,3.26000000000000E+01,2.94000000000000E+01,2.92000000000000E+01,2.88000000000000E+01,2.84000000000000E+01,2.81000000000000E+01,2.77000000000000E+01,2.95000000000000E+01,2.91000000000000E+01,2.87000000000000E+01,2.97000000000000E+01,2.97000000000000E+01,2.95000000000000E+01,2.98000000000000E+01,3.01000000000000E+01,2.98000000000000E+01,3.05000000000000E+01,3.06000000000000E+01,2.95000000000000E+01,,
GRD,,,,,,,,,,,,,,,,,,,,,,,,,,,,,2.99000000000000E+01,,,,,,3.09000000000000E+01,,3.28000000000000E+01,,3.18000000000000E+01,,,,,,,,,,,,,
GTM,,,,,,,,,,,,,,,,,,,,,,1.71000000000000E+01,1.71000000000000E+01,,,,,1.59000000000000E+01,,1.65000000000000E+01,3.38000000000000E+01,3.60000000000000E+01,,,2.07000000000000E+01,,,,2.25000000000000E+01,,2.15000000000000E+01,,1.82000000000000E+01,2.23000000000000E+01,1.90000000000000E+01,,2.41000000000000E+01,,,,,
GUY,,,,,,,,,,,,,,,,,,,,,,,,,,,,,,,,,,,,,,2.37000000000000E+01,,,,2.37000000000000E+01,2.95000000000000E+01,,,,,,,,,
HIC,,,,,,,,,,,,,,,,,,,,,,,,,,,,,,,,3.85931321569311E+01,3.82716468101806E+01,3.77463066911053E+01,3.76764462019244E+01,3.76135165911272E+01,3.71958945693446E+01,3.71738225076612E+01,3.68231277717714E+01,3.61301437667360E+01,3.59548872094499E+01,3.56071752656154E+01,3.50939756402456E+01,3.48258389000868E+01,3.45609454586345E+01,3.44280454912120E+01,3.42156975071417E+01,3.41483372959477E+01,3.35239342221072E+01,,,
HKG,,,,,,,,,,,,,,,,,,,,,4.69000000000000E+01,4.59000000000000E+01,4.36000000000000E+01,4.25000000000000E+01,4.25000000000000E+01,4.28000000000000E+01,4.23000000000000E+01,4.24000000000000E+01,4.16000000000000E+01,4.02000000000000E+01,3.89000000000000E+01,3.81000000000000E+01,3.67000000000000E+01,3.40000000000000E+01,3.29000000000000E+01,3.22000000000000E+01,3.15000000000000E+01,3.06000000000000E+01,2.93000000000000E+01,2.78000000000000E+01,2.75000000000000E+01,2.66000000000000E+01,2.55000000000000E+01,2.43000000000000E+01,2.24000000000000E+01,2.22000000000000E+01,2.19000000000000E+01,2.13000000000000E+01,2.07000000000000E+01,1.89000000000000E+01,,
HND,,,,,,,,,,,,,,,,,,,,,,,,,,,,,,,1.45000000000000E+01,,1.80000000000000E+01,,2.19000000000000E+01,2.24000000000000E+01,1.91000000000000E+01,1.93000000000000E+01,2.11000000000000E+01,2.06000000000000E+01,,2.06000000000000E+01,1.97000000000000E+01,1.94000000000000E+01,2.16000000000000E+01,1.97000000000000E+01,2.13000000000000E+01,2.24000000000000E+01,,,,
HRV,,,,,,,,,,,,,,,,,,,,,,,,,,,,,,,,,,,,,3.59000000000000E+01,3.65000000000000E+01,3.63000000000000E+01,3.79000000000000E+01,3.63000000000000E+01,3.68000000000000E+01,3.75000000000000E+01,3.85000000000000E+01,3.88000000000000E+01,3.72000000000000E+01,3.88000000000000E+01,4.03000000000000E+01,4.08000000000000E+01,3.94000000000000E+01,,
HTI,,,,,,,,,,,,,,,,,,,,,8.20000000000000E+00,8.30000000000000E+00,8.50000000000000E+00,8.50000000000000E+00,,,,,8.60000000000000E+00,,8.50000000000000E+00,,,,,,,,,1.51000000000000E+01,,,,,,,,,,,,
HUN,,,,,,,,,,,,,,,,,,,,,4.51000000000000E+01,4.44000000000000E+01,4.35000000000000E+01,4.29000000000000E+01,4.27000000000000E+01,4.29000000000000E+01,4.30000000000000E+01,4.30000000000000E+01,4.29000000000000E+01,4.27000000000000E+01,4.28000000000000E+01,4.25000000000000E+01,,,3.89000000000000E+01,3.88000000000000E+01,3.86000000000000E+01,3.95000000000000E+01,4.12000000000000E+01,4.13000000000000E+01,4.08000000000000E+01,4.13000000000000E+01,4.18000000000000E+01,4.16000000000000E+01,4.15000000000000E+01,4.18000000000000E+01,4.18000000000000E+01,4.21000000000000E+01,4.14000000000000E+01,4.13000000000000E+01,,
IDN,,,,,,,,,,,,,,,,,,,,,1.31000000000000E+01,,1.52000000000000E+01,,,1.41000000000000E+01,7.50000000000000E+00,7.50000000000000E+00,7.70000000000000E+00,1.41000000000000E+01,1.46000000000000E+01,1.56000000000000E+01,1.49000000000000E+01,1.65000000000000E+01,2.02000000000000E+01,1.97000000000000E+01,1.95000000000000E+01,2.07000000000000E+01,1.78000000000000E+01,1.93000000000000E+01,1.90000000000000E+01,2.03000000000000E+01,2.04000000000000E+01,1.91000000000000E+01,2.01000000000000E+01,2.03000000000000E+01,2.03000000000000E+01,2.10000000000000E+01,2.12000000000000E+01,2.12000000000000E+01,,
IMY,,,,,,,,,,,,,,,,,,,,,,,,,,,,,,,,,,,,,,,,,,2.50000000000000E+01,,,,,2.40000000000000E+01,,,,,
IND,,,,,,,,,,,,,,,,,,,,,,,,,,,,,,,,,,,,,,,,,1.78000000000000E+01,,,,,2.10000000000000E+01,,,,,,
IRL,,,,,,,,,,,,,,,,,,,,,,,,3.44000000000000E+01,3.33000000000000E+01,3.28000000000000E+01,3.25000000000000E+01,3.14000000000000E+01,3.16000000000000E+01,3.29000000000000E+01,3.34000000000000E+01,3.41000000000000E+01,3.31000000000000E+01,3.36000000000000E+01,3.44000000000000E+01,3.45000000000000E+01,3.47000000000000E+01,3.63000000000000E+01,3.75000000000000E+01,3.71000000000000E+01,3.76000000000000E+01,3.89000000000000E+01,3.77000000000000E+01,3.83000000000000E+01,3.79000000000000E+01,3.93000000000000E+01,3.93000000000000E+01,3.99000000000000E+01,3.77000000000000E+01,3.10000000000000E+01,,
IRN,,,,,,,,,,,,,,,,,,,,,,,,,,,,,,,,,,,,,3.02000000000000E+01,,,,,,,,,3.08000000000000E+01,3.17000000000000E+01,3.27000000000000E+01,3.32000000000000E+01,,,
IRQ,,,,,,,,,,,,,,,,,,,,,,,,,,,,,,,,,,,,,,,,,,,,,1.98000000000000E+01,,2.12000000000000E+01,2.42000000000000E+01,2.16000000000000E+01,,,
ISL,,,,,,,,,,,,,,,,,,,,,,,,,,,,,,,,3.29000000000000E+01,3.27000000000000E+01,3.36000000000000E+01,3.51000000000000E+01,3.37000000000000E+01,3.31000000000000E+01,3.46000000000000E+01,3.40000000000000E+01,3.28000000000000E+01,3.34000000000000E+01,3.31000000000000E+01,3.36000000000000E+01,3.20000000000000E+01,3.30000000000000E+01,3.14000000000000E+01,3.16000000000000E+01,3.11000000000000E+01,3.33000000000000E+01,2.83000000000000E+01,,
ISR,,,,,,,,,,,,,,,,,,,,,3.93000000000000E+01,3.91000000000000E+01,3.85000000000000E+01,3.88000000000000E+01,3.84000000000000E+01,3.69000000000000E+01,3.70000000000000E+01,3.73000000000000E+01,3.63000000000000E+01,3.56000000000000E+01,3.63000000000000E+01,3.78000000000000E+01,3.80000000000000E+01,3.85000000000000E+01,3.80000000000000E+01,3.89000000000000E+01,3.88000000000000E+01,3.79000000000000E+01,3.62000000000000E+01,3.44000000000000E+01,3.35000000000000E+01,3.25000000000000E+01,3.16000000000000E+01,3.20000000000000E+01,3.12000000000000E+01,3.08000000000000E+01,3.10000000000000E+01,3.12000000000000E+01,3.09000000000000E+01,2.97000000000000E+01,,
ITA,,,,,,,,,,,,,,,,,,,,,4.17000000000000E+01,4.13000000000000E+01,4.08000000000000E+01,4.00000000000000E+01,3.83000000000000E+01,3.75000000000000E+01,3.70000000000000E+01,3.67000000000000E+01,3.67000000000000E+01,3.66000000000000E+01,3.68000000000000E+01,3.73000000000000E+01,4.07000000000000E+01,3.99000000000000E+01,3.96000000000000E+01,3.96000000000000E+01,3.94000000000000E+01,3.86000000000000E+01,3.90000000000000E+01,3.88000000000000E+01,3.83000000000000E+01,3.85000000000000E+01,3.85000000000000E+01,3.91000000000000E+01,3.92000000000000E+01,3.93000000000000E+01,3.88000000000000E+01,3.91000000000000E+01,3.91000000000000E+01,3.90000000000000E+01,,
JAM,,,,,,,,,,,,,,,,,,,,,,,,,,,,,,,,,2.46000000000000E+01,2.49000000000000E+01,2.44000000000000E+01,2.60000000000000E+01,2.66000000000000E+01,2.49000000000000E+01,2.53000000000000E+01,2.52000000000000E+01,2.44000000000000E+01,2.47000000000000E+01,2.50000000000000E+01,2.54000000000000E+01,2.76000000000000E+01,2.69000000000000E+01,2.74000000000000E+01,2.70000000000000E+01,2.62000000000000E+01,2.38000000000000E+01,,
JOR,,,,,,,,,,,,,,,,,,,,,,,,2.28000000000000E+01,,,2.00000000000000E+01,1.81000000000000E+01,,,,,,,,,,,,,2.34000000000000E+01,2.32000000000000E+01,2.32000000000000E+01,2.30000000000000E+01,,,,,,2.14000000000000E+01,,
JPN,,,,,,,,,,,,,,,,,,,,,3.97000000000000E+01,3.95000000000000E+01,3.91000000000000E+01,3.89000000000000E+01,3.89000000000000E+01,3.91000000000000E+01,3.87000000000000E+01,3.81000000000000E+01,3.86000000000000E+01,3.86000000000000E+01,3.86000000000000E+01,3.91000000000000E+01,3.96000000000000E+01,3.95000000000000E+01,3.97000000000000E+01,3.94000000000000E+01,3.92000000000000E+01,3.92000000000000E+01,3.85000000000000E+01,3.82000000000000E+01,3.80000000000000E+01,3.74000000000000E+01,3.67000000000000E+01,3.63000000000000E+01,3.55000000000000E+01,3.53000000000000E+01,3.54000000000000E+01,3.53000000000000E+01,3.49000000000000E+01,,,
KAZ,,,,,,,,,,,,,,,,,,,,,,,,,,,,,,,,,,,,,,,,2.41000000000000E+01,,2.25000000000000E+01,2.24000000000000E+01,2.33000000000000E+01,2.39000000000000E+01,2.46000000000000E+01,2.49000000000000E+01,2.55000000000000E+01,2.60000000000000E+01,,,
KEN,,,,,,,,,,,,,,,,,,,,,,,,,,,,,,,,,,,,,,,,,,,,,,1.08000000000000E+01,,,,,,
KGZ,,,,,,,,,,,,,,,,,,,,,,,,,,,,,,,,,,,,,1.77000000000000E+01,1.65000000000000E+01,1.54000000000000E+01,1.41000000000000E+01,1.30000000000000E+01,1.29000000000000E+01,1.55000000000000E+01,1.90000000000000E+01,2.25000000000000E+01,2.30000000000000E+01,2.57000000000000E+01,,,,,
KHM,,,,,,,,,,,,,,,,,,,,,,,,,,,,,,,,,,,,,,,5.00000000000000E+00,,7.10000000000000E+00,8.70000000000000E+00,,,,,,,,,,
KIR,,,,,,,,,,,,,,,,,,,,,,,,,,,,,,,,,,,,,,,,,1.00000000000000E+01,,,,,,,,,,,
KNA,,,,,,,,,,,,,,,,,,,,,,,,,2.89000000000000E+01,,,,,,,,,,,,,,,,,5.20000000000000E+01,,,,,,,,,,
KOR,,,,,,,,,,,,,,,,,,,,,3.22000000000000E+01,3.11000000000000E+01,3.17000000000000E+01,3.31000000000000E+01,3.48000000000000E+01,3.49000000000000E+01,3.56000000000000E+01,3.72000000000000E+01,3.77000000000000E+01,3.82000000000000E+01,3.90000000000000E+01,4.01000000000000E+01,3.99000000000000E+01,3.91000000000000E+01,3.93000000000000E+01,3.98000000000000E+01,3.91000000000000E+01,3.83000000000000E+01,3.41000000000000E+01,3.33000000000000E+01,3.45000000000000E+01,3.38000000000000E+01,3.38000000000000E+01,3.44000000000000E+01,3.43000000000000E+01,3.41000000000000E+01,3.38000000000000E+01,3.28000000000000E+01,3.23000000000000E+01,,,
KWT,,,,,,,,,,,,,,,,,,,,,,,,3.28000000000000E+01,,,,,3.30000000000000E+01,,,,,,,,,,,,,,,,,2.67000000000000E+01,,,,,,
LAC,,,,,,,,,,,,,,,,,,,,,,,,,,,,,,,,,2.95414013865641E+01,2.87297164303922E+01,,2.79370432142316E+01,2.75009188923395E+01,2.75224134125211E+01,2.77491120351834E+01,2.66639713834905E+01,2.74748341456296E+01,2.63309618006883E+01,2.63551113177783E+01,2.60167464718339E+01,2.70569137338758E+01,2.78038567757264E+01,2.82344120486617E+01,2.90553335067908E+01,2.89005990513291E+01,,,
LAO,,,,,,,,,,,,,,,,,,,,,,,,,,,,,,,,,,,,4.40000000000000E+00,,,,,,,,,,,,,,,,
LBR,,,,,,,,,,,,,,,,,,,,,,,,,,,,,,,,,,,,,,,,,,,,,,,,4.20000000000000E+00,,,,
LCA,,,,,,,,,,,,,,,,,,,,,,,,,,,,,,,,,,2.39000000000000E+01,2.11000000000000E+01,2.61000000000000E+01,2.54000000000000E+01,2.39000000000000E+01,2.23000000000000E+01,2.42000000000000E+01,2.48000000000000E+01,,2.19000000000000E+01,2.07000000000000E+01,2.13000000000000E+01,,,,,,,
LCN,,,,,,,,,,,,,,,,,,,,,,,,,,,,,,,,,2.95293398674685E+01,2.87233981972007E+01,,2.79349341548166E+01,2.74972378474649E+01,2.75270773750613E+01,2.77661672568033E+01,2.66964510243301E+01,2.75001578135372E+01,2.63688410047912E+01,2.63816719031148E+01,2.60477897043541E+01,2.70838839855489E+01,2.78262013610736E+01,2.82565539004984E+01,2.90781006294668E+01,2.89199454302438E+01,,,
LKA,,,,,,,,,,,,,,,,,,,,,,1.89000000000000E+01,,,,1.83000000000000E+01,,,,,,,,1.91000000000000E+01,1.67000000000000E+01,2.10000000000000E+01,2.15000000000000E+01,,2.26000000000000E+01,,,,2.15000000000000E+01,2.20000000000000E+01,2.31000000000000E+01,2.47000000000000E+01,2.58000000000000E+01,2.64000000000000E+01,2.61000000000000E+01,2.50000000000000E+01,,
LMC,,,,,,,,,,,,,,,,,,,,,,,,,,,,,,,,,,,,,,,,,1.85555930544741E+01,,,,,2.10149243863435E+01,,,,,,
LSO,,,,,,,,,,,,,,,,,,,,,,,,,,,,,,,,,,,,,,1.66000000000000E+01,,8.90000000000000E+00,,,,,,,,,,,,
LTU,,,,,,,,,,,,,,,,,,,,,,,,,,,,,,,,,,,,,,3.48000000000000E+01,3.51000000000000E+01,3.34000000000000E+01,3.35000000000000E+01,3.37000000000000E+01,3.40000000000000E+01,3.45000000000000E+01,3.57000000000000E+01,3.70000000000000E+01,3.97000000000000E+01,4.12000000000000E+01,4.14000000000000E+01,3.67000000000000E+01,,
LUX,,,,,,,,,,,,,,,,,,,,,,,,4.68000000000000E+01,4.57000000000000E+01,4.47000000000000E+01,4.42000000000000E+01,4.35000000000000E+01,4.30000000000000E+01,4.25000000000000E+01,4.18000000000000E+01,,3.95000000000000E+01,3.69000000000000E+01,3.77000000000000E+01,3.45000000000000E+01,3.19000000000000E+01,3.31000000000000E+01,3.02000000000000E+01,3.13000000000000E+01,2.99000000000000E+01,3.11000000000000E+01,2.89000000000000E+01,2.80000000000000E+01,2.73000000000000E+01,2.54000000000000E+01,2.52000000000000E+01,2.58000000000000E+01,2.11000000000000E+01,1.79000000000000E+01,,
LVA,,,,,,,,,,,,,,,,,,,,,,,,,,,,,,,,,,,,,3.33000000000000E+01,3.22000000000000E+01,3.32000000000000E+01,3.33000000000000E+01,3.40000000000000E+01,3.43000000000000E+01,3.34000000000000E+01,3.51000000000000E+01,3.55000000000000E+01,3.49000000000000E+01,3.74000000000000E+01,3.93000000000000E+01,3.96000000000000E+01,3.46000000000000E+01,,
MAC,,,,,,,,,,,,,,,,,,,,,,,,,,,,,,4.07000000000000E+01,3.67000000000000E+01,3.69000000000000E+01,3.41000000000000E+01,3.36000000000000E+01,2.80000000000000E+01,3.01000000000000E+01,2.57000000000000E+01,2.53000000000000E+01,3.07000000000000E+01,2.79000000000000E+01,2.65000000000000E+01,2.76000000000000E+01,2.63000000000000E+01,2.55000000000000E+01,2.47000000000000E+01,2.68000000000000E+01,2.76000000000000E+01,2.72000000000000E+01,2.66000000000000E+01,,,
MAR,,,,,,,,,,,,,,,,,,,,,,,,,,,,,,,3.19000000000000E+01,3.25000000000000E+01,3.30000000000000E+01,3.18000000000000E+01,2.21000000000000E+01,3.15000000000000E+01,3.25000000000000E+01,3.20000000000000E+01,3.14000000000000E+01,3.16000000000000E+01,3.01000000000000E+01,2.97000000000000E+01,2.05000000000000E+01,2.07000000000000E+01,2.05000000000000E+01,2.08000000000000E+01,2.24000000000000E+01,2.33000000000000E+01,2.40000000000000E+01,,,
MDA,,,,,,,,,,,,,,,,,,,,,,,,,,,,,,,,,,,,,,,,,1.77000000000000E+01,1.77000000000000E+01,1.83000000000000E+01,2.04000000000000E+01,2.13000000000000E+01,2.09000000000000E+01,2.40000000000000E+01,2.52000000000000E+01,2.57000000000000E+01,,,
MDG,,,,,,,,,,,,,,,,,,,,,,,,,,,,,,,,,,,,,,,,,,,,7.40000000000000E+00,,5.60000000000000E+00,,,,,,
MDV,,,,,,,,,,,,,,,,,,,,,,,,,,,,,,,1.84000000000000E+01,,,,,1.69000000000000E+01,,,,,1.64000000000000E+01,,,1.78000000000000E+01,,,1.99000000000000E+01,,,,,
MEA,,,,,,,,,,,,,,,,,,,,,,,,,,,,,,,,,,,,,,,,,,,,,,,2.68845803836615E+01,2.81722102953181E+01,2.74824540155252E+01,,,
MEX,,,,,,,,,,,,,,,,,,,,,,,,,,,,,,,3.00000000000000E+01,2.48000000000000E+01,,2.39000000000000E+01,,2.45000000000000E+01,2.48000000000000E+01,2.43000000000000E+01,2.69000000000000E+01,2.76000000000000E+01,2.94000000000000E+01,2.80000000000000E+01,2.72000000000000E+01,2.78000000000000E+01,2.79000000000000E+01,2.96000000000000E+01,3.01000000000000E+01,3.06000000000000E+01,3.03000000000000E+01,,,
MHL,,,,,,,,,,,,,,,,,,,,,,,,,,,,,,,,,,,,,,,,1.57000000000000E+01,,,,,,,,,,,,
MKD,,,,,,,,,,,,,,,,,,,,,,,,,,,,,,,,,,,,,,,,,,,3.57000000000000E+01,3.61000000000000E+01,3.46000000000000E+01,3.38000000000000E+01,3.47000000000000E+01,3.30000000000000E+01,3.34000000000000E+01,,,
MLI,,,,,,,,,,,,,,,,,,,,,,,,,,,,,,,,,,,,,,,,,,,,,1.78000000000000E+01,,8.00000000000000E+00,,,,,
MLT,,,,,,,,,,,,,,,,,,,,,,,,,,,,,,,,,,,,,,,,,3.57000000000000E+01,3.34000000000000E+01,3.50000000000000E+01,3.39000000000000E+01,3.41000000000000E+01,3.51000000000000E+01,3.38000000000000E+01,3.18000000000000E+01,3.26000000000000E+01,3.14000000000000E+01,,
MNA,,,,,,,,,,,,,,,,,,,,,,,,,,,,,,,,,,,,,,,,,,,,,,,2.70441121619293E+01,2.84478795985197E+01,2.83871810375064E+01,,,
MNE,,,,,,,,,,,,,,,,,,,,,,,,,,,,,,,,,,,,,,,,,,,,2.76000000000000E+01,,2.61000000000000E+01,,3.70000000000000E+01,3.60000000000000E+01,3.20000000000000E+01,,
MNG,,,,,,,,,,,,,,,,,,,,,,,,,,,,,,,,,,2.15000000000000E+01,1.90000000000000E+01,1.96000000000000E+01,1.97000000000000E+01,1.96000000000000E+01,1.88000000000000E+01,1.84000000000000E+01,1.68000000000000E+01,1.63000000000000E+01,1.54000000000000E+01,1.73000000000000E+01,1.86000000000000E+01,1.89000000000000E+01,1.95000000000000E+01,2.06000000000000E+01,2.13000000000000E+01,,,
MNP,,,,,,,,,,,,,,,,,,,,,,,,,,,,,,,4.73000000000000E+01,,,,,1.88000000000000E+01,,,,,,,,,,,,,,,,
MOZ,,,,,,,,,,,,,,,,,,,,,,,,,,,,,,,,,,,,,,,,,,,,7.00000000000000E+00,,,,,,,,
MUS,,,,,,,,,,,,,,,,,,,,,,,,,,,,,,,4.01000000000000E+01,,3.58000000000000E+01,,3.58000000000000E+01,3.55000000000000E+01,3.53000000000000E+01,3.45000000000000E+01,3.51000000000000E+01,3.53000000000000E+01,3.66000000000000E+01,3.66000000000000E+01,3.65000000000000E+01,3.58000000000000E+01,3.46000000000000E+01,3.42000000000000E+01,3.45000000000000E+01,3.55000000000000E+01,3.50000000000000E+01,,,
MYS,,,,,,,,,,,,,,,,,,,,,2.62000000000000E+01,2.76000000000000E+01,2.59000000000000E+01,2.76000000000000E+01,2.64000000000000E+01,2.56000000000000E+01,2.39000000000000E+01,2.29000000000000E+01,2.32000000000000E+01,2.54000000000000E+01,2.73000000000000E+01,2.56000000000000E+01,3.13000000000000E+01,3.21000000000000E+01,,3.28000000000000E+01,3.36000000000000E+01,3.56000000000000E+01,3.35000000000000E+01,3.32000000000000E+01,3.39000000000000E+01,3.50000000000000E+01,3.46000000000000E+01,3.49000000000000E+01,3.31000000000000E+01,3.27000000000000E+01,3.33000000000000E+01,3.17000000000000E+01,3.20000000000000E+01,,,
NAC,,,,,,,,,,,,,,,,,,,,,,,,,,,,,,,,3.44009740873444E+01,3.35076197532839E+01,3.31110441211412E+01,3.32493642227795E+01,3.34510103770772E+01,3.31714181042223E+01,3.33713715436208E+01,3.31855001139831E+01,3.26615294388065E+01,3.25613601724110E+01,3.21000000000000E+01,3.15794019860426E+01,3.05619946496239E+01,3.04920821900183E+01,3.03911071838749E+01,3.07305193698486E+01,3.04216314785844E+01,2.97274065718304E+01,,,
NAM,,,,,,,,,,,,,,,,,,,,,,,,,,,,,,,,2.06000000000000E+01,,,,,,1.94000000000000E+01,,,1.72000000000000E+01,,,,1.91000000000000E+01,,,,2.44000000000000E+01,,,
NCL,,,,,,,,,,,,,,,,,,,,,,,,,,,,,,,,,,,,,3.28000000000000E+01,,,,,,,,,,,,,,,
NER,,,,,,,,,,,,,,,,,,,,,,,,,,,,,,,,,,,,,,,,,,,,,,8.30000000000000E+00,,,,,,
NGA,,,,,,,,,,,,,,,,,,,,,,,,5.30000000000000E+00,,,8.90000000000000E+00,,,,,,,,,,,,,,,,,,1.18000000000000E+01,,,,,,,
NIC,,,,,,,,,,,,,,,,,,,,,,,,,,,,,,,,,,,,,,,,,,,,1.86000000000000E+01,1.94000000000000E+01,2.01000000000000E+01,2.02000000000000E+01,2.08000000000000E+01,,,,
NLD,,,,,,,,,,,,,,,,,,,,,3.94000000000000E+01,3.87000000000000E+01,3.68000000000000E+01,3.65000000000000E+01,3.70000000000000E+01,3.61000000000000E+01,3.53000000000000E+01,3.51000000000000E+01,3.46000000000000E+01,3.49000000000000E+01,3.48000000000000E+01,3.42000000000000E+01,3.25000000000000E+01,3.25000000000000E+01,3.22000000000000E+01,3.16000000000000E+01,3.09000000000000E+01,3.06000000000000E+01,3.05000000000000E+01,3.02000000000000E+01,2.88000000000000E+01,2.96000000000000E+01,2.75000000000000E+01,2.81000000000000E+01,2.82000000000000E+01,2.88000000000000E+01,2.87000000000000E+01,2.76000000000000E+01,2.65000000000000E+01,2.51000000000000E+01,,
NOR,,,,,,,,,,,,,,,,,,,,,3.99000000000000E+01,4.01000000000000E+01,3.89000000000000E+01,3.77000000000000E+01,3.84000000000000E+01,3.79000000000000E+01,3.77000000000000E+01,3.80000000000000E+01,3.72000000000000E+01,3.56000000000000E+01,3.52000000000000E+01,3.41000000000000E+01,3.39000000000000E+01,3.32000000000000E+01,3.38000000000000E+01,3.45000000000000E+01,3.40000000000000E+01,3.50000000000000E+01,3.43000000000000E+01,3.35000000000000E+01,3.27000000000000E+01,3.27000000000000E+01,3.31000000000000E+01,3.32000000000000E+01,3.20000000000000E+01,3.23000000000000E+01,3.23000000000000E+01,3.30000000000000E+01,3.22000000000000E+01,3.22000000000000E+01,,
NPL,,,,,,,,,,,,,,,,,,,,,,,,,,,,,,,,3.70000000000000E+00,,,,,,,,1.45000000000000E+01,,1.31000000000000E+01,,,,,,,,,,
NZL,,,,,,,,,,,,,,,,,,,,,,,,,,,3.65000000000000E+01,3.54000000000000E+01,3.42000000000000E+01,3.35000000000000E+01,3.26000000000000E+01,3.16000000000000E+01,3.09000000000000E+01,3.12000000000000E+01,3.37000000000000E+01,3.37000000000000E+01,3.37000000000000E+01,3.26000000000000E+01,3.29000000000000E+01,3.18000000000000E+01,3.24000000000000E+01,3.18000000000000E+01,3.19000000000000E+01,3.19000000000000E+01,3.23000000000000E+01,3.19000000000000E+01,3.25000000000000E+01,3.24000000000000E+01,3.15000000000000E+01,3.07000000000000E+01,,
OEC,,,,,,,,,,,,,,,,,,,,,,,,,,,,,,,,3.86612888150910E+01,3.83426585631018E+01,3.79119818085382E+01,3.77759444148504E+01,3.77259787684335E+01,3.73937009323932E+01,3.72947262212640E+01,3.69382524697403E+01,3.64831017270551E+01,3.63520988258696E+01,3.59771411379706E+01,3.54773458801714E+01,3.49498005209457E+01,3.46766789400947E+01,3.44682668567792E+01,3.46203745785640E+01,3.45355026021883E+01,3.40815332455091E+01,,,
OED,,,,,,,,,,,,,,,,,,,,,,,,,,,,,,,,3.68019857711044E+01,3.75759810474378E+01,3.60801629462346E+01,3.71490818504730E+01,3.60777026355362E+01,3.58199969661223E+01,3.57033018825764E+01,3.55608257564965E+01,3.51587733456062E+01,3.52301433452370E+01,3.47279560955694E+01,3.42357241988728E+01,3.38136665991535E+01,3.35718283366368E+01,3.36350430837066E+01,3.38671425649913E+01,3.39132247148520E+01,3.35175547985340E+01,,,
OMN,,,,,,,,,,,,,,,,,,,,,,,,,,,,,,,,,,7.50000000000000E+00,,,7.70000000000000E+00,,,,1.07000000000000E+01,,,,,,,,,,,
PAK,,,,,,,,,,,,,,,,,,,,,,,,,,2.10000000000000E+01,2.02000000000000E+01,2.24000000000000E+01,2.06000000000000E+01,2.06000000000000E+01,2.06000000000000E+01,2.06000000000000E+01,2.04000000000000E+01,1.99000000000000E+01,1.86000000000000E+01,1.96000000000000E+01,1.96000000000000E+01,2.02000000000000E+01,1.83000000000000E+01,1.83000000000000E+01,1.95000000000000E+01,1.95000000000000E+01,2.16000000000000E+01,2.17000000000000E+01,2.14000000000000E+01,2.14000000000000E+01,2.21000000000000E+01,2.31000000000000E+01,2.21000000000000E+01,,,
PAN,,,,,,,,,,,,,,,,,,,,,,,2.05000000000000E+01,2.00000000000000E+01,1.87000000000000E+01,1.98000000000000E+01,1.90000000000000E+01,1.95000000000000E+01,1.57000000000000E+01,1.60000000000000E+01,,1.64000000000000E+01,1.96000000000000E+01,2.06000000000000E+01,2.17000000000000E+01,2.14000000000000E+01,2.14000000000000E+01,2.19000000000000E+01,2.17000000000000E+01,2.22000000000000E+01,2.15000000000000E+01,2.13000000000000E+01,2.10000000000000E+01,2.18000000000000E+01,2.24000000000000E+01,2.18000000000000E+01,2.32000000000000E+01,2.48000000000000E+01,2.56000000000000E+01,,,
PER,,,,,,,,,,,,,,,,,,,,,,,,,,,,3.62000000000000E+01,,,3.22000000000000E+01,3.01000000000000E+01,3.01000000000000E+01,3.02000000000000E+01,3.37000000000000E+01,3.17000000000000E+01,2.80000000000000E+01,2.74000000000000E+01,2.73000000000000E+01,2.48000000000000E+01,2.44000000000000E+01,2.41000000000000E+01,2.57000000000000E+01,2.46000000000000E+01,4.06000000000000E+01,4.08000000000000E+01,4.08000000000000E+01,4.13000000000000E+01,2.76000000000000E+01,,,
PHL,,,,,,,,,,,,,,,,,,,,,1.56000000000000E+01,1.44000000000000E+01,1.49000000000000E+01,1.43000000000000E+01,1.52000000000000E+01,1.45000000000000E+01,1.39000000000000E+01,1.55000000000000E+01,1.66000000000000E+01,1.67000000000000E+01,1.63000000000000E+01,1.73000000000000E+01,1.72000000000000E+01,1.69000000000000E+01,1.71000000000000E+01,1.70000000000000E+01,1.91000000000000E+01,1.91000000000000E+01,1.87000000000000E+01,1.83000000000000E+01,1.80000000000000E+01,1.84000000000000E+01,1.81000000000000E+01,1.82000000000000E+01,1.82000000000000E+01,1.78000000000000E+01,1.76000000000000E+01,1.79000000000000E+01,1.75000000000000E+01,1.75000000000000E+01,,
POL,,,,,,,,,,,,,,,,,,,,,,,,,,,,,,,,,,,4.08000000000000E+01,4.11000000000000E+01,4.10000000000000E+01,4.11000000000000E+01,4.13000000000000E+01,4.05000000000000E+01,4.05000000000000E+01,4.04000000000000E+01,3.81000000000000E+01,3.80000000000000E+01,3.84000000000000E+01,3.90000000000000E+01,4.01000000000000E+01,4.12000000000000E+01,4.32000000000000E+01,4.28000000000000E+01,,
PRI,,,,,,,,,,,,,,,,,,,,,2.73000000000000E+01,2.71000000000000E+01,2.54000000000000E+01,2.50000000000000E+01,2.55000000000000E+01,2.49000000000000E+01,2.58000000000000E+01,2.69000000000000E+01,2.66000000000000E+01,2.71000000000000E+01,2.68000000000000E+01,2.67000000000000E+01,2.72000000000000E+01,2.73000000000000E+01,2.66000000000000E+01,2.65000000000000E+01,2.55000000000000E+01,2.62000000000000E+01,2.71000000000000E+01,2.78000000000000E+01,2.76000000000000E+01,2.73000000000000E+01,2.60000000000000E+01,2.62000000000000E+01,2.61000000000000E+01,2.54000000000000E+01,2.60000000000000E+01,2.64000000000000E+01,2.50000000000000E+01,,,
PRT,,,,,,,,,,,,,,,,,,,,,4.35000000000000E+01,4.48000000000000E+01,4.47000000000000E+01,4.21000000000000E+01,4.04000000000000E+01,4.00000000000000E+01,4.01000000000000E+01,4.14000000000000E+01,4.18000000000000E+01,4.15000000000000E+01,4.07000000000000E+01,4.03000000000000E+01,3.89000000000000E+01,4.02000000000000E+01,3.93000000000000E+01,3.98000000000000E+01,3.87000000000000E+01,3.98000000000000E+01,4.38000000000000E+01,4.32000000000000E+01,4.42000000000000E+01,4.27000000000000E+01,4.35000000000000E+01,4.29000000000000E+01,4.11000000000000E+01,4.08000000000000E+01,4.05000000000000E+01,4.09000000000000E+01,4.00000000000000E+01,3.87000000000000E+01,,
PRY,,,,,,,,,,,,,,,,,,,,,,,3.51000000000000E+01,3.46000000000000E+01,3.49000000000000E+01,3.71000000000000E+01,3.58000000000000E+01,3.36000000000000E+01,3.39000000000000E+01,3.64000000000000E+01,3.61000000000000E+01,3.49000000000000E+01,3.30000000000000E+01,3.48000000000000E+01,3.70000000000000E+01,2.27000000000000E+01,,2.28000000000000E+01,2.23000000000000E+01,2.19000000000000E+01,2.10000000000000E+01,2.10000000000000E+01,1.84000000000000E+01,1.86000000000000E+01,1.98000000000000E+01,2.00000000000000E+01,2.23000000000000E+01,2.40000000000000E+01,2.47000000000000E+01,,,
PYF,,,,,,,,,,,,,,,,,,,,,,,,,,,,,,,,,,,,,,,,,,,2.42000000000000E+01,,,,,,,,,
QAT,,,,,,,,,,,,,,,,,,,,,,,,,,,,,,,,,,,,,,3.80000000000000E+01,,,,4.39000000000000E+01,,,4.76000000000000E+01,,4.80000000000000E+01,5.83000000000000E+01,,,,
ROM,,,,,,,,,,,,,,,,,,,,,5.16000000000000E+01,5.12000000000000E+01,5.16000000000000E+01,5.15000000000000E+01,5.12000000000000E+01,5.12000000000000E+01,5.12000000000000E+01,5.16000000000000E+01,5.11000000000000E+01,5.12000000000000E+01,4.94000000000000E+01,4.54000000000000E+01,4.36000000000000E+01,4.20000000000000E+01,3.84000000000000E+01,3.66000000000000E+01,3.65000000000000E+01,3.59000000000000E+01,3.43000000000000E+01,3.25000000000000E+01,3.06000000000000E+01,3.02000000000000E+01,3.37000000000000E+01,3.39000000000000E+01,3.55000000000000E+01,3.49000000000000E+01,3.51000000000000E+01,3.70000000000000E+01,3.77000000000000E+01,3.66000000000000E+01,,
RUS,,,,,,,,,,,,,,,,,,,,,,,,,,,,,,,,,,,,,,3.61000000000000E+01,3.51000000000000E+01,3.42000000000000E+01,3.47000000000000E+01,3.56000000000000E+01,3.62000000000000E+01,3.81000000000000E+01,3.76000000000000E+01,3.81000000000000E+01,3.79000000000000E+01,3.80000000000000E+01,3.84000000000000E+01,,,
RWA,,,,,,,,,,,,,,,,,,,,,,,,,,,,,,5.40000000000000E+00,,,,,,,,,,,,,,,,,,,,,,
SAS,,,,,,,,,,,,,,,,,,,,,,,,,,,,,,,,,,,,,,,,,1.72762851308225E+01,,,,,2.04959948445979E+01,,,,,,
SAU,,,,,,,,,,,,,,,,,,,,,,,,,,,,,,,,,,,,,,,,2.41000000000000E+01,2.27000000000000E+01,2.41000000000000E+01,2.40000000000000E+01,,,,2.34000000000000E+01,2.29000000000000E+01,2.07000000000000E+01,2.33000000000000E+01,,
SEN,,,,,,,,,,,,,,,,,,,,,,,,,,,,,,,,,,,,,,,,,,1.57000000000000E+01,,,,,2.02000000000000E+01,,,,,
SGP,,,,,,,,,,,,,,,,,,,,,3.33000000000000E+01,3.55000000000000E+01,3.61000000000000E+01,3.58000000000000E+01,3.72000000000000E+01,3.63000000000000E+01,3.56000000000000E+01,3.50000000000000E+01,3.60000000000000E+01,3.68000000000000E+01,4.02000000000000E+01,3.67000000000000E+01,3.64000000000000E+01,3.62000000000000E+01,3.56000000000000E+01,3.47000000000000E+01,3.32000000000000E+01,3.26000000000000E+01,3.24000000000000E+01,3.16000000000000E+01,4.22000000000000E+01,2.92000000000000E+01,2.83000000000000E+01,2.83000000000000E+01,2.72000000000000E+01,,2.60000000000000E+01,2.62000000000000E+01,2.70000000000000E+01,2.57000000000000E+01,,
SLE,,,,,,,,,,,,,,,,,,,,,,,,,,,,,,,,,,,,,,,,,,,,1.07000000000000E+01,1.03000000000000E+01,,,,,,,
SLV,,,,,,,,,,,,,,,,,,,,,2.09000000000000E+01,,,,,2.15000000000000E+01,3.28000000000000E+01,,3.45000000000000E+01,3.22000000000000E+01,3.46000000000000E+01,3.28000000000000E+01,2.28000000000000E+01,,2.57000000000000E+01,2.66000000000000E+01,2.53000000000000E+01,2.52000000000000E+01,2.43000000000000E+01,2.54000000000000E+01,2.42000000000000E+01,2.46000000000000E+01,2.47000000000000E+01,2.65000000000000E+01,2.51000000000000E+01,2.37000000000000E+01,2.59000000000000E+01,2.56000000000000E+01,,,,
SMR,,,,,,,,,,,,,,,,,,,,,5.20000000000000E+01,5.17000000000000E+01,5.08000000000000E+01,4.98000000000000E+01,5.04000000000000E+01,5.17000000000000E+01,5.18000000000000E+01,5.15000000000000E+01,5.16000000000000E+01,5.16000000000000E+01,5.16000000000000E+01,5.14000000000000E+01,5.04000000000000E+01,5.06000000000000E+01,,4.95000000000000E+01,4.99000000000000E+01,4.96000000000000E+01,5.04000000000000E+01,5.04000000000000E+01,,5.27000000000000E+01,5.22000000000000E+01,5.27000000000000E+01,5.24000000000000E+01,5.04000000000000E+01,4.96000000000000E+01,4.87000000000000E+01,4.79000000000000E+01,,,
SRB,,,,,,,,,,,,,,,,,,,,,,,,,,,,,,,,,,,,,,,,,,,,,3.29000000000000E+01,3.44000000000000E+01,3.67000000000000E+01,3.65000000000000E+01,3.38000000000000E+01,3.23000000000000E+01,,
STP,,,,,,,,,,,,,,,,,,,,,3.25000000000000E+01,1.56000000000000E+01,2.02000000000000E+01,1.83000000000000E+01,2.53000000000000E+01,,,,,,,1.92000000000000E+01,,,,,,,,,2.63000000000000E+01,,,,,,,,,,,
SUR,,,,,,,,,,,,,,,,,,,,,,,,,,,,,,,2.67000000000000E+01,,2.49000000000000E+01,2.53000000000000E+01,2.53000000000000E+01,3.01000000000000E+01,3.26000000000000E+01,3.06000000000000E+01,3.23000000000000E+01,2.18000000000000E+01,,,,,3.08000000000000E+01,,,,,,,
SVK,,,,,,,,,,,,,,,,,,,,,,,,,,,,,,,,,,,4.81000000000000E+01,4.71000000000000E+01,4.84000000000000E+01,4.90000000000000E+01,4.96000000000000E+01,4.87000000000000E+01,4.72000000000000E+01,4.79000000000000E+01,4.86000000000000E+01,4.89000000000000E+01,4.96000000000000E+01,4.96000000000000E+01,4.98000000000000E+01,5.12000000000000E+01,5.15000000000000E+01,5.03000000000000E+01,,
SVN,,,,,,,,,,,,,,,,,,,,,,,,,,,,,,,,,,5.17000000000000E+01,4.98000000000000E+01,5.14000000000000E+01,5.02000000000000E+01,4.94000000000000E+01,4.74000000000000E+01,4.61000000000000E+01,4.51000000000000E+01,4.63000000000000E+01,4.68000000000000E+01,4.59000000000000E+01,4.54000000000000E+01,4.73000000000000E+01,4.49000000000000E+01,4.35000000000000E+01,4.59000000000000E+01,4.26000000000000E+01,,
SWE,,,,,,,,,,,,,,,,,,,,,4.53000000000000E+01,4.49000000000000E+01,4.38000000000000E+01,4.35000000000000E+01,4.36000000000000E+01,4.38000000000000E+01,4.38000000000000E+01,4.41000000000000E+01,4.33000000000000E+01,4.32000000000000E+01,4.32000000000000E+01,4.24000000000000E+01,4.02000000000000E+01,3.88000000000000E+01,3.80000000000000E+01,3.91000000000000E+01,3.91000000000000E+01,3.86000000000000E+01,3.82000000000000E+01,3.75000000000000E+01,3.66000000000000E+01,3.56000000000000E+01,3.50000000000000E+01,3.47000000000000E+01,3.45000000000000E+01,3.37000000000000E+01,3.36000000000000E+01,3.28000000000000E+01,3.31000000000000E+01,3.14000000000000E+01,,
SYR,,,,,,,,,,,,,,,,,,,,,,,,3.22000000000000E+01,3.59000000000000E+01,,,,,3.00000000000000E+01,,2.84000000000000E+01,,2.99000000000000E+01,3.31000000000000E+01,3.53000000000000E+01,,3.56000000000000E+01,,3.20000000000000E+01,3.04000000000000E+01,2.98000000000000E+01,3.22000000000000E+01,2.91000000000000E+01,,,,3.22000000000000E+01,,,,
TCD,,,,,,,,,,,,,,,,,,,,,,,,,,,,,,,,,,3.30000000000000E+00,,,,,,,,,,,,,,,,,,
TGO,,,,,,,,,,,,,,,,,,,,,,,,,,,,,,,,,,,,,,,,,,,,,,,9.50000000000000E+00,,,,,
THA,,,,,,,,,,,,,,,,,,,,,1.26000000000000E+01,1.51000000000000E+01,1.60000000000000E+01,1.48000000000000E+01,1.54000000000000E+01,1.26000000000000E+01,1.24000000000000E+01,1.31000000000000E+01,1.32000000000000E+01,1.35000000000000E+01,1.55000000000000E+01,1.69000000000000E+01,1.78000000000000E+01,1.96000000000000E+01,2.02000000000000E+01,2.20000000000000E+01,2.35000000000000E+01,2.21000000000000E+01,1.92000000000000E+01,1.95000000000000E+01,2.04000000000000E+01,1.91000000000000E+01,2.05000000000000E+01,2.05000000000000E+01,2.16000000000000E+01,2.16000000000000E+01,2.20000000000000E+01,2.20000000000000E+01,2.08000000000000E+01,2.12000000000000E+01,,
TJK,,,,,,,,,,,,,,,,,,,,,,,,,,,,,,,,,,,,,,,,,,,,,2.71000000000000E+01,,,,,,,
TON,,,,,,,,,,,,,,,,,,,,,,,,,1.19000000000000E+01,,,,,,,,,,,,,,,,,,,1.35000000000000E+01,,,,,,,,
TTO,,,,,,,,,,,,,,,,,,,,,4.37000000000000E+01,4.77000000000000E+01,4.71000000000000E+01,4.59000000000000E+01,4.37000000000000E+01,4.11000000000000E+01,3.77000000000000E+01,3.72000000000000E+01,3.49000000000000E+01,3.39000000000000E+01,3.35000000000000E+01,3.55000000000000E+01,3.38000000000000E+01,3.33000000000000E+01,3.21000000000000E+01,3.26000000000000E+01,3.29000000000000E+01,3.41000000000000E+01,3.67000000000000E+01,3.62000000000000E+01,3.67000000000000E+01,3.81000000000000E+01,3.70000000000000E+01,3.80000000000000E+01,4.00000000000000E+01,4.11000000000000E+01,4.10000000000000E+01,4.29000000000000E+01,4.38000000000000E+01,,,
TUN,,,,,,,,,,,,,,,,,,,,,2.93000000000000E+01,,,,,,,,,3.11000000000000E+01,,,,,,,,,,,,,,,,,,,,,,
TUR,,,,,,,,,,,,,,,,,,,,,,,3.57000000000000E+01,3.26000000000000E+01,3.32000000000000E+01,2.51000000000000E+01,,,2.66000000000000E+01,2.64000000000000E+01,2.57000000000000E+01,2.53000000000000E+01,2.59000000000000E+01,2.64000000000000E+01,2.75000000000000E+01,2.72000000000000E+01,2.80000000000000E+01,2.86000000000000E+01,2.83000000000000E+01,2.76000000000000E+01,2.80000000000000E+01,2.67000000000000E+01,2.67000000000000E+01,2.63000000000000E+01,2.62000000000000E+01,2.81000000000000E+01,2.91000000000000E+01,3.04000000000000E+01,3.08000000000000E+01,2.91000000000000E+01,,
TZA,,,,,,,,,,,,,,,,,,,,,,,,,,,,,,,,,,,,,,,,,,4.00000000000000E+00,,,,,7.30000000000000E+00,,,,,
UGA,,,,,,,,,,,,,,,,,,,,,,,,,,,,,,,,,,,,,,,,,,,,1.03000000000000E+01,,8.60000000000000E+00,,,,,,
URY,,,,,,,,,,,,,,,,,,,,,,,,,3.57000000000000E+01,,3.68000000000000E+01,4.09000000000000E+01,4.04000000000000E+01,4.11000000000000E+01,4.04000000000000E+01,3.93000000000000E+01,3.58000000000000E+01,3.60000000000000E+01,3.49000000000000E+01,3.37000000000000E+01,,,3.26000000000000E+01,3.36000000000000E+01,3.30000000000000E+01,3.15000000000000E+01,3.00000000000000E+01,2.85000000000000E+01,2.82000000000000E+01,2.91000000000000E+01,2.75000000000000E+01,2.85000000000000E+01,,,,
USA,,,,,,,,,,,,,,,,,,,,,3.98000000000000E+01,3.93000000000000E+01,3.74000000000000E+01,3.71000000000000E+01,3.77000000000000E+01,3.76000000000000E+01,3.74000000000000E+01,3.67000000000000E+01,3.65000000000000E+01,3.63000000000000E+01,3.60000000000000E+01,3.47000000000000E+01,3.38000000000000E+01,3.34000000000000E+01,3.35000000000000E+01,3.37000000000000E+01,3.34000000000000E+01,3.36000000000000E+01,3.33000000000000E+01,3.27000000000000E+01,3.26000000000000E+01,3.21000000000000E+01,3.15000000000000E+01,3.04000000000000E+01,3.03000000000000E+01,3.02000000000000E+01,3.06000000000000E+01,3.03000000000000E+01,2.95000000000000E+01,,,
VCT,,,,,,,,,,,,,,,,,,,,,,,,,,,,,,,,2.67000000000000E+01,,,,,,,,,,2.71000000000000E+01,,,,,,,,,,
VEN,,,,,,,,,,,,,,,,,,,,,3.13000000000000E+01,3.14000000000000E+01,3.19000000000000E+01,2.95000000000000E+01,2.83000000000000E+01,2.82000000000000E+01,2.97000000000000E+01,3.12000000000000E+01,3.13000000000000E+01,2.98000000000000E+01,2.96000000000000E+01,3.08000000000000E+01,3.17000000000000E+01,3.13000000000000E+01,2.80000000000000E+01,2.82000000000000E+01,2.70000000000000E+01,2.92000000000000E+01,3.06000000000000E+01,2.81000000000000E+01,2.85000000000000E+01,2.83000000000000E+01,2.63000000000000E+01,2.50000000000000E+01,2.57000000000000E+01,2.68000000000000E+01,2.98000000000000E+01,3.04000000000000E+01,3.06000000000000E+01,,,
VNM,,,,,,,,,,,,,,,,,,,,,,,,,,,,,,,,,,,,,1.25000000000000E+01,1.50000000000000E+01,1.40000000000000E+01,1.41000000000000E+01,1.47000000000000E+01,1.65000000000000E+01,1.76000000000000E+01,1.97000000000000E+01,2.08000000000000E+01,,2.44000000000000E+01,,,,,
WBG,,,,,,,,,,,,,,,,,,,,,,,,,,,,,,,,,,,,,3.05000000000000E+01,3.83000000000000E+01,4.12000000000000E+01,4.22000000000000E+01,3.86000000000000E+01,3.20000000000000E+01,2.71000000000000E+01,2.96000000000000E+01,2.83000000000000E+01,2.98000000000000E+01,2.72000000000000E+01,2.72000000000000E+01,2.90000000000000E+01,,,
WSM,,,,,,,,,,,,,,,,,,,,,,,,,,,,,,,,,,,,,,,,,,1.48000000000000E+01,,,,,,,,,,
YEM,,,,,,,,,,,,,,,,,,,,,,,,,,,,,,,,1.40000000000000E+01,,,1.29000000000000E+01,,,,1.30000000000000E+01,1.38000000000000E+01,,,,,,,,,,,,
ZAF,,,,,,,,,,,,,,,,,,,,,,,,,,,,,,,,,,,,,,,,,3.34000000000000E+01,3.48000000000000E+01,3.37000000000000E+01,3.34000000000000E+01,3.44000000000000E+01,3.45000000000000E+01,3.45000000000000E+01,3.53000000000000E+01,3.54000000000000E+01,3.45000000000000E+01,,
ZMB,,,,,,,,,,,,,,,,,,,,,,,,,,,,,,,1.49000000000000E+01,,,,,,,,9.80000000000000E+00,,8.80000000000000E+00,,,,,,,,,,,
ZWE,,,,,,,,,,,,,,,,,,,,,,,,,,,,,,,,,,,,,,,,1.87000000000000E+01,,,,,,,,,,,,
