"Country Code",1960,1961,1962,1963,1964,1965,1966,1967,1968,1969,1970,1971,1972,1973,1974,1975,1976,1977,1978,1979,1980,1981,1982,1983,1984,1985,1986,1987,1988,1989,1990,1991,1992,1993,1994,1995,1996,1997,1998,1999,2000,2001,2002,2003,2004,2005,2006,2007,2008,2009,2010,2011ABW,,,,,,,,,,,,,,,,,,,,,,,,,,,,,,,,,,,7.10000000000000E+01,,,,,,,,,,,,,,,,,
ALB,,,,,,,,,,,,,,,,,,,,,,,,,,,,,,,,,,,,,,,,,,3.97000000000000E+01,,,,,,,,,,
ARG,,,,,,,,,,,,,,,,,,,,,,,,,,,,,,,,,,,,,,,6.38000000000000E+01,6.36000000000000E+01,6.21000000000000E+01,6.13000000000000E+01,6.13000000000000E+01,6.23000000000000E+01,6.07000000000000E+01,,,,,,,
AUS,,,,,,,,,,,,,,,,,,,,,,,,,,,,,,,,,,,,,,,,,,7.27000000000000E+01,7.23000000000000E+01,7.23000000000000E+01,7.19000000000000E+01,7.23000000000000E+01,7.20000000000000E+01,7.15000000000000E+01,7.17000000000000E+01,7.09000000000000E+01,,
AUT,,,,,,,,,,,,,,,,,,,,,,,,,,,,,,,,,,,,8.42000000000000E+01,8.64000000000000E+01,8.63000000000000E+01,8.69000000000000E+01,8.72000000000000E+01,8.81000000000000E+01,8.80000000000000E+01,8.81000000000000E+01,8.75000000000000E+01,8.63000000000000E+01,8.38000000000000E+01,8.36000000000000E+01,8.21000000000000E+01,8.07000000000000E+01,8.06000000000000E+01,,
AZE,,,,,,,,,,,,,,,,,,,,,,,,,,,,,,,,,,,,,,,,,,,,5.66000000000000E+01,,,,,,,,
BEL,,,,,,,,,,,,,,,,,,,,,,,,7.89000000000000E+01,7.80000000000000E+01,7.76000000000000E+01,7.82000000000000E+01,7.83000000000000E+01,7.76000000000000E+01,8.09000000000000E+01,7.98000000000000E+01,8.01000000000000E+01,8.35000000000000E+01,8.24000000000000E+01,8.18000000000000E+01,8.21000000000000E+01,8.22000000000000E+01,8.25000000000000E+01,8.24000000000000E+01,7.90000000000000E+01,7.90000000000000E+01,8.07000000000000E+01,8.16000000000000E+01,8.11000000000000E+01,8.08000000000000E+01,8.00000000000000E+01,8.18000000000000E+01,8.07000000000000E+01,8.13000000000000E+01,8.06000000000000E+01,,
BGR,,,,,,,,,,,,,,,,,,,,,,,,,,,,,,,,,,4.75999984741000E+01,4.67999992371000E+01,4.00000000000000E+01,4.50000000000000E+01,5.70000000000000E+01,5.87999992371000E+01,6.65000000000000E+01,,5.41000000000000E+01,5.90000000000000E+01,5.67000000000000E+01,5.30000000000000E+01,5.67000000000000E+01,6.01000000000000E+01,5.93000000000000E+01,5.44000000000000E+01,5.36000000000000E+01,,
BHS,,,,,,,,,,,,,,,,,,,,,,,,,,,,,,,,5.17000000000000E+01,5.26000000000000E+01,5.03000000000000E+01,5.16000000000000E+01,5.30000000000000E+01,5.23000000000000E+01,4.97000000000000E+01,5.10000000000000E+01,5.26000000000000E+01,,5.38000000000000E+01,5.39000000000000E+01,,,,,,,,,
BLZ,,,,,,,,,,,,,,,,,,,,,,,,,,,,,,,,,,4.96000000000000E+01,4.87000000000000E+01,3.86000000000000E+01,4.69000000000000E+01,5.06000000000000E+01,5.14000000000000E+01,4.89000000000000E+01,,,,,,,,,,,,
BOL,,,,,,,,,,,,,,,,,,,,,,,,,,,,,,,,,,,,,,,,5.65000000000000E+01,5.80000000000000E+01,6.03000000000000E+01,5.81000000000000E+01,,,,,,,,,
BRB,,,,,,,,,,,,,,,,,,,,,,,,,,,,,,,,5.96000000000000E+01,5.66000000000000E+01,5.81000000000000E+01,5.65000000000000E+01,5.71000000000000E+01,6.15000000000000E+01,6.20000000000000E+01,6.25000000000000E+01,6.04000000000000E+01,,,,,,,,,,,,
CAN,,,,,,,,,,,,,,,,,,,,,7.12000000000000E+01,7.09000000000000E+01,7.06000000000000E+01,6.96000000000000E+01,6.92000000000000E+01,7.04000000000000E+01,6.98000000000000E+01,7.04000000000000E+01,7.08000000000000E+01,7.05000000000000E+01,6.99000000000000E+01,6.93000000000000E+01,6.90000000000000E+01,6.83000000000000E+01,6.89000000000000E+01,6.88000000000000E+01,6.91000000000000E+01,6.99000000000000E+01,6.97000000000000E+01,6.96000000000000E+01,6.92000000000000E+01,6.89000000000000E+01,6.88000000000000E+01,6.88000000000000E+01,6.88000000000000E+01,6.86000000000000E+01,6.81000000000000E+01,6.80000000000000E+01,6.78000000000000E+01,6.75000000000000E+01,,
CHE,,,,,,,,,,,,,,,,,,,,,,,,,,,,,,,,8.24000000000000E+01,8.32000000000000E+01,8.30000000000000E+01,8.33000000000000E+01,8.38000000000000E+01,8.24000000000000E+01,8.34000000000000E+01,8.34000000000000E+01,8.26000000000000E+01,8.06000000000000E+01,8.01000000000000E+01,8.28000000000000E+01,8.22000000000000E+01,8.21000000000000E+01,8.26000000000000E+01,8.12000000000000E+01,8.13000000000000E+01,8.12000000000000E+01,8.11000000000000E+01,,
CHL,,,,,,,,,,,,,,,,,,,,,,,,,,,,,,,4.98000000000000E+01,,8.82000000000000E+01,,8.96000000000000E+01,,5.76000000000000E+01,5.80000000000000E+01,6.09000000000000E+01,5.48000000000000E+01,5.39000000000000E+01,5.17000000000000E+01,5.09000000000000E+01,5.26000000000000E+01,5.55000000000000E+01,5.38000000000000E+01,5.56000000000000E+01,5.69000000000000E+01,5.64000000000000E+01,5.60000000000000E+01,,
CRI,,,,,,,,,,,,,,,,,,,,,,,,,,,,,,,5.31000000000000E+01,5.56000000000000E+01,5.79000000000000E+01,5.64000000000000E+01,5.62000000000000E+01,5.44000000000000E+01,5.01000000000000E+01,5.72000000000000E+01,5.98000000000000E+01,5.87000000000000E+01,5.71000000000000E+01,5.93000000000000E+01,5.96000000000000E+01,5.82000000000000E+01,,,,,,,,
CYP,,,,,,,,,,,,,,,,,,,,,,,,,,,,,,,,,,,,,,,,6.92000000000000E+01,6.88000000000000E+01,6.62000000000000E+01,6.90000000000000E+01,6.54000000000000E+01,6.64000000000000E+01,6.81000000000000E+01,6.90000000000000E+01,6.65000000000000E+01,6.57000000000000E+01,6.61000000000000E+01,,
CZE,,,,,,,,,,,,,,,,,,,,,,,,,,,,,,,,,,6.88000000000000E+01,6.77000000000000E+01,7.02000000000000E+01,6.73000000000000E+01,6.91000000000000E+01,7.00000000000000E+01,7.09000000000000E+01,7.25000000000000E+01,7.20000000000000E+01,7.34000000000000E+01,7.19000000000000E+01,7.29000000000000E+01,7.28000000000000E+01,7.28000000000000E+01,7.23000000000000E+01,7.21000000000000E+01,6.87000000000000E+01,,
DEU,,,,,,,,,,,,,,,,,,,,,,,,9.01999969482000E+01,9.03000030518000E+01,9.03000030518000E+01,9.00000000000000E+01,9.05999984741000E+01,9.05000000000000E+01,8.95999984741000E+01,8.96999969482000E+01,8.94000000000000E+01,8.88000000000000E+01,8.85000000000000E+01,8.71000000000000E+01,8.63000000000000E+01,8.58000000000000E+01,8.51000000000000E+01,8.41000000000000E+01,8.41000000000000E+01,8.45000000000000E+01,8.46000000000000E+01,8.37000000000000E+01,8.33000000000000E+01,8.28000000000000E+01,8.14000000000000E+01,8.10000000000000E+01,8.08000000000000E+01,8.04000000000000E+01,8.04000000000000E+01,,
DMA,,,,,,,,,,,,,,,,,,,,,,,,,,,,,,,,,,,,,,6.46000000000000E+01,,,,,,,,,,,,,,
DNK,,,,,,,,,,,,,,,,,,,,,,,,8.10000000000000E+01,7.88000000000000E+01,7.83000000000000E+01,7.61000000000000E+01,7.49000000000000E+01,7.52000000000000E+01,7.43000000000000E+01,7.11000000000000E+01,7.10000000000000E+01,7.10000000000000E+01,7.02000000000000E+01,6.94000000000000E+01,6.81000000000000E+01,6.61000000000000E+01,6.46000000000000E+01,6.85000000000000E+01,6.85000000000000E+01,6.94000000000000E+01,6.60000000000000E+01,6.43000000000000E+01,6.50000000000000E+01,6.50000000000000E+01,6.40000000000000E+01,6.43000000000000E+01,6.31000000000000E+01,6.12000000000000E+01,6.23000000000000E+01,,
DOM,,,,,,,,,,,,,,,,,,,,,,,,,,,,,,,,,,,,,,,,,5.10000000000000E+01,5.22000000000000E+01,4.92000000000000E+01,4.98000000000000E+01,,,,,,,,
ECA,,,,,,,,,,,,,,,,,,,,,,,,,,,,,,,,,,,,,,,,,5.51101535232538E+01,6.35347136003987E+01,6.32664617352122E+01,6.30570645637767E+01,,,,,,,,
ECS,,,,,,,,,,,,,,,,,,,,,,,,,,,,,,,,,7.47764603102513E+01,7.33054901756444E+01,7.26843194753736E+01,7.29249452834282E+01,7.24781971550235E+01,7.17989335109733E+01,7.18385953446771E+01,6.85843942239182E+01,6.83008601029069E+01,7.17313592656230E+01,7.17419767378817E+01,7.15352072416450E+01,7.14125596359562E+01,7.11640442127724E+01,7.08034702026199E+01,7.08105303292272E+01,7.05224148432778E+01,7.26380138477182E+01,,
ECU,,,,,,,,,,,,,,,,,,,,,,,,,,,,,,,5.96000000000000E+01,6.16000000000000E+01,,,6.48000000000000E+01,6.52000000000000E+01,,,6.11000000000000E+01,5.85000000000000E+01,5.64000000000000E+01,6.02000000000000E+01,5.59000000000000E+01,,,,,,,,,
EMU,,,,,,,,,,,,,,,,,,,,,,,,,,,,,,,,7.90312511091810E+01,7.89432940898867E+01,7.88941557848248E+01,7.82706543142677E+01,7.80591221535733E+01,7.78919627016593E+01,7.76175374424069E+01,7.73389166135961E+01,7.75040204741920E+01,7.77863118387539E+01,7.83061277304914E+01,7.85612896141892E+01,7.86718475760793E+01,7.88398920634866E+01,7.82845112088982E+01,7.80976130525142E+01,7.83593983636082E+01,7.78718716550590E+01,7.75536487061589E+01,,
ESP,,,,,,,,,,,,,,,,,,,,,,,,,,,,7.25000000000000E+01,7.46000000000000E+01,7.77000000000000E+01,7.92000000000000E+01,7.84000000000000E+01,7.83000000000000E+01,7.69000000000000E+01,7.55000000000000E+01,7.72000000000000E+01,7.49000000000000E+01,7.52000000000000E+01,7.57000000000000E+01,7.68000000000000E+01,7.85000000000000E+01,7.90000000000000E+01,8.00000000000000E+01,8.07000000000000E+01,8.06000000000000E+01,7.92000000000000E+01,7.95000000000000E+01,8.04000000000000E+01,8.06000000000000E+01,7.93000000000000E+01,,
EST,,,,,,,,,,,,,,,,,,,,,,,,,,,,,,,,,,,,6.37999992371000E+01,,6.01000000000000E+01,6.76000000000000E+01,6.27000000000000E+01,6.91000000000000E+01,6.77000000000000E+01,6.97000000000000E+01,6.78000000000000E+01,6.76000000000000E+01,7.00000000000000E+01,7.55000000000000E+01,7.37000000000000E+01,7.09000000000000E+01,6.81000000000000E+01,,
ETH,,,,,,,,,,,,,,,,,,,,,,,,,,,,,,,,,,,,,,,,,,,,,5.62000000000000E+01,,,,,,,
EUU,,,,,,,,,,,,,,,,,,,,,,,,,,,,,,,,7.99884851727987E+01,7.96982176546915E+01,7.85492522552812E+01,7.67180235885271E+01,7.60937518147144E+01,7.55197056724319E+01,7.44409953824094E+01,7.43291036057560E+01,7.44990848620389E+01,7.48249207362644E+01,7.51358203638366E+01,7.54147084728902E+01,7.53693569521454E+01,7.53064974794679E+01,7.48789995725791E+01,7.47747236355358E+01,7.48157240572742E+01,7.43547386626906E+01,7.40530227079051E+01,,
FIN,,,,,,,,,,,,,,,,,,,,,,,,,,,,,,6.67000000000000E+01,6.70000000000000E+01,6.40000000000000E+01,6.38000000000000E+01,6.26000000000000E+01,6.28000000000000E+01,6.46000000000000E+01,6.42000000000000E+01,6.37000000000000E+01,6.36000000000000E+01,6.49000000000000E+01,6.38000000000000E+01,6.34000000000000E+01,6.46000000000000E+01,6.35000000000000E+01,6.33000000000000E+01,6.36000000000000E+01,6.29000000000000E+01,6.37000000000000E+01,6.30000000000000E+01,6.36000000000000E+01,,
FRA,,,,,,,,,,,,,,,,,,,,,,,,8.02000000000000E+01,7.88000000000000E+01,7.73000000000000E+01,7.68000000000000E+01,7.64000000000000E+01,7.75000000000000E+01,7.71000000000000E+01,7.86000000000000E+01,7.88000000000000E+01,7.88000000000000E+01,7.90000000000000E+01,7.86000000000000E+01,7.79000000000000E+01,7.74000000000000E+01,7.79000000000000E+01,7.79000000000000E+01,7.82000000000000E+01,7.88000000000000E+01,7.96000000000000E+01,8.05000000000000E+01,8.07000000000000E+01,8.03000000000000E+01,7.95000000000000E+01,7.98000000000000E+01,8.04000000000000E+01,7.97000000000000E+01,7.98000000000000E+01,,
GBR,,,,,,,,,,,,,,,,,,,,,,,,8.93000000000000E+01,8.75000000000000E+01,8.71000000000000E+01,8.69000000000000E+01,8.55000000000000E+01,8.47000000000000E+01,8.62000000000000E+01,8.51000000000000E+01,8.51000000000000E+01,8.41000000000000E+01,8.35000000000000E+01,8.27000000000000E+01,8.17000000000000E+01,8.13000000000000E+01,8.02000000000000E+01,8.02000000000000E+01,7.94000000000000E+01,7.94000000000000E+01,7.98000000000000E+01,7.94000000000000E+01,7.86000000000000E+01,7.86000000000000E+01,7.76000000000000E+01,7.74000000000000E+01,7.70000000000000E+01,7.61000000000000E+01,7.58000000000000E+01,,
GEO,,,,,,,,,,,,,,,,,,,,,,,,,,,,,,,,,,,,,,,,,,,,5.56000000000000E+01,5.61000000000000E+01,,,,,,,
GRC,,,,,,,,,,,,,,,,,,,,,,,,5.84000000000000E+01,5.79000000000000E+01,6.23000000000000E+01,5.90000000000000E+01,6.32000000000000E+01,6.21000000000000E+01,6.16000000000000E+01,6.08000000000000E+01,5.94000000000000E+01,5.94000000000000E+01,6.03000000000000E+01,5.91000000000000E+01,6.13000000000000E+01,6.25000000000000E+01,6.26000000000000E+01,6.31000000000000E+01,6.39000000000000E+01,6.54000000000000E+01,6.64000000000000E+01,6.76000000000000E+01,6.81000000000000E+01,6.84000000000000E+01,6.86000000000000E+01,6.70000000000000E+01,6.76000000000000E+01,6.74000000000000E+01,6.77000000000000E+01,,
GRD,,,,,,,,,,,,,,,,,,,,,,,,,,,,,,,,,,,4.30000000000000E+01,,4.95000000000000E+01,,4.56000000000000E+01,,,,,,,,,,,,,
GTM,,,,,,,,,,,,,,,,,,,,,,,,,,,,,,,,,,,,,,,6.76000000000000E+01,,7.04000000000000E+01,,6.40000000000000E+01,6.99000000000000E+01,,,,,,,,
HIC,,,,,,,,,,,,,,,,,,,,,,,,,,,,,,,,7.35456096745116E+01,7.32132838036862E+01,7.29208173971388E+01,7.30385423321507E+01,7.25465478737783E+01,7.30334818222237E+01,7.21695142806244E+01,7.17054767684560E+01,7.16602374720190E+01,7.15324456561430E+01,7.19601787613632E+01,7.21220998619919E+01,7.23450100149661E+01,7.22122688015034E+01,7.20913200693060E+01,7.19050511299335E+01,7.19854745981962E+01,7.13491909218482E+01,7.08293894673431E+01,,
HND,,,,,,,,,,,,,,,,,,,,,,,,,,,,,,,5.93000000000000E+01,6.26000000000000E+01,5.68000000000000E+01,,5.87000000000000E+01,5.70000000000000E+01,5.97000000000000E+01,6.16000000000000E+01,6.04000000000000E+01,6.35000000000000E+01,,5.72000000000000E+01,5.58000000000000E+01,5.30000000000000E+01,,,,,,,,
HRV,,,,,,,,,,,,,,,,,,,,,,,,,,,,,,,,,,,,,,,,,,,5.55000000000000E+01,5.85000000000000E+01,5.67000000000000E+01,5.99000000000000E+01,5.64000000000000E+01,5.85000000000000E+01,5.81000000000000E+01,5.88000000000000E+01,,
HUN,,,,,,,,,,,,,,,,,,,,,,,,,,,,,,,,,,,,6.77000000000000E+01,6.94000000000000E+01,7.13000000000000E+01,7.02000000000000E+01,6.86000000000000E+01,7.12000000000000E+01,6.84000000000000E+01,6.99000000000000E+01,6.90000000000000E+01,6.78000000000000E+01,7.04000000000000E+01,7.05000000000000E+01,6.86000000000000E+01,6.47000000000000E+01,6.50000000000000E+01,,
IDN,,,,,,,,,,,,,,,,,,,,,,,,,,,,,,,,,,,,,4.65000000000000E+01,4.68000000000000E+01,4.55000000000000E+01,4.52000000000000E+01,4.65000000000000E+01,4.68000000000000E+01,4.36000000000000E+01,4.43000000000000E+01,,,,,,,,
IRL,,,,,,,,,,,,,,,,,,,,,,,,6.98000000000000E+01,6.82000000000000E+01,7.10000000000000E+01,6.86000000000000E+01,6.86000000000000E+01,6.75000000000000E+01,7.02000000000000E+01,7.03000000000000E+01,6.98000000000000E+01,7.14000000000000E+01,7.10000000000000E+01,7.03000000000000E+01,7.08000000000000E+01,7.22000000000000E+01,7.18000000000000E+01,7.20000000000000E+01,7.41000000000000E+01,7.44000000000000E+01,7.65000000000000E+01,7.92000000000000E+01,7.89000000000000E+01,8.05000000000000E+01,8.05000000000000E+01,7.96000000000000E+01,7.99000000000000E+01,7.90000000000000E+01,7.68000000000000E+01,,
ISL,,,,,,,,,,,,,,,,,,,,,,,,,,,,,,,,8.16000000000000E+01,8.16000000000000E+01,7.97000000000000E+01,7.83000000000000E+01,7.85000000000000E+01,7.83000000000000E+01,7.58000000000000E+01,7.74000000000000E+01,7.71000000000000E+01,7.70000000000000E+01,7.45000000000000E+01,7.31000000000000E+01,7.46000000000000E+01,7.50000000000000E+01,7.62000000000000E+01,7.42000000000000E+01,7.27000000000000E+01,7.12000000000000E+01,7.00000000000000E+01,,
ISR,,,,,,,,,,,,,,,,,,,,,,,,,,,,,,,,,,,,7.39000000000000E+01,7.29000000000000E+01,7.41000000000000E+01,7.43000000000000E+01,7.36000000000000E+01,7.45000000000000E+01,7.38000000000000E+01,7.36000000000000E+01,7.31000000000000E+01,7.24000000000000E+01,7.47000000000000E+01,7.39000000000000E+01,7.33000000000000E+01,,,,
ITA,,,,,,,,,,,,,,,,,,,,,,,,6.68000000000000E+01,6.77000000000000E+01,6.74000000000000E+01,6.78000000000000E+01,6.83000000000000E+01,6.89000000000000E+01,7.04000000000000E+01,7.05000000000000E+01,7.12000000000000E+01,6.92000000000000E+01,7.10000000000000E+01,7.26000000000000E+01,7.08000000000000E+01,7.15000000000000E+01,7.10000000000000E+01,7.19000000000000E+01,7.15000000000000E+01,7.05000000000000E+01,7.26000000000000E+01,7.39000000000000E+01,7.47000000000000E+01,7.76000000000000E+01,7.82000000000000E+01,7.77000000000000E+01,7.81000000000000E+01,7.70000000000000E+01,7.76000000000000E+01,,
JPN,,,,,,,,,,,,,,,,,,,,,,,,,,,,,,,,,,,,7.01000000000000E+01,,,,,6.97000000000000E+01,,7.13000000000000E+01,7.10000000000000E+01,7.14000000000000E+01,7.18000000000000E+01,7.24000000000000E+01,7.15000000000000E+01,7.04000000000000E+01,6.99000000000000E+01,,
KOR,,,,,,,,,,,,,,,,,,,,,,,,,,,,,,5.72000000000000E+01,5.87000000000000E+01,6.03000000000000E+01,6.18000000000000E+01,6.15000000000000E+01,6.13000000000000E+01,6.16000000000000E+01,6.39000000000000E+01,6.29000000000000E+01,5.52000000000000E+01,5.55000000000000E+01,5.77000000000000E+01,5.88000000000000E+01,5.83000000000000E+01,5.94000000000000E+01,5.90000000000000E+01,5.79000000000000E+01,5.85000000000000E+01,5.89000000000000E+01,5.90000000000000E+01,5.93000000000000E+01,,
LKA,,,,,,,,,,,,,,,,,,,,,,,,,,,,,,,,,,,,,3.63000000000000E+01,,,3.89000000000000E+01,,,,3.71000000000000E+01,,,,,,,,
LTU,,,,,,,,,,,,,,,,,,,,,,,,,,,,,,,,,,,,,,,5.50000000000000E+01,,5.70000000000000E+01,5.80000000000000E+01,5.52000000000000E+01,6.10000000000000E+01,5.92000000000000E+01,6.33000000000000E+01,6.01000000000000E+01,5.87000000000000E+01,6.33000000000000E+01,5.96000000000000E+01,,
LUX,,,,,,,,,,,,,,,,,,,,,,,,8.82000000000000E+01,8.64000000000000E+01,8.67000000000000E+01,8.64000000000000E+01,8.77000000000000E+01,8.83000000000000E+01,8.64000000000000E+01,8.66000000000000E+01,8.99000000000000E+01,8.58000000000000E+01,8.74000000000000E+01,8.86000000000000E+01,8.90000000000000E+01,8.67000000000000E+01,8.88000000000000E+01,8.67000000000000E+01,9.13000000000000E+01,9.00000000000000E+01,9.07000000000000E+01,8.98000000000000E+01,9.22000000000000E+01,9.19000000000000E+01,9.32000000000000E+01,9.31000000000000E+01,9.39000000000000E+01,9.26000000000000E+01,8.12000000000000E+01,,
LVA,,,,,,,,,,,,,,,,,,,,,,,,,,,,,,,,,,,,4.83000000000000E+01,4.91000000000000E+01,5.15000000000000E+01,5.00000000000000E+01,5.18000000000000E+01,5.42000000000000E+01,6.03000000000000E+01,6.00000000000000E+01,6.67000000000000E+01,6.16000000000000E+01,6.10000000000000E+01,6.30000000000000E+01,6.07000000000000E+01,6.33000000000000E+01,5.92000000000000E+01,,
MAC,,,,,,,,,,,,,,,,,,,,,,,,,,,,,,,,,,,,,4.67000000000000E+01,4.67000000000000E+01,4.44000000000000E+01,4.29000000000000E+01,4.62000000000000E+01,4.74000000000000E+01,4.58000000000000E+01,4.67000000000000E+01,4.78000000000000E+01,,,,,,,
MDG,,,,,,,,,,,,,,,,,,,,,,,,,,,,,,,,,,,,,,,,,,5.93000000000000E+01,,,,,,,,,,
MEX,,,,,,,,,,,,,,,,,,,,,,,,,,,,,,,5.53000000000000E+01,5.44000000000000E+01,5.69000000000000E+01,5.61000000000000E+01,,6.13000000000000E+01,6.23000000000000E+01,6.40000000000000E+01,6.38000000000000E+01,6.54000000000000E+01,6.51000000000000E+01,6.38000000000000E+01,6.56000000000000E+01,6.57000000000000E+01,6.51000000000000E+01,,,,,,,
MKD,,,,,,,,,,,,,,,,,,,,,,,,,,,,,,,,,,,,,,,3.70000000000000E+01,,4.24000000000000E+01,,,4.32000000000000E+01,,,4.40000000000000E+01,4.17000000000000E+01,5.07000000000000E+01,4.74000000000000E+01,,
MLT,,,,,,,,,,,,,,,,,,,,,,,,,,,,,,,,,,,,,,,,,6.34000000000000E+01,6.64000000000000E+01,6.64000000000000E+01,6.83000000000000E+01,6.53000000000000E+01,6.78000000000000E+01,6.56000000000000E+01,7.24000000000000E+01,7.39000000000000E+01,6.96000000000000E+01,,
MUS,,,,,,,,,,,,,,,,,,,,,,,,,,,,,,,,,,,,,,,,4.20000000000000E+01,,,,,4.44000000000000E+01,,,,,,,
NAC,,,,,,,,,,,,,,,,,,,,,,,,,,,,,,,,6.78582811264499E+01,6.73747212657199E+01,6.73055381806380E+01,6.84476524019654E+01,6.87095013614467E+01,6.89188766346054E+01,6.85412928446521E+01,6.83423028125402E+01,6.84243366102075E+01,6.82061178115423E+01,6.76363634876548E+01,6.83498817176155E+01,6.88000000000000E+01,6.83511154664787E+01,6.84203984597645E+01,6.78305820926211E+01,6.83586801439145E+01,6.75314311569736E+01,6.66080951338182E+01,,
NIC,,,,,,,,,,,,,,,,,,,,,,,,,,,,,,,,,,5.32000000000000E+01,,5.76000000000000E+01,5.24000000000000E+01,5.58000000000000E+01,5.82000000000000E+01,6.01000000000000E+01,,5.95000000000000E+01,5.78000000000000E+01,5.59000000000000E+01,,,,,,,,
NLD,,,,,,,,,,,,,,,,,,,,,,,,7.96000000000000E+01,,7.93000000000000E+01,,6.95000000000000E+01,6.99000000000000E+01,7.05000000000000E+01,7.04000000000000E+01,7.05000000000000E+01,7.54000000000000E+01,7.65000000000000E+01,7.68000000000000E+01,7.62000000000000E+01,7.72000000000000E+01,7.76000000000000E+01,7.58000000000000E+01,7.74000000000000E+01,7.62000000000000E+01,7.63000000000000E+01,7.62000000000000E+01,7.61000000000000E+01,7.61000000000000E+01,7.63000000000000E+01,7.59000000000000E+01,7.55000000000000E+01,7.56000000000000E+01,7.50000000000000E+01,,
NOR,,,,,,,,,,,,,,,,,,,,,,,,,,,,,,8.39000000000000E+01,8.27000000000000E+01,8.21000000000000E+01,8.10000000000000E+01,8.08000000000000E+01,8.06000000000000E+01,8.07000000000000E+01,7.97000000000000E+01,8.01000000000000E+01,7.96000000000000E+01,7.88000000000000E+01,7.70000000000000E+01,7.60000000000000E+01,7.62000000000000E+01,7.52000000000000E+01,7.41000000000000E+01,7.46000000000000E+01,7.35000000000000E+01,7.29000000000000E+01,7.17000000000000E+01,7.08000000000000E+01,,
NZL,,,,,,,,,,,,,,,,,,,,,,,,,,,8.00000000000000E+01,7.90000000000000E+01,7.95000000000000E+01,7.77000000000000E+01,7.74000000000000E+01,7.51000000000000E+01,7.45000000000000E+01,7.50000000000000E+01,7.60000000000000E+01,7.47000000000000E+01,7.51000000000000E+01,7.43000000000000E+01,7.45000000000000E+01,7.36000000000000E+01,7.32000000000000E+01,7.36000000000000E+01,7.29000000000000E+01,7.38000000000000E+01,7.38000000000000E+01,7.52000000000000E+01,7.48000000000000E+01,7.30000000000000E+01,7.28000000000000E+01,7.19000000000000E+01,,
OEC,,,,,,,,,,,,,,,,,,,,,,,,,,,,,,,,7.35994521598977E+01,7.32691395146625E+01,7.29764301276576E+01,7.30954359539407E+01,7.25917430673650E+01,7.31042742328915E+01,7.22339559506876E+01,7.17652673966249E+01,7.17234881961645E+01,7.15794737730670E+01,7.20221970420628E+01,7.22381578254760E+01,7.24165330492051E+01,7.22908633953326E+01,7.21421544867531E+01,7.19674946352601E+01,7.20414326312370E+01,7.14044882024979E+01,7.08811570832278E+01,,
OED,,,,,,,,,,,,,,,,,,,,,,,,,,,,,,,,7.18489027331767E+01,7.15889069053244E+01,7.06121342332945E+01,7.26702471129881E+01,7.11768844253446E+01,7.14692726728580E+01,7.06881251541566E+01,7.04213290864106E+01,7.05127008832676E+01,7.02283301641052E+01,7.06200134951715E+01,7.09558475902482E+01,7.10713900281980E+01,7.09866943474486E+01,7.13769485418971E+01,7.11924148287561E+01,7.13178634021733E+01,7.06509613879461E+01,7.01507435887494E+01,,
PAK,,,,,,,,,,,,,,,,,,,,,,,,,,,,,,,,,,,,,,,,,,,,5.21000000000000E+01,,,,,,,,
PAN,,,,,,,,,,,,,,,,,,,,,,,,,,,,,,,,4.52000000000000E+01,4.69000000000000E+01,4.77000000000000E+01,4.13000000000000E+01,4.84000000000000E+01,4.85000000000000E+01,4.94000000000000E+01,4.82000000000000E+01,5.02000000000000E+01,4.82000000000000E+01,3.82000000000000E+01,4.29000000000000E+01,4.23000000000000E+01,4.65000000000000E+01,,,,,,,
POL,,,,,,,,,,,,,,,,,,,,,,,,,,,,,,,,,,,,,,6.11000000000000E+01,6.22000000000000E+01,6.12000000000000E+01,6.17000000000000E+01,6.47000000000000E+01,6.50000000000000E+01,6.62000000000000E+01,6.57000000000000E+01,6.65000000000000E+01,6.70000000000000E+01,6.70000000000000E+01,6.81000000000000E+01,6.84000000000000E+01,,
PRT,,,,,,,,,,,,,,,,,,,,,,,,,,,7.10000000000000E+01,7.12000000000000E+01,7.16000000000000E+01,7.29000000000000E+01,7.03000000000000E+01,7.08000000000000E+01,7.30000000000000E+01,7.26000000000000E+01,7.13000000000000E+01,7.53000000000000E+01,7.29000000000000E+01,7.26000000000000E+01,7.09000000000000E+01,7.05000000000000E+01,7.15000000000000E+01,6.99000000000000E+01,6.78000000000000E+01,6.76000000000000E+01,6.71000000000000E+01,6.83000000000000E+01,6.61000000000000E+01,6.64000000000000E+01,6.81000000000000E+01,6.77000000000000E+01,,
PRY,,,,,,,,,,,,,,,,,,,,,,,,,,,,,,,5.69000000000000E+01,6.51000000000000E+01,6.33000000000000E+01,5.98000000000000E+01,6.73000000000000E+01,5.71000000000000E+01,,5.85000000000000E+01,,5.91000000000000E+01,5.94000000000000E+01,,5.78000000000000E+01,5.00000000000000E+01,,,,,,,,
ROM,,,,,,,,,,,,,,,,,,,,,,,,,,,,,,,,,,,6.01000000000000E+01,6.14000000000000E+01,5.47000000000000E+01,5.62000000000000E+01,5.55000000000000E+01,5.53000000000000E+01,5.38000000000000E+01,5.37000000000000E+01,5.20000000000000E+01,4.98000000000000E+01,4.88000000000000E+01,4.68000000000000E+01,4.65000000000000E+01,4.82000000000000E+01,4.92000000000000E+01,4.88000000000000E+01,,
RUS,,,,,,,,,,,,,,,,,,,,,,,,,,,,,,,,,6.65000000000000E+01,6.54000000000000E+01,6.50000000000000E+01,6.76000000000000E+01,6.61000000000000E+01,6.68000000000000E+01,6.66000000000000E+01,5.01000000000000E+01,5.03000000000000E+01,6.39000000000000E+01,6.32000000000000E+01,6.37000000000000E+01,6.34000000000000E+01,6.27000000000000E+01,6.20000000000000E+01,6.16000000000000E+01,6.19000000000000E+01,,,
SLV,,,,,,,,,,,,,,,,,,,,,,,,,,,,,,,,,,5.43000000000000E+01,5.43000000000000E+01,5.19000000000000E+01,,5.26000000000000E+01,4.96000000000000E+01,6.70000000000000E+01,5.44000000000000E+01,5.19000000000000E+01,5.04000000000000E+01,4.90000000000000E+01,,,,,,,,
SUR,,,,,,,,,,,,,,,,,,,,,,,,,,,,,,,,,,6.75000000000000E+01,6.09000000000000E+01,6.63000000000000E+01,6.09000000000000E+01,5.72000000000000E+01,5.93000000000000E+01,,,,,,,,,,,,,
SVK,,,,,,,,,,,,,,,,,,,,,,,,,,,,,,,,,,,7.20000000000000E+01,7.24000000000000E+01,7.19000000000000E+01,7.35000000000000E+01,7.16000000000000E+01,7.28000000000000E+01,7.06000000000000E+01,6.82000000000000E+01,6.61000000000000E+01,6.91000000000000E+01,6.90000000000000E+01,6.92000000000000E+01,7.00000000000000E+01,7.40000000000000E+01,6.71000000000000E+01,5.90000000000000E+01,,
SVN,,,,,,,,,,,,,,,,,,,,,,,,,,,,,,,,,,5.32999992371000E+01,5.15999984741000E+01,4.55000000000000E+01,5.93000000000000E+01,5.61000000000000E+01,5.30000000000000E+01,5.43000000000000E+01,5.85000000000000E+01,5.57000000000000E+01,5.66000000000000E+01,5.57000000000000E+01,5.37000000000000E+01,5.75000000000000E+01,5.71000000000000E+01,5.62000000000000E+01,5.83000000000000E+01,5.73000000000000E+01,,
SWE,,,,,,,,,,,,,,,,,,,,,,,,,,,,8.48000000000000E+01,8.32000000000000E+01,8.19000000000000E+01,8.11000000000000E+01,8.04000000000000E+01,7.91000000000000E+01,7.80000000000000E+01,7.68000000000000E+01,7.68000000000000E+01,7.65000000000000E+01,7.63000000000000E+01,7.81000000000000E+01,7.37000000000000E+01,7.29000000000000E+01,7.27000000000000E+01,7.18000000000000E+01,7.08000000000000E+01,6.95000000000000E+01,6.71000000000000E+01,6.73000000000000E+01,6.50000000000000E+01,6.46000000000000E+01,6.42000000000000E+01,,
THA,,,,,,,,,,,,,,,,,,,,,,,,,,,,,,,,,,,,5.23000000000000E+01,5.09000000000000E+01,4.96000000000000E+01,4.95000000000000E+01,4.86000000000000E+01,4.76000000000000E+01,,,,,,,,,,,
TTO,,,,,,,,,,,,,,,,,,,,,,,,,,,,,,,,3.82000000000000E+01,3.76000000000000E+01,3.82000000000000E+01,3.88000000000000E+01,4.01000000000000E+01,3.99000000000000E+01,4.22000000000000E+01,4.60000000000000E+01,4.63000000000000E+01,4.56000000000000E+01,4.77000000000000E+01,4.49000000000000E+01,,,,,,,,,
TUR,,,,,,,,,,,,,,,,,,,,,,,,,,,,,6.10000000000000E+01,6.43000000000000E+01,6.19000000000000E+01,7.09000000000000E+01,6.40000000000000E+01,5.51000000000000E+01,6.10000000000000E+01,5.88000000000000E+01,6.32000000000000E+01,5.86000000000000E+01,6.13000000000000E+01,6.26000000000000E+01,5.54000000000000E+01,6.24000000000000E+01,5.86000000000000E+01,5.69000000000000E+01,5.85000000000000E+01,5.96000000000000E+01,5.85000000000000E+01,5.96000000000000E+01,5.87000000000000E+01,5.84000000000000E+01,,
UKR,,,,,,,,,,,,,,,,,,,,,,,,,,,,,,,,,,,,,,,,,7.08000000000000E+01,7.16000000000000E+01,7.45000000000000E+01,7.61000000000000E+01,,,,,,,,
URY,,,,,,,,,,,,,,,,,,,,,,,,,,,,,,,,,,,,6.48000000000000E+01,,,,,6.27000000000000E+01,,,,5.93000000000000E+01,,,,,,,
USA,,,,,,,,,,,,,,,,,,,,,6.84000000000000E+01,6.88000000000000E+01,6.84000000000000E+01,6.81000000000000E+01,6.90000000000000E+01,6.86000000000000E+01,6.86000000000000E+01,6.83000000000000E+01,6.84000000000000E+01,6.87000000000000E+01,6.82000000000000E+01,6.77000000000000E+01,6.72000000000000E+01,6.72000000000000E+01,6.84000000000000E+01,6.87000000000000E+01,6.89000000000000E+01,6.84000000000000E+01,6.82000000000000E+01,6.83000000000000E+01,6.81000000000000E+01,6.75000000000000E+01,6.83000000000000E+01,6.88000000000000E+01,6.83000000000000E+01,6.84000000000000E+01,6.78000000000000E+01,6.84000000000000E+01,6.75000000000000E+01,6.65000000000000E+01,,
VEN,,,,,,,,,,,,,,,,,,,,,,,,,,,,,,,,,,,6.57000000000000E+01,6.44000000000000E+01,6.52000000000000E+01,6.75000000000000E+01,6.84000000000000E+01,6.07000000000000E+01,5.86000000000000E+01,5.88000000000000E+01,5.80000000000000E+01,5.67000000000000E+01,,,,,,,,
ZAF,,,,,,,,,,,,,,,,,,,,,,,,,,,,,,,,,,,,,,,,5.92000000000000E+01,,,,,,,,,,,,
ZWE,,,,,,,,,,,,,,,,,,,,,,,,,,,,,,,,,,,,,,,,6.57000000000000E+01,,,,,,,,,,,,
