"Country Code",1960,1961,1962,1963,1964,1965,1966,1967,1968,1969,1970,1971,1972,1973,1974,1975,1976,1977,1978,1979,1980,1981,1982,1983,1984,1985,1986,1987,1988,1989,1990,1991,1992,1993,1994,1995,1996,1997,1998,1999,2000,2001,2002,2003,2004,2005,2006,2007,2008,2009,2010,2011ABW,,,,,,,,,,,,,,,,,,,,,,,,,,,,,,,,,,,3.40000000000000E+00,,,,,,,,,,,,,,,,,
ALB,,,,,,,,,,,,,,,,,,,,,,,,,,,,,,,,,,,,,,,,,,4.61000000000000E+01,,,,,,,,,,
ARG,,,,,,,,,,,,,,,,,,,,,,,,,,,,,,,,,,,,,,,1.18000000000000E+01,1.23000000000000E+01,1.34000000000000E+01,1.49000000000000E+01,1.99000000000000E+01,1.92000000000000E+01,2.51000000000000E+01,,,,,,,
AUS,,,,,,,,,,,,,,,,,,,,,,,,,,,,,,,,,,,,,,,,,,1.19000000000000E+01,1.20000000000000E+01,1.22000000000000E+01,1.20000000000000E+01,1.20000000000000E+01,1.22000000000000E+01,1.23000000000000E+01,1.23000000000000E+01,1.32000000000000E+01,,
AUT,,,,,,,,,,,,,,,,,,,,,,,,,,,,,,,,,,,,3.10000000000000E+00,2.60000000000000E+00,2.60000000000000E+00,2.70000000000000E+00,2.80000000000000E+00,2.60000000000000E+00,2.70000000000000E+00,2.90000000000000E+00,3.10000000000000E+00,3.80000000000000E+00,4.80000000000000E+00,5.10000000000000E+00,5.60000000000000E+00,6.30000000000000E+00,6.70000000000000E+00,,
AZE,,,,,,,,,,,,,,,,,,,,,,,,,,,,,,,,,,,,,,,,,,,,1.33000000000000E+01,,,,,,,,
BEL,,,,,,,,,,,,,,,,,,,,,,,,3.10000000000000E+00,3.60000000000000E+00,4.00000000000000E+00,3.90000000000000E+00,4.20000000000000E+00,4.50000000000000E+00,3.90000000000000E+00,4.40000000000000E+00,4.70000000000000E+00,3.90000000000000E+00,4.30000000000000E+00,4.40000000000000E+00,4.30000000000000E+00,4.40000000000000E+00,4.40000000000000E+00,4.70000000000000E+00,7.30000000000000E+00,7.10000000000000E+00,5.70000000000000E+00,5.80000000000000E+00,6.20000000000000E+00,6.40000000000000E+00,6.70000000000000E+00,6.20000000000000E+00,6.40000000000000E+00,6.30000000000000E+00,6.60000000000000E+00,,
BGR,,,,,,,,,,,,,,,,,,,,,,,,,,,,,,,,,,2.29999995230000E+00,1.79999995230000E+00,1.10000002380000E+00,8.00000011900000E-01,5.00000000000000E-01,6.00000023800000E-01,4.00000006000000E-01,,2.80000000000000E+00,2.20000000000000E+00,1.80000000000000E+00,2.50000000000000E+00,1.60000000000000E+00,1.40000000000000E+00,1.30000000000000E+00,2.00000000000000E+00,2.00000000000000E+00,,
BHS,,,,,,,,,,,,,,,,,,,,,,,,,,,,,,,,1.35000000000000E+01,1.12000000000000E+01,1.15000000000000E+01,9.50000000000000E+00,1.29000000000000E+01,1.13000000000000E+01,1.03000000000000E+01,1.12000000000000E+01,1.17000000000000E+01,,7.40000000000000E+00,9.60000000000000E+00,,,,,,,,,
BLZ,,,,,,,,,,,,,,,,,,,,,,,,,,,,,,,,,,1.33000000000000E+01,1.12000000000000E+01,2.37000000000000E+01,1.28000000000000E+01,1.22000000000000E+01,1.02000000000000E+01,1.20000000000000E+01,,,,,,,,,,,,
BOL,,,,,,,,,,,,,,,,,,,,,,,,,,,,,,,,,,,,,,,,1.70000000000000E+01,1.44000000000000E+01,2.04000000000000E+01,1.71000000000000E+01,,,,,,,,,
BRB,,,,,,,,,,,,,,,,,,,,,,,,,,,,,,,,3.20000000000000E+00,4.20000000000000E+00,4.80000000000000E+00,4.80000000000000E+00,4.70000000000000E+00,9.70000000000000E+00,8.00000000000000E+00,7.00000000000000E+00,8.30000000000000E+00,,,,,,,,,,,,
CAN,,,,,,,,,,,,,,,,,,,,,6.80000000000000E+00,7.20000000000000E+00,8.00000000000000E+00,8.70000000000000E+00,8.90000000000000E+00,8.80000000000000E+00,8.90000000000000E+00,8.60000000000000E+00,8.70000000000000E+00,8.70000000000000E+00,9.20000000000000E+00,1.01000000000000E+01,1.05000000000000E+01,1.11000000000000E+01,1.08000000000000E+01,1.08000000000000E+01,1.08000000000000E+01,1.05000000000000E+01,1.05000000000000E+01,1.03000000000000E+01,1.03000000000000E+01,1.05000000000000E+01,1.10000000000000E+01,1.11000000000000E+01,1.09000000000000E+01,1.08000000000000E+01,1.09000000000000E+01,1.10000000000000E+01,1.13000000000000E+01,1.19000000000000E+01,,
CHE,,,,,,,,,,,,,,,,,,,,,,,,,,,,,,,,6.80000000000000E+00,6.70000000000000E+00,6.90000000000000E+00,6.80000000000000E+00,6.50000000000000E+00,7.30000000000000E+00,7.10000000000000E+00,7.20000000000000E+00,7.70000000000000E+00,8.40000000000000E+00,8.90000000000000E+00,7.80000000000000E+00,8.10000000000000E+00,8.10000000000000E+00,8.00000000000000E+00,8.80000000000000E+00,8.70000000000000E+00,9.00000000000000E+00,9.20000000000000E+00,,
CHL,,,,,,,,,,,,,,,,,,,,,,,,,,,,,,,6.20000000000000E+00,,6.80000000000000E+00,,7.90000000000000E+00,,2.70000000000000E+00,2.80000000000000E+00,2.30000000000000E+00,3.00000000000000E+00,3.10000000000000E+00,3.80000000000000E+00,3.60000000000000E+00,3.80000000000000E+00,4.20000000000000E+00,4.80000000000000E+00,5.00000000000000E+00,5.20000000000000E+00,6.00000000000000E+00,7.10000000000000E+00,,
CRI,,,,,,,,,,,,,,,,,,,,,,,,,,,,,,,7.20000000000000E+00,8.70000000000000E+00,6.30000000000000E+00,7.20000000000000E+00,7.50000000000000E+00,8.10000000000000E+00,8.70000000000000E+00,8.40000000000000E+00,8.50000000000000E+00,8.50000000000000E+00,8.20000000000000E+00,9.50000000000000E+00,9.40000000000000E+00,9.80000000000000E+00,,,,,,,,
CYP,,,,,,,,,,,,,,,,,,,,,,,,,,,,,,,,,,,,,,,,3.40000000000000E+00,4.50000000000000E+00,5.10000000000000E+00,4.00000000000000E+00,5.50000000000000E+00,5.20000000000000E+00,5.00000000000000E+00,4.20000000000000E+00,4.40000000000000E+00,4.80000000000000E+00,5.10000000000000E+00,,
CZE,,,,,,,,,,,,,,,,,,,,,,,,,,,,,,,,,,2.00000000000000E+00,2.10000000000000E+00,1.80000000000000E+00,2.00000000000000E+00,1.90000000000000E+00,1.70000000000000E+00,1.70000000000000E+00,1.60000000000000E+00,1.60000000000000E+00,1.40000000000000E+00,1.60000000000000E+00,1.50000000000000E+00,1.60000000000000E+00,1.60000000000000E+00,1.70000000000000E+00,1.70000000000000E+00,2.10000000000000E+00,,
DEU,,,,,,,,,,,,,,,,,,,,,,,,2.09999990460000E+00,1.70000004770000E+00,1.70000004770000E+00,1.79999995230000E+00,1.70000004770000E+00,1.79999995230000E+00,2.00000000000000E+00,2.29999995230000E+00,2.20000000000000E+00,2.40000000000000E+00,2.50000000000000E+00,3.00000000000000E+00,3.40000000000000E+00,3.70000000000000E+00,4.10000000000000E+00,4.60000000000000E+00,4.80000000000000E+00,4.80000000000000E+00,5.10000000000000E+00,5.50000000000000E+00,5.90000000000000E+00,6.30000000000000E+00,7.30000000000000E+00,7.60000000000000E+00,7.80000000000000E+00,7.90000000000000E+00,8.00000000000000E+00,,
DMA,,,,,,,,,,,,,,,,,,,,,,,,,,,,,,,,,,,,,,1.17000000000000E+01,,,,,,,,,,,,,,
DNK,,,,,,,,,,,,,,,,,,,,,,,,7.10000000000000E+00,8.20000000000000E+00,8.00000000000000E+00,8.60000000000000E+00,9.20000000000000E+00,8.60000000000000E+00,8.90000000000000E+00,1.02000000000000E+01,1.01000000000000E+01,1.02000000000000E+01,1.06000000000000E+01,9.80000000000000E+00,9.70000000000000E+00,1.02000000000000E+01,1.11000000000000E+01,9.90000000000000E+00,8.90000000000000E+00,9.30000000000000E+00,9.30000000000000E+00,1.03000000000000E+01,1.05000000000000E+01,1.11000000000000E+01,1.17000000000000E+01,1.20000000000000E+01,1.20000000000000E+01,1.29000000000000E+01,1.36000000000000E+01,,
DOM,,,,,,,,,,,,,,,,,,,,,,,,,,,,,,,,,,,,,,,,,1.08000000000000E+01,1.09000000000000E+01,1.22000000000000E+01,1.19000000000000E+01,,,,,,,,
ECA,,,,,,,,,,,,,,,,,,,,,,,,,,,,,,,,,,,,,,,,,2.39710597439282E+01,4.18986255390748E+00,3.31900874624331E+00,4.03140792901663E+00,,,,,,,,
ECS,,,,,,,,,,,,,,,,,,,,,,,,,,,,,,,,,3.99655001518669E+00,3.99740209232386E+00,4.40141539275882E+00,4.41728162999519E+00,4.53071952622538E+00,4.95753681692629E+00,5.10536754324770E+00,1.29081610369066E+01,1.26867324689177E+01,5.21282272012275E+00,4.96526647427531E+00,5.27883707570721E+00,5.55012876124717E+00,5.53222462742541E+00,5.68936899467370E+00,5.71055263112336E+00,5.87412857309231E+00,7.16369108622694E+00,,
ECU,,,,,,,,,,,,,,,,,,,,,,,,,,,,,,,6.70000000000000E+00,8.10000000000000E+00,,,6.40000000000000E+00,5.70000000000000E+00,,,8.50000000000000E+00,1.10000000000000E+01,9.70000000000000E+00,1.17000000000000E+01,1.15000000000000E+01,,,,,,,,,
EMU,,,,,,,,,,,,,,,,,,,,,,,,,,,,,,,,3.83651446820842E+00,3.95848246368398E+00,4.06561787823335E+00,4.29539570090878E+00,4.52125563607938E+00,4.65323605497514E+00,4.94633539670209E+00,5.15907760575194E+00,5.25592115373931E+00,5.26519495798111E+00,5.19938420043021E+00,5.24976068324879E+00,5.29669872398050E+00,5.63168148909639E+00,6.07070664683370E+00,6.22242850363086E+00,6.30590230004756E+00,6.52212006179860E+00,6.79810760960562E+00,,
ESP,,,,,,,,,,,,,,,,,,,,,,,,,,,,2.00000000000000E+00,1.80000000000000E+00,1.50000000000000E+00,1.40000000000000E+00,1.40000000000000E+00,1.70000000000000E+00,2.10000000000000E+00,2.40000000000000E+00,2.40000000000000E+00,2.90000000000000E+00,3.00000000000000E+00,2.90000000000000E+00,2.80000000000000E+00,2.60000000000000E+00,2.60000000000000E+00,2.40000000000000E+00,2.40000000000000E+00,2.70000000000000E+00,3.80000000000000E+00,3.80000000000000E+00,3.60000000000000E+00,3.80000000000000E+00,4.40000000000000E+00,,
EST,,,,,,,,,,,,,,,,,,,,,,,,,,,,,,,,,,,,6.59999990460000E+00,,8.00000000000000E+00,4.70000000000000E+00,5.30000000000000E+00,4.20000000000000E+00,4.70000000000000E+00,4.10000000000000E+00,4.70000000000000E+00,4.40000000000000E+00,4.10000000000000E+00,3.30000000000000E+00,3.60000000000000E+00,3.60000000000000E+00,5.50000000000000E+00,,
ETH,,,,,,,,,,,,,,,,,,,,,,,,,,,,,,,,,,,,,,,,,,,,,1.68000000000000E+01,,,,,,,
EUU,,,,,,,,,,,,,,,,,,,,,,,,,,,,,,,,4.24986918465484E+00,4.47160189129237E+00,4.52996778311006E+00,5.04893010710205E+00,5.22064064154506E+00,5.43906075332478E+00,5.95405627132611E+00,6.10161135678877E+00,6.35792668374222E+00,6.37654564180233E+00,6.14736581666755E+00,6.02732166699216E+00,6.13992284274251E+00,6.37305767756492E+00,6.64026742760955E+00,6.70408758086344E+00,6.72588387827832E+00,6.89186295539046E+00,7.18398789562618E+00,,
FIN,,,,,,,,,,,,,,,,,,,,,,,,,,,,,,4.90000000000000E+00,4.80000000000000E+00,5.60000000000000E+00,5.80000000000000E+00,6.50000000000000E+00,6.50000000000000E+00,5.90000000000000E+00,5.80000000000000E+00,6.40000000000000E+00,6.70000000000000E+00,6.60000000000000E+00,7.10000000000000E+00,7.30000000000000E+00,7.50000000000000E+00,8.00000000000000E+00,8.00000000000000E+00,7.90000000000000E+00,8.10000000000000E+00,8.20000000000000E+00,8.20000000000000E+00,8.70000000000000E+00,,
FRA,,,,,,,,,,,,,,,,,,,,,,,,3.40000000000000E+00,4.10000000000000E+00,4.50000000000000E+00,5.10000000000000E+00,5.10000000000000E+00,4.90000000000000E+00,4.80000000000000E+00,4.50000000000000E+00,4.50000000000000E+00,4.70000000000000E+00,4.90000000000000E+00,5.30000000000000E+00,5.60000000000000E+00,5.70000000000000E+00,5.90000000000000E+00,5.90000000000000E+00,5.80000000000000E+00,5.50000000000000E+00,5.10000000000000E+00,5.10000000000000E+00,4.60000000000000E+00,4.80000000000000E+00,5.00000000000000E+00,5.00000000000000E+00,4.90000000000000E+00,5.00000000000000E+00,5.10000000000000E+00,,
GBR,,,,,,,,,,,,,,,,,,,,,,,,3.30000000000000E+00,4.20000000000000E+00,4.30000000000000E+00,4.60000000000000E+00,5.20000000000000E+00,5.50000000000000E+00,4.90000000000000E+00,5.30000000000000E+00,5.50000000000000E+00,6.20000000000000E+00,6.70000000000000E+00,7.00000000000000E+00,7.40000000000000E+00,7.80000000000000E+00,8.20000000000000E+00,8.20000000000000E+00,8.60000000000000E+00,8.60000000000000E+00,8.30000000000000E+00,8.90000000000000E+00,9.40000000000000E+00,9.50000000000000E+00,9.60000000000000E+00,9.80000000000000E+00,9.80000000000000E+00,1.03000000000000E+01,1.09000000000000E+01,,
GEO,,,,,,,,,,,,,,,,,,,,,,,,,,,,,,,,,,,,,,,,,,,,3.82000000000000E+01,3.63000000000000E+01,,,,,,,
GRC,,,,,,,,,,,,,,,,,,,,,,,,4.50000000000000E+00,4.40000000000000E+00,3.40000000000000E+00,4.20000000000000E+00,3.70000000000000E+00,4.10000000000000E+00,3.90000000000000E+00,4.00000000000000E+00,4.20000000000000E+00,4.50000000000000E+00,4.40000000000000E+00,5.00000000000000E+00,4.70000000000000E+00,4.70000000000000E+00,4.90000000000000E+00,5.30000000000000E+00,4.60000000000000E+00,3.00000000000000E+00,2.60000000000000E+00,2.80000000000000E+00,2.90000000000000E+00,3.00000000000000E+00,3.20000000000000E+00,4.00000000000000E+00,4.10000000000000E+00,4.20000000000000E+00,4.50000000000000E+00,,
GRD,,,,,,,,,,,,,,,,,,,,,,,,,,,,,,,,,,,2.35000000000000E+01,,2.07000000000000E+01,,3.02000000000000E+01,,,,,,,,,,,,,
GTM,,,,,,,,,,,,,,,,,,,,,,,,,,,,,,,,,,,,,,,1.12000000000000E+01,,8.10000000000000E+00,,1.45000000000000E+01,9.50000000000000E+00,,,,,,,,
HIC,,,,,,,,,,,,,,,,,,,,,,,,,,,,,,,,6.27339407968516E+00,6.50200589512920E+00,6.60942595927285E+00,6.37615334186108E+00,6.96384972548188E+00,6.43447153986574E+00,6.63869230870290E+00,6.79032985237408E+00,6.98496458365708E+00,7.48225774079366E+00,6.90638765011732E+00,7.23204710749167E+00,7.32544780497073E+00,7.49691818740200E+00,7.55843599137366E+00,7.56122934465864E+00,7.62326209697261E+00,7.95222328735759E+00,8.58291245414587E+00,,
HND,,,,,,,,,,,,,,,,,,,,,,,,,,,,,,,6.70000000000000E+00,4.20000000000000E+00,6.80000000000000E+00,,5.30000000000000E+00,7.20000000000000E+00,9.00000000000000E+00,7.60000000000000E+00,7.80000000000000E+00,9.40000000000000E+00,,9.60000000000000E+00,1.07000000000000E+01,1.60000000000000E+01,,,,,,,,
HRV,,,,,,,,,,,,,,,,,,,,,,,,,,,,,,,,,,,,,,,,,,,6.40000000000000E+00,6.20000000000000E+00,6.80000000000000E+00,7.30000000000000E+00,7.50000000000000E+00,6.40000000000000E+00,6.70000000000000E+00,6.90000000000000E+00,,
HUN,,,,,,,,,,,,,,,,,,,,,,,,,,,,,,,,,,,,1.60000000000000E+00,1.50000000000000E+00,1.50000000000000E+00,1.70000000000000E+00,1.80000000000000E+00,1.50000000000000E+00,1.50000000000000E+00,1.40000000000000E+00,1.80000000000000E+00,1.90000000000000E+00,1.80000000000000E+00,1.50000000000000E+00,1.60000000000000E+00,2.00000000000000E+00,2.30000000000000E+00,,
IDN,,,,,,,,,,,,,,,,,,,,,,,,,,,,,,,,,,,,,2.06000000000000E+01,1.97000000000000E+01,2.26000000000000E+01,2.21000000000000E+01,1.85000000000000E+01,1.68000000000000E+01,1.81000000000000E+01,1.67000000000000E+01,,,,,,,,
IRL,,,,,,,,,,,,,,,,,,,,,,,,3.50000000000000E+00,3.60000000000000E+00,3.40000000000000E+00,3.80000000000000E+00,4.20000000000000E+00,4.60000000000000E+00,4.20000000000000E+00,4.40000000000000E+00,4.80000000000000E+00,5.00000000000000E+00,6.00000000000000E+00,6.40000000000000E+00,6.70000000000000E+00,6.40000000000000E+00,6.90000000000000E+00,8.20000000000000E+00,7.80000000000000E+00,7.80000000000000E+00,7.10000000000000E+00,6.90000000000000E+00,7.20000000000000E+00,6.70000000000000E+00,6.90000000000000E+00,7.20000000000000E+00,7.40000000000000E+00,8.10000000000000E+00,1.07000000000000E+01,,
ISL,,,,,,,,,,,,,,,,,,,,,,,,,,,,,,,,7.50000000000000E+00,7.50000000000000E+00,8.50000000000000E+00,9.20000000000000E+00,9.10000000000000E+00,8.40000000000000E+00,1.01000000000000E+01,9.80000000000000E+00,9.10000000000000E+00,8.80000000000000E+00,9.70000000000000E+00,1.02000000000000E+01,7.70000000000000E+00,7.80000000000000E+00,7.30000000000000E+00,7.60000000000000E+00,8.00000000000000E+00,8.00000000000000E+00,1.00000000000000E+01,,
ISR,,,,,,,,,,,,,,,,,,,,,,,,,,,,,,,,,,,,6.40000000000000E+00,6.60000000000000E+00,6.00000000000000E+00,6.50000000000000E+00,6.90000000000000E+00,6.60000000000000E+00,7.10000000000000E+00,7.30000000000000E+00,7.30000000000000E+00,7.50000000000000E+00,6.90000000000000E+00,7.10000000000000E+00,7.10000000000000E+00,,,,
ITA,,,,,,,,,,,,,,,,,,,,,,,,3.90000000000000E+00,3.70000000000000E+00,3.80000000000000E+00,3.80000000000000E+00,4.00000000000000E+00,4.00000000000000E+00,4.10000000000000E+00,4.00000000000000E+00,4.00000000000000E+00,4.70000000000000E+00,4.50000000000000E+00,4.20000000000000E+00,4.80000000000000E+00,4.70000000000000E+00,5.10000000000000E+00,4.90000000000000E+00,5.30000000000000E+00,5.70000000000000E+00,5.40000000000000E+00,4.90000000000000E+00,4.80000000000000E+00,5.50000000000000E+00,5.30000000000000E+00,5.50000000000000E+00,5.50000000000000E+00,6.10000000000000E+00,5.90000000000000E+00,,
JPN,,,,,,,,,,,,,,,,,,,,,,,,,,,,,,,,,,,,1.01000000000000E+01,,,,,1.15000000000000E+01,,8.60000000000000E+00,8.90000000000000E+00,8.80000000000000E+00,8.80000000000000E+00,8.50000000000000E+00,9.20000000000000E+00,9.90000000000000E+00,1.05000000000000E+01,,
KOR,,,,,,,,,,,,,,,,,,,,,,,,,,,,,,3.80000000000000E+00,3.10000000000000E+00,3.00000000000000E+00,3.00000000000000E+00,2.90000000000000E+00,2.90000000000000E+00,2.80000000000000E+00,2.60000000000000E+00,3.20000000000000E+00,5.10000000000000E+00,5.80000000000000E+00,5.10000000000000E+00,5.20000000000000E+00,5.40000000000000E+00,5.30000000000000E+00,5.90000000000000E+00,6.50000000000000E+00,6.30000000000000E+00,6.30000000000000E+00,6.50000000000000E+00,6.90000000000000E+00,,
LKA,,,,,,,,,,,,,,,,,,,,,,,,,,,,,,,,,,,,,3.04000000000000E+01,,,3.13000000000000E+01,,,,3.35000000000000E+01,,,,,,,,
LTU,,,,,,,,,,,,,,,,,,,,,,,,,,,,,,,,,,,,,,,7.40000000000000E+00,,8.00000000000000E+00,7.60000000000000E+00,8.60000000000000E+00,7.00000000000000E+00,6.90000000000000E+00,5.10000000000000E+00,7.80000000000000E+00,7.00000000000000E+00,4.90000000000000E+00,7.00000000000000E+00,,
LUX,,,,,,,,,,,,,,,,,,,,,,,,1.30000000000000E+00,1.40000000000000E+00,1.50000000000000E+00,1.50000000000000E+00,1.50000000000000E+00,1.30000000000000E+00,1.60000000000000E+00,1.60000000000000E+00,1.40000000000000E+00,2.10000000000000E+00,1.90000000000000E+00,1.90000000000000E+00,1.90000000000000E+00,2.20000000000000E+00,2.00000000000000E+00,2.70000000000000E+00,1.70000000000000E+00,2.00000000000000E+00,2.00000000000000E+00,2.20000000000000E+00,1.70000000000000E+00,1.80000000000000E+00,1.60000000000000E+00,1.50000000000000E+00,1.40000000000000E+00,1.70000000000000E+00,5.40000000000000E+00,,
LVA,,,,,,,,,,,,,,,,,,,,,,,,,,,,,,,,,,,,1.18000000000000E+01,1.19000000000000E+01,1.22000000000000E+01,1.22000000000000E+01,1.11000000000000E+01,9.80000000000000E+00,7.90000000000000E+00,7.30000000000000E+00,6.50000000000000E+00,7.80000000000000E+00,6.30000000000000E+00,4.70000000000000E+00,4.90000000000000E+00,4.50000000000000E+00,7.50000000000000E+00,,
MAC,,,,,,,,,,,,,,,,,,,,,,,,,,,,,,,,,,,,,7.50000000000000E+00,6.50000000000000E+00,8.40000000000000E+00,1.15000000000000E+01,1.26000000000000E+01,8.50000000000000E+00,1.15000000000000E+01,1.40000000000000E+01,1.05000000000000E+01,,,,,,,
MDG,,,,,,,,,,,,,,,,,,,,,,,,,,,,,,,,,,,,,,,,,,1.75000000000000E+01,,,,,,,,,,
MEX,,,,,,,,,,,,,,,,,,,,,,,,,,,,,,,7.50000000000000E+00,8.40000000000000E+00,7.80000000000000E+00,9.30000000000000E+00,,9.50000000000000E+00,8.30000000000000E+00,8.50000000000000E+00,8.20000000000000E+00,7.10000000000000E+00,7.10000000000000E+00,7.50000000000000E+00,7.10000000000000E+00,7.00000000000000E+00,8.10000000000000E+00,,,,,,,
MKD,,,,,,,,,,,,,,,,,,,,,,,,,,,,,,,,,,,,,,,1.00000000000000E+01,,5.00000000000000E+00,,,5.80000000000000E+00,,,6.00000000000000E+00,6.50000000000000E+00,4.70000000000000E+00,4.80000000000000E+00,,
MLT,,,,,,,,,,,,,,,,,,,,,,,,,,,,,,,,,,,,,,,,,3.40000000000000E+00,3.80000000000000E+00,4.30000000000000E+00,4.20000000000000E+00,4.10000000000000E+00,4.50000000000000E+00,4.90000000000000E+00,4.40000000000000E+00,4.50000000000000E+00,5.10000000000000E+00,,
MUS,,,,,,,,,,,,,,,,,,,,,,,,,,,,,,,,,,,,,,,,2.49000000000000E+01,,,,,2.38000000000000E+01,,,,,,,
NAC,,,,,,,,,,,,,,,,,,,,,,,,,,,,,,,,9.19967530421853E+00,9.41695209868645E+00,9.56374166468665E+00,8.72171626446430E+00,8.53941309896419E+00,8.53810614143515E+00,8.41910227069675E+00,8.32899977203387E+00,8.31158808656441E+00,7.95115887932823E+00,8.24336932445838E+00,8.29775744765969E+00,8.31386463364631E+00,8.38306849055328E+00,8.10174818506556E+00,8.11123849733133E+00,7.94462252265589E+00,8.34110985774567E+00,9.48645446742160E+00,,
NIC,,,,,,,,,,,,,,,,,,,,,,,,,,,,,,,,,,1.13000000000000E+01,,6.60000000000000E+00,6.60000000000000E+00,9.00000000000000E+00,7.00000000000000E+00,5.00000000000000E+00,,6.60000000000000E+00,7.40000000000000E+00,1.02000000000000E+01,,,,,,,,
NLD,,,,,,,,,,,,,,,,,,,,,,,,5.60000000000000E+00,,6.10000000000000E+00,,1.25000000000000E+01,1.28000000000000E+01,1.30000000000000E+01,1.34000000000000E+01,1.37000000000000E+01,1.11000000000000E+01,1.09000000000000E+01,1.13000000000000E+01,1.18000000000000E+01,1.13000000000000E+01,1.11000000000000E+01,1.24000000000000E+01,1.19000000000000E+01,1.34000000000000E+01,1.38000000000000E+01,1.44000000000000E+01,1.48000000000000E+01,1.50000000000000E+01,1.53000000000000E+01,1.55000000000000E+01,1.61000000000000E+01,1.62000000000000E+01,1.70000000000000E+01,,
NOR,,,,,,,,,,,,,,,,,,,,,,,,,,,,,,6.30000000000000E+00,6.90000000000000E+00,7.30000000000000E+00,7.70000000000000E+00,7.80000000000000E+00,7.70000000000000E+00,7.60000000000000E+00,8.10000000000000E+00,7.70000000000000E+00,7.90000000000000E+00,8.20000000000000E+00,8.70000000000000E+00,9.10000000000000E+00,9.20000000000000E+00,9.90000000000000E+00,1.03000000000000E+01,1.00000000000000E+01,1.06000000000000E+01,1.05000000000000E+01,1.09000000000000E+01,1.13000000000000E+01,,
NZL,,,,,,,,,,,,,,,,,,,,,,,,,,,5.70000000000000E+00,6.30000000000000E+00,6.50000000000000E+00,7.30000000000000E+00,7.90000000000000E+00,9.20000000000000E+00,9.60000000000000E+00,9.30000000000000E+00,9.10000000000000E+00,9.50000000000000E+00,9.80000000000000E+00,1.03000000000000E+01,1.05000000000000E+01,1.12000000000000E+01,1.09000000000000E+01,1.09000000000000E+01,1.12000000000000E+01,1.08000000000000E+01,1.06000000000000E+01,1.00000000000000E+01,1.00000000000000E+01,1.11000000000000E+01,1.13000000000000E+01,1.19000000000000E+01,,
OEC,,,,,,,,,,,,,,,,,,,,,,,,,,,,,,,,6.26540705112176E+00,6.48970765803826E+00,6.59765572709247E+00,6.36602916021829E+00,6.95626864926612E+00,6.42335303958640E+00,6.63326285581108E+00,6.78476050494598E+00,6.98197280747696E+00,7.48506888650537E+00,6.90995032752956E+00,7.23744349505010E+00,7.32974489844358E+00,7.50193044302455E+00,7.56339787425180E+00,7.56619560529635E+00,7.63268689574010E+00,7.96192415356898E+00,8.59485759513916E+00,,
OED,,,,,,,,,,,,,,,,,,,,,,,,,,,,,,,,6.38512234269457E+00,6.59822616277315E+00,6.80846485395675E+00,6.29384035824873E+00,7.00161609761216E+00,6.33899818146498E+00,6.57739427240052E+00,6.64774289411535E+00,6.76045072946361E+00,7.30468200148950E+00,6.71666930763291E+00,7.01301735054827E+00,7.07435101092824E+00,7.30827489749699E+00,7.26990750584838E+00,7.34427135685062E+00,7.41907993232026E+00,7.75481050480773E+00,8.44969921305554E+00,,
PAK,,,,,,,,,,,,,,,,,,,,,,,,,,,,,,,,,,,,,,,,,,,,8.50000000000000E+00,,,,,,,,
PAN,,,,,,,,,,,,,,,,,,,,,,,,,,,,,,,,1.12000000000000E+01,9.70000000000000E+00,9.30000000000000E+00,1.16000000000000E+01,1.02000000000000E+01,9.90000000000000E+00,1.03000000000000E+01,1.19000000000000E+01,1.11000000000000E+01,1.11000000000000E+01,1.28000000000000E+01,1.52000000000000E+01,1.61000000000000E+01,1.85000000000000E+01,,,,,,,
POL,,,,,,,,,,,,,,,,,,,,,,,,,,,,,,,,,,,,,,8.20000000000000E+00,8.00000000000000E+00,9.80000000000000E+00,8.80000000000000E+00,7.40000000000000E+00,7.50000000000000E+00,7.10000000000000E+00,7.50000000000000E+00,7.10000000000000E+00,6.50000000000000E+00,6.00000000000000E+00,5.30000000000000E+00,5.00000000000000E+00,,
PRT,,,,,,,,,,,,,,,,,,,,,,,,,,,3.60000000000000E+00,3.60000000000000E+00,3.80000000000000E+00,3.70000000000000E+00,3.90000000000000E+00,4.50000000000000E+00,4.20000000000000E+00,4.30000000000000E+00,4.90000000000000E+00,3.80000000000000E+00,4.50000000000000E+00,5.10000000000000E+00,5.20000000000000E+00,5.10000000000000E+00,4.90000000000000E+00,5.10000000000000E+00,5.70000000000000E+00,5.90000000000000E+00,5.80000000000000E+00,5.60000000000000E+00,5.90000000000000E+00,6.20000000000000E+00,5.80000000000000E+00,5.90000000000000E+00,,
PRY,,,,,,,,,,,,,,,,,,,,,,,,,,,,,,,8.40000000000000E+00,4.70000000000000E+00,7.70000000000000E+00,6.50000000000000E+00,6.30000000000000E+00,1.10000000000000E+01,,8.00000000000000E+00,,7.60000000000000E+00,9.20000000000000E+00,,8.60000000000000E+00,1.37000000000000E+01,,,,,,,,
ROM,,,,,,,,,,,,,,,,,,,,,,,,,,,,,,,,,,,9.90000000000000E+00,1.04000000000000E+01,1.15000000000000E+01,1.25000000000000E+01,1.36000000000000E+01,1.40000000000000E+01,1.43000000000000E+01,1.47000000000000E+01,1.02000000000000E+01,1.11000000000000E+01,9.70000000000000E+00,1.00000000000000E+01,9.50000000000000E+00,9.20000000000000E+00,9.10000000000000E+00,9.10000000000000E+00,,
RUS,,,,,,,,,,,,,,,,,,,,,,,,,,,,,,,,,1.80000000000000E+00,1.80000000000000E+00,2.10000000000000E+00,2.00000000000000E+00,2.10000000000000E+00,1.90000000000000E+00,2.10000000000000E+00,4.11000000000000E+01,4.13000000000000E+01,2.50000000000000E+00,2.40000000000000E+00,2.30000000000000E+00,2.40000000000000E+00,2.50000000000000E+00,2.40000000000000E+00,2.40000000000000E+00,2.40000000000000E+00,,,
SLV,,,,,,,,,,,,,,,,,,,,,,,,,,,,,,,,,,1.06000000000000E+01,1.08000000000000E+01,9.30000000000000E+00,,8.00000000000000E+00,1.23000000000000E+01,2.10000000000000E+00,1.18000000000000E+01,1.29000000000000E+01,1.41000000000000E+01,1.48000000000000E+01,,,,,,,,
SUR,,,,,,,,,,,,,,,,,,,,,,,,,,,,,,,,,,9.60000000000000E+00,1.18000000000000E+01,9.70000000000000E+00,1.06000000000000E+01,1.25000000000000E+01,1.24000000000000E+01,,,,,,,,,,,,,
SVK,,,,,,,,,,,,,,,,,,,,,,,,,,,,,,,,,,,1.30000000000000E+00,1.10000000000000E+00,1.10000000000000E+00,9.00000000000000E-01,1.00000000000000E+00,9.00000000000000E-01,1.00000000000000E+00,1.10000000000000E+00,1.00000000000000E+00,1.30000000000000E+00,1.60000000000000E+00,1.40000000000000E+00,1.30000000000000E+00,1.20000000000000E+00,1.50000000000000E+00,2.20000000000000E+00,,
SVN,,,,,,,,,,,,,,,,,,,,,,,,,,,,,,,,,,3.09999990460000E+00,3.50000000000000E+00,3.79999995230000E+00,5.20000000000000E+00,6.70000000000000E+00,6.70000000000000E+00,5.60000000000000E+00,4.70000000000000E+00,5.00000000000000E+00,3.90000000000000E+00,4.00000000000000E+00,6.40000000000000E+00,5.80000000000000E+00,6.10000000000000E+00,6.30000000000000E+00,5.70000000000000E+00,6.60000000000000E+00,,
SWE,,,,,,,,,,,,,,,,,,,,,,,,,,,,4.90000000000000E+00,5.20000000000000E+00,5.30000000000000E+00,5.30000000000000E+00,5.50000000000000E+00,6.10000000000000E+00,6.60000000000000E+00,7.10000000000000E+00,6.80000000000000E+00,6.70000000000000E+00,6.50000000000000E+00,5.60000000000000E+00,7.30000000000000E+00,7.30000000000000E+00,7.30000000000000E+00,7.50000000000000E+00,7.90000000000000E+00,8.50000000000000E+00,8.50000000000000E+00,8.40000000000000E+00,9.50000000000000E+00,9.60000000000000E+00,1.00000000000000E+01,,
THA,,,,,,,,,,,,,,,,,,,,,,,,,,,,,,,,,,,,5.90000000000000E+00,6.50000000000000E+00,1.20000000000000E+01,8.20000000000000E+00,9.50000000000000E+00,8.80000000000000E+00,,,,,,,,,,,
TTO,,,,,,,,,,,,,,,,,,,,,,,,,,,,,,,,1.17000000000000E+01,1.53000000000000E+01,1.45000000000000E+01,1.32000000000000E+01,1.25000000000000E+01,1.17000000000000E+01,9.30000000000000E+00,8.90000000000000E+00,8.80000000000000E+00,7.20000000000000E+00,6.30000000000000E+00,6.90000000000000E+00,,,,,,,,,
TUR,,,,,,,,,,,,,,,,,,,,,,,,,,,,,4.50000000000000E+00,5.00000000000000E+00,5.10000000000000E+00,4.70000000000000E+00,6.00000000000000E+00,5.40000000000000E+00,4.90000000000000E+00,3.70000000000000E+00,2.90000000000000E+00,3.50000000000000E+00,3.20000000000000E+00,4.00000000000000E+00,5.70000000000000E+00,3.20000000000000E+00,3.80000000000000E+00,3.60000000000000E+00,3.40000000000000E+00,3.00000000000000E+00,4.20000000000000E+00,4.40000000000000E+00,4.80000000000000E+00,6.40000000000000E+00,,
UKR,,,,,,,,,,,,,,,,,,,,,,,,,,,,,,,,,,,,,,,,,2.80000000000000E+00,2.60000000000000E+00,1.90000000000000E+00,1.80000000000000E+00,,,,,,,,
URY,,,,,,,,,,,,,,,,,,,,,,,,,,,,,,,,,,,,1.50000000000000E+01,,,,,1.83000000000000E+01,,,,2.07000000000000E+01,,,,,,,
USA,,,,,,,,,,,,,,,,,,,,,8.30000000000000E+00,8.20000000000000E+00,9.00000000000000E+00,9.30000000000000E+00,8.50000000000000E+00,8.60000000000000E+00,8.80000000000000E+00,8.80000000000000E+00,8.70000000000000E+00,8.60000000000000E+00,8.60000000000000E+00,9.10000000000000E+00,9.30000000000000E+00,9.40000000000000E+00,8.50000000000000E+00,8.30000000000000E+00,8.30000000000000E+00,8.20000000000000E+00,8.10000000000000E+00,8.10000000000000E+00,7.70000000000000E+00,8.00000000000000E+00,8.00000000000000E+00,8.00000000000000E+00,8.10000000000000E+00,7.80000000000000E+00,7.80000000000000E+00,7.60000000000000E+00,8.00000000000000E+00,9.20000000000000E+00,,
VEN,,,,,,,,,,,,,,,,,,,,,,,,,,,,,,,,,,,2.30000000000000E+00,3.00000000000000E+00,3.40000000000000E+00,3.70000000000000E+00,4.40000000000000E+00,7.80000000000000E+00,9.40000000000000E+00,1.18000000000000E+01,1.37000000000000E+01,1.48000000000000E+01,,,,,,,,
ZAF,,,,,,,,,,,,,,,,,,,,,,,,,,,,,,,,,,,,,,,,6.30000000000000E+00,,,,,,,,,,,,
ZWE,,,,,,,,,,,,,,,,,,,,,,,,,,,,,,,,,,,,,,,,1.46000000000000E+01,,,,,,,,,,,,
