"Country Code",1960,1961,1962,1963,1964,1965,1966,1967,1968,1969,1970,1971,1972,1973,1974,1975,1976,1977,1978,1979,1980,1981,1982,1983,1984,1985,1986,1987,1988,1989,1990,1991,1992,1993,1994,1995,1996,1997,1998,1999,2000,2001,2002,2003,2004,2005,2006,2007,2008,2009,2010,2011ABW,,,,,,,,,,,,,,,,,,,,,,,,,,,,,,,,,,,3.70000000000000E+00,,,,,,,,,,,,,,,,,
ALB,,,,,,,,,,,,,,,,,,,,,,,,,,,,,,,,,,,,,,,,,,3.34000000000000E+01,2.99000000000000E+01,,,,,,,,,
ARE,,,,,,,,,,,,,,,,,,,,,,,,,,1.44000000000000E+01,,,,,,,,,,1.63000000000000E+01,,,,,,,,,,2.88000000000000E+01,,,,,,
ARG,,,,,,,,,,,,,,,,,,,,,,,,,,,,,,,,,,,,,,,,,,,3.17000000000000E+01,3.25000000000000E+01,3.26000000000000E+01,3.21000000000000E+01,3.36000000000000E+01,,,,,
ATG,,,,,,,,,,,,,,,,,,,,,,,,,,,,,,,,,,,,,,,,,,,3.07000000000000E+01,,,,,,,,,
AUS,,,,,,,,,,,,,,,,,,,,,,,,,,,,,,,,,,,,1.66000000000000E+01,,3.36000000000000E+01,3.56000000000000E+01,,4.30000000000000E+01,3.53000000000000E+01,3.55000000000000E+01,3.65000000000000E+01,3.60000000000000E+01,3.55000000000000E+01,3.59000000000000E+01,3.90000000000000E+01,,,,
AUT,,,,,,,,,,,,,,,,,,,,,,,,,,,,,,,,6.34000000000000E+01,,,6.39000000000000E+01,,6.68000000000000E+01,6.84000000000000E+01,6.86000000000000E+01,6.89000000000000E+01,6.91000000000000E+01,6.48000000000000E+01,6.50000000000000E+01,6.57000000000000E+01,6.38000000000000E+01,6.41000000000000E+01,6.36000000000000E+01,6.28000000000000E+01,,,,
AZE,,,,,,,,,,,,,,,,,,,,,,,,,,,,,,,,,,,,,,,,,,,,,,,,7.41000000000000E+01,,,,
BEL,,,,,,,,,,,,,,,,,,,,,,,,,,,,,,,,,,,3.28000000000000E+01,3.44000000000000E+01,3.49000000000000E+01,3.54000000000000E+01,3.65000000000000E+01,3.57000000000000E+01,3.64000000000000E+01,3.55000000000000E+01,3.59000000000000E+01,3.60000000000000E+01,,,1.22000000000000E+01,,,,,
BGR,,,,,,,,,,,,,,,,,,,,,,,,,,,,,,,,,4.94000000000000E+01,4.90000000000000E+01,5.05000000000000E+01,5.12000000000000E+01,5.29000000000000E+01,5.34000000000000E+01,,,,5.50000000000000E+01,5.53000000000000E+01,5.53000000000000E+01,5.49000000000000E+01,5.59000000000000E+01,5.74000000000000E+01,5.93000000000000E+01,,,,
BHR,,,,,,,,,,,,,,,,,,,,,,,,,,,,,,,,2.50000000000000E+01,,,,,,,,,,,,,,,,,,,,
BHS,,,,,,,,,,,,,,,,,,,,,,,,,,,,,,,,5.00000000000000E+01,5.44000000000000E+01,5.61000000000000E+01,6.03000000000000E+01,5.87000000000000E+01,5.70000000000000E+01,5.73000000000000E+01,5.62000000000000E+01,,,6.01000000000000E+01,5.81000000000000E+01,,,,6.30000000000000E+01,,,,,
BLZ,,,,,,,,,,,,,,,,,,,,,,,,,,,,,,,,,,1.52000000000000E+01,1.54000000000000E+01,1.57000000000000E+01,1.85000000000000E+01,1.51000000000000E+01,1.61000000000000E+01,1.50000000000000E+01,,,,,,1.63000000000000E+01,,,,,,
BMU,,,,,,,,,,,,,,,,,,,,,,,,,,,,,,,,4.03000000000000E+01,,,,,,,,,6.23000000000000E+01,,,,,,,,,,,
BOL,,,,,,,,,,,,,,,,,,,,,,,,,,,,,,,,,1.61000000000000E+01,,,,3.15000000000000E+01,2.00000000000000E+01,,,2.43000000000000E+01,,,,,,,,,,,
BRA,,,,,,,,,,,,,,,,,,,,,,,,,,,,,,,,,1.31000000000000E+01,1.36000000000000E+01,,1.45000000000000E+01,1.62000000000000E+01,1.68000000000000E+01,1.78000000000000E+01,1.86000000000000E+01,,,,,,,2.89000000000000E+01,,,,,
BRB,,,,,,,,,,,,,,,,,,,,,,,,,,,,,,,,,,,,,,6.30000000000000E+01,,,,,,6.54000000000000E+01,,,,,,,,
BWA,,,,,,,,,,,,,,,,,,,,,,,,,,,,,,,,,,,,,1.37000000000000E+01,,,,,,,,,,,,,,,
CAN,,,,,,,,,,,,,,,,,,,,,,,,,,,,,,,,,,,3.10000000000000E+01,3.09000000000000E+01,3.12000000000000E+01,3.01000000000000E+01,4.23000000000000E+01,4.22000000000000E+01,4.26000000000000E+01,4.19000000000000E+01,4.17000000000000E+01,4.15000000000000E+01,4.20000000000000E+01,4.12000000000000E+01,4.03000000000000E+01,4.00000000000000E+01,,,,
CHE,,,,,,,,,,,,,,,,,,,,,,,,,,,,,,,,6.36000000000000E+01,6.32000000000000E+01,6.14000000000000E+01,6.05000000000000E+01,6.02000000000000E+01,6.11000000000000E+01,6.08000000000000E+01,6.00000000000000E+01,5.92000000000000E+01,5.97000000000000E+01,5.98000000000000E+01,5.97000000000000E+01,5.80000000000000E+01,5.72000000000000E+01,5.66000000000000E+01,5.59000000000000E+01,5.48000000000000E+01,,,,
CHL,,,,,,,,,,,,,,,,,,,,,,,,,,,,,,,5.08000000000000E+01,,5.20000000000000E+01,,4.55000000000000E+01,,,,,,,,,,,,4.85000000000000E+01,4.91000000000000E+01,,,,
COL,,,,,,,,,,,,,,,,,,,,,,,,,,,,,,,,,,,,,5.11000000000000E+01,4.99000000000000E+01,4.88000000000000E+01,,,,,,,,,,,,,
CRI,,,,,,,,,,,,,,,,,,,,,,,,,,,,1.38000000000000E+01,1.43000000000000E+01,1.34000000000000E+01,1.75000000000000E+01,1.75000000000000E+01,1.75000000000000E+01,1.75000000000000E+01,1.73000000000000E+01,1.33000000000000E+01,1.64000000000000E+01,1.61000000000000E+01,3.02000000000000E+01,1.55000000000000E+01,1.50000000000000E+01,1.57000000000000E+01,1.64000000000000E+01,2.28000000000000E+01,1.87000000000000E+01,1.78000000000000E+01,2.25000000000000E+01,2.39000000000000E+01,,,,
CUB,,,,,,,,,,,,,,,,,,,,,,,,,,,,,,,,,,,,,,,,,,,,,,,4.86000000000000E+01,5.00000000000000E+01,,,,
CYM,,,,,,,,,,,,,,,,,,,,,,,,,,,,,,,,,,,,,,,,,,,,,,,5.64000000000000E+01,3.97000000000000E+01,,,,
CYP,,,,,,,,,,,,,,,,,,,,,,,,,,,,,,,,,3.68000000000000E+01,,,,,,,4.07000000000000E+01,4.07000000000000E+01,4.13000000000000E+01,3.92000000000000E+01,3.67000000000000E+01,3.72000000000000E+01,3.96000000000000E+01,4.08000000000000E+01,4.10000000000000E+01,,,,
CZE,,,,,,,,,,,,,,,,,,,,,,,,,,,,,,,,7.08000000000000E+01,,7.56000000000000E+01,7.68000000000000E+01,7.69000000000000E+01,7.81000000000000E+01,7.87000000000000E+01,7.90000000000000E+01,7.90000000000000E+01,7.82000000000000E+01,7.81000000000000E+01,7.89000000000000E+01,7.76000000000000E+01,7.90000000000000E+01,7.91000000000000E+01,7.86000000000000E+01,7.85000000000000E+01,,,,
DEU,,,,,,,,,,,,,,,,,,,,,,,,,,,,,,,,,,,,4.96000000000000E+01,5.81000000000000E+01,5.87000000000000E+01,5.89000000000000E+01,5.83000000000000E+01,5.80000000000000E+01,5.89000000000000E+01,5.90000000000000E+01,5.86000000000000E+01,5.83000000000000E+01,,5.82000000000000E+01,5.90000000000000E+01,,,,
DMA,,,,,,,,,,,,,,,,,,,,,,,,,,,,,,,,,,,,,,1.72000000000000E+01,,,,,,,,,,,,,,
DNK,,,,,,,,,,,,,,,,,,,,,,,,,,,,,,,,,,,4.72000000000000E+01,,4.88000000000000E+01,5.20000000000000E+01,5.22000000000000E+01,5.28000000000000E+01,5.16000000000000E+01,5.22000000000000E+01,5.09000000000000E+01,5.04000000000000E+01,,,,,,,,
DOM,,,,,,,,,,,,,,,,,,,,,,,,,,,,,,,,,,,,,1.51000000000000E+01,1.58000000000000E+01,,,1.86000000000000E+01,,,,,,,3.24000000000000E+01,,,,
DZA,,,,,,,,,,,,,,,,,,,,,,,,,,,,,,,,,,,,1.87000000000000E+01,,,,,,,,,2.06000000000000E+01,,,,,,,
ECA,,,,,,,,,,,,,,,,,,,,,,,,,,,,,,,,,,,,,,,,,,,5.00660147881474E+01,,,4.09203764129040E+01,,,,,,
ECS,,,,,,,,,,,,,,,,,,,,,,,,,,,,,,,,,,,,4.95337625101956E+01,4.40706513115937E+01,,4.25917755771117E+01,,,,4.93481744068361E+01,5.33139769921381E+01,,4.44200494038450E+01,4.57062827562116E+01,4.59865952680983E+01,,,,
ECU,,,,,,,,,,,,,,,,,,,,,,,,,,,,,,,,,,,,,,,,,,4.18000000000000E+01,3.91000000000000E+01,3.95000000000000E+01,3.84000000000000E+01,3.91000000000000E+01,3.89000000000000E+01,,,,,
EMU,,,,,,,,,,,,,,,,,,,,,,,,,,,,,,,,,,,,3.82039767365970E+01,4.18334452293713E+01,4.23528464166167E+01,4.28651675783676E+01,4.25309172462902E+01,4.41287265508312E+01,4.48143960015426E+01,4.42562878851942E+01,4.83794228299992E+01,,3.99243170503433E+01,4.41828597499267E+01,4.45275270794645E+01,,,,
ESP,,,,,,,,,,,,,,,,,,,,,,,,,,,,,,,,,,,1.54000000000000E+01,1.60000000000000E+01,1.66000000000000E+01,1.70000000000000E+01,1.76000000000000E+01,1.82000000000000E+01,1.92000000000000E+01,1.96000000000000E+01,1.99000000000000E+01,,,2.30000000000000E+01,2.38000000000000E+01,2.40000000000000E+01,,,,
EST,,,,,,,,,,,,,,,,,,,,,,,,,,,,,,,,,,,,6.69000000000000E+01,,4.41000000000000E+01,4.59000000000000E+01,4.63000000000000E+01,4.64000000000000E+01,5.78000000000000E+01,5.81000000000000E+01,5.81000000000000E+01,,5.57000000000000E+01,5.48000000000000E+01,5.58000000000000E+01,,,,
ETH,,,,,,,,,,,,,,,,,,,,,,,,,,,,,,,,,,,,,,,,2.20000000000000E+00,,,,,,,,,,,,
EUU,,,,,,,,,,,,,,,,,,,,,,,,,,,,,,,,,,,4.17285813219405E+01,4.33367863424244E+01,4.65241494241326E+01,4.71164520105074E+01,4.73487990198826E+01,4.55730434991738E+01,4.83143926355201E+01,4.94978163392195E+01,4.92023866570735E+01,5.23762967781806E+01,,4.78030384340011E+01,4.91213477142938E+01,4.90153147494795E+01,,,,
FIN,,,,,,,,,,,,,,,,,,,,,,,,,,,,,,,,,,,,4.90000000000000E+01,4.94000000000000E+01,5.05000000000000E+01,5.01000000000000E+01,4.25000000000000E+01,4.30000000000000E+01,4.37000000000000E+01,4.43000000000000E+01,4.42000000000000E+01,4.50000000000000E+01,4.56000000000000E+01,4.59000000000000E+01,4.55000000000000E+01,,,,
FRA,,,,,,,,,,,,,,,,,,,,,,,,,,,,,,,,4.07000000000000E+01,4.12000000000000E+01,4.19000000000000E+01,4.24000000000000E+01,4.25000000000000E+01,4.34000000000000E+01,4.39000000000000E+01,4.47000000000000E+01,4.37000000000000E+01,4.60000000000000E+01,4.69000000000000E+01,4.40000000000000E+01,4.44000000000000E+01,,4.43000000000000E+01,4.39000000000000E+01,4.43000000000000E+01,,,,
GBR,,,,,,,,,,,,,,,,,,,,,,,,,,,,,,,,,,,4.49000000000000E+01,4.50000000000000E+01,4.57000000000000E+01,4.72000000000000E+01,4.71000000000000E+01,4.71000000000000E+01,4.74000000000000E+01,4.74000000000000E+01,4.78000000000000E+01,4.72000000000000E+01,4.34000000000000E+01,4.77000000000000E+01,4.72000000000000E+01,4.59000000000000E+01,,,,
GEO,,,,,,,,,,,,,,,,,,,,,,,,,,,,,,,,,,,,,,,,7.20000000000000E+00,,,2.16000000000000E+01,,6.21000000000000E+01,,,6.04000000000000E+01,,,,
GHA,,,,,,,,,,,,,,,,,,,,,,,,,,,,,3.61000000000000E+01,3.96000000000000E+01,,,,,,,,,,,,,,,,,,,,,,
GIN,,,,,,,,,,,,,,,,,,,,,,,,,,,,,,,,,,,,,,,8.00000000000000E+00,,,,,,,,,,,,,
GRC,,,,,,,,,,,,,,,,,,,,,,,,,,,,,,,,,,2.67000000000000E+01,2.74000000000000E+01,2.80000000000000E+01,2.79000000000000E+01,2.87000000000000E+01,2.92000000000000E+01,2.97000000000000E+01,2.99000000000000E+01,3.75000000000000E+01,3.77000000000000E+01,3.86000000000000E+01,,4.16000000000000E+01,4.20000000000000E+01,4.20000000000000E+01,,,,
GTM,,,,,,,,,,,,,,,,,,,,,,,,,,,,,,,,,,,,,,,,,,,,,1.20000000000000E+01,,1.24000000000000E+01,,,,,
HIC,,,,,,,,,,,,,,,,,,,,,,,,,,,,,,,,,,,,,,4.77856848832341E+01,4.82712180008559E+01,4.76736992838018E+01,4.85095698161475E+01,4.84737266224773E+01,4.13303668568903E+01,4.20642654528969E+01,,3.92301505486859E+01,4.05265609843700E+01,4.04317167610437E+01,,,,
HKG,,,,,,,,,,,,,,,,,,,,,,,,,,,,,,,,,,,,,,,,,,,4.47000000000000E+01,,4.44000000000000E+01,4.50000000000000E+01,4.46000000000000E+01,4.44000000000000E+01,,,,
HRV,,,,,,,,,,,,,,,,,,,,,,,,,,,,,,,,4.90000000000000E+01,,,,,,,5.83000000000000E+01,,,6.04000000000000E+01,,5.95000000000000E+01,,6.15000000000000E+01,6.27000000000000E+01,6.33000000000000E+01,,,,
HUN,,,,,,,,,,,,,,,,,,,,,,,,,,,,,,,,,5.60000000000000E+01,5.75000000000000E+01,5.97000000000000E+01,,6.08000000000000E+01,6.15000000000000E+01,6.19000000000000E+01,6.48000000000000E+01,6.52000000000000E+01,6.52000000000000E+01,6.40000000000000E+01,6.57000000000000E+01,6.47000000000000E+01,6.45000000000000E+01,6.50000000000000E+01,6.52000000000000E+01,,,,
IDN,,,,,,,,,,,,,,,,,,,,,,,,,,,,,,,,,,,1.15000000000000E+01,,1.63000000000000E+01,,1.84000000000000E+01,,,,,,,,2.06000000000000E+01,2.06000000000000E+01,,,,
IRL,,,,,,,,,,,,,,,,,,,,,,,,,,,,,,,,,,,,3.18000000000000E+01,3.13000000000000E+01,3.14000000000000E+01,3.42000000000000E+01,2.77000000000000E+01,,4.06000000000000E+01,3.93000000000000E+01,3.91000000000000E+01,3.87000000000000E+01,3.90000000000000E+01,3.86000000000000E+01,3.84000000000000E+01,,,,
IRN,,,,,,,,,,,,,,,,,,,,,,,,,,,,,,,,,,,,,3.75000000000000E+01,,,,,,,,,2.26000000000000E+01,,2.20000000000000E+01,,,,
ISL,,,,,,,,,,,,,,,,,,,,,,,,,,,,,,,,,,,,4.00000000000000E+01,4.00000000000000E+01,3.98000000000000E+01,3.83000000000000E+01,2.84000000000000E+01,2.80000000000000E+01,2.81000000000000E+01,2.90000000000000E+01,,,,,,,,,
ISR,,,,,,,,,,,,,,,,,,,,,,,,,,,,,,,,,,,,,3.62000000000000E+01,,3.55000000000000E+01,3.54000000000000E+01,3.53000000000000E+01,8.10000000000000E+00,7.90000000000000E+00,7.30000000000000E+00,7.20000000000000E+00,7.50000000000000E+00,7.50000000000000E+00,7.30000000000000E+00,,,,
ITA,,,,,,,,,,,,,,,,,,,,,,,,,,,,,,,,,,3.10000000000000E+01,3.24000000000000E+01,3.39000000000000E+01,3.51000000000000E+01,3.63000000000000E+01,3.76000000000000E+01,3.89000000000000E+01,3.98000000000000E+01,4.02000000000000E+01,4.06000000000000E+01,4.24000000000000E+01,,4.36000000000000E+01,4.42000000000000E+01,4.43000000000000E+01,,,,
JPN,,,,,,,,,,,,,,,,,,,,,,,,,,,,,,,4.54000000000000E+01,,,,,,4.88000000000000E+01,4.93000000000000E+01,4.86000000000000E+01,4.80000000000000E+01,4.77000000000000E+01,4.77000000000000E+01,,,,,,,,,,
KAZ,,,,,,,,,,,,,,,,,,,,,,,,,,,,,,,,,,,,,,,,,,,4.47000000000000E+01,4.44000000000000E+01,4.40000000000000E+01,,,,,,,
KEN,,,,,,,,,,,,,,,,,,,,,,,,,,,4.10000000000000E+00,,,,,,,,,,,,,,,,,,,,,,,,,
KGZ,,,,,,,,,,,,,,,,,,,,,,,,,,,,,,,,,,,,,,,,,,,,,7.58000000000000E+01,5.47000000000000E+01,5.51000000000000E+01,,,,,
KNA,,,,,,,,,,,,,,,,,,,,,,,,,,,,,,,,,,,,,,,,,,6.00000000000000E+01,,,,,,,,,,
KOR,,,,,,,,,,,,,,,,,,,,,,,,,,,,,,,,3.93000000000000E+01,4.02000000000000E+01,4.21000000000000E+01,4.27000000000000E+01,4.34000000000000E+01,4.36000000000000E+01,4.31000000000000E+01,4.36000000000000E+01,4.36000000000000E+01,4.35000000000000E+01,4.37000000000000E+01,4.46000000000000E+01,4.36000000000000E+01,4.36000000000000E+01,4.32000000000000E+01,4.25000000000000E+01,4.20000000000000E+01,,,,
KWT,,,,,,,,,,,,,,,,,,,,,,,,,,,,,1.73000000000000E+01,,,,,,,2.08000000000000E+01,,,,,,,,2.63000000000000E+01,,,,,,,,
LAC,,,,,,,,,,,,,,,,,,,,,,,,,,,,,,,,,,,,,2.11005802489476E+01,2.19625052857085E+01,2.28435167807186E+01,,,,,,,,2.96913605474465E+01,,,,,
LCA,,,,,,,,,,,,,,,,,,,,,,,,,,,,,,,,,,1.04000000000000E+01,1.88000000000000E+01,1.95000000000000E+01,1.96000000000000E+01,2.06000000000000E+01,2.31000000000000E+01,2.36000000000000E+01,2.38000000000000E+01,,,,,,,,,,,
LCN,,,,,,,,,,,,,,,,,,,,,,,,,,,,,,,,,,,,,2.12565442518569E+01,2.21526482342288E+01,2.30022903591040E+01,,,,,,,,2.97207731143790E+01,,,,,
LKA,,,,,,,,,,,,,,,,,,,,,,,,,,,,,,,,,,,,,,,,,1.65000000000000E+01,,1.59000000000000E+01,1.68000000000000E+01,1.82000000000000E+01,1.90000000000000E+01,1.74000000000000E+01,1.59000000000000E+01,,,,
LTU,,,,,,,,,,,,,,,,,,,,,,,,,,,,,,,,,,,,,3.93000000000000E+01,3.74000000000000E+01,4.35000000000000E+01,4.48000000000000E+01,4.14000000000000E+01,3.75000000000000E+01,3.87000000000000E+01,6.31000000000000E+01,6.16000000000000E+01,6.15000000000000E+01,6.14000000000000E+01,5.95000000000000E+01,,,,
LUX,,,,,,,,,,,,,,,,,,,,,,,,,,,,,,,,,,,,,2.01000000000000E+01,,,3.36000000000000E+01,4.45000000000000E+01,4.33000000000000E+01,4.23000000000000E+01,4.65000000000000E+01,,,4.97000000000000E+01,4.01000000000000E+01,,,,
LVA,,,,,,,,,,,,,,,,,,,,,,,,,,,,,,,,,,,,,6.70000000000000E+01,6.73000000000000E+01,,,,6.24000000000000E+01,6.37000000000000E+01,6.58000000000000E+01,6.48000000000000E+01,6.33000000000000E+01,6.28000000000000E+01,6.18000000000000E+01,,,,
MAC,,,,,,,,,,,,,,,,,,,,,,,,,,,,,,,,,,,,,1.52000000000000E+01,1.70000000000000E+01,1.64000000000000E+01,1.57000000000000E+01,1.63000000000000E+01,1.68000000000000E+01,1.75000000000000E+01,1.74000000000000E+01,,2.22000000000000E+01,2.36000000000000E+01,2.43000000000000E+01,,,,
MAR,,,,,,,,,,,,,,,,,,,,,,,,,,,,,,,,,,,,1.62000000000000E+01,1.44000000000000E+01,,,,,,9.80000000000000E+00,9.90000000000000E+00,,9.50000000000000E+00,9.90000000000000E+00,,,,,
MDG,,,,,,,,,,,,,,,,,,,,,,,,,,,,,,,,,,,,,,,,,,,,1.09000000000000E+01,,1.35000000000000E+01,,,,,,
MEX,,,,,,,,,,,,,,,,,,,,,,,,,,,,,,,,,,,,2.84000000000000E+01,1.60000000000000E+01,1.63000000000000E+01,1.58000000000000E+01,2.85000000000000E+01,2.91000000000000E+01,1.57000000000000E+01,2.37000000000000E+01,2.45000000000000E+01,1.68000000000000E+01,1.90000000000000E+01,1.96000000000000E+01,2.00000000000000E+01,,,,
MLT,,,,,,,,,,,,,,,,,,,,,,,,,,,,,,,,,,,,,,,,,,,1.61000000000000E+01,,,2.23000000000000E+01,2.16000000000000E+01,2.15000000000000E+01,,,,
MNE,,,,,,,,,,,,,,,,,,,,,,,,,,,,,,,,,,,,,,,,,,,,,,7.35000000000000E+01,,,,,,
MUS,,,,,,,,,,,,,,,,,,,,,,,,,,,,,,,,,,,,2.58000000000000E+01,,,,,4.06000000000000E+01,,,,4.02000000000000E+01,3.91000000000000E+01,4.58000000000000E+01,4.07000000000000E+01,,,,
MYS,,,,,,,,,,,,,,,,,,,,,,,,,,,,,,,,,,,,,,,,,,,,,,,,5.63000000000000E+01,,,,
NAC,,,,,,,,,,,,,,,,,,,,,,,,,,,,,,,,,,,,,,5.03048791224193E+01,5.09561240779944E+01,5.07618252320556E+01,5.06202839384827E+01,4.99132105010205E+01,3.19062660363248E+01,3.16356567492952E+01,3.14238725547807E+01,3.12489606460405E+01,3.07968116894616E+01,3.05077096475575E+01,,,,
NAM,,,,,,,,,,,,,,,,,,,,,,,,,,,,,,,,,,,,,,4.21000000000000E+01,,,,,,,1.99000000000000E+01,,,,,,,
NCL,,,,,,,,,,,,,,,,,,,,,,,,,,,,,,,,,,,,,,,,,,,,,1.76000000000000E+01,,,,,,,
NER,,,,,,,,,,,,,,,,,,,,,,,,,,,,,,,,,,,,,,,,,,4.00000000000000E-01,,,,,,,,,,
NGA,,,,,,,,,,,,,,,,,,,,,,,,,,,,,,,,,,,,4.02000000000000E+01,,,,,,,,,,,,,,,,
NIC,,,,,,,,,,,,,,,,,,,,,,,,,,,,,,,,,,,,8.80000000000000E+00,,,,,,,,,,,,,,,,
NLD,,,,,,,,,,,,,,,,,,,,,,,,,,,,,,,,,,,,4.27000000000000E+01,4.33000000000000E+01,4.36000000000000E+01,4.27000000000000E+01,,4.51000000000000E+01,4.52000000000000E+01,4.50000000000000E+01,,,4.34000000000000E+01,,3.05000000000000E+01,,,,
NOR,,,,,,,,,,,,,,,,,,,,,,,,,,,,,,,,,,,,,5.63000000000000E+01,5.62000000000000E+01,5.65000000000000E+01,5.75000000000000E+01,5.71000000000000E+01,5.61000000000000E+01,5.52000000000000E+01,5.52000000000000E+01,,5.63000000000000E+01,5.58000000000000E+01,5.46000000000000E+01,,,,
NPL,,,,,,,,,,,,,,,,,,,,,,,,,,,,,,,,,,,,8.10000000000000E+00,,,,,,,,,,,,,,,,
NZL,,,,,,,,,,,,,,,,,,,,,,,,,,,,,,,,,,,,2.90000000000000E+00,,1.22000000000000E+01,,4.34000000000000E+01,4.31000000000000E+01,4.96000000000000E+01,4.94000000000000E+01,,5.51000000000000E+01,5.54000000000000E+01,4.26000000000000E+01,4.11000000000000E+01,,,,
OEC,,,,,,,,,,,,,,,,,,,,,,,,,,,,,,,,,,,,,4.59263340174889E+01,4.78822268827366E+01,4.83153387403423E+01,4.76853079188235E+01,4.86613561404801E+01,4.85211330866493E+01,4.13589349324503E+01,4.21160608160722E+01,,3.92319840149693E+01,4.03570470655685E+01,4.02662143474020E+01,,,,
OED,,,,,,,,,,,,,,,,,,,,,,,,,,,,,,,,,,,,,4.27995885384109E+01,4.43413605220047E+01,4.46702017867379E+01,4.48447339032039E+01,4.60027391203775E+01,4.48874899168789E+01,3.88636006153892E+01,3.93866598185767E+01,3.76905006827555E+01,3.63154942150786E+01,3.77125356970393E+01,3.76918900111577E+01,,,,
OMN,,,,,,,,,,,,,,,,,,,,,,,,,,,,,,,,,,,,,1.54000000000000E+01,,,,2.49000000000000E+01,,,,,,,,,,,
PAK,,,,,,,,,,,,,,,,,,,,,,,,,,,,,,,,,,,,,,,,,,,1.08000000000000E+01,,1.06000000000000E+01,,1.09000000000000E+01,1.10000000000000E+01,,,,
PAN,,,,,,,,,,,,,,,,,,,,,,,2.12000000000000E+01,2.28000000000000E+01,,2.17000000000000E+01,2.35000000000000E+01,2.38000000000000E+01,2.35000000000000E+01,2.46000000000000E+01,,2.67000000000000E+01,2.69000000000000E+01,2.78000000000000E+01,2.78000000000000E+01,2.90000000000000E+01,2.92000000000000E+01,2.96000000000000E+01,2.99000000000000E+01,2.96000000000000E+01,3.00000000000000E+01,2.60000000000000E+01,,2.76000000000000E+01,2.69000000000000E+01,2.80000000000000E+01,2.80000000000000E+01,3.00000000000000E+01,,,,
PER,,,,,,,,,,,,,,,,,,,,,,,,,,,,,,,,,,,,4.66000000000000E+01,3.60000000000000E+01,4.75000000000000E+01,5.02000000000000E+01,4.88000000000000E+01,4.93000000000000E+01,4.72000000000000E+01,,5.44000000000000E+01,5.45000000000000E+01,5.42000000000000E+01,5.32000000000000E+01,3.18000000000000E+01,,,,
PHL,,,,,,,,,,,,,,,,,,,,,,,,,,,,,,,,,,,,,,,,,,,,,3.79000000000000E+01,,3.86000000000000E+01,3.87000000000000E+01,,,,
POL,,,,,,,,,,,,,,,,,,,,,,,,,,,,,,,,,6.11000000000000E+01,6.23000000000000E+01,6.40000000000000E+01,6.47000000000000E+01,6.52000000000000E+01,6.64000000000000E+01,6.68000000000000E+01,,6.87000000000000E+01,7.18000000000000E+01,7.15000000000000E+01,7.09000000000000E+01,7.00000000000000E+01,6.94000000000000E+01,6.89000000000000E+01,6.83000000000000E+01,,,,
PRT,,,,,,,,,,,,,,,,,,,,,,,,,,,,,,,,,,,1.00000000000000E+01,1.06000000000000E+01,1.14000000000000E+01,1.11000000000000E+01,1.08000000000000E+01,1.15000000000000E+01,1.19000000000000E+01,1.23000000000000E+01,1.24000000000000E+01,1.32000000000000E+01,,1.45000000000000E+01,1.52000000000000E+01,1.51000000000000E+01,,,,
PRY,,,,,,,,,,,,,,,,,,,,,,,,,,,,,,,,,,,,2.53000000000000E+01,,,,,,,,,,,,2.23000000000000E+01,,,,
QAT,,,,,,,,,,,,,,,,,,,,,,,,,,,,,,,,,,,,,,1.78000000000000E+01,,,,,,,1.88000000000000E+01,,,,,,,
ROM,,,,,,,,,,,,,,,,,,,,,,,,,,,,,,,,,,,,4.89000000000000E+01,5.18000000000000E+01,5.18000000000000E+01,5.27000000000000E+01,5.22000000000000E+01,5.22000000000000E+01,5.71000000000000E+01,6.01000000000000E+01,6.03000000000000E+01,,6.16000000000000E+01,6.21000000000000E+01,6.17000000000000E+01,,,,
RUS,,,,,,,,,,,,,,,,,,,,,,,,,,,,,,,,,6.53000000000000E+01,6.54000000000000E+01,6.64000000000000E+01,6.62000000000000E+01,3.53000000000000E+01,,3.39000000000000E+01,,,,6.72000000000000E+01,6.68000000000000E+01,4.11000000000000E+01,4.19000000000000E+01,4.13000000000000E+01,4.11000000000000E+01,,,,
RWA,,,,,,,,,,,,,,,,,,,,,,,,,,,,,,,,,,,,,3.10000000000000E+00,,,,,,,,,,,,,,,
SGP,,,,,,,,,,,,,,,,,,,,,,,,,,,,,,,,,,,3.02000000000000E+01,3.05000000000000E+01,3.05000000000000E+01,2.87000000000000E+01,2.84000000000000E+01,,2.53000000000000E+01,2.80000000000000E+01,2.82000000000000E+01,2.72000000000000E+01,,2.48000000000000E+01,4.83000000000000E+01,4.86000000000000E+01,,,,
SLV,,,,,,,,,,,,,,,,,,,,,,,,,,,,,,,,,,,,,1.51000000000000E+01,,,,,,,,,,,,,,,
SMR,,,,,,,,,,,,,,,,,,,,,,,,,,,,,,,,,,,,1.01000000000000E+01,1.04000000000000E+01,1.01000000000000E+01,1.03000000000000E+01,9.90000000000000E+00,,3.83000000000000E+01,3.90000000000000E+01,,,,,,,,,
SVK,,,,,,,,,,,,,,,,,,,,,,,,,,,,,,,,,,,3.71000000000000E+01,3.76000000000000E+01,,3.67000000000000E+01,4.06000000000000E+01,4.13000000000000E+01,8.00000000000000E+01,7.96000000000000E+01,8.05000000000000E+01,7.84000000000000E+01,7.84000000000000E+01,7.66000000000000E+01,7.71000000000000E+01,7.80000000000000E+01,,,,
SVN,,,,,,,,,,,,,,,,,,,,,,,,,,,,,,,,,,5.82000000000000E+01,5.83000000000000E+01,5.98000000000000E+01,6.22000000000000E+01,6.16000000000000E+01,6.22000000000000E+01,6.26000000000000E+01,6.28000000000000E+01,6.23000000000000E+01,6.35000000000000E+01,6.35000000000000E+01,6.30000000000000E+01,6.26000000000000E+01,6.18000000000000E+01,,,,,
SWE,,,,,,,,,,,,,,,,,,,,,,,,,,,,,,,,,,,,,4.89000000000000E+01,4.97000000000000E+01,5.00000000000000E+01,4.94000000000000E+01,4.88000000000000E+01,5.60000000000000E+01,5.62000000000000E+01,5.60000000000000E+01,5.58000000000000E+01,5.50000000000000E+01,5.46000000000000E+01,5.37000000000000E+01,,,,
SYR,,,,,,,,,,,,,,,,,,,,,,,,,,,,,,,,,,,,,,,,,,,,1.59000000000000E+01,,,,,,,,
TCD,,,,,,,,,,,,,,,,,,,,,,,,,,,,,,,,,,2.00000000000000E+00,,,,,,,,,,,,,,,,,,
TJK,,,,,,,,,,,,,,,,,,,,,,,,,,,,,,,,,,,,,,,,,,,,,6.59000000000000E+01,,,,,,,
TTO,,,,,,,,,,,,,,,,,,,,,,,,,,,,,,,,4.76000000000000E+01,4.85000000000000E+01,4.91000000000000E+01,5.17000000000000E+01,5.23000000000000E+01,5.40000000000000E+01,5.36000000000000E+01,5.54000000000000E+01,5.56000000000000E+01,5.70000000000000E+01,5.86000000000000E+01,6.19000000000000E+01,,,,,,,,,
TUN,,,,,,,,,,,,,,,,,,,,,,,,,,,,,,,,,,,2.81000000000000E+01,,,2.97000000000000E+01,,,,,,,,,,,,,,
TUR,,,,,,,,,,,,,,,,,,,,,,,,,,,,,,,,,,,,,,1.74000000000000E+01,1.81000000000000E+01,1.79000000000000E+01,1.89000000000000E+01,1.93000000000000E+01,2.03000000000000E+01,1.93000000000000E+01,1.99000000000000E+01,2.12000000000000E+01,2.16000000000000E+01,2.19000000000000E+01,,,,
UGA,,,,,,,,,,,,,,,,,,,,,,,,,,,,,,,,1.31000000000000E+01,,5.00000000000000E+00,3.50000000000000E+00,,,,,,,,,,,,,,,,,
UKR,,,,,,,,,,,,,,,,,,,,,,,,,,,,,,,,,,,,,,,,,,,2.55000000000000E+01,,,4.31000000000000E+01,,,,,,
URY,,,,,,,,,,,,,,,,,,,,,,,,,,,,,,,,,,,,,,,,,,,3.04000000000000E+01,2.35000000000000E+01,,6.40000000000000E+00,2.69000000000000E+01,2.70000000000000E+01,,,,
USA,,,,,,,,,,,,,,,,,,,,,,,,,,,,,,,,,,,,,,5.25000000000000E+01,5.19000000000000E+01,5.17000000000000E+01,5.15000000000000E+01,5.08000000000000E+01,3.08000000000000E+01,3.05000000000000E+01,3.02000000000000E+01,3.01000000000000E+01,2.97000000000000E+01,2.94000000000000E+01,,,,
VCT,,,,,,,,,,,,,,,,,,,,,,,,,,,,,,,,3.30000000000000E+01,,,,,,,,,,,,,,,,,,,,
WBG,,,,,,,,,,,,,,,,,,,,,,,,,,,,,,,,,,,,,,,,,,1.53000000000000E+01,1.61000000000000E+01,,1.53000000000000E+01,,1.51000000000000E+01,1.56000000000000E+01,,,,
YEM,,,,,,,,,,,,,,,,,,,,,,,,,,,,,,,,,,,,,,,,2.00000000000000E+00,,,,,,,,,,,,
ZAF,,,,,,,,,,,,,,,,,,,,,,,,,,,,,,,,,,,,,,,,,,3.31000000000000E+01,,,,,,4.79000000000000E+01,,,,
