"Country Code",1960,1961,1962,1963,1964,1965,1966,1967,1968,1969,1970,1971,1972,1973,1974,1975,1976,1977,1978,1979,1980,1981,1982,1983,1984,1985,1986,1987,1988,1989,1990,1991,1992,1993,1994,1995,1996,1997,1998,1999,2000,2001,2002,2003,2004,2005,2006,2007,2008,2009,2010,2011ABW,,,,,,,,,,,,,,,,,,,,,,,,,,,,,,,,,,,2.90000000000000E+00,,,,,,,,,,,,,,,,,
ARE,,,,,,,,,,,,,,,,,,,,,,,,,,1.37000000000000E+01,,,,,,,,,,1.56000000000000E+01,,,,,,,,,,2.83000000000000E+01,,,,,,
ARG,,,,,,,,,,,,,,,,,,,,,,,,,,,,,,,,,,,,,,,,,,,3.15000000000000E+01,3.21000000000000E+01,3.36000000000000E+01,3.27000000000000E+01,3.43000000000000E+01,,,,,
ATG,,,,,,,,,,,,,,,,,,,,,,,,,,,,,,,,,,,,,,,,,,,3.13000000000000E+01,,,,,,,,,
AUS,,,,,,,,,,,,,,,,,,,,,,,,,,,,,,,,,,,,1.59000000000000E+01,,3.89000000000000E+01,4.13000000000000E+01,,4.74000000000000E+01,4.15000000000000E+01,4.12000000000000E+01,4.16000000000000E+01,4.15000000000000E+01,4.01000000000000E+01,4.12000000000000E+01,4.35000000000000E+01,,,,
AUT,,,,,,,,,,,,,,,,,,,,,,,,,,,,,,,,6.75000000000000E+01,,,6.70000000000000E+01,,6.98000000000000E+01,7.10000000000000E+01,7.16000000000000E+01,7.19000000000000E+01,7.19000000000000E+01,6.60000000000000E+01,6.65000000000000E+01,6.74000000000000E+01,6.36000000000000E+01,6.44000000000000E+01,6.47000000000000E+01,6.41000000000000E+01,,,,
AZE,,,,,,,,,,,,,,,,,,,,,,,,,,,,,,,,,,,,,,,,,,,,,,,,7.21000000000000E+01,,,,
BEL,,,,,,,,,,,,,,,,,,,,,,,,,,,,,,,,,,,3.26000000000000E+01,3.42000000000000E+01,3.51000000000000E+01,3.58000000000000E+01,3.68000000000000E+01,3.55000000000000E+01,3.63000000000000E+01,3.61000000000000E+01,3.65000000000000E+01,3.66000000000000E+01,,,1.16000000000000E+01,,,,,
BGR,,,,,,,,,,,,,,,,,,,,,,,,,,,,,,,,,4.95000000000000E+01,,,,,,,,,5.76000000000000E+01,5.82000000000000E+01,5.83000000000000E+01,5.85000000000000E+01,5.94000000000000E+01,6.10000000000000E+01,6.35000000000000E+01,,,,
BHR,,,,,,,,,,,,,,,,,,,,,,,,,,,,,,,,2.34000000000000E+01,,,,,,,,,,,,,,,,,,,,
BHS,,,,,,,,,,,,,,,,,,,,,,,,,,,,,,,,4.60000000000000E+01,5.11000000000000E+01,5.42000000000000E+01,5.89000000000000E+01,5.71000000000000E+01,5.42000000000000E+01,5.61000000000000E+01,5.39000000000000E+01,,,5.96000000000000E+01,5.81000000000000E+01,,,,6.46000000000000E+01,,,,,
BLZ,,,,,,,,,,,,,,,,,,,,,,,,,,,,,,,,,,1.21000000000000E+01,1.15000000000000E+01,1.23000000000000E+01,1.49000000000000E+01,1.16000000000000E+01,1.23000000000000E+01,1.20000000000000E+01,,,,,,1.41000000000000E+01,,,,,,
BMU,,,,,,,,,,,,,,,,,,,,,,,,,,,,,,,,4.14000000000000E+01,,,,,,,,,6.16000000000000E+01,,,,,,,,,,,
BOL,,,,,,,,,,,,,,,,,,,,,,,,,,,,,,,,,1.89000000000000E+01,,,,3.53000000000000E+01,2.34000000000000E+01,,,2.79000000000000E+01,,,,,,,,,,,
BRA,,,,,,,,,,,,,,,,,,,,,,,,,,,,,,,,,1.15000000000000E+01,1.17000000000000E+01,,1.25000000000000E+01,1.38000000000000E+01,1.44000000000000E+01,1.55000000000000E+01,1.60000000000000E+01,,,,,,,2.60000000000000E+01,,,,,
BRB,,,,,,,,,,,,,,,,,,,,,,,,,,,,,,,,,,,,,,6.13000000000000E+01,,,,,,6.73000000000000E+01,,,,,,,,
CAN,,,,,,,,,,,,,,,,,,,,,,,,,,,,,,,,,,,2.91000000000000E+01,2.94000000000000E+01,2.96000000000000E+01,2.88000000000000E+01,4.36000000000000E+01,4.36000000000000E+01,4.43000000000000E+01,4.38000000000000E+01,4.36000000000000E+01,4.35000000000000E+01,4.42000000000000E+01,4.37000000000000E+01,4.30000000000000E+01,4.31000000000000E+01,,,,
CHE,,,,,,,,,,,,,,,,,,,,,,,,,,,,,,,,6.08000000000000E+01,5.96000000000000E+01,5.83000000000000E+01,5.72000000000000E+01,5.70000000000000E+01,5.60000000000000E+01,5.65000000000000E+01,5.49000000000000E+01,5.35000000000000E+01,5.35000000000000E+01,5.37000000000000E+01,5.38000000000000E+01,5.26000000000000E+01,5.17000000000000E+01,5.13000000000000E+01,5.06000000000000E+01,4.98000000000000E+01,,,,
CHL,,,,,,,,,,,,,,,,,,,,,,,,,,,,,,,4.83000000000000E+01,,4.97000000000000E+01,,4.66000000000000E+01,,,,,,,,,,,,4.89000000000000E+01,4.95000000000000E+01,,,,
COL,,,,,,,,,,,,,,,,,,,,,,,,,,,,,,,,,,,,,5.12000000000000E+01,4.91000000000000E+01,4.82000000000000E+01,,,,,,,,,,,,,
CRI,,,,,,,,,,,,,,,,,,,,,,,,,,,,1.13000000000000E+01,1.18000000000000E+01,1.08000000000000E+01,1.45000000000000E+01,1.45000000000000E+01,1.45000000000000E+01,1.45000000000000E+01,1.48000000000000E+01,1.15000000000000E+01,1.48000000000000E+01,1.46000000000000E+01,2.86000000000000E+01,1.39000000000000E+01,1.34000000000000E+01,1.44000000000000E+01,1.46000000000000E+01,2.08000000000000E+01,1.68000000000000E+01,1.68000000000000E+01,2.07000000000000E+01,2.16000000000000E+01,,,,
CUB,,,,,,,,,,,,,,,,,,,,,,,,,,,,,,,,,,,,,,,,,,,,,,,4.45000000000000E+01,4.58000000000000E+01,,,,
CYM,,,,,,,,,,,,,,,,,,,,,,,,,,,,,,,,,,,,,,,,,,,,,,,5.60000000000000E+01,4.12000000000000E+01,,,,
CYP,,,,,,,,,,,,,,,,,,,,,,,,,,,,,,,,,3.77000000000000E+01,,,,,,,4.05000000000000E+01,4.05000000000000E+01,4.28000000000000E+01,4.02000000000000E+01,3.61000000000000E+01,3.76000000000000E+01,4.04000000000000E+01,4.31000000000000E+01,4.33000000000000E+01,,,,
CZE,,,,,,,,,,,,,,,,,,,,,,,,,,,,,,,,7.38000000000000E+01,,,,,8.00000000000000E+01,8.01000000000000E+01,8.03000000000000E+01,8.01000000000000E+01,7.97000000000000E+01,7.94000000000000E+01,8.01000000000000E+01,7.94000000000000E+01,8.02000000000000E+01,8.02000000000000E+01,7.98000000000000E+01,7.97000000000000E+01,,,,
DEU,,,,,,,,,,,,,,,,,,,,,,,,,,,,,,,,,,,,4.93000000000000E+01,5.65000000000000E+01,5.71000000000000E+01,5.70000000000000E+01,5.68000000000000E+01,5.64000000000000E+01,5.73000000000000E+01,5.76000000000000E+01,5.70000000000000E+01,5.67000000000000E+01,,5.68000000000000E+01,5.76000000000000E+01,,,,
DMA,,,,,,,,,,,,,,,,,,,,,,,,,,,,,,,,,,,,,,1.18000000000000E+01,,,,,,,,,,,,,,
DNK,,,,,,,,,,,,,,,,,,,,,,,,,,,,,,,,,,,4.85000000000000E+01,,4.96000000000000E+01,5.33000000000000E+01,5.35000000000000E+01,5.46000000000000E+01,5.33000000000000E+01,5.50000000000000E+01,5.34000000000000E+01,5.19000000000000E+01,,,,,,,,
DOM,,,,,,,,,,,,,,,,,,,,,,,,,,,,,,,,,,,,,1.24000000000000E+01,1.28000000000000E+01,,,1.51000000000000E+01,,,,,,,,,,,
DZA,,,,,,,,,,,,,,,,,,,,,,,,,,,,,,,,,,,,,,,,,,,,,2.01000000000000E+01,,,,,,,
ECA,,,,,,,,,,,,,,,,,,,,,,,,,,,,,,,,,,,,,,,,,,,5.00156007038338E+01,,,4.44027978220904E+01,,,,,,
ECS,,,,,,,,,,,,,,,,,,,,,,,,,,,,,,,,,,,,4.89158614207139E+01,4.42195478797953E+01,,4.25048652084708E+01,,,,4.90482338605781E+01,5.28454411149462E+01,,4.59533530744469E+01,4.66815626566171E+01,4.69424835156776E+01,,,,
ECU,,,,,,,,,,,,,,,,,,,,,,,,,,,,,,,,,,,,,,,,,,4.20000000000000E+01,3.92000000000000E+01,,3.88000000000000E+01,3.96000000000000E+01,3.95000000000000E+01,,,,,
EMU,,,,,,,,,,,,,,,,,,,,,,,,,,,,,,,,,,,,3.72177333098699E+01,3.97379251243156E+01,4.06627376119292E+01,4.09462930826197E+01,4.16240167657711E+01,4.24427522015767E+01,4.31427881453477E+01,4.32972551523939E+01,4.76711568081544E+01,,3.93906940205127E+01,4.34628930811799E+01,4.38667953284387E+01,,,,
ESP,,,,,,,,,,,,,,,,,,,,,,,,,,,,,,,,,,,1.42000000000000E+01,1.48000000000000E+01,1.54000000000000E+01,1.59000000000000E+01,1.64000000000000E+01,1.70000000000000E+01,1.80000000000000E+01,1.86000000000000E+01,1.88000000000000E+01,,,2.18000000000000E+01,2.26000000000000E+01,2.30000000000000E+01,,,,
EST,,,,,,,,,,,,,,,,,,,,,,,,,,,,,,,,,,,,6.59000000000000E+01,,4.73000000000000E+01,4.98000000000000E+01,4.99000000000000E+01,4.99000000000000E+01,6.20000000000000E+01,6.29000000000000E+01,6.28000000000000E+01,,5.96000000000000E+01,5.85000000000000E+01,6.06000000000000E+01,,,,
ETH,,,,,,,,,,,,,,,,,,,,,,,,,,,,,,,,,,,,,,,,2.50000000000000E+00,,,,,,,,,,,,
EUU,,,,,,,,,,,,,,,,,,,,,,,,,,,,,,,,,,,,4.21406724442792E+01,4.55363397199478E+01,4.63454066336686E+01,4.66203340633598E+01,4.53765212547184E+01,4.77638887622859E+01,4.88610185721344E+01,4.90582241513595E+01,5.25224561673377E+01,,4.80522398487498E+01,4.91430132033769E+01,4.91160119976248E+01,,,,
FIN,,,,,,,,,,,,,,,,,,,,,,,,,,,,,,,,,,,,4.77000000000000E+01,4.77000000000000E+01,4.91000000000000E+01,4.84000000000000E+01,4.49000000000000E+01,4.49000000000000E+01,4.54000000000000E+01,4.61000000000000E+01,4.64000000000000E+01,4.75000000000000E+01,4.83000000000000E+01,4.87000000000000E+01,4.83000000000000E+01,,,,
FRA,,,,,,,,,,,,,,,,,,,,,,,,,,,,,,,,4.26000000000000E+01,4.30000000000000E+01,4.40000000000000E+01,4.46000000000000E+01,4.49000000000000E+01,4.11000000000000E+01,4.19000000000000E+01,4.27000000000000E+01,4.59000000000000E+01,4.46000000000000E+01,4.60000000000000E+01,4.62000000000000E+01,4.65000000000000E+01,,4.66000000000000E+01,4.62000000000000E+01,4.64000000000000E+01,,,,
GBR,,,,,,,,,,,,,,,,,,,,,,,,,,,,,,,,,,,4.71000000000000E+01,4.70000000000000E+01,4.76000000000000E+01,4.87000000000000E+01,4.84000000000000E+01,4.84000000000000E+01,4.84000000000000E+01,4.82000000000000E+01,4.88000000000000E+01,4.78000000000000E+01,4.47000000000000E+01,4.79000000000000E+01,4.71000000000000E+01,4.56000000000000E+01,,,,
GEO,,,,,,,,,,,,,,,,,,,,,,,,,,,,,,,,,,,,,,,,8.00000000000000E+00,,,2.01000000000000E+01,,6.33000000000000E+01,,,6.19000000000000E+01,,,,
GIN,,,,,,,,,,,,,,,,,,,,,,,,,,,,,,,,,,,,,,,6.80000000000000E+00,,,,,,,,,,,,,
GRC,,,,,,,,,,,,,,,,,,,,,,,,,,,,,,,,,,2.57000000000000E+01,2.67000000000000E+01,2.70000000000000E+01,2.72000000000000E+01,2.81000000000000E+01,2.86000000000000E+01,2.98000000000000E+01,2.98000000000000E+01,3.60000000000000E+01,3.69000000000000E+01,3.76000000000000E+01,,4.02000000000000E+01,4.11000000000000E+01,4.11000000000000E+01,,,,
GTM,,,,,,,,,,,,,,,,,,,,,,,,,,,,,,,,,,,,,,,,,,,,,1.05000000000000E+01,,1.09000000000000E+01,,,,,
HIC,,,,,,,,,,,,,,,,,,,,,,,,,,,,,,,,,,,,,,4.68496969585821E+01,4.74116608353783E+01,4.69597408210449E+01,4.78080454913517E+01,4.78991507121674E+01,4.15416412197774E+01,4.24459136767180E+01,,3.99328186373565E+01,4.11937009351632E+01,4.11038334917112E+01,,,,
HKG,,,,,,,,,,,,,,,,,,,,,,,,,,,,,,,,,,,,,,,,,,,4.12000000000000E+01,,4.16000000000000E+01,4.23000000000000E+01,4.22000000000000E+01,4.24000000000000E+01,,,,
HRV,,,,,,,,,,,,,,,,,,,,,,,,,,,,,,,,5.09000000000000E+01,,,,,,,6.12000000000000E+01,,,6.28000000000000E+01,,6.37000000000000E+01,,6.63000000000000E+01,6.72000000000000E+01,6.73000000000000E+01,,,,
HUN,,,,,,,,,,,,,,,,,,,,,,,,,,,,,,,,,,,6.27000000000000E+01,,6.41000000000000E+01,6.42000000000000E+01,6.48000000000000E+01,6.78000000000000E+01,6.80000000000000E+01,6.82000000000000E+01,6.75000000000000E+01,6.85000000000000E+01,6.79000000000000E+01,6.80000000000000E+01,6.85000000000000E+01,6.87000000000000E+01,,,,
IDN,,,,,,,,,,,,,,,,,,,,,,,,,,,,,,,,,,,1.26000000000000E+01,,1.89000000000000E+01,,2.04000000000000E+01,,,,,,,,2.25000000000000E+01,2.23000000000000E+01,,,,
IRL,,,,,,,,,,,,,,,,,,,,,,,,,,,,,,,,,,,,2.72000000000000E+01,2.71000000000000E+01,,2.94000000000000E+01,2.57000000000000E+01,,3.84000000000000E+01,3.76000000000000E+01,3.69000000000000E+01,3.63000000000000E+01,3.76000000000000E+01,3.80000000000000E+01,3.80000000000000E+01,,,,
IRN,,,,,,,,,,,,,,,,,,,,,,,,,,,,,,,,,,,,,3.83000000000000E+01,,,,,,,,,2.29000000000000E+01,,2.27000000000000E+01,,,,
ISL,,,,,,,,,,,,,,,,,,,,,,,,,,,,,,,,,,,,4.79000000000000E+01,4.47000000000000E+01,4.55000000000000E+01,4.40000000000000E+01,2.88000000000000E+01,2.75000000000000E+01,2.73000000000000E+01,2.94000000000000E+01,,,,,,,,,
ISR,,,,,,,,,,,,,,,,,,,,,,,,,,,,,,,,,,,,,3.63000000000000E+01,,3.59000000000000E+01,3.59000000000000E+01,3.59000000000000E+01,1.01000000000000E+01,1.01000000000000E+01,9.40000000000000E+00,9.40000000000000E+00,9.70000000000000E+00,9.80000000000000E+00,9.50000000000000E+00,,,,
ITA,,,,,,,,,,,,,,,,,,,,,,,,,,,,,,,,,,2.76000000000000E+01,2.90000000000000E+01,3.05000000000000E+01,3.17000000000000E+01,3.30000000000000E+01,3.44000000000000E+01,3.56000000000000E+01,3.64000000000000E+01,3.69000000000000E+01,3.74000000000000E+01,3.94000000000000E+01,,4.07000000000000E+01,4.16000000000000E+01,4.19000000000000E+01,,,,
JPN,,,,,,,,,,,,,,,,,,,,,,,,,,,,,,,4.35000000000000E+01,,,,,,4.69000000000000E+01,4.75000000000000E+01,4.69000000000000E+01,4.64000000000000E+01,4.59000000000000E+01,4.59000000000000E+01,,,,,,,,,,
KAZ,,,,,,,,,,,,,,,,,,,,,,,,,,,,,,,,,,,,,,,,,,,4.89000000000000E+01,4.84000000000000E+01,4.79000000000000E+01,,,,,,,
KEN,,,,,,,,,,,,,,,,,,,,,,,,,,,4.60000000000000E+00,,,,,,,,,,,,,,,,,,,,,,,,,
KGZ,,,,,,,,,,,,,,,,,,,,,,,,,,,,,,,,,,,,,,,,,,,,,7.64000000000000E+01,5.69000000000000E+01,5.80000000000000E+01,,,,,
KNA,,,,,,,,,,,,,,,,,,,,,,,,,,,,,,,,,,,,,,,,,,5.91000000000000E+01,,,,,,,,,,
KOR,,,,,,,,,,,,,,,,,,,,,,,,,,,,,,,,4.34000000000000E+01,4.39000000000000E+01,4.52000000000000E+01,4.58000000000000E+01,4.66000000000000E+01,4.66000000000000E+01,4.62000000000000E+01,4.64000000000000E+01,4.66000000000000E+01,4.66000000000000E+01,4.66000000000000E+01,4.71000000000000E+01,4.52000000000000E+01,4.51000000000000E+01,4.48000000000000E+01,4.42000000000000E+01,4.33000000000000E+01,,,,
KWT,,,,,,,,,,,,,,,,,,,,,,,,,,,,,1.74000000000000E+01,,,,,,,2.09000000000000E+01,,,,,,,,2.87000000000000E+01,,,,,,,,
LAC,,,,,,,,,,,,,,,,,,,,,,,,,,,,,,,,,,,,,1.82529064688925E+01,2.02449102133111E+01,2.11700829935729E+01,,,,,,,,2.77362526614429E+01,,,,,
LCA,,,,,,,,,,,,,,,,,,,,,,,,,,,,,,,,,,1.25000000000000E+01,1.46000000000000E+01,1.56000000000000E+01,1.60000000000000E+01,1.63000000000000E+01,1.89000000000000E+01,2.02000000000000E+01,2.04000000000000E+01,,,,,,,,,,,
LCN,,,,,,,,,,,,,,,,,,,,,,,,,,,,,,,,,,,,,,2.04128872199294E+01,2.13096112275901E+01,,,,,,,,2.77645194123699E+01,,,,,
LKA,,,,,,,,,,,,,,,,,,,,,,,,,,,,,,,,,,,,,,,,,1.58000000000000E+01,,1.55000000000000E+01,1.68000000000000E+01,1.80000000000000E+01,1.87000000000000E+01,1.70000000000000E+01,1.60000000000000E+01,,,,
LTU,,,,,,,,,,,,,,,,,,,,,,,,,,,,,,,,,,,,,4.51000000000000E+01,3.85000000000000E+01,4.85000000000000E+01,4.96000000000000E+01,4.45000000000000E+01,3.96000000000000E+01,4.17000000000000E+01,6.46000000000000E+01,6.31000000000000E+01,6.39000000000000E+01,6.51000000000000E+01,6.31000000000000E+01,,,,
LUX,,,,,,,,,,,,,,,,,,,,,,,,,,,,,,,,,,,,,1.88000000000000E+01,,,3.54000000000000E+01,4.54000000000000E+01,4.39000000000000E+01,4.22000000000000E+01,4.60000000000000E+01,,,4.93000000000000E+01,4.15000000000000E+01,,,,
LVA,,,,,,,,,,,,,,,,,,,,,,,,,,,,,,,,,,,,,,,,,,6.31000000000000E+01,6.25000000000000E+01,6.55000000000000E+01,6.57000000000000E+01,6.45000000000000E+01,6.35000000000000E+01,6.29000000000000E+01,,,,
MAC,,,,,,,,,,,,,,,,,,,,,,,,,,,,,,,,,,,,,1.49000000000000E+01,1.66000000000000E+01,1.60000000000000E+01,1.62000000000000E+01,1.65000000000000E+01,1.67000000000000E+01,1.81000000000000E+01,1.73000000000000E+01,,2.28000000000000E+01,2.32000000000000E+01,2.41000000000000E+01,,,,
MAR,,,,,,,,,,,,,,,,,,,,,,,,,,,,,,,,,,,,1.60000000000000E+01,1.36000000000000E+01,,,,,,9.90000000000000E+00,1.01000000000000E+01,,9.80000000000000E+00,1.04000000000000E+01,,,,,
MDG,,,,,,,,,,,,,,,,,,,,,,,,,,,,,,,,,,,,,,,,,,,,1.26000000000000E+01,,1.41000000000000E+01,,,,,,
MEX,,,,,,,,,,,,,,,,,,,,,,,,,,,,,,,,,,,,2.63000000000000E+01,1.34000000000000E+01,1.36000000000000E+01,1.34000000000000E+01,2.73000000000000E+01,2.79000000000000E+01,1.35000000000000E+01,2.54000000000000E+01,2.61000000000000E+01,1.49000000000000E+01,1.73000000000000E+01,1.77000000000000E+01,1.82000000000000E+01,,,,
MLT,,,,,,,,,,,,,,,,,,,,,,,,,,,,,,,,,,,,,,,,,,,1.40000000000000E+01,,,2.17000000000000E+01,2.20000000000000E+01,2.11000000000000E+01,,,,
MNE,,,,,,,,,,,,,,,,,,,,,,,,,,,,,,,,,,,,,,,,,,,,,,7.55000000000000E+01,,,,,,
MUS,,,,,,,,,,,,,,,,,,,,,,,,,,,,,,,,,,,,2.40000000000000E+01,,,,,4.01000000000000E+01,,,,3.90000000000000E+01,3.78000000000000E+01,4.52000000000000E+01,3.88000000000000E+01,,,,
MYS,,,,,,,,,,,,,,,,,,,,,,,,,,,,,,,,,,,,,,,,,,,,,,,,5.91000000000000E+01,,,,
NAC,,,,,,,,,,,,,,,,,,,,,,,,,,,,,,,,,,,,,,4.87967247486565E+01,4.99063080035453E+01,4.98139971345216E+01,4.99743853351231E+01,4.95611023940693E+01,3.20051770785203E+01,3.18350291373226E+01,3.19982045562428E+01,3.22114259299808E+01,3.18636248153243E+01,3.16162593698463E+01,,,,
NAM,,,,,,,,,,,,,,,,,,,,,,,,,,,,,,,,,,,,,,3.87000000000000E+01,,,,,,,1.82000000000000E+01,,,,,,,
NER,,,,,,,,,,,,,,,,,,,,,,,,,,,,,,,,,,,,,,,,,,5.00000000000000E-01,,,,,,,,,,
NGA,,,,,,,,,,,,,,,,,,,,,,,,,,,,,,,,,,,,4.09000000000000E+01,,,,,,,,,,,,,,,,
NIC,,,,,,,,,,,,,,,,,,,,,,,,,,,,,,,,,,,,6.90000000000000E+00,,,,,,,,,,,,,,,,
NLD,,,,,,,,,,,,,,,,,,,,,,,,,,,,,,,,,,,,4.26000000000000E+01,4.27000000000000E+01,4.31000000000000E+01,4.19000000000000E+01,,4.42000000000000E+01,4.41000000000000E+01,4.41000000000000E+01,,,4.28000000000000E+01,,3.02000000000000E+01,,,,
NOR,,,,,,,,,,,,,,,,,,,,,,,,,,,,,,,,,,,,,5.72000000000000E+01,5.72000000000000E+01,5.79000000000000E+01,5.86000000000000E+01,5.84000000000000E+01,5.70000000000000E+01,5.69000000000000E+01,5.61000000000000E+01,,5.94000000000000E+01,5.90000000000000E+01,5.79000000000000E+01,,,,
NPL,,,,,,,,,,,,,,,,,,,,,,,,,,,,,,,,,,,,8.30000000000000E+00,,,,,,,,,,,,,,,,
NZL,,,,,,,,,,,,,,,,,,,,,,,,,,,,,,,,,,,,2.60000000000000E+00,,1.11000000000000E+01,,4.56000000000000E+01,4.54000000000000E+01,5.23000000000000E+01,5.21000000000000E+01,,5.79000000000000E+01,5.79000000000000E+01,4.64000000000000E+01,4.49000000000000E+01,,,,
OEC,,,,,,,,,,,,,,,,,,,,,,,,,,,,,,,,,,,,,4.49969406538513E+01,4.69733048411179E+01,4.74573549770814E+01,4.69736342612851E+01,4.80000638099750E+01,4.79511579304706E+01,4.16346436807840E+01,4.25173088700361E+01,,4.00121559008812E+01,4.10481336882007E+01,4.09613052302433E+01,,,,
OED,,,,,,,,,,,,,,,,,,,,,,,,,,,,,,,,,,,,,4.11891054326183E+01,4.26481049330584E+01,4.30559097378572E+01,4.36024772568340E+01,4.47800679417092E+01,4.35307638137575E+01,3.88279527099178E+01,3.94265193907756E+01,3.74371890501408E+01,3.63046936146015E+01,3.76627806658062E+01,3.76636126960769E+01,,,,
OMN,,,,,,,,,,,,,,,,,,,,,,,,,,,,,,,,,,,,,1.39000000000000E+01,,,,2.11000000000000E+01,,,,,,,,,,,
PAK,,,,,,,,,,,,,,,,,,,,,,,,,,,,,,,,,,,,,,,,,,,1.21000000000000E+01,,1.22000000000000E+01,,1.29000000000000E+01,1.30000000000000E+01,,,,
PAN,,,,,,,,,,,,,,,,,,,,,,,1.61000000000000E+01,1.84000000000000E+01,,1.68000000000000E+01,1.82000000000000E+01,1.89000000000000E+01,1.93000000000000E+01,1.99000000000000E+01,,2.17000000000000E+01,2.18000000000000E+01,2.32000000000000E+01,2.38000000000000E+01,2.48000000000000E+01,2.55000000000000E+01,2.57000000000000E+01,2.60000000000000E+01,2.58000000000000E+01,2.59000000000000E+01,2.28000000000000E+01,,2.64000000000000E+01,2.59000000000000E+01,2.69000000000000E+01,2.72000000000000E+01,2.92000000000000E+01,,,,
PER,,,,,,,,,,,,,,,,,,,,,,,,,,,,,,,,,,,,4.95000000000000E+01,,5.03000000000000E+01,5.33000000000000E+01,5.19000000000000E+01,5.21000000000000E+01,5.00000000000000E+01,,5.80000000000000E+01,5.73000000000000E+01,5.67000000000000E+01,5.53000000000000E+01,3.29000000000000E+01,,,,
PHL,,,,,,,,,,,,,,,,,,,,,,,,,,,,,,,,,,,,,,,,,,,,,3.91000000000000E+01,,3.97000000000000E+01,4.01000000000000E+01,,,,
POL,,,,,,,,,,,,,,,,,,,,,,,,,,,,,,,,,,,6.68000000000000E+01,6.73000000000000E+01,6.81000000000000E+01,6.92000000000000E+01,6.99000000000000E+01,,7.20000000000000E+01,7.34000000000000E+01,7.34000000000000E+01,7.31000000000000E+01,7.24000000000000E+01,7.22000000000000E+01,7.19000000000000E+01,7.18000000000000E+01,,,,
PRT,,,,,,,,,,,,,,,,,,,,,,,,,,,,,,,,,,,9.50000000000000E+00,1.02000000000000E+01,1.10000000000000E+01,1.05000000000000E+01,1.00000000000000E+01,1.07000000000000E+01,1.10000000000000E+01,1.14000000000000E+01,1.16000000000000E+01,1.22000000000000E+01,,1.37000000000000E+01,1.42000000000000E+01,1.41000000000000E+01,,,,
PRY,,,,,,,,,,,,,,,,,,,,,,,,,,,,,,,,,,,,2.66000000000000E+01,,,,,,,,,,,,2.32000000000000E+01,,,,
QAT,,,,,,,,,,,,,,,,,,,,,,,,,,,,,,,,,,,,,,1.83000000000000E+01,,,,,,,1.94000000000000E+01,,,,,,,
ROM,,,,,,,,,,,,,,,,,,,,,,,,,,,,,,,,,,,,5.30000000000000E+01,5.48000000000000E+01,5.50000000000000E+01,5.58000000000000E+01,5.57000000000000E+01,5.58000000000000E+01,6.11000000000000E+01,6.37000000000000E+01,6.36000000000000E+01,,6.48000000000000E+01,6.48000000000000E+01,6.45000000000000E+01,,,,
RUS,,,,,,,,,,,,,,,,,,,,,,,,,,,,,,,,,,,,6.82000000000000E+01,3.88000000000000E+01,,3.74000000000000E+01,,,,6.83000000000000E+01,6.77000000000000E+01,4.74000000000000E+01,4.84000000000000E+01,4.77000000000000E+01,4.76000000000000E+01,,,,
RWA,,,,,,,,,,,,,,,,,,,,,,,,,,,,,,,,,,,,,4.10000000000000E+00,,,,,,,,,,,,,,,
SGP,,,,,,,,,,,,,,,,,,,,,,,,,,,,,,,,,,,2.62000000000000E+01,2.75000000000000E+01,2.68000000000000E+01,2.56000000000000E+01,2.57000000000000E+01,,2.29000000000000E+01,2.51000000000000E+01,2.49000000000000E+01,2.36000000000000E+01,,2.43000000000000E+01,4.61000000000000E+01,4.62000000000000E+01,,,,
SLV,,,,,,,,,,,,,,,,,,,,,,,,,,,,,,,,,,,,,1.59000000000000E+01,,,,,,,,,,,,,,,
SMR,,,,,,,,,,,,,,,,,,,,,,,,,,,,,,,,,,,,5.90000000000000E+00,5.70000000000000E+00,5.60000000000000E+00,6.30000000000000E+00,6.10000000000000E+00,,3.28000000000000E+01,3.42000000000000E+01,,,,,,,,,
SVK,,,,,,,,,,,,,,,,,,,,,,,,,,,,,,,,,,,4.29000000000000E+01,4.34000000000000E+01,,4.13000000000000E+01,4.62000000000000E+01,4.70000000000000E+01,8.19000000000000E+01,8.17000000000000E+01,8.23000000000000E+01,8.04000000000000E+01,8.02000000000000E+01,7.78000000000000E+01,7.92000000000000E+01,8.01000000000000E+01,,,,
SVN,,,,,,,,,,,,,,,,,,,,,,,,,,,,,,,,,,,,,6.56000000000000E+01,6.45000000000000E+01,6.62000000000000E+01,6.69000000000000E+01,6.73000000000000E+01,6.72000000000000E+01,6.83000000000000E+01,6.80000000000000E+01,6.74000000000000E+01,6.66000000000000E+01,6.60000000000000E+01,,,,,
SWE,,,,,,,,,,,,,,,,,,,,,,,,,,,,,,,,,,,,,4.88000000000000E+01,4.97000000000000E+01,5.02000000000000E+01,4.96000000000000E+01,4.94000000000000E+01,5.79000000000000E+01,5.81000000000000E+01,5.84000000000000E+01,5.85000000000000E+01,5.79000000000000E+01,5.73000000000000E+01,5.64000000000000E+01,,,,
SYR,,,,,,,,,,,,,,,,,,,,,,,,,,,,,,,,,,,,,,,,,,,,1.27000000000000E+01,,,,,,,,
TCD,,,,,,,,,,,,,,,,,,,,,,,,,,,,,,,,,,3.40000000000000E+00,,,,,,,,,,,,,,,,,,
TJK,,,,,,,,,,,,,,,,,,,,,,,,,,,,,,,,,,,,,,,,,,,,,6.64000000000000E+01,,,,,,,
TTO,,,,,,,,,,,,,,,,,,,,,,,,,,,,,,,,4.42000000000000E+01,4.47000000000000E+01,4.60000000000000E+01,4.81000000000000E+01,4.96000000000000E+01,5.08000000000000E+01,5.01000000000000E+01,5.15000000000000E+01,5.21000000000000E+01,5.41000000000000E+01,5.58000000000000E+01,5.60000000000000E+01,,,,,,,,,
TUN,,,,,,,,,,,,,,,,,,,,,,,,,,,,,,,,,,,2.76000000000000E+01,,,2.94000000000000E+01,,,,,,,,,,,,,,
TUR,,,,,,,,,,,,,,,,,,,,,,,,,,,,,,,,,,,,,,1.72000000000000E+01,1.83000000000000E+01,1.83000000000000E+01,1.90000000000000E+01,2.00000000000000E+01,2.13000000000000E+01,2.10000000000000E+01,2.14000000000000E+01,2.26000000000000E+01,2.29000000000000E+01,2.30000000000000E+01,,,,
UGA,,,,,,,,,,,,,,,,,,,,,,,,,,,,,,,,1.63000000000000E+01,,7.00000000000000E+00,4.90000000000000E+00,,,,,,,,,,,,,,,,,
UKR,,,,,,,,,,,,,,,,,,,,,,,,,,,,,,,,,,,,,,,,,,,2.67000000000000E+01,,,4.85000000000000E+01,,,,,,
URY,,,,,,,,,,,,,,,,,,,,,,,,,,,,,,,,,,,,,,,,,,,2.96000000000000E+01,2.28000000000000E+01,,2.70000000000000E+00,2.51000000000000E+01,2.55000000000000E+01,,,,
USA,,,,,,,,,,,,,,,,,,,,,,,,,,,,,,,,,,,,,,5.10000000000000E+01,5.06000000000000E+01,5.05000000000000E+01,5.06000000000000E+01,5.02000000000000E+01,3.07000000000000E+01,3.05000000000000E+01,3.06000000000000E+01,3.09000000000000E+01,3.06000000000000E+01,3.03000000000000E+01,,,,
WBG,,,,,,,,,,,,,,,,,,,,,,,,,,,,,,,,,,,,,,,,,,1.62000000000000E+01,1.70000000000000E+01,,1.65000000000000E+01,,1.65000000000000E+01,1.72000000000000E+01,,,,
YEM,,,,,,,,,,,,,,,,,,,,,,,,,,,,,,,,,,,,,,,,2.30000000000000E+00,,,,,,,,,,,,
ZAF,,,,,,,,,,,,,,,,,,,,,,,,,,,,,,,,,,,,,,,,,,3.29000000000000E+01,,,,,,4.65000000000000E+01,,,,
