"Country Code",1960,1961,1962,1963,1964,1965,1966,1967,1968,1969,1970,1971,1972,1973,1974,1975,1976,1977,1978,1979,1980,1981,1982,1983,1984,1985,1986,1987,1988,1989,1990,1991,1992,1993,1994,1995,1996,1997,1998,1999,2000,2001,2002,2003,2004,2005,2006,2007,2008,2009,2010,2011ABW,,,,,,,,,,,,,,,,,,,,,,,,,,,,,,,,,,,1.38000000000000E+01,,,2.54000000000000E+01,,,,,,,,,,,,,,
ARM,,,,,,,,,,,,,,,,,,,,,,,,,,,,,,,,,,,,,,,,,,7.08000000000000E+01,,,,,,,,,,
AUS,,,,,,,,,,,,,,,,,,,,,1.86000000000000E+01,1.76000000000000E+01,1.70000000000000E+01,2.29000000000000E+01,2.52000000000000E+01,2.35000000000000E+01,2.10000000000000E+01,2.14000000000000E+01,2.20000000000000E+01,1.85000000000000E+01,1.71000000000000E+01,2.10000000000000E+01,2.92000000000000E+01,3.08000000000000E+01,3.05000000000000E+01,2.71000000000000E+01,2.46000000000000E+01,2.74000000000000E+01,2.52000000000000E+01,2.34000000000000E+01,2.12000000000000E+01,1.89000000000000E+01,1.84000000000000E+01,1.74000000000000E+01,1.76000000000000E+01,1.54000000000000E+01,1.54000000000000E+01,1.44000000000000E+01,1.40000000000000E+01,1.44000000000000E+01,,
AUT,,,,,,,,,,,,,,,,,,,,,,,,,,,,,,,,,,,1.85000000000000E+01,3.04000000000000E+01,2.82000000000000E+01,2.74000000000000E+01,3.07000000000000E+01,3.09000000000000E+01,2.28000000000000E+01,2.29000000000000E+01,2.33000000000000E+01,2.39000000000000E+01,2.65000000000000E+01,2.49000000000000E+01,2.51000000000000E+01,2.71000000000000E+01,2.26000000000000E+01,2.10000000000000E+01,,
BEL,,,,,,,,,,,,,,,,,,,,,,,,6.97000000000000E+01,7.09000000000000E+01,7.24000000000000E+01,7.20000000000000E+01,7.53000000000000E+01,7.82000000000000E+01,7.64000000000000E+01,7.00000000000000E+01,6.59000000000000E+01,6.11000000000000E+01,5.90000000000000E+01,6.26000000000000E+01,6.32000000000000E+01,6.33000000000000E+01,6.15000000000000E+01,6.35000000000000E+01,6.09000000000000E+01,5.67000000000000E+01,5.08000000000000E+01,5.02000000000000E+01,4.71000000000000E+01,4.92000000000000E+01,5.28000000000000E+01,5.26000000000000E+01,5.14000000000000E+01,4.81000000000000E+01,4.50000000000000E+01,,
BGR,,,,,,,,,,,,,,,,,,,,,,,,,,,,,,,,,,5.23000000000000E+01,6.05000000000000E+01,6.59000000000000E+01,6.15000000000000E+01,5.88000000000000E+01,5.72000000000000E+01,5.55000000000000E+01,5.87000000000000E+01,6.31000000000000E+01,6.58000000000000E+01,6.77000000000000E+01,6.00000000000000E+01,6.11000000000000E+01,5.64000000000000E+01,6.10000000000000E+01,5.35000000000000E+01,4.64000000000000E+01,,
BHS,,,,,,,,,,,,,,,,,,,,,,,,,,,,,,,,4.01000000000000E+01,4.31000000000000E+01,4.27000000000000E+01,4.78000000000000E+01,4.72000000000000E+01,4.15000000000000E+01,3.94000000000000E+01,4.36000000000000E+01,3.92000000000000E+01,,,,,,,,,,,,
BLZ,,,,,,,,,,,,,,,,,,,,,,,,,,,,,,,,,,5.16000000000000E+01,6.00000000000000E+01,6.03000000000000E+01,5.80000000000000E+01,6.46000000000000E+01,6.19000000000000E+01,6.56000000000000E+01,,,,,,,,,,,,
BRB,,,,,,,,,,,,,,,,,,,,,,,,,,,,,,,,,6.13000000000000E+01,6.57000000000000E+01,6.46000000000000E+01,6.20000000000000E+01,6.35000000000000E+01,6.53000000000000E+01,6.17000000000000E+01,5.63000000000000E+01,5.60000000000000E+01,5.37000000000000E+01,,,,,,,,,,
BWA,,,,,,,,,,,,,,,,,,,,,,,,,,,,,,,,,,,,4.77000000000000E+01,,,,,,,,,,,,,,,,
CAN,,,,,,,,,,,,,,,,,,,,,5.00000000000000E+00,4.80000000000000E+00,6.40000000000000E+00,1.01000000000000E+01,1.01000000000000E+01,1.01000000000000E+01,9.20000000000000E+00,8.40000000000000E+00,7.30000000000000E+00,6.90000000000000E+00,6.20000000000000E+00,8.50000000000000E+00,1.19000000000000E+01,1.41000000000000E+01,1.56000000000000E+01,1.48000000000000E+01,1.54000000000000E+01,1.40000000000000E+01,1.23000000000000E+01,1.03000000000000E+01,1.00000000000000E+01,8.30000000000000E+00,8.70000000000000E+00,8.20000000000000E+00,8.40000000000000E+00,9.10000000000000E+00,8.30000000000000E+00,6.30000000000000E+00,6.10000000000000E+00,7.40000000000000E+00,,
CHE,,,,,,,,,,,,,,,,,,,,,,,,,,,,,,,,1.78000000000000E+01,2.36000000000000E+01,2.31000000000000E+01,3.54000000000000E+01,3.60000000000000E+01,3.01000000000000E+01,3.24000000000000E+01,3.17000000000000E+01,3.87000000000000E+01,2.97000000000000E+01,3.55000000000000E+01,2.44000000000000E+01,3.08000000000000E+01,3.56000000000000E+01,4.07000000000000E+01,4.26000000000000E+01,4.30000000000000E+01,3.99000000000000E+01,3.36000000000000E+01,,
CHL,,,,,,,,,,,,,,,,,,,,,,,,,,,3.92000000000000E+01,3.38000000000000E+01,3.94000000000000E+01,3.20000000000000E+01,2.72000000000000E+01,3.43000000000000E+01,7.03000000000000E+01,6.58000000000000E+01,7.34000000000000E+01,7.25000000000000E+01,,,,,,,,,,,,,,,,
CRI,,,,,,,,,,,,,,,,,,,,,1.04000000000000E+01,1.39000000000000E+01,2.02000000000000E+01,2.17000000000000E+01,1.58000000000000E+01,1.51000000000000E+01,1.88000000000000E+01,1.55000000000000E+01,1.66000000000000E+01,1.02000000000000E+01,1.39000000000000E+01,1.03000000000000E+01,1.78000000000000E+01,1.46000000000000E+01,9.50000000000000E+00,1.16000000000000E+01,1.27000000000000E+01,1.46000000000000E+01,1.52000000000000E+01,1.27000000000000E+01,1.46000000000000E+01,1.33000000000000E+01,,,,,,,,,,
CYP,,,,,,,,,,,,,,,,,,,,,,,,,,,,,,,,,,,,,,,,,3.19000000000000E+01,1.96000000000000E+01,2.27000000000000E+01,2.74000000000000E+01,2.81000000000000E+01,2.70000000000000E+01,2.13000000000000E+01,1.46000000000000E+01,1.13000000000000E+01,1.04000000000000E+01,,
CZE,,,,,,,,,,,,,,,,,,,,,,,,,,,,,,,,,,1.77000000000000E+01,2.28000000000000E+01,3.14000000000000E+01,3.16000000000000E+01,2.99000000000000E+01,3.15000000000000E+01,4.09000000000000E+01,4.98000000000000E+01,5.34000000000000E+01,5.11000000000000E+01,5.19000000000000E+01,5.41000000000000E+01,5.42000000000000E+01,5.63000000000000E+01,5.47000000000000E+01,5.01000000000000E+01,3.34000000000000E+01,,
DEU,,,,,,,,,,,,,,,,,,,,,,,,4.02000000000000E+01,4.29000000000000E+01,4.62000000000000E+01,4.64000000000000E+01,4.93000000000000E+01,4.51000000000000E+01,4.65000000000000E+01,4.45000000000000E+01,2.76000000000000E+01,3.06000000000000E+01,4.35000000000000E+01,4.72000000000000E+01,5.13000000000000E+01,5.17000000000000E+01,5.36000000000000E+01,5.56000000000000E+01,5.40000000000000E+01,5.31000000000000E+01,5.29000000000000E+01,5.03000000000000E+01,5.23000000000000E+01,5.37000000000000E+01,5.31000000000000E+01,5.66000000000000E+01,5.65000000000000E+01,5.19000000000000E+01,4.70000000000000E+01,,
DMA,,,,,,,,,,,,,,,,,,,,,,,,,,,,,,,,,,,,,,4.85000000000000E+01,,,,,,,,,,,,,,
DNK,,,,,,,,,,,,,,,,,,,,,,,,4.96000000000000E+01,3.49000000000000E+01,3.54000000000000E+01,3.12000000000000E+01,2.93000000000000E+01,2.68000000000000E+01,2.54000000000000E+01,3.20000000000000E+01,3.50000000000000E+01,2.86000000000000E+01,2.70000000000000E+01,3.24000000000000E+01,2.49000000000000E+01,2.53000000000000E+01,2.79000000000000E+01,2.90000000000000E+01,2.01000000000000E+01,2.00000000000000E+01,1.88000000000000E+01,2.08000000000000E+01,1.70000000000000E+01,2.19000000000000E+01,2.28000000000000E+01,2.08000000000000E+01,1.69000000000000E+01,1.27000000000000E+01,9.40000000000000E+00,,
DOM,,,,,,,,,,,,,,,,,,,,,,,,,,,,,,,,,,,,,2.00000000000000E+00,1.10000000000000E+00,,,1.30000000000000E+00,,,,,,,,,,,
ECS,,,,,,,,,,,,,,,,,,,,,,,,,,,,,,,,,3.10478663758038E+01,3.56855308493548E+01,4.06687227143588E+01,4.33981097972262E+01,4.43255372919464E+01,,,4.47001863007748E+01,4.47623276421177E+01,4.26205243307911E+01,4.07836583129334E+01,4.09553041379062E+01,4.17583830616120E+01,4.22653284828481E+01,4.33149816874432E+01,4.12748921897736E+01,3.71231219242652E+01,3.48095163056095E+01,,
EMU,,,,,,,,,,,,,,,,,,,,,,,,4.69000563453425E+01,4.95503305804136E+01,5.28910905321650E+01,5.29250733136719E+01,5.42052081288137E+01,5.38098242635547E+01,5.39621342570154E+01,5.13998112420759E+01,4.33029675380402E+01,4.24887187342840E+01,4.74634844901836E+01,4.96635021054238E+01,5.20653870874160E+01,5.22891696293608E+01,5.30970493555495E+01,5.22053820731218E+01,5.02775363255963E+01,5.05481132973924E+01,4.82564416499922E+01,4.46385726381310E+01,4.62017379918056E+01,4.59675408452314E+01,4.59775480603505E+01,4.64217128323768E+01,4.49372738564021E+01,4.16079463342265E+01,3.97882543677546E+01,,
ESP,,,,,,,,,,,,,,,,,,,,,3.94000000000000E+01,4.66000000000000E+01,5.44000000000000E+01,5.87000000000000E+01,5.96000000000000E+01,6.23000000000000E+01,6.30000000000000E+01,6.73000000000000E+01,6.77000000000000E+01,6.55000000000000E+01,6.15000000000000E+01,5.88000000000000E+01,5.62000000000000E+01,5.87000000000000E+01,6.30000000000000E+01,6.28000000000000E+01,6.15000000000000E+01,6.07000000000000E+01,5.92000000000000E+01,5.55000000000000E+01,5.22000000000000E+01,4.86000000000000E+01,4.45000000000000E+01,4.39000000000000E+01,4.11000000000000E+01,3.60000000000000E+01,3.22000000000000E+01,3.05000000000000E+01,2.89000000000000E+01,3.44000000000000E+01,,
EST,,,,,,,,,,,,,,,,,,,,,,,,,,,,,,,,,,,,,,4.86000000000000E+01,4.84000000000000E+01,4.10000000000000E+01,,,4.56000000000000E+01,4.43000000000000E+01,4.97000000000000E+01,5.99000000000000E+01,4.56000000000000E+01,4.47000000000000E+01,2.59000000000000E+01,2.84000000000000E+01,,
EUU,,,,,,,,,,,,,,,,,,,,,,,,4.34411150336830E+01,4.50506757036571E+01,4.89606905484868E+01,4.84016330377045E+01,4.97835504997647E+01,4.71215303661006E+01,4.69488741395920E+01,4.43171803967430E+01,3.81461762262752E+01,3.75412174559343E+01,4.23802904128922E+01,4.54028547089545E+01,4.70695862554635E+01,4.69577345441121E+01,4.72737821155251E+01,4.60758323030219E+01,4.42142074059912E+01,4.41678907125183E+01,4.35055788145935E+01,4.14636492100216E+01,4.26546246122573E+01,4.21523739833518E+01,4.27266913364514E+01,4.31455348142068E+01,4.08058941594277E+01,3.67917121068118E+01,3.49422204626336E+01,,
FIN,,,,,,,,,,,,,,,,,,,,,2.83000000000000E+01,,2.54000000000000E+01,1.90000000000000E+01,1.90000000000000E+01,1.88000000000000E+01,1.57000000000000E+01,1.74000000000000E+01,,,,8.40000000000000E+00,,2.57000000000000E+01,,3.33000000000000E+01,3.08000000000000E+01,2.76000000000000E+01,2.31000000000000E+01,2.62000000000000E+01,2.62000000000000E+01,2.26000000000000E+01,2.12000000000000E+01,2.14000000000000E+01,2.14000000000000E+01,2.19000000000000E+01,2.18000000000000E+01,1.95000000000000E+01,1.62000000000000E+01,1.47000000000000E+01,,
FRA,,,,,,,,,,,,,,,,,,,,,3.61000000000000E+01,3.86000000000000E+01,3.96000000000000E+01,4.17000000000000E+01,4.40000000000000E+01,4.75000000000000E+01,4.63000000000000E+01,4.76000000000000E+01,4.67000000000000E+01,4.54000000000000E+01,4.00000000000000E+01,3.91000000000000E+01,3.81000000000000E+01,3.65000000000000E+01,3.95000000000000E+01,4.33000000000000E+01,4.17000000000000E+01,4.34000000000000E+01,4.50000000000000E+01,4.17000000000000E+01,4.37000000000000E+01,3.76000000000000E+01,3.52000000000000E+01,4.13000000000000E+01,4.10000000000000E+01,4.23000000000000E+01,4.17000000000000E+01,4.01000000000000E+01,3.65000000000000E+01,3.53000000000000E+01,,
GBR,,,,,,,,,,,,,,,,,,,,,,,,3.55000000000000E+01,3.57000000000000E+01,4.22000000000000E+01,4.02000000000000E+01,3.98000000000000E+01,2.91000000000000E+01,2.84000000000000E+01,2.37000000000000E+01,2.18000000000000E+01,2.66000000000000E+01,3.25000000000000E+01,3.39000000000000E+01,3.23000000000000E+01,2.80000000000000E+01,2.78000000000000E+01,2.40000000000000E+01,2.15000000000000E+01,1.90000000000000E+01,1.95000000000000E+01,1.60000000000000E+01,1.59000000000000E+01,1.53000000000000E+01,1.52000000000000E+01,1.62000000000000E+01,1.76000000000000E+01,1.81000000000000E+01,2.15000000000000E+01,,
GRC,,,,,,,,,,,,,,,,,,,,,,,,4.30000000000000E+01,4.71000000000000E+01,5.32000000000000E+01,5.24000000000000E+01,5.36000000000000E+01,5.32000000000000E+01,5.68000000000000E+01,5.59000000000000E+01,5.43000000000000E+01,5.71000000000000E+01,5.73000000000000E+01,5.72000000000000E+01,5.83000000000000E+01,6.25000000000000E+01,6.22000000000000E+01,6.15000000000000E+01,5.95000000000000E+01,6.10000000000000E+01,5.66000000000000E+01,5.51000000000000E+01,5.91000000000000E+01,5.79000000000000E+01,5.79000000000000E+01,5.90000000000000E+01,5.48000000000000E+01,5.20000000000000E+01,4.56000000000000E+01,,
HIC,,,,,,,,,,,,,,,,,,,,,,,,2.29040148211613E+01,2.36894937448927E+01,2.44475928139681E+01,2.46735049075236E+01,2.52738852888409E+01,2.41134548671808E+01,2.31273329190427E+01,2.06607638620950E+01,1.94789851164828E+01,2.16103043144488E+01,2.38230466733245E+01,2.59659738056690E+01,2.55507739665787E+01,2.56458047088921E+01,2.55257372195566E+01,2.46921493760477E+01,2.40334378784024E+01,2.34692698860716E+01,2.33867072534091E+01,2.39687633460845E+01,2.56117669361566E+01,2.55655808654206E+01,2.56559196504495E+01,2.50890722866369E+01,2.39931709425877E+01,2.32901006942396E+01,2.38545112503356E+01,,
HRV,,,,,,,,,,,,,,,,,,,,,,,,,,,,,,,,,,,,,,,,,5.11864406779661E+01,5.61837455830389E+01,6.79000000000000E+01,6.05000000000000E+01,5.79000000000000E+01,6.05000000000000E+01,6.11000000000000E+01,6.53000000000000E+01,6.50000000000000E+01,6.10000000000000E+01,,
HUN,,,,,,,,,,,,,,,,,,,,,,,,,,,,,,,,,1.98000000000000E+01,3.45000000000000E+01,3.76000000000000E+01,4.83000000000000E+01,5.04000000000000E+01,4.92000000000000E+01,4.95000000000000E+01,4.79000000000000E+01,4.57000000000000E+01,4.40000000000000E+01,4.17000000000000E+01,4.22000000000000E+01,4.28000000000000E+01,4.41000000000000E+01,4.51000000000000E+01,4.79000000000000E+01,4.63000000000000E+01,4.28000000000000E+01,,
IRL,,,,,,,,,,,,,,,,,,,,,,,,2.56000000000000E+01,3.28000000000000E+01,5.50000000000000E+01,5.61000000000000E+01,5.74000000000000E+01,5.62000000000000E+01,5.75000000000000E+01,5.68000000000000E+01,5.36000000000000E+01,5.13000000000000E+01,5.25000000000000E+01,5.74000000000000E+01,5.29000000000000E+01,5.12000000000000E+01,4.69000000000000E+01,,4.75000000000000E+01,,2.13000000000000E+01,1.88000000000000E+01,2.30000000000000E+01,2.36000000000000E+01,2.10000000000000E+01,2.15000000000000E+01,2.15000000000000E+01,1.93000000000000E+01,2.17000000000000E+01,,
ISL,,,,,,,,,,,,,,,,,,,,,,,,,,,,,,,,1.15000000000000E+01,4.30000000000000E+00,1.36000000000000E+01,1.63000000000000E+01,1.72000000000000E+01,1.59000000000000E+01,1.26000000000000E+01,1.81000000000000E+01,1.52000000000000E+01,1.41000000000000E+01,1.38000000000000E+01,1.33000000000000E+01,7.80000000000000E+00,1.40000000000000E+01,1.66000000000000E+01,5.30000000000000E+00,5.70000000000000E+00,4.10000000000000E+00,6.70000000000000E+00,,
ISR,,,,,,,,,,,,,,,,,,,,,,,,,,,,,,,,,,,,1.56000000000000E+01,1.28000000000000E+01,1.36000000000000E+01,1.33000000000000E+01,1.66000000000000E+01,1.65000000000000E+01,1.64000000000000E+01,1.79000000000000E+01,2.47000000000000E+01,3.09000000000000E+01,3.07000000000000E+01,2.85000000000000E+01,2.50000000000000E+01,,,,
ITA,,,,,,,,,,,,,,,,,,,,,,,,6.04000000000000E+01,6.57000000000000E+01,6.80000000000000E+01,6.89000000000000E+01,6.77000000000000E+01,6.89000000000000E+01,7.08000000000000E+01,7.07000000000000E+01,6.91000000000000E+01,5.82000000000000E+01,5.98000000000000E+01,6.33000000000000E+01,6.44000000000000E+01,6.71000000000000E+01,6.62000000000000E+01,5.88000000000000E+01,6.07000000000000E+01,6.12000000000000E+01,6.31000000000000E+01,5.98000000000000E+01,5.79000000000000E+01,5.19000000000000E+01,5.19000000000000E+01,5.12000000000000E+01,4.91000000000000E+01,4.75000000000000E+01,4.69000000000000E+01,,
JAM,,,,,,,,,,,,,,,,,,,,,,,,,,,,,,,,,2.78000000000000E+01,3.16000000000000E+01,3.32000000000000E+01,2.78000000000000E+01,2.93000000000000E+01,2.83000000000000E+01,2.96000000000000E+01,3.05000000000000E+01,3.46000000000000E+01,3.62000000000000E+01,,,,,,,,,,
JPN,,,,,,,,,,,,,,,,,,,,,1.63000000000000E+01,9.40000000000000E+00,1.09000000000000E+01,5.10000000000000E+00,9.50000000000000E+00,6.80000000000000E+00,1.21000000000000E+01,1.22000000000000E+01,1.41000000000000E+01,1.25000000000000E+01,8.80000000000000E+00,1.15000000000000E+01,1.02000000000000E+01,9.10000000000000E+00,1.22000000000000E+01,1.00000000000000E+01,1.25000000000000E+01,1.18000000000000E+01,1.24000000000000E+01,1.48000000000000E+01,1.71000000000000E+01,1.83000000000000E+01,2.24000000000000E+01,2.46000000000000E+01,2.31000000000000E+01,2.26000000000000E+01,2.08000000000000E+01,1.94000000000000E+01,2.38000000000000E+01,1.88000000000000E+01,,
KOR,,,,,,,,,,,,,,,,,,,,,,,,,,,,,,,9.00000000000000E-01,2.20000000000000E+00,2.50000000000000E+00,1.60000000000000E+00,3.20000000000000E+00,3.40000000000000E+00,3.00000000000000E+00,1.00000000000000E+00,7.00000000000000E-01,2.00000000000000E+00,8.00000000000000E-01,1.30000000000000E+00,1.20000000000000E+00,3.00000000000000E-01,6.00000000000000E-01,4.00000000000000E-01,9.00000000000000E-01,3.00000000000000E-01,4.00000000000000E-01,3.00000000000000E-01,,
KSV,,,,,,,,,,,,,,,,,,,,,,,,,,,,,,,,,,,,,,,,,,,,,,8.40000000000000E+01,9.17000000000000E+01,8.54000000000000E+01,7.93000000000000E+01,7.98000000000000E+01,,
LTU,,,,,,,,,,,,,,,,,,,,,,,,,,,,,,,,,,,,,,,6.18000000000000E+01,3.32000000000000E+01,4.59000000000000E+01,5.19000000000000E+01,5.26000000000000E+01,4.42000000000000E+01,5.46000000000000E+01,5.36000000000000E+01,4.51000000000000E+01,3.05000000000000E+01,2.51000000000000E+01,2.68000000000000E+01,,
LUX,,,,,,,,,,,,,,,,,,,,,,,,3.60000000000000E+01,3.13000000000000E+01,4.09000000000000E+01,3.33000000000000E+01,3.33000000000000E+01,3.00000000000000E+01,3.64000000000000E+01,3.33000000000000E+01,2.50000000000000E+01,2.00000000000000E+01,3.68000000000000E+01,2.46000000000000E+01,2.10000000000000E+01,2.53000000000000E+01,3.61000000000000E+01,2.63000000000000E+01,2.72000000000000E+01,1.88000000000000E+01,2.37000000000000E+01,2.65000000000000E+01,1.82000000000000E+01,2.01000000000000E+01,2.05000000000000E+01,2.60000000000000E+01,2.23000000000000E+01,3.52000000000000E+01,2.61000000000000E+01,,
LVA,,,,,,,,,,,,,,,,,,,,,,,,,,,,,,,,,,,,5.77000000000000E+01,5.85000000000000E+01,5.75000000000000E+01,5.79000000000000E+01,5.49000000000000E+01,5.71000000000000E+01,5.63000000000000E+01,3.83000000000000E+01,4.29000000000000E+01,3.76000000000000E+01,4.28000000000000E+01,3.06000000000000E+01,2.23000000000000E+01,2.75000000000000E+01,2.60000000000000E+01,,
MEX,,,,,,,,,,,,,,,,,,,,,,,,,,,,,,,,,,,,1.70000000000000E+00,2.40000000000000E+00,2.30000000000000E+00,4.00000000000000E-01,4.00000000000000E-01,2.00000000000000E+00,1.00000000000000E+00,5.00000000000000E-01,6.00000000000000E-01,1.10000000000000E+00,2.60000000000000E+00,2.30000000000000E+00,2.30000000000000E+00,1.80000000000000E+00,2.10000000000000E+00,,
MKD,,,,,,,,,,,,,,,,,,,,,,,,,,,,,,,,,,,,,,,,,,,,,,,8.44000000000000E+01,8.51000000000000E+01,8.32000000000000E+01,8.06000000000000E+01,,
MLT,,,,,,,,,,,,,,,,,,,,,,,,,,,,,,,,,,,,,,,,,,,,,,3.60000000000000E+01,,,,,,
NAC,,,,,,,,,,,,,,,,,,,,,3.27716268662571E+00,4.89050166921136E+00,5.76632711816553E+00,9.64795230873359E+00,8.74435197054269E+00,7.11951460778747E+00,6.49127373061134E+00,5.96448176126219E+00,5.31800536980367E+00,4.01903304475588E+00,3.95250954589785E+00,5.08530792749368E+00,9.28922042242841E+00,9.59641183468675E+00,1.07277559345301E+01,8.75112188739222E+00,9.07710814077437E+00,8.57928964238318E+00,7.60665120572547E+00,6.60174021131270E+00,5.76273269327049E+00,6.04888569354276E+00,8.16110300266374E+00,1.07092806967189E+01,1.10853550449914E+01,1.06220462114789E+01,9.10526472659087E+00,8.71231283958365E+00,9.85205587783703E+00,1.51518766288698E+01,,
NAM,,,,,,,,,,,,,,,,,,,,,,,,,,,,,,,,,,,,,,5.43000000000000E+01,,,,,,,,,,,,,,
NLD,,,,,,,,,,,,,,,,,,,,,,,,4.99000000000000E+01,,5.55000000000000E+01,,4.30000000000000E+01,4.42000000000000E+01,4.28000000000000E+01,4.46000000000000E+01,3.96000000000000E+01,4.16000000000000E+01,5.20000000000000E+01,4.87000000000000E+01,4.20000000000000E+01,4.61000000000000E+01,4.85000000000000E+01,4.52000000000000E+01,4.04000000000000E+01,,,2.81000000000000E+01,2.81000000000000E+01,3.26000000000000E+01,3.70000000000000E+01,4.03000000000000E+01,3.71000000000000E+01,3.22000000000000E+01,2.61000000000000E+01,,
NOR,,,,,,,,,,,,,,,,,,,,,,,,7.10000000000000E+00,1.07000000000000E+01,5.00000000000000E+00,,4.80000000000000E+00,1.07000000000000E+01,8.30000000000000E+00,2.25000000000000E+01,2.21000000000000E+01,2.40000000000000E+01,3.02000000000000E+01,2.98000000000000E+01,1.73000000000000E+01,1.19000000000000E+01,1.04000000000000E+01,6.80000000000000E+00,6.00000000000000E+00,3.30000000000000E+00,3.90000000000000E+00,3.90000000000000E+00,5.40000000000000E+00,7.00000000000000E+00,8.50000000000000E+00,1.15000000000000E+01,7.10000000000000E+00,6.00000000000000E+00,8.00000000000000E+00,,
NZL,,,,,,,,,,,,,,,,,,,,,,,,,,,7.40000000000000E+00,7.60000000000000E+00,1.14000000000000E+01,1.32000000000000E+01,1.61000000000000E+01,1.84000000000000E+01,2.50000000000000E+01,2.58000000000000E+01,2.55000000000000E+01,2.01000000000000E+01,1.66000000000000E+01,1.54000000000000E+01,1.49000000000000E+01,1.70000000000000E+01,1.40000000000000E+01,1.31000000000000E+01,1.12000000000000E+01,1.10000000000000E+01,9.50000000000000E+00,6.00000000000000E+00,5.20000000000000E+00,5.10000000000000E+00,3.10000000000000E+00,6.40000000000000E+00,,
OEC,,,,,,,,,,,,,,,,,,,,,,,,2.29040148211613E+01,2.36894937448927E+01,2.44475928139681E+01,2.46735049075236E+01,2.52738852888409E+01,2.41134548671808E+01,2.31273329190427E+01,2.06607638620950E+01,1.94545041437556E+01,2.15752556196271E+01,2.37931231213249E+01,2.59377332961621E+01,2.55239191620765E+01,2.56190300379007E+01,2.54959247994715E+01,2.46609771209750E+01,2.40070056000735E+01,2.33189022871083E+01,2.32311827014135E+01,2.37928062157558E+01,2.54707009611334E+01,2.54308013352470E+01,2.55089450363745E+01,2.49462547597456E+01,2.38395072915135E+01,2.31377586221268E+01,2.37212640850435E+01,,
OED,,,,,,,,,,,,,,,,,,,,,,,,2.29040148211613E+01,2.36894937448927E+01,2.44475928139681E+01,2.48018370211188E+01,2.53497375816653E+01,2.52864817005063E+01,2.40988503126162E+01,2.17525920074093E+01,2.05981138639942E+01,2.29200501768994E+01,2.49281945523581E+01,2.71369394682541E+01,2.52732472159885E+01,2.52399269093894E+01,2.48105246892467E+01,2.38844085675067E+01,2.27621133726434E+01,2.22390113145810E+01,2.21522131923568E+01,2.27756807779176E+01,2.41592759537294E+01,2.44291826507036E+01,2.45878338871683E+01,2.39343206570189E+01,2.27837244346376E+01,2.19763230813446E+01,2.24440484423493E+01,,
PAN,,,,,,,,,,,,,,,,,,,,,,,,,,,,,,,,2.66000000000000E+01,2.64000000000000E+01,2.52000000000000E+01,2.38000000000000E+01,2.94000000000000E+01,2.69000000000000E+01,2.47000000000000E+01,2.67000000000000E+01,2.43000000000000E+01,2.38000000000000E+01,3.57000000000000E+01,,,,,,,,,,
POL,,,,,,,,,,,,,,,,,,,,,,,,,,,,,,,,,3.60000000000000E+01,4.16000000000000E+01,4.38000000000000E+01,4.37000000000000E+01,4.25000000000000E+01,4.19000000000000E+01,4.18000000000000E+01,3.83000000000000E+01,4.13000000000000E+01,4.62000000000000E+01,5.20000000000000E+01,5.08000000000000E+01,4.90000000000000E+01,5.31000000000000E+01,5.20000000000000E+01,4.60000000000000E+01,3.08000000000000E+01,2.73000000000000E+01,,
PRT,,,,,,,,,,,,,,,,,,,,,,,,,,,5.81000000000000E+01,5.91000000000000E+01,5.17000000000000E+01,4.85000000000000E+01,4.94000000000000E+01,4.19000000000000E+01,3.64000000000000E+01,4.74000000000000E+01,4.43000000000000E+01,5.34000000000000E+01,5.44000000000000E+01,5.77000000000000E+01,4.56000000000000E+01,4.29000000000000E+01,4.00000000000000E+01,3.99000000000000E+01,3.56000000000000E+01,3.68000000000000E+01,4.49000000000000E+01,4.88000000000000E+01,4.93000000000000E+01,4.67000000000000E+01,4.66000000000000E+01,4.75000000000000E+01,,
ROM,,,,,,,,,,,,,,,,,,,,,,,,,,,,,,,,,,,5.10000000000000E+01,4.79000000000000E+01,5.40000000000000E+01,5.13000000000000E+01,4.65000000000000E+01,5.00000000000000E+01,4.80000000000000E+01,5.03000000000000E+01,5.60000000000000E+01,6.48000000000000E+01,6.05000000000000E+01,5.23000000000000E+01,5.81000000000000E+01,5.02000000000000E+01,3.84000000000000E+01,3.06000000000000E+01,,
RUS,,,,,,,,,,,,,,,,,,,,,,,,,,,,,,,,,1.45000000000000E+01,1.84000000000000E+01,2.71000000000000E+01,3.41000000000000E+01,3.68000000000000E+01,,,5.11000000000000E+01,5.09000000000000E+01,4.30000000000000E+01,4.11000000000000E+01,3.92000000000000E+01,4.11000000000000E+01,4.10000000000000E+01,4.40000000000000E+01,4.31000000000000E+01,3.84000000000000E+01,,,
SLV,,,,,,,,,,,,,,,,,,,,,,,,,,,,,,,,,,,,,8.80000000000000E+00,,,,,,,,,,,,,,,
SRB,,,,,,,,,,,,,,,,,,,,,,,,,,,,,,,,,,,,,,,,,,,,,,,,,7.20874723281893E+01,,,
SVK,,,,,,,,,,,,,,,,,,,,,,,,,,,,,,,,,,,4.35000000000000E+01,5.60000000000000E+01,5.23000000000000E+01,5.36000000000000E+01,5.40000000000000E+01,5.05000000000000E+01,5.51000000000000E+01,5.57000000000000E+01,6.12000000000000E+01,6.21000000000000E+01,6.03000000000000E+01,6.74000000000000E+01,7.23000000000000E+01,6.94000000000000E+01,6.64000000000000E+01,5.44000000000000E+01,,
SVN,,,,,,,,,,,,,,,,,,,,,,,,,,,,,,,,,,5.00000000000000E+01,5.14000000000000E+01,,4.79000000000000E+01,4.82000000000000E+01,4.62000000000000E+01,3.79000000000000E+01,6.02000000000000E+01,6.29000000000000E+01,5.28000000000000E+01,5.13000000000000E+01,4.95000000000000E+01,4.63000000000000E+01,4.89000000000000E+01,4.61000000000000E+01,4.30000000000000E+01,3.21000000000000E+01,,
SWE,,,,,,,,,,,,,,,,,,,,,4.40000000000000E+00,5.20000000000000E+00,7.50000000000000E+00,9.70000000000000E+00,1.20000000000000E+01,1.19000000000000E+01,9.80000000000000E+00,1.99000000000000E+01,1.45000000000000E+01,1.26000000000000E+01,1.18000000000000E+01,1.19000000000000E+01,1.35000000000000E+01,1.29000000000000E+01,2.05000000000000E+01,2.29000000000000E+01,2.58000000000000E+01,3.01000000000000E+01,3.01000000000000E+01,2.61000000000000E+01,2.28000000000000E+01,2.00000000000000E+01,1.81000000000000E+01,1.54000000000000E+01,1.64000000000000E+01,,,1.15000000000000E+01,1.13000000000000E+01,1.24000000000000E+01,,
TTO,,,,,,,,,,,,,,,,,,,,,,,,,,,,,,,,3.61000000000000E+01,3.59000000000000E+01,3.34000000000000E+01,3.40000000000000E+01,3.28000000000000E+01,3.37000000000000E+01,3.66000000000000E+01,3.61000000000000E+01,3.38000000000000E+01,3.77000000000000E+01,3.47000000000000E+01,,,,,,,,,,
TUR,,,,,,,,,,,,,,,,,,,,,,,,,,,,,5.38000000000000E+01,4.72000000000000E+01,5.12000000000000E+01,4.98000000000000E+01,5.13000000000000E+01,5.33000000000000E+01,5.19000000000000E+01,4.72000000000000E+01,5.59000000000000E+01,4.89000000000000E+01,4.67000000000000E+01,2.70000000000000E+01,2.98000000000000E+01,3.11000000000000E+01,3.65000000000000E+01,3.09000000000000E+01,4.55000000000000E+01,4.66000000000000E+01,4.39000000000000E+01,3.89000000000000E+01,3.44000000000000E+01,3.22000000000000E+01,,
USA,,,,,,,,,,,,,,,,,,,,,3.10000000000000E+00,4.90000000000000E+00,5.70000000000000E+00,9.60000000000000E+00,8.60000000000000E+00,6.80000000000000E+00,6.20000000000000E+00,5.70000000000000E+00,5.10000000000000E+00,3.70000000000000E+00,3.70000000000000E+00,4.70000000000000E+00,9.00000000000000E+00,9.10000000000000E+00,1.02000000000000E+01,8.10000000000000E+00,8.40000000000000E+00,8.00000000000000E+00,7.10000000000000E+00,6.20000000000000E+00,5.30000000000000E+00,5.80000000000000E+00,8.10000000000000E+00,1.10000000000000E+01,1.14000000000000E+01,1.08000000000000E+01,9.20000000000000E+00,9.00000000000000E+00,1.03000000000000E+01,1.61000000000000E+01,,
