"Country Code",1960,1961,1962,1963,1964,1965,1966,1967,1968,1969,1970,1971,1972,1973,1974,1975,1976,1977,1978,1979,1980,1981,1982,1983,1984,1985,1986,1987,1988,1989,1990,1991,1992,1993,1994,1995,1996,1997,1998,1999,2000,2001,2002,2003,2004,2005,2006,2007,2008,2009,2010,2011ABW,,,,,,,,,,,,,,,,,,,,,,,,,,,,,,,,1.19887800000000E+01,,,1.12582800000000E+01,,,2.03592800000000E+01,,,,,,,,,,2.32416900000000E+01,,,,
ALB,,,,,,,,,,,,,,,,,,,,,,,,,,,,,,,,,,,,,,,,,,3.54579800000000E+01,,,,,,,,,,
ARE,,,,,,,,,,,,,,,,,,,,,,,,,,,,,,,,,,,,6.27358500000000E+00,,,,,,,,,,8.03384300000000E+00,,,1.21008500000000E+01,,,
ARG,,,,,,,,,,,,,,,,,,,,,,,,,,,,,,,1.30328400000000E+01,1.12321700000000E+01,1.25840800000000E+01,1.97730300000000E+01,2.27698500000000E+01,,3.31707800000000E+01,2.42260700000000E+01,2.32813600000000E+01,2.39644700000000E+01,2.58813800000000E+01,3.18016300000000E+01,,3.52540900000000E+01,2.76111400000000E+01,2.42002300000000E+01,2.33864000000000E+01,2.02824500000000E+01,1.88364600000000E+01,2.11652600000000E+01,,
ARM,,,,,,,,,,,,,,,,,,,,,,,,,,,,,,,,,,,,,,,,,,4.81619900000000E+01,,,,,,5.75814300000000E+01,,,,
ASM,,,,,,,,,,,,,,,,,,,,,,,,,,,,,,,1.19230800000000E+01,,,,,,,,,,,,,,,,,,,,,
ATG,,,,,,,,,,,,,,,,,,,,,,,,,,,,,,,,1.31109400000000E+01,,,,,,,,,,1.98888900000000E+01,,,,,,,,,,
AUS,,,,,,,,,,,,,,,,,,,,,1.25255200000000E+01,1.14204300000000E+01,1.38474700000000E+01,1.83022100000000E+01,1.67727900000000E+01,1.51535200000000E+01,1.50456600000000E+01,1.49326600000000E+01,1.34141900000000E+01,1.11548700000000E+01,1.30197500000000E+01,1.75336700000000E+01,1.94082900000000E+01,1.87018700000000E+01,1.70584600000000E+01,1.53647900000000E+01,1.56720200000000E+01,1.60683200000000E+01,1.46167500000000E+01,1.33138800000000E+01,1.20779100000000E+01,1.35220500000000E+01,1.27835200000000E+01,1.19789200000000E+01,1.13610700000000E+01,1.06500000000000E+01,1.00412300000000E+01,9.37249700000000E+00,8.86685800000000E+00,1.15720400000000E+01,,
AUT,,,,,,,,,,,,,,,,,,,,,,,5.21283600000000E+00,6.13774300000000E+00,5.09969800000000E+00,4.28818600000000E+00,3.94557800000000E+00,4.99262100000000E+00,4.56878900000000E+00,4.12770500000000E+00,3.79918600000000E+00,3.71630800000000E+00,4.12983400000000E+00,4.66126300000000E+00,4.96277900000000E+00,5.16065900000000E+00,6.32686900000000E+00,6.33320000000000E+00,5.75557900000000E+00,5.08274600000000E+00,5.09822400000000E+00,5.62589400000000E+00,6.19556500000000E+00,7.04049500000000E+00,9.69083300000000E+00,1.03146000000000E+01,9.07075900000000E+00,8.67109700000000E+00,8.03512300000000E+00,9.96334600000000E+00,,
AZE,,,,,,,,,,,,,,,,,,,,,,,,,,,,,,,,,,,,,,,,1.84297100000000E+01,,,,,,,,1.40405100000000E+01,1.44408300000000E+01,,,
BDI,,,,,,,,,,,,,,,,,,,,,,,,,,,,,,,6.62836700000000E-01,,,,,,,,,,,,,,,,,,,,,
BEL,,,,,,,,,,,,,,,,,,,,,,,,2.39136800000000E+01,2.51993900000000E+01,2.35414700000000E+01,2.10592700000000E+01,2.14156400000000E+01,1.80634500000000E+01,1.54885500000000E+01,1.44610300000000E+01,1.39791500000000E+01,1.32134600000000E+01,1.84714800000000E+01,2.18485600000000E+01,2.15227300000000E+01,2.04713200000000E+01,2.12546100000000E+01,2.03757900000000E+01,2.25743500000000E+01,1.52530900000000E+01,1.53220000000000E+01,1.56546500000000E+01,1.89737500000000E+01,1.75011700000000E+01,2.14898400000000E+01,2.05203600000000E+01,1.88419100000000E+01,1.79700100000000E+01,2.19442100000000E+01,,
BEN,,,,,,,,,,,,,,,,,,,,,,,,,,,,,,,,,1.69370000000000E+00,,,,,,,,,,8.22756200000000E-01,,,,,,,,,
BFA,,,,,,,,,,,,,,,,,,,,,,,,,,2.13127500000000E+00,,,,,,,,,,,,,,,,,,,,,,,,,,
BGD,,,,,,,,,,,,,,,,,,,,,,,,,4.03331400000000E+00,3.41515500000000E+00,2.19754800000000E+00,,,2.54017200000000E+00,,,,,,,7.01602100000000E+00,,,,1.07264300000000E+01,,,6.63335200000000E+00,,9.26509000000000E+00,,,,,,
BGR,,,,,,,,,,,,,,,,,,,,,,,,,,,,,,,,,,,,,,,,,3.33333300000000E+01,3.92473100000000E+01,3.55980600000000E+01,2.70565500000000E+01,2.44806700000000E+01,2.23477100000000E+01,1.95113800000000E+01,1.51206300000000E+01,1.27327100000000E+01,1.60839200000000E+01,,
BHR,,,,,,,,,,,,,,,,,,,,,,,,,,,,,,,,2.53501400000000E+01,,,,,,,,,,2.01230800000000E+01,,,,,,,,,,
BHS,,,,,,,,,,,,,,,,,,,,,,,,,,,,,,,1.66487500000000E+01,2.27725900000000E+01,2.69970300000000E+01,2.35002300000000E+01,2.46615400000000E+01,2.09836100000000E+01,2.37961700000000E+01,2.21799800000000E+01,1.57026100000000E+01,1.57594100000000E+01,,1.50553600000000E+01,1.98848800000000E+01,2.40456800000000E+01,2.32838700000000E+01,2.01628600000000E+01,,1.88836500000000E+01,,,,
BIH,,,,,,,,,,,,,,,,,,,,,,,,,,,,,,,,,,,,,,,,,,,,,,,6.24242400000000E+01,5.86419800000000E+01,4.72973000000000E+01,,,
BLZ,,,,,,,,,,,,,,,,,,,,,,,,,,,,,,,,6.35718000000000E+00,,,,2.33796300000000E+01,2.55761400000000E+01,2.36311200000000E+01,2.50777600000000E+01,2.24797200000000E+01,,,,,,1.94871400000000E+01,,,,,,
BMU,,,,,,,,,,,,,,,,,,,,,,,,,,,,,,,,,,,,,,,,,1.07647100000000E+01,,,,,,,,,,,
BOL,,,,,,,,,,,,,,,,,,,,,,,,,,,,,,,,,,,,6.06403000000000E+00,,,,,8.54369000000000E+00,8.68850400000000E+00,9.22260800000000E+00,,,,,,,,,
BRA,,,,,,,,,,,,,,,,,,,,,,,,,,6.34002300000000E+00,4.52651900000000E+00,6.65332200000000E+00,7.16768400000000E+00,5.51089100000000E+00,6.74871000000000E+00,,1.19124200000000E+01,1.15343600000000E+01,,1.14365800000000E+01,1.26162800000000E+01,1.44450400000000E+01,1.72494500000000E+01,1.82922500000000E+01,2.57123400000000E+01,1.78993400000000E+01,1.80224200000000E+01,1.90375600000000E+01,1.80730700000000E+01,,,1.67999800000000E+01,1.54949500000000E+01,1.78210300000000E+01,,
BRB,,,,,,,,,,,,,,,,,,,,,,,,3.05555500000000E+01,,,3.54386000000000E+01,3.64864800000000E+01,3.25423700000000E+01,2.55319200000000E+01,3.06709300000000E+01,3.34645700000000E+01,4.21875000000000E+01,4.12811400000000E+01,4.17624500000000E+01,3.77697900000000E+01,2.78810400000000E+01,3.00395200000000E+01,2.45689600000000E+01,2.18487400000000E+01,1.94372600000000E+01,2.31055100000000E+01,2.33802400000000E+01,2.62135900000000E+01,,,,,,,,
BTN,,,,,,,,,,,,,,,,,,,,,,,,,,,,,,,,,,,,,,,,,,,,,,6.32438400000000E+00,,,,,,
BWA,,,,,,,,,,,,,,,,,,,,,,,,,,3.77750000000000E+01,,,,,,2.56213300000000E+01,,,4.12475200000000E+01,,3.79335300000000E+01,,1.43199400000000E+01,,1.36014400000000E+01,,,,,,,,,,,
CAN,,,,,,,,,,,,,,,,,,,,,1.28261900000000E+01,1.27743800000000E+01,1.82452400000000E+01,1.92456000000000E+01,1.73669500000000E+01,1.60509700000000E+01,1.48082000000000E+01,1.32115500000000E+01,1.14953700000000E+01,1.09479000000000E+01,1.23496800000000E+01,1.58453500000000E+01,1.72231300000000E+01,1.71901200000000E+01,1.58953700000000E+01,1.48363200000000E+01,1.54237000000000E+01,1.62475300000000E+01,1.51598900000000E+01,1.40511100000000E+01,1.26649900000000E+01,1.28808600000000E+01,1.36175400000000E+01,1.36044600000000E+01,1.33751000000000E+01,1.24065600000000E+01,1.16416900000000E+01,1.11732400000000E+01,1.15971500000000E+01,1.52655300000000E+01,,
CHE,,,,,,,,,,,,,,,,,,,,,,,,,,,,,,,3.16742100000000E+00,3.20610700000000E+00,4.69255700000000E+00,6.99187000000000E+00,5.74506300000000E+00,5.51470600000000E+00,4.63458100000000E+00,5.93525200000000E+00,5.60578700000000E+00,5.65371000000000E+00,4.96453900000000E+00,5.48672600000000E+00,5.57741600000000E+00,8.50380400000000E+00,7.70822600000000E+00,8.75544000000000E+00,7.70118700000000E+00,7.12861400000000E+00,7.01725600000000E+00,8.19866400000000E+00,,
CHL,,,,,,,,,,,,,,,,,,,,,,,3.04784000000000E+01,2.47466900000000E+01,2.52155400000000E+01,2.27121400000000E+01,1.72995800000000E+01,,1.43267700000000E+01,1.32228700000000E+01,1.30633600000000E+01,1.27020800000000E+01,1.09128400000000E+01,1.09606600000000E+01,1.31822000000000E+01,1.14980300000000E+01,1.52382100000000E+01,1.47907100000000E+01,1.51970100000000E+01,2.17834800000000E+01,2.13178800000000E+01,2.09339900000000E+01,2.15842300000000E+01,2.11045100000000E+01,2.08318800000000E+01,1.97304200000000E+01,1.83134300000000E+01,1.78413500000000E+01,1.97068500000000E+01,2.25748900000000E+01,,
COL,,,,,,,,,,,,,,,,,,,,,,,,,,,,,,,,1.97237200000000E+01,1.81403000000000E+01,1.77640600000000E+01,1.62209100000000E+01,1.85339200000000E+01,2.33322300000000E+01,2.42494500000000E+01,2.99514600000000E+01,3.66248900000000E+01,,2.29389700000000E+01,2.44764000000000E+01,2.39256900000000E+01,2.50304100000000E+01,2.26966200000000E+01,2.47197800000000E+01,2.10545100000000E+01,2.29568400000000E+01,,,
CPV,,,,,,,,,,,,,,,,,,,,,,,,,,,,,,,4.12358500000000E+01,,,,,,,,,,,,,,,,,,,,,
CRI,,,,,,,,,,,,,,,,,,,,,8.00975600000000E+00,1.24472100000000E+01,1.36311300000000E+01,1.31433800000000E+01,7.87150600000000E+00,1.00334400000000E+01,9.55161200000000E+00,9.82809000000000E+00,9.35557700000000E+00,7.09459500000000E+00,8.35251500000000E+00,1.08191100000000E+01,7.58960000000000E+00,8.07265400000000E+00,7.97730300000000E+00,1.10901100000000E+01,1.18353300000000E+01,1.16065800000000E+01,1.16913900000000E+01,1.27212700000000E+01,1.09759600000000E+01,1.34399200000000E+01,1.38034600000000E+01,1.46666700000000E+01,1.42712800000000E+01,1.50250400000000E+01,1.39298900000000E+01,1.07281300000000E+01,1.10158000000000E+01,,,
CUB,,,,,,,,,,,,,,,,,,,,,,,,,,,,,,,,,,,,,,,,,,,,,3.86020200000000E+00,,3.43403800000000E+00,3.54070600000000E+00,3.11123600000000E+00,,,
CYM,,,,,,,,,,,,,,,,,,,,,,,,,,,,,,,,,,1.37323900000000E+01,1.41025600000000E+01,1.14197500000000E+01,1.09154900000000E+01,9.29368000000000E+00,,,,,,,,,1.03492900000000E+01,1.12321300000000E+01,1.34578200000000E+01,,,
CYP,,,,,,,,,,,,,,,,,,,,,,,,,,,,,,,,,,,,,,,,,1.02209900000000E+01,8.17438700000000E+00,7.89473700000000E+00,9.01408500000000E+00,8.79120900000000E+00,1.38539000000000E+01,9.97442400000000E+00,1.02564100000000E+01,8.97435900000000E+00,,,
CZE,,,,,,,,,,,,,,,,,,,,,,,,,,,,,,,,4.63540800000000E+00,,8.41544400000000E+00,8.67647200000000E+00,7.79009200000000E+00,7.19035100000000E+00,8.61670500000000E+00,1.24270600000000E+01,1.70177900000000E+01,1.69794600000000E+01,1.65899400000000E+01,1.60181400000000E+01,1.75743000000000E+01,2.03822900000000E+01,1.92558700000000E+01,1.74490700000000E+01,1.07392700000000E+01,9.87329700000000E+00,1.66436000000000E+01,,
DEU,,,,,,,,,,,,,,,,,,,,,,,,,,,,,,,,5.41111500000000E+00,6.21663500000000E+00,7.56964800000000E+00,8.24332000000000E+00,8.18219300000000E+00,9.35236500000000E+00,1.02063000000000E+01,9.03198000000000E+00,8.63816600000000E+00,8.39360000000000E+00,8.26590800000000E+00,9.81485700000000E+00,1.05764800000000E+01,1.26097700000000E+01,1.51903900000000E+01,1.35534800000000E+01,1.16849500000000E+01,1.03703700000000E+01,1.09928400000000E+01,,
DMA,,,,,,,,,,,,,,,,,,,,,,,,,,,,,,2.00000000000000E+01,,,,,,,,4.05747000000000E+01,,3.47541000000000E+01,,2.59574500000000E+01,,,,,,,,,,
DNK,,,,,,,,,,,,,,,,,,,,,,,,1.88712900000000E+01,1.39610900000000E+01,1.15312900000000E+01,8.14075700000000E+00,8.92765500000000E+00,8.53925000000000E+00,1.15018200000000E+01,1.15176600000000E+01,1.15089500000000E+01,1.23375400000000E+01,1.46008800000000E+01,1.01775400000000E+01,9.92187500000000E+00,1.05840100000000E+01,8.08734300000000E+00,7.18015700000000E+00,9.94834900000000E+00,6.73469400000000E+00,8.25549100000000E+00,7.38556100000000E+00,9.21236500000000E+00,8.19594300000000E+00,8.60534100000000E+00,7.69410700000000E+00,7.87474100000000E+00,7.62859600000000E+00,1.11951700000000E+01,,
DOM,,,,,,,,,,,,,,,,,,,,,,,,,,,,,,,,3.39981500000000E+01,3.63497900000000E+01,3.60751500000000E+01,2.92276600000000E+01,2.92011700000000E+01,2.94088200000000E+01,2.85386500000000E+01,,,2.30898200000000E+01,,1.79791500000000E+01,,,,,3.03016600000000E+01,,,,
DZA,,,,,,,,,,,,,,,,,,,,,,,,,,,,,,,,,,,,,,,,,,4.77586900000000E+01,,,4.34037400000000E+01,3.10766300000000E+01,2.42989800000000E+01,,,,,
ECA,,,,,,,,,,,,,,,,,,,,,,,,,,,,,,,,,,,,,,,,,,,1.81902719814131E+01,1.90469383182669E+01,1.84511745632735E+01,1.74581480064954E+01,1.90794701231656E+01,1.85304963510353E+01,1.69813011193107E+01,2.06751391990492E+01,,
ECS,,,,,,,,,,,,,,,,,,,,,,,,,,,,,,,,,1.79844352994038E+01,1.95532409232028E+01,2.05883465846755E+01,2.05253682569537E+01,2.03332508536974E+01,2.07974144274757E+01,2.08804895938807E+01,2.03212704498408E+01,1.88712478601597E+01,1.86498975868934E+01,1.88708072354065E+01,1.92838506645313E+01,1.89059627239864E+01,1.86050902103983E+01,1.85435456877875E+01,1.71892318291387E+01,1.64173237337791E+01,2.04729475944554E+01,,
ECU,,,,,,,,,,,,,,,,,,,,,,,,,,,,,,,1.35207700000000E+01,1.75981900000000E+01,,,1.48678200000000E+01,1.52945300000000E+01,2.00583700000000E+01,1.89206600000000E+01,2.35062600000000E+01,,,2.00902300000000E+01,1.73822600000000E+01,2.16131600000000E+01,1.82992700000000E+01,1.55226300000000E+01,1.63413800000000E+01,,,1.41394100000000E+01,,
EGY,,,,,,,,,,,,,,,,,,,,,,,,,,,,,,,,,,,,,,,2.31136900000000E+01,2.03768400000000E+01,,2.77003200000000E+01,2.71019400000000E+01,,,3.40836600000000E+01,2.98682800000000E+01,2.47954800000000E+01,,,,
EMU,,,,,,,,,,,,,,,,,,,,,,,,2.55090752285763E+01,,2.89276104359321E+01,,2.76321773486139E+01,2.60906733252698E+01,2.39167865915612E+01,2.26230008661697E+01,1.84497113772884E+01,2.01089504499968E+01,2.24968037266047E+01,2.40688861567527E+01,2.34430338858065E+01,2.37444325357609E+01,2.35885727067861E+01,2.18270678185949E+01,2.10159582531288E+01,1.86636773645969E+01,1.71034977028654E+01,1.78764422235040E+01,1.78718614796059E+01,1.80243240833140E+01,1.85055505088574E+01,1.74519074633630E+01,1.60302648706207E+01,1.65202857263095E+01,2.09950655829404E+01,,
ESP,,,,,,,,,,,,,,,,,,,,,2.52923000000000E+01,3.08637400000000E+01,3.46704600000000E+01,3.75586000000000E+01,4.18344300000000E+01,4.37721900000000E+01,4.28057200000000E+01,4.01213000000000E+01,3.72840400000000E+01,3.21574700000000E+01,3.02481500000000E+01,2.90118800000000E+01,3.23740800000000E+01,4.10086300000000E+01,4.28556700000000E+01,4.04479600000000E+01,3.99187800000000E+01,3.71991000000000E+01,3.39313100000000E+01,2.82517600000000E+01,2.52950400000000E+01,2.07577200000000E+01,2.22395500000000E+01,2.27473400000000E+01,2.20361400000000E+01,1.96593600000000E+01,1.79199000000000E+01,1.81891800000000E+01,2.46254100000000E+01,3.78500100000000E+01,,
EST,,,,,,,,,,,,,,,,,,,,,,,,,,,,,,,,,,,,1.33595300000000E+01,,1.42696600000000E+01,1.49501600000000E+01,2.20833300000000E+01,2.21339400000000E+01,2.22778500000000E+01,1.75695500000000E+01,2.05645200000000E+01,2.17142800000000E+01,1.58192100000000E+01,1.20481900000000E+01,1.00253800000000E+01,1.20336900000000E+01,2.72727300000000E+01,,
ETH,,,,,,,,,,,,,,,,,,,,,,,,,,,,,,,,2.37739300000000E+00,,,,,,,,,,,,,3.50021800000000E+01,7.72361700000000E+00,2.48908300000000E+01,,,,,
EUU,,,,,,,,,,,,,,,,,,,,,,,,,,,,,,,,1.70413225063159E+01,2.00893648486574E+01,2.20840318173928E+01,2.32095861583107E+01,2.23135193777204E+01,2.22464825654779E+01,2.14746360921557E+01,2.00675051632030E+01,2.02482714771420E+01,1.94646519987527E+01,1.90182613342172E+01,1.99628975450743E+01,1.97278840101037E+01,1.96982775146114E+01,1.97428599201608E+01,1.83654550143019E+01,1.63557793456439E+01,1.61579528413881E+01,2.07201585091006E+01,,
FIN,,,,,,,,,,,,,,,,,,,,,8.80952400000000E+00,9.87951900000000E+00,1.05651100000000E+01,1.12219400000000E+01,1.04477600000000E+01,9.72568500000000E+00,1.01010100000000E+01,9.58549200000000E+00,8.42391300000000E+00,8.16831700000000E+00,8.88324900000000E+00,1.49456500000000E+01,2.44776100000000E+01,3.07936500000000E+01,3.11643800000000E+01,2.69896200000000E+01,2.50000000000000E+01,2.33009700000000E+01,2.20496900000000E+01,2.02898600000000E+01,2.02816900000000E+01,1.87500000000000E+01,1.94767400000000E+01,2.04142000000000E+01,1.94610800000000E+01,1.88790600000000E+01,1.76136400000000E+01,1.57458600000000E+01,1.57024800000000E+01,2.04678400000000E+01,,
FJI,,,,,,,,,,,,,,,,,,,,,,,1.46831500000000E+01,,,,,,,,,,,,,,1.31257500000000E+01,,,,,,,,,,,,,,,
FRA,,,,,,,,,,,,,,,,,,,,,,,,1.96896900000000E+01,2.44596200000000E+01,2.55588000000000E+01,2.33691500000000E+01,2.29062300000000E+01,2.16480200000000E+01,1.89866800000000E+01,1.91457500000000E+01,1.94160300000000E+01,2.08156900000000E+01,2.45794800000000E+01,2.75193300000000E+01,2.59318200000000E+01,2.63319700000000E+01,2.81088900000000E+01,2.54079100000000E+01,2.65430100000000E+01,2.07322000000000E+01,1.86533800000000E+01,2.01686700000000E+01,1.83322900000000E+01,1.97026800000000E+01,2.02108000000000E+01,2.13415500000000E+01,1.87437600000000E+01,1.81196200000000E+01,2.26328000000000E+01,,
FRO,,,,,,,,,,,,,,,,,,,,,,,,,,,,,,,,,,,,,,,,,,,,,,9.43396200000000E+00,,,,,,
GAB,,,,,,,,,,,,,,,,,,,,,,,,,,,,,,,,,,4.09645500000000E+01,,,,,,,,,,,,,,,,,,
GBR,,,,,,,,,,,,,,,,,,,,,,,,,1.96799600000000E+01,1.77501800000000E+01,1.79089400000000E+01,1.57633000000000E+01,1.28264400000000E+01,1.00316900000000E+01,1.01170500000000E+01,1.35396500000000E+01,1.54141800000000E+01,1.72849600000000E+01,1.61269600000000E+01,1.52703900000000E+01,1.46586300000000E+01,1.34274000000000E+01,1.22634900000000E+01,1.21659600000000E+01,1.17033600000000E+01,1.04418600000000E+01,1.10079300000000E+01,1.14880100000000E+01,1.09155700000000E+01,1.22439900000000E+01,1.39097700000000E+01,1.43808300000000E+01,1.41039500000000E+01,1.88550700000000E+01,,
GEO,,,,,,,,,,,,,,,,,,,,,,,,,,,,,,,,,,,,,,,,2.45717400000000E+01,2.11180100000000E+01,2.00704200000000E+01,2.79255300000000E+01,2.49278100000000E+01,2.82976300000000E+01,2.82864500000000E+01,,3.15128300000000E+01,3.55177600000000E+01,,,
GHA,,,,,,,,,,,,,,,,,,,,,,,,,,,,,,,,,1.71000000000000E+01,,,,,,,1.59000000000000E+01,1.65531100000000E+01,,,,,,,,,,,
GRC,,,,,,,,,,,,,,,,,,,,,,1.38122700000000E+01,1.91372400000000E+01,2.30572300000000E+01,2.39392300000000E+01,2.41841200000000E+01,2.42459900000000E+01,2.49949600000000E+01,2.59692200000000E+01,2.49113000000000E+01,2.33052400000000E+01,2.45237700000000E+01,2.49618600000000E+01,2.88175500000000E+01,2.77273600000000E+01,2.78927700000000E+01,3.11578500000000E+01,3.10267400000000E+01,2.97298000000000E+01,3.17318300000000E+01,2.95042500000000E+01,2.80492800000000E+01,2.68402400000000E+01,2.68462400000000E+01,2.68877600000000E+01,2.59777900000000E+01,2.51783900000000E+01,2.29503700000000E+01,2.20876600000000E+01,2.57805700000000E+01,,
GRD,,,,,,,,,,,,,,,,,,,,,,,,,,,,,,,,2.70353300000000E+01,,,4.44550700000000E+01,,3.01463400000000E+01,,3.14725000000000E+01,,,,,,,,,,,,,
GTM,,,,,,,,,,,,,,,,,,,,,,,,,,,,,,3.84661400000000E+00,,,,,,,,,,,,,,,,,,,,,,
GUM,,,,,,,,,,,,,,,,,,,,,,,,2.32258100000000E+01,,,1.64788700000000E+01,,,,,,,,,,,,,,,,,,,,,,,,,
GUY,,,,,,,,,,,,,,,,,,,,,,,,,,,,2.55594800000000E+01,,,,,2.68217700000000E+01,,,,,,,,,2.00124600000000E+01,2.40467300000000E+01,,,,,,,,,
HIC,,,,,,,,,,,,,,,,,,,,,,,,1.71804995581492E+01,1.68473453224858E+01,1.68374924871717E+01,1.64424124253669E+01,1.55503603857393E+01,1.42950660084337E+01,1.32066969104234E+01,1.30228935178550E+01,1.36456149826529E+01,1.51634503562732E+01,1.61200413015459E+01,1.61288686160858E+01,1.56548723030255E+01,1.56897041247851E+01,1.52767705895977E+01,1.50615863395948E+01,1.50183722709675E+01,1.40083262841835E+01,1.42555662293666E+01,1.51234084624464E+01,1.53486905991616E+01,1.50196707966109E+01,1.47735979632307E+01,1.37414149374474E+01,1.26936002115756E+01,1.38379922106825E+01,1.72735758498941E+01,,
HKG,,,,,,,,,,,,,,,,,,,,,7.08304700000000E+00,4.34267700000000E+00,5.97230200000000E+00,6.76979900000000E+00,6.61775500000000E+00,5.95162300000000E+00,5.73010000000000E+00,3.85346500000000E+00,3.38588300000000E+00,2.76201300000000E+00,3.42479500000000E+00,4.19551000000000E+00,4.32766600000000E+00,4.49488300000000E+00,4.33610400000000E+00,6.87366600000000E+00,6.64961600000000E+00,5.20522800000000E+00,1.05406000000000E+01,,1.11872700000000E+01,1.12199900000000E+01,1.49709700000000E+01,1.49743600000000E+01,1.21158700000000E+01,1.06700400000000E+01,1.03705600000000E+01,8.97070100000000E+00,8.54024600000000E+00,1.25977500000000E+01,,
HND,,,,,,,,,,,,,,,,,,,,,,,,,,,,,,,,,,9.76664200000000E+00,5.03955500000000E+00,,,,,7.26590700000000E+00,,6.12967800000000E+00,5.95039900000000E+00,7.89072800000000E+00,1.00620800000000E+01,7.02866900000000E+00,,,,,,
HRV,,,,,,,,,,,,,,,,,,,,,,,,,,,,,,,,4.02272400000000E+01,,,,,,,2.98295500000000E+01,,,4.53405000000000E+01,3.63071400000000E+01,3.58384200000000E+01,3.27586200000000E+01,3.22596400000000E+01,2.88643500000000E+01,2.40196100000000E+01,2.19215900000000E+01,,,
HTI,,,,,,,,,,,,,,,,,,,,,,,,2.22534600000000E+01,,,,,5.40367900000000E+01,,2.35579000000000E+01,,,,,,,,,1.79450900000000E+01,,,,,,,,,,,,
HUN,,,,,,,,,,,,,,,,,,,,,,,,,,,,,,,,,1.88067700000000E+01,2.29085600000000E+01,2.09087800000000E+01,1.86368800000000E+01,1.79803800000000E+01,1.59434700000000E+01,1.39976600000000E+01,1.28897100000000E+01,1.26890400000000E+01,1.12405500000000E+01,1.26059800000000E+01,1.33771900000000E+01,1.54548000000000E+01,1.94363700000000E+01,1.91001200000000E+01,1.80460600000000E+01,1.98761800000000E+01,2.64771300000000E+01,,
IDN,,,,,,,,,,,,,,,,,,,,,,,9.00716300000000E+00,,,6.85888400000000E+00,8.29315100000000E+00,,8.98048900000000E+00,8.93695400000000E+00,,,8.82389000000000E+00,,,,1.54496900000000E+01,,,1.89561800000000E+01,1.98597700000000E+01,2.40855400000000E+01,2.79267500000000E+01,2.78754100000000E+01,2.95583000000000E+01,3.24369200000000E+01,3.03552600000000E+01,2.51414800000000E+01,2.33090400000000E+01,2.21953300000000E+01,,
IMY,,,,,,,,,,,,,,,,,,,,,,,,,,,,,,,,7.55336600000000E+00,,,,,7.55410400000000E+00,,,,,3.97547400000000E+00,,,,,7.22449000000000E+00,,,,,
IND,,,,,,,,,,,,,,,,,,,,,,,,,,,,,,,,,,,8.26075200000000E+00,,,,,,1.01268900000000E+01,,,,1.05276500000000E+01,1.05276500000000E+01,,,,,,
IRL,,,,,,,,,,,,,,,,,,,,,,,,2.13060300000000E+01,2.33686600000000E+01,2.50000000000000E+01,2.61800100000000E+01,2.59565400000000E+01,2.52154500000000E+01,2.18260600000000E+01,1.97021000000000E+01,2.31026400000000E+01,2.27256400000000E+01,2.49910200000000E+01,2.30053700000000E+01,1.89642600000000E+01,1.81254600000000E+01,1.58910700000000E+01,1.14496500000000E+01,8.55384600000000E+00,6.51910300000000E+00,6.18718600000000E+00,7.80300600000000E+00,8.12086900000000E+00,8.28534900000000E+00,8.56305000000000E+00,8.59263500000000E+00,9.11168200000000E+00,1.25996300000000E+01,2.42647100000000E+01,,
IRN,,,,,,,,,,,,,,,,,,,,,,,,,,,,,,,,,,,,,,,,,,,,,,2.31315500000000E+01,,2.23041300000000E+01,2.30051800000000E+01,,,
ISL,,,,,,,,,,,,,,,,,,,,,,,,,,,,,,,,4.88751600000000E+00,9.89839300000000E+00,9.96069300000000E+00,1.15358300000000E+01,1.10057000000000E+01,8.43383600000000E+00,7.67705200000000E+00,5.99570900000000E+00,4.38713400000000E+00,4.68325200000000E+00,4.83007900000000E+00,7.20188500000000E+00,8.24784000000000E+00,8.09173700000000E+00,7.21722300000000E+00,8.36120400000000E+00,7.18532200000000E+00,8.30670900000000E+00,1.59560900000000E+01,,
ISR,,,,,,,,,,,,,,,,,,,,,1.32530100000000E+01,1.43305000000000E+01,1.40603900000000E+01,1.28308700000000E+01,1.62527200000000E+01,1.80949900000000E+01,1.88095000000000E+01,1.53778200000000E+01,1.57635500000000E+01,2.06469700000000E+01,2.21146100000000E+01,2.23991100000000E+01,2.31549500000000E+01,2.07908200000000E+01,1.66866700000000E+01,1.49004700000000E+01,1.35434900000000E+01,1.49451800000000E+01,1.69530400000000E+01,1.67183500000000E+01,1.69708500000000E+01,1.86193600000000E+01,2.08660300000000E+01,2.22031000000000E+01,2.04832800000000E+01,1.78112200000000E+01,1.82418900000000E+01,1.60522400000000E+01,1.26350400000000E+01,1.47244200000000E+01,,
ITA,,,,,,,,,,,,,,,,,,,,,2.50238300000000E+01,,2.94334400000000E+01,3.04766400000000E+01,3.28676300000000E+01,3.38890200000000E+01,3.45118200000000E+01,3.55406300000000E+01,3.44819700000000E+01,3.36495100000000E+01,3.14977000000000E+01,3.07747300000000E+01,3.26651800000000E+01,2.87567000000000E+01,3.04928700000000E+01,3.19069800000000E+01,3.21809400000000E+01,3.20679300000000E+01,3.20844700000000E+01,3.11206300000000E+01,2.96867100000000E+01,2.70432300000000E+01,2.62888800000000E+01,2.62654600000000E+01,2.35348000000000E+01,2.39726000000000E+01,2.15989400000000E+01,2.02931200000000E+01,2.12561900000000E+01,2.54381000000000E+01,,
JAM,,,,,,,,,,,,,,,,,,,,,,4.51633400000000E+01,4.86834000000000E+01,,,,,,,,3.17587000000000E+01,3.01302900000000E+01,2.82726100000000E+01,2.94995000000000E+01,2.73059100000000E+01,3.41368100000000E+01,3.44168900000000E+01,3.34480400000000E+01,3.33333400000000E+01,3.39977900000000E+01,3.20912600000000E+01,3.29803900000000E+01,3.07547200000000E+01,2.12520600000000E+01,2.80861300000000E+01,,,,2.58802100000000E+01,2.70960300000000E+01,,
JOR,,,,,,,,,,,,,,,,,,,,,,,,,,,,,,,,,,,,,,,,,,,,,,,,2.82778200000000E+01,2.74621400000000E+01,2.69818100000000E+01,,
JPN,,,,,,,,,,,,,,,,,,,,,3.57653800000000E+00,4.01146100000000E+00,3.91737900000000E+00,4.52674900000000E+00,4.90463200000000E+00,4.77489800000000E+00,5.16556300000000E+00,5.23560200000000E+00,4.85312900000000E+00,4.45544600000000E+00,4.31654700000000E+00,4.46224300000000E+00,4.35754200000000E+00,5.10543800000000E+00,5.45050000000000E+00,6.09480800000000E+00,6.72748000000000E+00,6.64335600000000E+00,7.72014500000000E+00,9.27573100000000E+00,9.19842300000000E+00,9.71272200000000E+00,1.00719400000000E+01,1.01492500000000E+01,9.47205000000000E+00,8.67507900000000E+00,8.00000000000000E+00,7.70491800000000E+00,7.22689100000000E+00,9.05923400000000E+00,,
KAZ,,,,,,,,,,,,,,,,,,,,,,,,,,,,,,,,,,,,,,,,,,,1.73339300000000E+01,1.45266900000000E+01,1.42718800000000E+01,,,,7.40598900000000E+00,6.70000000000000E+00,,
KGZ,,,,,,,,,,,,,,,,,,,,,,,,,,,,,,,,,,,,,,,,,,,2.00837700000000E+01,,1.52424900000000E+01,1.44511000000000E+01,1.45658300000000E+01,,,,,
KHM,,,,,,,,,,,,,,,,,,,,,,,,,,,,,,,,,,,,,,,1.21766800000000E+01,,,,,,,,,,,,,
KOR,,,,,,,,,,,,,,,,,,,,,1.14583300000000E+01,1.01583100000000E+01,1.00795800000000E+01,9.16844400000000E+00,8.85258400000000E+00,1.00348700000000E+01,8.99047700000000E+00,7.67175600000000E+00,7.19712100000000E+00,6.78362600000000E+00,6.98376800000000E+00,7.30547000000000E+00,7.63673900000000E+00,8.94625200000000E+00,7.24224000000000E+00,6.27038800000000E+00,6.10258300000000E+00,7.57812500000000E+00,1.58614800000000E+01,1.40166400000000E+01,1.08369200000000E+01,1.02350500000000E+01,8.54525700000000E+00,1.00757500000000E+01,1.04580200000000E+01,1.02129100000000E+01,1.00110600000000E+01,8.79712800000000E+00,9.32475900000000E+00,9.81432300000000E+00,,
KWT,,,,,,,,,,,,,,,,,,,,,,,,4.73525800000000E+00,,,,,,,,,,,,1.31763400000000E+01,,,,,,,,,,1.13242200000000E+01,,,,,,
LAC,,,,,,,,,,,,,,,,,,,,,,,,,,,,,,,,,1.14852944618679E+01,1.25219773674838E+01,,1.29436538867748E+01,1.58752386969816E+01,1.50780488572369E+01,1.64563107707466E+01,1.70124587194700E+01,1.88734955164102E+01,1.63540131902849E+01,1.60281360133697E+01,1.80763877957509E+01,1.68501807286163E+01,,,1.48226273144261E+01,1.41943440802712E+01,,,
LAO,,,,,,,,,,,,,,,,,,,,,,,,,,,,,,,,,,,,5.01755600000000E+00,,,,,,,,,,,,,,,,
LBN,,,,,,,,,,,,,,,,,,,,,,,,,,,,,,,,,,,,,,,,,,,,,2.09347200000000E+01,,,2.21183800000000E+01,,,,
LBR,,,,,,,,,,,,,,,,,,,,,,,,,,,,,,,,,,,,,,,,,,,,,,,,4.73186100000000E+00,,,,
LCA,,,,,,,,,,,,,,,,,,,,,,,,,,,,,,,,1.54321000000000E+01,,2.90938000000000E+01,3.37444000000000E+01,3.41807900000000E+01,3.52259600000000E+01,3.65880400000000E+01,4.39660100000000E+01,3.65940100000000E+01,3.61280900000000E+01,2.74596500000000E+01,3.99015400000000E+01,3.94939000000000E+01,4.07573900000000E+01,,,,,,,
LCN,,,,,,,,,,,,,,,,,,,,,,,,,,,,,,,,,1.17199884417541E+01,1.27552143563312E+01,,1.31292366719008E+01,1.60085980230872E+01,1.51780525655323E+01,1.65495821827571E+01,1.70783924621795E+01,1.88999872592902E+01,1.63561655264782E+01,1.61002687080050E+01,1.81174207179207E+01,1.68853687403703E+01,,,1.48655574828462E+01,1.42548558526676E+01,,,
LKA,,,,,,,,,,,,,,,,,,,,,,,,,,,,,,,,,,3.56160400000000E+01,3.48564000000000E+01,3.51790200000000E+01,3.29199900000000E+01,3.21333200000000E+01,2.61228100000000E+01,2.67976600000000E+01,2.36456000000000E+01,,,2.62119600000000E+01,2.65312500000000E+01,2.63576600000000E+01,2.16218300000000E+01,2.12222700000000E+01,1.85297400000000E+01,2.12549000000000E+01,,
LMC,,,,,,,,,,,,,,,,,,,,,,,,,,,,,,,,,,,,,,,,,1.24823252305250E+01,,,,1.38140972737332E+01,1.55849741480801E+01,,,,,,
LSO,,,,,,,,,,,,,,,,,,,,,,,,,,,,,,,,,,,,,,4.73681100000000E+01,,3.35347500000000E+01,,,,,,,,,,,,
LTU,,,,,,,,,,,,,,,,,,,,,,,,,,,,,,,,,,,,,,2.57874000000000E+01,2.52511400000000E+01,2.54819000000000E+01,2.85636900000000E+01,3.15918900000000E+01,2.04444400000000E+01,2.69066500000000E+01,2.12232900000000E+01,1.57294800000000E+01,9.83488800000000E+00,8.21355200000000E+00,1.34264900000000E+01,2.93750000000000E+01,,
LUX,,,,,,,,,,,,,,,,,,,,,,,,6.76470600000000E+00,5.52147200000000E+00,6.72782900000000E+00,6.21118000000000E+00,4.93421100000000E+00,4.48275900000000E+00,2.99625500000000E+00,3.63636400000000E+00,2.62172300000000E+00,3.52941200000000E+00,4.42477900000000E+00,7.89751500000000E+00,7.24811700000000E+00,9.23276600000000E+00,7.27047300000000E+00,6.41295100000000E+00,6.75185300000000E+00,6.38055400000000E+00,6.34034000000000E+00,6.96044800000000E+00,1.09271700000000E+01,1.69108600000000E+01,1.36891300000000E+01,1.61757600000000E+01,1.51886100000000E+01,1.78680900000000E+01,1.71611700000000E+01,,
LVA,,,,,,,,,,,,,,,,,,,,,,,,,,,,,,,,,,,,,3.41075800000000E+01,2.58575200000000E+01,2.70981500000000E+01,2.44005600000000E+01,2.30031900000000E+01,2.25806400000000E+01,2.07407400000000E+01,1.84966900000000E+01,1.81818200000000E+01,1.30014800000000E+01,1.31347300000000E+01,1.09102600000000E+01,1.31353100000000E+01,3.38028200000000E+01,,
MAC,,,,,,,,,,,,,,,,,,,,,,,,,,,,,,,,,3.95683500000000E+00,3.79310400000000E+00,5.63380300000000E+00,,,8.40000000000000E+00,1.07438000000000E+01,,9.89399300000000E+00,,,1.28755400000000E+01,1.10671900000000E+01,8.22784700000000E+00,7.12328800000000E+00,6.15034200000000E+00,6.07375300000000E+00,7.52941200000000E+00,,
MAR,,,,,,,,,,,,,,,,,,,,,,,,,,,,,,,3.11361500000000E+01,,,,,,,,3.50228000000000E+01,2.04864900000000E+01,1.93152100000000E+01,1.89037600000000E+01,1.76295400000000E+01,1.70234500000000E+01,1.53951900000000E+01,1.56964400000000E+01,1.65617000000000E+01,1.72045600000000E+01,1.82549400000000E+01,2.18754700000000E+01,,
MCO,,,,,,,,,,,,,,,,,,,,,,,,,,,,,,,,,,,,,,,,,6.91144800000000E+00,,,,,,,,,,,
MDA,,,,,,,,,,,,,,,,,,,,,,,,,,,,,,,,,,,,,,,,,,,1.51701300000000E+01,1.81331700000000E+01,1.97444100000000E+01,1.87910700000000E+01,1.70945500000000E+01,1.44586900000000E+01,1.12223000000000E+01,1.54221900000000E+01,,
MDG,,,,,,,,,,,,,,,,,,,,,,,,,,,,,,,,,,,,,,,,,,,,6.98248300000000E+00,,2.26626600000000E+00,,,,,,
MDV,,,,,,,,,,,,,,,,,,,,,,,,,,,,,,,,,,,,1.88888900000000E+00,,,,,4.42792800000000E+00,,,,,,2.21772200000000E+01,,,,,
MEA,,,,,,,,,,,,,,,,,,,,,,,,,,,,,,,,,,,,,,,,,,,,,,2.65807064010031E+01,,,,,,
MEX,,,,,,,,,,,,,,,,,,,,,,,,,,,,,4.37837100000000E+00,,,5.42863000000000E+00,5.39199200000000E+00,5.36637200000000E+00,7.10077200000000E+00,1.13262600000000E+01,9.23874100000000E+00,7.37562100000000E+00,6.43621700000000E+00,4.08565100000000E+00,5.08322600000000E+00,4.85217200000000E+00,5.91483200000000E+00,6.17778200000000E+00,7.60150900000000E+00,6.60610200000000E+00,6.15469500000000E+00,6.69020600000000E+00,7.03248600000000E+00,1.00113000000000E+01,,
MHL,,,,,,,,,,,,,,,,,,,,,,,,,,,,,,,,,,,,,,,,6.34117600000000E+01,,,,,,,,,,,,
MKD,,,,,,,,,,,,,,,,,,,,,,,,,,,,,,,,,,,,,,,7.08566400000000E+01,6.28881700000000E+01,5.98558100000000E+01,,5.83604800000000E+01,6.56894200000000E+01,6.47775700000000E+01,6.26253500000000E+01,5.97450600000000E+01,5.77401700000000E+01,5.64102600000000E+01,5.48672600000000E+01,,
MLT,,,,,,,,,,,,,,,,,,,,,,,,,,,,,,,,,,,,,,,,,1.18840600000000E+01,1.75392700000000E+01,1.52354600000000E+01,1.74515200000000E+01,1.82634700000000E+01,1.67664700000000E+01,1.60655700000000E+01,1.39610400000000E+01,1.22112200000000E+01,1.33333300000000E+01,,
MNA,,,,,,,,,,,,,,,,,,,,,,,,,,,,,,,,,,,,,,,,,,,,,,2.71526438137226E+01,,2.25499557736490E+01,,,,
MNG,,,,,,,,,,,,,,,,,,,,,,,,,,,,,,,,,,,,,,,,,,,,2.00200700000000E+01,,,,,,,,
MNP,,,,,,,,,,,,,,,,,,,,,,,,,,,,,,,,,,,,,,,,,,,,5.85181000000000E+00,,,,,,,,
MUS,,,,,,,,,,,,,,,,,,,,,,,,,,,,,,,,,,,,2.37728600000000E+01,,,,,,,,,2.49180300000000E+01,2.58700700000000E+01,2.31405000000000E+01,2.45569600000000E+01,1.91632900000000E+01,2.13618100000000E+01,,
MWI,,,,,,,,,,,,,,,,,,,,,,,,9.06689400000000E+00,,,,,,,,,,,,,,,,,,,,,,,,,,,,
MYS,,,,,,,,,,,,,,,,,,,,,,,,,,,,,,,,,,,,,,,8.66320200000000E+00,9.68676700000000E+00,8.31510800000000E+00,,,,,,,1.08928400000000E+01,1.09183600000000E+01,,,
NAC,,,,,,,,,,,,,,,,,,,,,1.37437138619455E+01,1.46848793422194E+01,1.78020164630224E+01,1.73798398298229E+01,1.42658027913544E+01,1.38238722127210E+01,1.34423379706462E+01,1.22996891411857E+01,1.10781710490022E+01,1.09027633988602E+01,1.12780842658334E+01,1.36802900439436E+01,1.45270170202181E+01,1.37496915413080E+01,1.28001851103306E+01,1.23458512080661E+01,1.23490962114982E+01,1.17724542380645E+01,1.08970968585178E+01,1.02960559344426E+01,9.65803854800224E+00,1.07769440114602E+01,1.21486073289659E+01,1.25376542739565E+01,1.19859707435037E+01,1.14125328668250E+01,1.06141520046336E+01,1.06012400686414E+01,1.27268087275066E+01,1.73747794281368E+01,,
NAM,,,,,,,,,,,,,,,,,,,,,,,,,,,,,,,,,,,3.17040900000000E+01,,,3.70187900000000E+01,,,4.37106500000000E+01,4.47607500000000E+01,,,4.16962300000000E+01,,,,,,,
NER,,,,,,,,,,,,,,,,,,,,,,,,,,,,,,,,,,,,,,,,,,3.16129300000000E+00,,,,,,,,,,
NGA,,,,,,,,,,,,,,,,,,,,,,,,,,,1.53514300000000E+01,,,,,,,,,,,,,,,,,,,,,,,,,
NIC,,,,,,,,,,,,,,,,,,,,,,,,,,,,,,9.56365800000000E+00,1.25286700000000E+01,1.59691600000000E+01,,3.53467000000000E+01,3.07364000000000E+01,2.33399700000000E+01,1.83973900000000E+01,,1.57282100000000E+01,,9.11913900000000E+00,,,1.25204200000000E+01,,,8.59996600000000E+00,,,,,
NLD,,,,,,,,,,,,,,,,,,,,,,,,2.10521800000000E+01,,1.67777300000000E+01,,1.31374900000000E+01,1.10890800000000E+01,1.11004100000000E+01,8.13191800000000E+00,1.04374800000000E+01,1.13203100000000E+01,1.21117800000000E+01,1.14321400000000E+01,9.74886800000000E+00,8.76053000000000E+00,7.37465500000000E+00,5.25688700000000E+00,4.36917700000000E+00,4.57796900000000E+00,6.58174100000000E+00,8.00344800000000E+00,8.20922700000000E+00,6.55654600000000E+00,5.93297400000000E+00,5.27700900000000E+00,7.28190300000000E+00,7.28190300000000E+00,6.63441600000000E+00,,
NOR,,,,,,,,,,,,,,,,,,,,,4.70588300000000E+00,5.67164200000000E+00,7.58017500000000E+00,8.85714300000000E+00,7.62463400000000E+00,6.49717500000000E+00,4.97382200000000E+00,5.30303000000000E+00,7.92079200000000E+00,1.14666700000000E+01,1.17647100000000E+01,1.28358200000000E+01,1.38888900000000E+01,1.39158600000000E+01,1.26245800000000E+01,1.18644100000000E+01,1.23701300000000E+01,1.06451600000000E+01,9.14826500000000E+00,9.58466400000000E+00,1.01587300000000E+01,1.04575200000000E+01,1.14285700000000E+01,1.16883100000000E+01,1.16883100000000E+01,1.20306200000000E+01,8.64014200000000E+00,7.29284900000000E+00,7.54270700000000E+00,9.15357000000000E+00,,
NPL,,,,,,,,,,,,,,,,,,,,,,,,,,,,,,,,,,,,,,,,2.98083700000000E+00,,,,,,,,,,,,
NZL,,,,,,,,,,,,,,,,,,,,,,,,,,,7.92014000000000E+00,8.02163100000000E+00,1.07581200000000E+01,1.35464200000000E+01,1.40716300000000E+01,1.93229200000000E+01,1.91156700000000E+01,1.78335200000000E+01,1.54560300000000E+01,1.22935300000000E+01,1.22404400000000E+01,1.35871100000000E+01,1.50463000000000E+01,1.42124300000000E+01,1.35562300000000E+01,1.21148700000000E+01,1.17630200000000E+01,1.04745900000000E+01,9.69345500000000E+00,9.72899700000000E+00,9.95358500000000E+00,1.00584200000000E+01,1.13653900000000E+01,1.65542300000000E+01,,
OEC,,,,,,,,,,,,,,,,,,,,,,,,1.71981871771598E+01,1.68772557746979E+01,1.68195459301035E+01,1.63836761683346E+01,1.54915128381743E+01,1.42571165787075E+01,1.32754191863246E+01,1.29970169691309E+01,1.34359391060545E+01,1.51774289997269E+01,1.61339523096494E+01,1.62374460188251E+01,1.56956179112516E+01,1.56968729405890E+01,1.53260073939821E+01,1.49879529348694E+01,1.49592086735243E+01,1.40048900839390E+01,1.41676634155090E+01,1.50066398208592E+01,1.52574180915784E+01,1.49357468319712E+01,1.47266387161303E+01,1.36884748492609E+01,1.26634311614371E+01,1.33165759717139E+01,1.72979703794242E+01,,
OED,,,,,,,,,,,,,,,,,,,,,,,,1.73664982598511E+01,1.70537611455598E+01,1.69421302890774E+01,1.64030607358060E+01,1.54915128381743E+01,1.33388900818129E+01,1.35360435113818E+01,1.32443158086824E+01,1.26356502077855E+01,1.40784212139434E+01,1.49366924378798E+01,1.51231912489006E+01,1.51139259343085E+01,1.47670927384323E+01,1.42998096052426E+01,1.39063885646122E+01,1.37616045954598E+01,1.29714988109109E+01,1.33168135926112E+01,1.43522435596661E+01,1.46880040415242E+01,1.46051124727348E+01,1.42500560454567E+01,1.32863785906994E+01,1.26022240822446E+01,1.32161624786757E+01,1.71083595575181E+01,,
PAK,,,,,,,,,,,,,,,,,,,,,,,,,,,,,5.28921300000000E+00,,5.13606300000000E+00,1.00591000000000E+01,8.57610900000000E+00,7.15058300000000E+00,7.42024100000000E+00,8.94807900000000E+00,,9.98440000000000E+00,1.04515700000000E+01,,1.33405400000000E+01,,1.34128000000000E+01,,1.16900000000000E+01,,8.64539300000000E+00,7.47577600000000E+00,7.73081200000000E+00,,,
PAN,,,,,,,,,,,,,,,,,,,,,,,2.02154600000000E+01,1.74285200000000E+01,2.29399500000000E+01,2.69918700000000E+01,2.39581300000000E+01,,3.10803800000000E+01,3.15152600000000E+01,2.16301100000000E+01,3.09036600000000E+01,,2.68253500000000E+01,2.77288700000000E+01,2.72673900000000E+01,3.03520400000000E+01,2.73284100000000E+01,2.86627200000000E+01,2.47576700000000E+01,3.01459000000000E+01,,2.93420100000000E+01,2.91894500000000E+01,2.67029900000000E+01,2.24939900000000E+01,2.05057800000000E+01,1.64738500000000E+01,1.48683700000000E+01,,,
PER,,,,,,,,,,,,,,,,,,,,,,,,,,,,,,,1.58172800000000E+01,1.12863300000000E+01,,1.65668400000000E+01,1.39362400000000E+01,1.14369800000000E+01,1.33051800000000E+01,1.30430100000000E+01,1.37250800000000E+01,1.26378700000000E+01,1.36376500000000E+01,1.32352900000000E+01,1.52000600000000E+01,1.63060100000000E+01,1.96112900000000E+01,1.67882300000000E+01,1.42309500000000E+01,1.42552200000000E+01,1.39836200000000E+01,,,
PHL,,,,,,,,,,,,,,,,,,,,,,,,9.82648800000000E+00,,1.21069200000000E+01,,1.58935000000000E+01,1.50417800000000E+01,1.70421300000000E+01,1.53883600000000E+01,1.76042700000000E+01,1.71959700000000E+01,1.72637400000000E+01,1.70053500000000E+01,1.61391000000000E+01,1.44727500000000E+01,1.57036800000000E+01,1.89099500000000E+01,1.96606400000000E+01,2.11921500000000E+01,1.89633200000000E+01,2.13983000000000E+01,2.01212000000000E+01,2.16693600000000E+01,1.64376500000000E+01,1.68596500000000E+01,1.49088500000000E+01,1.74651100000000E+01,1.73824000000000E+01,,
PNG,,,,,,,,,,,,,,,,,,,,,,,,,,,,,,,,,,,,,,,,,5.27113100000000E+00,,,,,,,,,,,
POL,,,,,,,,,,,,,,,,,,,,,,,,,,,,,,,,,2.77691800000000E+01,3.00451000000000E+01,3.25600800000000E+01,3.11641800000000E+01,2.84986400000000E+01,2.46980000000000E+01,2.32028700000000E+01,2.99629400000000E+01,3.51658300000000E+01,4.09843600000000E+01,4.38827600000000E+01,4.30296900000000E+01,4.08488600000000E+01,3.77724500000000E+01,2.97711800000000E+01,2.16569800000000E+01,1.72944500000000E+01,2.06504400000000E+01,,
PRI,,,,,,,,,,,,,,,,,,,,,,,,4.73053900000000E+01,4.06091300000000E+01,4.18788900000000E+01,4.27069700000000E+01,4.10324300000000E+01,3.49693200000000E+01,,3.13253000000000E+01,3.41040500000000E+01,3.40909100000000E+01,3.05000000000000E+01,,2.64248700000000E+01,2.77777800000000E+01,2.71428600000000E+01,2.48847900000000E+01,2.26851800000000E+01,2.05000000000000E+01,,2.32673300000000E+01,2.32227500000000E+01,2.12264200000000E+01,2.32558200000000E+01,2.23404300000000E+01,2.21556900000000E+01,2.45283000000000E+01,2.55033600000000E+01,,
PRT,,,,,,,,,,,,,,,,,,,,,1.64472500000000E+01,1.61639000000000E+01,1.45704200000000E+01,1.73674900000000E+01,1.90018500000000E+01,1.90273800000000E+01,1.85028800000000E+01,1.53595400000000E+01,1.24681700000000E+01,1.07952300000000E+01,9.57788900000000E+00,8.76170600000000E+00,9.44764100000000E+00,1.21375000000000E+01,1.41168800000000E+01,1.56551700000000E+01,1.62833100000000E+01,1.45664000000000E+01,1.03595500000000E+01,8.80754900000000E+00,8.58533700000000E+00,9.36257900000000E+00,1.16150300000000E+01,1.44613400000000E+01,1.53252100000000E+01,1.60758600000000E+01,1.62350800000000E+01,1.65734100000000E+01,1.64532000000000E+01,2.00042900000000E+01,,
PRY,,,,,,,,,,,,,,,,,,,,,,,,,,,,,,1.20737700000000E+01,1.56610200000000E+01,9.32326000000000E+00,1.09167200000000E+01,1.16850200000000E+01,8.21953700000000E+00,6.21792700000000E+00,,1.02700400000000E+01,1.02688400000000E+01,1.19097000000000E+01,1.37739500000000E+01,1.37728200000000E+01,1.85975200000000E+01,1.52637300000000E+01,,,,1.21858300000000E+01,1.18298700000000E+01,,,
PYF,,,,,,,,,,,,,,,,,,,,,,,,,,,,,,,,,,,,,,,,,,,3.32068200000000E+01,,,,,,,,,
QAT,,,,,,,,,,,,,,,,,,,,,,,,,,,,,,,,,,,,,,,,,,,,,,,,1.62090500000000E+00,,,,
ROM,,,,,,,,,,,,,,,,,,,,,,,,,,,,,,,,,2.23602800000000E+01,,,2.06115400000000E+01,2.01974400000000E+01,1.79648600000000E+01,1.82999000000000E+01,1.73011700000000E+01,1.78048400000000E+01,1.76335100000000E+01,2.22213600000000E+01,1.95273100000000E+01,2.23276700000000E+01,2.02503600000000E+01,2.14321600000000E+01,2.01454300000000E+01,1.85966000000000E+01,2.07586900000000E+01,,
RUS,,,,,,,,,,,,,,,,,,,,,,,,,,,,,,,,,1.29482600000000E+01,1.36937300000000E+01,1.62744000000000E+01,1.87359200000000E+01,1.93523800000000E+01,2.33076700000000E+01,2.68905500000000E+01,2.37139300000000E+01,2.05437700000000E+01,1.78795500000000E+01,1.54750800000000E+01,1.74216700000000E+01,1.70141200000000E+01,1.56375700000000E+01,1.64238500000000E+01,1.43937100000000E+01,1.40106700000000E+01,1.82863900000000E+01,,
RWA,,,,,,,,,,,,,,,,,,,,,,,,,,,,,,1.01796400000000E+00,,,,,,,7.41253400000000E-01,,,,,,,,,,,,,,,
SAS,,,,,,,,,,,,,,,,,,,,,,,,,,,,,,,,,,,8.61797786055175E+00,,,,,,1.07352167892540E+01,,,,1.09121732080668E+01,1.06001986422601E+01,,,,,,
SAU,,,,,,,,,,,,,,,,,,,,,,,,,,,,,,,,,,,,,,,,,,,,,,,,,2.82350100000000E+01,,,
SEN,,,,,,,,,,,,,,,,,,,,,,,,,,,,,,,,,,,,,,,,,,,,,,,1.48049400000000E+01,,,,,
SGP,,,,,,,,,,,,,,,,,,,,,4.81203000000000E+00,,4.47878500000000E+00,5.24494200000000E+00,4.61086700000000E+00,7.43243300000000E+00,9.93249700000000E+00,7.85375800000000E+00,6.01036300000000E+00,4.29065800000000E+00,2.85891900000000E+00,,5.21520600000000E+00,5.55194800000000E+00,5.71715200000000E+00,5.01226800000000E+00,6.75314800000000E+00,4.13255400000000E+00,5.86766600000000E+00,,8.81084400000000E+00,4.92700800000000E+00,7.11715300000000E+00,6.52173900000000E+00,,,8.87926400000000E+00,8.85793900000000E+00,9.16114800000000E+00,1.29140900000000E+01,,
SLB,,,,,,,,,,,,,,,,,,,,,,,,,,,,,,,,,,,,,,,,4.59000000000000E+01,,,,,,,,,,,,
SLE,,,,,,,,,,,,,,,,,,,,,,,,,,,,,,,,,,,,,,,,,,,,,5.15005000000000E+00,,,,,,,
SLV,,,,,,,,,,,,,,,,,,,,,,,,,,,,,,,,1.46808500000000E+01,9.40592800000000E+00,,,1.32896100000000E+01,1.31164200000000E+01,1.33286600000000E+01,1.28761500000000E+01,1.25335400000000E+01,,,1.14555300000000E+01,1.13812300000000E+01,1.15225000000000E+01,,1.23769300000000E+01,1.14338200000000E+01,,,,
SRB,,,,,,,,,,,,,,,,,,,,,,,,,,,,,,,,,,,,,,,,,,,,,,,4.78813600000000E+01,4.37179000000000E+01,3.51610700000000E+01,4.24749100000000E+01,,
STP,,,,,,,,,,,,,,,,,,,,,,,,,,,,,,,,8.15328100000000E+00,,,,,,,,,,,,,,,,,,,,
SUR,,,,,,,,,,,,,,,,,,,,,,,,,,,,3.27358900000000E+01,,3.52839000000000E+01,3.65873800000000E+01,,4.00386300000000E+01,3.57526900000000E+01,,2.61801000000000E+01,,,,3.40806100000000E+01,,,,,2.15044900000000E+01,,,,,,,
SVK,,,,,,,,,,,,,,,,,,,,,,,,,,,,,,,,,,,2.73429900000000E+01,2.47589200000000E+01,2.10402500000000E+01,2.26246500000000E+01,2.51423100000000E+01,3.38367200000000E+01,3.69701300000000E+01,3.90720400000000E+01,3.73917500000000E+01,3.31102800000000E+01,3.27121500000000E+01,2.98904500000000E+01,2.66000000000000E+01,2.01091200000000E+01,1.88283600000000E+01,2.73400800000000E+01,,
SVN,,,,,,,,,,,,,,,,,,,,,,,,,,,,,,,,2.22364300000000E+01,,3.26087000000000E+01,2.20339000000000E+01,1.88976400000000E+01,1.66297100000000E+01,1.63020500000000E+01,1.75665400000000E+01,1.84937200000000E+01,1.63585900000000E+01,1.57129000000000E+01,1.65469600000000E+01,1.73420700000000E+01,1.61248600000000E+01,1.59111900000000E+01,1.38548500000000E+01,1.00934600000000E+01,1.04300100000000E+01,1.36008800000000E+01,,
SWE,,,,,,,,,,,,,,,,,,,,,6.26741000000000E+00,7.70328100000000E+00,9.28571400000000E+00,1.00574700000000E+01,7.93650800000000E+00,7.22379600000000E+00,6.70470800000000E+00,5.29986000000000E+00,4.24076600000000E+00,3.89261700000000E+00,4.63847200000000E+00,7.97101500000000E+00,1.37096800000000E+01,2.27436800000000E+01,2.26168200000000E+01,1.95402300000000E+01,2.12424900000000E+01,2.12058200000000E+01,1.67372900000000E+01,1.43157900000000E+01,1.18750000000000E+01,1.18000000000000E+01,1.29292900000000E+01,1.37651800000000E+01,1.69518800000000E+01,2.23048300000000E+01,2.13340400000000E+01,1.89338200000000E+01,1.93731700000000E+01,2.50251500000000E+01,,
SWZ,,,,,,,,,,,,,,,,,,,,,,,,,,,,,,,,,,,,4.35698200000000E+01,,5.51924400000000E+01,,,,,,,,,,,,,,
SYC,,,,,,,,,,,,,,,,,,,,,,2.13626400000000E+01,,,,3.08230100000000E+01,,,,,,,,,2.28216800000000E+01,,,,,,,,2.03305200000000E+01,,,,,,,,,
SYR,,,,,,,,,,,,,,,,,,,,,,,,9.50791600000000E+00,9.36447300000000E+00,,,,,,,,,,,,,,,,,,2.63210600000000E+01,1.94676100000000E+01,,,,1.90905100000000E+01,,,,
THA,,,,,,,,,,,,,,,,,,,,,1.58028300000000E+00,,3.56556600000000E+00,,7.94353500000000E+00,,,9.62862300000000E+00,5.27688700000000E+00,2.42793200000000E+00,4.28080700000000E+00,,,,2.61177800000000E+00,,2.45824500000000E+00,2.17497100000000E+00,7.44022200000000E+00,7.74008900000000E+00,6.55836800000000E+00,7.58352900000000E+00,,5.02726600000000E+00,4.49957500000000E+00,4.76007400000000E+00,4.77464900000000E+00,4.46673400000000E+00,4.76809400000000E+00,4.25892700000000E+00,,
TON,,,,,,,,,,,,,,,,,,,,,,,,,,,,,,,,,,,,,3.02759100000000E+01,,,,,,,1.19295700000000E+01,,,,,,,,
TTO,,,,,,,,,,,,,,,,,,,,,,2.05128200000000E+01,,2.12828000000000E+01,,2.98181800000000E+01,3.26241100000000E+01,4.00483500000000E+01,3.93707500000000E+01,3.98214300000000E+01,3.63957600000000E+01,3.41592900000000E+01,,3.34854000000000E+01,,3.10132200000000E+01,2.84874000000000E+01,,2.69451300000000E+01,2.53600000000000E+01,2.31828600000000E+01,,2.11092700000000E+01,,,1.64768400000000E+01,1.29830000000000E+01,1.13177000000000E+01,1.04721000000000E+01,,,
TUN,,,,,,,,,,,,,,,,,,,,,,,,,,,,,,3.08266200000000E+01,,,,,,,,3.18514400000000E+01,,,,,,,,3.06809700000000E+01,,,,,,
TUR,,,,,,,,,,,,,,,,,,,,,,,,,,,,,1.74597600000000E+01,1.65310200000000E+01,1.60188000000000E+01,1.53452700000000E+01,1.62941400000000E+01,1.77501300000000E+01,1.60400200000000E+01,1.55525900000000E+01,1.35001600000000E+01,1.43482700000000E+01,1.41633800000000E+01,1.50185600000000E+01,1.30531400000000E+01,1.62126600000000E+01,1.91593300000000E+01,2.05344000000000E+01,2.05632600000000E+01,1.98827800000000E+01,1.90563400000000E+01,1.99816700000000E+01,2.04701000000000E+01,2.52806500000000E+01,,
TZA,,,,,,,,,,,,,,,,,,,,,,,,,,,,,,,,,,,,,,,,,,8.94499600000000E+00,,,,,8.84486800000000E+00,,,,,
UGA,,,,,,,,,,,,,,,,,,,,,,,,,,,,,,,,1.89471000000000E+00,,,,,,,,,,,,,,,,,,,,
UKR,,,,,,,,,,,,,,,,,,,,,,,,,,,,,,,,,,,,,,,,,,,,,1.57074900000000E+01,1.48852800000000E+01,,,,,,
URY,,,,,,,,,,,,,,,,,,,,,,,,,,,,,,,2.34267200000000E+01,2.43509100000000E+01,2.38794400000000E+01,2.28731300000000E+01,2.41102600000000E+01,2.46347300000000E+01,2.05880200000000E+01,,2.42873900000000E+01,,3.07449800000000E+01,3.42395600000000E+01,,3.82624800000000E+01,,2.95082000000000E+01,2.72558500000000E+01,2.42969300000000E+01,2.10250000000000E+01,2.00250000000000E+01,,
USA,,,,,,,,,,,,,,,,,,,,,1.38487100000000E+01,1.49041300000000E+01,1.77510500000000E+01,1.71655000000000E+01,1.39105400000000E+01,1.35701600000000E+01,1.32879700000000E+01,1.21973500000000E+01,1.10317300000000E+01,1.08977500000000E+01,1.11595200000000E+01,1.34415300000000E+01,1.42302000000000E+01,1.33711200000000E+01,1.24600900000000E+01,1.20734700000000E+01,1.20143500000000E+01,1.12886700000000E+01,1.04407400000000E+01,9.89805500000000E+00,9.34197700000000E+00,1.05570200000000E+01,1.19958900000000E+01,1.24270300000000E+01,1.18421100000000E+01,1.13095000000000E+01,1.05072800000000E+01,1.05414800000000E+01,1.28455400000000E+01,1.75983100000000E+01,,
VCT,,,,,,,,,,,,,,,,,,,,,,,,,,,,,,,,3.66592300000000E+01,,,,,,,,,,,,,,,,,,,,
VEN,,,,,,,,,,,,,,,,,,,,,,,,,,,,,,,2.24532000000000E+01,,,,1.56127900000000E+01,,2.49727600000000E+01,1.98046400000000E+01,2.13361400000000E+01,2.57008900000000E+01,2.42853300000000E+01,2.25564700000000E+01,2.81910100000000E+01,2.79569400000000E+01,,,1.70373700000000E+01,1.43328700000000E+01,1.35869800000000E+01,,,
VNM,,,,,,,,,,,,,,,,,,,,,,,,,,,,,,,,,,,,,3.14991000000000E+00,4.70633700000000E+00,4.03166300000000E+00,5.37476300000000E+00,4.76852000000000E+00,5.91984600000000E+00,4.34693300000000E+00,4.78810000000000E+00,4.61681700000000E+00,,,,,,,
WBG,,,,,,,,,,,,,,,,,,,,,,,,,,,,,,,,,,,,,,,,,,3.47708000000000E+01,4.17565900000000E+01,,3.97785800000000E+01,,3.56900200000000E+01,3.52978800000000E+01,4.02495800000000E+01,4.69000000000000E+01,,
WSM,,,,,,,,,,,,,,,,,,,,,,,,,,,,,,,,,,,,,,,,,,1.22378200000000E+01,,,,,,,,,,
YEM,,,,,,,,,,,,,,,,,,,,,,,,,,,,,,,,,,,1.78859600000000E+01,,,,,,,,,,,,,,,,,
ZAF,,,,,,,,,,,,,,,,,,,,,,,,,,,,,,,,,,,,,,,4.50387800000000E+01,4.61614200000000E+01,4.41506000000000E+01,,5.65494800000000E+01,5.65225500000000E+01,,,,4.68755400000000E+01,4.55494100000000E+01,4.81516300000000E+01,,
ZMB,,,,,,,,,,,,,,,,,,,,,,,,,,,,,,,2.08525400000000E+01,,,,,,,,,,2.13583100000000E+01,,,,,,,,,,,
ZWE,,,,,,,,,,,,,,,,,,,,,,,1.54530200000000E+01,,,,1.49189200000000E+01,1.49350600000000E+01,,,,,4.42758800000000E+01,,,,,1.65336700000000E+01,,1.40322900000000E+01,,,2.48786600000000E+01,,,,,,,,,
