"Country Code",1960,1961,1962,1963,1964,1965,1966,1967,1968,1969,1970,1971,1972,1973,1974,1975,1976,1977,1978,1979,1980,1981,1982,1983,1984,1985,1986,1987,1988,1989,1990,1991,1992,1993,1994,1995,1996,1997,1998,1999,2000,2001,2002,2003,2004,2005,2006,2007,2008,2009,2010,2011ABW,,,,,,,,,,,,,,,,,,,,,,,,,,,,,,,,,,4.13739000000000E+00,4.74041000000000E+00,3.62731000000000E+00,3.33580000000000E+00,1.22659800000000E+01,2.81829400000000E+01,3.66053200000000E+01,,,,,,,,,,,,
AFG,,,,,,,,,,,,,,,,,,,,,,,,,,,,,,,,,,,,,,,,,,3.38295000000000E+00,3.14410000000000E+00,,,,,,,,,
ALB,,,,,,,,,,,,,,,,,,,,,,,,,,,,,,,,,,,,,,,1.59435000000000E+00,1.19336200000000E+01,,,,,,,,,,,,
ARG,,,,,,,,,,,,,,,,,,,,,,,,,,,,,,,,,,2.77828500000000E+01,2.70672700000000E+01,2.70165200000000E+01,2.69221800000000E+01,2.49979200000000E+01,2.50109400000000E+01,2.40290700000000E+01,2.33489700000000E+01,2.28254300000000E+01,2.15986900000000E+01,,,,,,,,,
AUT,,,,,,,,,,,,,,,,,,,,,,,,,,,,,,,,3.82800900000000E+01,3.77158800000000E+01,3.77145200000000E+01,3.82808800000000E+01,4.68866000000000E+01,4.76647100000000E+01,4.70569700000000E+01,4.77493300000000E+01,4.82858000000000E+01,4.79230700000000E+01,4.90225500000000E+01,4.87173200000000E+01,4.92740200000000E+01,4.93430600000000E+01,4.90322000000000E+01,4.94868100000000E+01,,,,,
AZE,,,,,,,,,,,,,,,,,,,,,,,,,,,,,,,,,,,,2.65046400000000E+01,2.71733500000000E+01,2.70856500000000E+01,3.06112300000000E+01,2.97828300000000E+01,3.00598900000000E+01,2.89462400000000E+01,2.96967500000000E+01,3.14826300000000E+01,2.98659900000000E+01,2.92736300000000E+01,2.84523800000000E+01,2.86057000000000E+01,,,,
BEL,,,,,,,,,,,,,,,,,,,,,,,,,,,,,,,,,,,,3.77723800000000E+01,3.78504400000000E+01,3.78300400000000E+01,3.76741500000000E+01,3.83799500000000E+01,3.91612000000000E+01,3.87243600000000E+01,,3.84437000000000E+01,3.80894400000000E+01,3.83142700000000E+01,4.00450200000000E+01,,,,,
BGD,,,,,,,,,,,,,,,,,,,,,,,,,,,,,,,,,,,,6.09855000000000E+00,,,4.17387000000000E+00,,,,,,,,,,,,,
BGR,,,,,,,,,,,,,,,,,,,,,,,,,,,,,,,,,,,,,3.27910200000000E+01,3.12384000000000E+01,3.00072600000000E+01,2.89307600000000E+01,2.89780900000000E+01,2.75892800000000E+01,2.77103000000000E+01,2.72460600000000E+01,2.72591600000000E+01,2.87366700000000E+01,3.06256100000000E+01,3.17422900000000E+01,,,,
BHS,,,,,,,,,,,,,,,,,,,,,,,,,,,,,,1.56503200000000E+01,1.40753600000000E+01,1.29239200000000E+01,1.24013000000000E+01,,,6.36617000000000E+00,6.67575000000000E+00,7.98640000000000E+00,7.49049000000000E+00,6.83885000000000E+00,6.23969000000000E+00,4.60597000000000E+00,,,,,,,,,,
BOL,,,,,,,,,,,,,,,,,,,,,,,,,,,,,,,,,,,,1.12437300000000E+01,1.26122400000000E+01,1.14036000000000E+01,1.14200200000000E+01,1.11215100000000E+01,1.06055200000000E+01,9.48590000000000E+00,,,,,,,,,,
BWA,,,,,,,,,,,,,,,,,,,,,,,,,,,,,,,,,,,,,,,3.15533400000000E+01,3.16017700000000E+01,3.33631200000000E+01,2.37889700000000E+01,1.77265500000000E+01,1.43564900000000E+01,2.14263500000000E+01,2.10705000000000E+01,3.68941900000000E+01,4.99754000000000E+01,,,,
CAN,,,,,,,,,,,,,,,,,,,,,,,,,,,,,,,4.13963700000000E+01,4.07613800000000E+01,4.02906900000000E+01,4.00668300000000E+01,4.08656300000000E+01,4.22903900000000E+01,4.28137700000000E+01,4.34297200000000E+01,4.46220100000000E+01,4.45922400000000E+01,4.51328700000000E+01,4.49232000000000E+01,4.46896200000000E+01,4.52770800000000E+01,,,,,,,,
CHL,,,,,,,,,,,,,,,,,,,,,,,,,,,,,,,,,,,,,,,,,,1.68952500000000E+01,1.69655000000000E+01,1.71526300000000E+01,1.77578200000000E+01,1.78210000000000E+01,1.77357200000000E+01,,,,,
CHN,,,,,,,,,,,,,,,,,,,,,,,,,,,,,,,,,,,,,,,,,,,,3.51337700000000E+01,3.72726900000000E+01,3.77004700000000E+01,3.87300600000000E+01,3.98963600000000E+01,,,,
COL,,,,,,,,,,,,,,,,,,,,,,,,,,,,,,,,,,,,,,,,,1.74952600000000E+01,1.77233700000000E+01,1.76514300000000E+01,1.78894200000000E+01,1.81163500000000E+01,1.98825600000000E+01,,,,,,
CYP,,,,,,,,,,,,,,,,,,,,,,,,,,,,,,,,,,,,,,,,2.25014000000000E+01,2.37961500000000E+01,2.25206700000000E+01,2.25297500000000E+01,2.17583200000000E+01,2.21373400000000E+01,2.15612200000000E+01,2.18584500000000E+01,2.21795900000000E+01,,,,
CZE,,,,,,,,,,,,,,,,,,,,,,,,,,,,,,,,,,,,4.22881200000000E+01,4.51098000000000E+01,4.65606700000000E+01,4.59064000000000E+01,4.58737300000000E+01,4.65516200000000E+01,4.86935800000000E+01,5.09948900000000E+01,4.99417100000000E+01,5.07918400000000E+01,5.20776600000000E+01,4.98037900000000E+01,,,,,
DEU,,,,,,,,,,,,,,,,,,,,,,,,,,,,,,,,,,,,,,,5.72287600000000E+01,5.55479800000000E+01,5.59011500000000E+01,5.68868400000000E+01,5.67809900000000E+01,5.70052100000000E+01,5.71505600000000E+01,5.73705700000000E+01,5.76271300000000E+01,,,,,
DNK,,,,,,,,,,,,,,,,,,,,,,,,,,,,,,,,,,,,4.65182800000000E+01,4.58288900000000E+01,,4.50812000000000E+01,4.43895400000000E+01,4.72959800000000E+01,4.64526900000000E+01,4.48026900000000E+01,4.52699700000000E+01,4.66977300000000E+01,4.80818800000000E+01,4.72560100000000E+01,,,,,
DOM,,,,,,,,,,,,,,,,,,,,,,,,,,,,,,,,,,,,,,3.11417000000000E+00,,,,,,,,,,,,,,
ECU,,,,,,,,,,,,,,,,,,,,,,,,,,,,,,,,,,,,1.60193800000000E+01,1.48212900000000E+01,1.47184700000000E+01,1.32148100000000E+01,1.27054400000000E+01,1.32466200000000E+01,1.32701700000000E+01,1.31159600000000E+01,1.28558600000000E+01,1.24967000000000E+01,1.22629000000000E+01,,,,,,
EGY,,,,,,,,,,,,,,,,,,,,,,,,,,,,,,,,,,,,,,1.64436100000000E+01,,,,,,,,,,,,,,
ERI,,,,,,,,,,,,,,,,,,,,,,,,,,,,,,,,,7.65892000000000E+00,7.43081000000000E+00,7.36067000000000E+00,7.07901000000000E+00,7.18137000000000E+00,1.16614200000000E+01,1.09249800000000E+01,1.24181100000000E+01,1.32131700000000E+01,1.37859200000000E+01,1.73265100000000E+01,1.77705500000000E+01,1.77424900000000E+01,1.64263500000000E+01,1.77652700000000E+01,2.03005800000000E+01,,,,
ESP,,,,,,,,,,,,,,,,,,,,,,,,,,,,,,,,,,3.73883500000000E+01,3.73899300000000E+01,3.81343300000000E+01,3.87300200000000E+01,3.92007400000000E+01,3.99159700000000E+01,4.03055800000000E+01,4.08736700000000E+01,4.14505900000000E+01,4.18902900000000E+01,4.20828800000000E+01,4.24405400000000E+01,4.23718200000000E+01,4.26869500000000E+01,,,,,
EST,,,,,,,,,,,,,,,,,,,,,,,,,,,,,,,,,,3.37707200000000E+01,3.05371600000000E+01,3.42375400000000E+01,3.16000000000000E+01,2.70435500000000E+01,,,3.26939800000000E+01,3.07001800000000E+01,3.02688600000000E+01,3.25291200000000E+01,3.24013200000000E+01,3.64460600000000E+01,3.79432700000000E+01,4.07603900000000E+01,,,,
ETH,,,,,,,,,,,,,,,,,,,,,,,,,,,,,,,4.48901000000000E+00,4.35228000000000E+00,4.40201000000000E+00,4.44555000000000E+00,5.18687000000000E+00,5.52359000000000E+00,6.02183000000000E+00,7.30363000000000E+00,7.80982000000000E+00,8.09368000000000E+00,8.90987000000000E+00,8.48955000000000E+00,9.33093000000000E+00,9.56668000000000E+00,9.48179000000000E+00,1.28383000000000E+01,1.12604200000000E+01,9.29662000000000E+00,,,,
FIN,,,,,,,,,,,,,,,,,,,,,,,,,,,,,,,,,3.75357400000000E+01,3.82719500000000E+01,3.97583800000000E+01,4.13406500000000E+01,4.26870400000000E+01,4.35864900000000E+01,4.50599700000000E+01,4.58397400000000E+01,4.88273400000000E+01,4.77377700000000E+01,4.80244700000000E+01,4.81529900000000E+01,4.79095100000000E+01,4.86959300000000E+01,5.13782900000000E+01,,,,,
FJI,,,,,,,,,,,,,,,,,,,,,,,,,,,,,,,,,,,,,,,,,,,1.22886900000000E+01,1.25999100000000E+01,1.12932100000000E+01,,,,,,,
FRA,,,,,,,,,,,,,,,,,,,,,,,,,,,,,,,5.26129700000000E+01,5.36054300000000E+01,5.33873300000000E+01,4.97005400000000E+01,5.30840800000000E+01,,4.61347600000000E+01,4.61624300000000E+01,4.64472600000000E+01,4.66531200000000E+01,4.68065400000000E+01,4.71317200000000E+01,4.66340400000000E+01,4.74309000000000E+01,4.64772300000000E+01,4.69196400000000E+01,4.68996100000000E+01,,,,,
GBR,,,,,,,,,,,,,,,,,,,,,,,,,,,,,,,,,,4.45708700000000E+01,4.51627700000000E+01,4.59448200000000E+01,4.60181900000000E+01,4.59921300000000E+01,4.63137900000000E+01,4.64087300000000E+01,4.68086400000000E+01,4.66304500000000E+01,4.64246100000000E+01,4.69014200000000E+01,4.61987800000000E+01,4.61401300000000E+01,,,,,,
GHA,,,,,,,,,,,,,,,,,,,,,,,,,,,,,,,,,,,,,,,,,,,,1.11913600000000E+01,,,,,,,,
GMB,,,,,,,,,,,,,,,,,,,,,,,,,,,,,,,,,,,,1.28581400000000E+01,,,,,,,,,,,,,,,,
GRC,,,,,,,,,,,,,,,,,,,,,,,,,,,,,,,,,,2.16805200000000E+01,2.20600900000000E+01,2.21087000000000E+01,2.23920600000000E+01,2.24094500000000E+01,2.29166900000000E+01,,,,,,2.86101400000000E+01,2.85175300000000E+01,2.88612000000000E+01,,,,,
HRV,,,,,,,,,,,,,,,,,,,,,,,,,,,,,,,,,,,,,,3.09928300000000E+01,3.04807800000000E+01,3.10642100000000E+01,3.11413600000000E+01,3.14879000000000E+01,3.23983500000000E+01,3.28641200000000E+01,3.41752000000000E+01,3.51201100000000E+01,3.60053300000000E+01,3.72323300000000E+01,,,,
HTI,,,,,,,,,,,,,,,,,,,,,,,,,,,,,2.71954000000000E+01,2.51414300000000E+01,2.59594100000000E+01,2.62586000000000E+01,2.96330500000000E+01,1.90387000000000E+01,2.47019500000000E+01,2.72828000000000E+01,2.73464300000000E+01,2.73464300000000E+01,,,,,,,,,,,,,,
HUN,,,,,,,,,,,,,,,,,,,,,,,,,,,,,,,,,,,3.20182000000000E+01,2.69828800000000E+01,2.79350200000000E+01,2.98499900000000E+01,3.95260200000000E+01,4.12716000000000E+01,4.29476300000000E+01,4.35021900000000E+01,4.31405800000000E+01,4.40132300000000E+01,4.53008500000000E+01,4.68704000000000E+01,4.90415000000000E+01,,,,,
IDN,,,,,,,,,,,,,,,,,,,,,,,,,,,,,,,,,,,,,,,1.89853500000000E+01,1.93894700000000E+01,1.93029000000000E+01,1.88269800000000E+01,1.86630000000000E+01,1.81163700000000E+01,1.86768100000000E+01,1.98079900000000E+01,1.99153200000000E+01,,,,,
IRL,,,,,,,,,,,,,,,,,,,,,,,,,,,,,,,,3.66603000000000E+01,3.71612300000000E+01,3.74038400000000E+01,3.79627600000000E+01,4.35054800000000E+01,4.49719900000000E+01,4.22750400000000E+01,4.26405300000000E+01,4.37227900000000E+01,4.45446400000000E+01,4.13464400000000E+01,3.90579200000000E+01,4.03901300000000E+01,4.08122000000000E+01,3.86148300000000E+01,4.55042300000000E+01,,,,,
IRN,,,,,,,,,,,,,,,,,,,,,,,,,,,,,,,,,,,2.41423400000000E+01,2.35883400000000E+01,2.41659300000000E+01,2.58503000000000E+01,2.67211700000000E+01,2.74371800000000E+01,2.87905300000000E+01,3.01913500000000E+01,3.30440700000000E+01,3.41439800000000E+01,3.49106300000000E+01,3.55344200000000E+01,,,,,,
ISR,,,,,,,,,,,,,,,,,,,,,,,,,,,,,,,,,,,,4.34088200000000E+01,4.43412700000000E+01,4.48926300000000E+01,4.61267600000000E+01,4.59532400000000E+01,4.64772800000000E+01,4.81314300000000E+01,4.72769600000000E+01,4.75762000000000E+01,,,,,,,,
ITA,,,,,,,,,,,,,,,,,,,,,,,,,,,,,,,,,4.63074300000000E+01,4.65823300000000E+01,4.63342800000000E+01,4.58609300000000E+01,4.64467200000000E+01,4.69640100000000E+01,4.69334700000000E+01,4.72507700000000E+01,4.80054100000000E+01,4.80993700000000E+01,4.85904800000000E+01,4.87166100000000E+01,4.88534000000000E+01,4.91994800000000E+01,4.96254500000000E+01,,,,,
JOR,,,,,,,,,,,,,,,,,,,,,,,,,,,,,,,,,,,,2.22309600000000E+01,2.24410800000000E+01,2.19125800000000E+01,2.17331300000000E+01,,2.01950000000000E+01,2.24488600000000E+01,1.99140000000000E+01,2.38158800000000E+01,2.26863800000000E+01,2.39192400000000E+01,2.41579000000000E+01,2.45091400000000E+01,,,,
JPN,,,,,,,,,,,,,,,,,,,,,,,,,,,,,,,,,,,5.09048300000000E+01,5.09206000000000E+01,5.11117100000000E+01,5.15058000000000E+01,5.14444400000000E+01,5.14418700000000E+01,5.18659700000000E+01,5.09470200000000E+01,5.13611200000000E+01,5.14647400000000E+01,5.19486500000000E+01,5.25282700000000E+01,,,,,,
KAZ,,,,,,,,,,,,,,,,,,,,,,,,,,,,,,,,,,,,,,,2.35727800000000E+01,2.60660300000000E+01,2.45848700000000E+01,2.58964200000000E+01,2.56307500000000E+01,2.32641600000000E+01,2.37661300000000E+01,2.46640100000000E+01,2.39560400000000E+01,2.29726500000000E+01,,,,
KGZ,,,,,,,,,,,,,,,,,,,,,,,,,,,,,,,,,3.56574900000000E+01,3.63563700000000E+01,3.19533900000000E+01,3.15863500000000E+01,2.98817700000000E+01,3.09811900000000E+01,3.52941200000000E+01,3.14783800000000E+01,2.82299900000000E+01,3.16945900000000E+01,2.82805600000000E+01,2.78023300000000E+01,2.73405400000000E+01,2.65538300000000E+01,2.44878600000000E+01,2.24247700000000E+01,,,,
KHM,,,,,,,,,,,,,,,,,,,,,,,,,,,,,,,,,,1.82896000000000E+00,,2.14223000000000E+00,,,,,,,,,,,,,,,,
KOR,,,,,,,,,,,,,,,,,,,,,,,,,,,,,,,4.22427500000000E+01,4.32928200000000E+01,4.35717600000000E+01,4.48615500000000E+01,4.65513200000000E+01,4.79580100000000E+01,4.98243100000000E+01,5.04635300000000E+01,4.98693100000000E+01,5.03846200000000E+01,5.17146400000000E+01,5.19884000000000E+01,5.26742600000000E+01,5.39322600000000E+01,5.57705700000000E+01,5.72073400000000E+01,5.88932800000000E+01,,,,,
LAO,,,,,,,,,,,,,,,,,,,,,,,,,,,,,,,,,,,,,,,,4.93953000000000E+00,,,,,,,,,,,,
LBN,,,,,,,,,,,,,,,,,,,,,,,,,,,,,,,,,,,,,,,2.63305600000000E+01,,,,,,,,,,,,,
LKA,,,,,,,,,,,,,,,,,,,,,,,,,,,,,,,,,,,,,,,,,,,,,,,9.30282000000000E+00,,,,,
LSO,,,,,,,,,,,,,,,,,,,,,,,,,,,,,,,,,,,,,,,,,,1.92228000000000E+00,1.90789000000000E+00,2.49100000000000E+00,1.81325000000000E+00,2.06379000000000E+00,1.93553000000000E+00,1.36327000000000E+00,,,,
LTU,,,,,,,,,,,,,,,,,,,,,,,,,,,,,,,,,3.90757700000000E+01,3.43302100000000E+01,3.42092700000000E+01,,2.98603800000000E+01,2.84977000000000E+01,2.62969000000000E+01,2.54795500000000E+01,2.34759600000000E+01,2.38962300000000E+01,2.53618800000000E+01,2.70032900000000E+01,2.91732200000000E+01,3.02972800000000E+01,3.11758100000000E+01,3.08463300000000E+01,,,,
LUX,,,,,,,,,,,,,,,,,,,,,,,,,,,2.32210600000000E+01,2.38841900000000E+01,2.47125600000000E+01,2.58205300000000E+01,2.60185000000000E+01,2.67638900000000E+01,2.72084300000000E+01,2.77091500000000E+01,2.78102400000000E+01,3.30393600000000E+01,3.61684800000000E+01,3.67819300000000E+01,4.19732000000000E+01,3.77347800000000E+01,3.89537000000000E+01,4.02258600000000E+01,4.13007000000000E+01,2.53953500000000E+01,2.95049600000000E+01,2.46447900000000E+01,3.13765500000000E+01,,,,,
LVA,,,,,,,,,,,,,,,,,,,,,,,,,,,,,,,4.94710800000000E+01,4.71340600000000E+01,3.95378800000000E+01,3.92063600000000E+01,3.72614900000000E+01,3.50165500000000E+01,3.24282100000000E+01,2.25461900000000E+01,2.04744900000000E+01,2.21202000000000E+01,2.26260100000000E+01,2.31440700000000E+01,2.33546800000000E+01,2.48146700000000E+01,2.59022800000000E+01,2.60628900000000E+01,2.71248300000000E+01,2.73166900000000E+01,,,,
MAR,,,,,,,,,,,,,,,,,,,,,,,,,,,,,,,,,,,,,,,,,1.36144800000000E+01,1.40286700000000E+01,1.44424700000000E+01,1.50305500000000E+01,1.51451100000000E+01,1.63038600000000E+01,1.66779800000000E+01,1.99142400000000E+01,,,,
MDA,,,,,,,,,,,,,,,,,,,,,,,,,,,,,,,,,,,,,3.34280000000000E+00,1.69144000000000E+00,1.29365000000000E+00,1.05366000000000E+00,7.68390000000000E-01,9.24970000000000E-01,4.61150000000000E-01,9.27310000000000E-01,1.04596000000000E+00,1.02406000000000E+00,9.79870000000000E-01,9.47450000000000E-01,,,,
MDG,,,,,,,,,,,,,,,,,,,,,,,,,,,,,,,,,,,,,,,,,,9.24591000000000E+00,9.20359000000000E+00,9.39446000000000E+00,1.00029300000000E+01,1.00028400000000E+01,1.00029000000000E+01,,,,,
MEX,,,,,,,,,,,,,,,,,,,,,,,,,,,,,,3.27747600000000E+01,,,,,,,,,,,,,,,,,,,,,,
MKD,,,,,,,,,,,,,,,,,,,,,,,,,,,,,,,,,,,,,,1.44023900000000E+01,1.39649000000000E+01,1.39387200000000E+01,1.42696700000000E+01,1.26494900000000E+01,,1.83820400000000E+01,1.82842000000000E+01,1.82353400000000E+01,1.81902500000000E+01,1.73415800000000E+01,,,,
MLT,,,,,,,,,,,,,,,,,,,,,,,,,,,,,,,,,,,,3.86648500000000E+01,3.86745900000000E+01,4.00193400000000E+01,4.11424500000000E+01,4.78272700000000E+01,4.91759200000000E+01,4.65495900000000E+01,4.53130900000000E+01,4.54097600000000E+01,4.29766900000000E+01,4.67495600000000E+01,,,,,,
MNG,,,,,,,,,,,,,,,,,,,,,,,,,,,,,,,,,,,,,,,,,,,,3.61224000000000E+00,3.13506000000000E+00,3.24039000000000E+00,4.12194000000000E+00,4.11127000000000E+00,,,,
MUS,,,,,,,,,,,,,,,,,,,,,,,,,,,,,,,,,,,,,,9.02795000000000E+00,8.68592000000000E+00,8.42347000000000E+00,8.81839000000000E+00,8.57473000000000E+00,8.81487000000000E+00,9.04350000000000E+00,9.84319000000000E+00,1.12794300000000E+01,1.09689000000000E+01,1.08568500000000E+01,,,,
MWI,,,,,,,,,,,,,,,,,,,,,,,,,,,,,,,,,,,,,,,,3.62883000000000E+00,3.65738000000000E+00,3.62790000000000E+00,,,,,,,,,,
MYS,,,,,,,,,,,,,,,,,,,,,,,,,,,,,,,,,,,,,,,,,4.98563500000000E+01,4.78068700000000E+01,4.80754400000000E+01,4.90218100000000E+01,4.88676000000000E+01,4.75310900000000E+01,4.85435100000000E+01,,,,,
NLD,,,,,,,,,,,,,,,,,,,,,,,,,,,,,,,,,,,,3.81494900000000E+01,4.10444500000000E+01,4.25814300000000E+01,4.00346300000000E+01,4.38692900000000E+01,4.07865300000000E+01,4.08577300000000E+01,4.04893800000000E+01,4.09860800000000E+01,4.09508300000000E+01,4.24930300000000E+01,4.25032600000000E+01,,,,,
NOR,,,,,,,,,,,,,,,,,,,,,,,,,,,,,,,,3.92506200000000E+01,3.98889000000000E+01,3.99884900000000E+01,3.93102500000000E+01,3.97543500000000E+01,3.97024400000000E+01,4.07148400000000E+01,4.14194600000000E+01,4.20714000000000E+01,4.18069300000000E+01,4.35579900000000E+01,4.25995200000000E+01,4.05897300000000E+01,4.05312300000000E+01,4.21839000000000E+01,4.41830100000000E+01,,,,,
NPL,,,,,,,,,,,,,,,,,,,,,,,,,,,,,,,,,,,,,6.02633000000000E+00,,,,,,6.83233000000000E+00,,,,,,,,,
NZL,,,,,,,,,,,,,,,,,,,,,,,,,,,2.57231900000000E+01,2.58949600000000E+01,2.50790900000000E+01,2.60914800000000E+01,2.47499700000000E+01,2.49194700000000E+01,2.40833400000000E+01,2.80308600000000E+01,2.98953800000000E+01,3.02026700000000E+01,3.03106600000000E+01,3.03053700000000E+01,2.99562300000000E+01,2.92173100000000E+01,2.74541700000000E+01,2.76238900000000E+01,2.76616700000000E+01,2.80550000000000E+01,2.87335400000000E+01,2.87823400000000E+01,2.92674400000000E+01,2.92732100000000E+01,,,,
OMN,,,,,,,,,,,,,,,,,,,,,,,,,,,,,,,,,,2.07082100000000E+01,1.88579200000000E+01,1.86914900000000E+01,1.92368800000000E+01,2.13872000000000E+01,2.20298000000000E+01,2.17792300000000E+01,2.30616800000000E+01,2.33748000000000E+01,2.05414200000000E+01,2.07075900000000E+01,2.14955200000000E+01,1.98269000000000E+01,2.16442600000000E+01,2.63487500000000E+01,,,,
PAK,,,,,,,,,,,,,,,,,,,,,,,,,,,,,,,,,,,,,,,,,,,,,,,1.12452800000000E+01,,,,,
PAN,,,,,,,,,,,,,,,,,,,,,,,,,,,,,,,,,2.67020000000000E+00,2.90088000000000E+00,2.82983000000000E+00,,3.36777000000000E+00,2.36728000000000E+00,3.20179000000000E+00,3.29732000000000E+00,3.43958000000000E+00,1.24342100000000E+01,,,1.37460100000000E+01,1.50061800000000E+01,,,,,,
PHL,,,,,,,,,,,,,,,,,,,,,,,,,,,,,,,,,,,,,3.27321400000000E+01,3.41298600000000E+01,3.58420300000000E+01,3.83182000000000E+01,,3.91545500000000E+01,,4.17420400000000E+01,,4.28850800000000E+01,,,,,,
POL,,,,,,,,,,,,,,,,,,,,,,,,,,,,,,,,,3.74769600000000E+01,3.60902000000000E+01,3.61581100000000E+01,3.58413900000000E+01,3.73887800000000E+01,3.74251000000000E+01,3.75192100000000E+01,3.65924200000000E+01,3.77711000000000E+01,3.71922900000000E+01,3.85976500000000E+01,3.81338600000000E+01,3.95660500000000E+01,4.06012000000000E+01,4.15053500000000E+01,,,,,
PRT,,,,,,,,,,,,,,,,,,,,,,,,,,,,,,,,,,,,,2.78477000000000E+01,2.78374800000000E+01,2.94527000000000E+01,2.96347600000000E+01,3.00660200000000E+01,3.00379000000000E+01,2.93882700000000E+01,2.93496000000000E+01,3.30115600000000E+01,3.84831100000000E+01,3.85144500000000E+01,,,,,
PRY,,,,,,,,,,,,,,,,,,,,,,,,,,,,,,,,,,,,1.99922100000000E+01,,,,,,6.32191000000000E+00,6.89288000000000E+00,,,,,,,,,
QAT,,,,,,,,,,,,,,,,,,,,,,,,,,,,,,,,,,,,,,,,,1.70976300000000E+01,1.64984200000000E+01,1.17464600000000E+01,1.25602900000000E+01,2.35414300000000E+01,2.06226200000000E+01,2.12616200000000E+01,,,,,
ROM,,,,,,,,,,,,,,,,,,,,,,,,,,,,,,,4.52730700000000E+01,4.34761000000000E+01,4.19676200000000E+01,4.11465000000000E+01,3.98994100000000E+01,4.02883600000000E+01,3.95744100000000E+01,3.83134800000000E+01,3.63393300000000E+01,3.55744300000000E+01,3.35192700000000E+01,3.27798800000000E+01,3.30237200000000E+01,3.27450300000000E+01,3.29484900000000E+01,3.44269200000000E+01,3.53631500000000E+01,3.67869600000000E+01,,,,
RUS,,,,,,,,,,,,,,,,,,,,,,,,,,,,,,,,,,,,,,,,3.86536800000000E+01,3.82509300000000E+01,3.83512300000000E+01,3.91277700000000E+01,3.48697500000000E+01,3.54262000000000E+01,3.72979600000000E+01,3.76601400000000E+01,3.83700700000000E+01,,,,
RWA,,,,,,,,,,,,,,,,,,,,,,,,,,,,,,,,,,,,,,,,4.84364000000000E+00,,,,,,,,,,,,
SAU,,,,,,,,,,,,,,,,,,,,,,,,,,,,,,,,,,,,,,,,,,,,,,,2.99700300000000E+01,,,,,
SDN,,,,,,,,,,,,,,,,,,,,,,,,,,,,,,,,,,,,,,,,,,9.07807000000000E+00,,,,,,,,,,
SEN,,,,,,,,,,,,,,,,,,,,,,,,,,,,,,,,,,,,,,,4.51591000000000E+00,5.13164000000000E+00,4.65230000000000E+00,4.76855000000000E+00,5.32739000000000E+00,,,,,,,,,
SGP,,,,,,,,,,,,,,,,,,,,,,,,,,,,,,,,6.97884800000000E+01,7.01099900000000E+01,6.98123400000000E+01,7.10149100000000E+01,7.22286500000000E+01,7.28807700000000E+01,7.26623700000000E+01,7.23110600000000E+01,7.17274700000000E+01,7.08267400000000E+01,7.08669900000000E+01,7.05329900000000E+01,7.01195300000000E+01,7.14478100000000E+01,7.19876600000000E+01,7.29206900000000E+01,7.27445700000000E+01,,,,
SVK,,,,,,,,,,,,,,,,,,,,,,,,,,,,,,,,4.48329300000000E+01,4.26349200000000E+01,4.01536300000000E+01,3.94754100000000E+01,4.41629100000000E+01,4.48240900000000E+01,4.30666200000000E+01,4.41609700000000E+01,4.02212700000000E+01,3.85299000000000E+01,4.05784900000000E+01,3.99933400000000E+01,4.53591100000000E+01,4.77819400000000E+01,4.67849200000000E+01,5.16883100000000E+01,,,,,
SVN,,,,,,,,,,,,,,,,,,,,,,,,,,,,,,,,,,,,4.14747300000000E+01,4.19610200000000E+01,4.12077400000000E+01,4.27069900000000E+01,4.35563600000000E+01,4.55436900000000E+01,4.49416800000000E+01,4.58539000000000E+01,4.60978000000000E+01,5.49371900000000E+01,4.80964400000000E+01,4.92975300000000E+01,4.95961700000000E+01,,,,
SWE,,,,,,,,,,,,,,,,,,,,,,,,,,,,,,,5.20738200000000E+01,5.15778100000000E+01,5.14021900000000E+01,5.11208800000000E+01,5.15964900000000E+01,5.26910100000000E+01,5.34876700000000E+01,5.64269500000000E+01,5.59142300000000E+01,5.59202100000000E+01,5.62504900000000E+01,5.34285500000000E+01,5.59035200000000E+01,5.43496600000000E+01,5.41439900000000E+01,5.43708100000000E+01,5.48527700000000E+01,,,,,
SYR,,,,,,,,,,,,,,,,,,,,,,,,,,,,,,,,,,,,,2.37319300000000E+01,2.32858300000000E+01,2.32384200000000E+01,2.33256900000000E+01,1.99132100000000E+01,2.31347100000000E+01,2.23242800000000E+01,2.27162200000000E+01,2.31261700000000E+01,2.31780200000000E+01,2.08856600000000E+01,2.08738600000000E+01,,,,
THA,,,,,,,,,,,,,,,,,,,,,,,,,,,,,,,,,,,,,3.59558600000000E+01,,3.52500300000000E+01,,3.58905400000000E+01,,3.32693100000000E+01,,,,3.71594700000000E+01,,,,,
TJK,,,,,,,,,,,,,,,,,,,,,,,,,,,,,,,1.17229100000000E+01,1.14657600000000E+01,1.09371400000000E+01,9.33684000000000E+00,1.01735100000000E+01,1.05410800000000E+01,9.87455000000000E+00,8.20559000000000E+00,7.17036000000000E+00,6.70296000000000E+00,6.38301000000000E+00,6.83259000000000E+00,6.60395000000000E+00,5.91412000000000E+00,6.20278000000000E+00,5.27720000000000E+00,6.52082000000000E+00,1.79513000000000E+00,,,,
TON,,,,,,,,,,,,,,,,,,,,,,,,,,,,,,,,1.93475800000000E+01,1.74050600000000E+01,2.17005100000000E+01,2.69927500000000E+01,,,,,,1.25419900000000E+01,1.47058800000000E+01,1.30476200000000E+01,1.48083600000000E+01,1.37708000000000E+01,,,,,,,
TTO,,,,,,,,,,,,,,,,,,,,,,,,,,,,,,,,,,,,,,,1.41393000000000E+01,1.45980300000000E+01,1.45459800000000E+01,1.09135200000000E+01,1.49877800000000E+01,4.95544000000000E+00,,,,,,,,
TUR,,,,,,,,,,,,,,,,,,,,,,,,,,,,,,,,,2.20926300000000E+01,2.31234500000000E+01,2.25740400000000E+01,2.14222800000000E+01,2.23314800000000E+01,2.36274700000000E+01,2.44105200000000E+01,2.42940000000000E+01,2.45255700000000E+01,2.40433600000000E+01,2.39099600000000E+01,2.57064800000000E+01,2.76256100000000E+01,2.98451500000000E+01,3.09435200000000E+01,,,,,
TZA,,,,,,,,,,,,,,,,,,,,,,,,,,,,,,,,,,,,,,,,,,,,4.77663000000000E+00,5.57915000000000E+00,5.26066000000000E+00,5.26068000000000E+00,5.25971000000000E+00,,,,
UGA,,,,,,,,,,,,,,,,,,,,,,,,,,,,,,,,,,3.38105000000000E+00,3.70296000000000E+00,4.65365000000000E+00,4.01393000000000E+00,4.57356000000000E+00,1.18375800000000E+01,1.65706300000000E+01,1.95692000000000E+01,,,,,,,,,,,
UKR,,,,,,,,,,,,,,,,,,,,,,,,,,,,,,,,,,,,,,,,,3.98489200000000E+01,3.84928800000000E+01,3.78505200000000E+01,3.75647000000000E+01,3.71524500000000E+01,3.67634000000000E+01,3.57688900000000E+01,3.64591200000000E+01,,,,
USA,,,,,,,,,,,,,,,,,,,,,,,,,,,,,,,,,,,,,,5.12834800000000E+01,5.00660200000000E+01,5.01993100000000E+01,5.00773000000000E+01,5.03466800000000E+01,4.92384900000000E+01,,5.03051200000000E+01,5.05922100000000E+01,5.10567200000000E+01,,,,,
VNM,,,,,,,,,,,,,,,,,,,,,,,,,,,,,,,,,,,,,,,1.69621200000000E+01,,1.60476200000000E+01,1.82051700000000E+01,1.88702100000000E+01,1.99121100000000E+01,2.14518400000000E+01,2.28776300000000E+01,2.46884200000000E+01,2.57764300000000E+01,,,,
YEM,,,,,,,,,,,,,,,,,,,,,,,,,,,,,,,,,,,,,,,1.40501000000000E+01,1.40899200000000E+01,1.46026600000000E+01,1.28168100000000E+01,1.15957700000000E+01,1.54440100000000E+01,1.96134200000000E+01,1.94074500000000E+01,1.94273400000000E+01,,,,,
ZAF,,,,,,,,,,,,,,,,,,,,,,,,,,,,,,,,3.13168800000000E+01,,2.73348800000000E+01,2.89866800000000E+01,2.94302500000000E+01,2.98041600000000E+01,2.95819300000000E+01,2.99599400000000E+01,2.95537900000000E+01,2.94816000000000E+01,2.96692300000000E+01,3.03525200000000E+01,3.12919100000000E+01,3.07151300000000E+01,3.88274000000000E+01,3.96263400000000E+01,3.74343600000000E+01,,,,
ZWE,,,,,,,,,,,,,,,,,,,,,,,,,,,,,,,,,,,,,2.15477300000000E+01,,,,,,,,,,,,,,,
