"Country Code",1960,1961,1962,1963,1964,1965,1966,1967,1968,1969,1970,1971,1972,1973,1974,1975,1976,1977,1978,1979,1980,1981,1982,1983,1984,1985,1986,1987,1988,1989,1990,1991,1992,1993,1994,1995,1996,1997,1998,1999,2000,2001,2002,2003,2004,2005,2006,2007,2008,2009,2010,2011ABW,,,,,,,,,,,,,,,,,,,,,,,,,,,,,,,,,,5.04293500000000E+01,4.58991700000000E+01,5.10668600000000E+01,4.94440300000000E+01,5.59070300000000E+01,4.63535200000000E+01,4.10020400000000E+01,,,,,,,,,,,,
AFG,,,,,,,,,,,,,,,,,,,,,,,,,,,,,,,,,,,,,,,,,,4.03247600000000E+01,2.79476000000000E+01,,,,,,,,,
ARG,,,,,,,,,,,,,,,,,,,,,,,,,,,,,,,,,,1.24752900000000E+01,1.29418400000000E+01,1.29926900000000E+01,1.26783100000000E+01,1.42982800000000E+01,1.41592900000000E+01,1.42317300000000E+01,1.47152100000000E+01,1.50510900000000E+01,1.58177100000000E+01,,,,,,,,,
AUT,,,,,,,,,,,,,,,,,,,,,,,,,,,,,,,,1.06546600000000E+01,1.09227900000000E+01,1.11502300000000E+01,1.11397400000000E+01,8.01030000000000E+00,8.26175000000000E+00,8.19149000000000E+00,8.51065000000000E+00,9.00489000000000E+00,9.37964000000000E+00,9.16859000000000E+00,9.14156000000000E+00,8.57842000000000E+00,9.18151000000000E+00,9.22924000000000E+00,9.31187000000000E+00,,,,,
AZE,,,,,,,,,,,,,,,,,,,,,,,,,,,,,,,,,,,,1.64096500000000E+01,1.62098200000000E+01,1.62233900000000E+01,1.79147700000000E+01,1.83746100000000E+01,1.94545500000000E+01,2.06708600000000E+01,1.95064700000000E+01,2.03322200000000E+01,2.01015300000000E+01,1.93297400000000E+01,1.87301200000000E+01,1.84981100000000E+01,,,,
BEL,,,,,,,,,,,,,,,,,,,,,,,,,,,,,,,,,,,,1.51133100000000E+01,1.52764500000000E+01,1.57541100000000E+01,1.63616700000000E+01,1.61671900000000E+01,1.67374800000000E+01,1.63119800000000E+01,,1.69166400000000E+01,1.73365400000000E+01,1.72841900000000E+01,1.85816900000000E+01,,,,,
BGD,,,,,,,,,,,,,,,,,,,,,,,,,,,,,,,,,,,,3.48258000000000E+00,,,2.95644000000000E+00,,,,,,,,,,,,,
BGR,,,,,,,,,,,,,,,,,,,,,,,,,,,,,,,,,,,,,1.08799300000000E+01,1.17164700000000E+01,1.16485100000000E+01,1.12326600000000E+01,1.05210700000000E+01,1.02440000000000E+01,9.24577000000000E+00,8.69592000000000E+00,7.00870000000000E+00,7.09178000000000E+00,7.63472000000000E+00,8.02020000000000E+00,,,,
BHS,,,,,,,,,,,,,,,,,,,,,,,,,,,,,,1.32622600000000E+01,1.20831500000000E+01,1.29239200000000E+01,1.18903900000000E+01,,,1.39869900000000E+01,1.35331500000000E+01,1.42735800000000E+01,7.64259000000000E+00,7.63914000000000E+00,1.28425200000000E+01,8.27636000000000E+00,,,,,,,,,,
BOL,,,,,,,,,,,,,,,,,,,,,,,,,,,,,,,,,,,,1.15868800000000E+01,1.09755400000000E+01,1.20978600000000E+01,1.26466400000000E+01,1.18222000000000E+01,1.21481000000000E+01,1.30927400000000E+01,,,,,,,,,,
CAN,,,,,,,,,,,,,,,,,,,,,,,,,,,,,,,1.07297000000000E+01,1.10285000000000E+01,1.13365700000000E+01,1.13302800000000E+01,1.11817800000000E+01,1.08847800000000E+01,1.08318600000000E+01,1.09175600000000E+01,1.08318700000000E+01,1.06257200000000E+01,9.89510000000000E+00,1.01624300000000E+01,1.05024000000000E+01,1.08720200000000E+01,,,,,,,,
CHL,,,,,,,,,,,,,,,,,,,,,,,,,,,,,,,,,,,,,,,,,,1.26253400000000E+01,1.29812900000000E+01,1.36010900000000E+01,1.30915400000000E+01,1.33693800000000E+01,1.36510700000000E+01,,,,,
CHN,,,,,,,,,,,,,,,,,,,,,,,,,,,,,,,,,,,,,,,,,,,,1.38922500000000E+01,1.31057400000000E+01,1.31547200000000E+01,1.30207500000000E+01,1.29508100000000E+01,,,,
COL,,,,,,,,,,,,,,,,,,,,,,,,,,,,,,,,,,,,,,,,,1.56873900000000E+01,1.62518300000000E+01,1.67483000000000E+01,1.70905000000000E+01,1.73556200000000E+01,1.72681200000000E+01,,,,,,
CYP,,,,,,,,,,,,,,,,,,,,,,,,,,,,,,,,,,,,,,,,8.96244000000000E+00,9.06890000000000E+00,8.92589000000000E+00,8.82816000000000E+00,9.03137000000000E+00,9.07973000000000E+00,9.18789000000000E+00,9.36365000000000E+00,9.30471000000000E+00,,,,
CZE,,,,,,,,,,,,,,,,,,,,,,,,,,,,,,,,,,,,6.90649000000000E+00,7.44503000000000E+00,7.67854000000000E+00,7.81356000000000E+00,7.97983000000000E+00,8.60361000000000E+00,8.46856000000000E+00,9.38155000000000E+00,9.49794000000000E+00,9.77365000000000E+00,1.00428900000000E+01,1.08895000000000E+01,,,,,
DEU,,,,,,,,,,,,,,,,,,,,,,,,,,,,,,,,,,,,,,,1.33743000000000E+01,1.19675100000000E+01,1.19733200000000E+01,1.21240300000000E+01,1.22377100000000E+01,1.22787400000000E+01,1.20798300000000E+01,1.20403000000000E+01,1.23882800000000E+01,,,,,
DNK,,,,,,,,,,,,,,,,,,,,,,,,,,,,,,,,,,,,1.02348200000000E+01,1.02656100000000E+01,,1.01859700000000E+01,1.05059800000000E+01,9.97529000000000E+00,1.16571600000000E+01,1.21992700000000E+01,1.27317400000000E+01,1.29840600000000E+01,1.24209500000000E+01,1.30812600000000E+01,,,,,
DOM,,,,,,,,,,,,,,,,,,,,,,,,,,,,,,,,,,,,,,2.33715000000000E+00,,,,,,,,,,,,,,
ECU,,,,,,,,,,,,,,,,,,,,,,,,,,,,,,,,,,,,1.47957300000000E+01,1.46430900000000E+01,1.38441000000000E+01,1.34438300000000E+01,1.30453200000000E+01,1.29289400000000E+01,1.34326500000000E+01,1.20632700000000E+01,1.26333700000000E+01,1.25588900000000E+01,1.28201100000000E+01,,,,,,
EGY,,,,,,,,,,,,,,,,,,,,,,,,,,,,,,,,,,,,,,1.38842600000000E+01,,,,,,,,,,,,,,
ERI,,,,,,,,,,,,,,,,,,,,,,,,,,,,,,,,,8.63940000000000E+00,9.01724000000000E+00,8.70455000000000E+00,7.77826000000000E+00,6.02067000000000E+00,6.09879000000000E+00,6.87943000000000E+00,6.46462000000000E+00,7.13358000000000E+00,8.00953000000000E+00,7.88750000000000E+00,8.27912000000000E+00,8.05661000000000E+00,8.55011000000000E+00,9.51476000000000E+00,9.49518000000000E+00,,,,
ESP,,,,,,,,,,,,,,,,,,,,,,,,,,,,,,,,,,1.10059600000000E+01,1.12264100000000E+01,1.10497400000000E+01,1.10019300000000E+01,1.07848300000000E+01,1.05953100000000E+01,1.05953000000000E+01,1.04140500000000E+01,1.06767000000000E+01,1.04390500000000E+01,1.08464700000000E+01,1.08536000000000E+01,1.08492400000000E+01,1.08270900000000E+01,,,,,
EST,,,,,,,,,,,,,,,,,,,,,,,,,,,,,,,,,,1.02209900000000E+01,9.49227000000000E+00,3.59238000000000E+00,3.60000000000000E+00,8.09778000000000E+00,,,5.31822000000000E+00,5.74506000000000E+00,5.46401000000000E+00,6.32280000000000E+00,6.66118000000000E+00,7.79692000000000E+00,8.42199000000000E+00,7.07339000000000E+00,,,,
ETH,,,,,,,,,,,,,,,,,,,,,,,,,,,,,,,4.21952000000000E+00,4.13919000000000E+00,4.25197000000000E+00,4.38220000000000E+00,4.63838000000000E+00,5.19326000000000E+00,5.60202000000000E+00,6.60315000000000E+00,7.74545000000000E+00,7.43504000000000E+00,7.82153000000000E+00,7.98802000000000E+00,9.57651000000000E+00,9.38622000000000E+00,8.99688000000000E+00,1.06715500000000E+01,1.06079300000000E+01,1.08540900000000E+01,,,,
FIN,,,,,,,,,,,,,,,,,,,,,,,,,,,,,,,,,9.20198000000000E+00,9.36029000000000E+00,9.36299000000000E+00,9.13627000000000E+00,8.18993000000000E+00,8.93450000000000E+00,8.18793000000000E+00,8.28852000000000E+00,8.65274000000000E+00,8.37243000000000E+00,8.50137000000000E+00,8.22665000000000E+00,8.23796000000000E+00,8.58330000000000E+00,8.74138000000000E+00,,,,,
FJI,,,,,,,,,,,,,,,,,,,,,,,,,,,,,,,,,,,,,,,,,,,4.70308000000000E+00,4.39422000000000E+00,3.67097000000000E+00,,,,,,,
FRA,,,,,,,,,,,,,,,,,,,,,,,,,,,,,,,1.67246500000000E+01,1.63900500000000E+01,1.67780100000000E+01,1.64293600000000E+01,1.74014400000000E+01,,1.32429900000000E+01,1.35954200000000E+01,1.38689300000000E+01,1.37172200000000E+01,1.40774500000000E+01,1.42634600000000E+01,1.45050100000000E+01,1.52598700000000E+01,1.49295900000000E+01,1.49775500000000E+01,1.49592300000000E+01,,,,,
GBR,,,,,,,,,,,,,,,,,,,,,,,,,,,,,,,,,,1.22519900000000E+01,1.24025700000000E+01,1.24877500000000E+01,1.29096400000000E+01,1.33235400000000E+01,1.27977800000000E+01,1.27378000000000E+01,1.30726900000000E+01,1.35659400000000E+01,1.38615200000000E+01,1.37359300000000E+01,1.36263000000000E+01,1.35375200000000E+01,,,,,,
GHA,,,,,,,,,,,,,,,,,,,,,,,,,,,,,,,,,,,,,,,,,,,,1.58531100000000E+01,,,,,,,,
GMB,,,,,,,,,,,,,,,,,,,,,,,,,,,,,,,,,,,,4.43746000000000E+00,,,,,,,,,,,,,,,,
GRC,,,,,,,,,,,,,,,,,,,,,,,,,,,,,,,,,,1.25291000000000E+01,1.30192900000000E+01,1.30776400000000E+01,1.31622700000000E+01,1.32629000000000E+01,1.31529800000000E+01,,,,,,1.02738400000000E+01,9.96698000000000E+00,1.01496000000000E+01,,,,,
HRV,,,,,,,,,,,,,,,,,,,,,,,,,,,,,,,,,,,,,,1.12487200000000E+01,1.08801600000000E+01,1.10117300000000E+01,1.08524000000000E+01,1.07135500000000E+01,1.02569200000000E+01,1.00965700000000E+01,9.49131000000000E+00,9.51567000000000E+00,9.53976000000000E+00,9.52929000000000E+00,,,,
HTI,,,,,,,,,,,,,,,,,,,,,,,,,,,,,5.03992000000000E+00,4.43391000000000E+00,4.53083000000000E+00,5.31541000000000E+00,6.04131000000000E+00,7.77154000000000E+00,6.10245000000000E+00,5.41931000000000E+00,5.02472000000000E+00,5.02472000000000E+00,,,,,,,,,,,,,,
HUN,,,,,,,,,,,,,,,,,,,,,,,,,,,,,,,,,,,1.24274300000000E+01,1.59859100000000E+01,1.57345900000000E+01,1.55784400000000E+01,1.00947400000000E+01,9.52643000000000E+00,8.87470000000000E+00,1.02085900000000E+01,1.02605800000000E+01,1.02105200000000E+01,1.02907200000000E+01,1.05015900000000E+01,1.06213900000000E+01,,,,,
IDN,,,,,,,,,,,,,,,,,,,,,,,,,,,,,,,,,,,,,,,1.29151800000000E+01,1.18935300000000E+01,1.20442100000000E+01,1.35356700000000E+01,1.31555100000000E+01,1.31288500000000E+01,1.26179900000000E+01,1.30436900000000E+01,1.19982200000000E+01,,,,,
IRL,,,,,,,,,,,,,,,,,,,,,,,,,,,,,,,,1.17349100000000E+01,1.21008200000000E+01,1.25552800000000E+01,1.29790900000000E+01,1.37907500000000E+01,1.43564700000000E+01,1.25400000000000E+01,1.28092900000000E+01,1.32066100000000E+01,1.30210300000000E+01,1.33674500000000E+01,1.51189000000000E+01,1.41700700000000E+01,1.16153500000000E+01,1.72480900000000E+01,1.76435700000000E+01,,,,,
IRN,,,,,,,,,,,,,,,,,,,,,,,,,,,,,,,,,,,1.20995400000000E+01,1.21045900000000E+01,1.22781500000000E+01,1.25772100000000E+01,1.29438700000000E+01,1.30316700000000E+01,1.29451200000000E+01,1.30389600000000E+01,1.25499000000000E+01,1.27151300000000E+01,1.25431300000000E+01,1.28191300000000E+01,,,,,,
IRQ,,,,,,,,,,,,,,,,,,,,,,,,,,,,,,,,,,,,,,,2.99055800000000E+01,,,,,,,,,,,,,
ISR,,,,,,,,,,,,,,,,,,,,,,,,,,,,,,,,,,,,1.23403000000000E+01,1.27103900000000E+01,1.26233300000000E+01,1.25586900000000E+01,1.26498800000000E+01,1.26010300000000E+01,1.24097900000000E+01,1.30532000000000E+01,1.34064600000000E+01,,,,,,,,
ITA,,,,,,,,,,,,,,,,,,,,,,,,,,,,,,,,,1.13548100000000E+01,1.15247200000000E+01,1.16128800000000E+01,9.93207000000000E+00,1.03818900000000E+01,1.03053700000000E+01,1.03799000000000E+01,1.04373500000000E+01,1.04590600000000E+01,1.04674100000000E+01,1.03187800000000E+01,1.03535300000000E+01,1.04209100000000E+01,1.04673500000000E+01,1.03360600000000E+01,,,,,
JOR,,,,,,,,,,,,,,,,,,,,,,,,,,,,,,,,,,,,1.96680500000000E+01,1.98179300000000E+01,2.06531000000000E+01,2.05912800000000E+01,,1.86719000000000E+01,1.54639100000000E+01,1.76971000000000E+01,1.54298100000000E+01,1.55016300000000E+01,1.49880500000000E+01,1.47400600000000E+01,1.37430200000000E+01,,,,
JPN,,,,,,,,,,,,,,,,,,,,,,,,,,,,,,,,,,,9.67134000000000E+00,9.75231000000000E+00,9.80247000000000E+00,9.85693000000000E+00,9.92219000000000E+00,1.01298900000000E+01,1.03079400000000E+01,1.04979000000000E+01,1.08910600000000E+01,1.10651800000000E+01,1.11999700000000E+01,1.12006500000000E+01,,,,,,
KAZ,,,,,,,,,,,,,,,,,,,,,,,,,,,,,,,,,,,,,,,9.41399000000000E+00,9.35351000000000E+00,9.57103000000000E+00,9.04617000000000E+00,9.10163000000000E+00,8.78811000000000E+00,8.90914000000000E+00,8.90991000000000E+00,8.86447000000000E+00,8.85984000000000E+00,,,,
KGZ,,,,,,,,,,,,,,,,,,,,,,,,,,,,,,,,,7.62600000000000E-01,9.10120000000000E-01,7.45080000000000E-01,9.76460000000000E-01,9.97540000000000E-01,1.03510000000000E+00,2.20273000000000E+00,2.11218000000000E+00,2.76828000000000E+00,2.93073000000000E+00,6.65569000000000E+00,7.18148000000000E+00,7.36890000000000E+00,8.29150000000000E+00,8.34012000000000E+00,8.46963000000000E+00,,,,
KHM,,,,,,,,,,,,,,,,,,,,,,,,,,,,,,,,,,4.55005700000000E+01,,6.00324000000000E+00,,,,,,,,,,,,,,,,
KOR,,,,,,,,,,,,,,,,,,,,,,,,,,,,,,,9.17500000000000E+00,9.62281000000000E+00,1.00354800000000E+01,1.03610100000000E+01,1.04631100000000E+01,1.05506700000000E+01,1.07173400000000E+01,1.09875100000000E+01,1.18653400000000E+01,1.17654000000000E+01,1.17999700000000E+01,1.22478900000000E+01,1.22457300000000E+01,1.23404800000000E+01,1.23257800000000E+01,1.23362300000000E+01,1.20538900000000E+01,,,,,
LAO,,,,,,,,,,,,,,,,,,,,,,,,,,,,,,,,,,,,,,,,3.79670000000000E+00,,,,,,,,,,,,
LBN,,,,,,,,,,,,,,,,,,,,,,,,,,,,,,,,,,,,,,,5.97199000000000E+00,,,,,,,,,,,,,
LKA,,,,,,,,,,,,,,,,,,,,,,,,,,,,,,,,,,,,,,,,,,,,,,,8.96167000000000E+00,,,,,
LSO,,,,,,,,,,,,,,,,,,,,,,,,,,,,,,,,,,,,,,,,,,5.55970000000000E-01,5.39660000000000E-01,6.33600000000000E-01,4.18660000000000E-01,1.24851000000000E+00,1.13440000000000E+00,3.33570000000000E-01,,,,
LTU,,,,,,,,,,,,,,,,,,,,,,,,,,,,,,,,,4.99120000000000E+00,4.47569000000000E+00,4.62919000000000E+00,,6.21013000000000E+00,6.77181000000000E+00,6.87623000000000E+00,6.97735000000000E+00,6.84362000000000E+00,6.85208000000000E+00,6.76969000000000E+00,6.59039000000000E+00,6.82736000000000E+00,7.07398000000000E+00,7.57141000000000E+00,8.28720000000000E+00,,,,
LUX,,,,,,,,,,,,,,,,,,,,,,,,,,,1.30497400000000E+01,1.36277100000000E+01,1.35636700000000E+01,1.32778200000000E+01,1.35270100000000E+01,1.40190400000000E+01,1.49175300000000E+01,1.51645500000000E+01,1.52161000000000E+01,2.34546600000000E+01,1.97085900000000E+01,1.95442700000000E+01,1.78823200000000E+01,2.19421300000000E+01,2.17679500000000E+01,2.16299900000000E+01,1.90419600000000E+01,2.21995500000000E+01,2.17112000000000E+01,2.28786100000000E+01,2.71707200000000E+01,,,,,
LVA,,,,,,,,,,,,,,,,,,,,,,,,,,,,,,,5.32417000000000E+00,5.60828000000000E+00,4.71667000000000E+00,4.62290000000000E+00,4.66277000000000E+00,4.29965000000000E+00,4.06254000000000E+00,6.92720000000000E+00,6.26183000000000E+00,3.67545000000000E+00,4.03502000000000E+00,4.55122000000000E+00,4.60512000000000E+00,4.97445000000000E+00,4.96341000000000E+00,5.18673000000000E+00,5.57847000000000E+00,5.81614000000000E+00,,,,
MAR,,,,,,,,,,,,,,,,,,,,,,,,,,,,,,,,,,,,,,,,,8.10323000000000E+00,7.88200000000000E+00,7.96021000000000E+00,7.95729000000000E+00,8.80947000000000E+00,9.31476000000000E+00,8.71238000000000E+00,7.89319000000000E+00,,,,
MDG,,,,,,,,,,,,,,,,,,,,,,,,,,,,,,,,,,,,,,,,,,1.14430400000000E+01,1.13906300000000E+01,1.16269900000000E+01,1.23799200000000E+01,1.23797600000000E+01,1.23795900000000E+01,,,,,
MEX,,,,,,,,,,,,,,,,,,,,,,,,,,,,,,9.24298000000000E+00,,,,,,,,,,,,,,,,,,,,,,
MKD,,,,,,,,,,,,,,,,,,,,,,,,,,,,,,,,,,,,,,9.06388000000000E+00,8.00538000000000E+00,7.93782000000000E+00,7.58562000000000E+00,7.61752000000000E+00,,8.08546000000000E+00,7.96967000000000E+00,7.03279000000000E+00,6.83116000000000E+00,6.32726000000000E+00,,,,
MLT,,,,,,,,,,,,,,,,,,,,,,,,,,,,,,,,,,,,9.71527000000000E+00,1.04928500000000E+01,1.09308000000000E+01,1.16371100000000E+01,9.80198000000000E+00,9.94688000000000E+00,9.40960000000000E+00,9.12867000000000E+00,1.01579600000000E+01,1.12078000000000E+01,1.03982900000000E+01,,,,,,
MNG,,,,,,,,,,,,,,,,,,,,,,,,,,,,,,,,,,,,,,,,,,,,2.05045000000000E+00,1.89067000000000E+00,2.25704000000000E+00,2.92297000000000E+00,3.30321000000000E+00,,,,
MUS,,,,,,,,,,,,,,,,,,,,,,,,,,,,,,,,,,,,,,4.48941000000000E+00,4.45130000000000E+00,4.24116000000000E+00,4.36658000000000E+00,4.29292000000000E+00,4.79836000000000E+00,5.05569000000000E+00,5.52524000000000E+00,5.71907000000000E+00,6.05025000000000E+00,5.92498000000000E+00,,,,
MWI,,,,,,,,,,,,,,,,,,,,,,,,,,,,,,,,,,,,,,,,3.30460000000000E+00,3.66778000000000E+00,3.65805000000000E+00,,,,,,,,,,
MYS,,,,,,,,,,,,,,,,,,,,,,,,,,,,,,,,,,,,,,,,,1.43492500000000E+01,1.44846700000000E+01,1.49518000000000E+01,1.52269300000000E+01,1.51373600000000E+01,1.62092200000000E+01,1.64560400000000E+01,,,,,
NLD,,,,,,,,,,,,,,,,,,,,,,,,,,,,,,,,,,,,1.32849000000000E+01,1.38037800000000E+01,1.35795400000000E+01,1.43149700000000E+01,1.32040900000000E+01,1.37881900000000E+01,1.41448900000000E+01,1.49134300000000E+01,1.51951900000000E+01,1.51775400000000E+01,1.48438400000000E+01,1.41044700000000E+01,,,,,
NOR,,,,,,,,,,,,,,,,,,,,,,,,,,,,,,,,8.28150000000000E+00,8.32148000000000E+00,8.46337000000000E+00,8.11566000000000E+00,8.03085000000000E+00,7.11258000000000E+00,7.25114000000000E+00,7.20904000000000E+00,7.99531000000000E+00,8.52752000000000E+00,7.88502000000000E+00,7.62689000000000E+00,7.57840000000000E+00,7.51377000000000E+00,7.71011000000000E+00,7.51014000000000E+00,,,,,
NPL,,,,,,,,,,,,,,,,,,,,,,,,,,,,,,,,,,,,,4.31355000000000E+00,,,,,,7.24511000000000E+00,,,,,,,,,
NZL,,,,,,,,,,,,,,,,,,,,,,,,,,,1.09596100000000E+01,1.13448000000000E+01,1.13832500000000E+01,1.05749700000000E+01,1.01104300000000E+01,1.03979800000000E+01,1.07822900000000E+01,9.78403000000000E+00,9.16709000000000E+00,8.71928000000000E+00,8.35569000000000E+00,7.95157000000000E+00,8.28810000000000E+00,8.42085000000000E+00,7.73008000000000E+00,8.35058000000000E+00,8.30854000000000E+00,8.38280000000000E+00,8.30019000000000E+00,8.29139000000000E+00,8.56448000000000E+00,8.59151000000000E+00,,,,
OMN,,,,,,,,,,,,,,,,,,,,,,,,,,,,,,,,,,7.54105000000000E+00,7.09255000000000E+00,7.09244000000000E+00,9.16241000000000E+00,8.43831000000000E+00,8.76627000000000E+00,9.04181000000000E+00,1.03047000000000E+01,1.14917400000000E+01,1.41086000000000E+01,1.36498300000000E+01,1.38603100000000E+01,1.61091900000000E+01,1.62745600000000E+01,1.77594900000000E+01,,,,
PAK,,,,,,,,,,,,,,,,,,,,,,,,,,,,,,,,,,,,,,,,,,,,,,,9.11978000000000E+00,,,,,
PAN,,,,,,,,,,,,,,,,,,,,,,,,,,,,,,,,,1.26445400000000E+01,1.26379700000000E+01,1.21685300000000E+01,,1.32456700000000E+01,1.27740100000000E+01,1.28170800000000E+01,1.14991700000000E+01,1.11861000000000E+01,8.08680000000000E+00,,,7.72036000000000E+00,6.93651000000000E+00,,,,,,
PHL,,,,,,,,,,,,,,,,,,,,,,,,,,,,,,,,,,,,,9.79090000000000E+00,9.77723000000000E+00,9.05129000000000E+00,8.62876000000000E+00,,9.28659000000000E+00,,9.92776000000000E+00,,9.53601000000000E+00,,,,,,
POL,,,,,,,,,,,,,,,,,,,,,,,,,,,,,,,,,8.46919000000000E+00,8.77128000000000E+00,9.28123000000000E+00,9.05039000000000E+00,8.55377000000000E+00,8.98038000000000E+00,9.13012000000000E+00,1.00217600000000E+01,9.39884000000000E+00,9.85537000000000E+00,9.96913000000000E+00,1.09138400000000E+01,1.07421600000000E+01,1.11410700000000E+01,1.13016400000000E+01,,,,,
PRT,,,,,,,,,,,,,,,,,,,,,,,,,,,,,,,,,,,,,5.15868000000000E+00,5.19511000000000E+00,5.16935000000000E+00,5.22214000000000E+00,5.29029000000000E+00,5.83794000000000E+00,5.85324000000000E+00,5.79200000000000E+00,6.17736000000000E+00,6.62806000000000E+00,3.38786000000000E+00,,,,,
PRY,,,,,,,,,,,,,,,,,,,,,,,,,,,,,,,,,,,,8.16175000000000E+00,,,,,,1.46660700000000E+01,1.67186700000000E+01,,,,,,,,,
QAT,,,,,,,,,,,,,,,,,,,,,,,,,,,,,,,,,,,,,,,,,1.12629100000000E+01,1.07792700000000E+01,1.23564500000000E+01,1.44857100000000E+01,1.16169300000000E+01,1.15442400000000E+01,1.04914300000000E+01,,,,,
ROM,,,,,,,,,,,,,,,,,,,,,,,,,,,,,,,8.73823000000000E+00,8.34475000000000E+00,9.17275000000000E+00,9.30322000000000E+00,9.59350000000000E+00,9.62723000000000E+00,9.78767000000000E+00,1.06773700000000E+01,8.40455000000000E+00,8.54871000000000E+00,8.20030000000000E+00,7.72956000000000E+00,7.29258000000000E+00,6.59966000000000E+00,6.57978000000000E+00,6.65365000000000E+00,6.73456000000000E+00,7.08300000000000E+00,,,,
RUS,,,,,,,,,,,,,,,,,,,,,,,,,,,,,,,,,,,,,,,,1.10589000000000E+01,1.09018700000000E+01,1.09458200000000E+01,1.09050600000000E+01,1.15542700000000E+01,1.14502500000000E+01,1.16541900000000E+01,1.19303200000000E+01,1.15812600000000E+01,,,,
RWA,,,,,,,,,,,,,,,,,,,,,,,,,,,,,,,,,,,,,,,,8.97512000000000E+00,,,,,,,,,,,,
SAU,,,,,,,,,,,,,,,,,,,,,,,,,,,,,,,,,,,,,,,,,,,,,,,1.15601500000000E+01,,,,,
SDN,,,,,,,,,,,,,,,,,,,,,,,,,,,,,,,,,,,,,,,,,,6.98289000000000E+00,,,,,,,,,,
SEN,,,,,,,,,,,,,,,,,,,,,,,,,,,,,,,,,,,,,,,2.29454500000000E+01,2.37605600000000E+01,2.04439300000000E+01,2.20561100000000E+01,2.38332700000000E+01,,,,,,,,,
SGP,,,,,,,,,,,,,,,,,,,,,,,,,,,,,,,,8.69921000000000E+00,8.81907000000000E+00,9.43450000000000E+00,9.57417000000000E+00,9.98620000000000E+00,1.04878800000000E+01,1.09136700000000E+01,1.08840100000000E+01,1.14614600000000E+01,1.20196700000000E+01,1.20970900000000E+01,1.17800800000000E+01,1.21076400000000E+01,1.18009400000000E+01,1.19440000000000E+01,1.13602000000000E+01,1.18858800000000E+01,,,,
SVK,,,,,,,,,,,,,,,,,,,,,,,,,,,,,,,,9.45474000000000E+00,9.73798000000000E+00,1.00932800000000E+01,1.00054700000000E+01,1.24743800000000E+01,1.22333800000000E+01,1.16119900000000E+01,1.13710600000000E+01,1.10803400000000E+01,9.01798000000000E+00,8.63669000000000E+00,8.74561000000000E+00,9.53492000000000E+00,8.97776000000000E+00,8.83497000000000E+00,9.11760000000000E+00,,,,,
SVN,,,,,,,,,,,,,,,,,,,,,,,,,,,,,,,,,,,,1.06214000000000E+01,1.08571900000000E+01,1.15637800000000E+01,1.14987200000000E+01,1.09214500000000E+01,1.02972100000000E+01,1.08349300000000E+01,1.11445700000000E+01,1.17769300000000E+01,6.62566000000000E+00,1.14022500000000E+01,1.17916100000000E+01,1.22399500000000E+01,,,,
SWE,,,,,,,,,,,,,,,,,,,,,,,,,,,,,,,7.69125000000000E+00,8.03346000000000E+00,8.29749000000000E+00,8.42776000000000E+00,8.97573000000000E+00,8.31407000000000E+00,8.61326000000000E+00,8.20939000000000E+00,8.58625000000000E+00,8.64957000000000E+00,8.94296000000000E+00,9.96774000000000E+00,8.69594000000000E+00,9.91910000000000E+00,9.91353000000000E+00,9.90954000000000E+00,9.91178000000000E+00,,,,,
SYR,,,,,,,,,,,,,,,,,,,,,,,,,,,,,,,,,,,,,6.50637000000000E+00,6.66938000000000E+00,6.56297000000000E+00,7.16279000000000E+00,7.22295000000000E+00,7.89510000000000E+00,7.65106000000000E+00,7.63339000000000E+00,7.55149000000000E+00,7.77525000000000E+00,7.09548000000000E+00,7.31177000000000E+00,,,,
THA,,,,,,,,,,,,,,,,,,,,,,,,,,,,,,,,,,,,,1.21561600000000E+01,,1.18723900000000E+01,,1.22899900000000E+01,,1.07584700000000E+01,,,,1.24058700000000E+01,,,,,
TJK,,,,,,,,,,,,,,,,,,,,,,,,,,,,,,,5.86203000000000E+00,6.33820000000000E+00,7.09487000000000E+00,6.42479000000000E+00,6.34745000000000E+00,5.74371000000000E+00,6.02164000000000E+00,5.26232000000000E+00,5.85101000000000E+00,4.02476000000000E+00,5.14427000000000E+00,5.10892000000000E+00,4.92478000000000E+00,5.10401000000000E+00,5.15539000000000E+00,4.97067000000000E+00,3.82899000000000E+00,2.01137000000000E+00,,,,
TON,,,,,,,,,,,,,,,,,,,,,,,,,,,,,,,,1.23735000000000E+00,1.05485000000000E+00,8.88320000000000E-01,1.44928000000000E+00,,,,,,5.48712000000000E+00,2.83224000000000E+00,2.47619000000000E+00,2.43902000000000E+00,,,,,,,,
TTO,,,,,,,,,,,,,,,,,,,,,,,,,,,,,,,,,,,,,,,2.07014000000000E+01,2.19259300000000E+01,2.11703700000000E+01,2.07981400000000E+01,1.99789700000000E+01,2.13468000000000E+01,,,,,,,,
TUR,,,,,,,,,,,,,,,,,,,,,,,,,,,,,,,,,9.02185000000000E+00,9.44092000000000E+00,9.43517000000000E+00,9.20056000000000E+00,9.02537000000000E+00,9.22482000000000E+00,9.00697000000000E+00,9.48947000000000E+00,9.55700000000000E+00,9.76004000000000E+00,8.36202000000000E+00,8.52386000000000E+00,8.56726000000000E+00,8.63345000000000E+00,8.60215000000000E+00,,,,,
TZA,,,,,,,,,,,,,,,,,,,,,,,,,,,,,,,,,,,,,,,,,,,,7.95006000000000E+00,8.48189000000000E+00,8.60331000000000E+00,8.60514000000000E+00,8.60439000000000E+00,,,,
UGA,,,,,,,,,,,,,,,,,,,,,,,,,,,,,,,,,,5.50628000000000E+00,8.35413000000000E+00,9.58904000000000E+00,1.20611300000000E+01,1.08565200000000E+01,8.90146000000000E+00,8.36479000000000E+00,7.32364000000000E+00,,,,,,,,,,,
UKR,,,,,,,,,,,,,,,,,,,,,,,,,,,,,,,,,,,,,,,,,8.72428000000000E+00,9.19699000000000E+00,9.60009000000000E+00,9.74701000000000E+00,9.74980000000000E+00,1.02573600000000E+01,1.03413100000000E+01,1.11860000000000E+01,,,,
USA,,,,,,,,,,,,,,,,,,,,,,,,,,,,,,,,,,,,,,1.21647200000000E+01,1.16724200000000E+01,1.18310000000000E+01,1.19742100000000E+01,1.18688200000000E+01,1.22921600000000E+01,,1.29878800000000E+01,1.31345400000000E+01,1.30517200000000E+01,,,,,
VNM,,,,,,,,,,,,,,,,,,,,,,,,,,,,,,,,,,,,,,,7.51207000000000E+00,,7.06883000000000E+00,7.10284000000000E+00,7.00409000000000E+00,6.69003000000000E+00,6.78301000000000E+00,6.60605000000000E+00,6.77485000000000E+00,6.75166000000000E+00,,,,
YEM,,,,,,,,,,,,,,,,,,,,,,,,,,,,,,,,,,,,,,,1.32919000000000E+01,1.34883100000000E+01,1.49212600000000E+01,1.31446600000000E+01,1.24942000000000E+01,1.21658400000000E+01,6.67996000000000E+00,6.91454000000000E+00,7.40573000000000E+00,,,,,
ZAF,,,,,,,,,,,,,,,,,,,,,,,,,,,,,,,,1.18491100000000E+01,,1.32077100000000E+01,1.24128000000000E+01,1.27213800000000E+01,1.22274800000000E+01,1.22124200000000E+01,1.42488600000000E+01,1.40876900000000E+01,1.49940900000000E+01,1.41484500000000E+01,1.42733500000000E+01,1.48508500000000E+01,1.55957600000000E+01,1.11867700000000E+01,1.14441700000000E+01,1.05806000000000E+01,,,,
ZWE,,,,,,,,,,,,,,,,,,,,,,,,,,,,,,,,,,,,,1.09707800000000E+01,,,,,,,,,,,,,,,
