"Country Code",1960,1961,1962,1963,1964,1965,1966,1967,1968,1969,1970,1971,1972,1973,1974,1975,1976,1977,1978,1979,1980,1981,1982,1983,1984,1985,1986,1987,1988,1989,1990,1991,1992,1993,1994,1995,1996,1997,1998,1999,2000,2001,2002,2003,2004,2005,2006,2007,2008,2009,2010,2011AFG,,,,,,,,,,,,,,,,,,,,,,,,,,,,1.00000000000000E+00,,,,,,,,,,,,,6.67000000000000E-01,,6.67000000000000E-01,,,,,,,6.67000000000000E-01,,
AGO,,,,,,,,,,,,,,,,,,,,,,,,,,,,1.39600000000000E+01,,,,,,,,,,,,,3.84100000000000E+01,,3.84100000000000E+01,,,,,,,3.84100000000000E+01,,
ALB,,,,,,,,,,,,,,,,,,,,,,,,,,,,,,,8.33300000000000E+00,,8.33300000000000E+00,,,,,,,,2.99500000000000E+01,,2.99500000000000E+01,,,,,,,2.99500000000000E+01,,
ARB,,,,,,,,,,,,,,,,,,,,,,,,,,,,,,,5.27301797645778E+00,4.57900000000000E+00,6.06894302076427E+00,,1.58500483870968E+01,6.46185736098113E+00,,6.63945483834232E+00,,4.80000000000000E+01,6.76839948554150E+00,1.71794480102696E+01,7.62881027795748E+00,3.99488612440191E+00,,1.27996855065883E+01,8.99900000000000E+00,1.04475055659272E+01,,7.96705233112958E+00,,
ARE,,,,,,,,,,,,,,,,,,,,,,,,,,,,,,,,,,,,2.37200000000000E+01,,2.37200000000000E+01,,,1.76900000000000E+01,,1.76900000000000E+01,,,1.54300000000000E+01,,1.54300000000000E+01,,1.54300000000000E+01,,
ARG,,,,,,,,,,,,,,,,,,,,,,,,,,,,,,,,,,,,1.59600000000000E+01,,1.59600000000000E+01,,,2.17100000000000E+01,,2.17100000000000E+01,,,,,,,2.17100000000000E+01,,
ARM,,,,,,,,,,,,,,,,,,,,,,,,,,,,,,,,,,,,2.95700000000000E+01,,2.95700000000000E+01,,,,,2.98200000000000E+01,,,,2.98200000000000E+01,2.98200000000000E+01,,2.98200000000000E+01,,
ATG,,,,,,,,,,,,,,,,,,,,,,,,,,,,,,,6.00000000000000E+01,,6.00000000000000E+01,,,,,,,,,,,,,,,,,6.00000000000000E+01,,
AUS,,,,,,,,,,,,,,,,,,,,,,,,,,,,,,,,,,,,,,,,,1.47100000000000E+01,,1.55900000000000E+01,,,,,,,1.55900000000000E+01,,
AUT,,,,,,,,,,,,,,,,,,,,,,,,,,,,,,,,,1.05800000000000E+01,,,,,,,,1.86700000000000E+01,,1.82700000000000E+01,,,,,,,1.82700000000000E+01,,
AZE,,,,,,,,,,,,,,,,,,,,,,,,,,,,,,,,,,,,,,1.77500000000000E+00,,,,,4.99500000000000E+00,,,4.26700000000000E+00,,4.26700000000000E+00,,4.26700000000000E+00,,
BDI,,,,,,,,,,,,,,,,,,,,,,,,,,,,3.60000000000000E+01,,,,,,,,,,,,,1.70100000000000E+01,,1.70100000000000E+01,,,,,,,1.70100000000000E+01,,
BEL,,,,,,,,,,,,,,,,,,,,,,,,,,,,,,,,,,,,,,,,,,,9.88500000000000E+00,,,,,1.17100000000000E+01,,1.17100000000000E+01,,
BEN,,,,,,,,,,,,,,,,,,,,,,,,,,,,2.81800000000000E+01,,,,,,,,,,,,,,3.15400000000000E+01,3.15400000000000E+01,,,,,,,3.15400000000000E+01,,
BFA,,,,,,,,,,,,,,,,,,,,,,,,,,,,2.06900000000000E+01,,,,,1.94100000000000E+01,,,,,,,,2.83100000000000E+01,,2.83100000000000E+01,,,,,,,2.83100000000000E+01,,
BGD,,,,,,,,,,,,,,,,,,,,,,,,,,,,,,,,,,,,,,,,,,,,,,,,,,1.00400000000000E+01,,
BGR,,,,,,,,,,,,,,,,,,,,,,,,,,,,,,,5.56400000000000E+00,,5.56400000000000E+00,,,,,,,,,,1.92100000000000E+01,,,1.79300000000000E+01,,1.63100000000000E+01,,1.59800000000000E+01,,
BHR,,,,,,,,,,,,,,,,,,,,,,,,,,,,,,,3.93300000000000E+01,,3.93300000000000E+01,,,,,,,,,,,4.97800000000000E+01,,,,4.97800000000000E+01,,4.97800000000000E+01,,
BLR,,,,,,,,,,,,,,,,,,,,,,,,,,,,,,,,,,,,,,,,,2.68800000000000E+01,,2.68800000000000E+01,,,,,,,2.68800000000000E+01,,
BLZ,,,,,,,,,,,,,,,,,,,,,,,,,,,,1.00000000000000E+01,,,,,,,,9.56500000000000E+00,,9.56500000000000E+00,,,6.66700000000000E+00,,6.66700000000000E+00,,,,,,,6.66700000000000E+00,,
BOL,,,,,,,,,,,,,,,,,,,,,,,,,,,,1.00000000000000E+01,,,,,,,,,,,,,2.75900000000000E+01,,2.75900000000000E+01,,,,,,,2.75900000000000E+01,,
BRA,,,,,,,,,,,,,,,,,,,,,,,,,,,,,,,,,,,,,2.09600000000000E+01,2.09600000000000E+01,,,2.02700000000000E+01,,2.02700000000000E+01,,,,2.79500000000000E+01,2.79500000000000E+01,,2.79500000000000E+01,,
BRB,,,,,,,,,,,,,,,,,,,,,,,,,,,,,,,,,,,,,,,,,2.87400000000000E+01,,2.87400000000000E+01,,,,,,,2.87400000000000E+01,,
BTN,,,,,,,,,,,,,,,,,,,,,,,,,,,,,,,,,,,,,,,,,,,,,,,,,,5.03000000000000E+00,,
BWA,,,,,,,,,,,,,,,,,,,,,,,,,,,,,,,,,3.18600000000000E+01,,,3.63300000000000E+01,,3.63300000000000E+01,,,4.07200000000000E+01,,4.07200000000000E+01,,,,,,,4.07200000000000E+01,,
CAF,,,,,,,,,,,,,,,,,,,,,,,,,,,,,,,,,,,,,,,,,8.20400000000000E+01,,8.20400000000000E+01,,,,,,,8.20400000000000E+01,,
CAN,,,,,,,,,,,,,,,,,,,,,,,,,,,,,,,,,,,,,,,,,1.95600000000000E+01,,1.95600000000000E+01,,,,,,,1.95600000000000E+01,,
CHE,,,,,,,,,,,,,,,,,,,,,,,,,,,,,,,,,,,,,,,,,4.05900000000000E+01,,4.05900000000000E+01,,,,,,,4.05900000000000E+01,,
CHL,,,,,,,,,,,,,,,,,,,,,,,,,,,,,,,,,,,,,,,,,9.19800000000000E+00,,9.19800000000000E+00,,,,,,,9.19800000000000E+00,,
CHN,,,,,,,,,,,,,,,,,,,,,,,,,,,,6.17100000000000E+00,,,7.00000000000000E+00,,7.00000000000000E+00,4.78900000000000E+00,,,,4.78900000000000E+00,,,,,,,,1.21900000000000E+01,,1.21900000000000E+01,,1.21900000000000E+01,,
CIV,,,,,,,,,,,,,,,,,,,,,,,,,,,,2.20000000000000E+01,,,,,,,1.31500000000000E+01,,,1.31500000000000E+01,,,3.82700000000000E+01,,3.82700000000000E+01,,,,,,,3.82700000000000E+01,,
CMR,,,,,,,,,,,,,,,,,,,,,,,,,,,,4.54500000000000E+01,,,,,4.60000000000000E+01,,,,,,,,1.67900000000000E+01,,1.67900000000000E+01,,,,,,,1.67900000000000E+01,,
COG,,,,,,,,,,,,,,,,,,,,,,,,,,,,6.20000000000000E+01,,,,,,,,,,,,,,,6.95700000000000E+01,,,,,,,6.95700000000000E+01,,
COL,,,,,,,,,,,,,,,,,,,,,,,,,,,,,,,,,,,,,,,,,5.68900000000000E+01,,5.68900000000000E+01,,,,,,,5.68900000000000E+01,,
COM,,,,,,,,,,,,,,,,,,,,,,,,,,,,,,,,,,,,,,,,4.80000000000000E+01,,,4.80000000000000E+01,,,,,,,4.80000000000000E+01,,
CPV,,,,,,,,,,,,,,,,,,,,,,,,,,,,,,,,,,,,,,,,,,7.27300000000000E+00,7.27300000000000E+00,,,,,,,7.27300000000000E+00,,
CRI,,,,,,,,,,,,,,,,,,,,,,,,,,,,,,,,,,,,,,1.31200000000000E+01,,,2.94800000000000E+01,,2.94800000000000E+01,,,,,,,2.94800000000000E+01,,
CUB,,,,,,,,,,,,,,,,,,,,,,,,,,,,,,,,,,,,4.88400000000000E+01,,4.88400000000000E+01,,,1.54500000000000E+01,,1.54500000000000E+01,,,,,,,1.54500000000000E+01,,
CYP,,,,,,,,,,,,,,,,,,,,,,,,,,,,2.25000000000000E+01,,,2.43400000000000E+01,,2.43400000000000E+01,2.37000000000000E+01,,,,2.37000000000000E+01,,,2.04800000000000E+01,,2.36500000000000E+01,,,,,2.73100000000000E+01,,1.03300000000000E+01,,
CZE,,,,,,,,,,,,,,,,,,,,,,,,,,,,,,,,,,,,,,,,,4.66800000000000E+01,,4.78800000000000E+01,,,,,4.17300000000000E+01,,4.17300000000000E+01,,
DEU,,,,,,,,,,,,,,,,,,,,,,,,,,,,,,,,,,,,1.28300000000000E+01,,1.28300000000000E+01,,,,1.38200000000000E+01,1.38200000000000E+01,,,,,1.58800000000000E+01,,1.58800000000000E+01,,
DJI,,,,,,,,,,,,,,,,,,,,,,,,,,,,1.25000000000000E+01,,,,,,,,,,,,,8.42100000000000E+01,,8.42100000000000E+01,,,,,,,8.42100000000000E+01,,
DNK,,,,,,,,,,,,,,,,,,,,,,,,,,,,,3.00000000000000E+01,,,,3.10100000000000E+01,,,,,,,,4.07900000000000E+01,,6.31400000000000E+01,,,,,7.14000000000000E+01,,5.84800000000000E+01,,
DOM,,,,,,,,,,,,,,,,,,,,,,,,,,,,,,,,,,,1.09800000000000E+01,,,1.09800000000000E+01,,,3.38600000000000E+01,,3.38600000000000E+01,,,,,,,3.38600000000000E+01,,
DZA,,,,,,,,,,,,,,,,,,,,,,,,,,,,,,,2.48900000000000E+01,,2.48900000000000E+01,,,,,,,,2.25100000000000E+01,,2.25100000000000E+01,,,,,,,2.25100000000000E+01,,
EAP,,,,,,,,,,,,,,,,,,,,,,,,,,,,5.71918320051924E+00,,,6.93749483266032E+00,,6.93747510522534E+00,4.80126710635417E+00,,,,4.98540184238306E+00,,,1.19976813107954E+01,,1.13633463424961E+01,,,1.08076385330043E+01,7.33321503625870E+00,1.03167206821046E+01,,1.04705674995457E+01,,
EAS,,,,,,,,,,,,,,,,,,,,,,,,,,,,5.85669497268938E+00,,,6.93749483266032E+00,,8.51465791732016E+00,4.80126710635417E+00,,,,4.98540184238306E+00,,,1.48451284817640E+01,,1.56096369040297E+01,,,1.08076385330043E+01,7.33321503625870E+00,1.03167206821046E+01,,1.17126758646453E+01,,
ECA,,,,,,,,,,,,,,,,,,,,,,,,,,,,,,,9.50434359538208E+00,,1.29368667127397E+01,,9.92105522693350E+00,4.99137977264475E+00,1.38300000000000E+01,9.09558659240722E+00,,,8.20632744570000E+00,1.96480286841266E+01,1.12187337944524E+01,1.60062913369852E+01,,6.35586436266358E+00,2.98200000000000E+01,1.48438382505898E+01,,1.12472592509558E+01,,
ECS,,,,,,,,,,,,,,,,,,,,,,,,,,,,,,,9.61715265796024E+00,,,2.37000000000000E+01,9.92105522693350E+00,9.45556326314363E+00,1.38300000000000E+01,9.71340807329457E+00,,,1.30215636147276E+01,2.03793973233580E+01,1.47681156436720E+01,1.60062913369852E+01,,6.35586436266358E+00,2.98200000000000E+01,1.90206557333916E+01,,1.51351390081823E+01,,
ECU,,,,,,,,,,,,,,,,,,,,,,,,,,,,,,,,,,,,,,1.23600000000000E+01,,,5.95000000000000E+00,,5.95000000000000E+00,,,,,,,5.95000000000000E+00,,
EGY,,,,,,,,,,,,,,,,,,,,,,,,,,,,,,,,,,,,6.33400000000000E+00,,6.33400000000000E+00,,,7.76000000000000E+00,,7.76000000000000E+00,,,,,,,7.76000000000000E+00,,
EMU,,,,,,,,,,,,,,,,,,,,,,,,,,,,,,,2.43400000000000E+01,,,2.37000000000000E+01,,1.29793333039376E+01,,,,,1.70633644449009E+01,1.32592112009466E+01,1.57071106359819E+01,,,,,1.59125188628768E+01,,1.66790917580946E+01,,
ERI,,,,,,,,,,,,,,,,,,,,,,,,,,,,,,,,,,,,,,,,,1.49300000000000E+01,,1.49300000000000E+01,,5.32600000000000E+00,,,5.32600000000000E+00,,5.32600000000000E+00,,
ESP,,,,,,,,,,,,,,,,,,,,,,,,,,,,1.20000000000000E+01,,,,,,,,,,,,,1.47000000000000E+01,,1.49300000000000E+01,,,,,1.77400000000000E+01,,1.77600000000000E+01,,
EST,,,,,,,,,,,,,,,,,,,,,,,,,,,,,,,,,,,,5.57000000000000E+01,,5.57000000000000E+01,,,,,4.85600000000000E+00,,,,,3.00700000000000E+00,,3.00700000000000E+00,,
ETH,,,,,,,,,,,,,,,,,,,,,,,,,,,,,,,,,,,,,,,,,,,5.99100000000000E+00,,,,,,,5.99100000000000E+00,,
EUU,,,,,,,,,,,,,,,,,,,,,,,,,,,,,,,9.67193927542930E+00,,,2.37000000000000E+01,,1.36159543315322E+01,,,,,1.91441667734772E+01,2.05151087090797E+01,1.90887127076237E+01,1.83900000000000E+01,,,,2.04418034302964E+01,,2.00834346493652E+01,,
FIN,,,,,,,,,,,,,,,,,,,,,,,,,,,,,,,,,,,,,,,,,1.76700000000000E+01,,1.78000000000000E+01,,,,,2.47200000000000E+01,,2.47200000000000E+01,,
FJI,,,,,,,,,,,,,,,,,,,,,,,,,,,,2.00000000000000E+01,,,,,,,,,,,,,2.80300000000000E+01,,2.80300000000000E+01,,,,,,,2.80300000000000E+01,,
FRA,,,,,,,,,,,,,,,,,,,,,,,,,,,,,,,,,,,,,,,,,1.84900000000000E+01,,1.79500000000000E+01,,,,,1.82600000000000E+01,,1.82600000000000E+01,,
GAB,,,,,,,,,,,,,,,,,,,,,,,,,,,,7.20000000000000E+01,,,,,,,,,,,,,5.27700000000000E+01,,5.27700000000000E+01,,,,,,,5.27700000000000E+01,,
GBR,,,,,,,,,,,,,,,,,,,,,,,,,,,,,,,,,,,,,,,,,,4.87000000000000E+01,4.54800000000000E+01,,,,,5.71100000000000E+01,,5.71100000000000E+01,,
GEO,,,,,,,,,,,,,,,,,,,,,,,,,,,,,,,,,,,,,,,,,,,,,,2.20900000000000E+01,,2.20900000000000E+01,,2.20900000000000E+01,,
GHA,,,,,,,,,,,,,,,,,,,,,,,,,,,,,,,,,,,,,,,,,2.39300000000000E+01,,2.39300000000000E+01,,,,,,,2.39300000000000E+01,,
GIN,,,,,,,,,,,,,,,,,,,,,,,,,,,,1.00000000000000E+01,,,,,,,,,,,,,1.28600000000000E+01,,1.28600000000000E+01,,,,,,,1.28600000000000E+01,,
GMB,,,,,,,,,,,,,,,,,,,,,,,,,,,,,,,,,,,,,,,,,4.75500000000000E+01,,4.75500000000000E+01,,,,,,,4.75500000000000E+01,,
GNB,,,,,,,,,,,,,,,,,,,,,,,,,,,,,,,,6.02400000000000E+01,6.02400000000000E+01,,,,1.31400000000000E+01,1.31400000000000E+01,,,1.31400000000000E+01,,1.31400000000000E+01,,,,,,,1.31400000000000E+01,,
GNQ,,,,,,,,,,,,,,,,,,,,,,,,,,,,8.10000000000000E+01,,,,,,,,,,,,,7.93100000000000E+01,,7.93100000000000E+01,,,,,,,7.93100000000000E+01,,
GRC,,,,,,,,,,,,,,,,,,,,,,,,,,,,,,,,,,,,,,,,,1.11800000000000E+01,,8.01000000000000E+00,,,,,8.93300000000000E+00,,8.93300000000000E+00,,
GTM,,,,,,,,,,,,,,,,,,,,,,,,,,,,,,,,,,,,,,,,,1.46500000000000E+01,,1.46500000000000E+01,,,,,,,1.46500000000000E+01,,
GUY,,,,,,,,,,,,,,,,,,,,,,,,,,,,,,,,,1.02700000000000E+00,,,,,,,,1.82900000000000E+00,,1.82900000000000E+00,,,,,,,1.82900000000000E+00,,
HIC,,,,,,,,,,,,,,,,,,,,,,,,,,,,,,,1.32774273017786E+01,4.57900000000000E+00,1.41135845137942E+01,2.37000000000000E+01,3.73600000000000E+01,1.34185420551897E+01,,1.35000228578339E+01,,,1.60306334869822E+01,2.11524463519313E+01,1.65965231133550E+01,4.97800000000000E+01,,1.38643628903957E+01,8.99900000000000E+00,1.55415843796101E+01,,1.67678935835554E+01,,
HND,,,,,,,,,,,,,,,,,,,,,,,,,,,,,,,,,,,,,,,,,1.73900000000000E+01,,1.73900000000000E+01,,,,,,,1.73900000000000E+01,,
HPC,,,,,,,,,,,,,,,,,,,,,,,,,,,,2.73149929475336E+00,1.60000000000000E+01,,4.17881403290903E+00,6.01067215253387E+00,6.42071045426116E+00,,5.92993769693498E+00,4.49400000000000E+00,1.31400000000000E+01,5.16917718150224E+00,,4.80000000000000E+01,5.57394724773548E+00,3.15400000000000E+01,5.96443047100349E+00,4.54800000000000E-01,5.32600000000000E+00,,,1.18548000000000E+00,,5.93700920753210E+00,,
HRV,,,,,,,,,,,,,,,,,,,,,,,,,,,,,,,,,,,,,,,,,,,,,,,,,,8.46300000000000E+01,,
HTI,,,,,,,,,,,,,,,,,,,,,,,,,,,,,,,,5.09200000000000E+00,5.09200000000000E+00,,,,,,,,1.87700000000000E+01,,1.87700000000000E+01,,,,,,,1.87700000000000E+01,,
HUN,,,,,,,,,,,,,,,,,,,,,,,,,,,,8.99900000000000E+00,,,,,,,,,,,,,,,1.43800000000000E+01,,,,,1.19300000000000E+01,,1.19300000000000E+01,,
IDN,,,,,,,,,,,,,,,,,,,,,,,,,,,,,,,6.36100000000000E+00,,6.36100000000000E+00,,,,,,,,1.15900000000000E+01,,1.15900000000000E+01,,,,,,,1.15900000000000E+01,,
IND,,,,,,,,,,,,,,,,,,,,,,,,,,,,3.69100000000000E+00,,,5.00000000000000E+00,,5.00000000000000E+00,,,,,,,,6.88100000000000E+00,,6.88100000000000E+00,,,,,,,7.35900000000000E+00,,
IRN,,,,,,,,,,,,,,,,,,,,,,,,,,,,,,,,,,,,7.22900000000000E+00,,7.22900000000000E+00,,,,5.49100000000000E+00,5.49100000000000E+00,,6.64500000000000E+00,,,6.64500000000000E+00,,6.64500000000000E+00,,
IRQ,,,,,,,,,,,,,,,,,,,,,,,,,,,,2.07200000000000E+00,,,2.99100000000000E+00,,2.99100000000000E+00,,,5.12900000000000E+00,,5.12900000000000E+00,,,6.51500000000000E+00,,6.51500000000000E+00,,,,,,,6.51500000000000E+00,,
ISL,,,,,,,,,,,,,,,,,,,,,,,,,,,,2.49100000000000E+01,,,,,,,,,,,,,8.47600000000000E+01,,4.84700000000000E+01,,,,,4.90900000000000E+01,,4.90900000000000E+01,,
ISR,,,,,,,,,,,,,,,,,,,,,,,,,,,,,,,2.67200000000000E+01,,2.67200000000000E+01,,,,,,,,,,3.75800000000000E+01,,3.64400000000000E+01,,,3.64400000000000E+01,,3.64400000000000E+01,,
ITA,,,,,,,,,,,,,,,,,,,,,,,,,,,,,,,,,,,,,,,,,2.00600000000000E+01,,2.00600000000000E+01,,,,,,,2.00600000000000E+01,,
JAM,,,,,,,,,,,,,,,,,,,,,,,,,,,,,,,,,,1.54400000000000E+01,,,,1.54400000000000E+01,,,4.38700000000000E+01,,4.38700000000000E+01,,,,,,,4.38700000000000E+01,,
JOR,,,,,,,,,,,,,,,,,,,,,,,,,,,,2.18100000000000E+01,,,,,2.17500000000000E+01,,,,,,,,,,,,,3.09600000000000E+01,,3.09600000000000E+01,,3.09600000000000E+01,,
JPN,,,,,,,,,,,,,,,,,,,,,,,,,,,,,,,,,1.86000000000000E+01,,,,,,,,1.96800000000000E+01,,1.93200000000000E+01,,,,,,,1.93200000000000E+01,,
KAZ,,,,,,,,,,,,,,,,,,,,,,,,,,,,,,,,,,,,1.73200000000000E+00,,1.73200000000000E+00,,,1.23800000000000E+00,,1.23800000000000E+00,,,,,,,1.23800000000000E+00,,
KEN,,,,,,,,,,,,,,,,,,,,,,,,,,,,,,,1.96700000000000E+01,,1.96700000000000E+01,,,,,,,,,,,1.71800000000000E+01,,,,1.71800000000000E+01,,1.71800000000000E+01,,
KGZ,,,,,,,,,,,,,,,,,,,,,,,,,,,,,,,,,,,2.98300000000000E+00,,,2.98300000000000E+00,,,3.17500000000000E+00,,3.17500000000000E+00,,,,,,,3.17500000000000E+00,,
KHM,,,,,,,,,,,,,,,,,,,,,,,,,,,,,,,,,,,,,,,,,1.47100000000000E+00,,,,,,4.48700000000000E+00,4.48700000000000E+00,,4.48700000000000E+00,,
KOR,,,,,,,,,,,,,,,,,,,,,,,,,,,,,,,,,,,,,,,,,,,2.59900000000000E+01,,,,,,,2.59900000000000E+01,,
KWT,,,,,,,,,,,,,,,,,,,,,,,,,,,,,,,,,,,3.73600000000000E+01,,,3.73600000000000E+01,,,,,4.38600000000000E+01,,,,,,,4.38600000000000E+01,,
LAC,,,,,,,,,,,,,,,,,,,,,,,,,,,,,,,,5.09200000000000E+00,7.10456176113461E+00,1.54400000000000E+01,1.09800000000000E+01,2.10247501775989E+01,2.09600000000000E+01,1.86542178974474E+01,,,2.09073320169211E+01,,1.88739207562551E+01,,,,2.79500000000000E+01,1.99975011347334E+01,,2.06174384392742E+01,,
LAO,,,,,,,,,,,,,,,,,,,,,,,,,,,,,,,,,,,,,,,,,4.33300000000000E+00,,,,,,,3.05200000000000E+00,,3.05200000000000E+00,,
LBN,,,,,,,,,,,,,,,,,,,,,,,,,,,,,,,,,,,2.84600000000000E+01,,,2.84600000000000E+01,,,3.02900000000000E+01,,3.02900000000000E+01,,,2.90100000000000E+01,,2.90100000000000E+01,,2.90100000000000E+01,,
LBR,,,,,,,,,,,,,,,,,,,,,,,,,,,,2.70000000000000E+01,,,,,,,,,,,,,3.98300000000000E+01,,3.98300000000000E+01,,,,,,,3.98300000000000E+01,,
LBY,,,,,,,,,,,,,,,,,,,,,,,,,,,,1.26200000000000E+01,,,8.61300000000000E+00,,8.61300000000000E+00,,1.08700000000000E+01,,,1.08700000000000E+01,,,1.41000000000000E+01,,1.41000000000000E+01,,,,,,,1.41000000000000E+01,,
LCA,,,,,,,,,,,,,,,,,,,,,,,,,,,,,,,,,,,,,,,,,,,,,,5.90400000000000E+01,,5.90400000000000E+01,,5.90400000000000E+01,,
LCN,,,,,,,,,,,,,,,,,,,,,,,,,,,,,,,7.16500000000000E+01,5.09200000000000E+00,9.33784140596743E+00,1.54400000000000E+01,1.09800000000000E+01,2.23720258197242E+01,2.09600000000000E+01,1.91738598858729E+01,,,2.12420938893005E+01,,1.91250030493404E+01,,,9.03575168050613E+01,2.79500000000000E+01,2.05084572228388E+01,,2.09163970086141E+01,,
LDC,,,,,,,,,,,,,,,,,,,,,,,,,,,,1.63431883793643E+00,1.60000000000000E+01,,4.58979923266936E+00,6.01067215253387E+00,6.12571512810893E+00,,1.38177062831189E+01,4.49400000000000E+00,1.31400000000000E+01,5.76219042537712E+00,,4.80000000000000E+01,5.64120017115671E+00,3.15400000000000E+01,6.07874950199078E+00,4.54800000000000E-01,5.32600000000000E+00,,4.48700000000000E+00,3.16154682066967E+00,,6.65664327399843E+00,,
LIC,,,,,,,,,,,,,,,,,,,,,,,,,,,,1.67004829635083E+00,1.60000000000000E+01,,1.71829804069329E+01,6.01067215253387E+00,1.47777366176958E+01,,3.52898497554158E+00,,1.31400000000000E+01,3.60188721771922E+00,,4.80000000000000E+01,6.20525429581591E+00,3.15400000000000E+01,6.59734078763510E+00,8.03700155809713E+00,5.32600000000000E+00,,4.48700000000000E+00,6.10953995008075E+00,,7.51059663443618E+00,,
LKA,,,,,,,,,,,,,,,,,,,,,,,,,,,,,,,1.99600000000000E+00,,1.99600000000000E+00,,,,,,,,3.82000000000000E+00,,3.82000000000000E+00,,,6.21600000000000E+00,,6.21600000000000E+00,,6.21600000000000E+00,,
LMC,,,,,,,,,,,,,,,,,,,,,,,,,,,,3.84883767985232E+00,,,4.96240348297178E+00,1.60700000000000E+00,4.40427083658822E+00,1.98600000000000E+01,3.96756110796527E+00,6.77657273926978E+00,,5.48142064123627E+00,,,7.19765134153949E+00,5.79245970598062E+01,7.26048990746645E+00,,,3.55421694688827E+00,8.18711001260293E+00,5.63485557648426E+00,,7.37596341476995E+00,,
LMY,,,,,,,,,,,,,,,,,,,,,,,,,,,,4.85677586369616E+00,1.60000000000000E+01,8.31900000000000E+01,6.19385225876567E+00,1.67763675139564E+00,5.98382544801594E+00,4.81943502095486E+00,1.01795506442341E+01,9.36943432806030E+00,2.07399355123675E+01,7.87808763237005E+00,,4.80000000000000E+01,9.12555735905702E+00,1.17660565085043E+01,9.55583547216367E+00,1.53232823722524E+01,6.63680570440426E+00,1.06670421540045E+01,1.62131837921975E+01,1.13670183323154E+01,,1.00657357405722E+01,,
LSO,,,,,,,,,,,,,,,,,,,,,,,,,,,,2.20000000000000E+01,,,,,,,,,,,,,4.00000000000000E+01,,4.00000000000000E+01,,,,,,,4.00000000000000E+01,,
LTU,,,,,,,,,,,,,,,,,,,,,,,,,,,,,,,,,,,,8.10300000000000E+01,,8.10300000000000E+01,,,,5.43900000000000E+00,5.43900000000000E+00,,,,,6.56000000000000E+00,,6.56000000000000E+00,,
LUX,,,,,,,,,,,,,,,,,,,,,,,,,,,,,,,,,,,,,,,,,,,6.31200000000000E+01,,,,,,,6.31200000000000E+01,,
LVA,,,,,,,,,,,,,,,,,,,,,,,,,,,,,,,,,,,,5.50900000000000E+01,,5.50900000000000E+01,,,3.95100000000000E+01,,3.87400000000000E+01,,,,,,,3.87400000000000E+01,,
MAR,,,,,,,,,,,,,,,,,,,,,,,,,,,,,,,,,4.91800000000000E+00,,,,,,,,9.76200000000000E+00,,9.76200000000000E+00,,,,,,,9.76200000000000E+00,,
MDA,,,,,,,,,,,,,,,,,,,,,,,,,,,,,,,,,9.07900000000000E+00,,,,,,,,8.56400000000000E+00,,8.56400000000000E+00,,,,,,,8.56400000000000E+00,,
MDG,,,,,,,,,,,,,,,,,,,,,,,,,,,,1.00000000000000E+00,,,,,,,,,,,,,1.62700000000000E+00,,1.62700000000000E+00,,,,,,,1.62700000000000E+00,,
MDV,,,,,,,,,,,,,,,,,,,,,,,,,,,,9.70600000000000E+01,,,,,,,,,,,,,,,,,,,,,,9.49200000000000E+01,,
MEA,,,,,,,,,,,,,,,,,,,,,,,,,,,,3.08085273222823E+00,,,6.24125104161438E+00,4.57900000000000E+00,6.83598688825697E+00,,1.58500483870968E+01,7.13598721416278E+00,,7.05147970952661E+00,,,7.96321602577487E+00,5.88340221513532E+00,7.96242549070248E+00,4.97800000000000E+01,6.64500000000000E+00,1.27996855065883E+01,8.99900000000000E+00,8.61670575114683E+00,,8.53609186597487E+00,,
MEX,,,,,,,,,,,,,,,,,,,,,,,,,,,,,,,,,,,,,,,,,,,1.32200000000000E+01,,,,,1.41400000000000E+01,,1.40400000000000E+01,,
MIC,,,,,,,,,,,,,,,,,,,,,,,,,,,,5.07757176436900E+00,,8.31900000000000E+01,6.16975058508142E+00,1.64993122817194E+00,5.95610741763811E+00,4.81943502095486E+00,1.10442374787053E+01,9.36943432806030E+00,2.07635064244572E+01,7.96533106729887E+00,,,9.38011161985502E+00,1.17501683551275E+01,9.78208335249055E+00,1.62021813455963E+01,6.64500000000000E+00,1.06670421540045E+01,1.63963778907988E+01,1.14929121448834E+01,,1.02384305124409E+01,,
MKD,,,,,,,,,,,,,,,,,,,,,,,,,,,,,,,,,,,,,1.38300000000000E+01,1.38300000000000E+01,,,,,2.95400000000000E+01,,,,,2.11100000000000E+01,,2.11100000000000E+01,,
MLI,,,,,,,,,,,,,,,,,,,,,,,,,,,,1.98500000000000E+00,,,,,,,,,,,,,9.01300000000000E+00,,9.01300000000000E+00,,,,,,,9.01300000000000E+00,,
MLT,,,,,,,,,,,,,,,,,,,,,,,,,,,,,,,,,,,,8.75000000000000E+01,,8.75000000000000E+01,,,,,6.38200000000000E+01,,,,,,,6.38200000000000E+01,,
MMR,,,,,,,,,,,,,,,,,,,,,,,,,,,,9.80900000000000E-01,,,,,,,,,,,,,1.00000000000000E+01,,1.00000000000000E+01,,,,,,,1.00000000000000E+01,,
MNA,,,,,,,,,,,,,,,,,,,,,,,,,,,,3.08085273222823E+00,,,5.61330906268863E+00,,5.74843931460530E+00,,1.47294722552181E+01,6.93849981684855E+00,,6.77565782638414E+00,,,7.79145224232171E+00,5.88340221513532E+00,7.51257224752052E+00,,6.64500000000000E+00,1.20261895199798E+01,,7.57663616922298E+00,,7.96205302912783E+00,,
MNG,,,,,,,,,,,,,,,,,,,,,,,,,,,,,,,,,,1.98600000000000E+01,,,,1.98600000000000E+01,,,2.31500000000000E+01,,2.31500000000000E+01,,,,,2.38300000000000E+01,,2.38300000000000E+01,,
MOZ,,,,,,,,,,,,,,,,,,,,,,,,,,,,,,,8.76000000000000E+00,,8.76000000000000E+00,,,,,,,,2.28300000000000E+01,,2.28300000000000E+01,,,,,,,2.28300000000000E+01,,
MRT,,,,,,,,,,,,,,,,,,,,,,,,,,,,,,,,,,,,,,,,,4.74100000000000E+00,,4.74100000000000E+00,,,,,,,4.74100000000000E+00,,
MUS,,,,,,,,,,,,,,,,,,,,,,,,,,,,,,,,,,,,1.75600000000000E+01,,1.75600000000000E+01,,,,,,2.95200000000000E+01,,,,2.95200000000000E+01,,2.95200000000000E+01,,
MWI,,,,,,,,,,,,,,,,,,,,,,,,,,,,,,,,,,,1.01500000000000E+01,,,1.01500000000000E+01,,,1.23400000000000E+01,,1.23400000000000E+01,,,,,,,1.23400000000000E+01,,
MYS,,,,,,,,,,,,,,,,,,,,,,,,,,,,,,,8.08300000000000E+00,,8.08300000000000E+00,,,,,1.78900000000000E+01,,,2.46200000000000E+01,,,,,,,2.95400000000000E+01,,2.95400000000000E+01,,
NAC,,,,,,,,,,,,,,,,,,,,,,,,,,,,,,,1.31200000000000E+01,,1.31200000000000E+01,,,1.33100000000000E+01,,1.33100000000000E+01,,,1.40461113788384E+01,,1.40454920384312E+01,,,1.36800000000000E+01,,1.36800000000000E+01,,1.41954825790949E+01,,
NAM,,,,,,,,,,,,,,,,,,,,,,,,,,,,,,,,2.85100000000000E+01,2.85100000000000E+01,,,2.60100000000000E+01,,2.60100000000000E+01,,,2.43300000000000E+01,,2.43300000000000E+01,,,,,,,2.43300000000000E+01,,
NER,,,,,,,,,,,,,,,,,,,,,,,,,,,,,1.60000000000000E+01,,,,1.60000000000000E+01,,,,,,,,1.08000000000000E+01,,1.08000000000000E+01,,,,,,,1.08000000000000E+01,,
NGA,,,,,,,,,,,,,,,,,,,,,,,,,,,,3.09900000000000E+01,,,,,,,,,,,,,3.14500000000000E+01,,3.14500000000000E+01,,,,,,,3.14500000000000E+01,,
NIC,,,,,,,,,,,,,,,,,,,,,,,,,,,,,,,,,,,,,,,,,1.40500000000000E+01,,1.40500000000000E+01,,,,,,,1.40500000000000E+01,,
NLD,,,,,,,,,,,,,,,,,,,,,,,,,,,,,,,,,,,,,,,,,,1.13600000000000E+01,1.46800000000000E+01,,,,,1.09500000000000E+01,,1.18000000000000E+01,,
NOC,,,,,,,,,,,,,,,,,,,,,,,,,,,,2.52857142857143E+01,,,6.12762241887906E+01,4.57900000000000E+00,1.17470098964209E+01,2.37000000000000E+01,3.73600000000000E+01,4.11456384899145E+01,,3.95522286521145E+01,,,2.82324524771186E+01,,2.99132601402867E+01,4.97800000000000E+01,,3.43167866264221E+01,8.99900000000000E+00,1.35350888024412E+01,,1.61494960672073E+01,,
NOR,,,,,,,,,,,,,,,,,,,,,,,,,,,,,,,,,,,,,,,,,4.41900000000000E+01,,3.40600000000000E+01,,,,,2.83400000000000E+01,,2.83400000000000E+01,,
NPL,,,,,,,,,,,,,,,,,,,,,,,,,,,,,,,,,,,,,,,,,2.00900000000000E+00,,2.05100000000000E+00,,,,,1.50800000000000E+00,,1.50800000000000E+00,,
NZL,,,,,,,,,,,,,,,,,,,,,,,,,,,,4.60000000000000E+01,,,,,,,,,,,,,4.83400000000000E+01,,2.14600000000000E+01,,,,,,,2.14600000000000E+01,,
OEC,,,,,,,,,,,,,,,,,,,,,,,,,,,,,,,1.31721499833936E+01,,1.41954837782348E+01,,,1.32807495933754E+01,,1.32807837805196E+01,,,1.59478427035278E+01,2.11524463519313E+01,1.64953124408118E+01,,,1.36800000000000E+01,,1.56375275393927E+01,,1.67905916801455E+01,,
OED,,,,,,,,,,,,,,,,,,,,,,,,,,,,,,,1.31721499833936E+01,,1.43157236449668E+01,,,1.32807495933754E+01,,1.32807837805196E+01,,,1.58226417356313E+01,2.11524463519313E+01,1.61336060523956E+01,1.54600000000000E+01,,1.36800000000000E+01,,1.54741842586729E+01,,1.64410635432173E+01,,
OMN,,,,,,,,,,,,,,,,,,,,,,,,,,,,,,,,4.57900000000000E+00,4.57900000000000E+00,,,,,,,,7.35300000000000E+00,,7.35300000000000E+00,1.01400000000000E+01,,,,1.01400000000000E+01,,1.01400000000000E+01,,
PAK,,,,,,,,,,,,,,,,,,,,,,,,,,,,,,,,1.60700000000000E+00,1.60700000000000E+00,,,,,,,,3.70200000000000E+00,,3.70200000000000E+00,,,,,,,5.25900000000000E+00,,
PAN,,,,,,,,,,,,,,,,,,,,,,,,,,,,,,,,,,,,,,,,,4.57600000000000E+01,,4.57600000000000E+01,,,,,,,4.57600000000000E+01,,
PER,,,,,,,,,,,,,,,,,,,,,,,,,,,,,,,,,6.63900000000000E+00,,,,,,,,6.84100000000000E+00,,6.84100000000000E+00,,,,,,,6.84100000000000E+00,,
PHL,,,,,,,,,,,,,,,,,,,,,,,,,,,,,,,,,,,,,,,,,,,,,,,7.41200000000000E+00,7.41200000000000E+00,,7.64500000000000E+00,,
PNG,,,,,,,,,,,,,,,,,,,,,,,,,,,,,,,,,,,,,,,,,5.69300000000000E+01,,5.69300000000000E+01,,,,,5.70000000000000E+01,,5.70000000000000E+01,,
POL,,,,,,,,,,,,,,,,,,,,,,,,,,,,,,,,,,,,,,,,,3.14900000000000E+01,,3.22000000000000E+01,,,,,2.90000000000000E+01,,3.06600000000000E+01,,
PRI,,,,,,,,,,,,,,,,,,,,,,,,,,,,,,,7.16500000000000E+01,,7.16500000000000E+01,,,7.75300000000000E+01,,7.75300000000000E+01,,,8.29700000000000E+01,,8.29700000000000E+01,,,9.08800000000000E+01,,9.08800000000000E+01,,9.08800000000000E+01,,
PRK,,,,,,,,,,,,,,,,,,,,,,,,,,,,,,,,,,,,,,,,,1.24200000000000E+01,,,,,,,1.04300000000000E+01,,1.04300000000000E+01,,
PRT,,,,,,,,,,,,,,,,,,,,,,,,,,,,,,,,,,,,,,,,,1.20700000000000E+01,,7.62100000000000E+00,,,,,,,7.62100000000000E+00,,
PRY,,,,,,,,,,,,,,,,,,,,,,,,,,,,1.50000000000000E+01,,,,,,,,,,,,,2.04100000000000E+01,,2.04100000000000E+01,,,,,,,2.04100000000000E+01,,
QAT,,,,,,,,,,,,,,,,,,,,,,,,,,,,,,,,,,,2.31300000000000E+01,,,2.31300000000000E+01,,,2.38200000000000E+01,,2.38200000000000E+01,,,3.91900000000000E+01,,3.91900000000000E+01,,3.91900000000000E+01,,
ROM,,,,,,,,,,,,,,,,,,,,,,,,,,,,1.30200000000000E+01,,,1.10200000000000E+01,,1.10200000000000E+01,,,,,1.64500000000000E+01,,,,,2.07400000000000E+01,1.83900000000000E+01,,,,2.00500000000000E+01,,2.18900000000000E+01,,
RUS,,,,,,,,,,,,,,,,,,,,,,,,,,,,,,,,,,,1.85500000000000E+01,,,1.85500000000000E+01,,,,2.02400000000000E+01,2.02400000000000E+01,,,,,,,2.02400000000000E+01,,
RWA,,,,,,,,,,,,,,,,,,,,,,,,,,,,,,,,,,,,,,,,,2.40000000000000E+01,,2.40000000000000E+01,,,,,,,2.40000000000000E+01,,
SAS,,,,,,,,,,,,,,,,,,,,,,,,,,,,3.55739395400385E+00,,,4.94243259986386E+00,1.60700000000000E+00,4.16242434498752E+00,,,,,,,,5.93887695220637E+00,,5.94036214537831E+00,,,6.21600000000000E+00,,4.18947073052733E+00,,6.85612411573326E+00,,
SAU,,,,,,,,,,,,,,,,,,,,,,,,,,,,,,,,,8.91300000000000E+00,,,,,,,,,,,,,,8.99900000000000E+00,8.99900000000000E+00,,8.99900000000000E+00,,
SDN,,,,,,,,,,,,,,,,,,,,,,,,,,,,,,,4.00000000000000E+00,,4.00000000000000E+00,,,4.49400000000000E+00,,4.49400000000000E+00,,,2.28200000000000E+00,,2.28200000000000E+00,,,,,,,2.28200000000000E+00,,
SEN,,,,,,,,,,,,,,,,,,,,,,,,,,,,5.00000000000000E+00,,,,,,,,,,,,,,,4.41200000000000E+00,,,,,,,4.41200000000000E+00,,
SLE,,,,,,,,,,,,,,,,,,,,,,,,,,,,7.02700000000000E+00,,,,,,,,,,,,,1.93600000000000E+01,,1.93600000000000E+01,,,,,,,1.93600000000000E+01,,
SLV,,,,,,,,,,,,,,,,,,,,,,,,,,,,,,,,,3.37400000000000E+01,,,,,,,,2.75400000000000E+01,,2.75400000000000E+01,,,,,,,2.75400000000000E+01,,
SOM,,,,,,,,,,,,,,,,,,,,,,,,,,,,2.96300000000000E+00,,,,,,,,,,,,,3.04000000000000E-01,,3.04000000000000E-01,4.54800000000000E-01,,,,4.54800000000000E-01,,4.54800000000000E-01,,
SRB,,,,,,,,,,,,,,,,,,,,,,,,,,,,,,,,,,,,,,,,,,,,,,,,1.75000000000000E+01,,1.65700000000000E+01,,
SSA,,,,,,,,,,,,,,,,,,,,,,,,,,,,,1.60000000000000E+01,8.31900000000000E+01,1.06663983589874E+01,3.04953675084810E+01,1.18192277256111E+01,,1.36053639648942E+01,1.29868988776801E+01,1.31400000000000E+01,1.30608582352349E+01,,4.80000000000000E+01,1.22066937153154E+01,2.82624211576846E+01,1.19493736465707E+01,1.03417032258064E+01,5.32600000000000E+00,6.56900000000000E+01,,1.00478555557066E+01,,1.21348290435169E+01,,
SSF,,,,,,,,,,,,,,,,,,,,,,,,,,,,,1.60000000000000E+01,8.31900000000000E+01,1.06663983589874E+01,3.04953675084810E+01,1.18192277256111E+01,,1.36053639648942E+01,1.29868988776801E+01,1.31400000000000E+01,1.30608582352349E+01,,4.80000000000000E+01,1.22180277429939E+01,2.82624211576846E+01,1.19590671055461E+01,1.03417032258064E+01,5.32600000000000E+00,6.56900000000000E+01,,1.00478555557066E+01,,1.21442125344099E+01,,
SUR,,,,,,,,,,,,,,,,,,,,,,,,,,,,6.08700000000000E+00,,,,,,,,,,,,,4.47800000000000E+00,,4.47800000000000E+00,,,,,,,4.47800000000000E+00,,
SVK,,,,,,,,,,,,,,,,,,,,,,,,,,,,,,,,,,,,,,,,,,,3.62100000000000E+01,,,,,4.65100000000000E+01,,4.65100000000000E+01,,
SVN,,,,,,,,,,,,,,,,,,,,,,,,,,,,,,,,,,,,,,,,,,,,,,,,1.76000000000000E+01,,1.75200000000000E+01,,
SWE,,,,,,,,,,,,,,,,,,,,,,,,,,,,,,3.60000000000000E+01,,,3.73700000000000E+01,,,,,,,,3.61700000000000E+01,,3.76500000000000E+01,,,,,3.72300000000000E+01,,3.72300000000000E+01,,
SWZ,,,,,,,,,,,,,,,,,,,,,,,,,,,,,,,,,,,,,,,,,2.30300000000000E+00,,2.30300000000000E+00,,,,,,,2.30300000000000E+00,,
SYC,,,,,,,,,,,,,,,,,,,,,,,,,,,,,,8.31900000000000E+01,,,8.31900000000000E+01,,,,,,,,,,,,,6.56900000000000E+01,,6.56900000000000E+01,,6.56900000000000E+01,,
SYR,,,,,,,,,,,,,,,,,,,,,,,,,,,,,,,,,,,,,,8.10100000000000E+00,,,,,8.43500000000000E+00,,,8.80100000000000E+00,,8.80100000000000E+00,,8.80100000000000E+00,,
TCD,,,,,,,,,,,,,,,,,,,,,,,,,,,,1.60200000000000E+01,,,,,,,,,,,,,2.41100000000000E+01,,2.41100000000000E+01,,,,,,,2.41100000000000E+01,,
TGO,,,,,,,,,,,,,,,,,,,,,,,,,,,,6.15400000000000E+01,,,,,,,,,,,,,,,5.26600000000000E+01,,,,,,,5.26600000000000E+01,,
THA,,,,,,,,,,,,,,,,,,,,,,,,,,,,,,,,,,,,,,,,,,,,,,,,4.77900000000000E+00,,4.77900000000000E+00,,
TJK,,,,,,,,,,,,,,,,,,,,,,,,,,,,,,,,,,,3.47100000000000E+00,,,3.47100000000000E+00,,,3.67900000000000E+00,,3.67900000000000E+00,,,,,,,3.67900000000000E+00,,
TKM,,,,,,,,,,,,,,,,,,,,,,,,,,,,,,,,,,,1.46800000000000E+00,,,1.46800000000000E+00,,,2.39700000000000E+00,,2.39700000000000E+00,,,,,,,2.39700000000000E+00,,
TMP,,,,,,,,,,,,,,,,,,,,,,,,,,,,,,,,,,,,,,,,,,,,,8.44700000000000E+00,,,8.44700000000000E+00,,8.44700000000000E+00,,
TTO,,,,,,,,,,,,,,,,,,,,,,,,,,,,,,,,,,,,,,6.83500000000000E+01,,,6.61500000000000E+01,,6.61500000000000E+01,,,,,,,6.61500000000000E+01,,
TUN,,,,,,,,,,,,,,,,,,,,,,,,,,,,,,,8.48800000000000E+00,,8.48800000000000E+00,,,1.09600000000000E+01,,1.09600000000000E+01,,,,1.28100000000000E+01,1.28100000000000E+01,,,,,,,1.28100000000000E+01,,
TUR,,,,,,,,,,,,,,,,,,,,,,,,,,,,,,,,,1.64600000000000E+01,,,,,,,,1.52400000000000E+01,,1.52400000000000E+01,1.54600000000000E+01,,,,1.54600000000000E+01,,1.54600000000000E+01,,
TZA,,,,,,,,,,,,,,,,,,,,,,,,,,,,,,,,,,,,,,,,,,,1.01700000000000E+01,,,,,,,1.01700000000000E+01,,
UGA,,,,,,,,,,,,,,,,,,,,,,,,,,,,,,,,,,,,,,,,,,,4.59300000000000E+01,,,,,,,4.59300000000000E+01,,
UKR,,,,,,,,,,,,,,,,,,,,,,,,,,,,,,,,,,,,,,,,,1.24800000000000E+01,,1.24800000000000E+01,,,,,,,1.24800000000000E+01,,
UMC,,,,,,,,,,,,,,,,,,,,,,,,,,,,6.51574893240664E+00,,8.31900000000000E+01,7.54925854275227E+00,2.85100000000000E+01,8.01733333452224E+00,4.80720365495312E+00,1.76123155082556E+01,1.06090595479807E+01,2.07635064244572E+01,8.61251936227718E+00,,,1.88392837456528E+01,1.16645929099972E+01,1.56693296468787E+01,1.62021813455963E+01,6.64500000000000E+00,1.20905119787158E+01,2.79500000000000E+01,1.27835213960372E+01,,1.41269712006741E+01,,
URY,,,,,,,,,,,,,,,,,,,,,,,,,,,,,,,,,,,,,,,,,2.54000000000000E+00,,1.12000000000000E+01,,,,,,,1.12000000000000E+01,,
USA,,,,,,,,,,,,,,,,,,,,,,,,,,,,,,,1.31200000000000E+01,,1.31200000000000E+01,,,1.33100000000000E+01,,1.33100000000000E+01,,,1.35100000000000E+01,,1.35100000000000E+01,,,1.36800000000000E+01,,1.36800000000000E+01,,1.36800000000000E+01,,
UZB,,,,,,,,,,,,,,,,,,,,,,,,,,,,,,,,,,,4.44800000000000E+00,,,4.44800000000000E+00,,,6.13300000000000E+00,,6.13300000000000E+00,,,,,,,6.13300000000000E+00,,
VEN,,,,,,,,,,,,,,,,,,,,,,,,,,,,,,,,,,,,,,,,,4.86700000000000E+01,,4.86700000000000E+01,,,,,,,4.86700000000000E+01,,
VIR,,,,,,,,,,,,,,,,,,,,,,,,,,,,,,,,,9.33800000000000E+01,,,,,,,,6.55800000000000E+01,,,,,,,,,,,
VNM,,,,,,,,,,,,,,,,,,,,,,,,,,,,3.86600000000000E+00,,,,,,,,,,,,,,,,,,1.47000000000000E+00,,1.47000000000000E+00,,1.47000000000000E+00,,
WBG,,,,,,,,,,,,,,,,,,,,,,,,,,,,,,,,,,,,,,,,,,6.16100000000000E+01,6.16100000000000E+01,,,4.78500000000000E+01,,4.78500000000000E+01,,4.78500000000000E+01,,
WLD,,,,,,,,,,,,,,,,,,,,,,,,,,,,5.21376024901269E+00,1.60000000000000E+01,8.31900000000000E+01,8.15619236728414E+00,1.70008508226196E+00,8.32609121196347E+00,4.82688784490701E+00,1.02214185436245E+01,1.21102049564865E+01,2.07399355123675E+01,9.61918272372978E+00,,4.80000000000000E+01,1.13550881526705E+01,1.44617620986220E+01,1.17951666596057E+01,1.54793391186970E+01,6.63680570440426E+00,1.19908355468828E+01,1.52210313872471E+01,1.29046874694300E+01,,1.16583449794826E+01,,
YEM,,,,,,,,,,,,,,,,,,,,,,,,,,,,,,,6.85500000000000E+00,,6.85500000000000E+00,,,,,,,,8.00000000000000E+00,,8.00000000000000E+00,,,,,7.43300000000000E+00,,7.43300000000000E+00,,
ZAF,,,,,,,,,,,,,,,,,,,,,,,,,,,,,,,1.71400000000000E+01,,1.71400000000000E+01,,,2.39700000000000E+01,,2.39700000000000E+01,,,3.12300000000000E+01,,3.12300000000000E+01,,,,,,,3.12300000000000E+01,,
ZAR,,,,,,,,,,,,,,,,,,,,,,,,,,,,,,,,,,,,,,,,,6.25700000000000E+01,,6.25700000000000E+01,,,,,,,6.25700000000000E+01,,
ZMB,,,,,,,,,,,,,,,,,,,,,,,,,,,,,,,,,1.72300000000000E+01,,1.58300000000000E+01,,,1.58300000000000E+01,,,1.66700000000000E+01,,1.66700000000000E+01,,,,,,,1.66700000000000E+01,,
ZWE,,,,,,,,,,,,,,,,,,,,,,,,,,,,1.40200000000000E+01,,,,,,,,,,,,,,,1.40100000000000E+01,,,,,,,1.40100000000000E+01,,
