"Country Code",1960,1961,1962,1963,1964,1965,1966,1967,1968,1969,1970,1971,1972,1973,1974,1975,1976,1977,1978,1979,1980,1981,1982,1983,1984,1985,1986,1987,1988,1989,1990,1991,1992,1993,1994,1995,1996,1997,1998,1999,2000,2001,2002,2003,2004,2005,2006,2007,2008,2009,2010,2011AFG,,,,,,,,,,,,,,,,,,,,,,,,,,,,,,,,,,,,,,,,,,,,,1.36425600000000E-01,,7.57844900000000E+00,7.10280400000000E+00,6.57652100000000E+00,,,
AGO,,,,,,,,,,,,,,,,,,,,,,,,,,,,,,,,,,,,,,,,,,,2.16246300000000E+01,,,2.40077400000000E+01,2.40077400000000E+01,,4.66906500000000E+01,4.60694300000000E+01,,
ALB,,,,,,,,,,,,,,,,,,,,,,,,,,,,,,,,,,,,,,4.02205500000000E+01,,,,4.08723800000000E+01,0.00000000000000E+00,,,0.00000000000000E+00,,0.00000000000000E+00,1.74365000000000E+01,0.00000000000000E+00,,
ARE,,,,,,,,,,,,,,,,,,,,,,,,,,,,,,,,,,,,,,,,,,,,2.22094700000000E+00,,1.07500000000000E+00,1.07408700000000E+00,1.09184300000000E+00,1.09645400000000E+00,1.78173700000000E+00,,
ARG,,,,,,,,,,,,,,,,,,,,,,,,,,,,,,,,,1.10059500000000E+01,1.01983000000000E-01,,2.10371700000000E+01,2.17612200000000E+01,2.09979000000000E+01,3.35144500000000E+01,2.99755400000000E+01,3.20198000000000E+01,3.00853800000000E+01,3.34811500000000E+01,1.97614800000000E+01,2.51763900000000E+01,1.52606900000000E+01,1.57866700000000E+01,1.55235400000000E+01,1.55797500000000E+01,1.51905400000000E+01,1.48077100000000E+01,
ARM,,,,,,,,,,,,,,,,,,,,,,,,,,,,,,,,,,,,,,,,,,0.00000000000000E+00,,,,,7.56972100000000E-01,,1.71585500000000E-01,,,
ATG,,,,,,,,,,,,,,,,,,,,,,,,,,,,,,,,,,,,,6.31318600000000E+01,,,5.71835300000000E+01,5.61552200000000E+01,5.03237300000000E+01,5.01000200000000E+01,5.12536400000000E+01,,,4.31732900000000E+01,4.86451100000000E+01,5.07631500000000E+01,5.59724800000000E+01,,
AUS,,,,,,,,,,,,,,,,,,,,,,,,,,,,,,,,1.07666200000000E+01,,5.11234800000000E+00,,,5.21466400000000E+00,5.47230700000000E+00,5.28625800000000E+00,4.99415900000000E+00,5.38780900000000E+00,5.43940200000000E-01,3.28947400000000E-01,3.20982500000000E-01,2.91243300000000E-01,3.54015300000000E-01,3.18261000000000E-01,3.99822300000000E-01,7.77432300000000E-01,6.76905200000000E-01,0.00000000000000E+00,
AUT,,,,,,,,,,,,,,,,,,,,,,,,,,,,,1.51353300000000E+01,1.57146200000000E+01,2.06945500000000E+01,2.09883200000000E+01,2.06000300000000E+01,1.70933100000000E+01,1.76277700000000E+01,2.57189200000000E+01,3.07603300000000E+01,2.77536700000000E+01,2.13396100000000E+01,1.26115100000000E+01,1.61899500000000E+01,1.95992900000000E+01,1.90845900000000E+01,2.00018400000000E+01,1.72235600000000E+01,1.48558900000000E+01,1.88949800000000E+01,2.01674400000000E+01,1.79187100000000E+01,1.57273900000000E+01,6.29908000000000E+00,
AZE,,,,,,,,,,,,,,,,,,,,,,,,,,,,,,,,,,,,,,,,,,,1.58832100000000E+01,,,4.05877000000000E-02,,6.83794200000000E+01,6.64121600000000E+01,6.24732800000000E+01,,
BDI,,,,,,,,,,,,,,,,,,,,,,,,,,,,,,,,,,,,,,,,,,,5.52109200000000E+01,,,7.91344700000000E+01,4.51851800000000E+01,3.60389600000000E+01,3.57973400000000E+01,3.69444400000000E+01,4.17227400000000E+01,
BEL,,,,,,,,,,,,,,,,,,,,,,,,,,,,,1.51353300000000E+01,1.57146200000000E+01,2.06945500000000E+01,2.09883200000000E+01,2.06000300000000E+01,1.70933100000000E+01,1.76277700000000E+01,2.57189200000000E+01,3.07603300000000E+01,2.77536700000000E+01,2.13396100000000E+01,1.26115100000000E+01,1.61899500000000E+01,1.95992900000000E+01,1.90845900000000E+01,2.00018400000000E+01,1.72235600000000E+01,1.48558900000000E+01,1.88949800000000E+01,2.01674400000000E+01,1.79187100000000E+01,1.57273900000000E+01,6.29908000000000E+00,
BEN,,,,,,,,,,,,,,,,,,,,,,,,,,,,,,,,,,,,,,,,,,4.73849400000000E+01,4.69181300000000E+01,5.61737400000000E+01,5.54409500000000E+01,5.70538300000000E+01,4.73112100000000E+01,5.35989700000000E+01,5.27595300000000E+01,5.42316200000000E+01,5.64838600000000E+01,
BFA,,,,,,,,,,,,,,,,,,,,,,,,,,,,,,,,,,8.12935300000000E+01,,,,,,,,3.85416700000000E+01,3.98533000000000E+01,5.06696400000000E+01,4.57286400000000E+01,4.56913800000000E+01,3.31041300000000E+01,4.15730300000000E+01,3.31668300000000E+01,3.61381800000000E+01,3.46213800000000E+01,
BGD,,,,,,,,,,,,,,,,,,,,,,,,,,,,,,9.42215100000000E+01,,,,,9.88106400000000E+01,,,,,6.29451600000000E+01,6.29451600000000E+01,,6.36289900000000E+01,6.29748400000000E+01,6.15409500000000E+01,4.81336900000000E+01,4.81167300000000E+01,4.77861000000000E+01,4.78480300000000E+01,,,
BGR,,,,,,,,,,,,,,,,,,,,,,,,,,,,,1.51353300000000E+01,1.57146200000000E+01,2.06945500000000E+01,2.09883200000000E+01,2.06000300000000E+01,1.70933100000000E+01,1.76277700000000E+01,2.57189200000000E+01,3.07603300000000E+01,2.77536700000000E+01,2.13396100000000E+01,1.26115100000000E+01,1.61899500000000E+01,1.95992900000000E+01,1.90845900000000E+01,2.00018400000000E+01,1.72235600000000E+01,1.48558900000000E+01,1.88949800000000E+01,2.01674400000000E+01,1.79187100000000E+01,1.57273900000000E+01,6.29908000000000E+00,
BHR,,,,,,,,,,,,,,,,,,,,,,,,,,,,,,,,,,,,,,,,2.66833800000000E+00,,2.70905000000000E+00,,,,1.03660500000000E+00,9.67501900000000E-01,1.08833200000000E+00,1.36986300000000E+00,1.76205900000000E+00,,
BHS,,,,,,,,,,,,,,,,,,,,,,,,,,,,,,,,,,,,,,,,7.41935500000000E+01,,,6.67719000000000E+01,,,,6.54644800000000E+01,,,,4.90313900000000E+01,
BIH,,,,,,,,,,,,,,,,,,,,,,,,,,,,,,,,,,,,,,,,,,0.00000000000000E+00,,,,,0.00000000000000E+00,2.99891900000000E+00,3.05426700000000E+00,1.72020100000000E+01,0.00000000000000E+00,
BLR,,,,,,,,,,,,,,,,,,,,,,,,,,,,,,,,,,,,,1.58775500000000E+01,1.59551800000000E+01,,,,,1.55655600000000E+01,,,,,,2.35355000000000E+01,2.35636800000000E+01,6.90103700000000E+00,
BLZ,,,,,,,,,,,,,,,,,,,,,,,,,,,,,,,,,,,,,4.58298900000000E+01,,,4.81267300000000E+01,,4.83493100000000E+01,5.54437000000000E+01,5.42924300000000E+01,,,4.47073900000000E+01,4.90240700000000E+01,4.90240700000000E+01,3.98914500000000E+01,3.97447200000000E+01,
BMU,,,,,,,,,,,,,,,,,,,,,,,,,,,,,,,,,,,,,,,,,,2.73657300000000E+01,,,,2.01388900000000E+01,,2.96748000000000E+01,2.57462700000000E+01,2.57169300000000E+01,1.92804400000000E+01,
BOL,,,,,,,,,,,,,,,,,,,,,,,,,,,,,,,,,,0.00000000000000E+00,0.00000000000000E+00,0.00000000000000E+00,0.00000000000000E+00,0.00000000000000E+00,0.00000000000000E+00,0.00000000000000E+00,0.00000000000000E+00,0.00000000000000E+00,3.23813800000000E+00,,0.00000000000000E+00,0.00000000000000E+00,0.00000000000000E+00,0.00000000000000E+00,0.00000000000000E+00,1.81594400000000E+01,1.39966000000000E+01,
BRA,,,,,,,,,,,,,,,,,,,,,,,,,,,,,,8.29633500000000E+01,6.61482200000000E+01,5.28144000000000E+01,4.70763300000000E+01,3.27271500000000E+01,2.77226100000000E+01,2.45771800000000E+01,2.07491100000000E+01,1.95720900000000E+01,2.94752300000000E+01,1.11238000000000E+01,2.61962300000000E+01,2.73829800000000E+01,2.78657300000000E+01,2.68902700000000E+01,2.19415100000000E+01,1.37809800000000E+01,1.32443900000000E+01,1.36359700000000E+01,1.35135100000000E+01,1.32722900000000E+01,1.34067800000000E+01,
BRB,,,,,,,,,,,,,,,,,,,,,,,,,,,,,,,,,,,,,5.67713000000000E+01,,,5.20013000000000E+01,5.15346300000000E+01,6.53846100000000E+01,6.42772400000000E+01,6.45971900000000E+01,,,5.01055100000000E+01,5.36260000000000E+01,,,,
BRN,,,,,,,,,,,,,,,,,,,,,,,,,,,,,,,,,1.44852600000000E+00,,,,,,,,,7.88415100000000E-01,6.91874500000000E-01,7.70944000000000E-01,1.15420100000000E+00,1.48657600000000E+00,1.48657600000000E+00,7.70755400000000E-01,6.09632200000000E-01,,1.15500100000000E+00,
BTN,,,,,,,,,,,,,,,,,,,,,,,,,,,,,,,,,,,,,3.98625400000000E+01,,,,,,5.90909100000000E+01,,9.26966300000000E+01,9.29577500000000E+01,,9.48979600000000E+01,,,,
BWA,,,,,,,,,,,,,,,,,,,,,,,,,,,,,,,,,,,,,,,,,,1.13954400000000E+01,,,1.52447500000000E+01,9.80392200000000E+00,9.80392200000000E+00,1.18811900000000E+01,1.05468800000000E+01,1.67307700000000E+01,1.95035500000000E+01,
CAF,,,,,,,,,,,,,,,,,,,,,,,,,,,,,,,,,,,,6.43415900000000E+01,,5.99393000000000E+01,,,,6.65185200000000E+01,6.21329200000000E+01,,,6.59171600000000E+01,,4.52500000000000E+01,,,,
CAN,,,,,,,,,,,,,,,,,,,,,,,,,,,,,,5.57377100000000E+00,,,,5.12005900000000E+00,,8.10483000000000E+00,9.39762300000000E+00,7.22379600000000E+00,7.05721400000000E+00,6.24669600000000E+00,6.33758400000000E+00,5.65354400000000E+00,5.91262500000000E+00,1.58824200000000E+01,5.88413000000000E+00,6.13341800000000E+00,6.14830900000000E+00,5.81088400000000E+00,5.75958900000000E+00,5.89286800000000E+00,6.19609300000000E-01,
CHE,,,,,,,,,,,,,,,,,,,,,,,,,,,,,,,3.78417200000000E+01,,,4.05690200000000E+01,,4.58638500000000E+01,3.31000100000000E+01,2.96553700000000E+01,2.77840100000000E+01,2.97267700000000E+01,2.92600000000000E+01,2.96049700000000E+01,2.85034800000000E+01,2.94423500000000E+01,2.73043300000000E+01,2.90088200000000E+01,2.61408000000000E+01,3.25166200000000E+01,3.06446600000000E+01,2.24142200000000E+01,0.00000000000000E+00,
CHL,,,,,,,,,,,,,,,,,,,,,,,,,,,,,,,,,0.00000000000000E+00,0.00000000000000E+00,0.00000000000000E+00,0.00000000000000E+00,,0.00000000000000E+00,0.00000000000000E+00,0.00000000000000E+00,0.00000000000000E+00,0.00000000000000E+00,0.00000000000000E+00,,0.00000000000000E+00,0.00000000000000E+00,0.00000000000000E+00,0.00000000000000E+00,0.00000000000000E+00,0.00000000000000E+00,7.86349000000000E-02,
CHN,,,,,,,,,,,,,,,,,,,,,,,,,,,,,,,,,6.59094400000000E+01,6.32072800000000E+01,6.36306600000000E+01,,4.44985600000000E+01,3.45699300000000E+01,3.32684400000000E+01,3.57026000000000E+01,3.72766600000000E+01,3.66364600000000E+01,,2.33827300000000E+01,1.71441000000000E+01,1.43357200000000E+01,1.48939500000000E+01,1.89596500000000E+01,1.87206600000000E+01,1.84669900000000E+01,1.41602800000000E+01,
CIV,,,,,,,,,,,,,,,,,,,,,,,,,,,,,,,,,,7.80160000000000E+01,,,5.51522900000000E+01,,,,,5.06199300000000E+01,5.06199300000000E+01,5.77314100000000E+01,5.84849500000000E+01,5.93629700000000E+01,5.56754900000000E+01,6.35873900000000E+01,5.64526500000000E+01,5.64526500000000E+01,5.61655300000000E+01,
CMR,,,,,,,,,,,,,,,,,,,,,,,,,,,,,,,,,,,5.72683700000000E+01,5.75613600000000E+01,,,,,,5.90490800000000E+01,5.87286800000000E+01,,,6.58823500000000E+01,,6.67731600000000E+01,,5.57258400000000E+01,,
COG,,,,,,,,,,,,,,,,,,,,,,,,,,,,,,,,,,,6.97526900000000E+01,,,4.10312300000000E+01,,,,6.34724300000000E+01,6.59296000000000E+01,,,6.97226500000000E+01,,6.35169300000000E+01,,,,
COL,,,,,,,,,,,,,,,,,,,,,,,,,,,,,,,,8.03212800000000E+00,2.08297300000000E+01,,2.44780300000000E+01,2.60833300000000E+01,2.88369900000000E+01,2.85342700000000E+01,,3.06691100000000E+01,2.94318200000000E+01,2.87323500000000E+01,3.04723000000000E+01,,2.58172900000000E+01,2.66998600000000E+01,2.33895200000000E+01,3.55701300000000E+01,3.55858600000000E+01,3.60089800000000E+01,2.46092400000000E+01,
COM,,,,,,,,,,,,,,,,,,,,,,,,,,,,,,,,,,,,,,,,,,,,,,,,,1.67647100000000E+01,,6.20052800000000E+00,
CPV,,,,,,,,,,,,,,,,,,,,,,,,,,,,,,,,,,,,,,,,,,,,,,4.02357900000000E+01,,4.55718500000000E+01,4.50248800000000E+01,4.62753900000000E+01,4.65293500000000E+01,
CRI,,,,,,,,,,,,,,,,,,,,,,,,,,,,,,,,,,,,3.51433900000000E+01,,,,3.49350000000000E+01,3.42366300000000E+00,3.77512900000000E+00,4.49508300000000E+00,,3.62363900000000E+00,4.84161700000000E+00,,3.47196700000000E+00,,5.20518600000000E+00,,
CUB,,,,,,,,,,,,,,,,,,,,,,,,,,,,,,,,,,2.04398000000000E+01,,,,1.35468000000000E+01,,,,,1.66956500000000E+01,2.44075200000000E+01,2.16886100000000E+01,2.01794900000000E+01,2.30242700000000E+01,3.45974000000000E+01,3.66832600000000E+01,3.38107800000000E+01,2.48091600000000E+01,
CYP,,,,,,,,,,,,,,,,,,,,,,,,,,,,,1.51353300000000E+01,1.57146200000000E+01,2.06945500000000E+01,2.09883200000000E+01,2.06000300000000E+01,1.70933100000000E+01,1.76277700000000E+01,2.57189200000000E+01,3.07603300000000E+01,2.77536700000000E+01,2.13396100000000E+01,1.26115100000000E+01,1.61899500000000E+01,1.95992900000000E+01,1.90845900000000E+01,2.00018400000000E+01,1.72235600000000E+01,1.48558900000000E+01,1.88949800000000E+01,2.01674400000000E+01,1.79187100000000E+01,1.57273900000000E+01,6.29908000000000E+00,
CZE,,,,,,,,,,,,,,,,,,,,,,,,,,,,,1.51353300000000E+01,1.57146200000000E+01,2.06945500000000E+01,2.09883200000000E+01,2.06000300000000E+01,1.70933100000000E+01,1.76277700000000E+01,2.57189200000000E+01,3.07603300000000E+01,2.77536700000000E+01,2.13396100000000E+01,1.26115100000000E+01,1.61899500000000E+01,1.95992900000000E+01,1.90845900000000E+01,2.00018400000000E+01,1.72235600000000E+01,1.48558900000000E+01,1.88949800000000E+01,2.01674400000000E+01,1.79187100000000E+01,1.57273900000000E+01,6.29908000000000E+00,
DEU,,,,,,,,,,,,,,,,,,,,,,,,,,,,,1.51353300000000E+01,1.57146200000000E+01,2.06945500000000E+01,2.09883200000000E+01,2.06000300000000E+01,1.70933100000000E+01,1.76277700000000E+01,2.57189200000000E+01,3.07603300000000E+01,2.77536700000000E+01,2.13396100000000E+01,1.26115100000000E+01,1.61899500000000E+01,1.95992900000000E+01,1.90845900000000E+01,2.00018400000000E+01,1.72235600000000E+01,1.48558900000000E+01,1.88949800000000E+01,2.01674400000000E+01,1.79187100000000E+01,1.57273900000000E+01,6.29908000000000E+00,
DJI,,,,,,,,,,,,,,,,,,,,,,,,,,,,,,,,,,,,,,,,,,,8.08736700000000E+01,,,,8.21505400000000E+01,,,4.76704600000000E+01,,
DMA,,,,,,,,,,,,,,,,,,,,,,,,,,,,,,,,,,,,,5.86486500000000E+01,,,5.48217600000000E+01,2.46734400000000E+01,5.44112200000000E+01,5.67964700000000E+01,5.69815600000000E+01,,,4.70786500000000E+01,5.13005300000000E+01,,,,
DNK,,,,,,,,,,,,,,,,,,,,,,,,,,,,,1.51353300000000E+01,1.57146200000000E+01,2.06945500000000E+01,2.09883200000000E+01,2.06000300000000E+01,1.70933100000000E+01,1.76277700000000E+01,2.57189200000000E+01,3.07603300000000E+01,2.77536700000000E+01,2.13396100000000E+01,1.26115100000000E+01,1.61899500000000E+01,1.95992900000000E+01,1.90845900000000E+01,2.00018400000000E+01,1.72235600000000E+01,1.48558900000000E+01,1.88949800000000E+01,2.01674400000000E+01,1.79187100000000E+01,1.57273900000000E+01,6.29908000000000E+00,
DOM,,,,,,,,,,,,,,,,,,,,,,,,,,,,,,,,,,,,,,4.82413300000000E+01,,,6.87149500000000E+01,5.19829200000000E+01,5.22596100000000E+01,5.24387800000000E+01,5.24885100000000E+01,4.74590000000000E+01,4.72404600000000E+01,4.54031700000000E+01,4.28511900000000E+01,,4.70898900000000E+01,
DZA,,,,,,,,,,,,,,,,,,,,,,,,,,,,,,,,,,2.93026200000000E+01,,,,3.83188300000000E+01,3.56263700000000E+01,,,4.27614200000000E+01,4.23244800000000E+01,4.08903800000000E+01,,4.00491000000000E+01,4.03873600000000E+01,3.96475000000000E+01,5.90976600000000E+01,4.98783800000000E+01,,
EAP,,,,,,,,,,,,,,,,,,,,,,,,,,,,,,,,,,,,,,,,3.20090900000000E+01,2.61973700000000E+01,1.66787700000000E+01,1.03394600000000E+01,1.72536700000000E+01,1.74073900000000E+01,1.28238700000000E+01,1.62450800000000E+01,2.10466400000000E+01,1.68924700000000E+01,1.54939700000000E+01,,
ECA,,,,,,,,,,,,,,,,,,,,,,,,,,,,,,,,,,,,,,,,4.63365700000000E+01,1.00120100000000E+00,2.51148900000000E+01,1.18318400000000E+01,2.73420700000000E+01,3.24247300000000E+01,2.59577800000000E+01,1.83659200000000E+01,2.38031900000000E+01,2.12347600000000E+01,2.19125700000000E+01,,
ECU,,,,,,,,,,,,,,,,,,,,,,,,,,,,,,,,,,2.54927700000000E+01,2.70553800000000E+01,2.80457500000000E+01,2.83652700000000E+01,2.79019800000000E+01,2.66980900000000E+01,3.83983100000000E+01,,,2.87126800000000E+01,,2.63904000000000E+01,2.75572000000000E+01,2.23692800000000E+01,3.09420100000000E+01,2.71810600000000E+01,2.33301200000000E+01,2.44526100000000E+01,
EGY,,,,,,,,,,,,,,,,,,,,,,,,,,,,,,,,,,,,4.38993400000000E+01,,,5.06943100000000E+01,,,,4.78952900000000E+01,,2.77687100000000E+01,2.51719700000000E+01,,,1.70119000000000E+01,1.81441800000000E+01,,
ERI,,,,,,,,,,,,,,,,,,,,,,,,,,,,,,,,,,,,,,,,,,,2.62850500000000E+01,,,,2.29556100000000E+01,,,,,
ESP,,,,,,,,,,,,,,,,,,,,,,,,,,,,,1.51353300000000E+01,1.57146200000000E+01,2.06945500000000E+01,2.09883200000000E+01,2.06000300000000E+01,1.70933100000000E+01,1.76277700000000E+01,2.57189200000000E+01,3.07603300000000E+01,2.77536700000000E+01,2.13396100000000E+01,1.26115100000000E+01,1.61899500000000E+01,1.95992900000000E+01,1.90845900000000E+01,2.00018400000000E+01,1.72235600000000E+01,1.48558900000000E+01,1.88949800000000E+01,2.01674400000000E+01,1.79187100000000E+01,1.57273900000000E+01,6.29908000000000E+00,
EST,,,,,,,,,,,,,,,,,,,,,,,,,,,,,1.51353300000000E+01,1.57146200000000E+01,2.06945500000000E+01,2.09883200000000E+01,2.06000300000000E+01,1.70933100000000E+01,1.76277700000000E+01,2.57189200000000E+01,3.07603300000000E+01,2.77536700000000E+01,2.13396100000000E+01,1.26115100000000E+01,1.61899500000000E+01,1.95992900000000E+01,1.90845900000000E+01,2.00018400000000E+01,1.72235600000000E+01,1.48558900000000E+01,1.88949800000000E+01,2.01674400000000E+01,1.79187100000000E+01,1.57273900000000E+01,6.29908000000000E+00,
ETH,,,,,,,,,,,,,,,,,,,,,,,,,,,,,,,,,,,,7.27871900000000E+01,,,,,,6.19070700000000E+01,6.26379100000000E+01,,,,5.14375200000000E+01,,5.97950700000000E+01,5.89588400000000E+01,5.98832800000000E+01,
EUU,,,,,,,,,,,,,,,,,,,,,,,,,,,,,,,,,,,,,,,,1.26115100000000E+01,1.61899500000000E+01,1.95992900000000E+01,1.90845900000000E+01,2.00018400000000E+01,1.72235600000000E+01,1.48558900000000E+01,1.88949800000000E+01,2.01674400000000E+01,1.79187100000000E+01,1.57273900000000E+01,6.29908000000000E+00,
FIN,,,,,,,,,,,,,,,,,,,,,,,,,,,,,1.51353300000000E+01,1.57146200000000E+01,2.06945500000000E+01,2.09883200000000E+01,2.06000300000000E+01,1.70933100000000E+01,1.76277700000000E+01,2.57189200000000E+01,3.07603300000000E+01,2.77536700000000E+01,2.13396100000000E+01,1.26115100000000E+01,1.61899500000000E+01,1.95992900000000E+01,1.90845900000000E+01,2.00018400000000E+01,1.72235600000000E+01,1.48558900000000E+01,1.88949800000000E+01,2.01674400000000E+01,1.79187100000000E+01,1.57273900000000E+01,6.29908000000000E+00,
FJI,,,,,,,,,,,,,,,,,,,,,,,,,,,,,,,,,,,,,,,,,,,,,,,,,4.08999100000000E+01,2.88743900000000E+01,2.12259800000000E+01,
FRA,,,,,,,,,,,,,,,,,,,,,,,,,,,,,1.51353300000000E+01,1.57146200000000E+01,2.06945500000000E+01,2.09883200000000E+01,2.06000300000000E+01,1.70933100000000E+01,1.76277700000000E+01,2.57189200000000E+01,3.07603300000000E+01,2.77536700000000E+01,2.13396100000000E+01,1.26115100000000E+01,1.61899500000000E+01,1.95992900000000E+01,1.90845900000000E+01,2.00018400000000E+01,1.72235600000000E+01,1.48558900000000E+01,1.88949800000000E+01,2.01674400000000E+01,1.79187100000000E+01,1.57273900000000E+01,6.29908000000000E+00,
GAB,,,,,,,,,,,,,,,,,,,,,,,,,,,,,,,,,,,,7.32302900000000E+01,,,7.14004000000000E+01,,,6.83552200000000E+01,6.91676400000000E+01,,,7.21695500000000E+01,,6.02641500000000E+01,5.87192700000000E+01,6.07737500000000E+01,,
GBR,,,,,,,,,,,,,,,,,,,,,,,,,,,,,1.51353300000000E+01,1.57146200000000E+01,2.06945500000000E+01,2.09883200000000E+01,2.06000300000000E+01,1.70933100000000E+01,1.76277700000000E+01,2.57189200000000E+01,3.07603300000000E+01,2.77536700000000E+01,2.13396100000000E+01,1.26115100000000E+01,1.61899500000000E+01,1.95992900000000E+01,1.90845900000000E+01,2.00018400000000E+01,1.72235600000000E+01,1.48558900000000E+01,1.88949800000000E+01,2.01674400000000E+01,1.79187100000000E+01,1.57273900000000E+01,6.29908000000000E+00,
GEO,,,,,,,,,,,,,,,,,,,,,,,,,,,,,,,,,,,,,,,,0.00000000000000E+00,,,1.81858700000000E+01,2.14380200000000E+01,2.23842300000000E+01,,1.81171500000000E+01,0.00000000000000E+00,0.00000000000000E+00,1.02419400000000E+00,0.00000000000000E+00,
GHA,,,,,,,,,,,,,,,,,,,,,,,,,,,,,,,,,,6.56652400000000E+01,,,,,,,7.13540500000000E+01,,,,6.82871700000000E+01,,,6.73272900000000E+01,6.73272900000000E+01,6.72772100000000E+01,,
GIN,,,,,,,,,,,,,,,,,,,,,,,,,,,,,,,,,,,,,,,,,,,,,,6.66191200000000E+01,,,5.85592000000000E+01,6.30878100000000E+01,6.30878100000000E+01,
GMB,,,,,,,,,,,,,,,,,,,,,,,,,,,,,,,,,,,,,,,,,,,,,,,,8.23735600000000E+01,8.14344100000000E+01,8.03938400000000E+01,,
GNB,,,,,,,,,,,,,,,,,,,,,,,,,,,,,,,,,,,,,,,,,,5.10638300000000E+01,5.29629600000000E+01,6.09544500000000E+01,5.94813600000000E+01,5.99241400000000E+01,5.23212100000000E+01,6.48175200000000E+01,5.60050600000000E+01,5.75358800000000E+01,5.17525800000000E+01,
GNQ,,,,,,,,,,,,,,,,,,,,,,,,,,,,,,,,,,,,,,,5.91145800000000E+01,,,6.02711100000000E+01,6.17258900000000E+01,,,6.65105400000000E+01,,6.56126500000000E+01,,,,
GRC,,,,,,,,,,,,,,,,,,,,,,,,,,,,,1.51353300000000E+01,1.57146200000000E+01,2.06945500000000E+01,2.09883200000000E+01,2.06000300000000E+01,1.70933100000000E+01,1.76277700000000E+01,2.57189200000000E+01,3.07603300000000E+01,2.77536700000000E+01,2.13396100000000E+01,1.26115100000000E+01,1.61899500000000E+01,1.95992900000000E+01,1.90845900000000E+01,2.00018400000000E+01,1.72235600000000E+01,1.48558900000000E+01,1.88949800000000E+01,2.01674400000000E+01,1.79187100000000E+01,1.57273900000000E+01,6.29908000000000E+00,
GRD,,,,,,,,,,,,,,,,,,,,,,,,,,,,,,,,,,,,,6.14931200000000E+01,,,5.63466600000000E+01,,5.50752500000000E+01,5.55133100000000E+01,5.42783100000000E+01,,,4.23676900000000E+01,4.65512400000000E+01,4.84865600000000E+01,,3.80626200000000E+01,
GTM,,,,,,,,,,,,,,,,,,,,,,,,,,,,,,,,,,,,3.39491300000000E+01,,3.56415500000000E+01,3.36263300000000E+01,,6.86086600000000E+00,5.88950700000000E+00,5.33854200000000E+00,,3.63160500000000E+00,4.84457000000000E+00,,3.64390500000000E+00,2.21198200000000E+01,2.06495900000000E+01,2.11002900000000E+01,
GUY,,,,,,,,,,,,,,,,,,,,,,,,,,,,,,,,,,,,,5.95326600000000E+01,,,5.20743900000000E+01,5.05927500000000E+01,5.01592400000000E+01,5.22532200000000E+01,5.21005500000000E+01,,,4.58584600000000E+01,,5.11963000000000E+01,,4.92130100000000E+01,
HIC,,,,,,,,,,,,,,,,,,,,,,,,,,,,,,,,,,,,,,,,1.69394000000000E+01,1.65041900000000E+01,1.83817500000000E+01,1.94091700000000E+01,1.92613800000000E+01,1.52215600000000E+01,1.25969500000000E+01,1.53834500000000E+01,1.66207900000000E+01,1.44276900000000E+01,1.38683000000000E+01,,
HKG,,,,,,,,,,,,,,,,,,,,,,,,,,,,,0.00000000000000E+00,,,,,,,,,,0.00000000000000E+00,,,,,,,0.00000000000000E+00,0.00000000000000E+00,0.00000000000000E+00,0.00000000000000E+00,0.00000000000000E+00,0.00000000000000E+00,
HND,,,,,,,,,,,,,,,,,,,,,,,,,,,,,,,,,,,,3.68890300000000E+01,,,,3.72350900000000E+01,3.74636700000000E+01,9.59864600000000E+00,1.07484100000000E+00,,8.60778500000000E-01,1.26853700000000E+00,,2.46913600000000E+00,2.53493000000000E+01,4.11162500000000E+00,,
HRV,,,,,,,,,,,,,,,,,,,,,,,,,,,,,,,,,,,,,,,,,,2.24328100000000E+01,,,1.37858400000000E+01,1.37949900000000E+01,1.36322300000000E+01,1.61645300000000E+01,1.62189000000000E+01,1.88518700000000E+01,1.53498800000000E+01,
HTI,,,,,,,,,,,,,,,,,,,,,,,,,,,,,,,,,,,,,,,,,,,,,,,,1.28980900000000E+01,1.37735900000000E+01,1.43808300000000E+01,,
HUN,,,,,,,,,,,,,,,,,,,,,,,,,,,,,1.51353300000000E+01,1.57146200000000E+01,2.06945500000000E+01,2.09883200000000E+01,2.06000300000000E+01,1.70933100000000E+01,1.76277700000000E+01,2.57189200000000E+01,3.07603300000000E+01,2.77536700000000E+01,2.13396100000000E+01,1.26115100000000E+01,1.61899500000000E+01,1.95992900000000E+01,1.90845900000000E+01,2.00018400000000E+01,1.72235600000000E+01,1.48558900000000E+01,1.88949800000000E+01,2.01674400000000E+01,1.79187100000000E+01,1.57273900000000E+01,6.29908000000000E+00,
IDN,,,,,,,,,,,,,,,,,,,,,,,,,,,,,,4.59650300000000E+01,4.51186100000000E+01,,,4.49914900000000E+01,,3.36293000000000E+01,2.52715600000000E+01,,,2.58067000000000E+01,4.51689900000000E+00,2.60875200000000E+00,4.16964000000000E+00,3.48636000000000E+00,5.35873000000000E+00,5.07917200000000E+00,5.07917200000000E+00,7.33251100000000E+00,,7.01121200000000E+00,2.41464900000000E+00,
IND,,,,,,,,,,,,,,,,,,,,,,,,,,,,,,,8.95827300000000E+01,,7.91146400000000E+01,,,,,7.36585400000000E+01,,7.37761200000000E+01,,8.24266700000000E+01,,,7.88069800000000E+01,5.19230800000000E+01,,,4.97942000000000E+01,4.13534900000000E+01,,
IRL,,,,,,,,,,,,,,,,,,,,,,,,,,,,,1.51353300000000E+01,1.57146200000000E+01,2.06945500000000E+01,2.09883200000000E+01,2.06000300000000E+01,1.70933100000000E+01,1.76277700000000E+01,2.57189200000000E+01,3.07603300000000E+01,2.77536700000000E+01,2.13396100000000E+01,1.26115100000000E+01,1.61899500000000E+01,1.95992900000000E+01,1.90845900000000E+01,2.00018400000000E+01,1.72235600000000E+01,1.48558900000000E+01,1.88949800000000E+01,2.01674400000000E+01,1.79187100000000E+01,1.57273900000000E+01,6.29908000000000E+00,
IRN,,,,,,,,,,,,,,,,,,,,,,,,,,,,,,,,,,,,,,,,,4.04561800000000E+01,,,2.45390700000000E+01,2.66577200000000E+01,,,4.54610900000000E+01,5.03793600000000E+01,,,
ISL,,,,,,,,,,,,,,,,,,,,,,,,,,,,,,,,,,1.43695900000000E+01,,,2.10369400000000E+01,,,,,2.11539700000000E+01,,2.50900600000000E+01,,,1.47323100000000E+01,1.96746200000000E+01,1.78974500000000E+01,1.42178200000000E+01,6.42292100000000E+00,
ISR,,,,,,,,,,,,,,,,,,,,,,,,,,,,,,,,,,1.38726900000000E+01,,,,,,,,,,,1.09809400000000E+01,1.09533000000000E+01,1.36718200000000E+01,1.04432200000000E+01,9.89628600000000E+00,1.80237600000000E+01,,
ITA,,,,,,,,,,,,,,,,,,,,,,,,,,,,,1.51353300000000E+01,1.57146200000000E+01,2.06945500000000E+01,2.09883200000000E+01,2.06000300000000E+01,1.70933100000000E+01,1.76277700000000E+01,2.57189200000000E+01,3.07603300000000E+01,2.77536700000000E+01,2.13396100000000E+01,1.26115100000000E+01,1.61899500000000E+01,1.95992900000000E+01,1.90845900000000E+01,2.00018400000000E+01,1.72235600000000E+01,1.48558900000000E+01,1.88949800000000E+01,2.01674400000000E+01,1.79187100000000E+01,1.57273900000000E+01,6.29908000000000E+00,
JAM,,,,,,,,,,,,,,,,,,,,,,,,,,,,,,,,,,,,,4.93385600000000E+01,,,4.61889000000000E+01,4.58311500000000E+01,4.42662500000000E+01,5.30777500000000E+01,5.31211300000000E+01,,,4.99311000000000E+01,5.24891200000000E+01,,,4.99513900000000E+01,
JOR,,,,,,,,,,,,,,,,,,,,,,,,,,,,,,,,,,,,,,,,,6.28841600000000E+01,4.83340400000000E+01,4.95049500000000E+01,4.97791200000000E+01,,3.90302400000000E+01,3.57042800000000E+01,3.86877800000000E+01,3.69386900000000E+01,3.38795700000000E+01,,
JPN,,,,,,,,,,,,,,,,,,,,,,,,,,,,,1.96300400000000E+01,1.95674200000000E+01,2.04105900000000E+01,2.08973800000000E+01,2.16239900000000E+01,2.09225600000000E+01,2.13245700000000E+01,2.31882600000000E+01,2.63206100000000E+01,2.32621600000000E+01,2.25200200000000E+01,2.36516800000000E+01,2.13776600000000E+01,2.15489800000000E+01,2.21250400000000E+01,2.27493000000000E+01,2.26204600000000E+01,2.25252300000000E+01,2.38267500000000E+01,2.64983700000000E+01,2.62160800000000E+01,2.54340800000000E+01,2.09873000000000E+01,
KAZ,,,,,,,,,,,,,,,,,,,,,,,,,,,,,,,,,,,,,2.38934500000000E+01,,,,,,,,0.00000000000000E+00,,,,2.61944900000000E+01,,2.05038200000000E+01,
KEN,,,,,,,,,,,,,,,,,,,,,,,,,,,,,,,,,,,7.23646700000000E+01,,,,,,3.16923700000000E+01,4.07767000000000E+01,,,3.88418400000000E+01,4.37186900000000E+01,4.25822500000000E+01,4.55220800000000E+01,4.43773400000000E+01,4.45231200000000E+01,4.48725200000000E+01,
KGZ,,,,,,,,,,,,,,,,,,,,,,,,,,,,,,,,,,,,0.00000000000000E+00,,,,,,,4.95269100000000E+00,3.61901600000000E-01,,,2.00140100000000E-01,6.69908100000000E+00,4.98983600000000E+00,5.00649000000000E+00,8.09288600000000E+00,
KHM,,,,,,,,,,,,,,,,,,,,,,,,,,,,,,,,,,,,,,,,,,4.11250000000000E+01,4.15873000000000E+01,3.85042500000000E+01,,2.23797800000000E+01,,3.79161500000000E+01,1.93448700000000E+01,,,
KNA,,,,,,,,,,,,,,,,,,,,,,,,,,,,,,,,,,,,,5.72297300000000E+01,,,5.27815500000000E+01,4.32180900000000E+01,4.69232900000000E+01,4.58904100000000E+01,4.70495700000000E+01,,,3.98879400000000E+01,4.31963700000000E+01,4.40728600000000E+01,4.68312400000000E+01,3.64954700000000E+01,
KOR,,,,,,,,,,,,,,,,,,,,,,,,,,,,,5.68088700000000E+01,1.95826400000000E+01,2.45826900000000E+01,,2.31470600000000E+01,,,2.51713600000000E+01,2.75365100000000E+01,,,2.69625300000000E+01,,,2.88524100000000E+01,,2.85514100000000E+01,,2.90914700000000E+01,2.57180400000000E+01,,3.15276300000000E+01,3.20854600000000E+01,
KWT,,,,,,,,,,,,,,,,,,,,,,,,,,,,,,,,,,,,,,,,,,,8.06451600000000E-01,,,7.13203000000000E-02,7.12885000000000E-02,0.00000000000000E+00,0.00000000000000E+00,1.77812900000000E-01,,
LAC,,,,,,,,,,,,,,,,,,,,,,,,,,,,,,,,,,,,,,,,2.81913300000000E+01,2.70449000000000E+01,2.70588600000000E+01,2.80627900000000E+01,4.19704700000000E+01,1.69662900000000E+01,1.47229400000000E+01,2.14231500000000E+01,2.40140800000000E+01,2.43899800000000E+01,1.66798000000000E+01,,
LAO,,,,,,,,,,,,,,,,,,,,,,,,,,,,,,,,,,,,,,,,,3.12896400000000E+01,3.36755600000000E+01,,,2.81803600000000E+01,2.39018100000000E+01,2.19213400000000E+01,2.14929200000000E+01,3.42870300000000E+01,,,
LBN,,,,,,,,,,,,,,,,,,,,,,,,,,,,,,,,,,,,,,,,2.50904700000000E+01,3.72571300000000E+01,2.50370000000000E+01,2.50992900000000E+01,,2.43555000000000E+01,2.41511000000000E+01,1.90327400000000E+01,1.82429500000000E+01,,,,
LBY,,,,,,,,,,,,,,,,,,,,,,,,,,,,,,,,,,,,,4.41838200000000E+01,,,,,,3.95144400000000E+01,,,,0.00000000000000E+00,,,,,
LCA,,,,,,,,,,,,,,,,,,,,,,,,,,,,,,,,,,,,,5.51724100000000E+01,,,4.91525400000000E+01,4.83668300000000E+01,5.14705900000000E+01,5.38791900000000E+01,5.20984800000000E+01,,5.40104500000000E+01,3.81840500000000E+01,4.29258900000000E+01,,,,
LIC,,,,,,,,,,,,,,,,,,,,,,,,,,,,,,,,,,,,,,,,4.72213600000000E+01,4.27086200000000E+01,3.70165600000000E+01,3.69080900000000E+01,3.79496600000000E+01,4.02096600000000E+01,4.32334000000000E+01,3.19780700000000E+01,3.81940900000000E+01,3.80964400000000E+01,4.36351800000000E+01,,
LKA,,,,,,,,,,,,,,,,,,,,,,,,,,,,,,,4.99452400000000E+01,,,5.06383000000000E+01,5.03950100000000E+01,,,5.30255400000000E+01,,,4.33040100000000E+01,3.87845300000000E+01,,,3.96355700000000E+01,3.82893600000000E+01,3.84604000000000E+01,,,6.09565400000000E+01,3.87232900000000E+01,
LMC,,,,,,,,,,,,,,,,,,,,,,,,,,,,,,,,,,,,,,,,3.67616400000000E+01,3.51107300000000E+01,3.68970900000000E+01,3.34189600000000E+01,4.31989700000000E+01,3.36548600000000E+01,3.26669200000000E+01,2.57576300000000E+01,2.84364300000000E+01,3.06105200000000E+01,2.74951100000000E+01,,
LMY,,,,,,,,,,,,,,,,,,,,,,,,,,,,,,,,,,,,,,,,3.46110400000000E+01,3.50490900000000E+01,2.92999900000000E+01,2.75412200000000E+01,3.44422300000000E+01,3.13324600000000E+01,2.62384000000000E+01,2.47789900000000E+01,2.75821100000000E+01,2.83089800000000E+01,2.57054800000000E+01,,
LSO,,,,,,,,,,,,,,,,,,,,,,,,,,,,,,,,,,,,,,,,,,2.38095200000000E+01,,,2.04545500000000E+01,1.35714300000000E+01,1.35714300000000E+01,1.98198200000000E+01,1.89189200000000E+01,2.61261300000000E+01,2.80219800000000E+01,
LTU,,,,,,,,,,,,,,,,,,,,,,,,,,,,,1.51353300000000E+01,1.57146200000000E+01,2.06945500000000E+01,2.09883200000000E+01,2.06000300000000E+01,1.70933100000000E+01,1.76277700000000E+01,2.57189200000000E+01,3.07603300000000E+01,2.77536700000000E+01,2.13396100000000E+01,1.26115100000000E+01,1.61899500000000E+01,1.95992900000000E+01,1.90845900000000E+01,2.00018400000000E+01,1.72235600000000E+01,1.48558900000000E+01,1.88949800000000E+01,2.01674400000000E+01,1.79187100000000E+01,1.57273900000000E+01,6.29908000000000E+00,
LUX,,,,,,,,,,,,,,,,,,,,,,,,,,,,,1.51353300000000E+01,1.57146200000000E+01,2.06945500000000E+01,2.09883200000000E+01,2.06000300000000E+01,1.70933100000000E+01,1.76277700000000E+01,2.57189200000000E+01,3.07603300000000E+01,2.77536700000000E+01,2.13396100000000E+01,1.26115100000000E+01,1.61899500000000E+01,1.95992900000000E+01,1.90845900000000E+01,2.00018400000000E+01,1.72235600000000E+01,1.48558900000000E+01,1.88949800000000E+01,2.01674400000000E+01,1.79187100000000E+01,1.57273900000000E+01,6.29908000000000E+00,
LVA,,,,,,,,,,,,,,,,,,,,,,,,,,,,,1.51353300000000E+01,1.57146200000000E+01,2.06945500000000E+01,2.09883200000000E+01,2.06000300000000E+01,1.70933100000000E+01,1.76277700000000E+01,2.57189200000000E+01,3.07603300000000E+01,2.77536700000000E+01,2.13396100000000E+01,1.26115100000000E+01,1.61899500000000E+01,1.95992900000000E+01,1.90845900000000E+01,2.00018400000000E+01,1.72235600000000E+01,1.48558900000000E+01,1.88949800000000E+01,2.01674400000000E+01,1.79187100000000E+01,1.57273900000000E+01,6.29908000000000E+00,
MAC,,,,,,,,,,,,,,,,,,,,,,,,,,,,,,,,,,,,,,,,,,,,,,,,0.00000000000000E+00,0.00000000000000E+00,0.00000000000000E+00,0.00000000000000E+00,
MAR,,,,,,,,,,,,,,,,,,,,,,,,,,,,,,,,,,9.37235600000000E+01,,,,5.73126900000000E+01,,,9.40430300000000E+01,9.29057000000000E+01,9.10749600000000E+01,8.82523100000000E+01,,5.52712700000000E+01,4.87060700000000E+01,5.19399900000000E+01,5.11029700000000E+01,4.41180200000000E+01,,
MDA,,,,,,,,,,,,,,,,,,,,,,,,,,,,,,,,,,,,,4.30347300000000E+01,,,,1.00120100000000E+00,1.22791300000000E+00,,,,,2.92630100000000E+01,,2.22565600000000E+01,,2.28093700000000E+01,
MDG,,,,,,,,,,,,,,,,,,,,,,,,,,,,,,,,,,,,2.35767700000000E+00,,,,,,1.06492600000000E+00,,,,4.91956700000000E+01,5.65306100000000E+01,5.68696700000000E+01,5.64546400000000E+01,,5.10643800000000E+01,
MDV,,,,,,,,,,,,,,,,,,,,,,,,,,,,,,,,,,,,,,,,,2.78540200000000E+01,2.77745800000000E+01,2.67557800000000E+01,1.96802000000000E+01,1.71694100000000E+01,2.01302500000000E+01,2.01302500000000E+01,,8.83355400000000E+01,8.81167100000000E+01,,
MEX,,,,,,,,,,,,,,,,,,,,,,,,,,,,,,,,2.49204400000000E+01,,,,2.26938900000000E+01,,2.95492900000000E+01,2.86796700000000E+01,1.82041600000000E+01,4.41691900000000E+01,4.34274500000000E+01,3.35097900000000E+01,4.70157900000000E+01,2.56149900000000E+01,1.60895500000000E+01,1.61412600000000E+01,,1.88412400000000E+01,1.82099100000000E+01,2.25975700000000E+01,
MIC,,,,,,,,,,,,,,,,,,,,,,,,,,,,,,,,,,,,,,,,3.40432900000000E+01,3.38405600000000E+01,2.94505300000000E+01,2.65769900000000E+01,3.39726100000000E+01,3.03674300000000E+01,2.49001800000000E+01,2.38045300000000E+01,2.57311300000000E+01,2.70401100000000E+01,2.40654900000000E+01,,
MKD,,,,,,,,,,,,,,,,,,,,,,,,,,,,,,,,,,,,,,,,,,3.25984500000000E+01,,,3.48117000000000E+01,3.05081900000000E+01,2.60158700000000E+01,3.49437400000000E+01,2.74093700000000E+01,3.34543100000000E+01,2.79066000000000E+01,
MLI,,,,,,,,,,,,,,,,,,,,,,,,,,,,,,,,,,,,4.17574400000000E+01,,,,,,4.51154500000000E+01,4.43467300000000E+01,4.96234900000000E+01,5.03570100000000E+01,5.10420900000000E+01,3.80498500000000E+01,4.77498800000000E+01,4.29720300000000E+01,4.29720300000000E+01,4.29720300000000E+01,
MLT,,,,,,,,,,,,,,,,,,,,,,,,,,,,,1.51353300000000E+01,1.57146200000000E+01,2.06945500000000E+01,2.09883200000000E+01,2.06000300000000E+01,1.70933100000000E+01,1.76277700000000E+01,2.57189200000000E+01,3.07603300000000E+01,2.77536700000000E+01,2.13396100000000E+01,1.26115100000000E+01,1.61899500000000E+01,1.95992900000000E+01,1.90845900000000E+01,2.00018400000000E+01,1.72235600000000E+01,1.48558900000000E+01,1.88949800000000E+01,2.01674400000000E+01,1.79187100000000E+01,1.57273900000000E+01,6.29908000000000E+00,
MMR,,,,,,,,,,,,,,,,,,,,,,,,,,,,,,,,,,,,,,,,,,6.01173000000000E+00,5.86488500000000E+00,5.82800300000000E+00,5.93391800000000E+00,6.40550600000000E+00,2.48743100000000E+00,1.48579500000000E+01,2.81086200000000E+00,,,
MNA,,,,,,,,,,,,,,,,,,,,,,,,,,,,,,,,,,,,,,,,2.50904700000000E+01,6.73867000000000E+01,6.37179400000000E+01,6.10864300000000E+01,6.66699200000000E+01,5.33124400000000E+01,4.06228100000000E+01,3.88921100000000E+01,3.50672000000000E+01,4.41515800000000E+01,3.06125800000000E+01,,
MNE,,,,,,,,,,,,,,,,,,,,,,,,,,,,,,,,,,,,,,,,,,,,,,,,3.07453100000000E+01,2.79379800000000E+01,3.38091200000000E+01,1.68475100000000E+01,
MNG,,,,,,,,,,,,,,,,,,,,,,,,,,,,,,,,,,,,,,,,,,,,,,0.00000000000000E+00,0.00000000000000E+00,2.74380200000000E+00,2.70711000000000E+00,5.23103800000000E-01,,
MOZ,,,,,,,,,,,,,,,,,,,,,,,,,,,,,,,,,,,0.00000000000000E+00,,,4.88427800000000E+01,,,,4.74315100000000E+01,4.92920000000000E+01,4.92920000000000E+01,,5.20054400000000E+01,4.58257700000000E+01,5.35925800000000E+01,,3.28028300000000E+01,3.01922400000000E+01,
MRT,,,,,,,,,,,,,,,,,,,,,,,,,,,,,,,,,,,,,,,,,,4.50376500000000E+01,,,,,4.35704200000000E+01,4.00382200000000E+01,,,,
MUS,,,,,,,,,,,,,,,,,,,,,,,,,,,,,,,,,,,,5.16250400000000E+01,,5.11930000000000E+01,4.32971000000000E+01,,,,3.81765100000000E+01,,,2.28010300000000E+01,1.53131500000000E+01,1.74723100000000E+01,2.90180600000000E+01,1.13884600000000E+01,1.27132700000000E+01,
MWI,,,,,,,,,,,,,,,,,,,,,,,,,,,,,,,,,,,6.52018000000000E+01,,5.76072800000000E+01,6.87146300000000E+01,2.86176200000000E+01,,,3.42091100000000E+01,,,,,3.49448200000000E+01,,4.05103700000000E+01,4.93368700000000E+01,4.47993100000000E+01,
MYS,,,,,,,,,,,,,,,,,,,,,,,,,,,,,4.28524800000000E+01,,,4.81244400000000E+01,,2.47380400000000E+01,,,9.63771700000000E+00,7.96002600000000E+00,,,,5.34164500000000E+00,4.64795400000000E+00,5.08314800000000E+00,,2.98892400000000E+00,9.33530500000000E+00,1.02423800000000E+01,1.77369900000000E+00,3.46034600000000E+00,,
MYT,,,,,,,,,,,,,,,,,,,,,,,,,,,,,,,,,,,,,,,,,,,,,,,,2.07188500000000E-01,3.86694800000000E+00,3.86270000000000E+00,1.82848800000000E-01,
NAM,,,,,,,,,,,,,,,,,,,,,,,,,,,,,,,,,,,,,,,,,,1.72413800000000E+01,,,1.61706400000000E+01,1.06719400000000E+01,1.06719400000000E+01,1.45473300000000E+01,1.37154600000000E+01,1.55533600000000E+01,1.27927000000000E+01,
NER,,,,,,,,,,,,,,,,,,,,,,,,,,,,,,,,,,,,,,,,,,5.07145300000000E+01,4.75836400000000E+01,5.14061500000000E+01,5.20404800000000E+01,5.55317800000000E+01,4.39925500000000E+01,5.29326600000000E+01,4.86219900000000E+01,4.86219900000000E+01,4.86219900000000E+01,
NGA,,,,,,,,,,,,,,,,,,,,,,,,,,,,,7.08021900000000E+01,7.00049800000000E+01,7.06740400000000E+01,,7.09758500000000E+01,,,5.43637200000000E+01,5.50446400000000E+01,5.50446400000000E+01,5.50446400000000E+01,6.00000000000000E+01,6.07067900000000E+01,6.07676600000000E+01,5.23980400000000E+01,,,5.13078500000000E+01,3.68627400000000E+01,,3.64970100000000E+01,5.20085500000000E+01,3.44654900000000E+01,
NIC,,,,,,,,,,,,,,,,,,,,,,,,,,,,,,,,,,,,3.21442100000000E+01,,,2.71834900000000E+00,3.58607500000000E+01,1.90869200000000E+00,1.50788200000000E+00,1.28594800000000E+00,,2.80943000000000E+00,4.11977500000000E+00,,3.33706200000000E+00,,2.28512200000000E+01,2.13804400000000E+01,
NLD,,,,,,,,,,,,,,,,,,,,,,,,,,,,,1.51353300000000E+01,1.57146200000000E+01,2.06945500000000E+01,2.09883200000000E+01,2.06000300000000E+01,1.70933100000000E+01,1.76277700000000E+01,2.57189200000000E+01,3.07603300000000E+01,2.77536700000000E+01,2.13396100000000E+01,1.26115100000000E+01,1.61899500000000E+01,1.95992900000000E+01,1.90845900000000E+01,2.00018400000000E+01,1.72235600000000E+01,1.48558900000000E+01,1.88949800000000E+01,2.01674400000000E+01,1.79187100000000E+01,1.57273900000000E+01,6.29908000000000E+00,
NOC,,,,,,,,,,,,,,,,,,,,,,,,,,,,,,,,,,,,,,,,2.97116300000000E+01,2.48257800000000E+01,2.47191800000000E+01,2.87695700000000E+01,2.23245100000000E+01,8.38515200000000E+00,9.37186800000000E+00,1.21078700000000E+01,1.28564700000000E+01,1.04056000000000E+01,9.44768000000000E+00,1.15795700000000E+01,
NOR,,,,,,,,,,,,,,,,,,,,,,,,,,,,,6.02222800000000E+00,,,,,4.88375300000000E+00,,1.43666500000000E+01,4.10155100000000E+00,,5.14165800000000E+00,,4.94349600000000E+00,3.18145900000000E+00,2.27590800000000E+01,2.13332100000000E+01,,,2.07742300000000E+01,2.48020600000000E+01,2.47347600000000E+01,2.10941600000000E+01,2.56312000000000E+00,
NPL,,,,,,,,,,,,,,,,,,,,,,,,,,,,,,,,,,2.60309300000000E+01,,,,,3.60000000000000E+01,1.72413800000000E+01,2.35703200000000E+01,,2.13298800000000E+01,2.15457700000000E+01,2.31865300000000E+01,2.36808200000000E+01,1.31161600000000E+01,3.63191400000000E+01,,5.80263200000000E+01,4.46397200000000E+01,
NZL,,,,,,,,,,,,,,,,,,,,,,,,,,,,,,,,,1.86063400000000E+01,1.19052500000000E+01,,,8.72616100000000E-01,8.55883100000000E-01,9.10000900000000E-01,7.15608700000000E-01,7.57197600000000E-01,,7.61911900000000E+00,8.13635400000000E+00,8.97083600000000E+00,5.42671300000000E+00,5.86643600000000E+00,1.39090100000000E-01,1.39090100000000E-01,9.72429000000000E-02,0.00000000000000E+00,
OEC,,,,,,,,,,,,,,,,,,,,,,,,,,,,,,,,,,,,,,,,1.46625200000000E+01,1.44051200000000E+01,1.61407100000000E+01,1.84166500000000E+01,1.74353000000000E+01,1.62517900000000E+01,1.42678300000000E+01,1.64335500000000E+01,1.80010200000000E+01,1.61418100000000E+01,1.46244400000000E+01,,
OED,,,,,,,,,,,,,,,,,,,,,,,,,,,,,,,,,,,,,,,,1.67057600000000E+01,1.60828400000000E+01,1.77577800000000E+01,1.85209000000000E+01,2.03894000000000E+01,1.70517900000000E+01,1.59168700000000E+01,1.72221100000000E+01,1.96767200000000E+01,1.76732400000000E+01,1.71779400000000E+01,9.89475300000000E+00,
OMN,,,,,,,,,,,,,,,,,,,,,,,,,,,,,,,,,5.67107800000000E+00,,,,,0.00000000000000E+00,,,,,3.68698300000000E+00,,,5.90306500000000E-01,5.68975900000000E-01,1.06201800000000E+00,1.06308300000000E+00,1.47427500000000E+00,,
PAK,,,,,,,,,,,,,,,,,,,,,,,,,,,,,,,,,,,,7.34594800000000E+01,,,6.94729800000000E+01,,,4.79188300000000E+01,4.72562300000000E+01,4.60136700000000E+01,4.66970100000000E+01,3.60974600000000E+01,3.66133700000000E+01,4.36237000000000E+01,4.24566000000000E+01,3.57959200000000E+01,,
PAN,,,,,,,,,,,,,,,,,,,,,,,,,,,,,,,,,,,,,,4.21461900000000E+01,2.12050700000000E+00,,4.96614000000000E+00,4.69900700000000E+00,,,,6.79152100000000E+00,7.20802000000000E+00,4.95602900000000E+01,4.65889300000000E+01,8.80670600000000E+00,,
PER,,,,,,,,,,,,,,,,,,,,,,,,,,,,,,,,,,3.25206300000000E+01,,1.27858200000000E+01,,2.38566800000000E+01,2.33644900000000E+01,2.16261300000000E+01,2.63966200000000E+01,,,,1.64637900000000E+01,1.54761900000000E+01,1.34237900000000E+01,1.44962800000000E+01,1.01387200000000E+01,1.32215400000000E+00,1.27108600000000E+00,
PHL,,,,,,,,,,,,,,,,,,,,,,,,,,,,,7.64135500000000E+01,7.68088500000000E+01,6.70257300000000E+01,,6.65241300000000E+01,6.67391700000000E+01,6.41856800000000E+01,6.59909900000000E+01,,,3.39307200000000E+01,2.85960200000000E+01,9.75961500000000E+00,8.64825500000000E+00,7.42917600000000E+00,7.65072300000000E+00,8.17239400000000E+00,8.48857200000000E+00,8.59761800000000E+00,1.45577500000000E+01,1.20384500000000E+01,7.49376700000000E+00,7.29687300000000E+00,
PLW,,,,,,,,,,,,,,,,,,,,,,,,,,,,,,,,,,,,,,,,,,,,,,0.00000000000000E+00,0.00000000000000E+00,,,,7.46268600000000E-01,
PNG,,,,,,,,,,,,,,,,,,,,,,,,,,,,,,,,,,,,,,5.44521700000000E+01,,,,,4.75288800000000E+01,4.77657400000000E+01,4.77995900000000E+01,4.76980400000000E+01,3.61950500000000E+01,4.91710100000000E+01,5.34830200000000E+01,,4.68105500000000E+01,
POL,,,,,,,,,,,,,,,,,,,,,,,,,,,,,1.51353300000000E+01,1.57146200000000E+01,2.06945500000000E+01,2.09883200000000E+01,2.06000300000000E+01,1.70933100000000E+01,1.76277700000000E+01,2.57189200000000E+01,3.07603300000000E+01,2.77536700000000E+01,2.13396100000000E+01,1.26115100000000E+01,1.61899500000000E+01,1.95992900000000E+01,1.90845900000000E+01,2.00018400000000E+01,1.72235600000000E+01,1.48558900000000E+01,1.88949800000000E+01,2.01674400000000E+01,1.79187100000000E+01,1.57273900000000E+01,6.29908000000000E+00,
PRT,,,,,,,,,,,,,,,,,,,,,,,,,,,,,1.51353300000000E+01,1.57146200000000E+01,2.06945500000000E+01,2.09883200000000E+01,2.06000300000000E+01,1.70933100000000E+01,1.76277700000000E+01,2.57189200000000E+01,3.07603300000000E+01,2.77536700000000E+01,2.13396100000000E+01,1.26115100000000E+01,1.61899500000000E+01,1.95992900000000E+01,1.90845900000000E+01,2.00018400000000E+01,1.72235600000000E+01,1.48558900000000E+01,1.88949800000000E+01,2.01674400000000E+01,1.79187100000000E+01,1.57273900000000E+01,6.29908000000000E+00,
PRY,,,,,,,,,,,,,,,,,,,,,,,,,,,,,,,,3.46715300000000E+01,,,7.90734800000000E+00,2.37129900000000E+01,3.21510300000000E+01,3.18705400000000E+01,3.16477300000000E+01,3.01944700000000E+01,3.73301100000000E+01,3.67495100000000E+01,3.66019400000000E+01,3.73419800000000E+01,2.44804500000000E+01,1.87253600000000E+01,1.65469900000000E+01,1.68387800000000E+01,1.80086600000000E+01,1.59408400000000E+01,1.57508200000000E+01,
PYF,,,,,,,,,,,,,,,,,,,,,,,,,,,,,,,,,,,,,,,,,,,,,,,,,8.62370700000000E+00,6.89593700000000E+00,,
QAT,,,,,,,,,,,,,,,,,,,,,,,,,,,,,,,,,,,,,,,,,,,7.77259600000000E-01,,,3.11491200000000E-01,2.32738600000000E-01,2.65297900000000E-01,1.02502700000000E+00,1.05349400000000E+00,,
ROM,,,,,,,,,,,,,,,,,,,,,,,,,,,,,1.51353300000000E+01,1.57146200000000E+01,2.06945500000000E+01,2.09883200000000E+01,2.06000300000000E+01,1.70933100000000E+01,1.76277700000000E+01,2.57189200000000E+01,3.07603300000000E+01,2.77536700000000E+01,2.13396100000000E+01,1.26115100000000E+01,1.61899500000000E+01,1.95992900000000E+01,1.90845900000000E+01,2.00018400000000E+01,1.72235600000000E+01,1.48558900000000E+01,1.88949800000000E+01,2.01674400000000E+01,1.79187100000000E+01,1.57273900000000E+01,6.29908000000000E+00,
RUS,,,,,,,,,,,,,,,,,,,,,,,,,,,,,,,,,,4.17771400000000E+00,1.43080700000000E+01,,1.31949900000000E+01,1.86973400000000E+01,,,,7.40245000000000E+00,7.78509800000000E+00,,,1.29840500000000E+01,,2.75596200000000E+01,2.01524300000000E+01,2.13393100000000E+01,1.82059700000000E+01,
RWA,,,,,,,,,,,,,,,,,,,,,,,,,,,,,,,,,,5.59490900000000E+01,,,,,,,,3.66798400000000E+01,,3.52263400000000E+01,,4.33889600000000E+01,4.71759500000000E+01,,4.66503300000000E+01,,3.20943100000000E+01,
SAS,,,,,,,,,,,,,,,,,,,,,,,,,,,,,,,,,,,,,,,,6.15997300000000E+01,4.52376600000000E+01,5.44951600000000E+01,4.47415900000000E+01,3.64083300000000E+01,5.40890700000000E+01,4.12734500000000E+01,3.07925300000000E+01,4.13991500000000E+01,5.81627100000000E+01,5.62202600000000E+01,,
SAU,,,,,,,,,,,,,,,,,,,,,,,,,,,,,,,,,,,6.92701600000000E+00,,,,,8.66394200000000E+00,7.21662900000000E+00,,,8.67472600000000E+00,9.23658000000000E+00,1.09286000000000E-02,1.11058000000000E-02,7.70077000000000E-01,7.59790000000000E-03,2.27937500000000E-01,,
SDN,,,,,,,,,,,,,,,,,,,,,,,,,,,,,,,,,,,,,1.81472100000000E+01,,,,,,5.67266500000000E+01,,,,5.03614500000000E+01,,4.54151900000000E+01,2.95926500000000E+01,3.40542100000000E+01,
SEN,,,,,,,,,,,,,,,,,,,,,,,,,,,,,,,,,,,,,,,,,,5.17797500000000E+01,5.05221100000000E+01,5.33683100000000E+01,5.53507300000000E+01,5.69087300000000E+01,5.14903300000000E+01,5.94048600000000E+01,5.12741900000000E+01,5.12741900000000E+01,5.16520900000000E+01,
SGP,,,,,,,,,,,,,,,,,,,,,,,,,,,,,,1.06885800000000E+00,,,,,,0.00000000000000E+00,,,,,,1.20075700000000E+00,1.75587200000000E+00,1.43461200000000E+00,0.00000000000000E+00,7.36819500000000E-01,0.00000000000000E+00,5.02348700000000E-01,5.59959300000000E-01,5.22340700000000E-01,0.00000000000000E+00,
SLB,,,,,,,,,,,,,,,,,,,,,,,,,,,,,,,,,,,,7.15447200000000E+01,,,,,,,,,,,7.53180700000000E+01,1.29820100000000E+01,1.50429800000000E+01,,0.00000000000000E+00,
SLV,,,,,,,,,,,,,,,,,,,,,,,,,,,,,,,,,,,,3.59358800000000E+01,,3.28977100000000E+01,3.38231700000000E+01,,9.33307700000000E+00,1.09713600000000E+01,7.79526100000000E+00,,7.97808600000000E+00,9.94804400000000E+00,6.83878000000000E+00,6.66770500000000E+00,2.11085200000000E+01,1.95970200000000E+01,8.33208900000000E+00,
SRB,,,,,,,,,,,,,,,,,,,,,,,,,,,,,,,,,,,,,,,,,,2.75656200000000E+01,4.21712600000000E+01,,,4.41518300000000E+01,,,,,,
SSA,,,,,,,,,,,,,,,,,,,,,,,,,,,,,,,,,,,,,,,,2.97693800000000E+01,4.93722100000000E+01,3.86463100000000E+01,4.64178100000000E+01,4.63345900000000E+01,3.68671600000000E+01,4.13328300000000E+01,3.41601100000000E+01,4.27316800000000E+01,4.22342600000000E+01,4.17463500000000E+01,,
SUR,,,,,,,,,,,,,,,,,,,,,,,,,,,,,,,,,,,,,5.21052600000000E+01,,,4.76983900000000E+01,1.95627800000000E+01,,,,,,,4.79803700000000E+01,,,5.42967500000000E+01,
SVK,,,,,,,,,,,,,,,,,,,,,,,,,,,,,1.51353300000000E+01,1.57146200000000E+01,2.06945500000000E+01,2.09883200000000E+01,2.06000300000000E+01,1.70933100000000E+01,1.76277700000000E+01,2.57189200000000E+01,3.07603300000000E+01,2.77536700000000E+01,2.13396100000000E+01,1.26115100000000E+01,1.61899500000000E+01,1.95992900000000E+01,1.90845900000000E+01,2.00018400000000E+01,1.72235600000000E+01,1.48558900000000E+01,1.88949800000000E+01,2.01674400000000E+01,1.79187100000000E+01,1.57273900000000E+01,6.29908000000000E+00,
SVN,,,,,,,,,,,,,,,,,,,,,,,,,,,,,1.51353300000000E+01,1.57146200000000E+01,2.06945500000000E+01,2.09883200000000E+01,2.06000300000000E+01,1.70933100000000E+01,1.76277700000000E+01,2.57189200000000E+01,3.07603300000000E+01,2.77536700000000E+01,2.13396100000000E+01,1.26115100000000E+01,1.61899500000000E+01,1.95992900000000E+01,1.90845900000000E+01,2.00018400000000E+01,1.72235600000000E+01,1.48558900000000E+01,1.88949800000000E+01,2.01674400000000E+01,1.79187100000000E+01,1.57273900000000E+01,6.29908000000000E+00,
SWE,,,,,,,,,,,,,,,,,,,,,,,,,,,,,1.51353300000000E+01,1.57146200000000E+01,2.06945500000000E+01,2.09883200000000E+01,2.06000300000000E+01,1.70933100000000E+01,1.76277700000000E+01,2.57189200000000E+01,3.07603300000000E+01,2.77536700000000E+01,2.13396100000000E+01,1.26115100000000E+01,1.61899500000000E+01,1.95992900000000E+01,1.90845900000000E+01,2.00018400000000E+01,1.72235600000000E+01,1.48558900000000E+01,1.88949800000000E+01,2.01674400000000E+01,1.79187100000000E+01,1.57273900000000E+01,6.29908000000000E+00,
SWZ,,,,,,,,,,,,,,,,,,,,,,,,,,,,,,,,,,,,,,,,,,8.28955100000000E+00,,,2.73972600000000E+01,1.74563600000000E+01,1.74563600000000E+01,3.17919100000000E+01,2.51485200000000E+01,3.00589400000000E+01,2.68835600000000E+01,
SYC,,,,,,,,,,,,,,,,,,,,,,,,,,,,,,,,,,,,,,,,,7.74897700000000E+01,7.74897700000000E+01,,,,1.64406400000000E+01,1.46988000000000E+01,1.65506200000000E+01,,,,
SYR,,,,,,,,,,,,,,,,,,,,,,,,,,,,,,,,,,,,,,,,,,,1.49058200000000E+01,,,,,,,2.59698300000000E+01,1.44720800000000E+01,
TCD,,,,,,,,,,,,,,,,,,,,,,,,,,,,,,,,,,,,4.95157400000000E+01,,4.95157400000000E+01,,,,4.69879500000000E+01,5.26405400000000E+01,,,6.35501400000000E+01,,5.01953100000000E+01,,5.99119000000000E+01,,
TGO,,,,,,,,,,,,,,,,,,,,,,,,,,,,,,,,,,,,,,,,,,4.15215400000000E+01,3.99297900000000E+01,5.38709700000000E+01,5.42291200000000E+01,4.73104100000000E+01,4.05591400000000E+01,5.80148000000000E+01,4.59314000000000E+01,4.84813100000000E+01,4.63386000000000E+01,
THA,,,,,,,,,,,,,,,,,,,,,,,,,,,,,,5.74303100000000E+01,,5.60694800000000E+01,,8.33021600000000E+01,,5.49206700000000E+01,,,,,4.48967900000000E+01,3.77197700000000E+01,,3.50933500000000E+01,,2.90261700000000E+01,2.95897800000000E+01,3.05153300000000E+01,3.07590300000000E+01,3.86386500000000E+01,,
TJK,,,,,,,,,,,,,,,,,,,,,,,,,,,,,,,,,,,,,,,,,,,1.09650800000000E+01,,,,4.42967900000000E-01,,,,1.59522000000000E+01,
TKM,,,,,,,,,,,,,,,,,,,,,,,,,,,,,,,,,,,,,,,0.00000000000000E+00,,,,3.41589000000000E+01,,,,,,,,,
TON,,,,,,,,,,,,,,,,,,,,,,,,,,,,,,,,,,,,,,,,,,,,,,,,,,6.45305500000000E+01,6.46039600000000E+01,
TTO,,,,,,,,,,,,,,,,,,,,,,,,,,,,,,,,6.21812500000000E+01,6.66001600000000E+01,,,,5.43770300000000E+01,,,4.79717500000000E+01,,4.64653900000000E+01,4.75300200000000E+01,4.90531600000000E+01,,,4.48908400000000E+01,5.38902800000000E+01,5.38902800000000E+01,,,
TUN,,,,,,,,,,,,,,,,,,,,,,,,,,,,,,,9.18542800000000E+01,,9.19101900000000E+01,,,9.26872300000000E+01,,,9.27925500000000E+01,,,,7.20149200000000E+01,6.40891000000000E+01,7.03198000000000E+01,5.17092900000000E+01,5.68264700000000E+01,,5.74460600000000E+01,,,
TUR,,,,,,,,,,,,,,,,,,,,,,,,,,,,,,,,,,7.94550300000000E+00,,1.94250200000000E+01,,3.42994400000000E+01,,4.21912400000000E+01,,,,3.38376400000000E+01,,3.66609000000000E+01,2.89520100000000E+01,3.78045400000000E+01,3.42470300000000E+01,3.23102300000000E+01,3.64416200000000E+01,
TUV,,,,,,,,,,,,,,,,,,,,,,,,,,,,,,,,,,,,,,,,,,,,,,,,,,,4.10404600000000E+01,
TZA,,,,,,,,,,,,,,,,,,,,,,,,,,,,,,,,,,8.03763400000000E+01,,,,7.21769500000000E+01,6.15633800000000E+01,,5.93696700000000E+01,,,4.33126700000000E+01,,5.02797600000000E+01,4.65592100000000E+01,4.54736400000000E+01,4.72993200000000E+01,4.73724000000000E+01,4.84117900000000E+01,
UGA,,,,,,,,,,,,,,,,,,,,,,,,,,,,,,,,,,,4.54905900000000E+01,,,,,,0.00000000000000E+00,0.00000000000000E+00,0.00000000000000E+00,0.00000000000000E+00,0.00000000000000E+00,4.22372500000000E+01,3.68352800000000E+01,4.10791400000000E+01,4.04594000000000E+01,4.03456900000000E+01,4.10507200000000E+01,
UKR,,,,,,,,,,,,,,,,,,,,,,,,,,,,,,,,,,,,1.54176000000000E+01,,4.77690700000000E+01,,,,,1.41695600000000E+01,,,,1.35280600000000E+01,,1.40215600000000E+01,9.51937800000000E+00,6.06620700000000E+00,
UMC,,,,,,,,,,,,,,,,,,,,,,,,,,,,,,,,,,,,,,,,3.33642800000000E+01,3.41779900000000E+01,2.60471200000000E+01,2.36508700000000E+01,3.11634300000000E+01,2.91290900000000E+01,2.21724800000000E+01,2.27613000000000E+01,2.55276700000000E+01,2.61657800000000E+01,2.31908600000000E+01,,
URY,,,,,,,,,,,,,,,,,,,,,,,,,,,,,,,,,0.00000000000000E+00,,,2.45003700000000E+01,2.47291800000000E+01,2.86159100000000E+01,3.58387500000000E+01,3.45559500000000E+01,2.61979300000000E+01,2.48581300000000E+01,3.05861100000000E+01,,1.88453900000000E+01,1.18606400000000E+01,1.22133900000000E+01,1.15950200000000E+01,1.22658600000000E+01,1.17330000000000E+01,1.14405100000000E+01,
USA,,,,,,,,,,,,,,,,,,,,,,,,,,,,,,7.43361900000000E+00,7.41115900000000E+00,6.88925000000000E+00,7.24089600000000E+00,6.44375300000000E+00,,1.34010500000000E+01,9.35958700000000E+00,1.28483300000000E+01,9.78620400000000E+00,1.20894400000000E+01,1.15881200000000E+01,1.20492600000000E+01,1.17797600000000E+01,1.18855800000000E+01,1.13827300000000E+01,1.07931500000000E+01,1.06972100000000E+01,1.22824000000000E+01,1.07423100000000E+01,1.10048700000000E+01,2.84543500000000E+00,
UZB,,,,,,,,,,,,,,,,,,,,,,,,,,,,,,,,,,,,,,,,,,3.10498900000000E+01,,,,,3.54279000000000E+01,3.19672100000000E+01,3.40473300000000E+01,3.36147000000000E+01,,
VCT,,,,,,,,,,,,,,,,,,,,,,,,,,,,,,,,,,,,,5.34809000000000E+01,,,4.68949500000000E+01,4.81973400000000E+01,4.81498700000000E+01,4.90678800000000E+01,4.75497500000000E+01,,,4.27392700000000E+01,5.02590700000000E+01,,,,
VEN,,,,,,,,,,,,,,,,,,,,,,,,,,,,,,,,,4.29901400000000E+01,,,2.65020900000000E+01,,3.00301700000000E+01,3.25704200000000E+01,3.39707400000000E+01,3.29722600000000E+01,,3.62541900000000E+01,,2.93142600000000E+01,2.94631000000000E+01,2.79931000000000E+01,4.25545300000000E+01,4.12214900000000E+01,4.34676000000000E+01,3.02775400000000E+01,
VNM,,,,,,,,,,,,,,,,,,,,,,,,,,,,,,,,,,,4.36142000000000E+01,,,,,4.45420000000000E+01,,4.08565100000000E+01,3.96150500000000E+01,4.47926900000000E+01,3.85499800000000E+01,4.00204400000000E+01,3.35802600000000E+01,3.49424000000000E+01,3.10165500000000E+01,,3.31781100000000E+01,
VUT,,,,,,,,,,,,,,,,,,,,,,,,,,,,,,,,,,,,,,,,,,,3.94817100000000E+01,,,,4.35923300000000E+01,6.45418300000000E+01,6.75156700000000E+01,7.60579900000000E+01,,
WLD,,,,,,,,,,,,,,,,,,,,,,,,,,,,,,,,,,,,,,,,2.25275300000000E+01,2.33200900000000E+01,2.39670700000000E+01,2.37900100000000E+01,2.39421200000000E+01,2.18407300000000E+01,2.01558500000000E+01,1.93523100000000E+01,2.15613300000000E+01,2.18764400000000E+01,1.94603700000000E+01,,
YEM,,,,,,,,,,,,,,,,,,,,,,,,,,,,,,,,,,,,,,,,,1.60595600000000E+01,,,,,,1.10727500000000E+01,,,7.22388100000000E+00,,
ZAF,,,,,,,,,,,,,,,,,,,,,,,,,,,,,1.44329900000000E+01,,1.94663500000000E+01,1.73795500000000E+01,,3.37482700000000E+01,,,2.19143900000000E+01,2.55692700000000E+01,,1.83744000000000E+01,,1.90980000000000E+01,,,1.87603700000000E+01,1.74579600000000E+01,1.50480100000000E+01,1.79324400000000E+01,1.72253000000000E+01,1.53650900000000E+01,1.55032400000000E+01,
ZAR,,,,,,,,,,,,,,,,,,,,,,,,,,,,,,,,,,,,,,,,,,,,4.65448300000000E+01,,,4.57322200000000E+01,4.71264400000000E+01,4.59074700000000E+01,4.64939000000000E+01,,
ZMB,,,,,,,,,,,,,,,,,,,,,,,,,,,,,,,,,,9.54230300000000E+01,,,,5.00000000000000E+01,,,,,5.16360700000000E+01,4.23170700000000E+01,,4.54976300000000E+01,,,3.56188800000000E+01,4.17611700000000E+01,,
ZWE,,,,,,,,,,,,,,,,,,,,,,,,,,,,,,,,,,,,,8.84401100000000E+01,4.86943200000000E+01,4.02425400000000E+01,4.22239500000000E+01,,3.94716100000000E+01,4.57259600000000E+01,4.26514900000000E+01,,,,,,,,
