"Country Code",1960,1961,1962,1963,1964,1965,1966,1967,1968,1969,1970,1971,1972,1973,1974,1975,1976,1977,1978,1979,1980,1981,1982,1983,1984,1985,1986,1987,1988,1989,1990,1991,1992,1993,1994,1995,1996,1997,1998,1999,2000,2001,2002,2003,2004,2005,2006,2007,2008,2009,2010,2011AFG,,,,,,,,,,,,,,,,,,,,,,,,,,,,,,,,,,,,,,,,,,,,,3.86000000000000E+00,,5.64000000000000E+00,5.62000000000000E+00,6.69000000000000E+00,,,
AGO,,,,,,,,,,,,,,,,,,,,,,,,,,,,,,,,,,,,,,,,,,,1.45400000000000E+01,,,1.30900000000000E+01,1.30900000000000E+01,,1.39500000000000E+01,1.38600000000000E+01,,
ALB,,,,,,,,,,,,,,,,,,,,,,,,,,,,,,,,,,,,,,1.28000000000000E+01,,,,1.06000000000000E+01,7.68000000000000E+00,,,6.50000000000000E+00,,5.21000000000000E+00,3.24000000000000E+00,5.37000000000000E+00,,
ARE,,,,,,,,,,,,,,,,,,,,,,,,,,,,,,,,,,,,,,,,,,,,8.55000000000000E+00,,4.69000000000000E+00,4.69000000000000E+00,2.94000000000000E+00,2.71000000000000E+00,2.81000000000000E+00,,
ARG,,,,,,,,,,,,,,,,,,,,,,,,,,,,,,,,,5.83000000000000E+00,4.94000000000000E+00,,4.42000000000000E+00,6.66000000000000E+00,6.74000000000000E+00,9.13000000000000E+00,5.63000000000000E+00,5.05000000000000E+00,4.52000000000000E+00,6.45000000000000E+00,5.69000000000000E+00,2.26000000000000E+00,1.73000000000000E+00,1.52000000000000E+00,1.39000000000000E+00,1.29000000000000E+00,2.68000000000000E+00,1.62000000000000E+00,
ARM,,,,,,,,,,,,,,,,,,,,,,,,,,,,,,,,,,,,,,,,,,3.40000000000000E+00,,,,,1.54000000000000E+00,,2.22000000000000E+00,,,
ATG,,,,,,,,,,,,,,,,,,,,,,,,,,,,,,,,,,,,,1.91500000000000E+01,,,1.76300000000000E+01,1.57000000000000E+01,1.32200000000000E+01,1.32200000000000E+01,1.10700000000000E+01,,,1.20000000000000E+01,1.22700000000000E+01,1.30800000000000E+01,1.47800000000000E+01,,
AUS,,,,,,,,,,,,,,,,,,,,,,,,,,,,,,,,6.80600000000000E+01,,8.53000000000000E+00,,,1.40600000000000E+01,1.26800000000000E+01,9.20000000000000E+00,1.73000000000000E+01,2.12000000000000E+01,1.01000000000000E+00,7.90000000000000E-01,8.00000000000000E-01,7.50000000000000E-01,6.60000000000000E-01,4.70000000000000E-01,3.10000000000000E-01,8.30000000000000E-01,4.90000000000000E-01,4.40000000000000E-01,
AUT,,,,,,,,,,,,,,,,,,,,,,,,,,,,,2.73000000000000E+00,2.71000000000000E+00,3.70000000000000E+00,3.73000000000000E+00,4.06000000000000E+00,3.62000000000000E+00,3.54000000000000E+00,8.79000000000000E+00,6.23000000000000E+00,5.58000000000000E+00,4.80000000000000E+00,3.31000000000000E+00,2.52000000000000E+00,3.96000000000000E+00,2.47000000000000E+00,2.68000000000000E+00,2.65000000000000E+00,1.93000000000000E+00,2.01000000000000E+00,1.84000000000000E+00,1.72000000000000E+00,1.22000000000000E+00,5.40000000000000E-01,
AZE,,,,,,,,,,,,,,,,,,,,,,,,,,,,,,,,,,,,,,,,,,,5.34000000000000E+00,,,5.44000000000000E+00,,3.71000000000000E+00,3.40000000000000E+00,3.80000000000000E+00,,
BDI,,,,,,,,,,,,,,,,,,,,,,,,,,,,,,,,,,,,,,,,,,,7.56000000000000E+00,,,2.54800000000000E+01,2.07800000000000E+01,1.33500000000000E+01,7.86000000000000E+00,9.60000000000000E+00,9.39000000000000E+00,
BEL,,,,,,,,,,,,,,,,,,,,,,,,,,,,,2.73000000000000E+00,2.71000000000000E+00,3.70000000000000E+00,3.73000000000000E+00,4.06000000000000E+00,3.62000000000000E+00,3.54000000000000E+00,8.79000000000000E+00,6.23000000000000E+00,5.58000000000000E+00,4.80000000000000E+00,3.31000000000000E+00,2.52000000000000E+00,3.96000000000000E+00,2.47000000000000E+00,2.68000000000000E+00,2.65000000000000E+00,1.93000000000000E+00,2.01000000000000E+00,1.84000000000000E+00,1.72000000000000E+00,1.22000000000000E+00,5.40000000000000E-01,
BEN,,,,,,,,,,,,,,,,,,,,,,,,,,,,,,,,,,,,,,,,,,1.28600000000000E+01,1.29400000000000E+01,1.22100000000000E+01,1.17000000000000E+01,1.19700000000000E+01,1.09200000000000E+01,1.19400000000000E+01,1.13300000000000E+01,1.16800000000000E+01,1.24100000000000E+01,
BFA,,,,,,,,,,,,,,,,,,,,,,,,,,,,,,,,,,2.30700000000000E+01,,,,,,,,1.07300000000000E+01,1.13400000000000E+01,1.04800000000000E+01,1.00600000000000E+01,1.00400000000000E+01,7.79000000000000E+00,7.56000000000000E+00,6.77000000000000E+00,7.11000000000000E+00,8.05000000000000E+00,
BGD,,,,,,,,,,,,,,,,,,,,,,,,,,,,,,5.35400000000000E+01,,,,,5.54800000000000E+01,,,,,1.61800000000000E+01,1.61800000000000E+01,,1.59400000000000E+01,1.86500000000000E+01,1.39500000000000E+01,8.77000000000000E+00,8.75000000000000E+00,7.33000000000000E+00,8.79000000000000E+00,,,
BGR,,,,,,,,,,,,,,,,,,,,,,,,,,,,,2.73000000000000E+00,2.71000000000000E+00,3.70000000000000E+00,3.73000000000000E+00,4.06000000000000E+00,3.62000000000000E+00,3.54000000000000E+00,8.79000000000000E+00,6.23000000000000E+00,5.58000000000000E+00,4.80000000000000E+00,3.31000000000000E+00,2.52000000000000E+00,3.96000000000000E+00,2.47000000000000E+00,2.68000000000000E+00,2.65000000000000E+00,1.93000000000000E+00,2.01000000000000E+00,1.84000000000000E+00,1.72000000000000E+00,1.22000000000000E+00,5.40000000000000E-01,
BHR,,,,,,,,,,,,,,,,,,,,,,,,,,,,,,,,,,,,,,,,6.93000000000000E+00,,7.44000000000000E+00,,,,5.68000000000000E+00,5.47000000000000E+00,5.60000000000000E+00,6.93000000000000E+00,6.94000000000000E+00,,
BHS,,,,,,,,,,,,,,,,,,,,,,,,,,,,,,,,,,,,,,,,2.09000000000000E+01,,,1.71000000000000E+01,,,,1.50700000000000E+01,,,,7.59000000000000E+00,
BIH,,,,,,,,,,,,,,,,,,,,,,,,,,,,,,,,,,,,,,,,,,5.27000000000000E+00,,,,,4.00000000000000E+00,2.04000000000000E+00,1.99000000000000E+00,5.52000000000000E+00,1.06000000000000E+00,
BLR,,,,,,,,,,,,,,,,,,,,,,,,,,,,,,,,,,,,,6.44000000000000E+00,7.01000000000000E+00,,,,,7.06000000000000E+00,,,,,,5.70000000000000E-01,5.90000000000000E-01,9.20000000000000E-01,
BLZ,,,,,,,,,,,,,,,,,,,,,,,,,,,,,,,,,,,,,1.05300000000000E+01,,,9.83000000000000E+00,,9.89000000000000E+00,1.41400000000000E+01,1.32500000000000E+01,,,6.46000000000000E+00,6.51000000000000E+00,6.51000000000000E+00,3.95000000000000E+00,4.02000000000000E+00,
BMU,,,,,,,,,,,,,,,,,,,,,,,,,,,,,,,,,,,,,,,,,,3.53510000000000E+02,,,,2.03400000000000E+01,,1.85900000000000E+01,1.61200000000000E+01,1.61100000000000E+01,1.42500000000000E+01,
BOL,,,,,,,,,,,,,,,,,,,,,,,,,,,,,,,,,,1.00000000000000E+01,1.00000000000000E+01,1.00000000000000E+01,1.00000000000000E+01,1.00000000000000E+01,1.00000000000000E+01,9.99000000000000E+00,9.58000000000000E+00,9.04000000000000E+00,1.03000000000000E+01,,4.95000000000000E+00,5.19000000000000E+00,3.41000000000000E+00,4.38000000000000E+00,3.31000000000000E+00,2.59000000000000E+00,5.75000000000000E+00,
BRA,,,,,,,,,,,,,,,,,,,,,,,,,,,,,,1.90100000000000E+01,6.47000000000000E+00,7.01000000000000E+00,8.11000000000000E+00,7.27000000000000E+00,7.22000000000000E+00,6.49000000000000E+00,7.70000000000000E+00,6.96000000000000E+00,9.12000000000000E+00,5.28000000000000E+00,6.38000000000000E+00,4.32000000000000E+00,4.14000000000000E+00,3.88000000000000E+00,1.76000000000000E+00,1.50000000000000E+00,1.22000000000000E+00,1.20000000000000E+00,1.13000000000000E+00,1.48000000000000E+00,1.47000000000000E+00,
BRB,,,,,,,,,,,,,,,,,,,,,,,,,,,,,,,,,,,,,2.04300000000000E+01,,,2.33300000000000E+01,1.98900000000000E+01,3.43100000000000E+01,4.35300000000000E+01,4.40100000000000E+01,,,9.98000000000000E+00,2.18500000000000E+01,,,,
BRN,,,,,,,,,,,,,,,,,,,,,,,,,,,,,,,,,3.97000000000000E+00,,,,,,,,,4.92000000000000E+00,4.81000000000000E+00,1.38500000000000E+01,2.54800000000000E+01,7.89000000000000E+00,8.11000000000000E+00,1.32100000000000E+01,4.20000000000000E-01,,7.00000000000000E-02,
BTN,,,,,,,,,,,,,,,,,,,,,,,,,,,,,,,,,,,,,9.66000000000000E+00,,,,,,1.42500000000000E+01,,3.73800000000000E+01,3.76800000000000E+01,,4.49000000000000E+01,,,,
BWA,,,,,,,,,,,,,,,,,,,,,,,,,,,,,,,,,,,,,,,,,,2.67000000000000E+00,,,3.45000000000000E+00,7.30000000000000E-01,7.70000000000000E-01,8.60000000000000E-01,2.00000000000000E+00,1.54000000000000E+00,4.80000000000000E-01,
CAF,,,,,,,,,,,,,,,,,,,,,,,,,,,,,,,,,,,,1.37100000000000E+01,,1.38800000000000E+01,,,,2.25100000000000E+01,1.97600000000000E+01,,,2.01700000000000E+01,,1.37700000000000E+01,,,,
CAN,,,,,,,,,,,,,,,,,,,,,,,,,,,,,,9.53000000000000E+00,,,,1.79000000000000E+00,,8.11000000000000E+00,6.03000000000000E+00,4.80000000000000E+00,4.67000000000000E+00,1.95000000000000E+00,3.69000000000000E+00,5.85000000000000E+00,4.27000000000000E+00,1.13600000000000E+01,3.97000000000000E+00,3.39000000000000E+00,3.36000000000000E+00,3.22000000000000E+00,3.18000000000000E+00,3.58000000000000E+00,3.30000000000000E-01,
CHE,,,,,,,,,,,,,,,,,,,,,,,,,,,,,,,3.81400000000000E+01,,,4.75200000000000E+01,,8.96000000000000E+01,3.31800000000000E+01,1.13900000000000E+01,1.03100000000000E+01,1.05000000000000E+01,7.43000000000000E+00,7.22000000000000E+00,7.68000000000000E+00,9.02000000000000E+00,7.22000000000000E+00,7.00000000000000E+00,9.27000000000000E+00,9.51000000000000E+00,8.71000000000000E+00,4.51000000000000E+00,0.00000000000000E+00,
CHL,,,,,,,,,,,,,,,,,,,,,,,,,,,,,,,,,1.10000000000000E+01,1.10000000000000E+01,1.10000000000000E+01,1.08600000000000E+01,,1.10000000000000E+01,1.10000000000000E+01,1.00000000000000E+01,9.00000000000000E+00,8.00000000000000E+00,7.00000000000000E+00,,2.43000000000000E+00,2.79000000000000E+00,1.97000000000000E+00,2.23000000000000E+00,1.35000000000000E+00,6.01000000000000E+00,2.70000000000000E+00,
CHN,,,,,,,,,,,,,,,,,,,,,,,,,,,,,,,,,1.39600000000000E+01,1.39400000000000E+01,1.28100000000000E+01,,2.49800000000000E+01,1.98900000000000E+01,1.97900000000000E+01,1.66700000000000E+01,1.89300000000000E+01,1.92900000000000E+01,,5.74000000000000E+00,6.24000000000000E+00,3.45000000000000E+00,3.54000000000000E+00,3.02000000000000E+00,2.39000000000000E+00,1.81000000000000E+00,1.82000000000000E+00,
CIV,,,,,,,,,,,,,,,,,,,,,,,,,,,,,,,,,,2.16500000000000E+01,,,1.84400000000000E+01,,,,,5.67000000000000E+00,5.66000000000000E+00,5.11000000000000E+00,5.11000000000000E+00,4.10000000000000E+00,4.20000000000000E+00,4.11000000000000E+00,4.13000000000000E+00,4.13000000000000E+00,5.43000000000000E+00,
CMR,,,,,,,,,,,,,,,,,,,,,,,,,,,,,,,,,,,1.42500000000000E+01,1.70400000000000E+01,,,,,,1.35100000000000E+01,1.44600000000000E+01,,,1.38300000000000E+01,,1.07700000000000E+01,,1.28600000000000E+01,,
COG,,,,,,,,,,,,,,,,,,,,,,,,,,,,,,,,,,,2.05000000000000E+01,,,1.53600000000000E+01,,,,2.27500000000000E+01,2.25100000000000E+01,,,2.13500000000000E+01,,1.85800000000000E+01,,,,
COL,,,,,,,,,,,,,,,,,,,,,,,,,,,,,,,,7.52000000000000E+00,1.06200000000000E+01,,1.20800000000000E+01,1.14500000000000E+01,1.24000000000000E+01,1.23400000000000E+01,,1.32100000000000E+01,1.26900000000000E+01,1.30600000000000E+01,1.29900000000000E+01,,1.02600000000000E+01,9.50000000000000E+00,7.91000000000000E+00,8.20000000000000E+00,7.69000000000000E+00,7.57000000000000E+00,8.83000000000000E+00,
COM,,,,,,,,,,,,,,,,,,,,,,,,,,,,,,,,,,,,,,,,,,,,,,,,,3.83000000000000E+00,,3.89000000000000E+00,
CPV,,,,,,,,,,,,,,,,,,,,,,,,,,,,,,,,,,,,,,,,,,,,,,1.41300000000000E+01,,1.05300000000000E+01,1.26200000000000E+01,1.20900000000000E+01,1.22300000000000E+01,
CRI,,,,,,,,,,,,,,,,,,,,,,,,,,,,,,,,,,,,1.05000000000000E+01,,,,6.46000000000000E+00,6.05000000000000E+00,7.92000000000000E+00,7.18000000000000E+00,,5.84000000000000E+00,6.10000000000000E+00,,5.10000000000000E+00,,3.25000000000000E+00,,
CUB,,,,,,,,,,,,,,,,,,,,,,,,,,,,,,,,,,7.20000000000000E+00,,,,6.30000000000000E+00,,,,,6.04000000000000E+00,6.45000000000000E+00,5.15000000000000E+00,5.01000000000000E+00,8.38000000000000E+00,4.96000000000000E+00,8.15000000000000E+00,7.64000000000000E+00,6.23000000000000E+00,
CYP,,,,,,,,,,,,,,,,,,,,,,,,,,,,,2.73000000000000E+00,2.71000000000000E+00,3.70000000000000E+00,3.73000000000000E+00,4.06000000000000E+00,3.62000000000000E+00,3.54000000000000E+00,8.79000000000000E+00,6.23000000000000E+00,5.58000000000000E+00,4.80000000000000E+00,3.31000000000000E+00,2.52000000000000E+00,3.96000000000000E+00,2.47000000000000E+00,2.68000000000000E+00,2.65000000000000E+00,1.93000000000000E+00,2.01000000000000E+00,1.84000000000000E+00,1.72000000000000E+00,1.22000000000000E+00,5.40000000000000E-01,
CZE,,,,,,,,,,,,,,,,,,,,,,,,,,,,,2.73000000000000E+00,2.71000000000000E+00,3.70000000000000E+00,3.73000000000000E+00,4.06000000000000E+00,3.62000000000000E+00,3.54000000000000E+00,8.79000000000000E+00,6.23000000000000E+00,5.58000000000000E+00,4.80000000000000E+00,3.31000000000000E+00,2.52000000000000E+00,3.96000000000000E+00,2.47000000000000E+00,2.68000000000000E+00,2.65000000000000E+00,1.93000000000000E+00,2.01000000000000E+00,1.84000000000000E+00,1.72000000000000E+00,1.22000000000000E+00,5.40000000000000E-01,
DEU,,,,,,,,,,,,,,,,,,,,,,,,,,,,,2.73000000000000E+00,2.71000000000000E+00,3.70000000000000E+00,3.73000000000000E+00,4.06000000000000E+00,3.62000000000000E+00,3.54000000000000E+00,8.79000000000000E+00,6.23000000000000E+00,5.58000000000000E+00,4.80000000000000E+00,3.31000000000000E+00,2.52000000000000E+00,3.96000000000000E+00,2.47000000000000E+00,2.68000000000000E+00,2.65000000000000E+00,1.93000000000000E+00,2.01000000000000E+00,1.84000000000000E+00,1.72000000000000E+00,1.22000000000000E+00,5.40000000000000E-01,
DJI,,,,,,,,,,,,,,,,,,,,,,,,,,,,,,,,,,,,,,,,,,,1.96800000000000E+01,,,,2.31200000000000E+01,,,8.74000000000000E+00,,
DMA,,,,,,,,,,,,,,,,,,,,,,,,,,,,,,,,,,,,,1.84800000000000E+01,,,1.52000000000000E+01,1.23800000000000E+01,1.78000000000000E+01,1.89500000000000E+01,1.79600000000000E+01,,,5.64000000000000E+00,5.68000000000000E+00,,,,
DNK,,,,,,,,,,,,,,,,,,,,,,,,,,,,,2.73000000000000E+00,2.71000000000000E+00,3.70000000000000E+00,3.73000000000000E+00,4.06000000000000E+00,3.62000000000000E+00,3.54000000000000E+00,8.79000000000000E+00,6.23000000000000E+00,5.58000000000000E+00,4.80000000000000E+00,3.31000000000000E+00,2.52000000000000E+00,3.96000000000000E+00,2.47000000000000E+00,2.68000000000000E+00,2.65000000000000E+00,1.93000000000000E+00,2.01000000000000E+00,1.84000000000000E+00,1.72000000000000E+00,1.22000000000000E+00,5.40000000000000E-01,
DOM,,,,,,,,,,,,,,,,,,,,,,,,,,,,,,,,,,,,,,9.77000000000000E+00,,,1.30100000000000E+01,7.11000000000000E+00,7.13000000000000E+00,7.03000000000000E+00,7.10000000000000E+00,7.67000000000000E+00,8.38000000000000E+00,3.86000000000000E+00,4.53000000000000E+00,,4.56000000000000E+00,
DZA,,,,,,,,,,,,,,,,,,,,,,,,,,,,,,,,,,8.94000000000000E+00,,,,1.26700000000000E+01,1.46400000000000E+01,,,1.04800000000000E+01,1.28700000000000E+01,1.05500000000000E+01,,9.16000000000000E+00,9.39000000000000E+00,9.19000000000000E+00,8.78000000000000E+00,7.75000000000000E+00,,
EAP,,,,,,,,,,,,,,,,,,,,,,,,,,,,,,,,,,,,,,,,1.34600000000000E+01,1.24500000000000E+01,1.13300000000000E+01,5.89000000000000E+00,5.38000000000000E+00,6.30000000000000E+00,3.67000000000000E+00,3.60000000000000E+00,3.19000000000000E+00,2.76000000000000E+00,2.25000000000000E+00,,
ECA,,,,,,,,,,,,,,,,,,,,,,,,,,,,,,,,,,,,,,,,6.35000000000000E+00,1.59000000000000E+00,8.12000000000000E+00,4.87000000000000E+00,4.01000000000000E+00,8.14000000000000E+00,6.58000000000000E+00,2.56000000000000E+00,5.61000000000000E+00,2.41000000000000E+00,3.13000000000000E+00,,
ECU,,,,,,,,,,,,,,,,,,,,,,,,,,,,,,,,,,6.41000000000000E+00,9.83000000000000E+00,9.54000000000000E+00,9.13000000000000E+00,8.29000000000000E+00,1.00200000000000E+01,1.03800000000000E+01,,,9.84000000000000E+00,,5.73000000000000E+00,5.31000000000000E+00,3.77000000000000E+00,3.28000000000000E+00,3.51000000000000E+00,3.01000000000000E+00,4.27000000000000E+00,
EGY,,,,,,,,,,,,,,,,,,,,,,,,,,,,,,,,,,,,7.65000000000000E+00,,,8.86000000000000E+00,,,,9.33000000000000E+00,,1.80700000000000E+01,1.76500000000000E+01,,,6.32000000000000E+00,6.35000000000000E+00,,
ERI,,,,,,,,,,,,,,,,,,,,,,,,,,,,,,,,,,,,,,,,,,,4.05000000000000E+00,,,,3.54000000000000E+00,,,,,
ESP,,,,,,,,,,,,,,,,,,,,,,,,,,,,,2.73000000000000E+00,2.71000000000000E+00,3.70000000000000E+00,3.73000000000000E+00,4.06000000000000E+00,3.62000000000000E+00,3.54000000000000E+00,8.79000000000000E+00,6.23000000000000E+00,5.58000000000000E+00,4.80000000000000E+00,3.31000000000000E+00,2.52000000000000E+00,3.96000000000000E+00,2.47000000000000E+00,2.68000000000000E+00,2.65000000000000E+00,1.93000000000000E+00,2.01000000000000E+00,1.84000000000000E+00,1.72000000000000E+00,1.22000000000000E+00,5.40000000000000E-01,
EST,,,,,,,,,,,,,,,,,,,,,,,,,,,,,2.73000000000000E+00,2.71000000000000E+00,3.70000000000000E+00,3.73000000000000E+00,4.06000000000000E+00,3.62000000000000E+00,3.54000000000000E+00,8.79000000000000E+00,6.23000000000000E+00,5.58000000000000E+00,4.80000000000000E+00,3.31000000000000E+00,2.52000000000000E+00,3.96000000000000E+00,2.47000000000000E+00,2.68000000000000E+00,2.65000000000000E+00,1.93000000000000E+00,2.01000000000000E+00,1.84000000000000E+00,1.72000000000000E+00,1.22000000000000E+00,5.40000000000000E-01,
ETH,,,,,,,,,,,,,,,,,,,,,,,,,,,,,,,,,,,,1.83800000000000E+01,,,,,,6.32000000000000E+00,6.73000000000000E+00,,,,7.83000000000000E+00,,6.61000000000000E+00,5.55000000000000E+00,5.14000000000000E+00,
EUU,,,,,,,,,,,,,,,,,,,,,,,,,,,,,,,,,,,,,,,,3.31000000000000E+00,2.52000000000000E+00,3.96000000000000E+00,2.47000000000000E+00,2.68000000000000E+00,2.65000000000000E+00,1.93000000000000E+00,2.01000000000000E+00,1.84000000000000E+00,1.72000000000000E+00,1.22000000000000E+00,5.40000000000000E-01,
FIN,,,,,,,,,,,,,,,,,,,,,,,,,,,,,2.73000000000000E+00,2.71000000000000E+00,3.70000000000000E+00,3.73000000000000E+00,4.06000000000000E+00,3.62000000000000E+00,3.54000000000000E+00,8.79000000000000E+00,6.23000000000000E+00,5.58000000000000E+00,4.80000000000000E+00,3.31000000000000E+00,2.52000000000000E+00,3.96000000000000E+00,2.47000000000000E+00,2.68000000000000E+00,2.65000000000000E+00,1.93000000000000E+00,2.01000000000000E+00,1.84000000000000E+00,1.72000000000000E+00,1.22000000000000E+00,5.40000000000000E-01,
FJI,,,,,,,,,,,,,,,,,,,,,,,,,,,,,,,,,,,,,,,,,,,,,,,,,7.27000000000000E+00,8.89000000000000E+00,9.84000000000000E+00,
FRA,,,,,,,,,,,,,,,,,,,,,,,,,,,,,2.73000000000000E+00,2.71000000000000E+00,3.70000000000000E+00,3.73000000000000E+00,4.06000000000000E+00,3.62000000000000E+00,3.54000000000000E+00,8.79000000000000E+00,6.23000000000000E+00,5.58000000000000E+00,4.80000000000000E+00,3.31000000000000E+00,2.52000000000000E+00,3.96000000000000E+00,2.47000000000000E+00,2.68000000000000E+00,2.65000000000000E+00,1.93000000000000E+00,2.01000000000000E+00,1.84000000000000E+00,1.72000000000000E+00,1.22000000000000E+00,5.40000000000000E-01,
GAB,,,,,,,,,,,,,,,,,,,,,,,,,,,,,,,,,,,,2.02000000000000E+01,,,2.03200000000000E+01,,,1.91600000000000E+01,1.96600000000000E+01,,,1.94300000000000E+01,,1.41900000000000E+01,1.52000000000000E+01,1.50500000000000E+01,,
GBR,,,,,,,,,,,,,,,,,,,,,,,,,,,,,2.73000000000000E+00,2.71000000000000E+00,3.70000000000000E+00,3.73000000000000E+00,4.06000000000000E+00,3.62000000000000E+00,3.54000000000000E+00,8.79000000000000E+00,6.23000000000000E+00,5.58000000000000E+00,4.80000000000000E+00,3.31000000000000E+00,2.52000000000000E+00,3.96000000000000E+00,2.47000000000000E+00,2.68000000000000E+00,2.65000000000000E+00,1.93000000000000E+00,2.01000000000000E+00,1.84000000000000E+00,1.72000000000000E+00,1.22000000000000E+00,5.40000000000000E-01,
GEO,,,,,,,,,,,,,,,,,,,,,,,,,,,,,,,,,,,,,,,,1.19800000000000E+01,,,1.30500000000000E+01,1.28200000000000E+01,1.31500000000000E+01,,4.36000000000000E+00,1.26000000000000E+00,1.18000000000000E+00,1.16000000000000E+00,1.04000000000000E+00,
GHA,,,,,,,,,,,,,,,,,,,,,,,,,,,,,,,,,,1.36000000000000E+01,,,,,,,2.72400000000000E+01,,,,1.71000000000000E+01,,,1.43500000000000E+01,1.43500000000000E+01,8.88000000000000E+00,,
GIN,,,,,,,,,,,,,,,,,,,,,,,,,,,,,,,,,,,,,,,,,,,,,,1.42600000000000E+01,,,1.39600000000000E+01,1.38700000000000E+01,1.38700000000000E+01,
GMB,,,,,,,,,,,,,,,,,,,,,,,,,,,,,,,,,,,,,,,,,,,,,,,,1.32600000000000E+01,1.21500000000000E+01,1.27600000000000E+01,,
GNB,,,,,,,,,,,,,,,,,,,,,,,,,,,,,,,,,,,,,,,,,,1.61200000000000E+01,1.38200000000000E+01,1.45100000000000E+01,1.33000000000000E+01,1.06600000000000E+01,8.99000000000000E+00,1.76000000000000E+01,1.09200000000000E+01,1.09200000000000E+01,1.00000000000000E+01,
GNQ,,,,,,,,,,,,,,,,,,,,,,,,,,,,,,,,,,,,,,,2.36100000000000E+01,,,1.87400000000000E+01,2.44900000000000E+01,,,1.84500000000000E+01,,2.14400000000000E+01,,,,
GRC,,,,,,,,,,,,,,,,,,,,,,,,,,,,,2.73000000000000E+00,2.71000000000000E+00,3.70000000000000E+00,3.73000000000000E+00,4.06000000000000E+00,3.62000000000000E+00,3.54000000000000E+00,8.79000000000000E+00,6.23000000000000E+00,5.58000000000000E+00,4.80000000000000E+00,3.31000000000000E+00,2.52000000000000E+00,3.96000000000000E+00,2.47000000000000E+00,2.68000000000000E+00,2.65000000000000E+00,1.93000000000000E+00,2.01000000000000E+00,1.84000000000000E+00,1.72000000000000E+00,1.22000000000000E+00,5.40000000000000E-01,
GRD,,,,,,,,,,,,,,,,,,,,,,,,,,,,,,,,,,,,,1.53000000000000E+01,,,1.53700000000000E+01,,1.51200000000000E+01,1.34900000000000E+01,1.41800000000000E+01,,,9.70000000000000E+00,8.44000000000000E+00,9.92000000000000E+00,,7.00000000000000E+00,
GTM,,,,,,,,,,,,,,,,,,,,,,,,,,,,,,,,,,,,1.02300000000000E+01,,7.39000000000000E+00,1.00800000000000E+01,,7.50000000000000E+00,7.87000000000000E+00,7.02000000000000E+00,,5.01000000000000E+00,5.46000000000000E+00,,4.18000000000000E+00,2.35000000000000E+00,2.05000000000000E+00,1.73000000000000E+00,
GUY,,,,,,,,,,,,,,,,,,,,,,,,,,,,,,,,,,,,,1.92400000000000E+01,,,1.47400000000000E+01,1.49900000000000E+01,1.45000000000000E+01,1.46000000000000E+01,1.40900000000000E+01,,,4.10000000000000E+00,,5.87000000000000E+00,,5.87000000000000E+00,
HIC,,,,,,,,,,,,,,,,,,,,,,,,,,,,,,,,,,,,,,,,4.07000000000000E+00,3.26000000000000E+00,4.63000000000000E+00,4.62000000000000E+00,3.75000000000000E+00,3.62000000000000E+00,2.00000000000000E+00,2.80000000000000E+00,2.92000000000000E+00,2.07000000000000E+00,2.40000000000000E+00,,
HKG,,,,,,,,,,,,,,,,,,,,,,,,,,,,,0.00000000000000E+00,,,,,,,,,,0.00000000000000E+00,,,,,,,0.00000000000000E+00,0.00000000000000E+00,0.00000000000000E+00,0.00000000000000E+00,0.00000000000000E+00,0.00000000000000E+00,
HND,,,,,,,,,,,,,,,,,,,,,,,,,,,,,,,,,,,,1.28800000000000E+01,,,,1.17900000000000E+01,1.10200000000000E+01,1.23600000000000E+01,1.01100000000000E+01,,7.84000000000000E+00,7.17000000000000E+00,,5.37000000000000E+00,3.45000000000000E+00,8.05000000000000E+00,,
HRV,,,,,,,,,,,,,,,,,,,,,,,,,,,,,,,,,,,,,,,,,,3.98000000000000E+00,,,2.78000000000000E+00,2.27000000000000E+00,2.23000000000000E+00,1.93000000000000E+00,1.90000000000000E+00,2.29000000000000E+00,1.90000000000000E+00,
HTI,,,,,,,,,,,,,,,,,,,,,,,,,,,,,,,,,,,,,,,,,,,,,,,,4.40000000000000E+00,3.86000000000000E+00,4.06000000000000E+00,,
HUN,,,,,,,,,,,,,,,,,,,,,,,,,,,,,2.73000000000000E+00,2.71000000000000E+00,3.70000000000000E+00,3.73000000000000E+00,4.06000000000000E+00,3.62000000000000E+00,3.54000000000000E+00,8.79000000000000E+00,6.23000000000000E+00,5.58000000000000E+00,4.80000000000000E+00,3.31000000000000E+00,2.52000000000000E+00,3.96000000000000E+00,2.47000000000000E+00,2.68000000000000E+00,2.65000000000000E+00,1.93000000000000E+00,2.01000000000000E+00,1.84000000000000E+00,1.72000000000000E+00,1.22000000000000E+00,5.40000000000000E-01,
IDN,,,,,,,,,,,,,,,,,,,,,,,,,,,,,,5.81000000000000E+00,5.26000000000000E+00,,,5.95000000000000E+00,,4.84000000000000E+00,3.72000000000000E+00,,,3.25000000000000E+00,2.76000000000000E+00,2.37000000000000E+00,4.14000000000000E+00,3.05000000000000E+00,3.60000000000000E+00,3.33000000000000E+00,3.33000000000000E+00,2.56000000000000E+00,,2.28000000000000E+00,1.57000000000000E+00,
IND,,,,,,,,,,,,,,,,,,,,,,,,,,,,,,,2.71300000000000E+01,,9.14000000000000E+00,,,,,1.61900000000000E+01,,2.32900000000000E+01,,2.29900000000000E+01,,,1.86800000000000E+01,1.43100000000000E+01,,,7.71000000000000E+00,7.54000000000000E+00,,
IRL,,,,,,,,,,,,,,,,,,,,,,,,,,,,,2.73000000000000E+00,2.71000000000000E+00,3.70000000000000E+00,3.73000000000000E+00,4.06000000000000E+00,3.62000000000000E+00,3.54000000000000E+00,8.79000000000000E+00,6.23000000000000E+00,5.58000000000000E+00,4.80000000000000E+00,3.31000000000000E+00,2.52000000000000E+00,3.96000000000000E+00,2.47000000000000E+00,2.68000000000000E+00,2.65000000000000E+00,1.93000000000000E+00,2.01000000000000E+00,1.84000000000000E+00,1.72000000000000E+00,1.22000000000000E+00,5.40000000000000E-01,
IRN,,,,,,,,,,,,,,,,,,,,,,,,,,,,,,,,,,,,,,,,,6.56000000000000E+00,,,1.16000000000000E+01,1.10700000000000E+01,,,1.53600000000000E+01,1.24900000000000E+01,,,
ISL,,,,,,,,,,,,,,,,,,,,,,,,,,,,,,,,,,5.21000000000000E+00,,,5.92000000000000E+00,,,,,4.42000000000000E+00,,3.79000000000000E+00,,,2.91000000000000E+00,5.38000000000000E+00,3.76000000000000E+00,2.39000000000000E+00,1.10000000000000E+00,
ISR,,,,,,,,,,,,,,,,,,,,,,,,,,,,,,,,,,1.89000000000000E+00,,,,,,,,,,,2.90000000000000E+00,3.90000000000000E+00,2.51000000000000E+00,1.25000000000000E+00,1.37000000000000E+00,3.25000000000000E+00,,
ITA,,,,,,,,,,,,,,,,,,,,,,,,,,,,,2.73000000000000E+00,2.71000000000000E+00,3.70000000000000E+00,3.73000000000000E+00,4.06000000000000E+00,3.62000000000000E+00,3.54000000000000E+00,8.79000000000000E+00,6.23000000000000E+00,5.58000000000000E+00,4.80000000000000E+00,3.31000000000000E+00,2.52000000000000E+00,3.96000000000000E+00,2.47000000000000E+00,2.68000000000000E+00,2.65000000000000E+00,1.93000000000000E+00,2.01000000000000E+00,1.84000000000000E+00,1.72000000000000E+00,1.22000000000000E+00,5.40000000000000E-01,
JAM,,,,,,,,,,,,,,,,,,,,,,,,,,,,,,,,,,,,,1.42100000000000E+01,,,1.43000000000000E+01,9.54000000000000E+00,1.00900000000000E+01,1.09900000000000E+01,1.13300000000000E+01,,,9.41000000000000E+00,8.63000000000000E+00,,,6.05000000000000E+00,
JOR,,,,,,,,,,,,,,,,,,,,,,,,,,,,,,,,,,,,,,,,,1.69700000000000E+01,1.13900000000000E+01,1.16600000000000E+01,1.19300000000000E+01,,3.97000000000000E+00,3.42000000000000E+00,3.84000000000000E+00,3.62000000000000E+00,3.85000000000000E+00,,
JPN,,,,,,,,,,,,,,,,,,,,,,,,,,,,,4.82000000000000E+00,4.90000000000000E+00,4.67000000000000E+00,5.42000000000000E+00,5.70000000000000E+00,5.82000000000000E+00,5.90000000000000E+00,9.58000000000000E+00,5.71770000000000E+02,4.66000000000000E+00,5.03000000000000E+00,6.00000000000000E+00,4.93000000000000E+00,7.78000000000000E+00,8.34000000000000E+00,7.60000000000000E+00,4.51000000000000E+00,3.72000000000000E+00,3.55000000000000E+00,3.83000000000000E+00,3.37000000000000E+00,2.18000000000000E+00,1.55000000000000E+00,
KAZ,,,,,,,,,,,,,,,,,,,,,,,,,,,,,,,,,,,,,8.22000000000000E+00,,,,,,,,3.35000000000000E+00,,,,1.30000000000000E+00,,9.20000000000000E-01,
KEN,,,,,,,,,,,,,,,,,,,,,,,,,,,,,,,,,,,1.69900000000000E+01,,,,,,1.93900000000000E+01,2.06900000000000E+01,,,1.01000000000000E+01,6.50000000000000E+00,5.14000000000000E+00,7.00000000000000E+00,6.05000000000000E+00,8.40000000000000E+00,1.25700000000000E+01,
KGZ,,,,,,,,,,,,,,,,,,,,,,,,,,,,,,,,,,,,0.00000000000000E+00,,,,,,,6.34000000000000E+00,6.19000000000000E+00,,,9.00000000000000E-01,6.90000000000000E-01,1.30000000000000E+00,1.19000000000000E+00,9.40000000000000E-01,
KHM,,,,,,,,,,,,,,,,,,,,,,,,,,,,,,,,,,,,,,,,,,1.61000000000000E+01,1.50300000000000E+01,1.55700000000000E+01,,1.12200000000000E+01,,1.05100000000000E+01,1.18300000000000E+01,,,
KNA,,,,,,,,,,,,,,,,,,,,,,,,,,,,,,,,,,,,,1.75500000000000E+01,,,1.55100000000000E+01,1.24000000000000E+01,1.36500000000000E+01,1.37800000000000E+01,1.33800000000000E+01,,,1.16700000000000E+01,1.11200000000000E+01,1.14600000000000E+01,1.45100000000000E+01,7.01000000000000E+00,
KOR,,,,,,,,,,,,,,,,,,,,,,,,,,,,,8.15000000000000E+00,5.57000000000000E+00,6.19000000000000E+00,,6.26000000000000E+00,,,5.85000000000000E+00,3.14600000000000E+01,,,5.54000000000000E+00,,,1.89300000000000E+01,,1.75500000000000E+01,,1.14000000000000E+01,1.14700000000000E+01,,1.28300000000000E+01,1.27400000000000E+01,
KWT,,,,,,,,,,,,,,,,,,,,,,,,,,,,,,,,,,,,,,,,,,,3.69000000000000E+00,,,2.49000000000000E+00,2.49000000000000E+00,2.86000000000000E+00,3.09000000000000E+00,2.96000000000000E+00,,
LAC,,,,,,,,,,,,,,,,,,,,,,,,,,,,,,,,,,,,,,,,9.78000000000000E+00,1.20000000000000E+01,1.19800000000000E+01,6.99000000000000E+00,1.34700000000000E+01,3.55000000000000E+00,3.67000000000000E+00,2.57000000000000E+00,3.23000000000000E+00,2.06000000000000E+00,3.10000000000000E+00,,
LAO,,,,,,,,,,,,,,,,,,,,,,,,,,,,,,,,,,,,,,,,,1.46200000000000E+01,1.73300000000000E+01,,,1.50600000000000E+01,1.35000000000000E+01,1.16600000000000E+01,8.33000000000000E+00,1.42300000000000E+01,,,
LBN,,,,,,,,,,,,,,,,,,,,,,,,,,,,,,,,,,,,,,,,1.11900000000000E+01,1.96900000000000E+01,1.11800000000000E+01,6.04000000000000E+00,,4.65000000000000E+00,5.19000000000000E+00,3.59000000000000E+00,5.03000000000000E+00,,,,
LBY,,,,,,,,,,,,,,,,,,,,,,,,,,,,,,,,,,,,,9.64000000000000E+00,,,,,,1.49600000000000E+01,,,,0.00000000000000E+00,,,,,
LCA,,,,,,,,,,,,,,,,,,,,,,,,,,,,,,,,,,,,,1.55500000000000E+01,,,1.46100000000000E+01,1.45700000000000E+01,1.28900000000000E+01,1.28000000000000E+01,1.29800000000000E+01,,1.40500000000000E+01,6.04000000000000E+00,4.92000000000000E+00,,,,
LIC,,,,,,,,,,,,,,,,,,,,,,,,,,,,,,,,,,,,,,,,1.56000000000000E+01,1.53200000000000E+01,1.07800000000000E+01,1.30900000000000E+01,1.33500000000000E+01,1.08100000000000E+01,9.15000000000000E+00,7.14000000000000E+00,7.27000000000000E+00,7.48000000000000E+00,7.92000000000000E+00,,
LKA,,,,,,,,,,,,,,,,,,,,,,,,,,,,,,,3.22400000000000E+01,,,4.31900000000000E+01,3.98600000000000E+01,,,4.06300000000000E+01,,,1.11800000000000E+01,1.09400000000000E+01,,,8.16000000000000E+00,9.90000000000000E+00,9.03000000000000E+00,,,9.39000000000000E+00,9.56000000000000E+00,
LMC,,,,,,,,,,,,,,,,,,,,,,,,,,,,,,,,,,,,,,,,1.64200000000000E+01,9.05000000000000E+00,1.43800000000000E+01,9.49000000000000E+00,9.19000000000000E+00,1.29900000000000E+01,1.13600000000000E+01,6.36000000000000E+00,6.45000000000000E+00,5.98000000000000E+00,5.56000000000000E+00,,
LMY,,,,,,,,,,,,,,,,,,,,,,,,,,,,,,,,,,,,,,,,1.28500000000000E+01,1.28500000000000E+01,1.25900000000000E+01,8.44000000000000E+00,8.09000000000000E+00,7.79000000000000E+00,6.01000000000000E+00,3.94000000000000E+00,4.05000000000000E+00,3.49000000000000E+00,3.51000000000000E+00,,
LSO,,,,,,,,,,,,,,,,,,,,,,,,,,,,,,,,,,,,,,,,,,9.42000000000000E+00,,,3.03000000000000E+00,3.13000000000000E+00,3.12000000000000E+00,5.01000000000000E+00,8.70000000000000E-01,3.53000000000000E+00,1.58000000000000E+00,
LTU,,,,,,,,,,,,,,,,,,,,,,,,,,,,,2.73000000000000E+00,2.71000000000000E+00,3.70000000000000E+00,3.73000000000000E+00,4.06000000000000E+00,3.62000000000000E+00,3.54000000000000E+00,8.79000000000000E+00,6.23000000000000E+00,5.58000000000000E+00,4.80000000000000E+00,3.31000000000000E+00,2.52000000000000E+00,3.96000000000000E+00,2.47000000000000E+00,2.68000000000000E+00,2.65000000000000E+00,1.93000000000000E+00,2.01000000000000E+00,1.84000000000000E+00,1.72000000000000E+00,1.22000000000000E+00,5.40000000000000E-01,
LUX,,,,,,,,,,,,,,,,,,,,,,,,,,,,,2.73000000000000E+00,2.71000000000000E+00,3.70000000000000E+00,3.73000000000000E+00,4.06000000000000E+00,3.62000000000000E+00,3.54000000000000E+00,8.79000000000000E+00,6.23000000000000E+00,5.58000000000000E+00,4.80000000000000E+00,3.31000000000000E+00,2.52000000000000E+00,3.96000000000000E+00,2.47000000000000E+00,2.68000000000000E+00,2.65000000000000E+00,1.93000000000000E+00,2.01000000000000E+00,1.84000000000000E+00,1.72000000000000E+00,1.22000000000000E+00,5.40000000000000E-01,
LVA,,,,,,,,,,,,,,,,,,,,,,,,,,,,,2.73000000000000E+00,2.71000000000000E+00,3.70000000000000E+00,3.73000000000000E+00,4.06000000000000E+00,3.62000000000000E+00,3.54000000000000E+00,8.79000000000000E+00,6.23000000000000E+00,5.58000000000000E+00,4.80000000000000E+00,3.31000000000000E+00,2.52000000000000E+00,3.96000000000000E+00,2.47000000000000E+00,2.68000000000000E+00,2.65000000000000E+00,1.93000000000000E+00,2.01000000000000E+00,1.84000000000000E+00,1.72000000000000E+00,1.22000000000000E+00,5.40000000000000E-01,
MAC,,,,,,,,,,,,,,,,,,,,,,,,,,,,,,,,,,,,,,,,,,,,,,,,0.00000000000000E+00,0.00000000000000E+00,0.00000000000000E+00,0.00000000000000E+00,
MAR,,,,,,,,,,,,,,,,,,,,,,,,,,,,,,,,,,3.01900000000000E+01,,,,1.56400000000000E+01,,,2.36500000000000E+01,2.21400000000000E+01,2.20400000000000E+01,2.53800000000000E+01,,1.21400000000000E+01,1.08900000000000E+01,1.15300000000000E+01,1.13700000000000E+01,8.93000000000000E+00,,
MDA,,,,,,,,,,,,,,,,,,,,,,,,,,,,,,,,,,,,,1.51000000000000E+00,,,,1.59000000000000E+00,2.68000000000000E+00,,,,,1.37000000000000E+00,,3.61000000000000E+00,,2.28000000000000E+00,
MDG,,,,,,,,,,,,,,,,,,,,,,,,,,,,,,,,,,,,2.94000000000000E+00,,,,,,1.51000000000000E+00,,,,6.81000000000000E+00,4.69000000000000E+00,4.38000000000000E+00,4.18000000000000E+00,,3.34000000000000E+00,
MDV,,,,,,,,,,,,,,,,,,,,,,,,,,,,,,,,,,,,,,,,,1.92300000000000E+01,1.85900000000000E+01,1.71500000000000E+01,1.85400000000000E+01,1.70300000000000E+01,1.96400000000000E+01,1.95200000000000E+01,,1.84200000000000E+01,1.84100000000000E+01,,
MEX,,,,,,,,,,,,,,,,,,,,,,,,,,,,,,,,8.25000000000000E+00,,,,5.75000000000000E+00,,1.70900000000000E+01,1.91400000000000E+01,1.23400000000000E+01,2.01400000000000E+01,2.16400000000000E+01,7.07000000000000E+00,2.15300000000000E+01,1.98000000000000E+00,2.19000000000000E+00,1.78000000000000E+00,,1.23000000000000E+00,1.29000000000000E+00,1.15400000000000E+01,
MIC,,,,,,,,,,,,,,,,,,,,,,,,,,,,,,,,,,,,,,,,1.27800000000000E+01,1.26600000000000E+01,1.26800000000000E+01,8.14000000000000E+00,7.83000000000000E+00,7.67000000000000E+00,5.94000000000000E+00,3.82000000000000E+00,3.92000000000000E+00,3.34000000000000E+00,3.39000000000000E+00,,
MKD,,,,,,,,,,,,,,,,,,,,,,,,,,,,,,,,,,,,,,,,,,1.06200000000000E+01,,,8.12000000000000E+00,6.41000000000000E+00,5.41000000000000E+00,5.35000000000000E+00,4.76000000000000E+00,6.70000000000000E+00,5.68000000000000E+00,
MLI,,,,,,,,,,,,,,,,,,,,,,,,,,,,,,,,,,,,1.33700000000000E+01,,,,,,1.07000000000000E+01,1.10700000000000E+01,1.03900000000000E+01,1.05400000000000E+01,1.01200000000000E+01,8.21000000000000E+00,9.83000000000000E+00,7.87000000000000E+00,7.87000000000000E+00,7.87000000000000E+00,
MLT,,,,,,,,,,,,,,,,,,,,,,,,,,,,,2.73000000000000E+00,2.71000000000000E+00,3.70000000000000E+00,3.73000000000000E+00,4.06000000000000E+00,3.62000000000000E+00,3.54000000000000E+00,8.79000000000000E+00,6.23000000000000E+00,5.58000000000000E+00,4.80000000000000E+00,3.31000000000000E+00,2.52000000000000E+00,3.96000000000000E+00,2.47000000000000E+00,2.68000000000000E+00,2.65000000000000E+00,1.93000000000000E+00,2.01000000000000E+00,1.84000000000000E+00,1.72000000000000E+00,1.22000000000000E+00,5.40000000000000E-01,
MMR,,,,,,,,,,,,,,,,,,,,,,,,,,,,,,,,,,,,,,,,,,5.10000000000000E+00,5.42000000000000E+00,4.89000000000000E+00,4.62000000000000E+00,4.80000000000000E+00,4.24000000000000E+00,4.50000000000000E+00,2.74000000000000E+00,,,
MNA,,,,,,,,,,,,,,,,,,,,,,,,,,,,,,,,,,,,,,,,1.11900000000000E+01,1.59600000000000E+01,1.48300000000000E+01,1.60600000000000E+01,1.64300000000000E+01,1.29700000000000E+01,1.03200000000000E+01,7.91000000000000E+00,8.89000000000000E+00,8.54000000000000E+00,6.82000000000000E+00,,
MNE,,,,,,,,,,,,,,,,,,,,,,,,,,,,,,,,,,,,,,,,,,,,,,,,5.35000000000000E+00,5.34000000000000E+00,1.22500000000000E+01,4.78000000000000E+00,
MNG,,,,,,,,,,,,,,,,,,,,,,,,,,,,,,,,,,,,,,,,,,,,,,5.10000000000000E+00,5.09000000000000E+00,5.41000000000000E+00,5.41000000000000E+00,5.41000000000000E+00,,
MOZ,,,,,,,,,,,,,,,,,,,,,,,,,,,,,,,,,,,5.00000000000000E+00,,,2.15800000000000E+01,,,,8.10000000000000E+00,7.22000000000000E+00,7.22000000000000E+00,,9.07000000000000E+00,6.68000000000000E+00,8.01000000000000E+00,,4.37000000000000E+00,4.74000000000000E+00,
MRT,,,,,,,,,,,,,,,,,,,,,,,,,,,,,,,,,,,,,,,,,,9.95000000000000E+00,,,,,9.30000000000000E+00,9.19000000000000E+00,,,,
MUS,,,,,,,,,,,,,,,,,,,,,,,,,,,,,,,,,,,,2.58300000000000E+01,,2.02100000000000E+01,1.53200000000000E+01,,,,9.88000000000000E+00,,,5.36000000000000E+00,1.48000000000000E+00,2.77000000000000E+00,1.49000000000000E+00,3.50000000000000E-01,3.50000000000000E-01,
MWI,,,,,,,,,,,,,,,,,,,,,,,,,,,,,,,,,,,1.28500000000000E+01,,1.66900000000000E+01,1.96700000000000E+01,6.55000000000000E+00,,,8.97000000000000E+00,,,,,6.04000000000000E+00,,5.68000000000000E+00,8.63000000000000E+00,5.98000000000000E+00,
MYS,,,,,,,,,,,,,,,,,,,,,,,,,,,,,4.62000000000000E+00,,,4.38000000000000E+00,,4.59000000000000E+00,,,7.84000000000000E+00,7.19000000000000E+00,,,,2.41000000000000E+00,2.12000000000000E+00,2.04000000000000E+00,,2.24000000000000E+00,2.40000000000000E+00,2.33000000000000E+00,2.20000000000000E+00,5.04000000000000E+00,,
MYT,,,,,,,,,,,,,,,,,,,,,,,,,,,,,,,,,,,,,,,,,,,,,,,,1.25000000000000E+00,1.25000000000000E+00,1.25000000000000E+00,1.49000000000000E+00,
NAM,,,,,,,,,,,,,,,,,,,,,,,,,,,,,,,,,,,,,,,,,,4.10000000000000E-01,,,3.60000000000000E+00,6.30000000000000E-01,6.60000000000000E-01,6.60000000000000E-01,6.80000000000000E-01,2.07000000000000E+00,2.09000000000000E+00,
NER,,,,,,,,,,,,,,,,,,,,,,,,,,,,,,,,,,,,,,,,,,1.38700000000000E+01,1.29700000000000E+01,1.18300000000000E+01,1.18800000000000E+01,1.19700000000000E+01,9.96000000000000E+00,1.06000000000000E+01,1.07100000000000E+01,1.07100000000000E+01,1.07100000000000E+01,
NGA,,,,,,,,,,,,,,,,,,,,,,,,,,,,,3.23300000000000E+01,3.25200000000000E+01,3.26000000000000E+01,,3.24300000000000E+01,,,1.98230000000000E+02,1.79200000000000E+01,1.79400000000000E+01,1.79400000000000E+01,2.20300000000000E+01,2.52200000000000E+01,2.83400000000000E+01,2.66900000000000E+01,,,1.50800000000000E+01,1.30400000000000E+01,,9.60000000000000E+00,1.01300000000000E+01,9.11000000000000E+00,
NIC,,,,,,,,,,,,,,,,,,,,,,,,,,,,,,,,,,,,7.11000000000000E+00,,,5.79000000000000E+00,1.04700000000000E+01,3.83000000000000E+00,4.18000000000000E+00,3.64000000000000E+00,,3.79000000000000E+00,5.39000000000000E+00,,3.86000000000000E+00,,2.99000000000000E+00,2.82000000000000E+00,
NLD,,,,,,,,,,,,,,,,,,,,,,,,,,,,,2.73000000000000E+00,2.71000000000000E+00,3.70000000000000E+00,3.73000000000000E+00,4.06000000000000E+00,3.62000000000000E+00,3.54000000000000E+00,8.79000000000000E+00,6.23000000000000E+00,5.58000000000000E+00,4.80000000000000E+00,3.31000000000000E+00,2.52000000000000E+00,3.96000000000000E+00,2.47000000000000E+00,2.68000000000000E+00,2.65000000000000E+00,1.93000000000000E+00,2.01000000000000E+00,1.84000000000000E+00,1.72000000000000E+00,1.22000000000000E+00,5.40000000000000E-01,
NOC,,,,,,,,,,,,,,,,,,,,,,,,,,,,,,,,,,,,,,,,9.08000000000000E+00,8.17000000000000E+00,1.30200000000000E+01,4.24000000000000E+00,4.41000000000000E+00,2.39000000000000E+00,1.86000000000000E+00,1.74000000000000E+00,1.52000000000000E+00,1.50000000000000E+00,1.40000000000000E+00,7.90000000000000E-01,
NOR,,,,,,,,,,,,,,,,,,,,,,,,,,,,,8.70000000000000E-01,,,,,8.00000000000000E-01,,7.29000000000000E+00,2.73000000000000E+00,,2.57000000000000E+00,,2.52000000000000E+00,1.50000000000000E+00,9.38000000000000E+00,7.97000000000000E+00,,,7.20000000000000E+00,1.02200000000000E+01,1.08900000000000E+01,7.86000000000000E+00,1.18000000000000E+00,
NPL,,,,,,,,,,,,,,,,,,,,,,,,,,,,,,,,,,9.27000000000000E+00,,,,,1.70900000000000E+01,1.16500000000000E+01,1.36400000000000E+01,,8.71000000000000E+00,9.16000000000000E+00,9.32000000000000E+00,9.27000000000000E+00,9.89000000000000E+00,9.67000000000000E+00,,1.10300000000000E+01,1.03300000000000E+01,
NZL,,,,,,,,,,,,,,,,,,,,,,,,,,,,,,,,,7.66000000000000E+00,9.04000000000000E+00,,,1.53000000000000E+00,2.73000000000000E+00,1.29000000000000E+00,1.13000000000000E+00,7.50000000000000E-01,,8.17000000000000E+00,8.21000000000000E+00,1.16500000000000E+01,6.59000000000000E+00,3.10600000000000E+01,4.50000000000000E-01,4.20000000000000E-01,4.80000000000000E-01,4.10000000000000E-01,
OEC,,,,,,,,,,,,,,,,,,,,,,,,,,,,,,,,,,,,,,,,3.81000000000000E+00,3.01000000000000E+00,3.92000000000000E+00,4.65000000000000E+00,3.68000000000000E+00,3.67000000000000E+00,2.03000000000000E+00,2.93000000000000E+00,3.09000000000000E+00,2.16000000000000E+00,2.56000000000000E+00,,
OED,,,,,,,,,,,,,,,,,,,,,,,,,,,,,,,,,,,,,,,,4.04000000000000E+00,3.46000000000000E+00,4.44000000000000E+00,4.74000000000000E+00,4.17000000000000E+00,3.63000000000000E+00,2.05000000000000E+00,2.91000000000000E+00,3.11000000000000E+00,2.13000000000000E+00,2.59000000000000E+00,2.24000000000000E+00,
OMN,,,,,,,,,,,,,,,,,,,,,,,,,,,,,,,,,1.41500000000000E+01,,,,,3.60000000000000E+00,,,,,3.16100000000000E+01,,,2.87000000000000E+00,3.13000000000000E+00,3.02000000000000E+00,3.02000000000000E+00,3.30000000000000E+00,,
PAK,,,,,,,,,,,,,,,,,,,,,,,,,,,,,,,,,,,,3.61700000000000E+01,,,3.47800000000000E+01,,,1.34500000000000E+01,1.04600000000000E+01,1.02500000000000E+01,9.35000000000000E+00,8.57000000000000E+00,8.85000000000000E+00,8.76000000000000E+00,6.29000000000000E+00,6.46000000000000E+00,,
PAN,,,,,,,,,,,,,,,,,,,,,,,,,,,,,,,,,,,,,,9.58000000000000E+00,9.65000000000000E+00,,6.14000000000000E+00,5.91000000000000E+00,,,,7.88000000000000E+00,7.60000000000000E+00,7.84000000000000E+00,7.87000000000000E+00,8.38000000000000E+00,,
PER,,,,,,,,,,,,,,,,,,,,,,,,,,,,,,,,,,1.57800000000000E+01,,1.52400000000000E+01,,1.37800000000000E+01,1.37600000000000E+01,1.35300000000000E+01,1.39300000000000E+01,,,,9.69000000000000E+00,9.77000000000000E+00,2.52000000000000E+00,2.74000000000000E+00,1.69000000000000E+00,1.16000000000000E+00,1.34000000000000E+00,
PHL,,,,,,,,,,,,,,,,,,,,,,,,,,,,,1.84500000000000E+01,1.85400000000000E+01,1.40400000000000E+01,,1.38500000000000E+01,1.64600000000000E+01,1.59400000000000E+01,1.59400000000000E+01,,,1.31300000000000E+01,9.73000000000000E+00,6.03000000000000E+00,5.89000000000000E+00,6.03000000000000E+00,4.97000000000000E+00,4.68000000000000E+00,5.33000000000000E+00,5.31000000000000E+00,5.20000000000000E+00,9.92000000000000E+00,5.18000000000000E+00,5.11000000000000E+00,
PLW,,,,,,,,,,,,,,,,,,,,,,,,,,,,,,,,,,,,,,,,,,,,,,5.50000000000000E-01,5.50000000000000E-01,,,,1.30000000000000E-01,
PNG,,,,,,,,,,,,,,,,,,,,,,,,,,,,,,,,,,,,,,1.92900000000000E+01,,,,,4.22000000000000E+00,3.13000000000000E+00,3.11000000000000E+00,3.08000000000000E+00,2.70000000000000E+00,2.43000000000000E+00,3.33000000000000E+00,,1.80000000000000E+00,
POL,,,,,,,,,,,,,,,,,,,,,,,,,,,,,2.73000000000000E+00,2.71000000000000E+00,3.70000000000000E+00,3.73000000000000E+00,4.06000000000000E+00,3.62000000000000E+00,3.54000000000000E+00,8.79000000000000E+00,6.23000000000000E+00,5.58000000000000E+00,4.80000000000000E+00,3.31000000000000E+00,2.52000000000000E+00,3.96000000000000E+00,2.47000000000000E+00,2.68000000000000E+00,2.65000000000000E+00,1.93000000000000E+00,2.01000000000000E+00,1.84000000000000E+00,1.72000000000000E+00,1.22000000000000E+00,5.40000000000000E-01,
PRT,,,,,,,,,,,,,,,,,,,,,,,,,,,,,2.73000000000000E+00,2.71000000000000E+00,3.70000000000000E+00,3.73000000000000E+00,4.06000000000000E+00,3.62000000000000E+00,3.54000000000000E+00,8.79000000000000E+00,6.23000000000000E+00,5.58000000000000E+00,4.80000000000000E+00,3.31000000000000E+00,2.52000000000000E+00,3.96000000000000E+00,2.47000000000000E+00,2.68000000000000E+00,2.65000000000000E+00,1.93000000000000E+00,2.01000000000000E+00,1.84000000000000E+00,1.72000000000000E+00,1.22000000000000E+00,5.40000000000000E-01,
PRY,,,,,,,,,,,,,,,,,,,,,,,,,,,,,,,,3.57000000000000E+00,,,7.58000000000000E+00,5.19000000000000E+00,1.28600000000000E+01,8.39000000000000E+00,1.43500000000000E+01,6.07000000000000E+00,8.60000000000000E+00,8.22000000000000E+00,8.10000000000000E+00,6.57000000000000E+00,1.86000000000000E+00,1.48000000000000E+00,1.11000000000000E+00,8.30000000000000E-01,1.09000000000000E+00,8.00000000000000E-01,7.90000000000000E-01,
PYF,,,,,,,,,,,,,,,,,,,,,,,,,,,,,,,,,,,,,,,,,,,,,,,,,2.45000000000000E+00,2.70000000000000E+00,,
QAT,,,,,,,,,,,,,,,,,,,,,,,,,,,,,,,,,,,,,,,,,,,5.74000000000000E+00,,,3.66000000000000E+00,3.68000000000000E+00,3.80000000000000E+00,3.99000000000000E+00,3.97000000000000E+00,,
ROM,,,,,,,,,,,,,,,,,,,,,,,,,,,,,2.73000000000000E+00,2.71000000000000E+00,3.70000000000000E+00,3.73000000000000E+00,4.06000000000000E+00,3.62000000000000E+00,3.54000000000000E+00,8.79000000000000E+00,6.23000000000000E+00,5.58000000000000E+00,4.80000000000000E+00,3.31000000000000E+00,2.52000000000000E+00,3.96000000000000E+00,2.47000000000000E+00,2.68000000000000E+00,2.65000000000000E+00,1.93000000000000E+00,2.01000000000000E+00,1.84000000000000E+00,1.72000000000000E+00,1.22000000000000E+00,5.40000000000000E-01,
RUS,,,,,,,,,,,,,,,,,,,,,,,,,,,,,,,,,,4.01000000000000E+00,7.86000000000000E+00,,8.55000000000000E+00,1.02900000000000E+01,,,,7.41000000000000E+00,7.40000000000000E+00,,,1.17200000000000E+01,,9.02000000000000E+00,4.40000000000000E+00,4.41000000000000E+00,3.44000000000000E+00,
RWA,,,,,,,,,,,,,,,,,,,,,,,,,,,,,,,,,,2.48700000000000E+01,,,,,,,,6.80000000000000E+00,,6.42000000000000E+00,,1.30800000000000E+01,6.94000000000000E+00,,9.12000000000000E+00,,6.43000000000000E+00,
SAS,,,,,,,,,,,,,,,,,,,,,,,,,,,,,,,,,,,,,,,,2.23100000000000E+01,1.44500000000000E+01,2.06900000000000E+01,1.21700000000000E+01,1.36100000000000E+01,1.66300000000000E+01,1.32800000000000E+01,8.84000000000000E+00,8.28000000000000E+00,7.35000000000000E+00,7.57000000000000E+00,,
SAU,,,,,,,,,,,,,,,,,,,,,,,,,,,,,,,,,,,9.19000000000000E+00,,,,,1.33200000000000E+01,1.59800000000000E+01,,,1.11800000000000E+01,1.06200000000000E+01,2.69000000000000E+00,2.81000000000000E+00,2.83000000000000E+00,2.75000000000000E+00,2.77000000000000E+00,,
SDN,,,,,,,,,,,,,,,,,,,,,,,,,,,,,,,,,,,,,3.25000000000000E+00,,,,,,2.40500000000000E+01,,,,1.97000000000000E+01,,1.15500000000000E+01,7.68000000000000E+00,1.08900000000000E+01,
SEN,,,,,,,,,,,,,,,,,,,,,,,,,,,,,,,,,,,,,,,,,,8.26000000000000E+00,6.79000000000000E+00,7.92000000000000E+00,8.02000000000000E+00,8.19000000000000E+00,8.48000000000000E+00,7.80000000000000E+00,7.01000000000000E+00,7.01000000000000E+00,7.71000000000000E+00,
SGP,,,,,,,,,,,,,,,,,,,,,,,,,,,,,,2.47000000000000E+00,,,,,,0.00000000000000E+00,,,,,,1.50000000000000E-01,2.00000000000000E-01,1.00000000000000E-01,0.00000000000000E+00,1.10000000000000E-01,0.00000000000000E+00,3.00000000000000E-02,1.70000000000000E-01,1.80000000000000E-01,0.00000000000000E+00,
SLB,,,,,,,,,,,,,,,,,,,,,,,,,,,,,,,,,,,,4.77700000000000E+01,,,,,,,,,,,1.04500000000000E+01,1.98300000000000E+01,2.33300000000000E+01,,8.46000000000000E+00,
SLV,,,,,,,,,,,,,,,,,,,,,,,,,,,,,,,,,,,,1.01800000000000E+01,,8.46000000000000E+00,7.88000000000000E+00,,8.24000000000000E+00,7.95000000000000E+00,3.63000000000000E+00,,3.86000000000000E+00,8.18000000000000E+00,2.49000000000000E+00,3.53000000000000E+00,2.37000000000000E+00,2.41000000000000E+00,7.39000000000000E+00,
SRB,,,,,,,,,,,,,,,,,,,,,,,,,,,,,,,,,,,,,,,,,,5.96000000000000E+00,7.63000000000000E+00,,,4.50000000000000E+00,,,,,,
SSA,,,,,,,,,,,,,,,,,,,,,,,,,,,,,,,,,,,,,,,,8.10000000000000E+00,2.18100000000000E+01,9.74000000000000E+00,1.45700000000000E+01,9.22000000000000E+00,5.20000000000000E+00,7.81000000000000E+00,6.08000000000000E+00,5.36000000000000E+00,5.84000000000000E+00,6.14000000000000E+00,,
SUR,,,,,,,,,,,,,,,,,,,,,,,,,,,,,,,,,,,,,1.40400000000000E+01,,,1.47100000000000E+01,1.37300000000000E+01,,,,,,,1.59400000000000E+01,,,1.50400000000000E+01,
SVK,,,,,,,,,,,,,,,,,,,,,,,,,,,,,2.73000000000000E+00,2.71000000000000E+00,3.70000000000000E+00,3.73000000000000E+00,4.06000000000000E+00,3.62000000000000E+00,3.54000000000000E+00,8.79000000000000E+00,6.23000000000000E+00,5.58000000000000E+00,4.80000000000000E+00,3.31000000000000E+00,2.52000000000000E+00,3.96000000000000E+00,2.47000000000000E+00,2.68000000000000E+00,2.65000000000000E+00,1.93000000000000E+00,2.01000000000000E+00,1.84000000000000E+00,1.72000000000000E+00,1.22000000000000E+00,5.40000000000000E-01,
SVN,,,,,,,,,,,,,,,,,,,,,,,,,,,,,2.73000000000000E+00,2.71000000000000E+00,3.70000000000000E+00,3.73000000000000E+00,4.06000000000000E+00,3.62000000000000E+00,3.54000000000000E+00,8.79000000000000E+00,6.23000000000000E+00,5.58000000000000E+00,4.80000000000000E+00,3.31000000000000E+00,2.52000000000000E+00,3.96000000000000E+00,2.47000000000000E+00,2.68000000000000E+00,2.65000000000000E+00,1.93000000000000E+00,2.01000000000000E+00,1.84000000000000E+00,1.72000000000000E+00,1.22000000000000E+00,5.40000000000000E-01,
SWE,,,,,,,,,,,,,,,,,,,,,,,,,,,,,2.73000000000000E+00,2.71000000000000E+00,3.70000000000000E+00,3.73000000000000E+00,4.06000000000000E+00,3.62000000000000E+00,3.54000000000000E+00,8.79000000000000E+00,6.23000000000000E+00,5.58000000000000E+00,4.80000000000000E+00,3.31000000000000E+00,2.52000000000000E+00,3.96000000000000E+00,2.47000000000000E+00,2.68000000000000E+00,2.65000000000000E+00,1.93000000000000E+00,2.01000000000000E+00,1.84000000000000E+00,1.72000000000000E+00,1.22000000000000E+00,5.40000000000000E-01,
SWZ,,,,,,,,,,,,,,,,,,,,,,,,,,,,,,,,,,,,,,,,,,3.00000000000000E-01,,,4.89000000000000E+00,4.02000000000000E+00,4.06000000000000E+00,3.14000000000000E+00,1.11000000000000E+00,3.07000000000000E+00,1.33000000000000E+00,
SYC,,,,,,,,,,,,,,,,,,,,,,,,,,,,,,,,,,,,,,,,,4.66700000000000E+01,4.65700000000000E+01,,,,5.21600000000000E+01,4.95800000000000E+01,5.05100000000000E+01,,,,
SYR,,,,,,,,,,,,,,,,,,,,,,,,,,,,,,,,,,,,,,,,,,,1.16500000000000E+01,,,,,,,6.30000000000000E+00,6.12000000000000E+00,
TCD,,,,,,,,,,,,,,,,,,,,,,,,,,,,,,,,,,,,1.59200000000000E+01,,1.59200000000000E+01,,,,2.10200000000000E+01,2.08600000000000E+01,,,2.16800000000000E+01,,1.82900000000000E+01,,1.72100000000000E+01,,
TGO,,,,,,,,,,,,,,,,,,,,,,,,,,,,,,,,,,,,,,,,,,1.04600000000000E+01,1.01200000000000E+01,1.03600000000000E+01,1.03600000000000E+01,9.74000000000000E+00,8.68000000000000E+00,9.62000000000000E+00,1.03600000000000E+01,1.04100000000000E+01,1.23800000000000E+01,
THA,,,,,,,,,,,,,,,,,,,,,,,,,,,,,,2.43600000000000E+01,,2.56700000000000E+01,,3.44300000000000E+01,,1.13100000000000E+01,,,,,7.65000000000000E+00,4.18000000000000E+00,,4.70000000000000E+00,,2.29000000000000E+00,2.12000000000000E+00,2.47000000000000E+00,2.19000000000000E+00,2.91000000000000E+00,,
TJK,,,,,,,,,,,,,,,,,,,,,,,,,,,,,,,,,,,,,,,,,,,5.84000000000000E+00,,,,2.05000000000000E+00,,,,1.10000000000000E+00,
TKM,,,,,,,,,,,,,,,,,,,,,,,,,,,,,,,,,,,,,,,0.00000000000000E+00,,,,1.26000000000000E+01,,,,,,,,,
TON,,,,,,,,,,,,,,,,,,,,,,,,,,,,,,,,,,,,,,,,,,,,,,,,,,5.54000000000000E+00,5.09000000000000E+00,
TTO,,,,,,,,,,,,,,,,,,,,,,,,,,,,,,,,1.13300000000000E+01,1.67500000000000E+01,,,,6.95000000000000E+00,,,2.00300000000000E+01,,5.92000000000000E+00,4.02000000000000E+00,4.81000000000000E+00,,,4.29000000000000E+00,3.15000000000000E+00,3.11000000000000E+00,,,
TUN,,,,,,,,,,,,,,,,,,,,,,,,,,,,,,,1.74300000000000E+01,,1.72700000000000E+01,,,1.87200000000000E+01,,,1.85400000000000E+01,,,,2.85400000000000E+01,2.32500000000000E+01,1.84700000000000E+01,1.21900000000000E+01,1.39200000000000E+01,,1.19500000000000E+01,,,
TUR,,,,,,,,,,,,,,,,,,,,,,,,,,,,,,,,,,7.90000000000000E+00,,5.52000000000000E+00,,5.23000000000000E+00,,5.48000000000000E+00,,,,3.40000000000000E+00,,2.59000000000000E+00,3.39000000000000E+00,3.81000000000000E+00,2.78000000000000E+00,4.29000000000000E+00,4.75000000000000E+00,
TUV,,,,,,,,,,,,,,,,,,,,,,,,,,,,,,,,,,,,,,,,,,,,,,,,,,,6.46000000000000E+00,
TZA,,,,,,,,,,,,,,,,,,,,,,,,,,,,,,,,,,1.99000000000000E+01,,,,1.86100000000000E+01,1.77900000000000E+01,,1.31400000000000E+01,,,7.40000000000000E+00,,1.05500000000000E+01,7.68000000000000E+00,7.48000000000000E+00,1.52400000000000E+01,1.49400000000000E+01,8.68000000000000E+00,
UGA,,,,,,,,,,,,,,,,,,,,,,,,,,,,,,,,,,,1.73500000000000E+01,,,,,,5.59000000000000E+00,5.98000000000000E+00,5.74000000000000E+00,5.43000000000000E+00,6.35000000000000E+00,1.01200000000000E+01,7.01000000000000E+00,9.57000000000000E+00,8.47000000000000E+00,8.46000000000000E+00,8.81000000000000E+00,
UKR,,,,,,,,,,,,,,,,,,,,,,,,,,,,,,,,,,,,2.71000000000000E+00,,2.67000000000000E+00,,,,,1.44000000000000E+00,,,,8.60000000000000E-01,,1.19000000000000E+00,1.20000000000000E+00,2.47000000000000E+00,
UMC,,,,,,,,,,,,,,,,,,,,,,,,,,,,,,,,,,,,,,,,1.09700000000000E+01,1.39700000000000E+01,1.18000000000000E+01,7.34000000000000E+00,7.56000000000000E+00,5.54000000000000E+00,3.98000000000000E+00,3.24000000000000E+00,3.52000000000000E+00,2.63000000000000E+00,2.69000000000000E+00,,
URY,,,,,,,,,,,,,,,,,,,,,,,,,,,,,,,,,5.77000000000000E+00,,,6.86000000000000E+00,7.12000000000000E+00,7.11000000000000E+00,9.97000000000000E+00,8.20000000000000E+00,2.52000000000000E+00,2.75000000000000E+00,6.71000000000000E+00,,1.41000000000000E+00,1.21000000000000E+00,1.22000000000000E+00,1.33000000000000E+00,1.07000000000000E+00,1.08000000000000E+00,1.07000000000000E+00,
USA,,,,,,,,,,,,,,,,,,,,,,,,,,,,,,2.42000000000000E+00,2.50000000000000E+00,2.41000000000000E+00,2.32000000000000E+00,1.89000000000000E+00,,1.92000000000000E+00,1.41000000000000E+00,1.47000000000000E+00,1.81000000000000E+00,1.45000000000000E+00,1.09000000000000E+00,1.08000000000000E+00,1.10000000000000E+00,9.60000000000000E-01,8.50000000000000E-01,7.70000000000000E-01,7.00000000000000E-01,1.32000000000000E+00,1.20000000000000E+00,6.90000000000000E-01,1.17000000000000E+00,
UZB,,,,,,,,,,,,,,,,,,,,,,,,,,,,,,,,,,,,,,,,,,4.22000000000000E+00,,,,,4.81000000000000E+00,2.61000000000000E+00,3.63000000000000E+00,3.89000000000000E+00,,
VCT,,,,,,,,,,,,,,,,,,,,,,,,,,,,,,,,,,,,,1.38300000000000E+01,,,1.48000000000000E+01,1.32900000000000E+01,1.28800000000000E+01,1.22600000000000E+01,1.20100000000000E+01,,,6.38000000000000E+00,7.78000000000000E+00,,,,
VEN,,,,,,,,,,,,,,,,,,,,,,,,,,,,,,,,,1.46900000000000E+01,,,1.00200000000000E+01,,1.26500000000000E+01,1.33500000000000E+01,1.40000000000000E+01,1.35000000000000E+01,,1.40800000000000E+01,,1.16400000000000E+01,1.13100000000000E+01,7.37000000000000E+00,8.56000000000000E+00,9.97000000000000E+00,1.05700000000000E+01,9.96000000000000E+00,
VNM,,,,,,,,,,,,,,,,,,,,,,,,,,,,,,,,,,,4.80100000000000E+01,,,,,3.56800000000000E+01,,2.05000000000000E+01,1.92100000000000E+01,1.66900000000000E+01,1.48800000000000E+01,1.45700000000000E+01,1.02900000000000E+01,1.02200000000000E+01,4.06000000000000E+00,,5.95000000000000E+00,
VUT,,,,,,,,,,,,,,,,,,,,,,,,,,,,,,,,,,,,,,,,,,,1.87900000000000E+01,,,,1.79700000000000E+01,1.87000000000000E+01,1.69100000000000E+01,2.78100000000000E+01,,
WLD,,,,,,,,,,,,,,,,,,,,,,,,,,,,,,,,,,,,,,,,5.74000000000000E+00,4.91000000000000E+00,6.47000000000000E+00,5.26000000000000E+00,4.68000000000000E+00,4.59000000000000E+00,3.14000000000000E+00,3.08000000000000E+00,3.21000000000000E+00,2.53000000000000E+00,2.68000000000000E+00,,
YEM,,,,,,,,,,,,,,,,,,,,,,,,,,,,,,,,,,,,,,,,,1.07800000000000E+01,,,,,,8.61000000000000E+00,,,3.77000000000000E+00,,
ZAF,,,,,,,,,,,,,,,,,,,,,,,,,,,,,4.30000000000000E+00,,4.00000000000000E+00,4.15000000000000E+00,,6.96000000000000E+00,,,5.56000000000000E+00,2.68000000000000E+00,,2.70000000000000E+00,,2.24000000000000E+00,,,1.94000000000000E+00,1.71000000000000E+00,1.73000000000000E+00,1.91000000000000E+00,1.69000000000000E+00,1.58000000000000E+00,1.92000000000000E+00,
ZAR,,,,,,,,,,,,,,,,,,,,,,,,,,,,,,,,,,,,,,,,,,,,1.24000000000000E+01,,,1.12500000000000E+01,1.09400000000000E+01,1.07900000000000E+01,1.08300000000000E+01,,
ZMB,,,,,,,,,,,,,,,,,,,,,,,,,,,,,,,,,,1.24400000000000E+01,,,,9.93000000000000E+00,,,,,1.25900000000000E+01,8.22000000000000E+00,,9.30000000000000E+00,,,5.70000000000000E+00,3.09000000000000E+00,,
ZWE,,,,,,,,,,,,,,,,,,,,,,,,,,,,,,,,,,,,,4.03300000000000E+01,1.52800000000000E+01,2.49400000000000E+01,1.59900000000000E+01,,6.97000000000000E+00,2.63100000000000E+01,2.03600000000000E+01,,,,,,,,
