"Country Code",1960,1961,1962,1963,1964,1965,1966,1967,1968,1969,1970,1971,1972,1973,1974,1975,1976,1977,1978,1979,1980,1981,1982,1983,1984,1985,1986,1987,1988,1989,1990,1991,1992,1993,1994,1995,1996,1997,1998,1999,2000,2001,2002,2003,2004,2005,2006,2007,2008,2009,2010,2011AFG,,,,,,,,,,,,,,,,,,,,,,,,,,,,,,,,,,,,,,,,,,,,,3.04000000000000E+00,,6.41000000000000E+00,6.58000000000000E+00,7.01000000000000E+00,,,
AGO,,,,,,,,,,,,,,,,,,,,,,,,,,,,,,,,,,,,,,,,,,,1.16000000000000E+01,,,1.14800000000000E+01,1.14800000000000E+01,,1.15800000000000E+01,1.16000000000000E+01,,
ALB,,,,,,,,,,,,,,,,,,,,,,,,,,,,,,,,,,,,,,1.56200000000000E+01,,,,1.20400000000000E+01,9.12000000000000E+00,,,7.27000000000000E+00,,6.95000000000000E+00,4.80000000000000E+00,6.81000000000000E+00,,
ARE,,,,,,,,,,,,,,,,,,,,,,,,,,,,,,,,,,,,,,,,,,,,6.22000000000000E+00,,4.84000000000000E+00,4.84000000000000E+00,4.33000000000000E+00,4.47000000000000E+00,5.96000000000000E+00,,
ARG,,,,,,,,,,,,,,,,,,,,,,,,,,,,,,,,,8.06000000000000E+00,6.31000000000000E+00,,9.07000000000000E+00,1.00800000000000E+01,9.99000000000000E+00,1.28500000000000E+01,1.14100000000000E+01,1.16300000000000E+01,1.09500000000000E+01,1.13500000000000E+01,1.00200000000000E+01,9.03000000000000E+00,8.08000000000000E+00,7.79000000000000E+00,7.87000000000000E+00,7.81000000000000E+00,9.00000000000000E+00,7.52000000000000E+00,
ARM,,,,,,,,,,,,,,,,,,,,,,,,,,,,,,,,,,,,,,,,,,6.59000000000000E+00,,,,,5.38000000000000E+00,,5.60000000000000E+00,,,
ATG,,,,,,,,,,,,,,,,,,,,,,,,,,,,,,,,,,,,,2.48300000000000E+01,,,2.33500000000000E+01,1.89600000000000E+01,1.68200000000000E+01,1.68200000000000E+01,1.73200000000000E+01,,,1.35400000000000E+01,1.36100000000000E+01,1.38000000000000E+01,1.71700000000000E+01,,
AUS,,,,,,,,,,,,,,,,,,,,,,,,,,,,,,,,5.76300000000000E+01,,8.27000000000000E+00,,,7.70000000000000E+00,7.59000000000000E+00,5.47000000000000E+00,1.10100000000000E+01,1.03700000000000E+01,1.64000000000000E+00,1.57000000000000E+00,1.55000000000000E+00,1.57000000000000E+00,1.63000000000000E+00,1.35000000000000E+00,8.60000000000000E-01,2.83000000000000E+00,1.65000000000000E+00,1.31000000000000E+00,
AUT,,,,,,,,,,,,,,,,,,,,,,,,,,,,,5.87000000000000E+00,6.23000000000000E+00,7.38000000000000E+00,7.18000000000000E+00,7.44000000000000E+00,6.31000000000000E+00,6.34000000000000E+00,1.29700000000000E+01,9.73000000000000E+00,9.31000000000000E+00,7.96000000000000E+00,6.21000000000000E+00,6.74000000000000E+00,9.02000000000000E+00,6.37000000000000E+00,6.70000000000000E+00,6.33000000000000E+00,5.65000000000000E+00,6.17000000000000E+00,6.15000000000000E+00,5.59000000000000E+00,5.11000000000000E+00,2.46000000000000E+00,
AZE,,,,,,,,,,,,,,,,,,,,,,,,,,,,,,,,,,,,,,,,,,,1.46500000000000E+01,,,1.19800000000000E+01,,1.01600000000000E+01,9.85000000000000E+00,9.50000000000000E+00,,
BDI,,,,,,,,,,,,,,,,,,,,,,,,,,,,,,,,,,,,,,,,,,,2.79400000000000E+01,,,2.60000000000000E+01,1.51000000000000E+01,1.27700000000000E+01,1.16900000000000E+01,1.39600000000000E+01,1.54100000000000E+01,
BEL,,,,,,,,,,,,,,,,,,,,,,,,,,,,,5.87000000000000E+00,6.23000000000000E+00,7.38000000000000E+00,7.18000000000000E+00,7.44000000000000E+00,6.31000000000000E+00,6.34000000000000E+00,1.29700000000000E+01,9.73000000000000E+00,9.31000000000000E+00,7.96000000000000E+00,6.21000000000000E+00,6.74000000000000E+00,9.02000000000000E+00,6.37000000000000E+00,6.70000000000000E+00,6.33000000000000E+00,5.65000000000000E+00,6.17000000000000E+00,6.15000000000000E+00,5.59000000000000E+00,5.11000000000000E+00,2.46000000000000E+00,
BEN,,,,,,,,,,,,,,,,,,,,,,,,,,,,,,,,,,,,,,,,,,1.54400000000000E+01,1.53000000000000E+01,1.54100000000000E+01,1.54500000000000E+01,1.54400000000000E+01,1.32300000000000E+01,1.34300000000000E+01,1.50600000000000E+01,1.52500000000000E+01,1.55000000000000E+01,
BFA,,,,,,,,,,,,,,,,,,,,,,,,,,,,,,,,,,2.71100000000000E+01,,,,,,,,1.35500000000000E+01,1.37000000000000E+01,1.38500000000000E+01,1.35500000000000E+01,1.35000000000000E+01,1.11600000000000E+01,1.12800000000000E+01,1.09300000000000E+01,1.15800000000000E+01,1.14100000000000E+01,
BGD,,,,,,,,,,,,,,,,,,,,,,,,,,,,,,7.88500000000000E+01,,,,,8.17600000000000E+01,,,,,2.17800000000000E+01,2.17800000000000E+01,,2.15300000000000E+01,1.99600000000000E+01,1.86300000000000E+01,1.56800000000000E+01,1.56500000000000E+01,1.51200000000000E+01,1.63300000000000E+01,,,
BGR,,,,,,,,,,,,,,,,,,,,,,,,,,,,,5.87000000000000E+00,6.23000000000000E+00,7.38000000000000E+00,7.18000000000000E+00,7.44000000000000E+00,6.31000000000000E+00,6.34000000000000E+00,1.29700000000000E+01,9.73000000000000E+00,9.31000000000000E+00,7.96000000000000E+00,6.21000000000000E+00,6.74000000000000E+00,9.02000000000000E+00,6.37000000000000E+00,6.70000000000000E+00,6.33000000000000E+00,5.65000000000000E+00,6.17000000000000E+00,6.15000000000000E+00,5.59000000000000E+00,5.11000000000000E+00,2.46000000000000E+00,
BHR,,,,,,,,,,,,,,,,,,,,,,,,,,,,,,,,,,,,,,,,8.97000000000000E+00,,8.94000000000000E+00,,,,6.03000000000000E+00,5.17000000000000E+00,5.79000000000000E+00,6.83000000000000E+00,6.95000000000000E+00,,
BHS,,,,,,,,,,,,,,,,,,,,,,,,,,,,,,,,,,,,,,,,2.57800000000000E+01,,,2.55100000000000E+01,,,,2.43800000000000E+01,,,,2.18500000000000E+01,
BIH,,,,,,,,,,,,,,,,,,,,,,,,,,,,,,,,,,,,,,,,,,3.75000000000000E+00,,,,,4.02000000000000E+00,3.33000000000000E+00,3.22000000000000E+00,5.87000000000000E+00,1.44000000000000E+00,
BLR,,,,,,,,,,,,,,,,,,,,,,,,,,,,,,,,,,,,,9.34000000000000E+00,1.04400000000000E+01,,,,,1.10100000000000E+01,,,,,,6.92000000000000E+00,6.79000000000000E+00,6.34000000000000E+00,
BLZ,,,,,,,,,,,,,,,,,,,,,,,,,,,,,,,,,,,,,2.27400000000000E+01,,,2.37600000000000E+01,,1.96100000000000E+01,1.97200000000000E+01,1.91600000000000E+01,,,1.60500000000000E+01,1.54600000000000E+01,1.54600000000000E+01,1.71500000000000E+01,1.74500000000000E+01,
BMU,,,,,,,,,,,,,,,,,,,,,,,,,,,,,,,,,,,,,,,,,,4.16700000000000E+01,,,,1.33400000000000E+01,,1.40400000000000E+01,1.00000000000000E+01,1.00300000000000E+01,1.00000000000000E+01,
BOL,,,,,,,,,,,,,,,,,,,,,,,,,,,,,,,,,,9.99000000000000E+00,9.99000000000000E+00,9.99000000000000E+00,9.99000000000000E+00,9.99000000000000E+00,9.99000000000000E+00,9.99000000000000E+00,9.86000000000000E+00,9.83000000000000E+00,1.04200000000000E+01,,8.09000000000000E+00,7.48000000000000E+00,6.42000000000000E+00,6.11000000000000E+00,6.07000000000000E+00,7.51000000000000E+00,8.44000000000000E+00,
BRA,,,,,,,,,,,,,,,,,,,,,,,,,,,,,,3.16400000000000E+01,2.32700000000000E+01,1.90000000000000E+01,2.03700000000000E+01,9.06000000000000E+00,8.66000000000000E+00,9.02000000000000E+00,1.05500000000000E+01,1.02600000000000E+01,1.29000000000000E+01,1.12200000000000E+01,1.22200000000000E+01,1.17100000000000E+01,1.08300000000000E+01,1.08000000000000E+01,9.22000000000000E+00,8.04000000000000E+00,7.84000000000000E+00,7.90000000000000E+00,7.93000000000000E+00,8.09000000000000E+00,8.10000000000000E+00,
BRB,,,,,,,,,,,,,,,,,,,,,,,,,,,,,,,,,,,,,3.43500000000000E+01,,,3.11700000000000E+01,3.21200000000000E+01,3.93800000000000E+01,3.92300000000000E+01,3.88400000000000E+01,,,2.36200000000000E+01,2.62700000000000E+01,,,,
BRN,,,,,,,,,,,,,,,,,,,,,,,,,,,,,,,,,8.30000000000000E-01,,,,,,,,,1.32000000000000E+00,1.59000000000000E+00,1.96000000000000E+00,3.25000000000000E+00,1.21000000000000E+00,1.28000000000000E+00,9.40000000000000E-01,2.10000000000000E-01,,2.30000000000000E-01,
BTN,,,,,,,,,,,,,,,,,,,,,,,,,,,,,,,,,,,,,2.07600000000000E+01,,,,,,2.40900000000000E+01,,4.24000000000000E+01,4.24700000000000E+01,,4.34800000000000E+01,,,,
BWA,,,,,,,,,,,,,,,,,,,,,,,,,,,,,,,,,,,,,,,,,,4.39000000000000E+00,,,5.19000000000000E+00,3.55000000000000E+00,3.68000000000000E+00,4.17000000000000E+00,3.99000000000000E+00,2.43000000000000E+01,6.07000000000000E+00,
CAF,,,,,,,,,,,,,,,,,,,,,,,,,,,,,,,,,,,,1.94300000000000E+01,,2.08700000000000E+01,,,,2.37300000000000E+01,2.27200000000000E+01,,,2.30600000000000E+01,,1.88500000000000E+01,,,,
CAN,,,,,,,,,,,,,,,,,,,,,,,,,,,,,,4.68000000000000E+00,,,,3.84000000000000E+00,,8.48000000000000E+00,7.09000000000000E+00,6.54000000000000E+00,6.41000000000000E+00,6.37000000000000E+00,5.04000000000000E+00,6.37000000000000E+00,5.25000000000000E+00,1.79800000000000E+01,5.19000000000000E+00,5.30000000000000E+00,5.27000000000000E+00,5.10000000000000E+00,5.03000000000000E+00,5.06000000000000E+00,2.05000000000000E+00,
CHE,,,,,,,,,,,,,,,,,,,,,,,,,,,,,,,1.84300000000000E+01,,,1.93900000000000E+01,,3.99400000000000E+01,1.86900000000000E+01,1.55900000000000E+01,1.36900000000000E+01,1.44700000000000E+01,1.35400000000000E+01,1.44900000000000E+01,1.28600000000000E+01,1.48300000000000E+01,1.15000000000000E+01,1.31600000000000E+01,1.83100000000000E+01,1.98500000000000E+01,1.73500000000000E+01,9.86000000000000E+00,0.00000000000000E+00,
CHL,,,,,,,,,,,,,,,,,,,,,,,,,,,,,,,,,1.10000000000000E+01,1.10000000000000E+01,1.10000000000000E+01,1.07000000000000E+01,,1.10000000000000E+01,1.10000000000000E+01,1.00000000000000E+01,9.00000000000000E+00,8.00000000000000E+00,7.00000000000000E+00,,4.44000000000000E+00,4.37000000000000E+00,1.97000000000000E+00,2.42000000000000E+00,1.42000000000000E+00,6.00000000000000E+00,4.38000000000000E+00,
CHN,,,,,,,,,,,,,,,,,,,,,,,,,,,,,,,,,3.46700000000000E+01,3.09000000000000E+01,2.92500000000000E+01,,2.37100000000000E+01,1.70900000000000E+01,1.67500000000000E+01,1.66700000000000E+01,1.74100000000000E+01,1.60200000000000E+01,,1.07500000000000E+01,9.78000000000000E+00,8.76000000000000E+00,8.86000000000000E+00,8.99000000000000E+00,8.66000000000000E+00,8.10000000000000E+00,8.29000000000000E+00,
CIV,,,,,,,,,,,,,,,,,,,,,,,,,,,,,,,,,,2.63700000000000E+01,,,1.98700000000000E+01,,,,,1.49800000000000E+01,1.49800000000000E+01,1.57500000000000E+01,1.58500000000000E+01,1.57600000000000E+01,1.53700000000000E+01,1.54900000000000E+01,1.52500000000000E+01,1.52500000000000E+01,1.50800000000000E+01,
CMR,,,,,,,,,,,,,,,,,,,,,,,,,,,,,,,,,,,2.29200000000000E+01,2.15600000000000E+01,,,,,,2.20600000000000E+01,2.22400000000000E+01,,,2.30000000000000E+01,,2.18000000000000E+01,,2.05400000000000E+01,,
COG,,,,,,,,,,,,,,,,,,,,,,,,,,,,,,,,,,,2.39100000000000E+01,,,1.72500000000000E+01,,,,2.36800000000000E+01,2.34900000000000E+01,,,2.33100000000000E+01,,2.19000000000000E+01,,,,
COL,,,,,,,,,,,,,,,,,,,,,,,,,,,,,,,,7.12000000000000E+00,1.17900000000000E+01,,1.22200000000000E+01,1.23500000000000E+01,1.28400000000000E+01,1.29100000000000E+01,,1.32100000000000E+01,1.29500000000000E+01,1.28800000000000E+01,1.28400000000000E+01,,1.13900000000000E+01,1.15000000000000E+01,1.01300000000000E+01,9.80000000000000E+00,9.70000000000000E+00,9.75000000000000E+00,1.08700000000000E+01,
COM,,,,,,,,,,,,,,,,,,,,,,,,,,,,,,,,,,,,,,,,,,,,,,,,,4.24000000000000E+00,,4.51000000000000E+00,
CPV,,,,,,,,,,,,,,,,,,,,,,,,,,,,,,,,,,,,,,,,,,,,,,1.55900000000000E+01,,1.60700000000000E+01,1.58100000000000E+01,1.61100000000000E+01,1.61700000000000E+01,
CRI,,,,,,,,,,,,,,,,,,,,,,,,,,,,,,,,,,,,1.24500000000000E+01,,,,9.52000000000000E+00,8.33000000000000E+00,9.85000000000000E+00,1.00800000000000E+01,,8.49000000000000E+00,1.04700000000000E+01,,8.49000000000000E+00,,6.34000000000000E+00,,
CUB,,,,,,,,,,,,,,,,,,,,,,,,,,,,,,,,,,1.18300000000000E+01,,,,1.10800000000000E+01,,,,,1.16000000000000E+01,1.24800000000000E+01,1.13100000000000E+01,1.05800000000000E+01,1.07800000000000E+01,1.09900000000000E+01,1.06400000000000E+01,1.05400000000000E+01,1.10500000000000E+01,
CYP,,,,,,,,,,,,,,,,,,,,,,,,,,,,,5.87000000000000E+00,6.23000000000000E+00,7.38000000000000E+00,7.18000000000000E+00,7.44000000000000E+00,6.31000000000000E+00,6.34000000000000E+00,1.29700000000000E+01,9.73000000000000E+00,9.31000000000000E+00,7.96000000000000E+00,6.21000000000000E+00,6.74000000000000E+00,9.02000000000000E+00,6.37000000000000E+00,6.70000000000000E+00,6.33000000000000E+00,5.65000000000000E+00,6.17000000000000E+00,6.15000000000000E+00,5.59000000000000E+00,5.11000000000000E+00,2.46000000000000E+00,
CZE,,,,,,,,,,,,,,,,,,,,,,,,,,,,,5.87000000000000E+00,6.23000000000000E+00,7.38000000000000E+00,7.18000000000000E+00,7.44000000000000E+00,6.31000000000000E+00,6.34000000000000E+00,1.29700000000000E+01,9.73000000000000E+00,9.31000000000000E+00,7.96000000000000E+00,6.21000000000000E+00,6.74000000000000E+00,9.02000000000000E+00,6.37000000000000E+00,6.70000000000000E+00,6.33000000000000E+00,5.65000000000000E+00,6.17000000000000E+00,6.15000000000000E+00,5.59000000000000E+00,5.11000000000000E+00,2.46000000000000E+00,
DEU,,,,,,,,,,,,,,,,,,,,,,,,,,,,,5.87000000000000E+00,6.23000000000000E+00,7.38000000000000E+00,7.18000000000000E+00,7.44000000000000E+00,6.31000000000000E+00,6.34000000000000E+00,1.29700000000000E+01,9.73000000000000E+00,9.31000000000000E+00,7.96000000000000E+00,6.21000000000000E+00,6.74000000000000E+00,9.02000000000000E+00,6.37000000000000E+00,6.70000000000000E+00,6.33000000000000E+00,5.65000000000000E+00,6.17000000000000E+00,6.15000000000000E+00,5.59000000000000E+00,5.11000000000000E+00,2.46000000000000E+00,
DJI,,,,,,,,,,,,,,,,,,,,,,,,,,,,,,,,,,,,,,,,,,,2.18000000000000E+01,,,,2.30900000000000E+01,,,1.59400000000000E+01,,
DMA,,,,,,,,,,,,,,,,,,,,,,,,,,,,,,,,,,,,,2.23900000000000E+01,,,2.15800000000000E+01,2.10900000000000E+01,2.45200000000000E+01,2.38500000000000E+01,2.39100000000000E+01,,,1.92300000000000E+01,1.92400000000000E+01,,,,
DNK,,,,,,,,,,,,,,,,,,,,,,,,,,,,,5.87000000000000E+00,6.23000000000000E+00,7.38000000000000E+00,7.18000000000000E+00,7.44000000000000E+00,6.31000000000000E+00,6.34000000000000E+00,1.29700000000000E+01,9.73000000000000E+00,9.31000000000000E+00,7.96000000000000E+00,6.21000000000000E+00,6.74000000000000E+00,9.02000000000000E+00,6.37000000000000E+00,6.70000000000000E+00,6.33000000000000E+00,5.65000000000000E+00,6.17000000000000E+00,6.15000000000000E+00,5.59000000000000E+00,5.11000000000000E+00,2.46000000000000E+00,
DOM,,,,,,,,,,,,,,,,,,,,,,,,,,,,,,,,,,,,,,1.89700000000000E+01,,,2.29900000000000E+01,1.34100000000000E+01,1.35300000000000E+01,1.35700000000000E+01,1.34700000000000E+01,1.26100000000000E+01,1.24600000000000E+01,1.14200000000000E+01,1.15700000000000E+01,,1.17600000000000E+01,
DZA,,,,,,,,,,,,,,,,,,,,,,,,,,,,,,,,,,2.03900000000000E+01,,,,2.31500000000000E+01,2.21500000000000E+01,,,2.05400000000000E+01,1.94600000000000E+01,1.83200000000000E+01,,1.59200000000000E+01,1.58200000000000E+01,1.60900000000000E+01,1.70100000000000E+01,1.45000000000000E+01,,
EAP,,,,,,,,,,,,,,,,,,,,,,,,,,,,,,,,,,,,,,,,1.42300000000000E+01,1.41700000000000E+01,1.13700000000000E+01,9.50000000000000E+00,1.04000000000000E+01,1.02100000000000E+01,9.28000000000000E+00,9.18000000000000E+00,9.13000000000000E+00,9.16000000000000E+00,1.05900000000000E+01,,
ECA,,,,,,,,,,,,,,,,,,,,,,,,,,,,,,,,,,,,,,,,1.61900000000000E+01,8.55000000000000E+00,1.09500000000000E+01,8.97000000000000E+00,1.02500000000000E+01,1.15200000000000E+01,1.19800000000000E+01,7.04000000000000E+00,8.32000000000000E+00,7.04000000000000E+00,7.74000000000000E+00,,
ECU,,,,,,,,,,,,,,,,,,,,,,,,,,,,,,,,,,9.10000000000000E+00,1.20400000000000E+01,1.18100000000000E+01,1.17200000000000E+01,1.18500000000000E+01,1.19600000000000E+01,1.35500000000000E+01,,,1.20500000000000E+01,,1.09800000000000E+01,1.09900000000000E+01,9.02000000000000E+00,8.71000000000000E+00,7.62000000000000E+00,7.34000000000000E+00,9.03000000000000E+00,
EGY,,,,,,,,,,,,,,,,,,,,,,,,,,,,,,,,,,,,2.58800000000000E+01,,,2.33000000000000E+01,,,,1.90600000000000E+01,,8.82700000000000E+01,8.51600000000000E+01,,,3.61400000000000E+01,3.75800000000000E+01,,
ERI,,,,,,,,,,,,,,,,,,,,,,,,,,,,,,,,,,,,,,,,,,,1.05000000000000E+01,,,,9.24000000000000E+00,,,,,
ESP,,,,,,,,,,,,,,,,,,,,,,,,,,,,,5.87000000000000E+00,6.23000000000000E+00,7.38000000000000E+00,7.18000000000000E+00,7.44000000000000E+00,6.31000000000000E+00,6.34000000000000E+00,1.29700000000000E+01,9.73000000000000E+00,9.31000000000000E+00,7.96000000000000E+00,6.21000000000000E+00,6.74000000000000E+00,9.02000000000000E+00,6.37000000000000E+00,6.70000000000000E+00,6.33000000000000E+00,5.65000000000000E+00,6.17000000000000E+00,6.15000000000000E+00,5.59000000000000E+00,5.11000000000000E+00,2.46000000000000E+00,
EST,,,,,,,,,,,,,,,,,,,,,,,,,,,,,5.87000000000000E+00,6.23000000000000E+00,7.38000000000000E+00,7.18000000000000E+00,7.44000000000000E+00,6.31000000000000E+00,6.34000000000000E+00,1.29700000000000E+01,9.73000000000000E+00,9.31000000000000E+00,7.96000000000000E+00,6.21000000000000E+00,6.74000000000000E+00,9.02000000000000E+00,6.37000000000000E+00,6.70000000000000E+00,6.33000000000000E+00,5.65000000000000E+00,6.17000000000000E+00,6.15000000000000E+00,5.59000000000000E+00,5.11000000000000E+00,2.46000000000000E+00,
ETH,,,,,,,,,,,,,,,,,,,,,,,,,,,,,,,,,,,,3.44400000000000E+01,,,,,,2.15500000000000E+01,2.20600000000000E+01,,,,1.78900000000000E+01,,1.93100000000000E+01,1.92400000000000E+01,1.97700000000000E+01,
EUU,,,,,,,,,,,,,,,,,,,,,,,,,,,,,,,,,,,,,,,,6.21000000000000E+00,6.74000000000000E+00,9.02000000000000E+00,6.37000000000000E+00,6.70000000000000E+00,6.33000000000000E+00,5.65000000000000E+00,6.17000000000000E+00,6.15000000000000E+00,5.59000000000000E+00,5.11000000000000E+00,2.46000000000000E+00,
FIN,,,,,,,,,,,,,,,,,,,,,,,,,,,,,5.87000000000000E+00,6.23000000000000E+00,7.38000000000000E+00,7.18000000000000E+00,7.44000000000000E+00,6.31000000000000E+00,6.34000000000000E+00,1.29700000000000E+01,9.73000000000000E+00,9.31000000000000E+00,7.96000000000000E+00,6.21000000000000E+00,6.74000000000000E+00,9.02000000000000E+00,6.37000000000000E+00,6.70000000000000E+00,6.33000000000000E+00,5.65000000000000E+00,6.17000000000000E+00,6.15000000000000E+00,5.59000000000000E+00,5.11000000000000E+00,2.46000000000000E+00,
FJI,,,,,,,,,,,,,,,,,,,,,,,,,,,,,,,,,,,,,,,,,,,,,,,,,1.18900000000000E+01,1.79600000000000E+01,1.35300000000000E+01,
FRA,,,,,,,,,,,,,,,,,,,,,,,,,,,,,5.87000000000000E+00,6.23000000000000E+00,7.38000000000000E+00,7.18000000000000E+00,7.44000000000000E+00,6.31000000000000E+00,6.34000000000000E+00,1.29700000000000E+01,9.73000000000000E+00,9.31000000000000E+00,7.96000000000000E+00,6.21000000000000E+00,6.74000000000000E+00,9.02000000000000E+00,6.37000000000000E+00,6.70000000000000E+00,6.33000000000000E+00,5.65000000000000E+00,6.17000000000000E+00,6.15000000000000E+00,5.59000000000000E+00,5.11000000000000E+00,2.46000000000000E+00,
GAB,,,,,,,,,,,,,,,,,,,,,,,,,,,,,,,,,,,,2.40500000000000E+01,,,2.37700000000000E+01,,,2.37300000000000E+01,2.30000000000000E+01,,,2.31100000000000E+01,,1.99100000000000E+01,2.09000000000000E+01,2.12100000000000E+01,,
GBR,,,,,,,,,,,,,,,,,,,,,,,,,,,,,5.87000000000000E+00,6.23000000000000E+00,7.38000000000000E+00,7.18000000000000E+00,7.44000000000000E+00,6.31000000000000E+00,6.34000000000000E+00,1.29700000000000E+01,9.73000000000000E+00,9.31000000000000E+00,7.96000000000000E+00,6.21000000000000E+00,6.74000000000000E+00,9.02000000000000E+00,6.37000000000000E+00,6.70000000000000E+00,6.33000000000000E+00,5.65000000000000E+00,6.17000000000000E+00,6.15000000000000E+00,5.59000000000000E+00,5.11000000000000E+00,2.46000000000000E+00,
GEO,,,,,,,,,,,,,,,,,,,,,,,,,,,,,,,,,,,,,,,,1.18900000000000E+01,,,1.35500000000000E+01,1.23000000000000E+01,1.18000000000000E+01,,8.55000000000000E+00,4.34000000000000E+00,4.32000000000000E+00,4.08000000000000E+00,3.95000000000000E+00,
GHA,,,,,,,,,,,,,,,,,,,,,,,,,,,,,,,,,,1.85300000000000E+01,,,,,,,2.10200000000000E+01,,,,1.73800000000000E+01,,,1.67500000000000E+01,1.67500000000000E+01,1.66300000000000E+01,,
GIN,,,,,,,,,,,,,,,,,,,,,,,,,,,,,,,,,,,,,,,,,,,,,,1.63300000000000E+01,,,1.54200000000000E+01,1.55900000000000E+01,1.55900000000000E+01,
GMB,,,,,,,,,,,,,,,,,,,,,,,,,,,,,,,,,,,,,,,,,,,,,,,,1.71500000000000E+01,1.69500000000000E+01,1.69000000000000E+01,,
GNB,,,,,,,,,,,,,,,,,,,,,,,,,,,,,,,,,,,,,,,,,,1.60000000000000E+01,1.63300000000000E+01,1.63800000000000E+01,1.63600000000000E+01,1.61600000000000E+01,1.42900000000000E+01,1.65300000000000E+01,1.48300000000000E+01,1.51000000000000E+01,1.46200000000000E+01,
GNQ,,,,,,,,,,,,,,,,,,,,,,,,,,,,,,,,,,,,,,,2.45000000000000E+01,,,2.37500000000000E+01,2.38800000000000E+01,,,2.33800000000000E+01,,2.15100000000000E+01,,,,
GRC,,,,,,,,,,,,,,,,,,,,,,,,,,,,,5.87000000000000E+00,6.23000000000000E+00,7.38000000000000E+00,7.18000000000000E+00,7.44000000000000E+00,6.31000000000000E+00,6.34000000000000E+00,1.29700000000000E+01,9.73000000000000E+00,9.31000000000000E+00,7.96000000000000E+00,6.21000000000000E+00,6.74000000000000E+00,9.02000000000000E+00,6.37000000000000E+00,6.70000000000000E+00,6.33000000000000E+00,5.65000000000000E+00,6.17000000000000E+00,6.15000000000000E+00,5.59000000000000E+00,5.11000000000000E+00,2.46000000000000E+00,
GRD,,,,,,,,,,,,,,,,,,,,,,,,,,,,,,,,,,,,,2.30600000000000E+01,,,2.17500000000000E+01,,2.18200000000000E+01,1.82500000000000E+01,1.80400000000000E+01,,,1.39300000000000E+01,1.36100000000000E+01,1.41400000000000E+01,,1.00700000000000E+01,
GTM,,,,,,,,,,,,,,,,,,,,,,,,,,,,,,,,,,,,1.24000000000000E+01,,1.07200000000000E+01,9.72000000000000E+00,,9.05000000000000E+00,9.43000000000000E+00,9.56000000000000E+00,,7.31000000000000E+00,8.83000000000000E+00,,6.59000000000000E+00,5.06000000000000E+00,4.87000000000000E+00,4.75000000000000E+00,
GUY,,,,,,,,,,,,,,,,,,,,,,,,,,,,,,,,,,,,,2.72800000000000E+01,,,2.47200000000000E+01,2.49000000000000E+01,1.93800000000000E+01,2.00900000000000E+01,1.98000000000000E+01,,,1.78200000000000E+01,,1.76900000000000E+01,,1.55000000000000E+01,
HIC,,,,,,,,,,,,,,,,,,,,,,,,,,,,,,,,,,,,,,,,9.27000000000000E+00,8.17000000000000E+00,8.12000000000000E+00,8.59000000000000E+00,9.36000000000000E+00,6.43000000000000E+00,5.31000000000000E+00,7.50000000000000E+00,7.96000000000000E+00,6.68000000000000E+00,6.42000000000000E+00,,
HKG,,,,,,,,,,,,,,,,,,,,,,,,,,,,,0.00000000000000E+00,,,,,,,,,,0.00000000000000E+00,,,,,,,0.00000000000000E+00,0.00000000000000E+00,0.00000000000000E+00,0.00000000000000E+00,0.00000000000000E+00,0.00000000000000E+00,
HND,,,,,,,,,,,,,,,,,,,,,,,,,,,,,,,,,,,,1.29100000000000E+01,,,,1.19200000000000E+01,1.10800000000000E+01,1.05500000000000E+01,9.76000000000000E+00,,7.35000000000000E+00,9.67000000000000E+00,,7.04000000000000E+00,5.62000000000000E+00,9.88000000000000E+00,,
HRV,,,,,,,,,,,,,,,,,,,,,,,,,,,,,,,,,,,,,,,,,,7.46000000000000E+00,,,5.18000000000000E+00,4.97000000000000E+00,4.86000000000000E+00,4.41000000000000E+00,4.39000000000000E+00,4.87000000000000E+00,4.52000000000000E+00,
HTI,,,,,,,,,,,,,,,,,,,,,,,,,,,,,,,,,,,,,,,,,,,,,,,,5.56000000000000E+00,5.55000000000000E+00,5.77000000000000E+00,,
HUN,,,,,,,,,,,,,,,,,,,,,,,,,,,,,5.87000000000000E+00,6.23000000000000E+00,7.38000000000000E+00,7.18000000000000E+00,7.44000000000000E+00,6.31000000000000E+00,6.34000000000000E+00,1.29700000000000E+01,9.73000000000000E+00,9.31000000000000E+00,7.96000000000000E+00,6.21000000000000E+00,6.74000000000000E+00,9.02000000000000E+00,6.37000000000000E+00,6.70000000000000E+00,6.33000000000000E+00,5.65000000000000E+00,6.17000000000000E+00,6.15000000000000E+00,5.59000000000000E+00,5.11000000000000E+00,2.46000000000000E+00,
IDN,,,,,,,,,,,,,,,,,,,,,,,,,,,,,,1.76600000000000E+01,1.64800000000000E+01,,,1.59200000000000E+01,,1.22800000000000E+01,1.17300000000000E+01,,,1.07500000000000E+01,6.02000000000000E+00,6.07000000000000E+00,7.67000000000000E+00,7.34000000000000E+00,7.24000000000000E+00,6.64000000000000E+00,6.64000000000000E+00,6.62000000000000E+00,,5.67000000000000E+00,3.21000000000000E+00,
IND,,,,,,,,,,,,,,,,,,,,,,,,,,,,,,,7.15600000000000E+01,,5.15200000000000E+01,,,,,2.78100000000000E+01,,3.06200000000000E+01,,3.23000000000000E+01,,,3.06600000000000E+01,2.49800000000000E+01,,,1.96900000000000E+01,2.01300000000000E+01,,
IRL,,,,,,,,,,,,,,,,,,,,,,,,,,,,,5.87000000000000E+00,6.23000000000000E+00,7.38000000000000E+00,7.18000000000000E+00,7.44000000000000E+00,6.31000000000000E+00,6.34000000000000E+00,1.29700000000000E+01,9.73000000000000E+00,9.31000000000000E+00,7.96000000000000E+00,6.21000000000000E+00,6.74000000000000E+00,9.02000000000000E+00,6.37000000000000E+00,6.70000000000000E+00,6.33000000000000E+00,5.65000000000000E+00,6.17000000000000E+00,6.15000000000000E+00,5.59000000000000E+00,5.11000000000000E+00,2.46000000000000E+00,
IRN,,,,,,,,,,,,,,,,,,,,,,,,,,,,,,,,,,,,,,,,,2.38300000000000E+01,,,1.56000000000000E+01,1.50100000000000E+01,,,1.68700000000000E+01,2.16500000000000E+01,,,
ISL,,,,,,,,,,,,,,,,,,,,,,,,,,,,,,,,,,3.33000000000000E+00,,,7.45000000000000E+00,,,,,1.29300000000000E+01,,1.13500000000000E+01,,,1.07400000000000E+01,1.63800000000000E+01,1.09300000000000E+01,8.92000000000000E+00,2.31000000000000E+00,
ISR,,,,,,,,,,,,,,,,,,,,,,,,,,,,,,,,,,4.71000000000000E+00,,,,,,,,,,,6.16000000000000E+00,6.99000000000000E+00,7.62000000000000E+00,4.84000000000000E+00,5.06000000000000E+00,8.81000000000000E+00,,
ITA,,,,,,,,,,,,,,,,,,,,,,,,,,,,,5.87000000000000E+00,6.23000000000000E+00,7.38000000000000E+00,7.18000000000000E+00,7.44000000000000E+00,6.31000000000000E+00,6.34000000000000E+00,1.29700000000000E+01,9.73000000000000E+00,9.31000000000000E+00,7.96000000000000E+00,6.21000000000000E+00,6.74000000000000E+00,9.02000000000000E+00,6.37000000000000E+00,6.70000000000000E+00,6.33000000000000E+00,5.65000000000000E+00,6.17000000000000E+00,6.15000000000000E+00,5.59000000000000E+00,5.11000000000000E+00,2.46000000000000E+00,
JAM,,,,,,,,,,,,,,,,,,,,,,,,,,,,,,,,,,,,,2.36200000000000E+01,,,2.24200000000000E+01,1.53900000000000E+01,1.53800000000000E+01,1.56400000000000E+01,1.55600000000000E+01,,,1.58500000000000E+01,1.61100000000000E+01,,,1.39000000000000E+01,
JOR,,,,,,,,,,,,,,,,,,,,,,,,,,,,,,,,,,,,,,,,,2.78600000000000E+01,2.21800000000000E+01,2.16700000000000E+01,2.02200000000000E+01,,1.55400000000000E+01,1.42100000000000E+01,1.43700000000000E+01,1.44300000000000E+01,1.42000000000000E+01,,
JPN,,,,,,,,,,,,,,,,,,,,,,,,,,,,,7.14000000000000E+00,7.33000000000000E+00,7.40000000000000E+00,7.46000000000000E+00,7.33000000000000E+00,7.39000000000000E+00,7.55000000000000E+00,9.87000000000000E+00,1.34600000000000E+01,7.79000000000000E+00,7.91000000000000E+00,8.03000000000000E+00,7.98000000000000E+00,8.45000000000000E+00,8.45000000000000E+00,8.63000000000000E+00,8.26000000000000E+00,8.47000000000000E+00,8.63000000000000E+00,1.15400000000000E+01,1.13100000000000E+01,8.28000000000000E+00,5.11000000000000E+00,
KAZ,,,,,,,,,,,,,,,,,,,,,,,,,,,,,,,,,,,,,1.07500000000000E+01,,,,,,,,3.41000000000000E+00,,,,7.25000000000000E+00,,6.09000000000000E+00,
KEN,,,,,,,,,,,,,,,,,,,,,,,,,,,,,,,,,,,3.21600000000000E+01,,,,,,2.10400000000000E+01,2.27300000000000E+01,,,2.00100000000000E+01,1.56500000000000E+01,1.48000000000000E+01,1.59000000000000E+01,1.56400000000000E+01,1.61500000000000E+01,1.60000000000000E+01,
KGZ,,,,,,,,,,,,,,,,,,,,,,,,,,,,,,,,,,,,0.00000000000000E+00,,,,,,,8.28000000000000E+00,6.71000000000000E+00,,,4.62000000000000E+00,4.56000000000000E+00,4.52000000000000E+00,4.52000000000000E+00,4.53000000000000E+00,
KHM,,,,,,,,,,,,,,,,,,,,,,,,,,,,,,,,,,,,,,,,,,1.82600000000000E+01,1.83500000000000E+01,1.75300000000000E+01,,1.61300000000000E+01,,1.46600000000000E+01,1.37700000000000E+01,,,
KNA,,,,,,,,,,,,,,,,,,,,,,,,,,,,,,,,,,,,,2.24600000000000E+01,,,2.15000000000000E+01,1.59000000000000E+01,1.73900000000000E+01,1.74500000000000E+01,1.72100000000000E+01,,,1.44000000000000E+01,1.30000000000000E+01,1.30500000000000E+01,1.83400000000000E+01,9.86000000000000E+00,
KOR,,,,,,,,,,,,,,,,,,,,,,,,,,,,,1.90200000000000E+01,1.37600000000000E+01,1.38000000000000E+01,,1.29800000000000E+01,,,1.14300000000000E+01,2.09000000000000E+01,,,1.11200000000000E+01,,,2.03700000000000E+01,,2.11500000000000E+01,,2.14500000000000E+01,2.08800000000000E+01,,2.42500000000000E+01,2.63100000000000E+01,
KWT,,,,,,,,,,,,,,,,,,,,,,,,,,,,,,,,,,,,,,,,,,,1.47000000000000E+00,,,3.21000000000000E+00,3.21000000000000E+00,3.48000000000000E+00,3.33000000000000E+00,3.36000000000000E+00,,
LAC,,,,,,,,,,,,,,,,,,,,,,,,,,,,,,,,,,,,,,,,1.42400000000000E+01,1.35100000000000E+01,1.29900000000000E+01,1.23700000000000E+01,1.52300000000000E+01,9.02000000000000E+00,9.54000000000000E+00,9.51000000000000E+00,9.29000000000000E+00,8.18000000000000E+00,7.92000000000000E+00,,
LAO,,,,,,,,,,,,,,,,,,,,,,,,,,,,,,,,,,,,,,,,,1.51500000000000E+01,1.55400000000000E+01,,,1.44800000000000E+01,1.18200000000000E+01,1.06700000000000E+01,9.91000000000000E+00,1.60300000000000E+01,,,
LBN,,,,,,,,,,,,,,,,,,,,,,,,,,,,,,,,,,,,,,,,1.27300000000000E+01,2.32600000000000E+01,1.46000000000000E+01,1.36800000000000E+01,,1.34600000000000E+01,1.35900000000000E+01,1.05800000000000E+01,8.15000000000000E+00,,,,
LBY,,,,,,,,,,,,,,,,,,,,,,,,,,,,,,,,,,,,,2.46700000000000E+01,,,,,,1.93500000000000E+01,,,,0.00000000000000E+00,,,,,
LCA,,,,,,,,,,,,,,,,,,,,,,,,,,,,,,,,,,,,,2.26500000000000E+01,,,2.16400000000000E+01,2.16100000000000E+01,1.72200000000000E+01,1.71200000000000E+01,1.73800000000000E+01,,1.74300000000000E+01,1.29200000000000E+01,1.26500000000000E+01,,,,
LIC,,,,,,,,,,,,,,,,,,,,,,,,,,,,,,,,,,,,,,,,2.16900000000000E+01,1.87300000000000E+01,1.57700000000000E+01,1.59200000000000E+01,1.48100000000000E+01,1.46400000000000E+01,1.59100000000000E+01,1.33200000000000E+01,1.33800000000000E+01,1.35700000000000E+01,1.42800000000000E+01,,
LKA,,,,,,,,,,,,,,,,,,,,,,,,,,,,,,,2.98300000000000E+01,,,3.13100000000000E+01,3.23900000000000E+01,,,2.64300000000000E+01,,,1.56200000000000E+01,1.44800000000000E+01,,,1.71000000000000E+01,1.77900000000000E+01,1.75900000000000E+01,,,1.84300000000000E+01,1.53000000000000E+01,
LMC,,,,,,,,,,,,,,,,,,,,,,,,,,,,,,,,,,,,,,,,1.72000000000000E+01,1.38700000000000E+01,1.57600000000000E+01,1.53700000000000E+01,1.44300000000000E+01,1.80200000000000E+01,1.75900000000000E+01,1.13100000000000E+01,1.16800000000000E+01,1.27400000000000E+01,1.32300000000000E+01,,
LMY,,,,,,,,,,,,,,,,,,,,,,,,,,,,,,,,,,,,,,,,1.56400000000000E+01,1.61800000000000E+01,1.41600000000000E+01,1.43300000000000E+01,1.42600000000000E+01,1.37600000000000E+01,1.34800000000000E+01,1.07400000000000E+01,1.05800000000000E+01,1.08900000000000E+01,1.12600000000000E+01,,
LSO,,,,,,,,,,,,,,,,,,,,,,,,,,,,,,,,,,,,,,,,,,1.34500000000000E+01,,,8.95000000000000E+00,6.86000000000000E+00,6.84000000000000E+00,7.45000000000000E+00,6.73000000000000E+00,2.76300000000000E+01,9.21000000000000E+00,
LTU,,,,,,,,,,,,,,,,,,,,,,,,,,,,,5.87000000000000E+00,6.23000000000000E+00,7.38000000000000E+00,7.18000000000000E+00,7.44000000000000E+00,6.31000000000000E+00,6.34000000000000E+00,1.29700000000000E+01,9.73000000000000E+00,9.31000000000000E+00,7.96000000000000E+00,6.21000000000000E+00,6.74000000000000E+00,9.02000000000000E+00,6.37000000000000E+00,6.70000000000000E+00,6.33000000000000E+00,5.65000000000000E+00,6.17000000000000E+00,6.15000000000000E+00,5.59000000000000E+00,5.11000000000000E+00,2.46000000000000E+00,
LUX,,,,,,,,,,,,,,,,,,,,,,,,,,,,,5.87000000000000E+00,6.23000000000000E+00,7.38000000000000E+00,7.18000000000000E+00,7.44000000000000E+00,6.31000000000000E+00,6.34000000000000E+00,1.29700000000000E+01,9.73000000000000E+00,9.31000000000000E+00,7.96000000000000E+00,6.21000000000000E+00,6.74000000000000E+00,9.02000000000000E+00,6.37000000000000E+00,6.70000000000000E+00,6.33000000000000E+00,5.65000000000000E+00,6.17000000000000E+00,6.15000000000000E+00,5.59000000000000E+00,5.11000000000000E+00,2.46000000000000E+00,
LVA,,,,,,,,,,,,,,,,,,,,,,,,,,,,,5.87000000000000E+00,6.23000000000000E+00,7.38000000000000E+00,7.18000000000000E+00,7.44000000000000E+00,6.31000000000000E+00,6.34000000000000E+00,1.29700000000000E+01,9.73000000000000E+00,9.31000000000000E+00,7.96000000000000E+00,6.21000000000000E+00,6.74000000000000E+00,9.02000000000000E+00,6.37000000000000E+00,6.70000000000000E+00,6.33000000000000E+00,5.65000000000000E+00,6.17000000000000E+00,6.15000000000000E+00,5.59000000000000E+00,5.11000000000000E+00,2.46000000000000E+00,
MAC,,,,,,,,,,,,,,,,,,,,,,,,,,,,,,,,,,,,,,,,,,,,,,,,0.00000000000000E+00,0.00000000000000E+00,0.00000000000000E+00,0.00000000000000E+00,
MAR,,,,,,,,,,,,,,,,,,,,,,,,,,,,,,,,,,5.47200000000000E+01,,,,2.47700000000000E+01,,,3.74600000000000E+01,3.44400000000000E+01,3.47100000000000E+01,3.37400000000000E+01,,2.34000000000000E+01,2.17200000000000E+01,1.97100000000000E+01,1.93900000000000E+01,1.80000000000000E+01,,
MDA,,,,,,,,,,,,,,,,,,,,,,,,,,,,,,,,,,,,,1.07900000000000E+01,,,,8.55000000000000E+00,8.73000000000000E+00,,,,,7.11000000000000E+00,,6.56000000000000E+00,,6.95000000000000E+00,
MDG,,,,,,,,,,,,,,,,,,,,,,,,,,,,,,,,,,,,6.11000000000000E+00,,,,,,5.58000000000000E+00,,,,1.66400000000000E+01,1.45400000000000E+01,1.40000000000000E+01,1.39100000000000E+01,,1.25600000000000E+01,
MDV,,,,,,,,,,,,,,,,,,,,,,,,,,,,,,,,,,,,,,,,,1.85200000000000E+01,1.88300000000000E+01,1.79900000000000E+01,1.78200000000000E+01,1.73700000000000E+01,1.80800000000000E+01,1.80600000000000E+01,,1.74900000000000E+01,1.74700000000000E+01,,
MEX,,,,,,,,,,,,,,,,,,,,,,,,,,,,,,,,1.29800000000000E+01,,,,1.10300000000000E+01,,1.55700000000000E+01,1.54300000000000E+01,1.51800000000000E+01,1.88600000000000E+01,1.87400000000000E+01,1.35900000000000E+01,1.88700000000000E+01,9.50000000000000E+00,8.55000000000000E+00,7.24000000000000E+00,,8.16000000000000E+00,7.42000000000000E+00,1.06500000000000E+01,
MIC,,,,,,,,,,,,,,,,,,,,,,,,,,,,,,,,,,,,,,,,1.52600000000000E+01,1.58400000000000E+01,1.41300000000000E+01,1.40800000000000E+01,1.41400000000000E+01,1.36100000000000E+01,1.31600000000000E+01,1.02800000000000E+01,9.96000000000000E+00,1.03600000000000E+01,1.07900000000000E+01,,
MKD,,,,,,,,,,,,,,,,,,,,,,,,,,,,,,,,,,,,,,,,,,1.19500000000000E+01,,,1.20600000000000E+01,1.00100000000000E+01,8.63000000000000E+00,9.30000000000000E+00,7.88000000000000E+00,8.20000000000000E+00,7.39000000000000E+00,
MLI,,,,,,,,,,,,,,,,,,,,,,,,,,,,,,,,,,,,1.91800000000000E+01,,,,,,1.48100000000000E+01,1.49500000000000E+01,1.48500000000000E+01,1.49600000000000E+01,1.49500000000000E+01,1.14700000000000E+01,1.16000000000000E+01,1.27700000000000E+01,1.27700000000000E+01,1.27700000000000E+01,
MLT,,,,,,,,,,,,,,,,,,,,,,,,,,,,,5.87000000000000E+00,6.23000000000000E+00,7.38000000000000E+00,7.18000000000000E+00,7.44000000000000E+00,6.31000000000000E+00,6.34000000000000E+00,1.29700000000000E+01,9.73000000000000E+00,9.31000000000000E+00,7.96000000000000E+00,6.21000000000000E+00,6.74000000000000E+00,9.02000000000000E+00,6.37000000000000E+00,6.70000000000000E+00,6.33000000000000E+00,5.65000000000000E+00,6.17000000000000E+00,6.15000000000000E+00,5.59000000000000E+00,5.11000000000000E+00,2.46000000000000E+00,
MMR,,,,,,,,,,,,,,,,,,,,,,,,,,,,,,,,,,,,,,,,,,7.59000000000000E+00,7.68000000000000E+00,7.76000000000000E+00,7.56000000000000E+00,7.07000000000000E+00,6.49000000000000E+00,5.77000000000000E+00,5.10000000000000E+00,,,
MNA,,,,,,,,,,,,,,,,,,,,,,,,,,,,,,,,,,,,,,,,1.27300000000000E+01,2.61700000000000E+01,2.20500000000000E+01,2.16800000000000E+01,2.57600000000000E+01,3.68800000000000E+01,2.53300000000000E+01,1.44600000000000E+01,1.27600000000000E+01,2.05000000000000E+01,1.72100000000000E+01,,
MNE,,,,,,,,,,,,,,,,,,,,,,,,,,,,,,,,,,,,,,,,,,,,,,,,8.60000000000000E+00,6.68000000000000E+00,9.88000000000000E+00,5.83000000000000E+00,
MNG,,,,,,,,,,,,,,,,,,,,,,,,,,,,,,,,,,,,,,,,,,,,,,5.04000000000000E+00,5.01000000000000E+00,5.18000000000000E+00,5.17000000000000E+00,5.18000000000000E+00,,
MOZ,,,,,,,,,,,,,,,,,,,,,,,,,,,,,,,,,,,5.00000000000000E+00,,,2.21300000000000E+01,,,,1.86200000000000E+01,1.61400000000000E+01,1.61400000000000E+01,,1.62700000000000E+01,1.46400000000000E+01,1.38200000000000E+01,,8.22000000000000E+00,8.65000000000000E+00,
MRT,,,,,,,,,,,,,,,,,,,,,,,,,,,,,,,,,,,,,,,,,,1.26100000000000E+01,,,,,1.14500000000000E+01,1.11400000000000E+01,,,,
MUS,,,,,,,,,,,,,,,,,,,,,,,,,,,,,,,,,,,,2.55500000000000E+01,,2.33300000000000E+01,2.34900000000000E+01,,,,1.95500000000000E+01,,,9.00000000000000E+00,6.13000000000000E+00,6.20000000000000E+00,6.19000000000000E+00,1.22000000000000E+00,1.22000000000000E+00,
MWI,,,,,,,,,,,,,,,,,,,,,,,,,,,,,,,,,,,2.86300000000000E+01,,2.15800000000000E+01,2.46600000000000E+01,1.59600000000000E+01,,,1.22600000000000E+01,,,,,1.27200000000000E+01,,1.27200000000000E+01,1.48300000000000E+01,1.33700000000000E+01,
MYS,,,,,,,,,,,,,,,,,,,,,,,,,,,,,1.02800000000000E+01,,,9.14000000000000E+00,,8.87000000000000E+00,,,1.27000000000000E+01,1.35100000000000E+01,,,,4.37000000000000E+00,4.27000000000000E+00,4.63000000000000E+00,,3.42000000000000E+00,3.03000000000000E+00,2.89000000000000E+00,2.43000000000000E+00,1.01400000000000E+01,,
MYT,,,,,,,,,,,,,,,,,,,,,,,,,,,,,,,,,,,,,,,,,,,,,,,,3.79000000000000E+00,3.79000000000000E+00,3.79000000000000E+00,3.71000000000000E+00,
NAM,,,,,,,,,,,,,,,,,,,,,,,,,,,,,,,,,,,,,,,,,,4.75000000000000E+00,,,5.26000000000000E+00,3.42000000000000E+00,3.47000000000000E+00,4.22000000000000E+00,3.51000000000000E+00,5.71000000000000E+00,4.13000000000000E+00,
NER,,,,,,,,,,,,,,,,,,,,,,,,,,,,,,,,,,,,,,,,,,1.51200000000000E+01,1.47500000000000E+01,1.50100000000000E+01,1.51100000000000E+01,1.53600000000000E+01,1.30800000000000E+01,1.31400000000000E+01,1.40100000000000E+01,1.40100000000000E+01,1.40100000000000E+01,
NGA,,,,,,,,,,,,,,,,,,,,,,,,,,,,,3.30100000000000E+01,3.33500000000000E+01,3.35300000000000E+01,,3.30400000000000E+01,,,1.00670000000000E+02,2.61900000000000E+01,2.62200000000000E+01,2.62200000000000E+01,2.74300000000000E+01,2.85100000000000E+01,2.88000000000000E+01,3.76100000000000E+01,,,1.47500000000000E+01,1.27900000000000E+01,,1.22100000000000E+01,1.48300000000000E+01,1.18200000000000E+01,
NIC,,,,,,,,,,,,,,,,,,,,,,,,,,,,,,,,,,,,8.63000000000000E+00,,,7.86000000000000E+00,1.21100000000000E+01,4.88000000000000E+00,6.48000000000000E+00,6.29000000000000E+00,,7.44000000000000E+00,1.05800000000000E+01,,7.67000000000000E+00,,5.92000000000000E+00,5.62000000000000E+00,
NLD,,,,,,,,,,,,,,,,,,,,,,,,,,,,,5.87000000000000E+00,6.23000000000000E+00,7.38000000000000E+00,7.18000000000000E+00,7.44000000000000E+00,6.31000000000000E+00,6.34000000000000E+00,1.29700000000000E+01,9.73000000000000E+00,9.31000000000000E+00,7.96000000000000E+00,6.21000000000000E+00,6.74000000000000E+00,9.02000000000000E+00,6.37000000000000E+00,6.70000000000000E+00,6.33000000000000E+00,5.65000000000000E+00,6.17000000000000E+00,6.15000000000000E+00,5.59000000000000E+00,5.11000000000000E+00,2.46000000000000E+00,
NOC,,,,,,,,,,,,,,,,,,,,,,,,,,,,,,,,,,,,,,,,1.47700000000000E+01,1.29500000000000E+01,9.86000000000000E+00,1.12700000000000E+01,8.45000000000000E+00,4.14000000000000E+00,4.34000000000000E+00,5.54000000000000E+00,5.27000000000000E+00,4.62000000000000E+00,4.82000000000000E+00,3.24000000000000E+00,
NOR,,,,,,,,,,,,,,,,,,,,,,,,,,,,,2.25000000000000E+00,,,,,2.11000000000000E+00,,2.95300000000000E+01,3.56000000000000E+00,,3.50000000000000E+00,,3.53000000000000E+00,2.83000000000000E+00,1.90000000000000E+01,1.81800000000000E+01,,,1.81500000000000E+01,2.96700000000000E+01,2.63900000000000E+01,1.58300000000000E+01,1.95000000000000E+00,
NPL,,,,,,,,,,,,,,,,,,,,,,,,,,,,,,,,,,1.13500000000000E+01,,,,,1.67100000000000E+01,1.10500000000000E+01,1.47700000000000E+01,,1.36100000000000E+01,1.36800000000000E+01,1.39400000000000E+01,1.38400000000000E+01,1.25000000000000E+01,1.24500000000000E+01,,1.55800000000000E+01,1.28800000000000E+01,
NZL,,,,,,,,,,,,,,,,,,,,,,,,,,,,,,,,,1.43700000000000E+01,8.01000000000000E+00,,,3.37000000000000E+00,3.34000000000000E+00,2.64000000000000E+00,2.16000000000000E+00,1.87000000000000E+00,,6.19000000000000E+00,6.16000000000000E+00,7.40000000000000E+00,8.07000000000000E+00,8.66000000000000E+00,2.12000000000000E+00,1.81000000000000E+00,1.58000000000000E+00,1.42000000000000E+00,
OEC,,,,,,,,,,,,,,,,,,,,,,,,,,,,,,,,,,,,,,,,7.15000000000000E+00,6.45000000000000E+00,7.05000000000000E+00,8.09000000000000E+00,8.92000000000000E+00,7.01000000000000E+00,5.99000000000000E+00,8.65000000000000E+00,9.70000000000000E+00,8.10000000000000E+00,7.11000000000000E+00,,
OED,,,,,,,,,,,,,,,,,,,,,,,,,,,,,,,,,,,,,,,,8.26000000000000E+00,7.36000000000000E+00,7.85000000000000E+00,8.38000000000000E+00,1.01000000000000E+01,7.24000000000000E+00,6.61000000000000E+00,8.80000000000000E+00,1.00700000000000E+01,8.40000000000000E+00,7.88000000000000E+00,5.43000000000000E+00,
OMN,,,,,,,,,,,,,,,,,,,,,,,,,,,,,,,,,7.25000000000000E+00,,,,,3.55000000000000E+00,,,,,9.47000000000000E+00,,,4.05000000000000E+00,4.07000000000000E+00,4.54000000000000E+00,4.54000000000000E+00,4.98000000000000E+00,,
PAK,,,,,,,,,,,,,,,,,,,,,,,,,,,,,,,,,,,,4.09000000000000E+01,,,3.92200000000000E+01,,,1.71800000000000E+01,1.54100000000000E+01,1.50600000000000E+01,1.49200000000000E+01,1.38000000000000E+01,1.40900000000000E+01,1.43400000000000E+01,1.28300000000000E+01,1.44600000000000E+01,,
PAN,,,,,,,,,,,,,,,,,,,,,,,,,,,,,,,,,,,,,,1.77800000000000E+01,1.04800000000000E+01,,1.18500000000000E+01,1.13000000000000E+01,,,,1.11700000000000E+01,1.15300000000000E+01,1.12500000000000E+01,1.10900000000000E+01,1.14900000000000E+01,,
PER,,,,,,,,,,,,,,,,,,,,,,,,,,,,,,,,,,1.81700000000000E+01,,1.62700000000000E+01,,1.42400000000000E+01,1.42500000000000E+01,1.41500000000000E+01,1.55400000000000E+01,,,,1.09400000000000E+01,1.07400000000000E+01,9.23000000000000E+00,9.30000000000000E+00,5.28000000000000E+00,3.24000000000000E+00,3.76000000000000E+00,
PHL,,,,,,,,,,,,,,,,,,,,,,,,,,,,,2.97500000000000E+01,2.97600000000000E+01,2.08600000000000E+01,,2.06700000000000E+01,2.48000000000000E+01,2.30900000000000E+01,2.21300000000000E+01,,,1.21500000000000E+01,1.10900000000000E+01,8.18000000000000E+00,8.19000000000000E+00,6.65000000000000E+00,5.74000000000000E+00,6.70000000000000E+00,6.96000000000000E+00,6.90000000000000E+00,5.96000000000000E+00,7.00000000000000E+00,6.79000000000000E+00,6.77000000000000E+00,
PLW,,,,,,,,,,,,,,,,,,,,,,,,,,,,,,,,,,,,,,,,,,,,,,5.10000000000000E-01,5.10000000000000E-01,,,,7.20000000000000E-01,
PNG,,,,,,,,,,,,,,,,,,,,,,,,,,,,,,,,,,,,,,3.46500000000000E+01,,,,,2.07700000000000E+01,1.52100000000000E+01,1.50300000000000E+01,1.47000000000000E+01,1.27900000000000E+01,1.60500000000000E+01,1.51600000000000E+01,,1.17900000000000E+01,
POL,,,,,,,,,,,,,,,,,,,,,,,,,,,,,5.87000000000000E+00,6.23000000000000E+00,7.38000000000000E+00,7.18000000000000E+00,7.44000000000000E+00,6.31000000000000E+00,6.34000000000000E+00,1.29700000000000E+01,9.73000000000000E+00,9.31000000000000E+00,7.96000000000000E+00,6.21000000000000E+00,6.74000000000000E+00,9.02000000000000E+00,6.37000000000000E+00,6.70000000000000E+00,6.33000000000000E+00,5.65000000000000E+00,6.17000000000000E+00,6.15000000000000E+00,5.59000000000000E+00,5.11000000000000E+00,2.46000000000000E+00,
PRT,,,,,,,,,,,,,,,,,,,,,,,,,,,,,5.87000000000000E+00,6.23000000000000E+00,7.38000000000000E+00,7.18000000000000E+00,7.44000000000000E+00,6.31000000000000E+00,6.34000000000000E+00,1.29700000000000E+01,9.73000000000000E+00,9.31000000000000E+00,7.96000000000000E+00,6.21000000000000E+00,6.74000000000000E+00,9.02000000000000E+00,6.37000000000000E+00,6.70000000000000E+00,6.33000000000000E+00,5.65000000000000E+00,6.17000000000000E+00,6.15000000000000E+00,5.59000000000000E+00,5.11000000000000E+00,2.46000000000000E+00,
PRY,,,,,,,,,,,,,,,,,,,,,,,,,,,,,,,,1.38400000000000E+01,,,8.54000000000000E+00,8.07000000000000E+00,1.20700000000000E+01,1.18500000000000E+01,1.19200000000000E+01,9.63000000000000E+00,1.35100000000000E+01,1.27500000000000E+01,1.22300000000000E+01,1.22500000000000E+01,7.02000000000000E+00,6.44000000000000E+00,5.43000000000000E+00,5.77000000000000E+00,6.43000000000000E+00,5.82000000000000E+00,5.81000000000000E+00,
PYF,,,,,,,,,,,,,,,,,,,,,,,,,,,,,,,,,,,,,,,,,,,,,,,,,4.20000000000000E+00,4.08000000000000E+00,,
QAT,,,,,,,,,,,,,,,,,,,,,,,,,,,,,,,,,,,,,,,,,,,4.51000000000000E+00,,,3.70000000000000E+00,3.56000000000000E+00,3.53000000000000E+00,5.37000000000000E+00,5.12000000000000E+00,,
ROM,,,,,,,,,,,,,,,,,,,,,,,,,,,,,5.87000000000000E+00,6.23000000000000E+00,7.38000000000000E+00,7.18000000000000E+00,7.44000000000000E+00,6.31000000000000E+00,6.34000000000000E+00,1.29700000000000E+01,9.73000000000000E+00,9.31000000000000E+00,7.96000000000000E+00,6.21000000000000E+00,6.74000000000000E+00,9.02000000000000E+00,6.37000000000000E+00,6.70000000000000E+00,6.33000000000000E+00,5.65000000000000E+00,6.17000000000000E+00,6.15000000000000E+00,5.59000000000000E+00,5.11000000000000E+00,2.46000000000000E+00,
RUS,,,,,,,,,,,,,,,,,,,,,,,,,,,,,,,,,,3.13000000000000E+00,7.57000000000000E+00,,9.52000000000000E+00,1.11200000000000E+01,,,,9.36000000000000E+00,9.30000000000000E+00,,,1.05800000000000E+01,,8.79000000000000E+00,7.58000000000000E+00,7.70000000000000E+00,5.82000000000000E+00,
RWA,,,,,,,,,,,,,,,,,,,,,,,,,,,,,,,,,,5.89400000000000E+01,,,,,,,,1.31300000000000E+01,,1.26400000000000E+01,,1.68400000000000E+01,1.53200000000000E+01,,1.57400000000000E+01,,1.15000000000000E+01,
SAS,,,,,,,,,,,,,,,,,,,,,,,,,,,,,,,,,,,,,,,,2.53500000000000E+01,1.82300000000000E+01,2.32600000000000E+01,1.76900000000000E+01,1.69400000000000E+01,2.06600000000000E+01,1.91700000000000E+01,1.52400000000000E+01,1.36100000000000E+01,1.62900000000000E+01,1.78000000000000E+01,,
SAU,,,,,,,,,,,,,,,,,,,,,,,,,,,,,,,,,,,1.20600000000000E+01,,,,,1.26600000000000E+01,1.30300000000000E+01,,,6.28000000000000E+00,6.62000000000000E+00,3.23000000000000E+00,3.26000000000000E+00,3.38000000000000E+00,3.28000000000000E+00,3.53000000000000E+00,,
SDN,,,,,,,,,,,,,,,,,,,,,,,,,,,,,,,,,,,,,1.11700000000000E+01,,,,,,2.84200000000000E+01,,,,2.27600000000000E+01,,1.79800000000000E+01,1.58500000000000E+01,1.66300000000000E+01,
SEN,,,,,,,,,,,,,,,,,,,,,,,,,,,,,,,,,,,,,,,,,,1.44200000000000E+01,1.46500000000000E+01,1.45800000000000E+01,1.47500000000000E+01,1.48900000000000E+01,1.43700000000000E+01,1.44800000000000E+01,1.41000000000000E+01,1.41000000000000E+01,1.41400000000000E+01,
SGP,,,,,,,,,,,,,,,,,,,,,,,,,,,,,,1.60000000000000E-01,,,,,,0.00000000000000E+00,,,,,,2.60000000000000E-01,3.90000000000000E-01,3.20000000000000E-01,0.00000000000000E+00,3.40000000000000E-01,0.00000000000000E+00,2.40000000000000E-01,1.16000000000000E+00,9.40000000000000E-01,0.00000000000000E+00,
SLB,,,,,,,,,,,,,,,,,,,,,,,,,,,,,,,,,,,,5.37300000000000E+01,,,,,,,,,,,1.67900000000000E+01,1.60800000000000E+01,1.47900000000000E+01,,9.34000000000000E+00,
SLV,,,,,,,,,,,,,,,,,,,,,,,,,,,,,,,,,,,,1.26800000000000E+01,,1.10100000000000E+01,1.08000000000000E+01,,1.01600000000000E+01,1.03100000000000E+01,7.09000000000000E+00,,6.93000000000000E+00,1.06700000000000E+01,5.70000000000000E+00,6.84000000000000E+00,5.18000000000000E+00,4.73000000000000E+00,8.35000000000000E+00,
SRB,,,,,,,,,,,,,,,,,,,,,,,,,,,,,,,,,,,,,,,,,,1.08400000000000E+01,1.31700000000000E+01,,,1.09300000000000E+01,,,,,,
SSA,,,,,,,,,,,,,,,,,,,,,,,,,,,,,,,,,,,,,,,,1.54200000000000E+01,2.19000000000000E+01,1.53500000000000E+01,1.86900000000000E+01,1.49500000000000E+01,1.20600000000000E+01,1.42100000000000E+01,1.19400000000000E+01,1.32200000000000E+01,1.25400000000000E+01,1.27600000000000E+01,,
SUR,,,,,,,,,,,,,,,,,,,,,,,,,,,,,,,,,,,,,2.51000000000000E+01,,,2.28400000000000E+01,2.37800000000000E+01,,,,,,,1.77400000000000E+01,,,1.83100000000000E+01,
SVK,,,,,,,,,,,,,,,,,,,,,,,,,,,,,5.87000000000000E+00,6.23000000000000E+00,7.38000000000000E+00,7.18000000000000E+00,7.44000000000000E+00,6.31000000000000E+00,6.34000000000000E+00,1.29700000000000E+01,9.73000000000000E+00,9.31000000000000E+00,7.96000000000000E+00,6.21000000000000E+00,6.74000000000000E+00,9.02000000000000E+00,6.37000000000000E+00,6.70000000000000E+00,6.33000000000000E+00,5.65000000000000E+00,6.17000000000000E+00,6.15000000000000E+00,5.59000000000000E+00,5.11000000000000E+00,2.46000000000000E+00,
SVN,,,,,,,,,,,,,,,,,,,,,,,,,,,,,5.87000000000000E+00,6.23000000000000E+00,7.38000000000000E+00,7.18000000000000E+00,7.44000000000000E+00,6.31000000000000E+00,6.34000000000000E+00,1.29700000000000E+01,9.73000000000000E+00,9.31000000000000E+00,7.96000000000000E+00,6.21000000000000E+00,6.74000000000000E+00,9.02000000000000E+00,6.37000000000000E+00,6.70000000000000E+00,6.33000000000000E+00,5.65000000000000E+00,6.17000000000000E+00,6.15000000000000E+00,5.59000000000000E+00,5.11000000000000E+00,2.46000000000000E+00,
SWE,,,,,,,,,,,,,,,,,,,,,,,,,,,,,5.87000000000000E+00,6.23000000000000E+00,7.38000000000000E+00,7.18000000000000E+00,7.44000000000000E+00,6.31000000000000E+00,6.34000000000000E+00,1.29700000000000E+01,9.73000000000000E+00,9.31000000000000E+00,7.96000000000000E+00,6.21000000000000E+00,6.74000000000000E+00,9.02000000000000E+00,6.37000000000000E+00,6.70000000000000E+00,6.33000000000000E+00,5.65000000000000E+00,6.17000000000000E+00,6.15000000000000E+00,5.59000000000000E+00,5.11000000000000E+00,2.46000000000000E+00,
SWZ,,,,,,,,,,,,,,,,,,,,,,,,,,,,,,,,,,,,,,,,,,2.32000000000000E+00,,,9.82000000000000E+00,7.71000000000000E+00,7.81000000000000E+00,1.03400000000000E+01,7.99000000000000E+00,2.43900000000000E+01,9.67000000000000E+00,
SYC,,,,,,,,,,,,,,,,,,,,,,,,,,,,,,,,,,,,,,,,,4.01200000000000E+01,3.98400000000000E+01,,,,1.82100000000000E+01,1.28100000000000E+01,1.39800000000000E+01,,,,
SYR,,,,,,,,,,,,,,,,,,,,,,,,,,,,,,,,,,,,,,,,,,,1.44200000000000E+01,,,,,,,1.22400000000000E+01,6.48000000000000E+00,
TCD,,,,,,,,,,,,,,,,,,,,,,,,,,,,,,,,,,,,2.05400000000000E+01,,2.05400000000000E+01,,,,2.14100000000000E+01,2.24800000000000E+01,,,2.30400000000000E+01,,2.05900000000000E+01,,2.24500000000000E+01,,
TGO,,,,,,,,,,,,,,,,,,,,,,,,,,,,,,,,,,,,,,,,,,1.49500000000000E+01,1.48200000000000E+01,1.51700000000000E+01,1.51900000000000E+01,1.53300000000000E+01,1.38700000000000E+01,1.41800000000000E+01,1.46500000000000E+01,1.50000000000000E+01,1.44300000000000E+01,
THA,,,,,,,,,,,,,,,,,,,,,,,,,,,,,,2.95200000000000E+01,,2.95700000000000E+01,,3.76700000000000E+01,,2.65600000000000E+01,,,,,2.28300000000000E+01,1.58100000000000E+01,,1.58800000000000E+01,,1.31800000000000E+01,1.35200000000000E+01,1.32300000000000E+01,1.34900000000000E+01,1.58600000000000E+01,,
TJK,,,,,,,,,,,,,,,,,,,,,,,,,,,,,,,,,,,,,,,,,,,9.64000000000000E+00,,,,5.39000000000000E+00,,,,3.51000000000000E+00,
TKM,,,,,,,,,,,,,,,,,,,,,,,,,,,,,,,,,,,,,,,0.00000000000000E+00,,,,1.47300000000000E+01,,,,,,,,,
TON,,,,,,,,,,,,,,,,,,,,,,,,,,,,,,,,,,,,,,,,,,,,,,,,,,1.20500000000000E+01,1.19000000000000E+01,
TTO,,,,,,,,,,,,,,,,,,,,,,,,,,,,,,,,2.63400000000000E+01,2.81500000000000E+01,,,,1.74700000000000E+01,,,2.80200000000000E+01,,1.80200000000000E+01,1.50500000000000E+01,1.55900000000000E+01,,,1.69000000000000E+01,1.69000000000000E+01,1.66400000000000E+01,,,
TUN,,,,,,,,,,,,,,,,,,,,,,,,,,,,,,,2.50800000000000E+01,,2.53200000000000E+01,,,2.86800000000000E+01,,,3.01600000000000E+01,,,,4.40400000000000E+01,3.85700000000000E+01,3.79100000000000E+01,2.66300000000000E+01,3.22300000000000E+01,,2.67600000000000E+01,,,
TUR,,,,,,,,,,,,,,,,,,,,,,,,,,,,,,,,,,6.37000000000000E+00,,9.57000000000000E+00,,1.45600000000000E+01,,1.64500000000000E+01,,,,1.17900000000000E+01,,1.26900000000000E+01,1.14000000000000E+01,1.38700000000000E+01,1.24700000000000E+01,1.38100000000000E+01,1.43600000000000E+01,
TUV,,,,,,,,,,,,,,,,,,,,,,,,,,,,,,,,,,,,,,,,,,,,,,,,,,,1.15400000000000E+01,
TZA,,,,,,,,,,,,,,,,,,,,,,,,,,,,,,,,,,2.24000000000000E+01,,,,2.99400000000000E+01,2.65200000000000E+01,,1.90100000000000E+01,,,1.55900000000000E+01,,1.86500000000000E+01,1.68700000000000E+01,1.65900000000000E+01,1.64600000000000E+01,1.64200000000000E+01,1.74500000000000E+01,
UGA,,,,,,,,,,,,,,,,,,,,,,,,,,,,,,,,,,,1.95200000000000E+01,,,,,,1.04700000000000E+01,1.03500000000000E+01,1.02000000000000E+01,9.96000000000000E+00,9.79000000000000E+00,1.66500000000000E+01,1.45500000000000E+01,1.58200000000000E+01,1.56400000000000E+01,1.56100000000000E+01,1.57100000000000E+01,
UKR,,,,,,,,,,,,,,,,,,,,,,,,,,,,,,,,,,,,8.82000000000000E+00,,1.27500000000000E+01,,,,,6.90000000000000E+00,,,,5.20000000000000E+00,,5.34000000000000E+00,4.68000000000000E+00,5.90000000000000E+00,
UMC,,,,,,,,,,,,,,,,,,,,,,,,,,,,,,,,,,,,,,,,1.44300000000000E+01,1.71100000000000E+01,1.30400000000000E+01,1.33100000000000E+01,1.40100000000000E+01,1.09700000000000E+01,1.09300000000000E+01,9.74000000000000E+00,9.42000000000000E+00,9.15000000000000E+00,9.34000000000000E+00,,
URY,,,,,,,,,,,,,,,,,,,,,,,,,,,,,,,,,7.98000000000000E+00,,,1.05300000000000E+01,1.07100000000000E+01,1.06700000000000E+01,1.30700000000000E+01,1.28900000000000E+01,9.39000000000000E+00,9.00000000000000E+00,1.14400000000000E+01,,7.28000000000000E+00,6.31000000000000E+00,5.61000000000000E+00,5.79000000000000E+00,5.71000000000000E+00,5.66000000000000E+00,5.64000000000000E+00,
USA,,,,,,,,,,,,,,,,,,,,,,,,,,,,,,2.89000000000000E+00,2.80000000000000E+00,2.80000000000000E+00,2.82000000000000E+00,2.66000000000000E+00,,3.06000000000000E+00,2.76000000000000E+00,3.13000000000000E+00,3.09000000000000E+00,2.88000000000000E+00,2.84000000000000E+00,2.88000000000000E+00,2.96000000000000E+00,2.95000000000000E+00,2.86000000000000E+00,2.72000000000000E+00,2.70000000000000E+00,3.07000000000000E+00,2.63000000000000E+00,2.66000000000000E+00,2.55000000000000E+00,
UZB,,,,,,,,,,,,,,,,,,,,,,,,,,,,,,,,,,,,,,,,,,1.06700000000000E+01,,,,,1.08300000000000E+01,1.01700000000000E+01,1.23300000000000E+01,1.25800000000000E+01,,
VCT,,,,,,,,,,,,,,,,,,,,,,,,,,,,,,,,,,,,,2.22500000000000E+01,,,2.10500000000000E+01,2.07600000000000E+01,1.89400000000000E+01,1.90800000000000E+01,1.83100000000000E+01,,,1.36400000000000E+01,1.50900000000000E+01,,,,
VEN,,,,,,,,,,,,,,,,,,,,,,,,,,,,,,,,,1.63700000000000E+01,,,1.16700000000000E+01,,1.30500000000000E+01,1.35000000000000E+01,1.35800000000000E+01,1.35000000000000E+01,,1.38400000000000E+01,,1.22900000000000E+01,1.22400000000000E+01,1.07700000000000E+01,1.11700000000000E+01,1.13600000000000E+01,1.16000000000000E+01,1.21700000000000E+01,
VNM,,,,,,,,,,,,,,,,,,,,,,,,,,,,,,,,,,,2.17700000000000E+01,,,,,2.10400000000000E+01,,1.90300000000000E+01,1.80500000000000E+01,1.77200000000000E+01,1.80500000000000E+01,1.79100000000000E+01,1.52400000000000E+01,1.44500000000000E+01,1.07200000000000E+01,,8.57000000000000E+00,
VUT,,,,,,,,,,,,,,,,,,,,,,,,,,,,,,,,,,,,,,,,,,,2.08600000000000E+01,,,,1.97700000000000E+01,1.94100000000000E+01,1.94800000000000E+01,2.67200000000000E+01,,
WLD,,,,,,,,,,,,,,,,,,,,,,,,,,,,,,,,,,,,,,,,1.20300000000000E+01,1.21100000000000E+01,1.16600000000000E+01,1.16600000000000E+01,1.12100000000000E+01,1.03600000000000E+01,1.01100000000000E+01,9.19000000000000E+00,9.33000000000000E+00,9.10000000000000E+00,9.04000000000000E+00,,
YEM,,,,,,,,,,,,,,,,,,,,,,,,,,,,,,,,,,,,,,,,,1.35900000000000E+01,,,,,,9.55000000000000E+00,,,7.13000000000000E+00,,
ZAF,,,,,,,,,,,,,,,,,,,,,,,,,,,,,5.18000000000000E+00,,6.15000000000000E+00,6.20000000000000E+00,,8.43000000000000E+00,,,7.53000000000000E+00,7.42000000000000E+00,,6.66000000000000E+00,,6.78000000000000E+00,,,6.44000000000000E+00,5.62000000000000E+00,5.38000000000000E+00,5.83000000000000E+00,4.99000000000000E+00,5.11000000000000E+00,5.42000000000000E+00,
ZAR,,,,,,,,,,,,,,,,,,,,,,,,,,,,,,,,,,,,,,,,,,,,1.46200000000000E+01,,,1.41900000000000E+01,1.42400000000000E+01,1.40900000000000E+01,1.41900000000000E+01,,
ZMB,,,,,,,,,,,,,,,,,,,,,,,,,,,,,,,,,,2.93600000000000E+01,,,,1.73400000000000E+01,,,,,1.69300000000000E+01,1.37800000000000E+01,,1.49000000000000E+01,,,8.00000000000000E+00,9.19000000000000E+00,,
ZWE,,,,,,,,,,,,,,,,,,,,,,,,,,,,,,,,,,,,,3.58600000000000E+01,2.40300000000000E+01,2.11900000000000E+01,2.83800000000000E+01,,1.97500000000000E+01,2.03100000000000E+01,1.95700000000000E+01,,,,,,,,
