"Country Code",1960,1961,1962,1963,1964,1965,1966,1967,1968,1969,1970,1971,1972,1973,1974,1975,1976,1977,1978,1979,1980,1981,1982,1983,1984,1985,1986,1987,1988,1989,1990,1991,1992,1993,1994,1995,1996,1997,1998,1999,2000,2001,2002,2003,2004,2005,2006,2007,2008,2009,2010,2011AFG,,,,,,,,,,,,,,,,,,,,,,,,,,,,,,,,,,,,,,,,,,,,,4.24000000000000E+00,,5.58000000000000E+00,6.06000000000000E+00,6.25000000000000E+00,,,
AGO,,,,,,,,,,,,,,,,,,,,,,,,,,,,,,,,,,,,,,,,,,,5.83000000000000E+00,,,4.99000000000000E+00,4.99000000000000E+00,,6.20000000000000E+00,5.91000000000000E+00,,
ALB,,,,,,,,,,,,,,,,,,,,,,,,,,,,,,,,,,,,,,1.52000000000000E+01,,,,1.16000000000000E+01,8.66000000000000E+00,,,7.34000000000000E+00,,5.99000000000000E+00,1.43000000000000E+00,4.97000000000000E+00,,
ARE,,,,,,,,,,,,,,,,,,,,,,,,,,,,,,,,,,,,,,,,,,,,4.71000000000000E+00,,4.59000000000000E+00,4.59000000000000E+00,4.39000000000000E+00,4.37000000000000E+00,4.37000000000000E+00,,
ARG,,,,,,,,,,,,,,,,,,,,,,,,,,,,,,,,,1.37300000000000E+01,1.35800000000000E+01,,9.02000000000000E+00,1.43400000000000E+01,1.49200000000000E+01,1.64900000000000E+01,1.20100000000000E+01,1.13300000000000E+01,1.00100000000000E+01,1.31200000000000E+01,1.40500000000000E+01,6.50000000000000E+00,5.74000000000000E+00,6.11000000000000E+00,6.40000000000000E+00,5.94000000000000E+00,1.10100000000000E+01,7.04000000000000E+00,
ARM,,,,,,,,,,,,,,,,,,,,,,,,,,,,,,,,,,,,,,,,,,1.55000000000000E+00,,,,,2.02000000000000E+00,,2.44000000000000E+00,,,
ATG,,,,,,,,,,,,,,,,,,,,,,,,,,,,,,,,,,,,,2.50800000000000E+01,,,2.21900000000000E+01,1.53900000000000E+01,1.24900000000000E+01,1.24900000000000E+01,1.39200000000000E+01,,,1.27400000000000E+01,1.27400000000000E+01,1.37200000000000E+01,1.45300000000000E+01,,
AUS,,,,,,,,,,,,,,,,,,,,,,,,,,,,,,,,1.05600000000000E+01,,1.01500000000000E+01,,,9.58000000000000E+00,1.00800000000000E+01,9.93000000000000E+00,9.31000000000000E+00,9.20000000000000E+00,9.21000000000000E+00,4.30000000000000E+00,4.41000000000000E+00,4.36000000000000E+00,3.68000000000000E+00,3.04000000000000E+00,2.27000000000000E+00,3.31000000000000E+00,6.88000000000000E+00,2.50000000000000E+00,
AUT,,,,,,,,,,,,,,,,,,,,,,,,,,,,,4.32000000000000E+00,4.57000000000000E+00,5.99000000000000E+00,5.39000000000000E+00,4.78000000000000E+00,4.47000000000000E+00,4.96000000000000E+00,5.30000000000000E+00,3.14000000000000E+00,2.87000000000000E+00,2.86000000000000E+00,3.10000000000000E+00,2.01000000000000E+00,2.65000000000000E+00,1.82000000000000E+00,1.78000000000000E+00,1.82000000000000E+00,1.79000000000000E+00,1.78000000000000E+00,1.81000000000000E+00,1.81000000000000E+00,1.75000000000000E+00,2.34000000000000E+00,
AZE,,,,,,,,,,,,,,,,,,,,,,,,,,,,,,,,,,,,,,,,,,,7.32000000000000E+00,,,6.01000000000000E+00,,4.08000000000000E+00,4.07000000000000E+00,3.96000000000000E+00,,
BDI,,,,,,,,,,,,,,,,,,,,,,,,,,,,,,,,,,,,,,,,,,,1.67300000000000E+01,,,1.84900000000000E+01,1.58900000000000E+01,1.15100000000000E+01,1.12900000000000E+01,4.52000000000000E+00,4.55000000000000E+00,
BEL,,,,,,,,,,,,,,,,,,,,,,,,,,,,,4.32000000000000E+00,4.57000000000000E+00,5.99000000000000E+00,5.39000000000000E+00,4.78000000000000E+00,4.47000000000000E+00,4.96000000000000E+00,5.30000000000000E+00,3.14000000000000E+00,2.87000000000000E+00,2.86000000000000E+00,3.10000000000000E+00,2.01000000000000E+00,2.65000000000000E+00,1.82000000000000E+00,1.78000000000000E+00,1.82000000000000E+00,1.79000000000000E+00,1.78000000000000E+00,1.81000000000000E+00,1.81000000000000E+00,1.75000000000000E+00,2.34000000000000E+00,
BEN,,,,,,,,,,,,,,,,,,,,,,,,,,,,,,,,,,,,,,,,,,1.24400000000000E+01,1.24600000000000E+01,1.23700000000000E+01,1.21800000000000E+01,1.28200000000000E+01,1.17200000000000E+01,1.17400000000000E+01,1.75200000000000E+01,1.74900000000000E+01,1.70200000000000E+01,
BFA,,,,,,,,,,,,,,,,,,,,,,,,,,,,,,,,,,2.03600000000000E+01,,,,,,,,1.14900000000000E+01,1.15200000000000E+01,1.21700000000000E+01,1.26400000000000E+01,1.26300000000000E+01,1.10300000000000E+01,1.09900000000000E+01,6.56000000000000E+00,6.62000000000000E+00,9.19000000000000E+00,
BGD,,,,,,,,,,,,,,,,,,,,,,,,,,,,,,1.12120000000000E+02,,,,,8.68700000000000E+01,,,,,1.93700000000000E+01,1.87400000000000E+01,,1.95600000000000E+01,1.90400000000000E+01,1.64700000000000E+01,2.62200000000000E+01,2.62100000000000E+01,1.30700000000000E+01,1.40400000000000E+01,,,
BGR,,,,,,,,,,,,,,,,,,,,,,,,,,,,,4.32000000000000E+00,4.57000000000000E+00,5.99000000000000E+00,5.39000000000000E+00,4.78000000000000E+00,4.47000000000000E+00,4.96000000000000E+00,5.30000000000000E+00,3.14000000000000E+00,2.87000000000000E+00,2.86000000000000E+00,3.10000000000000E+00,2.01000000000000E+00,2.65000000000000E+00,1.82000000000000E+00,1.78000000000000E+00,1.82000000000000E+00,1.79000000000000E+00,1.78000000000000E+00,1.81000000000000E+00,1.81000000000000E+00,1.75000000000000E+00,2.34000000000000E+00,
BHR,,,,,,,,,,,,,,,,,,,,,,,,,,,,,,,,,,,,,,,,9.60000000000000E+00,,1.00100000000000E+01,,,,3.99000000000000E+00,3.91000000000000E+00,3.38000000000000E+00,3.07000000000000E+00,3.06000000000000E+00,,
BHS,,,,,,,,,,,,,,,,,,,,,,,,,,,,,,,,,,,,,,,,3.21000000000000E+01,,,3.03500000000000E+01,,,,2.96700000000000E+01,,,,3.25700000000000E+01,
BIH,,,,,,,,,,,,,,,,,,,,,,,,,,,,,,,,,,,,,,,,,,4.98000000000000E+00,,,,,7.57000000000000E+00,6.32000000000000E+00,6.22000000000000E+00,2.46000000000000E+00,2.27000000000000E+00,
BLR,,,,,,,,,,,,,,,,,,,,,,,,,,,,,,,,,,,,,1.05400000000000E+01,1.12400000000000E+01,,,,,1.03400000000000E+01,,,,,,3.92000000000000E+00,4.34000000000000E+00,3.39000000000000E+00,
BLZ,,,,,,,,,,,,,,,,,,,,,,,,,,,,,,,,,,,,,1.88400000000000E+01,,,1.65700000000000E+01,,1.11700000000000E+01,1.09400000000000E+01,1.07900000000000E+01,,,1.14600000000000E+01,1.09700000000000E+01,1.09700000000000E+01,9.35000000000000E+00,1.01000000000000E+01,
BMU,,,,,,,,,,,,,,,,,,,,,,,,,,,,,,,,,,,,,,,,,,2.88300000000000E+01,,,,2.82000000000000E+01,,3.08500000000000E+01,3.13400000000000E+01,2.89400000000000E+01,2.76800000000000E+01,
BOL,,,,,,,,,,,,,,,,,,,,,,,,,,,,,,,,,,9.30000000000000E+00,9.94000000000000E+00,9.37000000000000E+00,9.12000000000000E+00,9.12000000000000E+00,8.86000000000000E+00,8.88000000000000E+00,8.15000000000000E+00,8.61000000000000E+00,8.98000000000000E+00,,5.57000000000000E+00,5.63000000000000E+00,4.33000000000000E+00,4.29000000000000E+00,4.07000000000000E+00,3.90000000000000E+00,5.15000000000000E+00,
BRA,,,,,,,,,,,,,,,,,,,,,,,,,,,,,,3.79600000000000E+01,2.87000000000000E+01,2.36300000000000E+01,2.11100000000000E+01,1.66200000000000E+01,1.61700000000000E+01,1.28000000000000E+01,1.63600000000000E+01,1.64900000000000E+01,1.80400000000000E+01,1.45500000000000E+01,1.49600000000000E+01,1.24200000000000E+01,1.20700000000000E+01,1.16100000000000E+01,9.99000000000000E+00,9.36000000000000E+00,9.05000000000000E+00,9.36000000000000E+00,9.29000000000000E+00,9.75000000000000E+00,9.83000000000000E+00,
BRB,,,,,,,,,,,,,,,,,,,,,,,,,,,,,,,,,,,,,2.55800000000000E+01,,,2.24800000000000E+01,2.16400000000000E+01,1.48400000000000E+01,1.43400000000000E+01,1.49300000000000E+01,,,1.41700000000000E+01,1.22900000000000E+01,,,,
BRN,,,,,,,,,,,,,,,,,,,,,,,,,,,,,,,,,4.45000000000000E+00,,,,,,,,,1.03400000000000E+01,1.02900000000000E+01,1.20300000000000E+01,5.64000000000000E+00,5.14000000000000E+00,4.98000000000000E+00,4.56000000000000E+00,2.43000000000000E+00,,4.99000000000000E+00,
BTN,,,,,,,,,,,,,,,,,,,,,,,,,,,,,,,,,,,,,1.67500000000000E+01,,,,,,1.49900000000000E+01,,1.45200000000000E+01,1.44900000000000E+01,,1.59800000000000E+01,,,,
BWA,,,,,,,,,,,,,,,,,,,,,,,,,,,,,,,,,,,,,,,,,,1.06000000000000E+00,,,1.28900000000000E+01,1.18000000000000E+01,1.15900000000000E+01,9.46000000000000E+00,7.96000000000000E+00,8.07000000000000E+00,6.60000000000000E+00,
CAF,,,,,,,,,,,,,,,,,,,,,,,,,,,,,,,,,,,,1.31600000000000E+01,,1.31600000000000E+01,,,,1.56000000000000E+01,1.49600000000000E+01,,,1.51800000000000E+01,,1.32600000000000E+01,,,,
CAN,,,,,,,,,,,,,,,,,,,,,,,,,,,,,,6.75000000000000E+00,,,,3.94000000000000E+00,,6.57000000000000E+00,5.34000000000000E+00,1.58000000000000E+00,9.60000000000000E-01,8.70000000000000E-01,9.00000000000000E-01,1.06000000000000E+00,1.00000000000000E+00,1.02000000000000E+00,1.00000000000000E+00,1.02000000000000E+00,1.01000000000000E+00,1.16000000000000E+00,1.16000000000000E+00,1.28000000000000E+00,1.28000000000000E+00,
CHE,,,,,,,,,,,,,,,,,,,,,,,,,,,,,,,1.36000000000000E+00,,,1.76000000000000E+00,,4.49000000000000E+00,6.60000000000000E-01,2.50000000000000E-01,1.90000000000000E-01,1.30000000000000E-01,1.20000000000000E-01,1.60000000000000E-01,1.50000000000000E-01,1.40000000000000E-01,1.20000000000000E-01,1.00000000000000E-01,1.90000000000000E-01,2.30000000000000E-01,1.90000000000000E-01,6.00000000000000E-02,0.00000000000000E+00,
CHL,,,,,,,,,,,,,,,,,,,,,,,,,,,,,,,,,1.09400000000000E+01,1.09300000000000E+01,1.09200000000000E+01,1.05700000000000E+01,,1.09600000000000E+01,1.09300000000000E+01,9.94000000000000E+00,9.00000000000000E+00,8.00000000000000E+00,6.94000000000000E+00,,4.38000000000000E+00,4.37000000000000E+00,2.29000000000000E+00,1.50000000000000E+00,7.90000000000000E-01,5.97000000000000E+00,4.80000000000000E+00,
CHN,,,,,,,,,,,,,,,,,,,,,,,,,,,,,,,,,3.64100000000000E+01,3.32800000000000E+01,3.07200000000000E+01,,1.84300000000000E+01,1.48500000000000E+01,1.48000000000000E+01,1.40300000000000E+01,1.36200000000000E+01,1.29600000000000E+01,,6.69000000000000E+00,5.93000000000000E+00,5.35000000000000E+00,4.59000000000000E+00,6.25000000000000E+00,5.88000000000000E+00,5.80000000000000E+00,6.04000000000000E+00,
CIV,,,,,,,,,,,,,,,,,,,,,,,,,,,,,,,,,,2.25900000000000E+01,,,1.29500000000000E+01,,,,,8.78000000000000E+00,8.78000000000000E+00,9.18000000000000E+00,9.25000000000000E+00,8.82000000000000E+00,9.45000000000000E+00,9.52000000000000E+00,9.80000000000000E+00,9.80000000000000E+00,9.32000000000000E+00,
CMR,,,,,,,,,,,,,,,,,,,,,,,,,,,,,,,,,,,1.38000000000000E+01,1.34900000000000E+01,,,,,,1.34700000000000E+01,1.35500000000000E+01,,,1.50700000000000E+01,,1.45900000000000E+01,,1.59000000000000E+01,,
COG,,,,,,,,,,,,,,,,,,,,,,,,,,,,,,,,,,,1.46000000000000E+01,,,1.70200000000000E+01,,,,1.61200000000000E+01,1.65100000000000E+01,,,1.59100000000000E+01,,1.40700000000000E+01,,,,
COL,,,,,,,,,,,,,,,,,,,,,,,,,,,,,,,,6.22000000000000E+00,1.04600000000000E+01,,1.15300000000000E+01,1.19800000000000E+01,1.08700000000000E+01,1.10500000000000E+01,,1.00200000000000E+01,1.05400000000000E+01,1.03200000000000E+01,1.06400000000000E+01,,9.62000000000000E+00,9.19000000000000E+00,9.14000000000000E+00,8.91000000000000E+00,9.37000000000000E+00,8.54000000000000E+00,8.87000000000000E+00,
COM,,,,,,,,,,,,,,,,,,,,,,,,,,,,,,,,,,,,,,,,,,,,,,,,,1.02600000000000E+01,,1.12400000000000E+01,
CPV,,,,,,,,,,,,,,,,,,,,,,,,,,,,,,,,,,,,,,,,,,,,,,1.34800000000000E+01,,1.07700000000000E+01,1.18200000000000E+01,1.16000000000000E+01,1.10300000000000E+01,
CRI,,,,,,,,,,,,,,,,,,,,,,,,,,,,,,,,,,,,8.04000000000000E+00,,,,3.54000000000000E+00,3.17000000000000E+00,3.71000000000000E+00,3.59000000000000E+00,,3.57000000000000E+00,3.65000000000000E+00,,3.76000000000000E+00,,2.07000000000000E+00,,
CUB,,,,,,,,,,,,,,,,,,,,,,,,,,,,,,,,,,1.30200000000000E+01,,,,1.04400000000000E+01,,,,,1.09000000000000E+01,1.11500000000000E+01,1.01300000000000E+01,9.34000000000000E+00,9.48000000000000E+00,9.51000000000000E+00,9.40000000000000E+00,9.49000000000000E+00,9.81000000000000E+00,
CYP,,,,,,,,,,,,,,,,,,,,,,,,,,,,,4.32000000000000E+00,4.57000000000000E+00,5.99000000000000E+00,5.39000000000000E+00,4.78000000000000E+00,4.47000000000000E+00,4.96000000000000E+00,5.30000000000000E+00,3.14000000000000E+00,2.87000000000000E+00,2.86000000000000E+00,3.10000000000000E+00,2.01000000000000E+00,2.65000000000000E+00,1.82000000000000E+00,1.78000000000000E+00,1.82000000000000E+00,1.79000000000000E+00,1.78000000000000E+00,1.81000000000000E+00,1.81000000000000E+00,1.75000000000000E+00,2.34000000000000E+00,
CZE,,,,,,,,,,,,,,,,,,,,,,,,,,,,,4.32000000000000E+00,4.57000000000000E+00,5.99000000000000E+00,5.39000000000000E+00,4.78000000000000E+00,4.47000000000000E+00,4.96000000000000E+00,5.30000000000000E+00,3.14000000000000E+00,2.87000000000000E+00,2.86000000000000E+00,3.10000000000000E+00,2.01000000000000E+00,2.65000000000000E+00,1.82000000000000E+00,1.78000000000000E+00,1.82000000000000E+00,1.79000000000000E+00,1.78000000000000E+00,1.81000000000000E+00,1.81000000000000E+00,1.75000000000000E+00,2.34000000000000E+00,
DEU,,,,,,,,,,,,,,,,,,,,,,,,,,,,,4.32000000000000E+00,4.57000000000000E+00,5.99000000000000E+00,5.39000000000000E+00,4.78000000000000E+00,4.47000000000000E+00,4.96000000000000E+00,5.30000000000000E+00,3.14000000000000E+00,2.87000000000000E+00,2.86000000000000E+00,3.10000000000000E+00,2.01000000000000E+00,2.65000000000000E+00,1.82000000000000E+00,1.78000000000000E+00,1.82000000000000E+00,1.79000000000000E+00,1.78000000000000E+00,1.81000000000000E+00,1.81000000000000E+00,1.75000000000000E+00,2.34000000000000E+00,
DJI,,,,,,,,,,,,,,,,,,,,,,,,,,,,,,,,,,,,,,,,,,,3.22500000000000E+01,,,,3.10200000000000E+01,,,1.85600000000000E+01,,
DMA,,,,,,,,,,,,,,,,,,,,,,,,,,,,,,,,,,,,,1.87100000000000E+01,,,1.64500000000000E+01,1.50000000000000E+01,1.12100000000000E+01,1.25000000000000E+01,1.20300000000000E+01,,,9.12000000000000E+00,9.34000000000000E+00,,,,
DNK,,,,,,,,,,,,,,,,,,,,,,,,,,,,,4.32000000000000E+00,4.57000000000000E+00,5.99000000000000E+00,5.39000000000000E+00,4.78000000000000E+00,4.47000000000000E+00,4.96000000000000E+00,5.30000000000000E+00,3.14000000000000E+00,2.87000000000000E+00,2.86000000000000E+00,3.10000000000000E+00,2.01000000000000E+00,2.65000000000000E+00,1.82000000000000E+00,1.78000000000000E+00,1.82000000000000E+00,1.79000000000000E+00,1.78000000000000E+00,1.81000000000000E+00,1.81000000000000E+00,1.75000000000000E+00,2.34000000000000E+00,
DOM,,,,,,,,,,,,,,,,,,,,,,,,,,,,,,,,,,,,,,1.37900000000000E+01,,,1.75600000000000E+01,8.69000000000000E+00,9.35000000000000E+00,8.68000000000000E+00,8.74000000000000E+00,8.97000000000000E+00,8.14000000000000E+00,7.02000000000000E+00,5.22000000000000E+00,,6.93000000000000E+00,
DZA,,,,,,,,,,,,,,,,,,,,,,,,,,,,,,,,,,1.88300000000000E+01,,,,1.95100000000000E+01,1.86800000000000E+01,,,1.72900000000000E+01,1.30500000000000E+01,1.24900000000000E+01,,1.05500000000000E+01,1.01000000000000E+01,1.00700000000000E+01,9.80000000000000E+00,8.94000000000000E+00,,
EAP,,,,,,,,,,,,,,,,,,,,,,,,,,,,,,,,,,,,,,,,1.24000000000000E+01,1.14200000000000E+01,1.00700000000000E+01,5.43000000000000E+00,6.42000000000000E+00,5.89000000000000E+00,5.41000000000000E+00,4.75000000000000E+00,5.68000000000000E+00,5.61000000000000E+00,5.38000000000000E+00,,
ECA,,,,,,,,,,,,,,,,,,,,,,,,,,,,,,,,,,,,,,,,5.62000000000000E+00,2.87000000000000E+00,7.55000000000000E+00,7.45000000000000E+00,2.40000000000000E+00,3.58000000000000E+00,4.64000000000000E+00,2.52000000000000E+00,4.53000000000000E+00,4.49000000000000E+00,4.47000000000000E+00,,
ECU,,,,,,,,,,,,,,,,,,,,,,,,,,,,,,,,,,8.35000000000000E+00,1.17200000000000E+01,1.13800000000000E+01,1.13700000000000E+01,1.10300000000000E+01,1.09000000000000E+01,1.13400000000000E+01,,,1.08200000000000E+01,,9.84000000000000E+00,9.68000000000000E+00,7.21000000000000E+00,7.14000000000000E+00,5.92000000000000E+00,5.12000000000000E+00,6.74000000000000E+00,
EGY,,,,,,,,,,,,,,,,,,,,,,,,,,,,,,,,,,,,2.23600000000000E+01,,,1.75900000000000E+01,,,,3.08700000000000E+01,,1.14100000000000E+01,1.18600000000000E+01,,,9.78000000000000E+00,9.54000000000000E+00,,
ERI,,,,,,,,,,,,,,,,,,,,,,,,,,,,,,,,,,,,,,,,,,,7.44000000000000E+00,,,,7.20000000000000E+00,,,,,
ESP,,,,,,,,,,,,,,,,,,,,,,,,,,,,,4.32000000000000E+00,4.57000000000000E+00,5.99000000000000E+00,5.39000000000000E+00,4.78000000000000E+00,4.47000000000000E+00,4.96000000000000E+00,5.30000000000000E+00,3.14000000000000E+00,2.87000000000000E+00,2.86000000000000E+00,3.10000000000000E+00,2.01000000000000E+00,2.65000000000000E+00,1.82000000000000E+00,1.78000000000000E+00,1.82000000000000E+00,1.79000000000000E+00,1.78000000000000E+00,1.81000000000000E+00,1.81000000000000E+00,1.75000000000000E+00,2.34000000000000E+00,
EST,,,,,,,,,,,,,,,,,,,,,,,,,,,,,4.32000000000000E+00,4.57000000000000E+00,5.99000000000000E+00,5.39000000000000E+00,4.78000000000000E+00,4.47000000000000E+00,4.96000000000000E+00,5.30000000000000E+00,3.14000000000000E+00,2.87000000000000E+00,2.86000000000000E+00,3.10000000000000E+00,2.01000000000000E+00,2.65000000000000E+00,1.82000000000000E+00,1.78000000000000E+00,1.82000000000000E+00,1.79000000000000E+00,1.78000000000000E+00,1.81000000000000E+00,1.81000000000000E+00,1.75000000000000E+00,2.34000000000000E+00,
ETH,,,,,,,,,,,,,,,,,,,,,,,,,,,,,,,,,,,,1.80600000000000E+01,,,,,,1.52000000000000E+01,1.57000000000000E+01,,,,1.39900000000000E+01,,1.28000000000000E+01,1.28000000000000E+01,1.31900000000000E+01,
EUU,,,,,,,,,,,,,,,,,,,,,,,,,,,,,,,,,,,,,,,,3.10000000000000E+00,2.01000000000000E+00,2.65000000000000E+00,1.82000000000000E+00,1.78000000000000E+00,1.82000000000000E+00,1.79000000000000E+00,1.78000000000000E+00,1.81000000000000E+00,1.81000000000000E+00,1.75000000000000E+00,2.34000000000000E+00,
FIN,,,,,,,,,,,,,,,,,,,,,,,,,,,,,4.32000000000000E+00,4.57000000000000E+00,5.99000000000000E+00,5.39000000000000E+00,4.78000000000000E+00,4.47000000000000E+00,4.96000000000000E+00,5.30000000000000E+00,3.14000000000000E+00,2.87000000000000E+00,2.86000000000000E+00,3.10000000000000E+00,2.01000000000000E+00,2.65000000000000E+00,1.82000000000000E+00,1.78000000000000E+00,1.82000000000000E+00,1.79000000000000E+00,1.78000000000000E+00,1.81000000000000E+00,1.81000000000000E+00,1.75000000000000E+00,2.34000000000000E+00,
FJI,,,,,,,,,,,,,,,,,,,,,,,,,,,,,,,,,,,,,,,,,,,,,,,,,1.04600000000000E+01,1.34300000000000E+01,1.21800000000000E+01,
FRA,,,,,,,,,,,,,,,,,,,,,,,,,,,,,4.32000000000000E+00,4.57000000000000E+00,5.99000000000000E+00,5.39000000000000E+00,4.78000000000000E+00,4.47000000000000E+00,4.96000000000000E+00,5.30000000000000E+00,3.14000000000000E+00,2.87000000000000E+00,2.86000000000000E+00,3.10000000000000E+00,2.01000000000000E+00,2.65000000000000E+00,1.82000000000000E+00,1.78000000000000E+00,1.82000000000000E+00,1.79000000000000E+00,1.78000000000000E+00,1.81000000000000E+00,1.81000000000000E+00,1.75000000000000E+00,2.34000000000000E+00,
GAB,,,,,,,,,,,,,,,,,,,,,,,,,,,,,,,,,,,,1.51200000000000E+01,,,1.41600000000000E+01,,,1.50500000000000E+01,1.34900000000000E+01,,,1.55700000000000E+01,,1.45900000000000E+01,1.41800000000000E+01,1.43100000000000E+01,,
GBR,,,,,,,,,,,,,,,,,,,,,,,,,,,,,4.32000000000000E+00,4.57000000000000E+00,5.99000000000000E+00,5.39000000000000E+00,4.78000000000000E+00,4.47000000000000E+00,4.96000000000000E+00,5.30000000000000E+00,3.14000000000000E+00,2.87000000000000E+00,2.86000000000000E+00,3.10000000000000E+00,2.01000000000000E+00,2.65000000000000E+00,1.82000000000000E+00,1.78000000000000E+00,1.82000000000000E+00,1.79000000000000E+00,1.78000000000000E+00,1.81000000000000E+00,1.81000000000000E+00,1.75000000000000E+00,2.34000000000000E+00,
GEO,,,,,,,,,,,,,,,,,,,,,,,,,,,,,,,,,,,,,,,,8.26000000000000E+00,,,8.95000000000000E+00,7.48000000000000E+00,6.99000000000000E+00,,4.82000000000000E+00,6.00000000000000E-02,6.00000000000000E-02,2.00000000000000E-02,2.00000000000000E-02,
GHA,,,,,,,,,,,,,,,,,,,,,,,,,,,,,,,,,,9.16000000000000E+00,,,,,,,8.85000000000000E+00,,,,8.80000000000000E+00,,,8.83000000000000E+00,8.79000000000000E+00,8.44000000000000E+00,,
GIN,,,,,,,,,,,,,,,,,,,,,,,,,,,,,,,,,,,,,,,,,,,,,,1.12300000000000E+01,,,1.12200000000000E+01,1.01800000000000E+01,1.01800000000000E+01,
GMB,,,,,,,,,,,,,,,,,,,,,,,,,,,,,,,,,,,,,,,,,,,,,,,,1.69700000000000E+01,1.73900000000000E+01,1.69700000000000E+01,,
GNB,,,,,,,,,,,,,,,,,,,,,,,,,,,,,,,,,,,,,,,,,,1.29200000000000E+01,1.30600000000000E+01,1.28900000000000E+01,1.48500000000000E+01,1.34900000000000E+01,9.21000000000000E+00,1.24200000000000E+01,1.03800000000000E+01,1.05100000000000E+01,9.66000000000000E+00,
GNQ,,,,,,,,,,,,,,,,,,,,,,,,,,,,,,,,,,,,,,,1.35900000000000E+01,,,1.28800000000000E+01,1.40800000000000E+01,,,1.43400000000000E+01,,1.43100000000000E+01,,,,
GRC,,,,,,,,,,,,,,,,,,,,,,,,,,,,,4.32000000000000E+00,4.57000000000000E+00,5.99000000000000E+00,5.39000000000000E+00,4.78000000000000E+00,4.47000000000000E+00,4.96000000000000E+00,5.30000000000000E+00,3.14000000000000E+00,2.87000000000000E+00,2.86000000000000E+00,3.10000000000000E+00,2.01000000000000E+00,2.65000000000000E+00,1.82000000000000E+00,1.78000000000000E+00,1.82000000000000E+00,1.79000000000000E+00,1.78000000000000E+00,1.81000000000000E+00,1.81000000000000E+00,1.75000000000000E+00,2.34000000000000E+00,
GRD,,,,,,,,,,,,,,,,,,,,,,,,,,,,,,,,,,,,,2.15800000000000E+01,,,1.67700000000000E+01,,1.62500000000000E+01,1.12800000000000E+01,1.03700000000000E+01,,,9.37000000000000E+00,8.69000000000000E+00,8.36000000000000E+00,,8.26000000000000E+00,
GTM,,,,,,,,,,,,,,,,,,,,,,,,,,,,,,,,,,,,8.06000000000000E+00,,6.58000000000000E+00,6.04000000000000E+00,,5.14000000000000E+00,5.80000000000000E+00,5.73000000000000E+00,,4.85000000000000E+00,5.97000000000000E+00,,4.84000000000000E+00,3.46000000000000E+00,3.08000000000000E+00,2.80000000000000E+00,
GUY,,,,,,,,,,,,,,,,,,,,,,,,,,,,,,,,,,,,,1.84200000000000E+01,,,1.56400000000000E+01,1.60800000000000E+01,9.76000000000000E+00,1.00500000000000E+01,9.64000000000000E+00,,,7.87000000000000E+00,,7.34000000000000E+00,,7.69000000000000E+00,
HIC,,,,,,,,,,,,,,,,,,,,,,,,,,,,,,,,,,,,,,,,2.72000000000000E+00,2.08000000000000E+00,2.19000000000000E+00,1.98000000000000E+00,1.89000000000000E+00,1.87000000000000E+00,1.68000000000000E+00,1.78000000000000E+00,1.76000000000000E+00,1.78000000000000E+00,2.06000000000000E+00,,
HKG,,,,,,,,,,,,,,,,,,,,,,,,,,,,,0.00000000000000E+00,,,,,,,,,,0.00000000000000E+00,,,,,,,0.00000000000000E+00,0.00000000000000E+00,0.00000000000000E+00,0.00000000000000E+00,0.00000000000000E+00,0.00000000000000E+00,
HND,,,,,,,,,,,,,,,,,,,,,,,,,,,,,,,,,,,,7.55000000000000E+00,,,,5.98000000000000E+00,6.02000000000000E+00,5.39000000000000E+00,5.63000000000000E+00,,3.46000000000000E+00,5.33000000000000E+00,,3.96000000000000E+00,3.05000000000000E+00,5.47000000000000E+00,,
HRV,,,,,,,,,,,,,,,,,,,,,,,,,,,,,,,,,,,,,,,,,,4.69000000000000E+00,,,7.10000000000000E-01,7.50000000000000E-01,7.50000000000000E-01,8.50000000000000E-01,8.50000000000000E-01,9.50000000000000E-01,9.50000000000000E-01,
HTI,,,,,,,,,,,,,,,,,,,,,,,,,,,,,,,,,,,,,,,,,,,,,,,,1.95000000000000E+00,5.58000000000000E+00,5.92000000000000E+00,,
HUN,,,,,,,,,,,,,,,,,,,,,,,,,,,,,4.32000000000000E+00,4.57000000000000E+00,5.99000000000000E+00,5.39000000000000E+00,4.78000000000000E+00,4.47000000000000E+00,4.96000000000000E+00,5.30000000000000E+00,3.14000000000000E+00,2.87000000000000E+00,2.86000000000000E+00,3.10000000000000E+00,2.01000000000000E+00,2.65000000000000E+00,1.82000000000000E+00,1.78000000000000E+00,1.82000000000000E+00,1.79000000000000E+00,1.78000000000000E+00,1.81000000000000E+00,1.81000000000000E+00,1.75000000000000E+00,2.34000000000000E+00,
IDN,,,,,,,,,,,,,,,,,,,,,,,,,,,,,,1.55500000000000E+01,1.58200000000000E+01,,,1.45100000000000E+01,,1.31100000000000E+01,9.36000000000000E+00,,,8.11000000000000E+00,6.71000000000000E+00,5.25000000000000E+00,5.91000000000000E+00,4.28000000000000E+00,4.97000000000000E+00,4.74000000000000E+00,4.63000000000000E+00,4.42000000000000E+00,,3.54000000000000E+00,2.93000000000000E+00,
IND,,,,,,,,,,,,,,,,,,,,,,,,,,,,,,,7.62800000000000E+01,,4.29200000000000E+01,,,,,2.05200000000000E+01,,3.14800000000000E+01,,2.84600000000000E+01,,,2.52400000000000E+01,1.22600000000000E+01,,,6.00000000000000E+00,8.31000000000000E+00,,
IRL,,,,,,,,,,,,,,,,,,,,,,,,,,,,,4.32000000000000E+00,4.57000000000000E+00,5.99000000000000E+00,5.39000000000000E+00,4.78000000000000E+00,4.47000000000000E+00,4.96000000000000E+00,5.30000000000000E+00,3.14000000000000E+00,2.87000000000000E+00,2.86000000000000E+00,3.10000000000000E+00,2.01000000000000E+00,2.65000000000000E+00,1.82000000000000E+00,1.78000000000000E+00,1.82000000000000E+00,1.79000000000000E+00,1.78000000000000E+00,1.81000000000000E+00,1.81000000000000E+00,1.75000000000000E+00,2.34000000000000E+00,
IRN,,,,,,,,,,,,,,,,,,,,,,,,,,,,,,,,,,,,,,,,,2.86400000000000E+01,,,1.81200000000000E+01,1.46400000000000E+01,,,1.84700000000000E+01,2.12100000000000E+01,,,
ISL,,,,,,,,,,,,,,,,,,,,,,,,,,,,,,,,,,2.76000000000000E+00,,,2.89000000000000E+00,,,,,3.03000000000000E+00,,2.90000000000000E+00,,,9.40000000000000E-01,9.70000000000000E-01,9.50000000000000E-01,8.20000000000000E-01,1.05000000000000E+00,
ISR,,,,,,,,,,,,,,,,,,,,,,,,,,,,,,,,,,4.20000000000000E+00,,,,,,,,,,,9.70000000000000E-01,9.60000000000000E-01,2.10000000000000E+00,1.10000000000000E+00,1.11000000000000E+00,3.67000000000000E+00,,
ITA,,,,,,,,,,,,,,,,,,,,,,,,,,,,,4.32000000000000E+00,4.57000000000000E+00,5.99000000000000E+00,5.39000000000000E+00,4.78000000000000E+00,4.47000000000000E+00,4.96000000000000E+00,5.30000000000000E+00,3.14000000000000E+00,2.87000000000000E+00,2.86000000000000E+00,3.10000000000000E+00,2.01000000000000E+00,2.65000000000000E+00,1.82000000000000E+00,1.78000000000000E+00,1.82000000000000E+00,1.79000000000000E+00,1.78000000000000E+00,1.81000000000000E+00,1.81000000000000E+00,1.75000000000000E+00,2.34000000000000E+00,
JAM,,,,,,,,,,,,,,,,,,,,,,,,,,,,,,,,,,,,,2.08500000000000E+01,,,1.84200000000000E+01,1.00000000000000E+01,9.17000000000000E+00,9.34000000000000E+00,9.56000000000000E+00,,,8.53000000000000E+00,9.37000000000000E+00,,,8.94000000000000E+00,
JOR,,,,,,,,,,,,,,,,,,,,,,,,,,,,,,,,,,,,,,,,,1.99100000000000E+01,1.28800000000000E+01,1.32000000000000E+01,1.11200000000000E+01,,1.00700000000000E+01,7.08000000000000E+00,7.28000000000000E+00,6.53000000000000E+00,6.05000000000000E+00,,
JPN,,,,,,,,,,,,,,,,,,,,,,,,,,,,,2.83000000000000E+00,2.82000000000000E+00,2.22000000000000E+00,2.26000000000000E+00,2.36000000000000E+00,2.44000000000000E+00,2.34000000000000E+00,1.96000000000000E+00,2.33000000000000E+00,1.58000000000000E+00,1.46000000000000E+00,1.41000000000000E+00,1.23000000000000E+00,1.86000000000000E+00,1.71000000000000E+00,1.61000000000000E+00,1.57000000000000E+00,1.49000000000000E+00,1.72000000000000E+00,2.22000000000000E+00,1.63000000000000E+00,1.68000000000000E+00,1.66000000000000E+00,
KAZ,,,,,,,,,,,,,,,,,,,,,,,,,,,,,,,,,,,,,8.57000000000000E+00,,,,,,,,1.51000000000000E+00,,,,3.07000000000000E+00,,3.99000000000000E+00,
KEN,,,,,,,,,,,,,,,,,,,,,,,,,,,,,,,,,,,2.33200000000000E+01,,,,,,1.29800000000000E+01,1.16300000000000E+01,,,1.03600000000000E+01,6.61000000000000E+00,6.66000000000000E+00,7.03000000000000E+00,6.88000000000000E+00,6.70000000000000E+00,6.65000000000000E+00,
KGZ,,,,,,,,,,,,,,,,,,,,,,,,,,,,,,,,,,,,0.00000000000000E+00,,,,,,,7.17000000000000E+00,2.90000000000000E+00,,,1.41000000000000E+00,1.43000000000000E+00,9.38000000000000E+00,9.38000000000000E+00,3.58000000000000E+00,
KHM,,,,,,,,,,,,,,,,,,,,,,,,,,,,,,,,,,,,,,,,,,1.67300000000000E+01,1.66300000000000E+01,1.66700000000000E+01,,1.06400000000000E+01,,9.95000000000000E+00,9.58000000000000E+00,,,
KNA,,,,,,,,,,,,,,,,,,,,,,,,,,,,,,,,,,,,,2.37600000000000E+01,,,1.90800000000000E+01,1.34100000000000E+01,1.21900000000000E+01,1.36400000000000E+01,1.38200000000000E+01,,,1.26800000000000E+01,1.24500000000000E+01,1.25900000000000E+01,1.37400000000000E+01,1.17600000000000E+01,
KOR,,,,,,,,,,,,,,,,,,,,,,,,,,,,,1.69100000000000E+01,1.35400000000000E+01,1.15100000000000E+01,,9.90000000000000E+00,,,7.43000000000000E+00,7.63000000000000E+00,,,6.24000000000000E+00,,,5.02000000000000E+00,,4.51000000000000E+00,,4.48000000000000E+00,4.80000000000000E+00,,4.69000000000000E+00,5.06000000000000E+00,
KWT,,,,,,,,,,,,,,,,,,,,,,,,,,,,,,,,,,,,,,,,,,,3.99000000000000E+00,,,4.06000000000000E+00,4.06000000000000E+00,3.99000000000000E+00,4.42000000000000E+00,4.36000000000000E+00,,
LAC,,,,,,,,,,,,,,,,,,,,,,,,,,,,,,,,,,,,,,,,8.92000000000000E+00,1.33000000000000E+01,1.25600000000000E+01,7.15000000000000E+00,1.37400000000000E+01,5.50000000000000E+00,5.62000000000000E+00,5.03000000000000E+00,7.23000000000000E+00,5.19000000000000E+00,5.49000000000000E+00,,
LAO,,,,,,,,,,,,,,,,,,,,,,,,,,,,,,,,,,,,,,,,,1.27300000000000E+01,1.19000000000000E+01,,,9.83000000000000E+00,8.91000000000000E+00,8.04000000000000E+00,8.31000000000000E+00,1.26300000000000E+01,,,
LBN,,,,,,,,,,,,,,,,,,,,,,,,,,,,,,,,,,,,,,,,1.28800000000000E+01,1.64600000000000E+01,6.84000000000000E+00,6.31000000000000E+00,,6.14000000000000E+00,6.14000000000000E+00,5.39000000000000E+00,5.07000000000000E+00,,,,
LBY,,,,,,,,,,,,,,,,,,,,,,,,,,,,,,,,,,,,,2.57400000000000E+01,,,,,,2.87200000000000E+01,,,,0.00000000000000E+00,,,,,
LCA,,,,,,,,,,,,,,,,,,,,,,,,,,,,,,,,,,,,,2.08800000000000E+01,,,1.76100000000000E+01,1.77100000000000E+01,1.17400000000000E+01,1.25100000000000E+01,1.25000000000000E+01,,1.36800000000000E+01,1.23200000000000E+01,1.22400000000000E+01,,,,
LIC,,,,,,,,,,,,,,,,,,,,,,,,,,,,,,,,,,,,,,,,1.87900000000000E+01,1.62900000000000E+01,1.08900000000000E+01,1.42400000000000E+01,1.29400000000000E+01,1.17500000000000E+01,1.30600000000000E+01,1.20200000000000E+01,8.69000000000000E+00,1.00000000000000E+01,9.79000000000000E+00,,
LKA,,,,,,,,,,,,,,,,,,,,,,,,,,,,,,,2.44600000000000E+01,,,2.65500000000000E+01,2.70700000000000E+01,,,2.15100000000000E+01,,,5.38000000000000E+00,5.06000000000000E+00,,,6.36000000000000E+00,6.72000000000000E+00,6.36000000000000E+00,,,6.43000000000000E+00,5.66000000000000E+00,
LMC,,,,,,,,,,,,,,,,,,,,,,,,,,,,,,,,,,,,,,,,1.50300000000000E+01,8.32000000000000E+00,1.36300000000000E+01,1.09500000000000E+01,7.97000000000000E+00,1.14200000000000E+01,8.96000000000000E+00,6.75000000000000E+00,6.87000000000000E+00,6.51000000000000E+00,6.63000000000000E+00,,
LMY,,,,,,,,,,,,,,,,,,,,,,,,,,,,,,,,,,,,,,,,1.10300000000000E+01,1.29600000000000E+01,1.16300000000000E+01,8.65000000000000E+00,8.86000000000000E+00,7.31000000000000E+00,6.23000000000000E+00,5.29000000000000E+00,6.15000000000000E+00,6.02000000000000E+00,5.82000000000000E+00,,
LSO,,,,,,,,,,,,,,,,,,,,,,,,,,,,,,,,,,,,,,,,,,1.75400000000000E+01,,,1.73800000000000E+01,1.72700000000000E+01,1.72700000000000E+01,1.43300000000000E+01,1.36700000000000E+01,1.36800000000000E+01,1.08900000000000E+01,
LTU,,,,,,,,,,,,,,,,,,,,,,,,,,,,,4.32000000000000E+00,4.57000000000000E+00,5.99000000000000E+00,5.39000000000000E+00,4.78000000000000E+00,4.47000000000000E+00,4.96000000000000E+00,5.30000000000000E+00,3.14000000000000E+00,2.87000000000000E+00,2.86000000000000E+00,3.10000000000000E+00,2.01000000000000E+00,2.65000000000000E+00,1.82000000000000E+00,1.78000000000000E+00,1.82000000000000E+00,1.79000000000000E+00,1.78000000000000E+00,1.81000000000000E+00,1.81000000000000E+00,1.75000000000000E+00,2.34000000000000E+00,
LUX,,,,,,,,,,,,,,,,,,,,,,,,,,,,,4.32000000000000E+00,4.57000000000000E+00,5.99000000000000E+00,5.39000000000000E+00,4.78000000000000E+00,4.47000000000000E+00,4.96000000000000E+00,5.30000000000000E+00,3.14000000000000E+00,2.87000000000000E+00,2.86000000000000E+00,3.10000000000000E+00,2.01000000000000E+00,2.65000000000000E+00,1.82000000000000E+00,1.78000000000000E+00,1.82000000000000E+00,1.79000000000000E+00,1.78000000000000E+00,1.81000000000000E+00,1.81000000000000E+00,1.75000000000000E+00,2.34000000000000E+00,
LVA,,,,,,,,,,,,,,,,,,,,,,,,,,,,,4.32000000000000E+00,4.57000000000000E+00,5.99000000000000E+00,5.39000000000000E+00,4.78000000000000E+00,4.47000000000000E+00,4.96000000000000E+00,5.30000000000000E+00,3.14000000000000E+00,2.87000000000000E+00,2.86000000000000E+00,3.10000000000000E+00,2.01000000000000E+00,2.65000000000000E+00,1.82000000000000E+00,1.78000000000000E+00,1.82000000000000E+00,1.79000000000000E+00,1.78000000000000E+00,1.81000000000000E+00,1.81000000000000E+00,1.75000000000000E+00,2.34000000000000E+00,
MAC,,,,,,,,,,,,,,,,,,,,,,,,,,,,,,,,,,,,,,,,,,,,,,,,0.00000000000000E+00,0.00000000000000E+00,0.00000000000000E+00,0.00000000000000E+00,
MAR,,,,,,,,,,,,,,,,,,,,,,,,,,,,,,,,,,5.57100000000000E+01,,,,1.82600000000000E+01,,,2.64100000000000E+01,2.61600000000000E+01,2.58600000000000E+01,2.46800000000000E+01,,1.45800000000000E+01,1.07800000000000E+01,9.11000000000000E+00,8.21000000000000E+00,5.81000000000000E+00,,
MDA,,,,,,,,,,,,,,,,,,,,,,,,,,,,,,,,,,,,,2.32000000000000E+00,,,,2.87000000000000E+00,3.06000000000000E+00,,,,,1.89000000000000E+00,,2.70000000000000E+00,,2.56000000000000E+00,
MDG,,,,,,,,,,,,,,,,,,,,,,,,,,,,,,,,,,,,6.30000000000000E+00,,,,,,4.64000000000000E+00,,,,5.44000000000000E+00,1.21600000000000E+01,1.04100000000000E+01,1.03900000000000E+01,,8.92000000000000E+00,
MDV,,,,,,,,,,,,,,,,,,,,,,,,,,,,,,,,,,,,,,,,,2.15000000000000E+01,2.15000000000000E+01,2.16700000000000E+01,2.19400000000000E+01,2.15400000000000E+01,2.19400000000000E+01,2.19400000000000E+01,,2.26000000000000E+01,2.26000000000000E+01,,
MEX,,,,,,,,,,,,,,,,,,,,,,,,,,,,,,,,1.30300000000000E+01,,,,7.50000000000000E+00,,1.24800000000000E+01,1.22200000000000E+01,5.89000000000000E+00,1.46400000000000E+01,1.45100000000000E+01,4.80000000000000E+00,1.45100000000000E+01,3.17000000000000E+00,3.15000000000000E+00,2.51000000000000E+00,,2.26000000000000E+00,1.98000000000000E+00,4.66000000000000E+00,
MIC,,,,,,,,,,,,,,,,,,,,,,,,,,,,,,,,,,,,,,,,1.09100000000000E+01,1.29200000000000E+01,1.16700000000000E+01,8.46000000000000E+00,8.76000000000000E+00,7.23000000000000E+00,6.11000000000000E+00,5.14000000000000E+00,6.07000000000000E+00,5.88000000000000E+00,5.72000000000000E+00,,
MKD,,,,,,,,,,,,,,,,,,,,,,,,,,,,,,,,,,,,,,,,,,8.36000000000000E+00,,,7.24000000000000E+00,1.68000000000000E+00,3.42000000000000E+00,5.90000000000000E+00,2.64000000000000E+00,2.37000000000000E+00,1.78000000000000E+00,
MLI,,,,,,,,,,,,,,,,,,,,,,,,,,,,,,,,,,,,8.49000000000000E+00,,,,,,1.06100000000000E+01,1.05900000000000E+01,1.12000000000000E+01,1.12000000000000E+01,1.06200000000000E+01,8.39000000000000E+00,8.40000000000000E+00,8.69000000000000E+00,8.69000000000000E+00,8.69000000000000E+00,
MLT,,,,,,,,,,,,,,,,,,,,,,,,,,,,,4.32000000000000E+00,4.57000000000000E+00,5.99000000000000E+00,5.39000000000000E+00,4.78000000000000E+00,4.47000000000000E+00,4.96000000000000E+00,5.30000000000000E+00,3.14000000000000E+00,2.87000000000000E+00,2.86000000000000E+00,3.10000000000000E+00,2.01000000000000E+00,2.65000000000000E+00,1.82000000000000E+00,1.78000000000000E+00,1.82000000000000E+00,1.79000000000000E+00,1.78000000000000E+00,1.81000000000000E+00,1.81000000000000E+00,1.75000000000000E+00,2.34000000000000E+00,
MMR,,,,,,,,,,,,,,,,,,,,,,,,,,,,,,,,,,,,,,,,,,4.69000000000000E+00,4.58000000000000E+00,3.90000000000000E+00,3.78000000000000E+00,3.76000000000000E+00,3.71000000000000E+00,3.62000000000000E+00,3.37000000000000E+00,,,
MNA,,,,,,,,,,,,,,,,,,,,,,,,,,,,,,,,,,,,,,,,1.28800000000000E+01,2.42600000000000E+01,1.75900000000000E+01,2.05200000000000E+01,1.84900000000000E+01,1.45800000000000E+01,1.01000000000000E+01,9.58000000000000E+00,8.74000000000000E+00,1.25100000000000E+01,7.78000000000000E+00,,
MNE,,,,,,,,,,,,,,,,,,,,,,,,,,,,,,,,,,,,,,,,,,,,,,,,4.49000000000000E+00,2.65000000000000E+00,2.47000000000000E+00,2.77000000000000E+00,
MNG,,,,,,,,,,,,,,,,,,,,,,,,,,,,,,,,,,,,,,,,,,,,,,3.74000000000000E+00,3.90000000000000E+00,4.89000000000000E+00,4.89000000000000E+00,4.89000000000000E+00,,
MOZ,,,,,,,,,,,,,,,,,,,,,,,,,,,,,,,,,,,5.00000000000000E+00,,,1.55100000000000E+01,,,,1.16200000000000E+01,9.15000000000000E+00,9.15000000000000E+00,,8.46000000000000E+00,7.71000000000000E+00,7.53000000000000E+00,,4.53000000000000E+00,4.73000000000000E+00,
MRT,,,,,,,,,,,,,,,,,,,,,,,,,,,,,,,,,,,,,,,,,,9.89000000000000E+00,,,,,6.59000000000000E+00,1.10400000000000E+01,,,,
MUS,,,,,,,,,,,,,,,,,,,,,,,,,,,,,,,,,,,,2.28800000000000E+01,,1.91200000000000E+01,2.69100000000000E+01,,,,1.44600000000000E+01,,,4.27000000000000E+00,1.65000000000000E+00,2.37000000000000E+00,2.56000000000000E+00,2.02000000000000E+00,1.57000000000000E+00,
MWI,,,,,,,,,,,,,,,,,,,,,,,,,,,,,,,,,,,2.66100000000000E+01,,1.81400000000000E+01,2.11600000000000E+01,1.49000000000000E+01,,,1.02700000000000E+01,,,,,8.92000000000000E+00,,5.97000000000000E+00,6.54000000000000E+00,6.82000000000000E+00,
MYS,,,,,,,,,,,,,,,,,,,,,,,,,,,,,1.09100000000000E+01,,,1.06300000000000E+01,,9.11000000000000E+00,,,6.41000000000000E+00,5.21000000000000E+00,,,,4.72000000000000E+00,4.59000000000000E+00,4.45000000000000E+00,,4.85000000000000E+00,3.72000000000000E+00,3.41000000000000E+00,3.91000000000000E+00,3.66000000000000E+00,,
MYT,,,,,,,,,,,,,,,,,,,,,,,,,,,,,,,,,,,,,,,,,,,,,,,,2.07000000000000E+00,2.06000000000000E+00,2.06000000000000E+00,1.91000000000000E+00,
NAM,,,,,,,,,,,,,,,,,,,,,,,,,,,,,,,,,,,,,,,,,,5.60000000000000E-01,,,4.53000000000000E+00,2.72000000000000E+00,1.86000000000000E+00,1.87000000000000E+00,1.31000000000000E+00,1.66000000000000E+00,1.61000000000000E+00,
NER,,,,,,,,,,,,,,,,,,,,,,,,,,,,,,,,,,,,,,,,,,1.32500000000000E+01,1.26300000000000E+01,1.14800000000000E+01,1.15000000000000E+01,1.20100000000000E+01,9.21000000000000E+00,9.57000000000000E+00,7.55000000000000E+00,7.55000000000000E+00,7.55000000000000E+00,
NGA,,,,,,,,,,,,,,,,,,,,,,,,,,,,,2.14100000000000E+01,2.25100000000000E+01,2.26600000000000E+01,,2.33400000000000E+01,,,7.47400000000000E+01,1.51300000000000E+01,1.53400000000000E+01,1.53400000000000E+01,1.86500000000000E+01,1.82400000000000E+01,1.86700000000000E+01,1.58200000000000E+01,,,9.76000000000000E+00,7.60000000000000E+00,,8.10000000000000E+00,9.99000000000000E+00,1.08400000000000E+01,
NIC,,,,,,,,,,,,,,,,,,,,,,,,,,,,,,,,,,,,4.62000000000000E+00,,,3.96000000000000E+00,7.37000000000000E+00,2.34000000000000E+00,2.52000000000000E+00,2.56000000000000E+00,,3.64000000000000E+00,5.42000000000000E+00,,3.35000000000000E+00,,2.23000000000000E+00,1.90000000000000E+00,
NLD,,,,,,,,,,,,,,,,,,,,,,,,,,,,,4.32000000000000E+00,4.57000000000000E+00,5.99000000000000E+00,5.39000000000000E+00,4.78000000000000E+00,4.47000000000000E+00,4.96000000000000E+00,5.30000000000000E+00,3.14000000000000E+00,2.87000000000000E+00,2.86000000000000E+00,3.10000000000000E+00,2.01000000000000E+00,2.65000000000000E+00,1.82000000000000E+00,1.78000000000000E+00,1.82000000000000E+00,1.79000000000000E+00,1.78000000000000E+00,1.81000000000000E+00,1.81000000000000E+00,1.75000000000000E+00,2.34000000000000E+00,
NOC,,,,,,,,,,,,,,,,,,,,,,,,,,,,,,,,,,,,,,,,6.90000000000000E+00,4.43000000000000E+00,2.35000000000000E+00,2.09000000000000E+00,2.48000000000000E+00,1.23000000000000E+00,1.42000000000000E+00,1.47000000000000E+00,1.48000000000000E+00,1.82000000000000E+00,1.96000000000000E+00,7.90000000000000E-01,
NOR,,,,,,,,,,,,,,,,,,,,,,,,,,,,,8.80000000000000E-01,,,,,1.37000000000000E+00,,5.32000000000000E+00,6.40000000000000E-01,,9.50000000000000E-01,,7.70000000000000E-01,5.20000000000000E-01,2.80000000000000E-01,2.50000000000000E-01,,,2.10000000000000E-01,1.90000000000000E-01,1.80000000000000E-01,1.60000000000000E-01,2.00000000000000E-01,
NPL,,,,,,,,,,,,,,,,,,,,,,,,,,,,,,,,,,2.20800000000000E+01,,,,,3.03500000000000E+01,1.55100000000000E+01,2.03400000000000E+01,,1.74600000000000E+01,1.76700000000000E+01,1.67600000000000E+01,1.68600000000000E+01,1.51600000000000E+01,1.57800000000000E+01,,1.68500000000000E+01,1.43800000000000E+01,
NZL,,,,,,,,,,,,,,,,,,,,,,,,,,,,,,,,,1.18800000000000E+01,9.18000000000000E+00,,,5.81000000000000E+00,6.34000000000000E+00,4.42000000000000E+00,3.61000000000000E+00,2.94000000000000E+00,,3.70000000000000E+00,3.96000000000000E+00,4.36000000000000E+00,3.55000000000000E+00,3.36000000000000E+00,3.64000000000000E+00,2.73000000000000E+00,2.29000000000000E+00,2.14000000000000E+00,
OEC,,,,,,,,,,,,,,,,,,,,,,,,,,,,,,,,,,,,,,,,2.52000000000000E+00,1.97000000000000E+00,2.23000000000000E+00,2.13000000000000E+00,1.89000000000000E+00,1.95000000000000E+00,1.78000000000000E+00,1.89000000000000E+00,1.87000000000000E+00,1.81000000000000E+00,2.04000000000000E+00,,
OED,,,,,,,,,,,,,,,,,,,,,,,,,,,,,,,,,,,,,,,,2.74000000000000E+00,2.77000000000000E+00,3.04000000000000E+00,2.15000000000000E+00,2.56000000000000E+00,1.98000000000000E+00,1.80000000000000E+00,1.89000000000000E+00,1.81000000000000E+00,1.78000000000000E+00,2.07000000000000E+00,2.21000000000000E+00,
OMN,,,,,,,,,,,,,,,,,,,,,,,,,,,,,,,,,5.44000000000000E+00,,,,,4.92000000000000E+00,,,,,6.53000000000000E+00,,,3.33000000000000E+00,3.48000000000000E+00,3.44000000000000E+00,3.44000000000000E+00,3.16000000000000E+00,,
PAK,,,,,,,,,,,,,,,,,,,,,,,,,,,,,,,,,,,,4.95400000000000E+01,,,4.40800000000000E+01,,,2.13400000000000E+01,1.79300000000000E+01,1.75800000000000E+01,1.59000000000000E+01,1.46600000000000E+01,1.45700000000000E+01,1.32600000000000E+01,1.22500000000000E+01,1.22800000000000E+01,,
PAN,,,,,,,,,,,,,,,,,,,,,,,,,,,,,,,,,,,,,,1.10000000000000E+01,8.49000000000000E+00,,7.67000000000000E+00,7.38000000000000E+00,,,,6.46000000000000E+00,6.47000000000000E+00,6.56000000000000E+00,6.81000000000000E+00,7.25000000000000E+00,,
PER,,,,,,,,,,,,,,,,,,,,,,,,,,,,,,,,,,1.66100000000000E+01,,1.53700000000000E+01,,1.23000000000000E+01,1.23100000000000E+01,1.23200000000000E+01,1.23500000000000E+01,,,,8.18000000000000E+00,7.59000000000000E+00,6.54000000000000E+00,6.38000000000000E+00,2.32000000000000E+00,2.35000000000000E+00,3.02000000000000E+00,
PHL,,,,,,,,,,,,,,,,,,,,,,,,,,,,,2.35300000000000E+01,2.35200000000000E+01,1.49700000000000E+01,,1.49300000000000E+01,1.53000000000000E+01,1.50200000000000E+01,1.42500000000000E+01,,,5.69000000000000E+00,5.75000000000000E+00,3.53000000000000E+00,3.21000000000000E+00,2.09000000000000E+00,2.02000000000000E+00,2.73000000000000E+00,2.81000000000000E+00,2.79000000000000E+00,2.68000000000000E+00,4.10000000000000E+00,4.64000000000000E+00,4.65000000000000E+00,
PLW,,,,,,,,,,,,,,,,,,,,,,,,,,,,,,,,,,,,,,,,,,,,,,3.22000000000000E+00,3.22000000000000E+00,,,,3.05000000000000E+00,
PNG,,,,,,,,,,,,,,,,,,,,,,,,,,,,,,,,,,,,,,1.31700000000000E+01,,,,,2.48000000000000E+00,1.75000000000000E+00,1.75000000000000E+00,1.75000000000000E+00,1.33000000000000E+00,1.08000000000000E+00,2.17000000000000E+00,,2.79000000000000E+00,
POL,,,,,,,,,,,,,,,,,,,,,,,,,,,,,4.32000000000000E+00,4.57000000000000E+00,5.99000000000000E+00,5.39000000000000E+00,4.78000000000000E+00,4.47000000000000E+00,4.96000000000000E+00,5.30000000000000E+00,3.14000000000000E+00,2.87000000000000E+00,2.86000000000000E+00,3.10000000000000E+00,2.01000000000000E+00,2.65000000000000E+00,1.82000000000000E+00,1.78000000000000E+00,1.82000000000000E+00,1.79000000000000E+00,1.78000000000000E+00,1.81000000000000E+00,1.81000000000000E+00,1.75000000000000E+00,2.34000000000000E+00,
PRT,,,,,,,,,,,,,,,,,,,,,,,,,,,,,4.32000000000000E+00,4.57000000000000E+00,5.99000000000000E+00,5.39000000000000E+00,4.78000000000000E+00,4.47000000000000E+00,4.96000000000000E+00,5.30000000000000E+00,3.14000000000000E+00,2.87000000000000E+00,2.86000000000000E+00,3.10000000000000E+00,2.01000000000000E+00,2.65000000000000E+00,1.82000000000000E+00,1.78000000000000E+00,1.82000000000000E+00,1.79000000000000E+00,1.78000000000000E+00,1.81000000000000E+00,1.81000000000000E+00,1.75000000000000E+00,2.34000000000000E+00,
PRY,,,,,,,,,,,,,,,,,,,,,,,,,,,,,,,,1.45000000000000E+01,,,8.15000000000000E+00,6.74000000000000E+00,9.42000000000000E+00,1.03100000000000E+01,1.02400000000000E+01,6.24000000000000E+00,1.13700000000000E+01,1.19400000000000E+01,1.13700000000000E+01,1.19600000000000E+01,7.95000000000000E+00,6.70000000000000E+00,3.77000000000000E+00,3.99000000000000E+00,3.93000000000000E+00,4.58000000000000E+00,4.79000000000000E+00,
PYF,,,,,,,,,,,,,,,,,,,,,,,,,,,,,,,,,,,,,,,,,,,,,,,,,5.22000000000000E+00,5.21000000000000E+00,,
QAT,,,,,,,,,,,,,,,,,,,,,,,,,,,,,,,,,,,,,,,,,,,4.01000000000000E+00,,,4.31000000000000E+00,4.30000000000000E+00,4.03000000000000E+00,3.76000000000000E+00,3.75000000000000E+00,,
ROM,,,,,,,,,,,,,,,,,,,,,,,,,,,,,4.32000000000000E+00,4.57000000000000E+00,5.99000000000000E+00,5.39000000000000E+00,4.78000000000000E+00,4.47000000000000E+00,4.96000000000000E+00,5.30000000000000E+00,3.14000000000000E+00,2.87000000000000E+00,2.86000000000000E+00,3.10000000000000E+00,2.01000000000000E+00,2.65000000000000E+00,1.82000000000000E+00,1.78000000000000E+00,1.82000000000000E+00,1.79000000000000E+00,1.78000000000000E+00,1.81000000000000E+00,1.81000000000000E+00,1.75000000000000E+00,2.34000000000000E+00,
RUS,,,,,,,,,,,,,,,,,,,,,,,,,,,,,,,,,,7.52000000000000E+00,9.97000000000000E+00,,9.09000000000000E+00,1.18500000000000E+01,,,,9.28000000000000E+00,8.90000000000000E+00,,,8.95000000000000E+00,,6.78000000000000E+00,5.97000000000000E+00,6.14000000000000E+00,3.89000000000000E+00,
RWA,,,,,,,,,,,,,,,,,,,,,,,,,,,,,,,,,,2.55700000000000E+01,,,,,,,,5.93000000000000E+00,,6.63000000000000E+00,,1.41000000000000E+01,1.18700000000000E+01,,1.36700000000000E+01,,5.87000000000000E+00,
SAS,,,,,,,,,,,,,,,,,,,,,,,,,,,,,,,,,,,,,,,,2.88700000000000E+01,1.33300000000000E+01,2.41800000000000E+01,1.85000000000000E+01,1.82000000000000E+01,2.13700000000000E+01,1.33300000000000E+01,1.51600000000000E+01,1.27700000000000E+01,7.27000000000000E+00,8.72000000000000E+00,,
SAU,,,,,,,,,,,,,,,,,,,,,,,,,,,,,,,,,,,1.14600000000000E+01,,,,,1.14300000000000E+01,1.13500000000000E+01,,,6.53000000000000E+00,6.29000000000000E+00,4.44000000000000E+00,4.46000000000000E+00,4.17000000000000E+00,4.17000000000000E+00,4.17000000000000E+00,,
SDN,,,,,,,,,,,,,,,,,,,,,,,,,,,,,,,,,,,,,3.93000000000000E+00,,,,,,1.90700000000000E+01,,,,1.46300000000000E+01,,1.13300000000000E+01,7.86000000000000E+00,1.57600000000000E+01,
SEN,,,,,,,,,,,,,,,,,,,,,,,,,,,,,,,,,,,,,,,,,,1.04300000000000E+01,1.09700000000000E+01,1.04500000000000E+01,1.05300000000000E+01,1.04200000000000E+01,1.02800000000000E+01,1.06000000000000E+01,1.04200000000000E+01,1.04200000000000E+01,1.01800000000000E+01,
SGP,,,,,,,,,,,,,,,,,,,,,,,,,,,,,,6.30000000000000E-01,,,,,,0.00000000000000E+00,,,,,,0.00000000000000E+00,0.00000000000000E+00,0.00000000000000E+00,0.00000000000000E+00,0.00000000000000E+00,0.00000000000000E+00,0.00000000000000E+00,0.00000000000000E+00,0.00000000000000E+00,0.00000000000000E+00,
SLB,,,,,,,,,,,,,,,,,,,,,,,,,,,,,,,,,,,,3.42500000000000E+01,,,,,,,,,,,1.27500000000000E+01,7.79000000000000E+00,8.81000000000000E+00,,8.75000000000000E+00,
SLV,,,,,,,,,,,,,,,,,,,,,,,,,,,,,,,,,,,,8.72000000000000E+00,,6.81000000000000E+00,5.60000000000000E+00,,5.49000000000000E+00,6.00000000000000E+00,4.92000000000000E+00,,4.39000000000000E+00,6.11000000000000E+00,5.15000000000000E+00,5.29000000000000E+00,3.91000000000000E+00,2.50000000000000E+00,4.25000000000000E+00,
SRB,,,,,,,,,,,,,,,,,,,,,,,,,,,,,,,,,,,,,,,,,,5.69000000000000E+00,8.01000000000000E+00,,,6.83000000000000E+00,,,,,,
SSA,,,,,,,,,,,,,,,,,,,,,,,,,,,,,,,,,,,,,,,,7.96000000000000E+00,1.43200000000000E+01,9.47000000000000E+00,1.32000000000000E+01,1.01700000000000E+01,7.40000000000000E+00,7.82000000000000E+00,7.47000000000000E+00,7.53000000000000E+00,7.97000000000000E+00,7.74000000000000E+00,,
SUR,,,,,,,,,,,,,,,,,,,,,,,,,,,,,,,,,,,,,1.85000000000000E+01,,,1.52600000000000E+01,1.16200000000000E+01,,,,,,,1.09100000000000E+01,,,1.03800000000000E+01,
SVK,,,,,,,,,,,,,,,,,,,,,,,,,,,,,4.32000000000000E+00,4.57000000000000E+00,5.99000000000000E+00,5.39000000000000E+00,4.78000000000000E+00,4.47000000000000E+00,4.96000000000000E+00,5.30000000000000E+00,3.14000000000000E+00,2.87000000000000E+00,2.86000000000000E+00,3.10000000000000E+00,2.01000000000000E+00,2.65000000000000E+00,1.82000000000000E+00,1.78000000000000E+00,1.82000000000000E+00,1.79000000000000E+00,1.78000000000000E+00,1.81000000000000E+00,1.81000000000000E+00,1.75000000000000E+00,2.34000000000000E+00,
SVN,,,,,,,,,,,,,,,,,,,,,,,,,,,,,4.32000000000000E+00,4.57000000000000E+00,5.99000000000000E+00,5.39000000000000E+00,4.78000000000000E+00,4.47000000000000E+00,4.96000000000000E+00,5.30000000000000E+00,3.14000000000000E+00,2.87000000000000E+00,2.86000000000000E+00,3.10000000000000E+00,2.01000000000000E+00,2.65000000000000E+00,1.82000000000000E+00,1.78000000000000E+00,1.82000000000000E+00,1.79000000000000E+00,1.78000000000000E+00,1.81000000000000E+00,1.81000000000000E+00,1.75000000000000E+00,2.34000000000000E+00,
SWE,,,,,,,,,,,,,,,,,,,,,,,,,,,,,4.32000000000000E+00,4.57000000000000E+00,5.99000000000000E+00,5.39000000000000E+00,4.78000000000000E+00,4.47000000000000E+00,4.96000000000000E+00,5.30000000000000E+00,3.14000000000000E+00,2.87000000000000E+00,2.86000000000000E+00,3.10000000000000E+00,2.01000000000000E+00,2.65000000000000E+00,1.82000000000000E+00,1.78000000000000E+00,1.82000000000000E+00,1.79000000000000E+00,1.78000000000000E+00,1.81000000000000E+00,1.81000000000000E+00,1.75000000000000E+00,2.34000000000000E+00,
SWZ,,,,,,,,,,,,,,,,,,,,,,,,,,,,,,,,,,,,,,,,,,9.30000000000000E-01,,,1.11900000000000E+01,9.68000000000000E+00,9.64000000000000E+00,8.72000000000000E+00,7.39000000000000E+00,7.45000000000000E+00,1.61600000000000E+01,
SYC,,,,,,,,,,,,,,,,,,,,,,,,,,,,,,,,,,,,,,,,,1.85200000000000E+01,1.85200000000000E+01,,,,1.13200000000000E+01,6.71000000000000E+00,6.39000000000000E+00,,,,
SYR,,,,,,,,,,,,,,,,,,,,,,,,,,,,,,,,,,,,,,,,,,,1.70600000000000E+01,,,,,,,1.18700000000000E+01,6.13000000000000E+00,
TCD,,,,,,,,,,,,,,,,,,,,,,,,,,,,,,,,,,,,1.34200000000000E+01,,1.34200000000000E+01,,,,1.19800000000000E+01,1.35100000000000E+01,,,1.13500000000000E+01,,1.26900000000000E+01,,1.37800000000000E+01,,
TGO,,,,,,,,,,,,,,,,,,,,,,,,,,,,,,,,,,,,,,,,,,1.12300000000000E+01,1.02600000000000E+01,1.13600000000000E+01,1.13800000000000E+01,1.10000000000000E+01,1.07100000000000E+01,1.07500000000000E+01,1.58700000000000E+01,1.57700000000000E+01,1.48800000000000E+01,
THA,,,,,,,,,,,,,,,,,,,,,,,,,,,,,,3.39300000000000E+01,,3.28300000000000E+01,,3.50900000000000E+01,,1.53800000000000E+01,,,,,1.01200000000000E+01,9.67000000000000E+00,,9.40000000000000E+00,,5.86000000000000E+00,5.78000000000000E+00,5.40000000000000E+00,5.73000000000000E+00,6.14000000000000E+00,,
TJK,,,,,,,,,,,,,,,,,,,,,,,,,,,,,,,,,,,,,,,,,,,8.00000000000000E+00,,,,5.24000000000000E+00,,,,7.80000000000000E+00,
TKM,,,,,,,,,,,,,,,,,,,,,,,,,,,,,,,,,,,,,,,0.00000000000000E+00,,,,1.10000000000000E+00,,,,,,,,,
TON,,,,,,,,,,,,,,,,,,,,,,,,,,,,,,,,,,,,,,,,,,,,,,,,,,8.94000000000000E+00,9.00000000000000E+00,
TTO,,,,,,,,,,,,,,,,,,,,,,,,,,,,,,,,1.42000000000000E+01,1.43200000000000E+01,,,,7.24000000000000E+00,,,1.66800000000000E+01,,6.98000000000000E+00,5.53000000000000E+00,5.91000000000000E+00,,,1.05100000000000E+01,1.84300000000000E+01,1.73800000000000E+01,,,
TUN,,,,,,,,,,,,,,,,,,,,,,,,,,,,,,,2.85700000000000E+01,,2.86300000000000E+01,,,3.05700000000000E+01,,,2.79700000000000E+01,,,,2.56200000000000E+01,2.25200000000000E+01,2.36300000000000E+01,7.44000000000000E+00,1.99900000000000E+01,,1.82400000000000E+01,,,
TUR,,,,,,,,,,,,,,,,,,,,,,,,,,,,,,,,,,5.37000000000000E+00,,7.30000000000000E+00,,5.81000000000000E+00,,5.32000000000000E+00,,,,1.48000000000000E+00,,1.17000000000000E+00,1.05000000000000E+00,1.29000000000000E+00,1.47000000000000E+00,1.40000000000000E+00,1.30000000000000E+00,
TUV,,,,,,,,,,,,,,,,,,,,,,,,,,,,,,,,,,,,,,,,,,,,,,,,,,,4.30000000000000E-01,
TZA,,,,,,,,,,,,,,,,,,,,,,,,,,,,,,,,,,1.48300000000000E+01,,,,1.81400000000000E+01,1.85500000000000E+01,,1.30200000000000E+01,,,8.68000000000000E+00,,7.75000000000000E+00,6.97000000000000E+00,6.99000000000000E+00,1.00400000000000E+01,9.95000000000000E+00,8.00000000000000E+00,
UGA,,,,,,,,,,,,,,,,,,,,,,,,,,,,,,,,,,,1.23000000000000E+01,,,,,,6.25000000000000E+00,6.15000000000000E+00,6.11000000000000E+00,5.58000000000000E+00,4.97000000000000E+00,8.39000000000000E+00,7.56000000000000E+00,7.84000000000000E+00,8.35000000000000E+00,8.38000000000000E+00,7.89000000000000E+00,
UKR,,,,,,,,,,,,,,,,,,,,,,,,,,,,,,,,,,,,4.41000000000000E+00,,5.39000000000000E+00,,,,,6.47000000000000E+00,,,,4.53000000000000E+00,,5.61000000000000E+00,3.14000000000000E+00,3.05000000000000E+00,
UMC,,,,,,,,,,,,,,,,,,,,,,,,,,,,,,,,,,,,,,,,1.01400000000000E+01,1.36400000000000E+01,1.12400000000000E+01,7.58000000000000E+00,8.88000000000000E+00,6.14000000000000E+00,5.47000000000000E+00,4.84000000000000E+00,5.97000000000000E+00,5.73000000000000E+00,5.45000000000000E+00,,
URY,,,,,,,,,,,,,,,,,,,,,,,,,,,,,,,,,5.83000000000000E+00,,,1.19200000000000E+01,1.13100000000000E+01,1.16200000000000E+01,1.36300000000000E+01,1.37500000000000E+01,7.79000000000000E+00,8.12000000000000E+00,1.28100000000000E+01,,5.90000000000000E+00,4.79000000000000E+00,4.66000000000000E+00,4.88000000000000E+00,4.94000000000000E+00,5.15000000000000E+00,5.26000000000000E+00,
USA,,,,,,,,,,,,,,,,,,,,,,,,,,,,,,4.27000000000000E+00,4.27000000000000E+00,4.29000000000000E+00,4.28000000000000E+00,4.11000000000000E+00,,3.12000000000000E+00,2.85000000000000E+00,2.80000000000000E+00,2.96000000000000E+00,2.09000000000000E+00,1.98000000000000E+00,2.03000000000000E+00,2.02000000000000E+00,2.02000000000000E+00,1.87000000000000E+00,1.86000000000000E+00,1.84000000000000E+00,1.71000000000000E+00,2.00000000000000E+00,2.04000000000000E+00,2.00000000000000E+00,
UZB,,,,,,,,,,,,,,,,,,,,,,,,,,,,,,,,,,,,,,,,,,6.19000000000000E+00,,,,,7.80000000000000E+00,7.41000000000000E+00,7.12000000000000E+00,7.38000000000000E+00,,
VCT,,,,,,,,,,,,,,,,,,,,,,,,,,,,,,,,,,,,,2.01600000000000E+01,,,1.65100000000000E+01,1.65500000000000E+01,1.22900000000000E+01,1.13200000000000E+01,1.12000000000000E+01,,,2.69000000000000E+00,8.58000000000000E+00,,,,
VEN,,,,,,,,,,,,,,,,,,,,,,,,,,,,,,,,,1.67000000000000E+01,,,1.19400000000000E+01,,1.35700000000000E+01,1.33600000000000E+01,1.28000000000000E+01,1.33500000000000E+01,,1.36100000000000E+01,,1.19300000000000E+01,1.29500000000000E+01,1.10900000000000E+01,1.09700000000000E+01,1.15900000000000E+01,9.14000000000000E+00,1.07900000000000E+01,
VNM,,,,,,,,,,,,,,,,,,,,,,,,,,,,,,,,,,,1.26800000000000E+01,,,,,1.45600000000000E+01,,1.64800000000000E+01,1.50300000000000E+01,1.29000000000000E+01,1.31600000000000E+01,1.27600000000000E+01,1.07600000000000E+01,1.10100000000000E+01,5.90000000000000E+00,,5.58000000000000E+00,
VUT,,,,,,,,,,,,,,,,,,,,,,,,,,,,,,,,,,,,,,,,,,,6.83000000000000E+00,,,,7.01000000000000E+00,9.93000000000000E+00,1.42600000000000E+01,1.46100000000000E+01,,
WLD,,,,,,,,,,,,,,,,,,,,,,,,,,,,,,,,,,,,,,,,4.31000000000000E+00,4.25000000000000E+00,4.55000000000000E+00,3.26000000000000E+00,3.59000000000000E+00,3.27000000000000E+00,3.04000000000000E+00,2.75000000000000E+00,2.96000000000000E+00,3.26000000000000E+00,3.32000000000000E+00,,
YEM,,,,,,,,,,,,,,,,,,,,,,,,,,,,,,,,,,,,,,,,,1.23800000000000E+01,,,,,,5.57000000000000E+00,,,4.63000000000000E+00,,
ZAF,,,,,,,,,,,,,,,,,,,,,,,,,,,,,1.34200000000000E+01,,1.09800000000000E+01,1.18700000000000E+01,,1.40900000000000E+01,,,8.84000000000000E+00,6.30000000000000E+00,,5.10000000000000E+00,,5.87000000000000E+00,,,6.47000000000000E+00,6.65000000000000E+00,6.50000000000000E+00,6.53000000000000E+00,6.13000000000000E+00,5.26000000000000E+00,5.66000000000000E+00,
ZAR,,,,,,,,,,,,,,,,,,,,,,,,,,,,,,,,,,,,,,,,,,,,1.28800000000000E+01,,,1.14500000000000E+01,1.13000000000000E+01,1.11400000000000E+01,1.11300000000000E+01,,
ZMB,,,,,,,,,,,,,,,,,,,,,,,,,,,,,,,,,,1.99600000000000E+01,,,,1.18600000000000E+01,,,,,8.33000000000000E+00,8.97000000000000E+00,,9.37000000000000E+00,,,4.37000000000000E+00,4.24000000000000E+00,,
ZWE,,,,,,,,,,,,,,,,,,,,,,,,,,,,,,,,,,,,,3.87400000000000E+01,1.76200000000000E+01,1.49100000000000E+01,1.84500000000000E+01,,1.43300000000000E+01,1.93700000000000E+01,1.50600000000000E+01,,,,,,,,
