"Country Code",1960,1961,1962,1963,1964,1965,1966,1967,1968,1969,1970,1971,1972,1973,1974,1975,1976,1977,1978,1979,1980,1981,1982,1983,1984,1985,1986,1987,1988,1989,1990,1991,1992,1993,1994,1995,1996,1997,1998,1999,2000,2001,2002,2003,2004,2005,2006,2007,2008,2009,2010,2011AFG,,,,,,,,,,,,,,,,,,,,,,,,,,,,,,,,,,,,,,,,,,,,,6.13804300000000E-01,,4.26256600000000E+00,4.25256300000000E+00,3.66962300000000E+00,,,
AGO,,,,,,,,,,,,,,,,,,,,,,,,,,,,,,,,,,,,,,,,,,,1.41938800000000E+01,,,7.80950700000000E+00,7.80950700000000E+00,,1.92849300000000E+01,1.95132100000000E+01,,
ALB,,,,,,,,,,,,,,,,,,,,,,,,,,,,,,,,,,,,,,5.81079600000000E+01,,,,3.68274500000000E+01,0.00000000000000E+00,,,0.00000000000000E+00,,0.00000000000000E+00,7.27118300000000E+00,0.00000000000000E+00,,
ARE,,,,,,,,,,,,,,,,,,,,,,,,,,,,,,,,,,,,,,,,,,,,4.59348000000000E-02,,7.38890000000000E-03,7.38090000000000E-03,1.05682000000000E-02,1.14092000000000E-02,1.14089000000000E-02,,
ARG,,,,,,,,,,,,,,,,,,,,,,,,,,,,,,,,,3.26846600000000E+01,7.29862500000000E+00,,3.51367500000000E+01,3.67929000000000E+01,3.58480200000000E+01,5.00428800000000E+01,4.62051100000000E+01,4.32383100000000E+01,3.90184700000000E+01,5.55679400000000E+01,2.84681200000000E+01,3.74845900000000E+01,2.31177200000000E+01,2.40910500000000E+01,2.54463900000000E+01,2.19141000000000E+01,2.59274100000000E+01,2.49994000000000E+01,
ARM,,,,,,,,,,,,,,,,,,,,,,,,,,,,,,,,,,,,,,,,,,0.00000000000000E+00,,,,,6.39690000000000E-03,,0.00000000000000E+00,,,
ATG,,,,,,,,,,,,,,,,,,,,,,,,,,,,,,,,,,,,,4.99725700000000E+01,,,4.06363600000000E+01,5.12285100000000E+01,3.84103100000000E+01,3.72023500000000E+01,4.44004100000000E+01,,,3.86156100000000E+01,4.76098900000000E+01,4.76102800000000E+01,4.73706000000000E+01,,
AUS,,,,,,,,,,,,,,,,,,,,,,,,,,,,,,,,3.43623700000000E+01,,1.30078000000000E+01,,,1.36822300000000E+01,1.39582700000000E+01,1.39689900000000E+01,1.38897600000000E+01,6.95092200000000E+00,7.13335300000000E+00,6.29934000000000E+00,6.39035100000000E+00,7.18496500000000E+00,6.88199000000000E+00,6.53620600000000E+00,2.99695100000000E+00,6.25113300000000E+00,6.52370700000000E+00,0.00000000000000E+00,
AUT,,,,,,,,,,,,,,,,,,,,,,,,,,,,,4.06522600000000E-01,4.00874100000000E-01,8.29889000000000E+00,1.11103200000000E+00,1.33158500000000E+00,1.04408200000000E+00,8.49730400000000E-01,1.44689300000000E+00,2.82226700000000E-01,2.10006900000000E-01,3.29707300000000E-01,3.51351500000000E-01,2.78076300000000E-01,3.80015800000000E-01,5.54303300000000E-01,3.81380700000000E-01,2.42914600000000E-01,2.10261400000000E-01,2.28838300000000E-01,2.65575100000000E-01,2.41675900000000E-01,2.35635200000000E-01,2.03217700000000E-01,
AZE,,,,,,,,,,,,,,,,,,,,,,,,,,,,,,,,,,,,,,,,,,,2.37174700000000E-01,,,1.49997700000000E-01,,4.22221800000000E+01,4.20997200000000E+01,4.17613400000000E+01,,
BDI,,,,,,,,,,,,,,,,,,,,,,,,,,,,,,,,,,,,,,,,,,,3.53980400000000E+01,,,4.02031900000000E+01,3.09261700000000E+01,2.58069500000000E+01,3.37551500000000E+01,2.71466700000000E+01,2.77890900000000E+01,
BEL,,,,,,,,,,,,,,,,,,,,,,,,,,,,,4.06522600000000E-01,4.00874100000000E-01,8.29889000000000E+00,1.11103200000000E+00,1.33158500000000E+00,1.04408200000000E+00,8.49730400000000E-01,1.44689300000000E+00,2.82226700000000E-01,2.10006900000000E-01,3.29707300000000E-01,3.51351500000000E-01,2.78076300000000E-01,3.80015800000000E-01,5.54303300000000E-01,3.81380700000000E-01,2.42914600000000E-01,2.10261400000000E-01,2.28838300000000E-01,2.65575100000000E-01,2.41675900000000E-01,2.35635200000000E-01,2.03217700000000E-01,
BEN,,,,,,,,,,,,,,,,,,,,,,,,,,,,,,,,,,,,,,,,,,5.49288600000000E+01,5.44399000000000E+01,5.63811000000000E+01,5.61735600000000E+01,5.76989800000000E+01,5.45474000000000E+01,5.37894200000000E+01,4.96692800000000E+01,4.97690100000000E+01,4.89283400000000E+01,
BFA,,,,,,,,,,,,,,,,,,,,,,,,,,,,,,,,,,7.05470200000000E+01,,,,,,,,5.14898500000000E+01,5.09029900000000E+01,5.22385100000000E+01,4.93389900000000E+01,4.92529900000000E+01,4.60242800000000E+01,4.49080100000000E+01,4.10773400000000E+01,4.12536400000000E+01,4.64801000000000E+01,
BGD,,,,,,,,,,,,,,,,,,,,,,,,,,,,,,9.88006700000000E+01,,,,,9.92999000000000E+01,,,,,5.56414400000000E+01,5.53576700000000E+01,,5.08934200000000E+01,4.95850200000000E+01,4.79394100000000E+01,4.01135600000000E+01,4.01135600000000E+01,4.00912500000000E+01,3.64911000000000E+01,,,
BGR,,,,,,,,,,,,,,,,,,,,,,,,,,,,,4.06522600000000E-01,4.00874100000000E-01,8.29889000000000E+00,1.11103200000000E+00,1.33158500000000E+00,1.04408200000000E+00,8.49730400000000E-01,1.44689300000000E+00,2.82226700000000E-01,2.10006900000000E-01,3.29707300000000E-01,3.51351500000000E-01,2.78076300000000E-01,3.80015800000000E-01,5.54303300000000E-01,3.81380700000000E-01,2.42914600000000E-01,2.10261400000000E-01,2.28838300000000E-01,2.65575100000000E-01,2.41675900000000E-01,2.35635200000000E-01,2.03217700000000E-01,
BHR,,,,,,,,,,,,,,,,,,,,,,,,,,,,,,,,,,,,,,,,4.43978500000000E+00,,4.73868900000000E+00,,,,4.26740000000000E-03,6.45650000000000E-03,3.98920000000000E-03,1.14659000000000E-02,1.04630000000000E-02,,
BHS,,,,,,,,,,,,,,,,,,,,,,,,,,,,,,,,,,,,,,,,8.98836400000000E+01,,,8.29273800000000E+01,,,,8.09027400000000E+01,,,,7.62208100000000E+01,
BIH,,,,,,,,,,,,,,,,,,,,,,,,,,,,,,,,,,,,,,,,,,0.00000000000000E+00,,,,,0.00000000000000E+00,1.31535100000000E+01,1.29979300000000E+01,6.74668700000000E+00,0.00000000000000E+00,
BLR,,,,,,,,,,,,,,,,,,,,,,,,,,,,,,,,,,,,,3.39227600000000E+01,3.57830800000000E+01,,,,,1.67664500000000E+01,,,,,,2.77173600000000E+01,2.80055900000000E+01,3.91043000000000E+00,
BLZ,,,,,,,,,,,,,,,,,,,,,,,,,,,,,,,,,,,,,4.16637100000000E+01,,,3.16973200000000E+01,,3.42317800000000E+01,3.57848700000000E+01,3.55469400000000E+01,,,3.41249600000000E+01,4.21994700000000E+01,4.21994700000000E+01,2.76546500000000E+01,3.01021400000000E+01,
BMU,,,,,,,,,,,,,,,,,,,,,,,,,,,,,,,,,,,,,,,,,,6.91295300000000E+01,,,,7.10875800000000E+01,,7.44560500000000E+01,7.54306900000000E+01,7.52102400000000E+01,7.35133100000000E+01,
BOL,,,,,,,,,,,,,,,,,,,,,,,,,,,,,,,,,,0.00000000000000E+00,0.00000000000000E+00,0.00000000000000E+00,0.00000000000000E+00,0.00000000000000E+00,0.00000000000000E+00,0.00000000000000E+00,0.00000000000000E+00,0.00000000000000E+00,3.86903200000000E+00,,0.00000000000000E+00,0.00000000000000E+00,0.00000000000000E+00,0.00000000000000E+00,0.00000000000000E+00,1.44022300000000E+01,1.16304500000000E+01,
BRA,,,,,,,,,,,,,,,,,,,,,,,,,,,,,,9.32485600000000E+01,8.51240300000000E+01,7.88549200000000E+01,7.32744600000000E+01,6.09339700000000E+01,4.95755300000000E+01,4.45674600000000E+01,4.92742100000000E+01,4.82539400000000E+01,6.17544500000000E+01,2.52317600000000E+01,5.89659000000000E+01,4.59571000000000E+01,4.51084100000000E+01,4.52284400000000E+01,3.91553300000000E+01,2.89860800000000E+01,2.66998500000000E+01,2.74345400000000E+01,2.71022600000000E+01,2.72687300000000E+01,2.74535300000000E+01,
BRB,,,,,,,,,,,,,,,,,,,,,,,,,,,,,,,,,,,,,4.28107300000000E+01,,,3.85767400000000E+01,3.99339400000000E+01,4.27462900000000E+01,4.22894900000000E+01,4.23794300000000E+01,,,4.41494000000000E+01,4.28338300000000E+01,,,,
BRN,,,,,,,,,,,,,,,,,,,,,,,,,,,,,,,,,1.14011900000000E+01,,,,,,,,,1.28387300000000E+01,1.28343200000000E+01,1.23834900000000E+01,2.54514600000000E+01,2.64334900000000E+01,2.64352500000000E+01,2.46513400000000E+01,1.33560800000000E+01,,2.44886400000000E+01,
BTN,,,,,,,,,,,,,,,,,,,,,,,,,,,,,,,,,,,,,5.31348000000000E+01,,,,,,4.49771700000000E+01,,5.30349000000000E+01,5.31107700000000E+01,,4.38871500000000E+01,,,,
BWA,,,,,,,,,,,,,,,,,,,,,,,,,,,,,,,,,,,,,,,,,,2.11286700000000E+01,,,2.01124000000000E+01,2.14361700000000E+01,2.09010600000000E+01,1.97668100000000E+01,3.13716300000000E+01,3.13903400000000E+01,2.03778700000000E+01,
CAF,,,,,,,,,,,,,,,,,,,,,,,,,,,,,,,,,,,,4.69565200000000E+01,,4.57662100000000E+01,,,,5.10224000000000E+01,5.14914400000000E+01,,,5.59971100000000E+01,,4.76661900000000E+01,,,,
CAN,,,,,,,,,,,,,,,,,,,,,,,,,,,,,,1.70408200000000E+01,,,,1.49979600000000E+01,,1.47117300000000E+01,1.34109300000000E+01,1.21671500000000E+01,1.14101800000000E+01,1.08814700000000E+01,1.05588300000000E+01,1.11139900000000E+01,1.15661600000000E+01,7.99721200000000E+00,8.13789900000000E+00,8.09244900000000E+00,7.99788100000000E+00,8.49511400000000E+00,8.52238700000000E+00,8.94244700000000E+00,8.93081700000000E+00,
CHE,,,,,,,,,,,,,,,,,,,,,,,,,,,,,,,5.65460300000000E+00,,,7.15596500000000E+00,,1.13587400000000E+01,7.66376600000000E-01,5.22317200000000E-01,4.55762100000000E-01,3.24203700000000E-01,3.42625300000000E-01,3.98085900000000E-01,3.86142600000000E-01,3.63814700000000E-01,3.08534500000000E-01,2.60880100000000E-01,3.08391400000000E-01,1.72459000000000E+00,1.71267900000000E+00,1.66946300000000E-01,0.00000000000000E+00,
CHL,,,,,,,,,,,,,,,,,,,,,,,,,,,,,,,,,0.00000000000000E+00,0.00000000000000E+00,0.00000000000000E+00,0.00000000000000E+00,,0.00000000000000E+00,0.00000000000000E+00,0.00000000000000E+00,0.00000000000000E+00,0.00000000000000E+00,0.00000000000000E+00,,0.00000000000000E+00,0.00000000000000E+00,0.00000000000000E+00,0.00000000000000E+00,0.00000000000000E+00,0.00000000000000E+00,0.00000000000000E+00,
CHN,,,,,,,,,,,,,,,,,,,,,,,,,,,,,,,,,7.94478300000000E+01,7.89207400000000E+01,7.50046800000000E+01,,5.42431100000000E+01,4.31513200000000E+01,4.40174600000000E+01,4.21389900000000E+01,4.34671200000000E+01,4.11676400000000E+01,,2.20880400000000E+01,1.58707100000000E+01,1.98064900000000E+01,1.16764600000000E+01,1.41698100000000E+01,1.25291400000000E+01,1.25362900000000E+01,1.09484600000000E+01,
CIV,,,,,,,,,,,,,,,,,,,,,,,,,,,,,,,,,,7.36101700000000E+01,,,5.64658600000000E+01,,,,,4.89564400000000E+01,4.85721700000000E+01,4.91256300000000E+01,4.91143000000000E+01,4.90564700000000E+01,4.86320700000000E+01,4.76826800000000E+01,4.65044100000000E+01,4.65089200000000E+01,4.62081700000000E+01,
CMR,,,,,,,,,,,,,,,,,,,,,,,,,,,,,,,,,,,4.97040100000000E+01,4.74773700000000E+01,,,,,,5.05306200000000E+01,4.93925900000000E+01,,,5.39680500000000E+01,,5.00572400000000E+01,,5.19154000000000E+01,,
COG,,,,,,,,,,,,,,,,,,,,,,,,,,,,,,,,,,,5.88529700000000E+01,,,3.41307400000000E+01,,,,5.32282900000000E+01,5.28565300000000E+01,,,5.45159000000000E+01,,5.04858000000000E+01,,,,
COL,,,,,,,,,,,,,,,,,,,,,,,,,,,,,,,,1.05490800000000E+00,1.59820800000000E+01,,1.89568100000000E+01,2.19387700000000E+01,1.86414200000000E+01,1.95709400000000E+01,,1.95887800000000E+01,1.95872600000000E+01,1.96845700000000E+01,1.99825500000000E+01,,1.80651900000000E+01,2.07528500000000E+01,1.89414600000000E+01,4.14619300000000E+01,4.15715300000000E+01,4.19935600000000E+01,1.92719700000000E+01,
COM,,,,,,,,,,,,,,,,,,,,,,,,,,,,,,,,,,,,,,,,,,,,,,,,,4.93790000000000E+01,,7.70713000000000E-02,
CPV,,,,,,,,,,,,,,,,,,,,,,,,,,,,,,,,,,,,,,,,,,,,,,4.78038400000000E+01,,4.52474900000000E+01,4.69271900000000E+01,4.71734400000000E+01,4.38112000000000E+01,
CRI,,,,,,,,,,,,,,,,,,,,,,,,,,,,,,,,,,,,2.59099000000000E+01,,,,1.85938300000000E+01,1.17691000000000E-02,0.00000000000000E+00,0.00000000000000E+00,,5.72439000000000E-01,0.00000000000000E+00,,0.00000000000000E+00,,0.00000000000000E+00,,
CUB,,,,,,,,,,,,,,,,,,,,,,,,,,,,,,,,,,3.17880500000000E+01,,,,1.06530200000000E+01,,,,,1.09608100000000E+01,1.19517100000000E+01,1.09619000000000E+01,1.02873600000000E+01,9.97869400000000E+00,3.44139200000000E+01,3.33135600000000E+01,2.98698500000000E+01,9.69585200000000E+00,
CYP,,,,,,,,,,,,,,,,,,,,,,,,,,,,,4.06522600000000E-01,4.00874100000000E-01,8.29889000000000E+00,1.11103200000000E+00,1.33158500000000E+00,1.04408200000000E+00,8.49730400000000E-01,1.44689300000000E+00,2.82226700000000E-01,2.10006900000000E-01,3.29707300000000E-01,3.51351500000000E-01,2.78076300000000E-01,3.80015800000000E-01,5.54303300000000E-01,3.81380700000000E-01,2.42914600000000E-01,2.10261400000000E-01,2.28838300000000E-01,2.65575100000000E-01,2.41675900000000E-01,2.35635200000000E-01,2.03217700000000E-01,
CZE,,,,,,,,,,,,,,,,,,,,,,,,,,,,,4.06522600000000E-01,4.00874100000000E-01,8.29889000000000E+00,1.11103200000000E+00,1.33158500000000E+00,1.04408200000000E+00,8.49730400000000E-01,1.44689300000000E+00,2.82226700000000E-01,2.10006900000000E-01,3.29707300000000E-01,3.51351500000000E-01,2.78076300000000E-01,3.80015800000000E-01,5.54303300000000E-01,3.81380700000000E-01,2.42914600000000E-01,2.10261400000000E-01,2.28838300000000E-01,2.65575100000000E-01,2.41675900000000E-01,2.35635200000000E-01,2.03217700000000E-01,
DEU,,,,,,,,,,,,,,,,,,,,,,,,,,,,,4.06522600000000E-01,4.00874100000000E-01,8.29889000000000E+00,1.11103200000000E+00,1.33158500000000E+00,1.04408200000000E+00,8.49730400000000E-01,1.44689300000000E+00,2.82226700000000E-01,2.10006900000000E-01,3.29707300000000E-01,3.51351500000000E-01,2.78076300000000E-01,3.80015800000000E-01,5.54303300000000E-01,3.81380700000000E-01,2.42914600000000E-01,2.10261400000000E-01,2.28838300000000E-01,2.65575100000000E-01,2.41675900000000E-01,2.35635200000000E-01,2.03217700000000E-01,
DJI,,,,,,,,,,,,,,,,,,,,,,,,,,,,,,,,,,,,,,,,,,,9.49863700000000E+01,,,,8.90411000000000E+01,,,7.40153700000000E+01,,
DMA,,,,,,,,,,,,,,,,,,,,,,,,,,,,,,,,,,,,,4.64042300000000E+01,,,3.77995600000000E+01,5.91530600000000E+00,3.90544100000000E+01,4.22015600000000E+01,4.22017500000000E+01,,,3.67483900000000E+01,4.15108900000000E+01,,,,
DNK,,,,,,,,,,,,,,,,,,,,,,,,,,,,,4.06522600000000E-01,4.00874100000000E-01,8.29889000000000E+00,1.11103200000000E+00,1.33158500000000E+00,1.04408200000000E+00,8.49730400000000E-01,1.44689300000000E+00,2.82226700000000E-01,2.10006900000000E-01,3.29707300000000E-01,3.51351500000000E-01,2.78076300000000E-01,3.80015800000000E-01,5.54303300000000E-01,3.81380700000000E-01,2.42914600000000E-01,2.10261400000000E-01,2.28838300000000E-01,2.65575100000000E-01,2.41675900000000E-01,2.35635200000000E-01,2.03217700000000E-01,
DOM,,,,,,,,,,,,,,,,,,,,,,,,,,,,,,,,,,,,,,3.29260500000000E+01,,,5.31182800000000E+01,2.94182000000000E+01,3.35272800000000E+01,2.94895700000000E+01,2.94969900000000E+01,2.51072000000000E+01,2.88834300000000E+01,2.77260600000000E+01,2.65267000000000E+01,,2.73025200000000E+01,
DZA,,,,,,,,,,,,,,,,,,,,,,,,,,,,,,,,,,4.63661300000000E+01,,,,5.37971500000000E+01,5.25610100000000E+01,,,5.09790000000000E+01,4.11700300000000E+01,3.95085300000000E+01,,4.09030300000000E+01,3.99798900000000E+01,4.00356300000000E+01,6.08733700000000E+01,5.36136100000000E+01,,
EAP,,,,,,,,,,,,,,,,,,,,,,,,,,,,,,,,,,,,,,,,3.24928700000000E+01,3.09087000000000E+01,3.12587600000000E+01,1.98259400000000E+01,2.74233500000000E+01,1.46453200000000E+01,1.84934900000000E+01,1.69285500000000E+01,2.07499600000000E+01,1.66349900000000E+01,1.58080800000000E+01,,
ECA,,,,,,,,,,,,,,,,,,,,,,,,,,,,,,,,,,,,,,,,7.27481100000000E+00,2.72391000000000E-02,1.34038000000000E+01,6.82588500000000E+00,5.21881300000000E+00,1.41885400000000E+01,1.12768100000000E+01,4.65900400000000E+00,1.59094500000000E+01,1.15078900000000E+01,1.10994900000000E+01,,
ECU,,,,,,,,,,,,,,,,,,,,,,,,,,,,,,,,,,1.93959500000000E+01,1.81797800000000E+01,1.84572600000000E+01,1.83208600000000E+01,1.65834100000000E+01,1.92571800000000E+01,3.29312400000000E+01,,,2.02485100000000E+01,,2.04297900000000E+01,2.34561100000000E+01,1.72066800000000E+01,3.43571800000000E+01,3.20099000000000E+01,2.70997800000000E+01,1.97750800000000E+01,
EGY,,,,,,,,,,,,,,,,,,,,,,,,,,,,,,,,,,,,5.40777200000000E+01,,,4.72230800000000E+01,,,,5.19805500000000E+01,,2.46190900000000E+01,2.26862000000000E+01,,,1.81575600000000E+01,1.84746100000000E+01,,
ERI,,,,,,,,,,,,,,,,,,,,,,,,,,,,,,,,,,,,,,,,,,,2.35492300000000E+01,,,,2.23137400000000E+01,,,,,
ESP,,,,,,,,,,,,,,,,,,,,,,,,,,,,,4.06522600000000E-01,4.00874100000000E-01,8.29889000000000E+00,1.11103200000000E+00,1.33158500000000E+00,1.04408200000000E+00,8.49730400000000E-01,1.44689300000000E+00,2.82226700000000E-01,2.10006900000000E-01,3.29707300000000E-01,3.51351500000000E-01,2.78076300000000E-01,3.80015800000000E-01,5.54303300000000E-01,3.81380700000000E-01,2.42914600000000E-01,2.10261400000000E-01,2.28838300000000E-01,2.65575100000000E-01,2.41675900000000E-01,2.35635200000000E-01,2.03217700000000E-01,
EST,,,,,,,,,,,,,,,,,,,,,,,,,,,,,4.06522600000000E-01,4.00874100000000E-01,8.29889000000000E+00,1.11103200000000E+00,1.33158500000000E+00,1.04408200000000E+00,8.49730400000000E-01,1.44689300000000E+00,2.82226700000000E-01,2.10006900000000E-01,3.29707300000000E-01,3.51351500000000E-01,2.78076300000000E-01,3.80015800000000E-01,5.54303300000000E-01,3.81380700000000E-01,2.42914600000000E-01,2.10261400000000E-01,2.28838300000000E-01,2.65575100000000E-01,2.41675900000000E-01,2.35635200000000E-01,2.03217700000000E-01,
ETH,,,,,,,,,,,,,,,,,,,,,,,,,,,,,,,,,,,,6.49760400000000E+01,,,,,,5.12782600000000E+01,5.18932800000000E+01,,,,5.79182000000000E+01,,5.49959900000000E+01,5.49927200000000E+01,5.51719200000000E+01,
EUU,,,,,,,,,,,,,,,,,,,,,,,,,,,,,,,,,,,,,,,,3.51351500000000E-01,2.78076300000000E-01,3.80015800000000E-01,5.54303300000000E-01,3.81380700000000E-01,2.42914600000000E-01,2.10261400000000E-01,2.28838300000000E-01,2.65575100000000E-01,2.41675900000000E-01,2.35635200000000E-01,2.03217700000000E-01,
FIN,,,,,,,,,,,,,,,,,,,,,,,,,,,,,4.06522600000000E-01,4.00874100000000E-01,8.29889000000000E+00,1.11103200000000E+00,1.33158500000000E+00,1.04408200000000E+00,8.49730400000000E-01,1.44689300000000E+00,2.82226700000000E-01,2.10006900000000E-01,3.29707300000000E-01,3.51351500000000E-01,2.78076300000000E-01,3.80015800000000E-01,5.54303300000000E-01,3.81380700000000E-01,2.42914600000000E-01,2.10261400000000E-01,2.28838300000000E-01,2.65575100000000E-01,2.41675900000000E-01,2.35635200000000E-01,2.03217700000000E-01,
FJI,,,,,,,,,,,,,,,,,,,,,,,,,,,,,,,,,,,,,,,,,,,,,,,,,3.72977000000000E+01,2.57083800000000E+01,2.36044500000000E+01,
FRA,,,,,,,,,,,,,,,,,,,,,,,,,,,,,4.06522600000000E-01,4.00874100000000E-01,8.29889000000000E+00,1.11103200000000E+00,1.33158500000000E+00,1.04408200000000E+00,8.49730400000000E-01,1.44689300000000E+00,2.82226700000000E-01,2.10006900000000E-01,3.29707300000000E-01,3.51351500000000E-01,2.78076300000000E-01,3.80015800000000E-01,5.54303300000000E-01,3.81380700000000E-01,2.42914600000000E-01,2.10261400000000E-01,2.28838300000000E-01,2.65575100000000E-01,2.41675900000000E-01,2.35635200000000E-01,2.03217700000000E-01,
GAB,,,,,,,,,,,,,,,,,,,,,,,,,,,,,,,,,,,,5.66052100000000E+01,,,5.55854100000000E+01,,,5.41951300000000E+01,5.04684400000000E+01,,,5.88914300000000E+01,,5.04363500000000E+01,5.13427400000000E+01,5.16625200000000E+01,,
GBR,,,,,,,,,,,,,,,,,,,,,,,,,,,,,4.06522600000000E-01,4.00874100000000E-01,8.29889000000000E+00,1.11103200000000E+00,1.33158500000000E+00,1.04408200000000E+00,8.49730400000000E-01,1.44689300000000E+00,2.82226700000000E-01,2.10006900000000E-01,3.29707300000000E-01,3.51351500000000E-01,2.78076300000000E-01,3.80015800000000E-01,5.54303300000000E-01,3.81380700000000E-01,2.42914600000000E-01,2.10261400000000E-01,2.28838300000000E-01,2.65575100000000E-01,2.41675900000000E-01,2.35635200000000E-01,2.03217700000000E-01,
GEO,,,,,,,,,,,,,,,,,,,,,,,,,,,,,,,,,,,,,,,,0.00000000000000E+00,,,1.04855000000000E-02,1.46174600000000E-01,1.17988000000000E-01,,2.67098000000000E-02,0.00000000000000E+00,0.00000000000000E+00,4.38040000000000E-03,0.00000000000000E+00,
GHA,,,,,,,,,,,,,,,,,,,,,,,,,,,,,,,,,,3.14248900000000E+01,,,,,,,3.25403600000000E+01,,,,3.94928300000000E+01,,,3.65965500000000E+01,3.65965500000000E+01,3.63442200000000E+01,,
GIN,,,,,,,,,,,,,,,,,,,,,,,,,,,,,,,,,,,,,,,,,,,,,,5.74010000000000E+01,,,5.75391500000000E+01,5.49916500000000E+01,5.49916500000000E+01,
GMB,,,,,,,,,,,,,,,,,,,,,,,,,,,,,,,,,,,,,,,,,,,,,,,,9.34260600000000E+01,9.41006100000000E+01,9.44300800000000E+01,,
GNB,,,,,,,,,,,,,,,,,,,,,,,,,,,,,,,,,,,,,,,,,,5.24271900000000E+01,5.42173900000000E+01,5.50578000000000E+01,5.46660800000000E+01,5.38324400000000E+01,4.93644100000000E+01,5.30503000000000E+01,4.85784100000000E+01,4.89212800000000E+01,5.16936700000000E+01,
GNQ,,,,,,,,,,,,,,,,,,,,,,,,,,,,,,,,,,,,,,,5.25469200000000E+01,,,5.27371600000000E+01,5.20792600000000E+01,,,5.38597900000000E+01,,4.92704500000000E+01,,,,
GRC,,,,,,,,,,,,,,,,,,,,,,,,,,,,,4.06522600000000E-01,4.00874100000000E-01,8.29889000000000E+00,1.11103200000000E+00,1.33158500000000E+00,1.04408200000000E+00,8.49730400000000E-01,1.44689300000000E+00,2.82226700000000E-01,2.10006900000000E-01,3.29707300000000E-01,3.51351500000000E-01,2.78076300000000E-01,3.80015800000000E-01,5.54303300000000E-01,3.81380700000000E-01,2.42914600000000E-01,2.10261400000000E-01,2.28838300000000E-01,2.65575100000000E-01,2.41675900000000E-01,2.35635200000000E-01,2.03217700000000E-01,
GRD,,,,,,,,,,,,,,,,,,,,,,,,,,,,,,,,,,,,,4.58591400000000E+01,,,3.84793400000000E+01,,3.77650000000000E+01,3.93617900000000E+01,3.92876300000000E+01,,,3.38672900000000E+01,4.22562300000000E+01,4.22932300000000E+01,,3.62571100000000E+01,
GTM,,,,,,,,,,,,,,,,,,,,,,,,,,,,,,,,,,,,2.29152100000000E+01,,2.15691200000000E+01,2.24306600000000E+01,,9.65746000000000E+00,1.11268600000000E+01,8.54493500000000E+00,,9.20004700000000E-01,4.84599700000000E-01,,7.45095700000000E-01,1.74021600000000E+01,1.76985400000000E+01,1.52282300000000E+01,
GUY,,,,,,,,,,,,,,,,,,,,,,,,,,,,,,,,,,,,,3.86042000000000E+01,,,3.25433300000000E+01,3.26520400000000E+01,3.32441600000000E+01,3.36847400000000E+01,3.28235200000000E+01,,,3.25266300000000E+01,,3.93475100000000E+01,,3.73085700000000E+01,
HIC,,,,,,,,,,,,,,,,,,,,,,,,,,,,,,,,,,,,,,,,6.67162000000000E+00,5.48550200000000E+00,6.25873600000000E+00,5.69138800000000E+00,5.46712500000000E+00,3.65422600000000E+00,2.84990700000000E+00,3.53518800000000E+00,3.71565400000000E+00,3.55386100000000E+00,2.64451800000000E+00,,
HKG,,,,,,,,,,,,,,,,,,,,,,,,,,,,,0.00000000000000E+00,,,,,,,,,,0.00000000000000E+00,,,,,,,0.00000000000000E+00,0.00000000000000E+00,0.00000000000000E+00,0.00000000000000E+00,0.00000000000000E+00,0.00000000000000E+00,
HND,,,,,,,,,,,,,,,,,,,,,,,,,,,,,,,,,,,,2.24259100000000E+01,,,,2.18133900000000E+01,2.36957400000000E+01,1.07756600000000E+01,0.00000000000000E+00,,1.90886500000000E+00,0.00000000000000E+00,,0.00000000000000E+00,1.93006000000000E+01,0.00000000000000E+00,,
HRV,,,,,,,,,,,,,,,,,,,,,,,,,,,,,,,,,,,,,,,,,,1.79987200000000E+01,,,2.12142500000000E+00,3.13083000000000E-02,3.13937000000000E-02,4.23728800000000E-01,4.21439400000000E-01,4.02021200000000E-01,4.01403000000000E-02,
HTI,,,,,,,,,,,,,,,,,,,,,,,,,,,,,,,,,,,,,,,,,,,,,,,,3.01321300000000E+00,3.08296000000000E+00,3.01357600000000E+00,,
HUN,,,,,,,,,,,,,,,,,,,,,,,,,,,,,4.06522600000000E-01,4.00874100000000E-01,8.29889000000000E+00,1.11103200000000E+00,1.33158500000000E+00,1.04408200000000E+00,8.49730400000000E-01,1.44689300000000E+00,2.82226700000000E-01,2.10006900000000E-01,3.29707300000000E-01,3.51351500000000E-01,2.78076300000000E-01,3.80015800000000E-01,5.54303300000000E-01,3.81380700000000E-01,2.42914600000000E-01,2.10261400000000E-01,2.28838300000000E-01,2.65575100000000E-01,2.41675900000000E-01,2.35635200000000E-01,2.03217700000000E-01,
IDN,,,,,,,,,,,,,,,,,,,,,,,,,,,,,,4.99168000000000E+01,4.83795500000000E+01,,,4.91327200000000E+01,,4.03334200000000E+01,2.74225500000000E+01,,,2.60574300000000E+01,1.18226000000000E+01,3.29181900000000E+00,3.52482700000000E+00,3.09236600000000E+00,7.96119000000000E+00,8.27721100000000E+00,8.27721100000000E+00,1.36734100000000E+01,,1.22426600000000E+01,7.82025100000000E+00,
IND,,,,,,,,,,,,,,,,,,,,,,,,,,,,,,,9.87526600000000E+01,,9.64652600000000E+01,,,,,9.66507400000000E+01,,9.67196000000000E+01,,9.36193200000000E+01,,,9.45374500000000E+01,1.02671600000000E+01,,,3.12743400000000E+00,6.03530100000000E+00,,
IRL,,,,,,,,,,,,,,,,,,,,,,,,,,,,,4.06522600000000E-01,4.00874100000000E-01,8.29889000000000E+00,1.11103200000000E+00,1.33158500000000E+00,1.04408200000000E+00,8.49730400000000E-01,1.44689300000000E+00,2.82226700000000E-01,2.10006900000000E-01,3.29707300000000E-01,3.51351500000000E-01,2.78076300000000E-01,3.80015800000000E-01,5.54303300000000E-01,3.81380700000000E-01,2.42914600000000E-01,2.10261400000000E-01,2.28838300000000E-01,2.65575100000000E-01,2.41675900000000E-01,2.35635200000000E-01,2.03217700000000E-01,
IRN,,,,,,,,,,,,,,,,,,,,,,,,,,,,,,,,,,,,,,,,,6.70917800000000E+01,,,3.85124300000000E+01,4.45951400000000E+01,,,5.55368200000000E+01,5.70232400000000E+01,,,
ISL,,,,,,,,,,,,,,,,,,,,,,,,,,,,,,,,,,3.95144700000000E+00,,,1.24784900000000E-01,,,,,2.47406600000000E-01,,1.09681300000000E-01,,,2.50383000000000E-02,6.93100400000000E+00,6.64422300000000E+00,5.37383600000000E+00,4.77602300000000E+00,
ISR,,,,,,,,,,,,,,,,,,,,,,,,,,,,,,,,,,1.59372600000000E+01,,,,,,,,,,,2.71927100000000E-01,2.59033100000000E-01,3.91077000000000E-01,1.90276600000000E-01,2.22405000000000E-01,6.65376200000000E-01,,
ITA,,,,,,,,,,,,,,,,,,,,,,,,,,,,,4.06522600000000E-01,4.00874100000000E-01,8.29889000000000E+00,1.11103200000000E+00,1.33158500000000E+00,1.04408200000000E+00,8.49730400000000E-01,1.44689300000000E+00,2.82226700000000E-01,2.10006900000000E-01,3.29707300000000E-01,3.51351500000000E-01,2.78076300000000E-01,3.80015800000000E-01,5.54303300000000E-01,3.81380700000000E-01,2.42914600000000E-01,2.10261400000000E-01,2.28838300000000E-01,2.65575100000000E-01,2.41675900000000E-01,2.35635200000000E-01,2.03217700000000E-01,
JAM,,,,,,,,,,,,,,,,,,,,,,,,,,,,,,,,,,,,,4.13340700000000E+01,,,3.37197600000000E+01,3.24073400000000E+01,3.29718900000000E+01,3.49729400000000E+01,3.55424000000000E+01,,,3.31974400000000E+01,3.29152500000000E+01,,,4.11105300000000E+01,
JOR,,,,,,,,,,,,,,,,,,,,,,,,,,,,,,,,,,,,,,,,,6.31310000000000E+01,4.43367200000000E+01,4.50028500000000E+01,3.96695500000000E+01,,3.38221400000000E+01,3.11663000000000E+01,3.17457100000000E+01,3.17118700000000E+01,2.87865400000000E+01,,
JPN,,,,,,,,,,,,,,,,,,,,,,,,,,,,,5.40382100000000E+00,5.46099300000000E+00,5.49351400000000E+00,5.34093700000000E+00,5.44563400000000E+00,5.36736300000000E+00,5.28023600000000E+00,5.20800300000000E+00,4.88552400000000E+00,3.42453800000000E+00,3.46758800000000E+00,2.58961400000000E+00,2.52779600000000E+00,2.56612200000000E+00,2.70335500000000E+00,2.75022100000000E+00,1.92110700000000E+00,2.64479000000000E+00,3.48406800000000E+00,3.94249400000000E+00,3.74718500000000E+00,3.74992600000000E+00,3.83813500000000E+00,
KAZ,,,,,,,,,,,,,,,,,,,,,,,,,,,,,,,,,,,,,2.73051000000000E+01,,,,,,,,0.00000000000000E+00,,,,4.76989600000000E+00,,1.93471800000000E+01,
KEN,,,,,,,,,,,,,,,,,,,,,,,,,,,,,,,,,,,8.83195100000000E+01,,,,,,3.47225200000000E+01,4.18764000000000E+01,,,3.96305400000000E+01,3.67377700000000E+01,3.67267800000000E+01,3.62518300000000E+01,3.55776400000000E+01,3.50748300000000E+01,3.52780300000000E+01,
KGZ,,,,,,,,,,,,,,,,,,,,,,,,,,,,,,,,,,,,0.00000000000000E+00,,,,,,,6.72179500000000E+00,0.00000000000000E+00,,,0.00000000000000E+00,1.98536000000000E-02,1.65105000000000E-02,1.65241000000000E-02,2.83206000000000E-02,
KHM,,,,,,,,,,,,,,,,,,,,,,,,,,,,,,,,,,,,,,,,,,2.76891000000000E+01,2.61022300000000E+01,2.49684000000000E+01,,2.05518600000000E+01,,5.06755500000000E+01,1.97190100000000E+01,,,
KNA,,,,,,,,,,,,,,,,,,,,,,,,,,,,,,,,,,,,,4.89705900000000E+01,,,3.91885900000000E+01,4.19974200000000E+01,4.15265000000000E+01,4.13251400000000E+01,4.39795000000000E+01,,,3.88983700000000E+01,4.40427600000000E+01,4.45749800000000E+01,4.26070000000000E+01,3.59904500000000E+01,
KOR,,,,,,,,,,,,,,,,,,,,,,,,,,,,,7.61803400000000E+01,9.59628600000000E+00,1.20353100000000E+01,,5.10973800000000E-01,,,4.27862000000000E-02,2.28762000000000E-01,,,2.43192200000000E-01,,,3.67605900000000E-01,,6.98869100000000E-01,,6.66474600000000E-01,7.45144100000000E-01,,9.41923100000000E-01,8.55597000000000E-01,
KWT,,,,,,,,,,,,,,,,,,,,,,,,,,,,,,,,,,,,,,,,,,,0.00000000000000E+00,,,0.00000000000000E+00,0.00000000000000E+00,0.00000000000000E+00,0.00000000000000E+00,0.00000000000000E+00,,
LAC,,,,,,,,,,,,,,,,,,,,,,,,,,,,,,,,,,,,,,,,2.59362500000000E+01,3.09064800000000E+01,2.99121300000000E+01,2.96197100000000E+01,3.95287200000000E+01,2.12713500000000E+01,1.43924400000000E+01,1.69528000000000E+01,2.19466000000000E+01,2.19913400000000E+01,1.82304700000000E+01,,
LAO,,,,,,,,,,,,,,,,,,,,,,,,,,,,,,,,,,,,,,,,,8.55904700000000E+00,9.45234300000000E+00,,,6.26555100000000E+00,1.59011000000000E+01,1.58947900000000E+01,1.45395000000000E+01,1.90616500000000E+01,,,
LBN,,,,,,,,,,,,,,,,,,,,,,,,,,,,,,,,,,,,,,,,2.82947100000000E+01,4.29783700000000E+01,1.03385900000000E+01,9.97949900000000E+00,,9.92919400000000E+00,9.91684900000000E+00,8.58602500000000E+00,1.04560600000000E+01,,,,
LBY,,,,,,,,,,,,,,,,,,,,,,,,,,,,,,,,,,,,,5.95405000000000E+01,,,,,,4.80285900000000E+01,,,,0.00000000000000E+00,,,,,
LCA,,,,,,,,,,,,,,,,,,,,,,,,,,,,,,,,,,,,,5.01028900000000E+01,,,3.99286500000000E+01,3.98525500000000E+01,4.17225800000000E+01,4.39157400000000E+01,4.39478600000000E+01,,4.35441900000000E+01,3.70234000000000E+01,3.92712600000000E+01,,,,
LIC,,,,,,,,,,,,,,,,,,,,,,,,,,,,,,,,,,,,,,,,5.00647100000000E+01,4.10729800000000E+01,3.41652900000000E+01,3.43306500000000E+01,3.28856900000000E+01,3.53887300000000E+01,3.43584100000000E+01,3.25466500000000E+01,3.29295800000000E+01,3.42967600000000E+01,4.09508600000000E+01,,
LKA,,,,,,,,,,,,,,,,,,,,,,,,,,,,,,,4.92539700000000E+01,,,4.89477800000000E+01,4.98444500000000E+01,,,4.56271100000000E+01,,,1.95597300000000E+01,1.86409400000000E+01,,,2.14435200000000E+01,2.22886200000000E+01,2.15739700000000E+01,,,4.56193900000000E+01,2.16103400000000E+01,
LMC,,,,,,,,,,,,,,,,,,,,,,,,,,,,,,,,,,,,,,,,3.33759600000000E+01,3.02783700000000E+01,3.61560600000000E+01,3.02161600000000E+01,3.88621200000000E+01,3.21386000000000E+01,2.24155300000000E+01,1.95483900000000E+01,2.40233800000000E+01,1.99812500000000E+01,1.88174500000000E+01,,
LMY,,,,,,,,,,,,,,,,,,,,,,,,,,,,,,,,,,,,,,,,2.62612900000000E+01,3.57551200000000E+01,3.15833400000000E+01,3.15331500000000E+01,3.50462900000000E+01,2.88064600000000E+01,2.10541400000000E+01,2.12509800000000E+01,2.41124100000000E+01,2.37215700000000E+01,2.08305200000000E+01,,
LSO,,,,,,,,,,,,,,,,,,,,,,,,,,,,,,,,,,,,,,,,,,4.14237700000000E+01,,,2.33701100000000E+01,2.47901200000000E+01,2.45450100000000E+01,2.13585900000000E+01,3.96891800000000E+01,3.98813100000000E+01,2.11936700000000E+01,
LTU,,,,,,,,,,,,,,,,,,,,,,,,,,,,,4.06522600000000E-01,4.00874100000000E-01,8.29889000000000E+00,1.11103200000000E+00,1.33158500000000E+00,1.04408200000000E+00,8.49730400000000E-01,1.44689300000000E+00,2.82226700000000E-01,2.10006900000000E-01,3.29707300000000E-01,3.51351500000000E-01,2.78076300000000E-01,3.80015800000000E-01,5.54303300000000E-01,3.81380700000000E-01,2.42914600000000E-01,2.10261400000000E-01,2.28838300000000E-01,2.65575100000000E-01,2.41675900000000E-01,2.35635200000000E-01,2.03217700000000E-01,
LUX,,,,,,,,,,,,,,,,,,,,,,,,,,,,,4.06522600000000E-01,4.00874100000000E-01,8.29889000000000E+00,1.11103200000000E+00,1.33158500000000E+00,1.04408200000000E+00,8.49730400000000E-01,1.44689300000000E+00,2.82226700000000E-01,2.10006900000000E-01,3.29707300000000E-01,3.51351500000000E-01,2.78076300000000E-01,3.80015800000000E-01,5.54303300000000E-01,3.81380700000000E-01,2.42914600000000E-01,2.10261400000000E-01,2.28838300000000E-01,2.65575100000000E-01,2.41675900000000E-01,2.35635200000000E-01,2.03217700000000E-01,
LVA,,,,,,,,,,,,,,,,,,,,,,,,,,,,,4.06522600000000E-01,4.00874100000000E-01,8.29889000000000E+00,1.11103200000000E+00,1.33158500000000E+00,1.04408200000000E+00,8.49730400000000E-01,1.44689300000000E+00,2.82226700000000E-01,2.10006900000000E-01,3.29707300000000E-01,3.51351500000000E-01,2.78076300000000E-01,3.80015800000000E-01,5.54303300000000E-01,3.81380700000000E-01,2.42914600000000E-01,2.10261400000000E-01,2.28838300000000E-01,2.65575100000000E-01,2.41675900000000E-01,2.35635200000000E-01,2.03217700000000E-01,
MAC,,,,,,,,,,,,,,,,,,,,,,,,,,,,,,,,,,,,,,,,,,,,,,,,0.00000000000000E+00,0.00000000000000E+00,0.00000000000000E+00,0.00000000000000E+00,
MAR,,,,,,,,,,,,,,,,,,,,,,,,,,,,,,,,,,9.72000900000000E+01,,,,6.39773400000000E+01,,,7.86814400000000E+01,7.83949900000000E+01,7.73852900000000E+01,7.37734900000000E+01,,5.72558000000000E+01,4.53576600000000E+01,4.42704800000000E+01,3.97885200000000E+01,2.09735400000000E+01,,
MDA,,,,,,,,,,,,,,,,,,,,,,,,,,,,,,,,,,,,,1.19289400000000E+01,,,,2.72391000000000E-02,1.86734000000000E-02,,,,,1.23110100000000E+01,,3.29909800000000E+00,,4.11798500000000E+00,
MDG,,,,,,,,,,,,,,,,,,,,,,,,,,,,,,,,,,,,6.67949800000000E+00,,,,,,5.26002700000000E+00,,,,3.58193100000000E+01,4.36468800000000E+01,3.79716800000000E+01,3.88882400000000E+01,,3.65204900000000E+01,
MDV,,,,,,,,,,,,,,,,,,,,,,,,,,,,,,,,,,,,,,,,,7.64783900000000E+01,7.61169500000000E+01,7.70244100000000E+01,8.17507100000000E+01,8.21260800000000E+01,8.23786200000000E+01,8.23786200000000E+01,,8.81071300000000E+01,8.80819300000000E+01,,
MEX,,,,,,,,,,,,,,,,,,,,,,,,,,,,,,,,1.90166100000000E+01,,,,1.82072500000000E+01,,1.97157300000000E+01,1.99755200000000E+01,2.30397500000000E+01,5.01854900000000E+01,5.00979700000000E+01,4.33185200000000E+01,5.02256900000000E+01,2.83056000000000E+01,1.20345400000000E+01,1.05095300000000E+01,,1.10806600000000E+01,1.14051500000000E+01,5.23693000000000E+00,
MIC,,,,,,,,,,,,,,,,,,,,,,,,,,,,,,,,,,,,,,,,2.53315200000000E+01,3.54592300000000E+01,3.22527500000000E+01,3.12467300000000E+01,3.53168900000000E+01,2.83519000000000E+01,1.99679500000000E+01,1.99242100000000E+01,2.29101400000000E+01,2.25788200000000E+01,1.93709500000000E+01,,
MKD,,,,,,,,,,,,,,,,,,,,,,,,,,,,,,,,,,,,,,,,,,2.88598800000000E+01,,,2.64535500000000E+01,8.27389200000000E+00,8.51372200000000E+00,3.10351200000000E+01,1.41181000000000E+01,1.16515900000000E+01,1.15993200000000E+01,
MLI,,,,,,,,,,,,,,,,,,,,,,,,,,,,,,,,,,,,4.04547500000000E+01,,,,,,5.00633300000000E+01,5.17111800000000E+01,5.13110000000000E+01,5.12251100000000E+01,4.97121700000000E+01,4.54396600000000E+01,4.71460600000000E+01,4.87647400000000E+01,4.87647400000000E+01,4.87647400000000E+01,
MLT,,,,,,,,,,,,,,,,,,,,,,,,,,,,,4.06522600000000E-01,4.00874100000000E-01,8.29889000000000E+00,1.11103200000000E+00,1.33158500000000E+00,1.04408200000000E+00,8.49730400000000E-01,1.44689300000000E+00,2.82226700000000E-01,2.10006900000000E-01,3.29707300000000E-01,3.51351500000000E-01,2.78076300000000E-01,3.80015800000000E-01,5.54303300000000E-01,3.81380700000000E-01,2.42914600000000E-01,2.10261400000000E-01,2.28838300000000E-01,2.65575100000000E-01,2.41675900000000E-01,2.35635200000000E-01,2.03217700000000E-01,
MMR,,,,,,,,,,,,,,,,,,,,,,,,,,,,,,,,,,,,,,,,,,3.35587100000000E+00,3.37628900000000E+00,3.46376400000000E+00,2.94066800000000E+00,5.54846000000000E+00,4.16808500000000E+00,7.35422700000000E+00,4.20797100000000E+00,,,
MNA,,,,,,,,,,,,,,,,,,,,,,,,,,,,,,,,,,,,,,,,2.82947100000000E+01,6.43602400000000E+01,5.79651300000000E+01,6.09332500000000E+01,6.13468100000000E+01,4.61209000000000E+01,3.48888800000000E+01,3.75775900000000E+01,3.43293900000000E+01,4.21257100000000E+01,2.42010000000000E+01,,
MNE,,,,,,,,,,,,,,,,,,,,,,,,,,,,,,,,,,,,,,,,,,,,,,,,2.40484000000000E+00,8.95408100000000E-01,6.78478300000000E-01,1.13088700000000E+00,
MNG,,,,,,,,,,,,,,,,,,,,,,,,,,,,,,,,,,,,,,,,,,,,,,0.00000000000000E+00,0.00000000000000E+00,0.00000000000000E+00,0.00000000000000E+00,0.00000000000000E+00,,
MOZ,,,,,,,,,,,,,,,,,,,,,,,,,,,,,,,,,,,0.00000000000000E+00,,,3.48368000000000E+01,,,,3.40287100000000E+01,3.57461900000000E+01,3.57461900000000E+01,,3.59885500000000E+01,3.35959100000000E+01,3.34064300000000E+01,,2.39151500000000E+01,2.26164600000000E+01,
MRT,,,,,,,,,,,,,,,,,,,,,,,,,,,,,,,,,,,,,,,,,,5.30254800000000E+01,,,,,4.45571500000000E+01,5.18441400000000E+01,,,,
MUS,,,,,,,,,,,,,,,,,,,,,,,,,,,,,,,,,,,,6.44386400000000E+01,,6.29469300000000E+01,5.98391900000000E+01,,,,4.03802200000000E+01,,,1.93120600000000E+01,7.57111500000000E+00,8.15658300000000E+00,1.44183200000000E+01,1.69232000000000E+01,1.00577100000000E+01,
MWI,,,,,,,,,,,,,,,,,,,,,,,,,,,,,,,,,,,8.93984500000000E+01,,7.44895300000000E+01,8.00021700000000E+01,3.98329900000000E+01,,,4.19923700000000E+01,,,,,4.09865800000000E+01,,4.35401900000000E+01,4.73224300000000E+01,4.25139500000000E+01,
MYS,,,,,,,,,,,,,,,,,,,,,,,,,,,,,4.64849000000000E+01,,,4.47892100000000E+01,,4.27483700000000E+01,,,3.57898100000000E+01,2.94546300000000E+01,,,,3.01329700000000E+01,3.05743700000000E+01,2.96595000000000E+01,,3.25999800000000E+01,2.58569100000000E+01,2.73440800000000E+01,2.54055300000000E+01,2.41134900000000E+01,,
MYT,,,,,,,,,,,,,,,,,,,,,,,,,,,,,,,,,,,,,,,,,,,,,,,,2.02725000000000E+00,2.04224100000000E+00,2.09916600000000E+00,1.83600300000000E+00,
NAM,,,,,,,,,,,,,,,,,,,,,,,,,,,,,,,,,,,,,,,,,,1.90545600000000E+01,,,2.16444400000000E+01,1.71333300000000E+01,1.68337700000000E+01,1.88775300000000E+01,2.76095800000000E+01,2.72849300000000E+01,1.75803000000000E+01,
NER,,,,,,,,,,,,,,,,,,,,,,,,,,,,,,,,,,,,,,,,,,5.65554500000000E+01,5.62425000000000E+01,5.49866900000000E+01,5.49790600000000E+01,5.62156700000000E+01,4.94520100000000E+01,5.01642800000000E+01,4.84685900000000E+01,4.84685900000000E+01,4.84685900000000E+01,
NGA,,,,,,,,,,,,,,,,,,,,,,,,,,,,,6.15903900000000E+01,6.31921800000000E+01,6.42317400000000E+01,,7.51889600000000E+01,,,3.00850400000000E+01,4.95035500000000E+01,4.95690700000000E+01,4.95690700000000E+01,5.91704100000000E+01,5.88764000000000E+01,5.68828000000000E+01,5.26004000000000E+01,,,3.98415200000000E+01,3.33943000000000E+01,,3.30214500000000E+01,3.98050700000000E+01,3.49446300000000E+01,
NIC,,,,,,,,,,,,,,,,,,,,,,,,,,,,,,,,,,,,1.87859900000000E+01,,,0.00000000000000E+00,1.42673700000000E+01,0.00000000000000E+00,0.00000000000000E+00,0.00000000000000E+00,,4.72845200000000E-01,3.09669000000000E-02,,2.29124000000000E-02,,1.62445600000000E+01,1.54626700000000E+01,
NLD,,,,,,,,,,,,,,,,,,,,,,,,,,,,,4.06522600000000E-01,4.00874100000000E-01,8.29889000000000E+00,1.11103200000000E+00,1.33158500000000E+00,1.04408200000000E+00,8.49730400000000E-01,1.44689300000000E+00,2.82226700000000E-01,2.10006900000000E-01,3.29707300000000E-01,3.51351500000000E-01,2.78076300000000E-01,3.80015800000000E-01,5.54303300000000E-01,3.81380700000000E-01,2.42914600000000E-01,2.10261400000000E-01,2.28838300000000E-01,2.65575100000000E-01,2.41675900000000E-01,2.35635200000000E-01,2.03217700000000E-01,
NOC,,,,,,,,,,,,,,,,,,,,,,,,,,,,,,,,,,,,,,,,1.63089200000000E+01,8.22588500000000E+00,1.08015200000000E+01,7.83233800000000E+00,8.06124300000000E+00,4.10917600000000E+00,1.48812100000000E+00,4.17247300000000E+00,4.38086000000000E+00,4.07320500000000E+00,2.49796600000000E+00,3.16631600000000E+00,
NOR,,,,,,,,,,,,,,,,,,,,,,,,,,,,,5.67051200000000E+00,,,,,8.46511500000000E+00,,1.92508000000000E+01,3.21085100000000E+00,,5.76086600000000E+00,,4.31215900000000E+00,2.35444500000000E+00,1.18337100000000E+00,1.86747300000000E-01,,,1.33070200000000E-01,1.84233100000000E-01,1.67820200000000E-01,1.30299400000000E-01,3.17481000000000E-02,
NPL,,,,,,,,,,,,,,,,,,,,,,,,,,,,,,,,,,6.30184100000000E+01,,,,,5.69604100000000E+01,2.11422500000000E+01,1.69365700000000E+01,,1.75059500000000E+01,1.85364600000000E+01,2.08919800000000E+01,2.11380000000000E+01,1.74762300000000E+01,4.32475400000000E+01,,4.93341200000000E+01,4.66218300000000E+01,
NZL,,,,,,,,,,,,,,,,,,,,,,,,,,,,,,,,,4.01069800000000E+01,3.16543000000000E+01,,,1.29984800000000E+01,1.39309800000000E+01,1.20278700000000E+01,1.07550400000000E+01,2.88678600000000E+00,,1.03079000000000E+01,1.05346400000000E+01,1.13911800000000E+01,1.19893300000000E+01,9.43970300000000E+00,8.73216200000000E+00,0.00000000000000E+00,0.00000000000000E+00,0.00000000000000E+00,
OEC,,,,,,,,,,,,,,,,,,,,,,,,,,,,,,,,,,,,,,,,3.62218100000000E+00,3.45480300000000E+00,3.35078200000000E+00,3.35871400000000E+00,3.19776300000000E+00,3.08695500000000E+00,3.49904400000000E+00,2.76124300000000E+00,2.90487000000000E+00,2.79068200000000E+00,2.43615800000000E+00,,
OED,,,,,,,,,,,,,,,,,,,,,,,,,,,,,,,,,,,,,,,,8.30995700000000E+00,1.05681400000000E+01,1.04936400000000E+01,8.76200100000000E+00,8.98651500000000E+00,6.34136200000000E+00,4.63870800000000E+00,3.87552200000000E+00,2.77176200000000E+00,3.86194500000000E+00,3.60050000000000E+00,2.40786100000000E+00,
OMN,,,,,,,,,,,,,,,,,,,,,,,,,,,,,,,,,5.97205900000000E-01,,,,,0.00000000000000E+00,,,,,3.91984000000000E-02,,,0.00000000000000E+00,1.48736000000000E-02,0.00000000000000E+00,0.00000000000000E+00,0.00000000000000E+00,,
PAK,,,,,,,,,,,,,,,,,,,,,,,,,,,,,,,,,,,,9.30029100000000E+01,,,8.78347300000000E+01,,,5.91045500000000E+01,5.54731300000000E+01,5.38331900000000E+01,5.13162200000000E+01,4.37002300000000E+01,4.42959700000000E+01,5.38474400000000E+01,5.33723900000000E+01,4.67744600000000E+01,,
PAN,,,,,,,,,,,,,,,,,,,,,,,,,,,,,,,,,,,,,,3.45019500000000E+01,5.97748100000000E-01,,7.89368700000000E-01,5.51671000000000E-01,,,,9.34726700000000E-01,9.37773700000000E-01,3.10913500000000E+01,3.23575700000000E+01,1.85043800000000E+00,,
PER,,,,,,,,,,,,,,,,,,,,,,,,,,,,,,,,,,2.31435800000000E+01,,9.00685800000000E+00,,1.10328100000000E+01,1.00144600000000E+01,1.04318000000000E+01,1.02280400000000E+01,,,,1.01039600000000E+01,1.06133100000000E+01,9.66436200000000E+00,1.00827600000000E+01,6.18421600000000E+00,6.64367000000000E+00,1.08876500000000E+01,
PHL,,,,,,,,,,,,,,,,,,,,,,,,,,,,,7.70518700000000E+01,7.70351800000000E+01,5.80626900000000E+01,,5.80035700000000E+01,5.58290500000000E+01,5.52773200000000E+01,5.49138000000000E+01,,,2.30571700000000E+01,2.09356100000000E+01,7.06263700000000E+00,6.30093500000000E+00,5.25266400000000E-01,4.63481900000000E-01,4.10667900000000E+00,4.21159500000000E+00,4.19749700000000E+00,1.59308100000000E+01,4.38512200000000E+00,5.06345300000000E+00,5.05969300000000E+00,
PLW,,,,,,,,,,,,,,,,,,,,,,,,,,,,,,,,,,,,,,,,,,,,,,6.83371300000000E-01,6.83371300000000E-01,,,,1.50753800000000E+00,
PNG,,,,,,,,,,,,,,,,,,,,,,,,,,,,,,,,,,,,,,3.08351000000000E+01,,,,,2.12944500000000E+01,2.10682700000000E+01,2.10682700000000E+01,2.10682700000000E+01,1.02771100000000E+01,2.08071700000000E+01,1.89425900000000E+01,,1.90132900000000E+01,
POL,,,,,,,,,,,,,,,,,,,,,,,,,,,,,4.06522600000000E-01,4.00874100000000E-01,8.29889000000000E+00,1.11103200000000E+00,1.33158500000000E+00,1.04408200000000E+00,8.49730400000000E-01,1.44689300000000E+00,2.82226700000000E-01,2.10006900000000E-01,3.29707300000000E-01,3.51351500000000E-01,2.78076300000000E-01,3.80015800000000E-01,5.54303300000000E-01,3.81380700000000E-01,2.42914600000000E-01,2.10261400000000E-01,2.28838300000000E-01,2.65575100000000E-01,2.41675900000000E-01,2.35635200000000E-01,2.03217700000000E-01,
PRT,,,,,,,,,,,,,,,,,,,,,,,,,,,,,4.06522600000000E-01,4.00874100000000E-01,8.29889000000000E+00,1.11103200000000E+00,1.33158500000000E+00,1.04408200000000E+00,8.49730400000000E-01,1.44689300000000E+00,2.82226700000000E-01,2.10006900000000E-01,3.29707300000000E-01,3.51351500000000E-01,2.78076300000000E-01,3.80015800000000E-01,5.54303300000000E-01,3.81380700000000E-01,2.42914600000000E-01,2.10261400000000E-01,2.28838300000000E-01,2.65575100000000E-01,2.41675900000000E-01,2.35635200000000E-01,2.03217700000000E-01,
PRY,,,,,,,,,,,,,,,,,,,,,,,,,,,,,,,,4.15523700000000E+01,,,7.63696500000000E+00,2.65508700000000E+01,2.25928400000000E+01,2.55063900000000E+01,2.22856700000000E+01,2.67775600000000E+01,3.19679300000000E+01,2.70673000000000E+01,2.86906900000000E+01,3.06313100000000E+01,2.54231400000000E+01,1.82522100000000E+01,1.56598700000000E+01,1.72959000000000E+01,1.89497400000000E+01,1.88007300000000E+01,1.84627400000000E+01,
PYF,,,,,,,,,,,,,,,,,,,,,,,,,,,,,,,,,,,,,,,,,,,,,,,,,3.24043800000000E+01,3.21527000000000E+01,,
QAT,,,,,,,,,,,,,,,,,,,,,,,,,,,,,,,,,,,,,,,,,,,9.12964000000000E-02,,,1.36440000000000E-03,1.26520000000000E-03,1.32320000000000E-03,5.03460000000000E-03,4.49590000000000E-03,,
ROM,,,,,,,,,,,,,,,,,,,,,,,,,,,,,4.06522600000000E-01,4.00874100000000E-01,8.29889000000000E+00,1.11103200000000E+00,1.33158500000000E+00,1.04408200000000E+00,8.49730400000000E-01,1.44689300000000E+00,2.82226700000000E-01,2.10006900000000E-01,3.29707300000000E-01,3.51351500000000E-01,2.78076300000000E-01,3.80015800000000E-01,5.54303300000000E-01,3.81380700000000E-01,2.42914600000000E-01,2.10261400000000E-01,2.28838300000000E-01,2.65575100000000E-01,2.41675900000000E-01,2.35635200000000E-01,2.03217700000000E-01,
RUS,,,,,,,,,,,,,,,,,,,,,,,,,,,,,,,,,,2.92988300000000E+00,3.21090300000000E+01,,2.50688600000000E+01,4.14788000000000E+01,,,,1.21114300000000E+01,8.55101200000000E+00,,,1.93007800000000E+01,,3.63364600000000E+01,2.56043800000000E+01,2.55568400000000E+01,1.71480900000000E+01,
RWA,,,,,,,,,,,,,,,,,,,,,,,,,,,,,,,,,,6.50783600000000E+01,,,,,,,,1.09353900000000E+01,,9.18148700000000E+00,,5.34577000000000E+01,5.36649700000000E+01,,5.37799600000000E+01,,3.12486400000000E+01,
SAS,,,,,,,,,,,,,,,,,,,,,,,,,,,,,,,,,,,,,,,,7.25405700000000E+01,3.85422900000000E+01,6.13720100000000E+01,5.27760200000000E+01,6.00481500000000E+01,7.02497500000000E+01,2.99627900000000E+01,4.54868200000000E+01,4.56545000000000E+01,3.38534500000000E+01,3.70364000000000E+01,,
SAU,,,,,,,,,,,,,,,,,,,,,,,,,,,,,,,,,,,1.09630700000000E+01,,,,,1.12605900000000E+01,9.76807200000000E+00,,,1.11450100000000E+01,1.09839300000000E+01,0.00000000000000E+00,0.00000000000000E+00,0.00000000000000E+00,0.00000000000000E+00,0.00000000000000E+00,,
SDN,,,,,,,,,,,,,,,,,,,,,,,,,,,,,,,,,,,,,7.78436300000000E+00,,,,,,4.31848400000000E+01,,,,3.67419100000000E+01,,3.31406300000000E+01,2.47969600000000E+01,2.73156700000000E+01,
SEN,,,,,,,,,,,,,,,,,,,,,,,,,,,,,,,,,,,,,,,,,,5.31927700000000E+01,5.27692000000000E+01,5.04787000000000E+01,5.34724000000000E+01,5.32796200000000E+01,5.12095300000000E+01,5.01852600000000E+01,4.97312200000000E+01,4.97374300000000E+01,5.01972400000000E+01,
SGP,,,,,,,,,,,,,,,,,,,,,,,,,,,,,,1.61426600000000E-01,,,,,,0.00000000000000E+00,,,,,,0.00000000000000E+00,0.00000000000000E+00,0.00000000000000E+00,0.00000000000000E+00,0.00000000000000E+00,0.00000000000000E+00,0.00000000000000E+00,0.00000000000000E+00,0.00000000000000E+00,0.00000000000000E+00,
SLB,,,,,,,,,,,,,,,,,,,,,,,,,,,,,,,,,,,,4.99256200000000E+01,,,,,,,,,,,4.86768500000000E+01,4.02718300000000E-01,2.49514800000000E-01,,0.00000000000000E+00,
SLV,,,,,,,,,,,,,,,,,,,,,,,,,,,,,,,,,,,,2.48078300000000E+01,,2.32942300000000E+01,1.47988600000000E+01,,9.88108200000000E+00,1.01757400000000E+01,7.72265400000000E+00,,8.71781400000000E+00,9.77168500000000E-01,6.53131200000000E+00,1.10707700000000E+00,1.46792000000000E+01,1.39900500000000E+01,8.99225500000000E-01,
SRB,,,,,,,,,,,,,,,,,,,,,,,,,,,,,,,,,,,,,,,,,,2.57190200000000E+01,1.91239400000000E+01,,,1.24602200000000E+01,,,,,,
SSA,,,,,,,,,,,,,,,,,,,,,,,,,,,,,,,,,,,,,,,,3.37115100000000E+01,4.07129100000000E+01,3.86307000000000E+01,4.20535000000000E+01,3.96415600000000E+01,3.37253600000000E+01,3.48026100000000E+01,3.23443400000000E+01,3.32000300000000E+01,3.72958500000000E+01,3.58532100000000E+01,,
SUR,,,,,,,,,,,,,,,,,,,,,,,,,,,,,,,,,,,,,4.37803300000000E+01,,,3.96699600000000E+01,3.26669600000000E+00,,,,,,,3.77902500000000E+01,,,3.13154500000000E+01,
SVK,,,,,,,,,,,,,,,,,,,,,,,,,,,,,4.06522600000000E-01,4.00874100000000E-01,8.29889000000000E+00,1.11103200000000E+00,1.33158500000000E+00,1.04408200000000E+00,8.49730400000000E-01,1.44689300000000E+00,2.82226700000000E-01,2.10006900000000E-01,3.29707300000000E-01,3.51351500000000E-01,2.78076300000000E-01,3.80015800000000E-01,5.54303300000000E-01,3.81380700000000E-01,2.42914600000000E-01,2.10261400000000E-01,2.28838300000000E-01,2.65575100000000E-01,2.41675900000000E-01,2.35635200000000E-01,2.03217700000000E-01,
SVN,,,,,,,,,,,,,,,,,,,,,,,,,,,,,4.06522600000000E-01,4.00874100000000E-01,8.29889000000000E+00,1.11103200000000E+00,1.33158500000000E+00,1.04408200000000E+00,8.49730400000000E-01,1.44689300000000E+00,2.82226700000000E-01,2.10006900000000E-01,3.29707300000000E-01,3.51351500000000E-01,2.78076300000000E-01,3.80015800000000E-01,5.54303300000000E-01,3.81380700000000E-01,2.42914600000000E-01,2.10261400000000E-01,2.28838300000000E-01,2.65575100000000E-01,2.41675900000000E-01,2.35635200000000E-01,2.03217700000000E-01,
SWE,,,,,,,,,,,,,,,,,,,,,,,,,,,,,4.06522600000000E-01,4.00874100000000E-01,8.29889000000000E+00,1.11103200000000E+00,1.33158500000000E+00,1.04408200000000E+00,8.49730400000000E-01,1.44689300000000E+00,2.82226700000000E-01,2.10006900000000E-01,3.29707300000000E-01,3.51351500000000E-01,2.78076300000000E-01,3.80015800000000E-01,5.54303300000000E-01,3.81380700000000E-01,2.42914600000000E-01,2.10261400000000E-01,2.28838300000000E-01,2.65575100000000E-01,2.41675900000000E-01,2.35635200000000E-01,2.03217700000000E-01,
SWZ,,,,,,,,,,,,,,,,,,,,,,,,,,,,,,,,,,,,,,,,,,1.31295800000000E+01,,,2.76105200000000E+01,2.69048300000000E+01,2.65391000000000E+01,2.29191300000000E+01,3.75733100000000E+01,3.80677700000000E+01,2.62083500000000E+01,
SYC,,,,,,,,,,,,,,,,,,,,,,,,,,,,,,,,,,,,,,,,,5.50062300000000E+01,5.52762800000000E+01,,,,1.46070000000000E+01,1.15441000000000E+01,1.18206300000000E+01,,,,
SYR,,,,,,,,,,,,,,,,,,,,,,,,,,,,,,,,,,,,,,,,,,,2.49829900000000E+01,,,,,,,3.43071000000000E+01,3.06447000000000E+01,
TCD,,,,,,,,,,,,,,,,,,,,,,,,,,,,,,,,,,,,4.51765200000000E+01,,4.51765200000000E+01,,,,4.61785700000000E+01,4.55571600000000E+01,,,5.02551700000000E+01,,4.37330600000000E+01,,4.42429200000000E+01,,
TGO,,,,,,,,,,,,,,,,,,,,,,,,,,,,,,,,,,,,,,,,,,5.67310800000000E+01,5.56909300000000E+01,5.85254800000000E+01,5.86309500000000E+01,5.78798200000000E+01,5.60862900000000E+01,5.43742600000000E+01,4.94180600000000E+01,4.96822300000000E+01,4.74002200000000E+01,
THA,,,,,,,,,,,,,,,,,,,,,,,,,,,,,,7.48698000000000E+01,,7.48279300000000E+01,,9.52354700000000E+01,,5.72785400000000E+01,,,,,4.73275600000000E+01,5.12324400000000E+01,,4.85456400000000E+01,,2.08467900000000E+01,2.16900400000000E+01,1.62005000000000E+01,1.69546900000000E+01,1.76106100000000E+01,,
TJK,,,,,,,,,,,,,,,,,,,,,,,,,,,,,,,,,,,,,,,,,,,9.42903700000000E+00,,,,6.59410000000000E-03,,,,6.09358500000000E+00,
TKM,,,,,,,,,,,,,,,,,,,,,,,,,,,,,,,,,,,,,,,0.00000000000000E+00,,,,8.16677200000000E+00,,,,,,,,,
TON,,,,,,,,,,,,,,,,,,,,,,,,,,,,,,,,,,,,,,,,,,,,,,,,,,6.46847500000000E+01,6.58748800000000E+01,
TTO,,,,,,,,,,,,,,,,,,,,,,,,,,,,,,,,3.46492200000000E+01,3.53931800000000E+01,,,,4.00521300000000E+01,,,3.30343900000000E+01,,3.23830500000000E+01,3.35000200000000E+01,3.33074300000000E+01,,,3.38525200000000E+01,4.15371500000000E+01,4.15371500000000E+01,,,
TUN,,,,,,,,,,,,,,,,,,,,,,,,,,,,,,,9.74680600000000E+01,,9.76487200000000E+01,,,9.75607700000000E+01,,,9.10272100000000E+01,,,,8.50353500000000E+01,6.48023800000000E+01,6.47942000000000E+01,2.69533200000000E+01,5.52337300000000E+01,,5.78200000000000E+01,,,
TUR,,,,,,,,,,,,,,,,,,,,,,,,,,,,,,,,,,5.59082500000000E+00,,6.13515600000000E+00,,3.81409100000000E+00,,4.88952100000000E+00,,,,6.03934800000000E-01,,1.89981000000000E-01,9.61627000000000E-02,2.86545000000000E-01,3.15755800000000E-01,4.75366200000000E-01,4.41793400000000E-01,
TUV,,,,,,,,,,,,,,,,,,,,,,,,,,,,,,,,,,,,,,,,,,,,,,,,,,,3.83542600000000E+01,
TZA,,,,,,,,,,,,,,,,,,,,,,,,,,,,,,,,,,3.78550300000000E+01,,,,6.58677900000000E+01,6.29834500000000E+01,,6.66368200000000E+01,,,3.76413000000000E+01,,3.61839300000000E+01,3.63471300000000E+01,3.69632700000000E+01,3.38964800000000E+01,3.38307400000000E+01,3.86835500000000E+01,
UGA,,,,,,,,,,,,,,,,,,,,,,,,,,,,,,,,,,,5.17176900000000E+01,,,,,,0.00000000000000E+00,0.00000000000000E+00,0.00000000000000E+00,0.00000000000000E+00,0.00000000000000E+00,3.77804400000000E+01,3.71290300000000E+01,3.68228600000000E+01,3.69049800000000E+01,3.68375700000000E+01,3.68375700000000E+01,
UKR,,,,,,,,,,,,,,,,,,,,,,,,,,,,,,,,,,,,8.69656800000000E+00,,1.07969100000000E+01,,,,,1.04930700000000E+01,,,,2.96586600000000E+00,,3.28453100000000E+00,2.26737700000000E-01,1.43832700000000E-01,
UMC,,,,,,,,,,,,,,,,,,,,,,,,,,,,,,,,,,,,,,,,2.37635700000000E+01,3.76491900000000E+01,2.94911500000000E+01,3.17835200000000E+01,3.41160000000000E+01,2.65225800000000E+01,1.89705900000000E+01,2.01500200000000E+01,2.27158200000000E+01,2.43571700000000E+01,2.02811800000000E+01,,
URY,,,,,,,,,,,,,,,,,,,,,,,,,,,,,,,,,0.00000000000000E+00,,,3.23151600000000E+01,2.93130300000000E+01,3.59082600000000E+01,4.77272700000000E+01,4.64737500000000E+01,3.69834400000000E+01,3.88915900000000E+01,4.42063500000000E+01,,3.58385800000000E+01,2.72417500000000E+01,2.70097400000000E+01,2.69782500000000E+01,2.87290600000000E+01,2.96042300000000E+01,3.07602300000000E+01,
USA,,,,,,,,,,,,,,,,,,,,,,,,,,,,,,1.08209900000000E+01,1.09130200000000E+01,1.13309600000000E+01,1.12790500000000E+01,1.14084100000000E+01,,9.34735200000000E+00,7.34082200000000E+00,8.65589500000000E+00,6.93600500000000E+00,7.56753800000000E+00,7.25308100000000E+00,7.16117800000000E+00,6.85005500000000E+00,6.89843600000000E+00,5.11498000000000E+00,4.95408800000000E+00,4.83134000000000E+00,4.22002400000000E+00,4.96148400000000E+00,4.61274900000000E+00,3.58043200000000E+00,
UZB,,,,,,,,,,,,,,,,,,,,,,,,,,,,,,,,,,,,,,,,,,2.66373400000000E+01,,,,,1.80402100000000E+01,1.67458800000000E+01,1.77693600000000E+01,1.75740100000000E+01,,
VCT,,,,,,,,,,,,,,,,,,,,,,,,,,,,,,,,,,,,,4.83906600000000E+01,,,3.78227500000000E+01,3.96709600000000E+01,4.24386200000000E+01,4.26258300000000E+01,4.04110200000000E+01,,,7.28027600000000E+00,4.29450400000000E+01,,,,
VEN,,,,,,,,,,,,,,,,,,,,,,,,,,,,,,,,,4.78399100000000E+01,,,1.88957200000000E+01,,2.10367800000000E+01,2.14773200000000E+01,2.30119500000000E+01,2.28742900000000E+01,,2.44363200000000E+01,,2.02477100000000E+01,2.31847300000000E+01,1.95295800000000E+01,4.58911900000000E+01,4.42870500000000E+01,4.56464600000000E+01,2.11255400000000E+01,
VNM,,,,,,,,,,,,,,,,,,,,,,,,,,,,,,,,,,,3.00150800000000E+01,,,,,3.56533500000000E+01,,3.52276700000000E+01,3.30386000000000E+01,3.60675700000000E+01,3.33095300000000E+01,3.24879000000000E+01,3.06591100000000E+01,3.17906500000000E+01,1.81454500000000E+01,,2.21833100000000E+01,
VUT,,,,,,,,,,,,,,,,,,,,,,,,,,,,,,,,,,,,,,,,,,,4.53532900000000E+01,,,,4.53025100000000E+01,6.48901400000000E+01,6.44156800000000E+01,6.44428300000000E+01,,
WLD,,,,,,,,,,,,,,,,,,,,,,,,,,,,,,,,,,,,,,,,1.65698500000000E+01,2.03766000000000E+01,2.13991800000000E+01,1.81770800000000E+01,1.92570300000000E+01,1.81212600000000E+01,1.44325200000000E+01,1.38336300000000E+01,1.55453800000000E+01,1.66311900000000E+01,1.40664100000000E+01,,
YEM,,,,,,,,,,,,,,,,,,,,,,,,,,,,,,,,,,,,,,,,,1.01535500000000E+01,,,,,,4.89550000000000E-03,,,3.97141000000000E-02,,
ZAF,,,,,,,,,,,,,,,,,,,,,,,,,,,,,3.33800500000000E+01,,2.74084500000000E+01,2.55522800000000E+01,,4.74888300000000E+01,,,2.37120600000000E+01,2.67142400000000E+01,,2.13947600000000E+01,,3.21621000000000E+01,,,2.41510000000000E+01,2.17763100000000E+01,1.99542700000000E+01,1.92968000000000E+01,2.70607200000000E+01,1.82129200000000E+01,1.82677900000000E+01,
ZAR,,,,,,,,,,,,,,,,,,,,,,,,,,,,,,,,,,,,,,,,,,,,4.18325300000000E+01,,,4.27522800000000E+01,4.26805300000000E+01,4.13040800000000E+01,4.16543700000000E+01,,
ZMB,,,,,,,,,,,,,,,,,,,,,,,,,,,,,,,,,,8.95140700000000E+01,,,,3.24312300000000E+01,,,,,3.25857500000000E+01,3.24559900000000E+01,,3.32505900000000E+01,,,5.04792800000000E+01,5.24314700000000E+01,,
ZWE,,,,,,,,,,,,,,,,,,,,,,,,,,,,,,,,,,,,,9.73976000000000E+01,5.20300600000000E+01,4.75642500000000E+01,5.09837200000000E+01,,4.34755700000000E+01,4.02189300000000E+01,3.81827600000000E+01,,,,,,,,
