"Country Code",1960,1961,1962,1963,1964,1965,1966,1967,1968,1969,1970,1971,1972,1973,1974,1975,1976,1977,1978,1979,1980,1981,1982,1983,1984,1985,1986,1987,1988,1989,1990,1991,1992,1993,1994,1995,1996,1997,1998,1999,2000,2001,2002,2003,2004,2005,2006,2007,2008,2009,2010,2011ABW,,,,,,,,,,,,,,,,,,,,,,,,,,,,,,,2.22222222222222E+00,,,,,,,,,,2.22222222222222E+00,,,,,2.22222222222222E+00,,,,,,
ADO,,,,,,,,,,,,,,,,,,,,,,,,,,,,,,,3.40425531914894E+01,,,,,,,,,,3.40425531914894E+01,,,,,3.40425531914894E+01,,,,,3.40425531914894E+01,
AFG,,,,,,,,,,,,,,,,,,,,,,,,,,,,,,,2.06982199530840E+00,,,,,,,,,,2.06982199530840E+00,,,,,2.06982199530840E+00,,,,,2.06982199530840E+00,
AGO,,,,,,,,,,,,,,,,,,,,,,,,,,,,,,,4.89099221945937E+01,,,,,,,,,,4.79088794417262E+01,,,,,4.74083580652924E+01,,,,,4.69078366888586E+01,
ALB,,,,,,,,,,,,,,,,,,,,,,,,,,,,,,,2.87956204379562E+01,,,,,,,,,,2.80656934306569E+01,,,,,2.85401459854015E+01,,,,,2.83211678832117E+01,
ARB,,,,,,,,,,,,,,,,,,,,,,,,,,,,,,,7.03951931779063E+00,,,,,,,,,,6.56029988278030E+00,,,,,6.52023773085503E+00,,,,,6.48062090625179E+00,
ARE,,,,,,,,,,,,,,,,,,,,,,,,,,,,,,,2.93062200956938E+00,,,,,,,,,,3.70813397129187E+00,,,,,3.73205741626794E+00,,,,,3.79186602870813E+00,
ARG,,,,,,,,,,,,,,,,,,,,,,,,,,,,,,,1.27135335021504E+01,,,,,,,,,,1.16421662665483E+01,,,,,1.11810252531343E+01,,,,,1.07429047498986E+01,
ARM,,,,,,,,,,,,,,,,,,,,,,,,,,,,,,,1.21839887640449E+01,,,,,,,,,,1.06741573033708E+01,,,,,9.93679775280899E+00,,,,,9.19943820224719E+00,
ASM,,,,,,,,,,,,,,,,,,,,,,,,,,,,,,,9.00000000000000E+01,,,,,,,,,,9.00000000000000E+01,,,,,9.00000000000000E+01,,,,,9.00000000000000E+01,
ATG,,,,,,,,,,,,,,,,,,,,,,,,,,,,,,,2.27272727272727E+01,,,,,,,,,,2.27272727272727E+01,,,,,2.27272727272727E+01,,,,,2.27272727272727E+01,
AUS,,,,,,,,,,,,,,,,,,,,,,,,,,,,,,,2.01111646251774E+01,,,,,,,,,,2.01658357523138E+01,,,,,2.00356664019890E+01,,,,,1.94342840034885E+01,
AUT,,,,,,,,,,,,,,,,,,,,,,,,,,,,,,,4.57974530018193E+01,,,,,,,,,,4.65494238932686E+01,,,,,4.68405093996361E+01,,,,,4.71551619555987E+01,
AZE,,,,,,,,,,,,,,,,,,,,,,,,,,,,,,,1.12486479990386E+01,,,,,,,,,,1.13317191283293E+01,,,,,1.13234938301476E+01,,,,,1.13289760348584E+01,
BDI,,,,,,,,,,,,,,,,,,,,,,,,,,,,,,,1.12538940809969E+01,,,,,,,,,,7.71028037383178E+00,,,,,7.04828660436137E+00,,,,,6.69781931464174E+00,
BEL,,,,,,,,,,,,,,,,,,,,,,,,,,,,,,,,,,,,,,,,,2.20277410832232E+01,,,,,2.22258916776750E+01,,,,,2.23910171730515E+01,
BEN,,,,,,,,,,,,,,,,,,,,,,,,,,,,,,,5.20791900198879E+01,,,,,,,,,,4.57512203941421E+01,,,,,4.34912312420900E+01,,,,,4.12312420900380E+01,
BFA,,,,,,,,,,,,,,,,,,,,,,,,,,,,,,,2.50255847953216E+01,,,,,,,,,,2.28362573099415E+01,,,,,2.17434210526316E+01,,,,,2.06469298245614E+01,
BGD,,,,,,,,,,,,,,,,,,,,,,,,,,,,,,,1.14772989168011E+01,,,,,,,,,,1.12775601136975E+01,,,,,1.11776907121457E+01,,,,,1.10778213105938E+01,
BGR,,,,,,,,,,,,,,,,,,,,,,,,,,,,,,,3.00732170297388E+01,,,,,,,,,,3.05070957244870E+01,,,,,3.36064064801178E+01,,,,,3.61735445836404E+01,
BHR,,,,,,,,,,,,,,,,,,,,,,,,,,,,,,,2.89855072463768E-01,,,,,,,,,,6.47887323943662E-01,,,,,6.48648648648649E-01,,,,,1.31578947368421E+00,
BHS,,,,,,,,,,,,,,,,,,,,,,,,,,,,,,,5.14485514485514E+01,,,,,,,,,,5.14485514485514E+01,,,,,5.14485514485514E+01,,,,,5.14485514485514E+01,
BIH,,,,,,,,,,,,,,,,,,,,,,,,,,,,,,,4.33333333333333E+01,,,,,,,,,,4.28431372549020E+01,,,,,4.28431372549020E+01,,,,,4.28431372549020E+01,
BLR,,,,,,,,,,,,,,,,,,,,,,,,,,,,,,,3.83553539735752E+01,,,,,,,,,,4.07858410569907E+01,,,,,4.15914805502145E+01,,,,,4.25500443743221E+01,
BLZ,,,,,,,,,,,,,,,,,,,,,,,,,,,,,,,6.95309074967120E+01,,,,,,,,,,6.52783866725121E+01,,,,,6.31740464708461E+01,,,,,6.10697062691802E+01,
BMU,,,,,,,,,,,,,,,,,,,,,,,,,,,,,,,2.00000000000000E+01,,,,,,,,,,2.00000000000000E+01,,,,,2.00000000000000E+01,,,,,2.00000000000000E+01,
BOL,,,,,,,,,,,,,,,,,,,,,,,,,,,,,,,5.79663989661220E+01,,,,,,,,,,5.54703221637589E+01,,,,,5.42176682359457E+01,,,,,5.27979322440690E+01,
BRA,,,,,,,,,,,,,,,,,,,,,,,,,,,,,,,6.79525310245856E+01,,,,,,,,,,6.45366940050263E+01,,,,,6.27104458698114E+01,,,,,6.14134302351698E+01,
BRB,,,,,,,,,,,,,,,,,,,,,,,,,,,,,,,1.86046511627907E+01,,,,,,,,,,1.86046511627907E+01,,,,,1.86046511627907E+01,,,,,1.86046511627907E+01,
BRN,,,,,,,,,,,,,,,,,,,,,,,,,,,,,,,7.83681214421252E+01,,,,,,,,,,7.53320683111954E+01,,,,,7.38140417457305E+01,,,,,7.21062618595825E+01,
BTN,,,,,,,,,,,,,,,,,,,,,,,,,,,,,,,6.45744680851064E+01,,,,,,,,,,7.83878213127028E+01,,,,,8.32247981245116E+01,,,,,8.46314144308414E+01,
BWA,,,,,,,,,,,,,,,,,,,,,,,,,,,,,,,2.42055299701798E+01,,,,,,,,,,2.21181162105412E+01,,,,,2.10735270763856E+01,,,,,2.00289379422300E+01,
CAF,,,,,,,,,,,,,,,,,,,,,,,,,,,,,,,3.72451764101576E+01,,,,,,,,,,3.67636200199043E+01,,,,,3.65260522007127E+01,,,,,3.62852740055861E+01,
CAN,,,,,,,,,,,,,,,,,,,,,,,,,,,,,,,3.41049825644883E+01,,,,,,,,,,3.41049825644883E+01,,,,,3.41049825644883E+01,,,,,3.41049825644883E+01,
CHE,,,,,,,,,,,,,,,,,,,,,,,,,,,,,,,2.87750000000000E+01,,,,,,,,,,2.98500000000000E+01,,,,,3.04250000000000E+01,,,,,3.10000000000000E+01,
CHI,,,,,,,,,,,,,,,,,,,,,,,,,,,,,,,4.21052631578947E+00,,,,,,,,,,4.21052631578947E+00,,,,,4.21052631578947E+00,,,,,,
CHL,,,,,,,,,,,,,,,,,,,,,,,,,,,,,,,2.05277527470311E+01,,,,,,,,,,2.12957110002286E+01,,,,,2.15768025499980E+01,,,,,2.18296504512259E+01,
CHN,,,,,,,,,,,,,,,,,,,,,,,,,,,,,,,1.68472096249552E+01,,,,,,,,,,1.89761864941013E+01,,,,,2.06962652291937E+01,,,,,2.21775870867587E+01,
CIV,,,,,,,,,,,,,,,,,,,,,,,,,,,,,,,3.21446540880503E+01,,,,,,,,,,3.24779874213836E+01,,,,,3.27201257861635E+01,,,,,3.27138364779874E+01,
CMR,,,,,,,,,,,,,,,,,,,,,,,,,,,,,,,5.14395718305092E+01,,,,,,,,,,4.67855556260710E+01,,,,,4.44585475238518E+01,,,,,4.21315394216327E+01,
COG,,,,,,,,,,,,,,,,,,,,,,,,,,,,,,,6.65475841874085E+01,,,,,,,,,,6.60497803806735E+01,,,,,6.58008784773060E+01,,,,,6.56251830161054E+01,
COL,,,,,,,,,,,,,,,,,,,,,,,,,,,,,,,5.63488057683641E+01,,,,,,,,,,5.54384858044164E+01,,,,,5.49833258224425E+01,,,,,5.45281658404687E+01,
COM,,,,,,,,,,,,,,,,,,,,,,,,,,,,,,,6.45161290322581E+00,,,,,,,,,,4.30107526881720E+00,,,,,2.68817204301075E+00,,,,,1.61290322580645E+00,
CPV,,,,,,,,,,,,,,,,,,,,,,,,,,,,,,,1.43920595533499E+01,,,,,,,,,,2.03473945409429E+01,,,,,2.08436724565757E+01,,,,,2.10918114143921E+01,
CRI,,,,,,,,,,,,,,,,,,,,,,,,,,,,,,,5.02154328241285E+01,,,,,,,,,,4.65334900117509E+01,,,,,4.87857422640031E+01,,,,,5.10184097140619E+01,
CUB,,,,,,,,,,,,,,,,,,,,,,,,,,,,,,,1.91620111731844E+01,,,,,,,,,,2.26722532588454E+01,,,,,2.53382187147689E+01,,,,,2.69635475385194E+01,
CYM,,,,,,,,,,,,,,,,,,,,,,,,,,,,,,,5.41666666666667E+01,,,,,,,,,,5.41666666666667E+01,,,,,5.41666666666667E+01,,,,,5.41666666666667E+01,
CYP,,,,,,,,,,,,,,,,,,,,,,,,,,,,,,,1.74242424242424E+01,,,,,,,,,,1.86147186147186E+01,,,,,1.87229437229437E+01,,,,,1.87229437229437E+01,
CZE,,,,,,,,,,,,,,,,,,,,,,,,,,,,,,,3.40235537724861E+01,,,,,,,,,,3.41270868383590E+01,,,,,3.42609370955216E+01,,,,,3.43948220064725E+01,
DEU,,,,,,,,,,,,,,,,,,,,,,,,,,,,,,,3.07650445392834E+01,,,,,,,,,,3.17409370970053E+01,,,,,3.17582291547196E+01,,,,,3.17718940936864E+01,
DJI,,,,,,,,,,,,,,,,,,,,,,,,,,,,,,,2.58843830888697E-01,,,,,,,,,,2.58843830888697E-01,,,,,2.58843830888697E-01,,,,,2.58843830888697E-01,
DMA,,,,,,,,,,,,,,,,,,,,,,,,,,,,,,,6.66666666666667E+01,,,,,,,,,,6.26666666666667E+01,,,,,6.13333333333333E+01,,,,,6.00000000000000E+01,
DNK,,,,,,,,,,,,,,,,,,,,,,,,,,,,,,,1.04977589054022E+01,,,,,,,,,,1.14541597925996E+01,,,,,1.25854348338440E+01,,,,,1.28211171341032E+01,
DOM,,,,,,,,,,,,,,,,,,,,,,,,,,,,,,,4.08112582781457E+01,,,,,,,,,,4.08112582781457E+01,,,,,4.08112582781457E+01,,,,,4.08112582781457E+01,
DZA,,,,,,,,,,,,,,,,,,,,,,,,,,,,,,,6.99908470278032E-01,,,,,,,,,,6.62960692602887E-01,,,,,6.44906664875259E-01,,,,,6.26432776037687E-01,
EAP,,,,,,,,,,,,,,,,,,,,,,,,,,,,,,,2.90008627214229E+01,,,,,,,,,,2.85370357989386E+01,,,,,2.92174782965770E+01,,,,,2.96353205728649E+01,
EAS,,,,,,,,,,,,,,,,,,,,,,,,,,,,,,,2.69513181037409E+01,,,,,,,,,,2.66830998033128E+01,,,,,2.70915965604664E+01,,,,,2.71731679633031E+01,
ECA,,,,,,,,,,,,,,,,,,,,,,,,,,,,,,,3.83912764479918E+01,,,,,,,,,,3.84912073199419E+01,,,,,3.85342477740299E+01,,,,,3.86327781567504E+01,
ECS,,,,,,,,,,,,,,,,,,,,,,,,,,,,,,,3.71814776590965E+01,,,,,,,,,,3.74251897729957E+01,,,,,3.75539671518523E+01,,,,,3.83014164136972E+01,
ECU,,,,,,,,,,,,,,,,,,,,,,,,,,,,,,,4.99096951307614E+01,,,,,,,,,,4.76767595425994E+01,,,,,4.36986632307940E+01,,,,,3.97205669189886E+01,
EGY,,,,,,,,,,,,,,,,,,,,,,,,,,,,,,,4.42011150735848E-02,,,,,,,,,,5.92696770304887E-02,,,,,6.73062434075041E-02,,,,,7.03199557988849E-02,
EMU,,,,,,,,,,,,,,,,,,,,,,,,,,,,,,,3.37805627958090E+01,,,,,,,,,,3.62031509510827E+01,,,,,3.66152454000948E+01,,,,,3.73148953850254E+01,
ERI,,,,,,,,,,,,,,,,,,,,,,,,,,,,,,,1.60495049504950E+01,,,,,,,,,,1.56039603960396E+01,,,,,1.53861386138614E+01,,,,,1.51683168316832E+01,
ESP,,,,,,,,,,,,,,,,,,,,,,,,,,,,,,,2.76669870254685E+01,,,,,,,,,,3.40440881763527E+01,,,,,3.46490612915506E+01,,,,,3.64334402566159E+01,
EST,,,,,,,,,,,,,,,,,,,,,,,,,,,,,,,4.93040811512149E+01,,,,,,,,,,5.29134229771172E+01,,,,,5.31257372021703E+01,,,,,5.23000707714083E+01,
ETH,,,,,,,,,,,,,,,,,,,,,,,,,,,,,,,1.37275204359673E+01,,,,,,,,,,1.37050000000000E+01,,,,,1.30000000000000E+01,,,,,1.22960000000000E+01,
EUU,,,,,,,,,,,,,,,,,,,,,,,,,,,,,,,3.45912036033432E+01,,,,,,,,,,3.62557002323114E+01,,,,,3.68872844250698E+01,,,,,3.75148574284751E+01,
FIN,,,,,,,,,,,,,,,,,,,,,,,,,,,,,,,7.18638169342395E+01,,,,,,,,,,7.37351850027906E+01,,,,,7.27436882366460E+01,,,,,7.29088515959197E+01,
FJI,,,,,,,,,,,,,,,,,,,,,,,,,,,,,,,5.21620142309798E+01,,,,,,,,,,5.36398467432950E+01,,,,,5.45703338806787E+01,,,,,5.55008210180624E+01,
FRA,,,,,,,,,,,,,,,,,,,,,,,,,,,,,,,2.65433564007523E+01,,,,,,,,,,2.80333047272993E+01,,,,,2.86929846985356E+01,,,,,2.91312127962605E+01,
FRO,,,,,,,,,,,,,,,,,,,,,,,,,,,,,,,7.19424460431655E-02,,,,,,,,,,7.19424460431655E-02,,,,,7.19424460431655E-02,,,,,,
FSM,,,,,,,,,,,,,,,,,,,,,,,,,,,,,,,9.14285714285714E+01,,,,,,,,,,9.14285714285714E+01,,,,,9.14285714285714E+01,,,,,9.14285714285714E+01,
GAB,,,,,,,,,,,,,,,,,,,,,,,,,,,,,,,8.53805254783250E+01,,,,,,,,,,8.53805254783250E+01,,,,,8.53805254783250E+01,,,,,8.53805254783250E+01,
GBR,,,,,,,,,,,,,,,,,,,,,,,,,,,,,,,1.07923779605671E+01,,,,,,,,,,1.15446616789981E+01,,,,,1.17595998842640E+01,,,,,1.19084032571405E+01,
GEO,,,,,,,,,,,,,,,,,,,,,,,,,,,,,,,3.99913656641243E+01,,,,,,,,,,3.98330695064038E+01,,,,,3.96459922290977E+01,,,,,3.94589149517916E+01,
GHA,,,,,,,,,,,,,,,,,,,,,,,,,,,,,,,3.27327063373473E+01,,,,,,,,,,2.67821042454074E+01,,,,,2.42462863672321E+01,,,,,2.17104684890569E+01,
GIB,,,,,,,,,,,,,,,,,,,,,,,,,,,,,,,0.00000000000000E+00,,,,,,,,,,0.00000000000000E+00,,,,,0.00000000000000E+00,,,,,0.00000000000000E+00,
GIN,,,,,,,,,,,,,,,,,,,,,,,,,,,,,,,2.95621032069022E+01,,,,,,,,,,2.80970209995116E+01,,,,,2.73644798958164E+01,,,,,2.66319387921211E+01,
GMB,,,,,,,,,,,,,,,,,,,,,,,,,,,,,,,4.42000000000000E+01,,,,,,,,,,4.61000000000000E+01,,,,,4.71000000000000E+01,,,,,4.80000000000000E+01,
GNB,,,,,,,,,,,,,,,,,,,,,,,,,,,,,,,7.88051209103841E+01,,,,,,,,,,7.53911806543386E+01,,,,,7.36842105263158E+01,,,,,7.19061166429588E+01,
GNQ,,,,,,,,,,,,,,,,,,,,,,,,,,,,,,,6.63101604278075E+01,,,,,,,,,,6.21390374331551E+01,,,,,6.00713012477718E+01,,,,,5.79679144385027E+01,
GRC,,,,,,,,,,,,,,,,,,,,,,,,,,,,,,,2.55934833204034E+01,,,,,,,,,,2.79363847944143E+01,,,,,2.91078355314197E+01,,,,,3.02792862684251E+01,
GRD,,,,,,,,,,,,,,,,,,,,,,,,,,,,,,,5.00000000000000E+01,,,,,,,,,,5.00000000000000E+01,,,,,5.00000000000000E+01,,,,,5.00000000000000E+01,
GRL,,,,,,,,,,,,,,,,,,,,,,,,,,,,,,,5.85308750365818E-04,,,,,,,,,,4.87270069435985E-04,,,,,4.87270069435985E-04,,,,,,
GTM,,,,,,,,,,,,,,,,,,,,,,,,,,,,,,,4.43075774542740E+01,,,,,,,,,,3.92683837252706E+01,,,,,3.67487868607689E+01,,,,,3.41265397536394E+01,
GUM,,,,,,,,,,,,,,,,,,,,,,,,,,,,,,,4.81481481481481E+01,,,,,,,,,,4.81481481481481E+01,,,,,4.81481481481481E+01,,,,,4.81481481481481E+01,
GUY,,,,,,,,,,,,,,,,,,,,,,,,,,,,,,,7.72415544831090E+01,,,,,,,,,,7.72415544831090E+01,,,,,7.72415544831090E+01,,,,,7.72415544831090E+01,
HIC,,,,,,,,,,,,,,,,,,,,,,,,,,,,,,,2.79491316061765E+01,,,,,,,,,,2.82470487010682E+01,,,,,2.83531164562967E+01,,,,,2.87045890939481E+01,
HND,,,,,,,,,,,,,,,,,,,,,,,,,,,,,,,7.27142729466440E+01,,,,,,,,,,5.71275359728305E+01,,,,,5.17651264634909E+01,,,,,4.64027169541514E+01,
HPC,,,,,,,,,,,,,,,,,,,,,,,,,,,,,,,3.35993757474491E+01,,,,,,,,,,3.20046915656621E+01,,,,,3.12954909119720E+01,,,,,3.05839835885463E+01,
HRV,,,,,,,,,,,,,,,,,,,,,,,,,,,,,,,3.30888928635307E+01,,,,,,,,,,3.37148989447326E+01,,,,,3.40064331665475E+01,,,,,3.43102215868478E+01,
HTI,,,,,,,,,,,,,,,,,,,,,,,,,,,,,,,4.20899854862119E+00,,,,,,,,,,3.95500725689405E+00,,,,,3.80986937590711E+00,,,,,3.66473149492017E+00,
HUN,,,,,,,,,,,,,,,,,,,,,,,,,,,,,,,2.00400578613553E+01,,,,,,,,,,2.12787324257978E+01,,,,,2.21292266488115E+01,,,,,2.24124599580250E+01,
IDN,,,,,,,,,,,,,,,,,,,,,,,,,,,,,,,6.54377142478624E+01,,,,,,,,,,5.48745011233350E+01,,,,,5.40177856776167E+01,,,,,5.21271604188632E+01,
IMY,,,,,,,,,,,,,,,,,,,,,,,,,,,,,,,5.26315789473684E+00,,,,,,,,,,5.26315789473684E+00,,,,,5.26315789473684E+00,,,,,5.26315789473684E+00,
IND,,,,,,,,,,,,,,,,,,,,,,,,,,,,,,,2.15051846669739E+01,,,,,,,,,,2.19932126772927E+01,,,,,2.27731830121856E+01,,,,,2.30170288478032E+01,
IRL,,,,,,,,,,,,,,,,,,,,,,,,,,,,,,,6.74989113078821E+00,,,,,,,,,,9.21759326462476E+00,,,,,1.00885469589200E+01,,,,,1.07272463347365E+01,
IRN,,,,,,,,,,,,,,,,,,,,,,,,,,,,,,,6.80052807712382E+00,,,,,,,,,,6.80052807712382E+00,,,,,6.80052807712382E+00,,,,,6.80052807712382E+00,
IRQ,,,,,,,,,,,,,,,,,,,,,,,,,,,,,,,1.83826051169490E+00,,,,,,,,,,1.87027002309258E+00,,,,,1.88627477879141E+00,,,,,1.89952109044023E+00,
ISL,,,,,,,,,,,,,,,,,,,,,,,,,,,,,,,8.97755610972569E-02,,,,,,,,,,1.79551122194514E-01,,,,,2.49376558603491E-01,,,,,2.99251870324190E-01,
ISR,,,,,,,,,,,,,,,,,,,,,,,,,,,,,,,6.09981515711645E+00,,,,,,,,,,7.07024029574861E+00,,,,,7.16266173752311E+00,,,,,7.11645101663586E+00,
ITA,,,,,,,,,,,,,,,,,,,,,,,,,,,,,,,2.58066709734453E+01,,,,,,,,,,2.84553398388358E+01,,,,,2.97783368463997E+01,,,,,3.11042360780581E+01,
JAM,,,,,,,,,,,,,,,,,,,,,,,,,,,,,,,3.18559556786704E+01,,,,,,,,,,3.14866112650046E+01,,,,,3.13019390581717E+01,,,,,3.11172668513389E+01,
JOR,,,,,,,,,,,,,,,,,,,,,,,,,,,,,,,1.11060743427017E+00,,,,,,,,,,1.11060743427017E+00,,,,,1.11060743427017E+00,,,,,1.10385221896824E+00,
JPN,,,,,,,,,,,,,,,,,,,,,,,,,,,,,,,6.84311574328031E+01,,,,,,,,,,6.82469135802469E+01,,,,,6.84087791495199E+01,,,,,6.85294924554184E+01,
KAZ,,,,,,,,,,,,,,,,,,,,,,,,,,,,,,,1.26754824610142E+00,,,,,,,,,,1.24643478905064E+00,,,,,1.23606326628885E+00,,,,,1.22569174352706E+00,
KEN,,,,,,,,,,,,,,,,,,,,,,,,,,,,,,,6.51509294725375E+00,,,,,,,,,,6.29370629370629E+00,,,,,6.18828407773131E+00,,,,,6.09164704642092E+00,
KGZ,,,,,,,,,,,,,,,,,,,,,,,,,,,,,,,4.35870698644421E+00,,,,,,,,,,4.47340980187696E+00,,,,,4.53076120959333E+00,,,,,4.97393117831074E+00,
KHM,,,,,,,,,,,,,,,,,,,,,,,,,,,,,,,7.33288012689780E+01,,,,,,,,,,6.54090188080671E+01,,,,,6.07919782460911E+01,,,,,5.71833220031724E+01,
KIR,,,,,,,,,,,,,,,,,,,,,,,,,,,,,,,1.48148148148148E+01,,,,,,,,,,1.48148148148148E+01,,,,,1.48148148148148E+01,,,,,1.48148148148148E+01,
KNA,,,,,,,,,,,,,,,,,,,,,,,,,,,,,,,4.23076923076923E+01,,,,,,,,,,4.23076923076923E+01,,,,,4.23076923076923E+01,,,,,4.23076923076923E+01,
KOR,,,,,,,,,,,,,,,,,,,,,,,,,,,,,,,6.45193963334346E+01,,,,,,,,,,6.36888483743543E+01,,,,,6.45844088797109E+01,,,,,6.40782698249228E+01,
KWT,,,,,,,,,,,,,,,,,,,,,,,,,,,,,,,1.68350168350168E-01,,,,,,,,,,2.80583613916947E-01,,,,,3.36700336700337E-01,,,,,3.36700336700337E-01,
LAC,,,,,,,,,,,,,,,,,,,,,,,,,,,,,,,5.15704863625782E+01,,,,,,,,,,4.92091589332307E+01,,,,,4.80085483214300E+01,,,,,4.70270522856420E+01,
LAO,,,,,,,,,,,,,,,,,,,,,,,,,,,,,,,7.50173310225303E+01,,,,,,,,,,7.16291161178510E+01,,,,,6.99393414211439E+01,,,,,6.82452339688042E+01,
LBN,,,,,,,,,,,,,,,,,,,,,,,,,,,,,,,1.28054740957967E+01,,,,,,,,,,1.28054740957967E+01,,,,,1.33919843597263E+01,,,,,1.33919843597263E+01,
LBR,,,,,,,,,,,,,,,,,,,,,,,,,,,,,,,5.11731727574751E+01,,,,,,,,,,4.80585548172757E+01,,,,,4.65012458471761E+01,,,,,4.49439368770764E+01,
LBY,,,,,,,,,,,,,,,,,,,,,,,,,,,,,,,1.23327687918433E-01,,,,,,,,,,1.23327687918433E-01,,,,,1.23327687918433E-01,,,,,1.23327687918433E-01,
LCA,,,,,,,,,,,,,,,,,,,,,,,,,,,,,,,7.21311475409836E+01,,,,,,,,,,7.70491803278689E+01,,,,,7.70491803278689E+01,,,,,7.70491803278689E+01,
LCN,,,,,,,,,,,,,,,,,,,,,,,,,,,,,,,5.15592487146679E+01,,,,,,,,,,4.92093122544165E+01,,,,,4.80121971623030E+01,,,,,4.70343125208207E+01,
LDC,,,,,,,,,,,,,,,,,,,,,,,,,,,,,,,3.27180182735108E+01,,,,,,,,,,3.11418225308129E+01,,,,,3.04553598392527E+01,,,,,2.97932110381995E+01,
LIC,,,,,,,,,,,,,,,,,,,,,,,,,,,,,,,3.11650783485893E+01,,,,,,,,,,2.94011192045938E+01,,,,,2.84882847652101E+01,,,,,2.76137516133449E+01,
LIE,,,,,,,,,,,,,,,,,,,,,,,,,,,,,,,4.37500000000000E+01,,,,,,,,,,4.37500000000000E+01,,,,,4.37500000000000E+01,,,,,4.37500000000000E+01,
LKA,,,,,,,,,,,,,,,,,,,,,,,,,,,,,,,3.74740870674534E+01,,,,,,,,,,3.32004464997608E+01,,,,,3.08244299154840E+01,,,,,2.96603412533886E+01,
LMC,,,,,,,,,,,,,,,,,,,,,,,,,,,,,,,3.07111479678761E+01,,,,,,,,,,2.88684573927807E+01,,,,,2.85003542739842E+01,,,,,2.79428765367649E+01,
LMY,,,,,,,,,,,,,,,,,,,,,,,,,,,,,,,3.34870796174418E+01,,,,,,,,,,3.25333132748503E+01,,,,,3.22382711083483E+01,,,,,3.19462402835310E+01,
LSO,,,,,,,,,,,,,,,,,,,,,,,,,,,,,,,1.31752305665349E+00,,,,,,,,,,1.38339920948617E+00,,,,,1.41633728590250E+00,,,,,1.44927536231884E+00,
LTU,,,,,,,,,,,,,,,,,,,,,,,,,,,,,,,3.10306317804722E+01,,,,,,,,,,3.22271857051691E+01,,,,,3.38385449904276E+01,,,,,3.44662517951173E+01,
LUX,,,,,,,,,,,,,,,,,,,,,,,,,,,,,,,,,,,,,,,,,3.35907335907336E+01,,,,,3.35907335907336E+01,,,,,3.35907335907336E+01,
LVA,,,,,,,,,,,,,,,,,,,,,,,,,,,,,,,5.10210644798199E+01,,,,,,,,,,5.21144878597845E+01,,,,,5.30149541726966E+01,,,,,5.39401736892892E+01,
MAR,,,,,,,,,,,,,,,,,,,,,,,,,,,,,,,1.13130181492270E+01,,,,,,,,,,1.12413174994398E+01,,,,,1.13847187990141E+01,,,,,1.14967510643065E+01,
MCO,,,,,,,,,,,,,,,,,,,,,,,,,,,,,,,0.00000000000000E+00,,,,,,,,,,0.00000000000000E+00,,,,,0.00000000000000E+00,,,,,0.00000000000000E+00,
MDA,,,,,,,,,,,,,,,,,,,,,,,,,,,,,,,9.70489808335869E+00,,,,,,,,,,9.85401459854015E+00,,,,,1.10367892976589E+01,,,,,1.17360899969596E+01,
MDG,,,,,,,,,,,,,,,,,,,,,,,,,,,,,,,2.35443821577192E+01,,,,,,,,,,2.25642260205661E+01,,,,,2.20758675241600E+01,,,,,2.15857894555835E+01,
MDV,,,,,,,,,,,,,,,,,,,,,,,,,,,,,,,3.33333333333333E+00,,,,,,,,,,3.33333333333333E+00,,,,,3.33333333333333E+00,,,,,3.33333333333333E+00,
MEA,,,,,,,,,,,,,,,,,,,,,,,,,,,,,,,1.95963369037725E+00,,,,,,,,,,1.98198708024131E+00,,,,,1.99652442247220E+00,,,,,2.00815794696711E+00,
MEX,,,,,,,,,,,,,,,,,,,,,,,,,,,,,,,3.61588518223205E+01,,,,,,,,,,3.43378173306927E+01,,,,,3.37344067491448E+01,,,,,3.33352195272512E+01,
MHL,,,,,,,,,,,,,,,,,,,,,,,,,,,,,,,,,,,,,,,,,7.22222222222222E+01,,,,,7.22222222222222E+01,,,,,7.22222222222222E+01,
MIC,,,,,,,,,,,,,,,,,,,,,,,,,,,,,,,3.39227383943034E+01,,,,,,,,,,3.31174967802394E+01,,,,,3.29377172787123E+01,,,,,3.27544164172586E+01,
MKD,,,,,,,,,,,,,,,,,,,,,,,,,,,,,,,3.58631537554070E+01,,,,,,,,,,3.76720408965788E+01,,,,,3.83405426661424E+01,,,,,3.95717684377478E+01,
MLI,,,,,,,,,,,,,,,,,,,,,,,,,,,,,,,1.15326301641548E+01,,,,,,,,,,1.08843704668945E+01,,,,,1.05598308460158E+01,,,,,1.02361107696342E+01,
MLT,,,,,,,,,,,,,,,,,,,,,,,,,,,,,,,9.37500000000000E-01,,,,,,,,,,9.37500000000000E-01,,,,,9.37500000000000E-01,,,,,,
MMR,,,,,,,,,,,,,,,,,,,,,,,,,,,,,,,6.00085687180586E+01,,,,,,,,,,5.33525109404168E+01,,,,,5.09994490020815E+01,,,,,4.86182519280206E+01,
MNA,,,,,,,,,,,,,,,,,,,,,,,,,,,,,,,2.39063459872069E+00,,,,,,,,,,2.40949219839120E+00,,,,,2.42783032838473E+00,,,,,2.44252158586842E+00,
MNE,,,,,,,,,,,,,,,,,,,,,,,,,,,,,,,4.03717472118959E+01,,,,,,,,,,4.03717472118959E+01,,,,,4.03717472118959E+01,,,,,4.03717472118959E+01,
MNG,,,,,,,,,,,,,,,,,,,,,,,,,,,,,,,8.06920878498416E+00,,,,,,,,,,7.54203249311259E+00,,,,,7.27876618862484E+00,,,,,7.01485620124102E+00,
MNP,,,,,,,,,,,,,,,,,,,,,,,,,,,,,,,,,,,,,,,,,6.95652173913043E+01,,,,,6.73913043478261E+01,,,,,6.52173913043478E+01,
MOZ,,,,,,,,,,,,,,,,,,,,,,,,,,,,,,,5.51616266944734E+01,,,,,,,,,,5.23767135481574E+01,,,,,5.09664538772604E+01,,,,,4.96223199979654E+01,
MRT,,,,,,,,,,,,,,,,,,,,,,,,,,,,,,,4.02638983215291E-01,,,,,,,,,,3.07557970311439E-01,,,,,2.59047249442127E-01,,,,,2.34791889007471E-01,
MUS,,,,,,,,,,,,,,,,,,,,,,,,,,,,,,,1.92118226600985E+01,,,,,,,,,,1.92118226600985E+01,,,,,1.72413793103448E+01,,,,,1.72413793103448E+01,
MWI,,,,,,,,,,,,,,,,,,,,,,,,,,,,,,,4.13237165888842E+01,,,,,,,,,,3.78341111582520E+01,,,,,3.60840050912176E+01,,,,,3.43338990241833E+01,
MYS,,,,,,,,,,,,,,,,,,,,,,,,,,,,,,,6.81053112159489E+01,,,,,,,,,,6.57160249581494E+01,,,,,6.35824075483184E+01,,,,,6.22614518338153E+01,
MYT,,,,,,,,,,,,,,,,,,,,,,,,,,,,,,,4.86486486486487E+01,,,,,,,,,,4.32432432432432E+01,,,,,4.05405405405405E+01,,,,,3.78378378378378E+01,
NAC,,,,,,,,,,,,,,,,,,,,,,,,,,,,,,,3.32266448687633E+01,,,,,,,,,,3.34327007561565E+01,,,,,3.35374912081194E+01,,,,,3.36690791832456E+01,
NAM,,,,,,,,,,,,,,,,,,,,,,,,,,,,,,,1.06426654034423E+01,,,,,,,,,,9.75597905962662E+00,,,,,9.30534805475592E+00,,,,,8.85471704988522E+00,
NCL,,,,,,,,,,,,,,,,,,,,,,,,,,,,,,,4.58971553610503E+01,,,,,,,,,,4.58971553610503E+01,,,,,4.58971553610503E+01,,,,,4.58971553610503E+01,
NER,,,,,,,,,,,,,,,,,,,,,,,,,,,,,,,1.53548590826557E+00,,,,,,,,,,1.04839346332991E+00,,,,,9.99447382963606E-01,,,,,9.50501302597300E-01,
NGA,,,,,,,,,,,,,,,,,,,,,,,,,,,,,,,1.89224502344170E+01,,,,,,,,,,1.44240587634639E+01,,,,,1.21754120140101E+01,,,,,9.92676526455636E+00,
NIC,,,,,,,,,,,,,,,,,,,,,,,,,,,,,,,3.75103872361642E+01,,,,,,,,,,3.16935349842114E+01,,,,,2.87851088582350E+01,,,,,2.58766827322586E+01,
NLD,,,,,,,,,,,,,,,,,,,,,,,,,,,,,,,1.02191943127962E+01,,,,,,,,,,1.06635071090047E+01,,,,,1.08116113744076E+01,,,,,1.08212273940113E+01,
NOC,,,,,,,,,,,,,,,,,,,,,,,,,,,,,,,2.47391042252198E+00,,,,,,,,,,2.49272845475756E+00,,,,,2.49872404711839E+00,,,,,2.88309453861304E+00,
NOR,,,,,,,,,,,,,,,,,,,,,,,,,,,,,,,3.00052583147101E+01,,,,,,,,,,3.05672406993559E+01,,,,,3.18226633364007E+01,,,,,3.29492257832193E+01,
NPL,,,,,,,,,,,,,,,,,,,,,,,,,,,,,,,3.36853146853147E+01,,,,,,,,,,2.72061388210673E+01,,,,,2.53644925008720E+01,,,,,2.53644925008720E+01,
NZL,,,,,,,,,,,,,,,,,,,,,,,,,,,,,,,2.93190535870267E+01,,,,,,,,,,3.13926550453838E+01,,,,,3.15635562644791E+01,,,,,3.14040484599901E+01,
OEC,,,,,,,,,,,,,,,,,,,,,,,,,,,,,,,3.04843357560022E+01,,,,,,,,,,3.08649465251132E+01,,,,,3.09812653637344E+01,,,,,3.09851674982643E+01,
OED,,,,,,,,,,,,,,,,,,,,,,,,,,,,,,,3.01879809631551E+01,,,,,,,,,,3.04575467929680E+01,,,,,3.05513520511255E+01,,,,,3.05548416907055E+01,
OMN,,,,,,,,,,,,,,,,,,,,,,,,,,,,,,,6.46203554119548E-03,,,,,,,,,,6.46203554119548E-03,,,,,6.46203554119548E-03,,,,,6.46203554119548E-03,
PAK,,,,,,,,,,,,,,,,,,,,,,,,,,,,,,,3.27807181403072E+00,,,,,,,,,,2.74491490244915E+00,,,,,2.46731008717310E+00,,,,,2.18840805313408E+00,
PAN,,,,,,,,,,,,,,,,,,,,,,,,,,,,,,,5.10088781275222E+01,,,,,,,,,,4.53188054882970E+01,,,,,4.45251546946462E+01,,,,,4.37315039009954E+01,
PER,,,,,,,,,,,,,,,,,,,,,,,,,,,,,,,5.48093750000000E+01,,,,,,,,,,5.40726562500000E+01,,,,,5.37046875000000E+01,,,,,5.31187500000000E+01,
PHL,,,,,,,,,,,,,,,,,,,,,,,,,,,,,,,2.20344099003924E+01,,,,,,,,,,2.38689338296945E+01,,,,,2.47878726900761E+01,,,,,2.57068115504578E+01,
PLW,,,,,,,,,,,,,,,,,,,,,,,,,,,,,,,,,,,,,,,,,8.69565217391304E+01,,,,,8.69565217391304E+01,,,,,8.69565217391304E+01,
PNG,,,,,,,,,,,,,,,,,,,,,,,,,,,,,,,6.96087090933180E+01,,,,,,,,,,6.65393278275847E+01,,,,,6.50024290067571E+01,,,,,6.34324073665150E+01,
POL,,,,,,,,,,,,,,,,,,,,,,,,,,,,,,,2.91735102818474E+01,,,,,,,,,,2.97640951504797E+01,,,,,3.00329709790096E+01,,,,,3.06936226166995E+01,
PRI,,,,,,,,,,,,,,,,,,,,,,,,,,,,,,,3.23562570462232E+01,,,,,,,,,,5.23111612175874E+01,,,,,5.72717023675310E+01,,,,,6.22322435174746E+01,
PRK,,,,,,,,,,,,,,,,,,,,,,,,,,,,,,,6.81089610497467E+01,,,,,,,,,,5.75782742297151E+01,,,,,5.23129308196994E+01,,,,,4.70558923677435E+01,
PRT,,,,,,,,,,,,,,,,,,,,,,,,,,,,,,,3.63606557377049E+01,,,,,,,,,,3.73770491803279E+01,,,,,3.75751612550563E+01,,,,,3.77828796326665E+01,
PRY,,,,,,,,,,,,,,,,,,,,,,,,,,,,,,,5.32519506670023E+01,,,,,,,,,,4.87490561288699E+01,,,,,4.65013843443242E+01,,,,,4.42537125597785E+01,
PYF,,,,,,,,,,,,,,,,,,,,,,,,,,,,,,,1.50273224043716E+01,,,,,,,,,,2.86885245901639E+01,,,,,3.55191256830601E+01,,,,,4.23497267759563E+01,
QAT,,,,,,,,,,,,,,,,,,,,,,,,,,,,,,,0.00000000000000E+00,,,,,,,,,,0.00000000000000E+00,,,,,0.00000000000000E+00,,,,,0.00000000000000E+00,
ROM,,,,,,,,,,,,,,,,,,,,,,,,,,,,,,,2.77785044691519E+01,,,,,,,,,,2.77132036045449E+01,,,,,2.77893729889556E+01,,,,,2.85708076154047E+01,
RUS,,,,,,,,,,,,,,,,,,,,,,,,,,,,,,,4.93564653949524E+01,,,,,,,,,,4.94018804322479E+01,,,,,4.93724891477463E+01,,,,,4.94044344248932E+01,
RWA,,,,,,,,,,,,,,,,,,,,,,,,,,,,,,,1.28901499797325E+01,,,,,,,,,,1.39440616132955E+01,,,,,1.56059991892987E+01,,,,,1.76327523307661E+01,
SAS,,,,,,,,,,,,,,,,,,,,,,,,,,,,,,,1.66363286382619E+01,,,,,,,,,,1.66456452052211E+01,,,,,1.70147257934029E+01,,,,,1.71149098134230E+01,
SAU,,,,,,,,,,,,,,,,,,,,,,,,,,,,,,,4.54484134921779E-01,,,,,,,,,,4.54484134921779E-01,,,,,4.54484134921779E-01,,,,,4.54484134921779E-01,
SDN,,,,,,,,,,,,,,,,,,,,,,,,,,,,,,,3.21468855218855E+01,,,,,,,,,,2.96679292929293E+01,,,,,2.95538720538721E+01,,,,,2.94398148148148E+01,
SEN,,,,,,,,,,,,,,,,,,,,,,,,,,,,,,,4.85534721861528E+01,,,,,,,,,,4.62161741027372E+01,,,,,4.50475250610294E+01,,,,,4.40087259128448E+01,
SGP,,,,,,,,,,,,,,,,,,,,,,,,,,,,,,,2.98507462686567E+00,,,,,,,,,,2.98507462686567E+00,,,,,2.94117647058824E+00,,,,,2.85714285714286E+00,
SLB,,,,,,,,,,,,,,,,,,,,,,,,,,,,,,,8.30296534476599E+01,,,,,,,,,,8.10289389067524E+01,,,,,8.00643086816720E+01,,,,,7.90639514112183E+01,
SLE,,,,,,,,,,,,,,,,,,,,,,,,,,,,,,,4.35353253281206E+01,,,,,,,,,,4.07986595922927E+01,,,,,3.94303267243787E+01,,,,,3.80619938564647E+01,
SLV,,,,,,,,,,,,,,,,,,,,,,,,,,,,,,,1.81949806949807E+01,,,,,,,,,,1.60231660231660E+01,,,,,1.49131274131274E+01,,,,,1.38513513513514E+01,
SMR,,,,,,,,,,,,,,,,,,,,,,,,,,,,,,,0.00000000000000E+00,,,,,,,,,,0.00000000000000E+00,,,,,0.00000000000000E+00,,,,,0.00000000000000E+00,
SOM,,,,,,,,,,,,,,,,,,,,,,,,,,,,,,,1.32017725635222E+01,,,,,,,,,,1.19791500621672E+01,,,,,1.13670417955176E+01,,,,,1.07549335288679E+01,
SRB,,,,,,,,,,,,,,,,,,,,,,,,,,,,,,,2.64463754859364E+01,,,,,,,,,,2.81271438371827E+01,,,,,2.83100846101075E+01,,,,,3.10198948090556E+01,
SSA,,,,,,,,,,,,,,,,,,,,,,,,,,,,,,,3.11498412572443E+01,,,,,,,,,,2.95063181827239E+01,,,,,2.87522993420035E+01,,,,,2.80012056840116E+01,
SSF,,,,,,,,,,,,,,,,,,,,,,,,,,,,,,,3.11914246634949E+01,,,,,,,,,,2.95450773024756E+01,,,,,2.87894981097817E+01,,,,,2.80367982818661E+01,
STP,,,,,,,,,,,,,,,,,,,,,,,,,,,,,,,2.81250000000000E+01,,,,,,,,,,2.81250000000000E+01,,,,,2.81250000000000E+01,,,,,2.81250000000000E+01,
SUR,,,,,,,,,,,,,,,,,,,,,,,,,,,,,,,9.47179487179487E+01,,,,,,,,,,9.47179487179487E+01,,,,,9.47179487179487E+01,,,,,9.46025641025641E+01,
SVK,,,,,,,,,,,,,,,,,,,,,,,,,,,,,,,3.99584199584200E+01,,,,,,,,,,3.99376299376299E+01,,,,,4.01663201663202E+01,,,,,4.01954668330214E+01,
SVN,,,,,,,,,,,,,,,,,,,,,,,,,,,,,,,5.89870903674280E+01,,,,,,,,,,6.12214498510427E+01,,,,,6.17179741807349E+01,,,,,6.22144985104270E+01,
SWE,,,,,,,,,,,,,,,,,,,,,,,,,,,,,,,6.64838914071258E+01,,,,,,,,,,6.67470877808646E+01,,,,,6.87308085977482E+01,,,,,6.87308085977482E+01,
SWZ,,,,,,,,,,,,,,,,,,,,,,,,,,,,,,,2.74418604651163E+01,,,,,,,,,,3.01162790697674E+01,,,,,3.14534883720930E+01,,,,,3.27325581395349E+01,
SYC,,,,,,,,,,,,,,,,,,,,,,,,,,,,,,,8.91304347826087E+01,,,,,,,,,,8.91304347826087E+01,,,,,8.91304347826087E+01,,,,,8.91304347826087E+01,
SYR,,,,,,,,,,,,,,,,,,,,,,,,,,,,,,,2.02415932092720E+00,,,,,,,,,,2.35063663075416E+00,,,,,2.51130358991121E+00,,,,,2.67385503458041E+00,
TCA,,,,,,,,,,,,,,,,,,,,,,,,,,,,,,,3.57894736842105E+01,,,,,,,,,,3.57894736842105E+01,,,,,3.57894736842105E+01,,,,,3.57894736842105E+01,
TCD,,,,,,,,,,,,,,,,,,,,,,,,,,,,,,,1.04113722998729E+01,,,,,,,,,,9.78160736975858E+00,,,,,9.46712198221093E+00,,,,,9.15263659466328E+00,
TGO,,,,,,,,,,,,,,,,,,,,,,,,,,,,,,,1.25942268799412E+01,,,,,,,,,,8.93546607832322E+00,,,,,7.09689281117852E+00,,,,,5.27670527670528E+00,
THA,,,,,,,,,,,,,,,,,,,,,,,,,,,,,,,3.82645970756914E+01,,,,,,,,,,3.71978312356867E+01,,,,,3.69903501732271E+01,,,,,3.71351954432461E+01,
TJK,,,,,,,,,,,,,,,,,,,,,,,,,,,,,,,2.91511860531580E+00,,,,,,,,,,2.92940840240069E+00,,,,,2.92940840240069E+00,,,,,2.92940840240069E+00,
TKM,,,,,,,,,,,,,,,,,,,,,,,,,,,,,,,8.78215904496414E+00,,,,,,,,,,8.78215904496414E+00,,,,,8.78215904496414E+00,,,,,8.78215904496414E+00,
TMP,,,,,,,,,,,,,,,,,,,,,,,,,,,,,,,6.49630127774042E+01,,,,,,,,,,5.74310692669805E+01,,,,,5.36650975117687E+01,,,,,4.98991257565568E+01,
TON,,,,,,,,,,,,,,,,,,,,,,,,,,,,,,,1.25000000000000E+01,,,,,,,,,,1.25000000000000E+01,,,,,1.25000000000000E+01,,,,,1.25000000000000E+01,
TTO,,,,,,,,,,,,,,,,,,,,,,,,,,,,,,,4.69785575048733E+01,,,,,,,,,,4.56140350877193E+01,,,,,4.48343079922027E+01,,,,,4.40545808966862E+01,
TUN,,,,,,,,,,,,,,,,,,,,,,,,,,,,,,,4.13877445932029E+00,,,,,,,,,,5.38748712667353E+00,,,,,5.94747682801236E+00,,,,,6.47528321318229E+00,
TUR,,,,,,,,,,,,,,,,,,,,,,,,,,,,,,,1.25774722918805E+01,,,,,,,,,,1.31829580447748E+01,,,,,1.39547574808674E+01,,,,,1.47265569169601E+01,
TUV,,,,,,,,,,,,,,,,,,,,,,,,,,,,,,,3.33333333333333E+01,,,,,,,,,,3.33333333333333E+01,,,,,3.33333333333333E+01,,,,,3.33333333333333E+01,
TZA,,,,,,,,,,,,,,,,,,,,,,,,,,,,,,,4.68446601941748E+01,,,,,,,,,,4.22917137051253E+01,,,,,4.00146759990969E+01,,,,,3.77376382930684E+01,
UGA,,,,,,,,,,,,,,,,,,,,,,,,,,,,,,,2.37775887092738E+01,,,,,,,,,,1.93633952254642E+01,,,,,1.71613032380762E+01,,,,,1.49542064961714E+01,
UKR,,,,,,,,,,,,,,,,,,,,,,,,,,,,,,,1.60075947182187E+01,,,,,,,,,,1.64149477863122E+01,,,,,1.65262867202872E+01,,,,,1.67523993647725E+01,
UMC,,,,,,,,,,,,,,,,,,,,,,,,,,,,,,,3.51869453310708E+01,,,,,,,,,,3.47895939810557E+01,,,,,3.46837843953891E+01,,,,,3.46476049770372E+01,
URY,,,,,,,,,,,,,,,,,,,,,,,,,,,,,,,5.25654210947320E+00,,,,,,,,,,8.06764941149583E+00,,,,,8.68472174608616E+00,,,,,9.96457547708833E+00,
USA,,,,,,,,,,,,,,,,,,,,,,,,,,,,,,,3.23546559871426E+01,,,,,,,,,,3.27655120324124E+01,,,,,3.29743110614369E+01,,,,,3.32358194988314E+01,
UZB,,,,,,,,,,,,,,,,,,,,,,,,,,,,,,,7.15796897038082E+00,,,,,,,,,,7.55054066760696E+00,,,,,7.74565115185708E+00,,,,,7.70098730606488E+00,
VCT,,,,,,,,,,,,,,,,,,,,,,,,,,,,,,,6.41025641025641E+01,,,,,,,,,,6.66666666666667E+01,,,,,6.66666666666667E+01,,,,,6.92307692307692E+01,
VEN,,,,,,,,,,,,,,,,,,,,,,,,,,,,,,,5.89830508474576E+01,,,,,,,,,,5.57235984354628E+01,,,,,5.40933053681764E+01,,,,,5.24630123008900E+01,
VIR,,,,,,,,,,,,,,,,,,,,,,,,,,,,,,,6.85714285714286E+01,,,,,,,,,,6.28571428571429E+01,,,,,6.00000000000000E+01,,,,,5.71428571428571E+01,
VNM,,,,,,,,,,,,,,,,,,,,,,,,,,,,,,,2.87658607023257E+01,,,,,,,,,,3.76936925352022E+01,,,,,4.21743477279324E+01,,,,,4.44964040377979E+01,
VUT,,,,,,,,,,,,,,,,,,,,,,,,,,,,,,,3.60951599671862E+01,,,,,,,,,,3.60951599671862E+01,,,,,3.60951599671862E+01,,,,,3.60951599671862E+01,
WBG,,,,,,,,,,,,,,,,,,,,,,,,,,,,,,,1.49501661129568E+00,,,,,,,,,,1.49501661129568E+00,,,,,1.49501661129568E+00,,,,,1.49501661129568E+00,
WLD,,,,,,,,,,,,,,,,,,,,,,,,,,,,,,,3.20414224975349E+01,,,,,,,,,,3.14104924558481E+01,,,,,3.12204791456539E+01,,,,,3.11049009774338E+01,
WSM,,,,,,,,,,,,,,,,,,,,,,,,,,,,,,,4.59363957597173E+01,,,,,,,,,,6.04240282685512E+01,,,,,6.04240282685512E+01,,,,,6.04240282685512E+01,
YEM,,,,,,,,,,,,,,,,,,,,,,,,,,,,,,,1.03983180862549E+00,,,,,,,,,,1.03983180862549E+00,,,,,1.03983180862549E+00,,,,,1.03983180862549E+00,
ZAF,,,,,,,,,,,,,,,,,,,,,,,,,,,,,,,6.75273987830082E+00,,,,,,,,,,5.70866303819773E+00,,,,,5.18662461814619E+00,,,,,4.66540960254267E+00,
ZAR,,,,,,,,,,,,,,,,,,,,,,,,,,,,,,,7.07364195761011E+01,,,,,,,,,,6.93628283452063E+01,,,,,6.86760327297589E+01,,,,,6.79892371143115E+01,
ZMB,,,,,,,,,,,,,,,,,,,,,,,,,,,,,,,7.10259755982728E+01,,,,,,,,,,6.87848908379182E+01,,,,,6.76643484577409E+01,,,,,6.65438060775636E+01,
ZWE,,,,,,,,,,,,,,,,,,,,,,,,,,,,,,,5.72935246219465E+01,,,,,,,,,,4.88406359053897E+01,,,,,4.46141915471113E+01,,,,,4.03877471888329E+01,
