"Country Code",1960,1961,1962,1963,1964,1965,1966,1967,1968,1969,1970,1971,1972,1973,1974,1975,1976,1977,1978,1979,1980,1981,1982,1983,1984,1985,1986,1987,1988,1989,1990,1991,1992,1993,1994,1995,1996,1997,1998,1999,2000,2001,2002,2003,2004,2005,2006,2007,2008,2009,2010,2011ABW,,,,,,,,,,,,,,,,,,,,,,,,,,,,,,,,,,,,,,4.73040000000000E+01,4.60670000000000E+01,4.48300000000000E+01,4.35930000000000E+01,4.23560000000000E+01,4.11190000000000E+01,3.95738000000000E+01,3.80286000000000E+01,3.64834000000000E+01,3.49382000000000E+01,3.33930000000000E+01,3.20066000000000E+01,3.06202000000000E+01,,
AFG,,,,,,,,,,,,,,,,,,,,,,,,,,,,,,,,,,,,,,2.12448000000000E+02,2.02193200000000E+02,1.91938400000000E+02,1.81683600000000E+02,1.71428800000000E+02,1.61174000000000E+02,1.52677800000000E+02,1.44181600000000E+02,1.35685400000000E+02,1.27189200000000E+02,1.18693000000000E+02,1.14864600000000E+02,1.11036200000000E+02,,
AGO,,,,,,,,,,,,,,,,,,,,,,,,,,,,,,,,,,,,,,2.15059000000000E+02,2.12237400000000E+02,2.09415800000000E+02,2.06594200000000E+02,2.03772600000000E+02,2.00951000000000E+02,1.94981400000000E+02,1.89011800000000E+02,1.83042200000000E+02,1.77072600000000E+02,1.71103000000000E+02,1.66503400000000E+02,1.61903800000000E+02,,
ALB,,,,,,,,,,,,,,,,,,,,,,,,,,,,,,,,,,,,,,1.18190000000000E+01,1.29258000000000E+01,1.40326000000000E+01,1.51394000000000E+01,1.62462000000000E+01,1.73530000000000E+01,1.74536000000000E+01,1.75542000000000E+01,1.76548000000000E+01,1.77554000000000E+01,1.78560000000000E+01,1.72674000000000E+01,1.66788000000000E+01,,
ARB,,,,,,,,,,,,,,,,,,,,,,,,,,,,,,,,,,,,,,5.13209490598284E+01,5.00668039565841E+01,4.88292441119559E+01,4.76256884731435E+01,4.64534818320229E+01,4.53129674212642E+01,4.48862853576817E+01,4.44659948322737E+01,4.40472077774098E+01,4.36435397123828E+01,4.32509713121521E+01,4.25456845463330E+01,4.18719325055876E+01,,
ARE,,,,,,,,,,,,,,,,,,,,,,,,,,,,,,,,,,,,,,2.75840000000000E+01,2.70564000000000E+01,2.65288000000000E+01,2.60012000000000E+01,2.54736000000000E+01,2.49460000000000E+01,2.52950000000000E+01,2.56440000000000E+01,2.59930000000000E+01,2.63420000000000E+01,2.66910000000000E+01,2.60368000000000E+01,2.53826000000000E+01,,
ARG,,,,,,,,,,,,,,,,,,,,,,,,,,,,,,,,,,,,,,6.98000000000000E+01,6.79802000000000E+01,6.61604000000000E+01,6.43406000000000E+01,6.25208000000000E+01,6.07010000000000E+01,5.99408000000000E+01,5.91806000000000E+01,5.84204000000000E+01,5.76602000000000E+01,5.69000000000000E+01,5.63564000000000E+01,5.58128000000000E+01,,
ARM,,,,,,,,,,,,,,,,,,,,,,,,,,,,,,,,,,,,,,5.29550000000000E+01,4.99432000000000E+01,4.69314000000000E+01,4.39196000000000E+01,4.09078000000000E+01,3.78960000000000E+01,3.74580000000000E+01,3.70200000000000E+01,3.65820000000000E+01,3.61440000000000E+01,3.57060000000000E+01,3.52076000000000E+01,3.47092000000000E+01,,
AUS,,,,,,,,,,,,,,,,,,,,,,,,,,,,,,,,,,,,,,1.92480000000000E+01,1.87432000000000E+01,1.82384000000000E+01,1.77336000000000E+01,1.72288000000000E+01,1.67240000000000E+01,1.66768000000000E+01,1.66296000000000E+01,1.65824000000000E+01,1.65352000000000E+01,1.64880000000000E+01,1.56934000000000E+01,1.48988000000000E+01,,
AUT,,,,,,,,,,,,,,,,,,,,,,,,,,,,,,,,,,,,,,1.45870000000000E+01,1.43718000000000E+01,1.41566000000000E+01,1.39414000000000E+01,1.37262000000000E+01,1.35110000000000E+01,1.33646000000000E+01,1.32182000000000E+01,1.30718000000000E+01,1.29254000000000E+01,1.27790000000000E+01,1.21716000000000E+01,1.15642000000000E+01,,
AZE,,,,,,,,,,,,,,,,,,,,,,,,,,,,,,,,,,,,,,4.10080000000000E+01,3.95264000000000E+01,3.80448000000000E+01,3.65632000000000E+01,3.50816000000000E+01,3.36000000000000E+01,3.36498000000000E+01,3.36996000000000E+01,3.37494000000000E+01,3.37992000000000E+01,3.38490000000000E+01,3.33522000000000E+01,3.28554000000000E+01,,
BDI,,,,,,,,,,,,,,,,,,,,,,,,,,,,,,,,,,,,,,4.01350000000000E+01,3.79022000000000E+01,3.56694000000000E+01,3.34366000000000E+01,3.12038000000000E+01,2.89710000000000E+01,2.69048000000000E+01,2.48386000000000E+01,2.27724000000000E+01,2.07062000000000E+01,1.86400000000000E+01,1.90926000000000E+01,1.95452000000000E+01,,
BEL,,,,,,,,,,,,,,,,,,,,,,,,,,,,,,,,,,,,,,2.27450000000000E+01,2.14254000000000E+01,2.01058000000000E+01,1.87862000000000E+01,1.74666000000000E+01,1.61470000000000E+01,1.57504000000000E+01,1.53538000000000E+01,1.49572000000000E+01,1.45606000000000E+01,1.41640000000000E+01,1.35768000000000E+01,1.29896000000000E+01,,
BEN,,,,,,,,,,,,,,,,,,,,,,,,,,,,,,,,,,,,,,1.23340000000000E+02,1.22154800000000E+02,1.20969600000000E+02,1.19784400000000E+02,1.18599200000000E+02,1.17414000000000E+02,1.16278200000000E+02,1.15142400000000E+02,1.14006600000000E+02,1.12870800000000E+02,1.11735000000000E+02,1.08786800000000E+02,1.05838600000000E+02,,
BFA,,,,,,,,,,,,,,,,,,,,,,,,,,,,,,,,,,,,,,1.36214000000000E+02,1.35047000000000E+02,1.33880000000000E+02,1.32713000000000E+02,1.31546000000000E+02,1.30379000000000E+02,1.29268400000000E+02,1.28157800000000E+02,1.27047200000000E+02,1.25936600000000E+02,1.24826000000000E+02,1.23344600000000E+02,1.21863200000000E+02,,
BGD,,,,,,,,,,,,,,,,,,,,,,,,,,,,,,,,,,,,,,1.30463000000000E+02,1.25546200000000E+02,1.20629400000000E+02,1.15712600000000E+02,1.10795800000000E+02,1.05879000000000E+02,1.00490000000000E+02,9.51010000000000E+01,8.97120000000000E+01,8.43230000000000E+01,7.89340000000000E+01,7.67948000000000E+01,7.46556000000000E+01,,
BGR,,,,,,,,,,,,,,,,,,,,,,,,,,,,,,,,,,,,,,5.06490000000000E+01,4.94736000000000E+01,4.82982000000000E+01,4.71228000000000E+01,4.59474000000000E+01,4.47720000000000E+01,4.43806000000000E+01,4.39892000000000E+01,4.35978000000000E+01,4.32064000000000E+01,4.28150000000000E+01,4.14976000000000E+01,4.01802000000000E+01,,
BHR,,,,,,,,,,,,,,,,,,,,,,,,,,,,,,,,,,,,,,1.78680000000000E+01,1.74274000000000E+01,1.69868000000000E+01,1.65462000000000E+01,1.61056000000000E+01,1.56650000000000E+01,1.55150000000000E+01,1.53650000000000E+01,1.52150000000000E+01,1.50650000000000E+01,1.49150000000000E+01,1.48972000000000E+01,1.48794000000000E+01,,
BHS,,,,,,,,,,,,,,,,,,,,,,,,,,,,,,,,,,,,,,6.19020000000000E+01,5.83198000000000E+01,5.47376000000000E+01,5.11554000000000E+01,4.75732000000000E+01,4.39910000000000E+01,4.15496000000000E+01,3.91082000000000E+01,3.66668000000000E+01,3.42254000000000E+01,3.17840000000000E+01,3.10860000000000E+01,3.03880000000000E+01,,
BIH,,,,,,,,,,,,,,,,,,,,,,,,,,,,,,,,,,,,,,2.70160000000000E+01,2.52468000000000E+01,2.34776000000000E+01,2.17084000000000E+01,1.99392000000000E+01,1.81700000000000E+01,1.78212000000000E+01,1.74724000000000E+01,1.71236000000000E+01,1.67748000000000E+01,1.64260000000000E+01,1.58262000000000E+01,1.52264000000000E+01,,
BLR,,,,,,,,,,,,,,,,,,,,,,,,,,,,,,,,,,,,,,3.32230000000000E+01,3.13614000000000E+01,2.94998000000000E+01,2.76382000000000E+01,2.57766000000000E+01,2.39150000000000E+01,2.35614000000000E+01,2.32078000000000E+01,2.28542000000000E+01,2.25006000000000E+01,2.21470000000000E+01,2.18236000000000E+01,2.15002000000000E+01,,
BLZ,,,,,,,,,,,,,,,,,,,,,,,,,,,,,,,,,,,,,,1.06260000000000E+02,1.03245400000000E+02,1.00230800000000E+02,9.72162000000000E+01,9.42016000000000E+01,9.11870000000000E+01,8.86930000000000E+01,8.61990000000000E+01,8.37050000000000E+01,8.12110000000000E+01,7.87170000000000E+01,7.71300000000000E+01,7.55430000000000E+01,,
BOL,,,,,,,,,,,,,,,,,,,,,,,,,,,,,,,,,,,,,,8.69040000000000E+01,8.64038000000000E+01,8.59036000000000E+01,8.54034000000000E+01,8.49032000000000E+01,8.44030000000000E+01,8.31618000000000E+01,8.19206000000000E+01,8.06794000000000E+01,7.94382000000000E+01,7.81970000000000E+01,7.75032000000000E+01,7.68094000000000E+01,,
BRA,,,,,,,,,,,,,,,,,,,,,,,,,,,,,,,,,,,,,,8.96990000000000E+01,8.89594000000000E+01,8.82198000000000E+01,8.74802000000000E+01,8.67406000000000E+01,8.60010000000000E+01,8.39210000000000E+01,8.18410000000000E+01,7.97610000000000E+01,7.76810000000000E+01,7.56010000000000E+01,7.56712000000000E+01,7.57414000000000E+01,,
BRB,,,,,,,,,,,,,,,,,,,,,,,,,,,,,,,,,,,,,,5.61810000000000E+01,5.33640000000000E+01,5.05470000000000E+01,4.77300000000000E+01,4.49130000000000E+01,4.20960000000000E+01,4.21982000000000E+01,4.23004000000000E+01,4.24026000000000E+01,4.25048000000000E+01,4.26070000000000E+01,4.22430000000000E+01,4.18790000000000E+01,,
BRN,,,,,,,,,,,,,,,,,,,,,,,,,,,,,,,,,,,,,,2.87580000000000E+01,2.82502000000000E+01,2.77424000000000E+01,2.72346000000000E+01,2.67268000000000E+01,2.62190000000000E+01,2.59886000000000E+01,2.57582000000000E+01,2.55278000000000E+01,2.52974000000000E+01,2.50670000000000E+01,2.46012000000000E+01,2.41354000000000E+01,,
BTN,,,,,,,,,,,,,,,,,,,,,,,,,,,,,,,,,,,,,,7.49990000000000E+01,7.16566000000000E+01,6.83142000000000E+01,6.49718000000000E+01,6.16294000000000E+01,5.82870000000000E+01,5.66608000000000E+01,5.50346000000000E+01,5.34084000000000E+01,5.17822000000000E+01,5.01560000000000E+01,4.91030000000000E+01,4.80500000000000E+01,,
BWA,,,,,,,,,,,,,,,,,,,,,,,,,,,,,,,,,,,,,,7.32600000000000E+01,7.08574000000000E+01,6.84548000000000E+01,6.60522000000000E+01,6.36496000000000E+01,6.12470000000000E+01,5.94232000000000E+01,5.75994000000000E+01,5.57756000000000E+01,5.39518000000000E+01,5.21280000000000E+01,5.04628000000000E+01,4.87976000000000E+01,,
CAF,,,,,,,,,,,,,,,,,,,,,,,,,,,,,,,,,,,,,,1.34400000000000E+02,1.32027200000000E+02,1.29654400000000E+02,1.27281600000000E+02,1.24908800000000E+02,1.22536000000000E+02,1.19353400000000E+02,1.16170800000000E+02,1.12988200000000E+02,1.09805600000000E+02,1.06623000000000E+02,1.05024000000000E+02,1.03425000000000E+02,,
CAN,,,,,,,,,,,,,,,,,,,,,,,,,,,,,,,,,,,,,,2.00870000000000E+01,1.90652000000000E+01,1.80434000000000E+01,1.70216000000000E+01,1.59998000000000E+01,1.49780000000000E+01,1.47728000000000E+01,1.45676000000000E+01,1.43624000000000E+01,1.41572000000000E+01,1.39520000000000E+01,1.34138000000000E+01,1.28756000000000E+01,,
CHE,,,,,,,,,,,,,,,,,,,,,,,,,,,,,,,,,,,,,,5.68600000000000E+00,5.61700000000000E+00,5.54800000000000E+00,5.47900000000000E+00,5.41000000000000E+00,5.34100000000000E+00,5.18920000000000E+00,5.03740000000000E+00,4.88560000000000E+00,4.73380000000000E+00,4.58200000000000E+00,4.45220000000000E+00,4.32240000000000E+00,,
CHI,,,,,,,,,,,,,,,,,,,,,,,,,,,,,,,,,,,,,,1.37760000000000E+01,1.33964000000000E+01,1.30168000000000E+01,1.26372000000000E+01,1.22576000000000E+01,1.18780000000000E+01,1.14848000000000E+01,1.10916000000000E+01,1.06984000000000E+01,1.03052000000000E+01,9.91200000000000E+00,9.60500000000000E+00,9.29800000000000E+00,,
CHL,,,,,,,,,,,,,,,,,,,,,,,,,,,,,,,,,,,,,,6.69010000000000E+01,6.58408000000000E+01,6.47806000000000E+01,6.37204000000000E+01,6.26602000000000E+01,6.16000000000000E+01,6.09300000000000E+01,6.02600000000000E+01,5.95900000000000E+01,5.89200000000000E+01,5.82500000000000E+01,5.77972000000000E+01,5.73444000000000E+01,,
CHN,,,,,,,,,,,,,,,,,,,,,,,,,,,,,,,,,,,,,,6.82200000000000E+00,7.09840000000000E+00,7.37480000000000E+00,7.65120000000000E+00,7.92760000000000E+00,8.20400000000000E+00,8.24920000000000E+00,8.29440000000000E+00,8.33960000000000E+00,8.38480000000000E+00,8.43000000000000E+00,8.56300000000000E+00,8.69600000000000E+00,,
CIV,,,,,,,,,,,,,,,,,,,,,,,,,,,,,,,,,,,,,,1.36409000000000E+02,1.36100400000000E+02,1.35791800000000E+02,1.35483200000000E+02,1.35174600000000E+02,1.34866000000000E+02,1.33767400000000E+02,1.32668800000000E+02,1.31570200000000E+02,1.30471600000000E+02,1.29373000000000E+02,1.24636800000000E+02,1.19900600000000E+02,,
CMR,,,,,,,,,,,,,,,,,,,,,,,,,,,,,,,,,,,,,,1.42800000000000E+02,1.41480200000000E+02,1.40160400000000E+02,1.38840600000000E+02,1.37520800000000E+02,1.36201000000000E+02,1.34515000000000E+02,1.32829000000000E+02,1.31143000000000E+02,1.29457000000000E+02,1.27771000000000E+02,1.25245000000000E+02,1.22719000000000E+02,,
COG,,,,,,,,,,,,,,,,,,,,,,,,,,,,,,,,,,,,,,1.30243000000000E+02,1.30287400000000E+02,1.30331800000000E+02,1.30376200000000E+02,1.30420600000000E+02,1.30465000000000E+02,1.28110200000000E+02,1.25755400000000E+02,1.23400600000000E+02,1.21045800000000E+02,1.18691000000000E+02,1.17468400000000E+02,1.16245800000000E+02,,
COL,,,,,,,,,,,,,,,,,,,,,,,,,,,,,,,,,,,,,,9.17020000000000E+01,9.25020000000000E+01,9.33020000000000E+01,9.41020000000000E+01,9.49020000000000E+01,9.57020000000000E+01,9.14214000000000E+01,8.71408000000000E+01,8.28602000000000E+01,7.85796000000000E+01,7.42990000000000E+01,7.30688000000000E+01,7.18386000000000E+01,,
COM,,,,,,,,,,,,,,,,,,,,,,,,,,,,,,,,,,,,,,6.64620000000000E+01,6.58884000000000E+01,6.53148000000000E+01,6.47412000000000E+01,6.41676000000000E+01,6.35940000000000E+01,6.24780000000000E+01,6.13620000000000E+01,6.02460000000000E+01,5.91300000000000E+01,5.80140000000000E+01,5.66344000000000E+01,5.52548000000000E+01,,
CPV,,,,,,,,,,,,,,,,,,,,,,,,,,,,,,,,,,,,,,1.05787000000000E+02,1.03559600000000E+02,1.01332200000000E+02,9.91048000000000E+01,9.68774000000000E+01,9.46500000000000E+01,9.20334000000000E+01,8.94168000000000E+01,8.68002000000000E+01,8.41836000000000E+01,8.15670000000000E+01,7.90910000000000E+01,7.66150000000000E+01,,
CRI,,,,,,,,,,,,,,,,,,,,,,,,,,,,,,,,,,,,,,8.69000000000000E+01,8.48030000000000E+01,8.27060000000000E+01,8.06090000000000E+01,7.85120000000000E+01,7.64150000000000E+01,7.42586000000000E+01,7.21022000000000E+01,6.99458000000000E+01,6.77894000000000E+01,6.56330000000000E+01,6.48952000000000E+01,6.41574000000000E+01,,
CUB,,,,,,,,,,,,,,,,,,,,,,,,,,,,,,,,,,,,,,6.79020000000000E+01,6.43814000000000E+01,6.08608000000000E+01,5.73402000000000E+01,5.38196000000000E+01,5.02990000000000E+01,4.92824000000000E+01,4.82658000000000E+01,4.72492000000000E+01,4.62326000000000E+01,4.52160000000000E+01,4.49588000000000E+01,4.47016000000000E+01,,
CYP,,,,,,,,,,,,,,,,,,,,,,,,,,,,,,,,,,,,,,1.30540000000000E+01,1.18884000000000E+01,1.07228000000000E+01,9.55720000000000E+00,8.39160000000000E+00,7.22600000000000E+00,7.09120000000000E+00,6.95640000000000E+00,6.82160000000000E+00,6.68680000000000E+00,6.55200000000000E+00,6.33240000000000E+00,6.11280000000000E+00,,
CZE,,,,,,,,,,,,,,,,,,,,,,,,,,,,,,,,,,,,,,1.66930000000000E+01,1.56244000000000E+01,1.45558000000000E+01,1.34872000000000E+01,1.24186000000000E+01,1.13500000000000E+01,1.13022000000000E+01,1.12544000000000E+01,1.12066000000000E+01,1.11588000000000E+01,1.11110000000000E+01,1.07258000000000E+01,1.03406000000000E+01,,
DEU,,,,,,,,,,,,,,,,,,,,,,,,,,,,,,,,,,,,,,1.28110000000000E+01,1.23260000000000E+01,1.18410000000000E+01,1.13560000000000E+01,1.08710000000000E+01,1.03860000000000E+01,9.89300000000000E+00,9.40000000000000E+00,8.90700000000000E+00,8.41400000000000E+00,7.92100000000000E+00,7.70640000000000E+00,7.49180000000000E+00,,
DJI,,,,,,,,,,,,,,,,,,,,,,,,,,,,,,,,,,,,,,3.10810000000000E+01,3.06290000000000E+01,3.01770000000000E+01,2.97250000000000E+01,2.92730000000000E+01,2.88210000000000E+01,2.76398000000000E+01,2.64586000000000E+01,2.52774000000000E+01,2.40962000000000E+01,2.29150000000000E+01,2.22368000000000E+01,2.15586000000000E+01,,
DNK,,,,,,,,,,,,,,,,,,,,,,,,,,,,,,,,,,,,,,8.00700000000000E+00,7.72920000000000E+00,7.45140000000000E+00,7.17360000000000E+00,6.89580000000000E+00,6.61800000000000E+00,6.48500000000000E+00,6.35200000000000E+00,6.21900000000000E+00,6.08600000000000E+00,5.95300000000000E+00,5.78760000000000E+00,5.62220000000000E+00,,
DOM,,,,,,,,,,,,,,,,,,,,,,,,,,,,,,,,,,,,,,1.10999000000000E+02,1.10719200000000E+02,1.10439400000000E+02,1.10159600000000E+02,1.09879800000000E+02,1.09600000000000E+02,1.09420200000000E+02,1.09240400000000E+02,1.09060600000000E+02,1.08880800000000E+02,1.08701000000000E+02,1.07684200000000E+02,1.06667400000000E+02,,
DZA,,,,,,,,,,,,,,,,,,,,,,,,,,,,,,,,,,,,,,1.17710000000000E+01,1.11246000000000E+01,1.04782000000000E+01,9.83180000000000E+00,9.18540000000000E+00,8.53900000000000E+00,8.29900000000000E+00,8.05900000000000E+00,7.81900000000000E+00,7.57900000000000E+00,7.33900000000000E+00,7.08760000000000E+00,6.83620000000000E+00,,
EAP,,,,,,,,,,,,,,,,,,,,,,,,,,,,,,,,,,,,,,1.93957441674212E+01,1.95129084304475E+01,1.95398512520505E+01,1.95205972032424E+01,1.94555410389199E+01,1.93577574354619E+01,1.90001105284458E+01,1.87319640804233E+01,1.85839359454014E+01,1.85734958610748E+01,1.86848140098933E+01,1.87490168553695E+01,1.88089377849207E+01,,
EAS,,,,,,,,,,,,,,,,,,,,,,,,,,,,,,,,,,,,,,1.82238599208555E+01,1.83728572711913E+01,1.84447076631168E+01,1.84764029035773E+01,1.84692604184841E+01,1.84339025032869E+01,1.81446554122430E+01,1.79261331289615E+01,1.78041494333569E+01,1.77933082763697E+01,1.78807522155306E+01,1.79289607178654E+01,1.79715984731354E+01,,
ECA,,,,,,,,,,,,,,,,,,,,,,,,,,,,,,,,,,,,,,4.07969403060612E+01,3.87690326718619E+01,3.67239091378336E+01,3.46609935446912E+01,3.25837244266793E+01,3.05000722244114E+01,3.03877299567604E+01,3.02943901850604E+01,3.02200572423995E+01,3.01547035662757E+01,3.00818909171683E+01,2.90081768828951E+01,2.79503506978464E+01,,
ECS,,,,,,,,,,,,,,,,,,,,,,,,,,,,,,,,,,,,,,2.86189914620850E+01,2.75100047620415E+01,2.63621948849828E+01,2.51805251041502E+01,2.39599339555384E+01,2.27049326483260E+01,2.26516834029453E+01,2.25758374142166E+01,2.24726567858065E+01,2.23308846297483E+01,2.21443786192750E+01,2.12846587992371E+01,2.04404470873630E+01,,
ECU,,,,,,,,,,,,,,,,,,,,,,,,,,,,,,,,,,,,,,8.53990000000000E+01,8.52194000000000E+01,8.50398000000000E+01,8.48602000000000E+01,8.46806000000000E+01,8.45010000000000E+01,8.41608000000000E+01,8.38206000000000E+01,8.34804000000000E+01,8.31402000000000E+01,8.28000000000000E+01,8.23516000000000E+01,8.19032000000000E+01,,
EGY,,,,,,,,,,,,,,,,,,,,,,,,,,,,,,,,,,,,,,5.88060000000000E+01,5.75416000000000E+01,5.62772000000000E+01,5.50128000000000E+01,5.37484000000000E+01,5.24840000000000E+01,5.13020000000000E+01,5.01200000000000E+01,4.89380000000000E+01,4.77560000000000E+01,4.65740000000000E+01,4.53880000000000E+01,4.42020000000000E+01,,
EMU,,,,,,,,,,,,,,,,,,,,,,,,,,,,,,,,,,,,,,1.08060005259665E+01,1.07190098262059E+01,1.06222314511632E+01,1.05142499378350E+01,1.03986411599613E+01,1.02731640098574E+01,1.00700363583766E+01,9.86006043458190E+00,9.64959219847422E+00,9.44317380094203E+00,9.24329801122274E+00,8.86475851105152E+00,8.48078023695510E+00,,
ERI,,,,,,,,,,,,,,,,,,,,,,,,,,,,,,,,,,,,,,9.86930000000000E+01,9.55976000000000E+01,9.25022000000000E+01,8.94068000000000E+01,8.63114000000000E+01,8.32160000000000E+01,7.98828000000000E+01,7.65496000000000E+01,7.32164000000000E+01,6.98832000000000E+01,6.65500000000000E+01,6.39822000000000E+01,6.14144000000000E+01,,
ESP,,,,,,,,,,,,,,,,,,,,,,,,,,,,,,,,,,,,,,8.05600000000000E+00,8.49900000000000E+00,8.94200000000000E+00,9.38500000000000E+00,9.82800000000000E+00,1.02710000000000E+01,1.07666000000000E+01,1.12622000000000E+01,1.17578000000000E+01,1.22534000000000E+01,1.27490000000000E+01,1.23350000000000E+01,1.19210000000000E+01,,
EST,,,,,,,,,,,,,,,,,,,,,,,,,,,,,,,,,,,,,,3.04800000000000E+01,2.88408000000000E+01,2.72016000000000E+01,2.55624000000000E+01,2.39232000000000E+01,2.22840000000000E+01,2.23764000000000E+01,2.24688000000000E+01,2.25612000000000E+01,2.26536000000000E+01,2.27460000000000E+01,2.16344000000000E+01,2.05228000000000E+01,,
ETH,,,,,,,,,,,,,,,,,,,,,,,,,,,,,,,,,,,,,,1.11516000000000E+02,1.08656000000000E+02,1.05796000000000E+02,1.02936000000000E+02,1.00076000000000E+02,9.72160000000000E+01,9.22536000000000E+01,8.72912000000000E+01,8.23288000000000E+01,7.73664000000000E+01,7.24040000000000E+01,6.75732000000000E+01,6.27424000000000E+01,,
EUU,,,,,,,,,,,,,,,,,,,,,,,,,,,,,,,,,,,,,,1.73049607407846E+01,1.68259112370987E+01,1.63525370893597E+01,1.58863589051804E+01,1.54296133548760E+01,1.49919043047786E+01,1.49246916941755E+01,1.48370870990564E+01,1.47205303731176E+01,1.45715155809280E+01,1.43968206359274E+01,1.39544158200252E+01,1.35163563905147E+01,,
FIN,,,,,,,,,,,,,,,,,,,,,,,,,,,,,,,,,,,,,,9.62100000000000E+00,1.03208000000000E+01,1.10206000000000E+01,1.17204000000000E+01,1.24202000000000E+01,1.31200000000000E+01,1.23606000000000E+01,1.16012000000000E+01,1.08418000000000E+01,1.00824000000000E+01,9.32300000000000E+00,9.32580000000000E+00,9.32860000000000E+00,,
FJI,,,,,,,,,,,,,,,,,,,,,,,,,,,,,,,,,,,,,,4.58020000000000E+01,4.49414000000000E+01,4.40808000000000E+01,4.32202000000000E+01,4.23596000000000E+01,4.14990000000000E+01,4.22478000000000E+01,4.29966000000000E+01,4.37454000000000E+01,4.44942000000000E+01,4.52430000000000E+01,4.47522000000000E+01,4.42614000000000E+01,,
FRA,,,,,,,,,,,,,,,,,,,,,,,,,,,,,,,,,,,,,,7.22200000000000E+00,7.38100000000000E+00,7.54000000000000E+00,7.69900000000000E+00,7.85800000000000E+00,8.01700000000000E+00,7.84720000000000E+00,7.67740000000000E+00,7.50760000000000E+00,7.33780000000000E+00,7.16800000000000E+00,6.94260000000000E+00,6.71720000000000E+00,,
FSM,,,,,,,,,,,,,,,,,,,,,,,,,,,,,,,,,,,,,,4.48220000000000E+01,4.27102000000000E+01,4.05984000000000E+01,3.84866000000000E+01,3.63748000000000E+01,3.42630000000000E+01,3.24956000000000E+01,3.07282000000000E+01,2.89608000000000E+01,2.71934000000000E+01,2.54260000000000E+01,2.40308000000000E+01,2.26356000000000E+01,,
GAB,,,,,,,,,,,,,,,,,,,,,,,,,,,,,,,,,,,,,,1.30107000000000E+02,1.25495600000000E+02,1.20884200000000E+02,1.16272800000000E+02,1.11661400000000E+02,1.07050000000000E+02,1.03622800000000E+02,1.00195600000000E+02,9.67684000000000E+01,9.33412000000000E+01,8.99140000000000E+01,8.81382000000000E+01,8.63624000000000E+01,,
GBR,,,,,,,,,,,,,,,,,,,,,,,,,,,,,,,,,,,,,,3.10010000000000E+01,3.02008000000000E+01,2.94006000000000E+01,2.86004000000000E+01,2.78002000000000E+01,2.70000000000000E+01,2.75284000000000E+01,2.80568000000000E+01,2.85852000000000E+01,2.91136000000000E+01,2.96420000000000E+01,2.96616000000000E+01,2.96812000000000E+01,,
GEO,,,,,,,,,,,,,,,,,,,,,,,,,,,,,,,,,,,,,,6.05440000000000E+01,5.81300000000000E+01,5.57160000000000E+01,5.33020000000000E+01,5.08880000000000E+01,4.84740000000000E+01,4.77094000000000E+01,4.69448000000000E+01,4.61802000000000E+01,4.54156000000000E+01,4.46510000000000E+01,4.36220000000000E+01,4.25930000000000E+01,,
GHA,,,,,,,,,,,,,,,,,,,,,,,,,,,,,,,,,,,,,,9.01450000000000E+01,8.81050000000000E+01,8.60650000000000E+01,8.40250000000000E+01,8.19850000000000E+01,7.99450000000000E+01,7.81774000000000E+01,7.64098000000000E+01,7.46422000000000E+01,7.28746000000000E+01,7.11070000000000E+01,6.93604000000000E+01,6.76138000000000E+01,,
GIN,,,,,,,,,,,,,,,,,,,,,,,,,,,,,,,,,,,,,,1.74441000000000E+02,1.72690000000000E+02,1.70939000000000E+02,1.69188000000000E+02,1.67437000000000E+02,1.65686000000000E+02,1.64027400000000E+02,1.62368800000000E+02,1.60710200000000E+02,1.59051600000000E+02,1.57393000000000E+02,1.52646600000000E+02,1.47900200000000E+02,,
GMB,,,,,,,,,,,,,,,,,,,,,,,,,,,,,,,,,,,,,,1.30865000000000E+02,1.25260000000000E+02,1.19655000000000E+02,1.14050000000000E+02,1.08445000000000E+02,1.02840000000000E+02,9.75882000000000E+01,9.23364000000000E+01,8.70846000000000E+01,8.18328000000000E+01,7.65810000000000E+01,7.46376000000000E+01,7.26942000000000E+01,,
GNB,,,,,,,,,,,,,,,,,,,,,,,,,,,,,,,,,,,,,,1.47332000000000E+02,1.43988400000000E+02,1.40644800000000E+02,1.37301200000000E+02,1.33957600000000E+02,1.30614000000000E+02,1.26714000000000E+02,1.22814000000000E+02,1.18914000000000E+02,1.15014000000000E+02,1.11114000000000E+02,1.08124600000000E+02,1.05135200000000E+02,,
GNQ,,,,,,,,,,,,,,,,,,,,,,,,,,,,,,,,,,,,,,1.33908000000000E+02,1.32880800000000E+02,1.31853600000000E+02,1.30826400000000E+02,1.29799200000000E+02,1.28772000000000E+02,1.27587800000000E+02,1.26403600000000E+02,1.25219400000000E+02,1.24035200000000E+02,1.22851000000000E+02,1.21208800000000E+02,1.19566600000000E+02,,
GRC,,,,,,,,,,,,,,,,,,,,,,,,,,,,,,,,,,,,,,1.17390000000000E+01,1.15254000000000E+01,1.13118000000000E+01,1.10982000000000E+01,1.08846000000000E+01,1.06710000000000E+01,1.08508000000000E+01,1.10306000000000E+01,1.12104000000000E+01,1.13902000000000E+01,1.15700000000000E+01,1.11832000000000E+01,1.07964000000000E+01,,
GRD,,,,,,,,,,,,,,,,,,,,,,,,,,,,,,,,,,,,,,6.14660000000000E+01,5.94034000000000E+01,5.73408000000000E+01,5.52782000000000E+01,5.32156000000000E+01,5.11530000000000E+01,4.94040000000000E+01,4.76550000000000E+01,4.59060000000000E+01,4.41570000000000E+01,4.24080000000000E+01,4.10136000000000E+01,3.96192000000000E+01,,
GTM,,,,,,,,,,,,,,,,,,,,,,,,,,,,,,,,,,,,,,1.21104000000000E+02,1.19962400000000E+02,1.18820800000000E+02,1.17679200000000E+02,1.16537600000000E+02,1.15396000000000E+02,1.13756000000000E+02,1.12116000000000E+02,1.10476000000000E+02,1.08836000000000E+02,1.07196000000000E+02,1.06232800000000E+02,1.05269600000000E+02,,
GUM,,,,,,,,,,,,,,,,,,,,,,,,,,,,,,,,,,,,,,7.82400000000000E+01,7.34862000000000E+01,6.87324000000000E+01,6.39786000000000E+01,5.92248000000000E+01,5.44710000000000E+01,5.38852000000000E+01,5.32994000000000E+01,5.27136000000000E+01,5.21278000000000E+01,5.15420000000000E+01,5.12402000000000E+01,5.09384000000000E+01,,
GUY,,,,,,,,,,,,,,,,,,,,,,,,,,,,,,,,,,,,,,7.39300000000000E+01,7.56156000000000E+01,7.73012000000000E+01,7.89868000000000E+01,8.06724000000000E+01,8.23580000000000E+01,7.95504000000000E+01,7.67428000000000E+01,7.39352000000000E+01,7.11276000000000E+01,6.83200000000000E+01,6.54410000000000E+01,6.25620000000000E+01,,
HIC,,,,,,,,,,,,,,,,,,,,,,,,,,,,,,,,,,,,,,2.42739407549024E+01,2.37966108357877E+01,2.32886242185112E+01,2.27493098258032E+01,2.21767814781185E+01,2.15684695830244E+01,2.14602491235124E+01,2.13373299556640E+01,2.11969640662820E+01,2.10431796388071E+01,2.08756929964714E+01,2.00325526840559E+01,1.91635394570735E+01,,
HKG,,,,,,,,,,,,,,,,,,,,,,,,,,,,,,,,,,,,,,5.00100000000000E+00,4.80060000000000E+00,4.60020000000000E+00,4.39980000000000E+00,4.19940000000000E+00,3.99900000000000E+00,3.83940000000000E+00,3.67980000000000E+00,3.52020000000000E+00,3.36060000000000E+00,3.20100000000000E+00,3.40420000000000E+00,3.60740000000000E+00,,
HND,,,,,,,,,,,,,,,,,,,,,,,,,,,,,,,,,,,,,,1.14600000000000E+02,1.12180400000000E+02,1.09760800000000E+02,1.07341200000000E+02,1.04921600000000E+02,1.02502000000000E+02,1.00621600000000E+02,9.87412000000000E+01,9.68608000000000E+01,9.49804000000000E+01,9.31000000000000E+01,9.16530000000000E+01,9.02060000000000E+01,,
HPC,,,,,,,,,,,,,,,,,,,,,,,,,,,,,,,,,,,,,,1.41286330128281E+02,1.39618809445664E+02,1.37946538045259E+02,1.36316795817583E+02,1.34740769222757E+02,1.33207506238751E+02,1.30110492917674E+02,1.27019196544737E+02,1.23922516028818E+02,1.20818185271687E+02,1.17708494264504E+02,1.14647742128983E+02,1.11582444147458E+02,,
HRV,,,,,,,,,,,,,,,,,,,,,,,,,,,,,,,,,,,,,,1.77980000000000E+01,1.71094000000000E+01,1.64208000000000E+01,1.57322000000000E+01,1.50436000000000E+01,1.43550000000000E+01,1.41764000000000E+01,1.39978000000000E+01,1.38192000000000E+01,1.36406000000000E+01,1.34620000000000E+01,1.33278000000000E+01,1.31936000000000E+01,,
HTI,,,,,,,,,,,,,,,,,,,,,,,,,,,,,,,,,,,,,,6.18020000000000E+01,5.99424000000000E+01,5.80828000000000E+01,5.62232000000000E+01,5.43636000000000E+01,5.25040000000000E+01,5.12826000000000E+01,5.00612000000000E+01,4.88398000000000E+01,4.76184000000000E+01,4.63970000000000E+01,4.53676000000000E+01,4.43382000000000E+01,,
HUN,,,,,,,,,,,,,,,,,,,,,,,,,,,,,,,,,,,,,,2.70250000000000E+01,2.53278000000000E+01,2.36306000000000E+01,2.19334000000000E+01,2.02362000000000E+01,1.85390000000000E+01,1.81408000000000E+01,1.77426000000000E+01,1.73444000000000E+01,1.69462000000000E+01,1.65480000000000E+01,1.59554000000000E+01,1.53628000000000E+01,,
IDN,,,,,,,,,,,,,,,,,,,,,,,,,,,,,,,,,,,,,,4.78480000000000E+01,4.80890000000000E+01,4.83300000000000E+01,4.85710000000000E+01,4.88120000000000E+01,4.90530000000000E+01,4.82660000000000E+01,4.74790000000000E+01,4.66920000000000E+01,4.59050000000000E+01,4.51180000000000E+01,4.45630000000000E+01,4.40080000000000E+01,,
IND,,,,,,,,,,,,,,,,,,,,,,,,,,,,,,,,,,,,,,1.16099000000000E+02,1.12606800000000E+02,1.09114600000000E+02,1.05622400000000E+02,1.02130200000000E+02,9.86380000000000E+01,9.61778000000000E+01,9.37176000000000E+01,9.12574000000000E+01,8.87972000000000E+01,8.63370000000000E+01,8.40020000000000E+01,8.16670000000000E+01,,
IRL,,,,,,,,,,,,,,,,,,,,,,,,,,,,,,,,,,,,,,1.90000000000000E+01,1.90004000000000E+01,1.90008000000000E+01,1.90012000000000E+01,1.90016000000000E+01,1.90020000000000E+01,1.87020000000000E+01,1.84020000000000E+01,1.81020000000000E+01,1.78020000000000E+01,1.75020000000000E+01,1.57646000000000E+01,1.40272000000000E+01,,
IRN,,,,,,,,,,,,,,,,,,,,,,,,,,,,,,,,,,,,,,4.84190000000000E+01,4.54358000000000E+01,4.24526000000000E+01,3.94694000000000E+01,3.64862000000000E+01,3.35030000000000E+01,3.26964000000000E+01,3.18898000000000E+01,3.10832000000000E+01,3.02766000000000E+01,2.94700000000000E+01,2.85728000000000E+01,2.76756000000000E+01,,
IRQ,,,,,,,,,,,,,,,,,,,,,,,,,,,,,,,,,,,,,,5.70890000000000E+01,5.99210000000000E+01,6.27530000000000E+01,6.55850000000000E+01,6.84170000000000E+01,7.12490000000000E+01,7.65924000000000E+01,8.19358000000000E+01,8.72792000000000E+01,9.26226000000000E+01,9.79660000000000E+01,9.55510000000000E+01,9.31360000000000E+01,,
ISL,,,,,,,,,,,,,,,,,,,,,,,,,,,,,,,,,,,,,,2.35210000000000E+01,2.22686000000000E+01,2.10162000000000E+01,1.97638000000000E+01,1.85114000000000E+01,1.72590000000000E+01,1.67176000000000E+01,1.61762000000000E+01,1.56348000000000E+01,1.50934000000000E+01,1.45520000000000E+01,1.39580000000000E+01,1.33640000000000E+01,,
ISR,,,,,,,,,,,,,,,,,,,,,,,,,,,,,,,,,,,,,,1.76560000000000E+01,1.73334000000000E+01,1.70108000000000E+01,1.66882000000000E+01,1.63656000000000E+01,1.60430000000000E+01,1.56416000000000E+01,1.52402000000000E+01,1.48388000000000E+01,1.44374000000000E+01,1.40360000000000E+01,1.40330000000000E+01,1.40300000000000E+01,,
ITA,,,,,,,,,,,,,,,,,,,,,,,,,,,,,,,,,,,,,,7.00100000000000E+00,7.00080000000000E+00,7.00060000000000E+00,7.00040000000000E+00,7.00020000000000E+00,7.00000000000000E+00,6.93200000000000E+00,6.86400000000000E+00,6.79600000000000E+00,6.72800000000000E+00,6.66000000000000E+00,6.12660000000000E+00,5.59320000000000E+00,,
JAM,,,,,,,,,,,,,,,,,,,,,,,,,,,,,,,,,,,,,,9.34500000000000E+01,9.18498000000000E+01,9.02496000000000E+01,8.86494000000000E+01,8.70492000000000E+01,8.54490000000000E+01,8.38216000000000E+01,8.21942000000000E+01,8.05668000000000E+01,7.89394000000000E+01,7.73120000000000E+01,7.57944000000000E+01,7.42768000000000E+01,,
JOR,,,,,,,,,,,,,,,,,,,,,,,,,,,,,,,,,,,,,,4.05890000000000E+01,3.86698000000000E+01,3.67506000000000E+01,3.48314000000000E+01,3.29122000000000E+01,3.09930000000000E+01,3.00924000000000E+01,2.91918000000000E+01,2.82912000000000E+01,2.73906000000000E+01,2.64900000000000E+01,2.59294000000000E+01,2.53688000000000E+01,,
JPN,,,,,,,,,,,,,,,,,,,,,,,,,,,,,,,,,,,,,,4.40000000000000E+00,4.67980000000000E+00,4.95960000000000E+00,5.23940000000000E+00,5.51920000000000E+00,5.79900000000000E+00,5.64400000000000E+00,5.48900000000000E+00,5.33400000000000E+00,5.17900000000000E+00,5.02400000000000E+00,5.22540000000000E+00,5.42680000000000E+00,,
KAZ,,,,,,,,,,,,,,,,,,,,,,,,,,,,,,,,,,,,,,4.00400000000000E+01,3.77130000000000E+01,3.53860000000000E+01,3.30590000000000E+01,3.07320000000000E+01,2.84050000000000E+01,2.87260000000000E+01,2.90470000000000E+01,2.93680000000000E+01,2.96890000000000E+01,3.00100000000000E+01,2.91078000000000E+01,2.82056000000000E+01,,
KEN,,,,,,,,,,,,,,,,,,,,,,,,,,,,,,,,,,,,,,1.05700000000000E+02,1.05400000000000E+02,1.05100000000000E+02,1.04800000000000E+02,1.04500000000000E+02,1.04200000000000E+02,1.03404800000000E+02,1.02609600000000E+02,1.01814400000000E+02,1.01019200000000E+02,1.00224000000000E+02,9.97976000000000E+01,9.93712000000000E+01,,
KGZ,,,,,,,,,,,,,,,,,,,,,,,,,,,,,,,,,,,,,,3.76240000000000E+01,3.63992000000000E+01,3.51744000000000E+01,3.39496000000000E+01,3.27248000000000E+01,3.15000000000000E+01,3.20114000000000E+01,3.25228000000000E+01,3.30342000000000E+01,3.35456000000000E+01,3.40570000000000E+01,3.38496000000000E+01,3.36422000000000E+01,,
KHM,,,,,,,,,,,,,,,,,,,,,,,,,,,,,,,,,,,,,,5.33380000000000E+01,5.17494000000000E+01,5.01608000000000E+01,4.85722000000000E+01,4.69836000000000E+01,4.53950000000000E+01,4.46700000000000E+01,4.39450000000000E+01,4.32200000000000E+01,4.24950000000000E+01,4.17700000000000E+01,3.99934000000000E+01,3.82168000000000E+01,,
KOR,,,,,,,,,,,,,,,,,,,,,,,,,,,,,,,,,,,,,,2.95200000000000E+00,2.80140000000000E+00,2.65080000000000E+00,2.50020000000000E+00,2.34960000000000E+00,2.19900000000000E+00,2.21340000000000E+00,2.22780000000000E+00,2.24220000000000E+00,2.25660000000000E+00,2.27100000000000E+00,2.97620000000000E+00,3.68140000000000E+00,,
KWT,,,,,,,,,,,,,,,,,,,,,,,,,,,,,,,,,,,,,,2.68680000000000E+01,2.47166000000000E+01,2.25652000000000E+01,2.04138000000000E+01,1.82624000000000E+01,1.61110000000000E+01,1.56474000000000E+01,1.51838000000000E+01,1.47202000000000E+01,1.42566000000000E+01,1.37930000000000E+01,1.39150000000000E+01,1.40370000000000E+01,,
LAC,,,,,,,,,,,,,,,,,,,,,,,,,,,,,,,,,,,,,,8.58537640428501E+01,8.50350962215180E+01,8.42017289758082E+01,8.33490912570799E+01,8.24737834674955E+01,8.15763818308148E+01,7.99702344890188E+01,7.83723310152862E+01,7.67908727139647E+01,7.52276317072288E+01,7.36806905266655E+01,7.30922336078962E+01,7.25009733844422E+01,,
LAO,,,,,,,,,,,,,,,,,,,,,,,,,,,,,,,,,,,,,,5.54950000000000E+01,5.47886000000000E+01,5.40822000000000E+01,5.33758000000000E+01,5.26694000000000E+01,5.19630000000000E+01,4.93614000000000E+01,4.67598000000000E+01,4.41582000000000E+01,4.15566000000000E+01,3.89550000000000E+01,3.71748000000000E+01,3.53946000000000E+01,,
LBN,,,,,,,,,,,,,,,,,,,,,,,,,,,,,,,,,,,,,,3.20170000000000E+01,2.95782000000000E+01,2.71394000000000E+01,2.47006000000000E+01,2.22618000000000E+01,1.98230000000000E+01,1.90982000000000E+01,1.83734000000000E+01,1.76486000000000E+01,1.69238000000000E+01,1.61990000000000E+01,1.60424000000000E+01,1.58858000000000E+01,,
LBR,,,,,,,,,,,,,,,,,,,,,,,,,,,,,,,,,,,,,,1.52198000000000E+02,1.50970600000000E+02,1.49743200000000E+02,1.48515800000000E+02,1.47288400000000E+02,1.46061000000000E+02,1.45359000000000E+02,1.44657000000000E+02,1.43955000000000E+02,1.43253000000000E+02,1.42551000000000E+02,1.38647400000000E+02,1.34743800000000E+02,,
LBY,,,,,,,,,,,,,,,,,,,,,,,,,,,,,,,,,,,,,,4.68000000000000E+00,4.51200000000000E+00,4.34400000000000E+00,4.17600000000000E+00,4.00800000000000E+00,3.84000000000000E+00,3.70400000000000E+00,3.56800000000000E+00,3.43200000000000E+00,3.29600000000000E+00,3.16000000000000E+00,3.03880000000000E+00,2.91760000000000E+00,,
LCA,,,,,,,,,,,,,,,,,,,,,,,,,,,,,,,,,,,,,,6.98050000000000E+01,6.82340000000000E+01,6.66630000000000E+01,6.50920000000000E+01,6.35210000000000E+01,6.19500000000000E+01,6.18908000000000E+01,6.18316000000000E+01,6.17724000000000E+01,6.17132000000000E+01,6.16540000000000E+01,6.04970000000000E+01,5.93400000000000E+01,,
LCN,,,,,,,,,,,,,,,,,,,,,,,,,,,,,,,,,,,,,,8.56180622928872E+01,8.47901614309640E+01,8.39482149510414E+01,8.30881190877071E+01,8.22062649318476E+01,8.13034022188256E+01,7.97003090605312E+01,7.81058605537738E+01,7.65280193010687E+01,7.49684992265776E+01,7.34253106353095E+01,7.28407871163366E+01,7.22536983175444E+01,,
LDC,,,,,,,,,,,,,,,,,,,,,,,,,,,,,,,,,,,,,,1.32144454747472E+02,1.29622582144419E+02,1.27147739597977E+02,1.24811443335692E+02,1.22636017562002E+02,1.20592941462200E+02,1.17319941936221E+02,1.14077036119517E+02,1.10828501511753E+02,1.07571523153320E+02,1.04315697846403E+02,1.01766271913717E+02,9.91941108766798E+01,,
LIC,,,,,,,,,,,,,,,,,,,,,,,,,,,,,,,,,,,,,,1.27902498948854E+02,1.25283661020659E+02,1.22727242438551E+02,1.20371154616656E+02,1.18243057531218E+02,1.16293586283461E+02,1.13299851471017E+02,1.10333486357163E+02,1.07344408840055E+02,1.04327268124639E+02,1.01298637776813E+02,9.89803896331001E+01,9.66399583446199E+01,,
LKA,,,,,,,,,,,,,,,,,,,,,,,,,,,,,,,,,,,,,,2.79550000000000E+01,2.79506000000000E+01,2.79462000000000E+01,2.79418000000000E+01,2.79374000000000E+01,2.79330000000000E+01,2.70620000000000E+01,2.61910000000000E+01,2.53200000000000E+01,2.44490000000000E+01,2.35780000000000E+01,2.32794000000000E+01,2.29808000000000E+01,,
LMC,,,,,,,,,,,,,,,,,,,,,,,,,,,,,,,,,,,,,,9.19030839906882E+01,8.95858335846306E+01,8.72762978564570E+01,8.49981882864105E+01,8.27414035159028E+01,8.04986619994372E+01,7.88759704601415E+01,7.72669785596436E+01,7.56720371654013E+01,7.40990298607869E+01,7.25417227572636E+01,7.09743095500500E+01,6.94289983622287E+01,,
LMY,,,,,,,,,,,,,,,,,,,,,,,,,,,,,,,,,,,,,,7.35964560790106E+01,7.20258843621500E+01,7.03359799913339E+01,6.86351354893757E+01,6.69278724806645E+01,6.52167710460270E+01,6.36832809338348E+01,6.23076523897975E+01,6.11313623454840E+01,6.01805952334471E+01,5.94120859105678E+01,5.88866218289108E+01,5.83548501659932E+01,,
LSO,,,,,,,,,,,,,,,,,,,,,,,,,,,,,,,,,,,,,,9.40200000000000E+01,9.31342000000000E+01,9.22484000000000E+01,9.13626000000000E+01,9.04768000000000E+01,8.95910000000000E+01,8.63656000000000E+01,8.31402000000000E+01,7.99148000000000E+01,7.66894000000000E+01,7.34640000000000E+01,7.09268000000000E+01,6.83896000000000E+01,,
LTU,,,,,,,,,,,,,,,,,,,,,,,,,,,,,,,,,,,,,,3.21880000000000E+01,2.98802000000000E+01,2.75724000000000E+01,2.52646000000000E+01,2.29568000000000E+01,2.06490000000000E+01,2.04594000000000E+01,2.02698000000000E+01,2.00802000000000E+01,1.98906000000000E+01,1.97010000000000E+01,1.89906000000000E+01,1.82802000000000E+01,,
LUX,,,,,,,,,,,,,,,,,,,,,,,,,,,,,,,,,,,,,,1.00830000000000E+01,1.04230000000000E+01,1.07630000000000E+01,1.11030000000000E+01,1.14430000000000E+01,1.17830000000000E+01,1.14506000000000E+01,1.11182000000000E+01,1.07858000000000E+01,1.04534000000000E+01,1.01210000000000E+01,9.77940000000000E+00,9.43780000000000E+00,,
LVA,,,,,,,,,,,,,,,,,,,,,,,,,,,,,,,,,,,,,,2.18980000000000E+01,2.08408000000000E+01,1.97836000000000E+01,1.87264000000000E+01,1.76692000000000E+01,1.66120000000000E+01,1.68978000000000E+01,1.71836000000000E+01,1.74694000000000E+01,1.77552000000000E+01,1.80410000000000E+01,1.69864000000000E+01,1.59318000000000E+01,,
MAC,,,,,,,,,,,,,,,,,,,,,,,,,,,,,,,,,,,,,,6.07100000000000E+00,5.64740000000000E+00,5.22380000000000E+00,4.80020000000000E+00,4.37660000000000E+00,3.95300000000000E+00,3.76240000000000E+00,3.57180000000000E+00,3.38120000000000E+00,3.19060000000000E+00,3.00000000000000E+00,3.37080000000000E+00,3.74160000000000E+00,,
MAR,,,,,,,,,,,,,,,,,,,,,,,,,,,,,,,,,,,,,,2.70680000000000E+01,2.55580000000000E+01,2.40480000000000E+01,2.25380000000000E+01,2.10280000000000E+01,1.95180000000000E+01,1.86366000000000E+01,1.77552000000000E+01,1.68738000000000E+01,1.59924000000000E+01,1.51110000000000E+01,1.42544000000000E+01,1.33978000000000E+01,,
MDA,,,,,,,,,,,,,,,,,,,,,,,,,,,,,,,,,,,,,,5.80720000000000E+01,5.39456000000000E+01,4.98192000000000E+01,4.56928000000000E+01,4.15664000000000E+01,3.74400000000000E+01,3.67140000000000E+01,3.59880000000000E+01,3.52620000000000E+01,3.45360000000000E+01,3.38100000000000E+01,3.28758000000000E+01,3.19416000000000E+01,,
MDG,,,,,,,,,,,,,,,,,,,,,,,,,,,,,,,,,,,,,,1.55119000000000E+02,1.53989800000000E+02,1.52860600000000E+02,1.51731400000000E+02,1.50602200000000E+02,1.49473000000000E+02,1.46433200000000E+02,1.43393400000000E+02,1.40353600000000E+02,1.37313800000000E+02,1.34274000000000E+02,1.31953200000000E+02,1.29632400000000E+02,,
MDV,,,,,,,,,,,,,,,,,,,,,,,,,,,,,,,,,,,,,,4.65820000000000E+01,4.18738000000000E+01,3.71656000000000E+01,3.24574000000000E+01,2.77492000000000E+01,2.30410000000000E+01,2.08634000000000E+01,1.86858000000000E+01,1.65082000000000E+01,1.43306000000000E+01,1.21530000000000E+01,1.17578000000000E+01,1.13626000000000E+01,,
MEA,,,,,,,,,,,,,,,,,,,,,,,,,,,,,,,,,,,,,,4.55721644916579E+01,4.41092598540499E+01,4.26355307912329E+01,4.11671353688562E+01,3.97024288121707E+01,3.82475154038731E+01,3.79034305046485E+01,3.75695618751433E+01,3.72510647292124E+01,3.69713529178562E+01,3.67322421941966E+01,3.61550048007883E+01,3.56140742171055E+01,,
MEX,,,,,,,,,,,,,,,,,,,,,,,,,,,,,,,,,,,,,,7.78020000000000E+01,7.71132000000000E+01,7.64244000000000E+01,7.57356000000000E+01,7.50468000000000E+01,7.43580000000000E+01,7.36128000000000E+01,7.28676000000000E+01,7.21224000000000E+01,7.13772000000000E+01,7.06320000000000E+01,6.96028000000000E+01,6.85736000000000E+01,,
MIC,,,,,,,,,,,,,,,,,,,,,,,,,,,,,,,,,,,,,,6.47708628226429E+01,6.32762621156437E+01,6.16538990908131E+01,6.00003282161787E+01,5.83142535298884E+01,5.66027156502464E+01,5.52684479150077E+01,5.40886571028165E+01,5.31107531081498E+01,5.23664428632456E+01,5.18122961789726E+01,5.14054513390552E+01,5.10025826941085E+01,,
MKD,,,,,,,,,,,,,,,,,,,,,,,,,,,,,,,,,,,,,,3.34270000000000E+01,3.19962000000000E+01,3.05654000000000E+01,2.91346000000000E+01,2.77038000000000E+01,2.62730000000000E+01,2.54160000000000E+01,2.45590000000000E+01,2.37020000000000E+01,2.28450000000000E+01,2.19880000000000E+01,2.11446000000000E+01,2.03012000000000E+01,,
MLI,,,,,,,,,,,,,,,,,,,,,,,,,,,,,,,,,,,,,,1.90853000000000E+02,1.90573800000000E+02,1.90294600000000E+02,1.90015400000000E+02,1.89736200000000E+02,1.89457000000000E+02,1.88816200000000E+02,1.88175400000000E+02,1.87534600000000E+02,1.86893800000000E+02,1.86253000000000E+02,1.82790400000000E+02,1.79327800000000E+02,,
MLT,,,,,,,,,,,,,,,,,,,,,,,,,,,,,,,,,,,,,,1.65120000000000E+01,1.64472000000000E+01,1.63824000000000E+01,1.63176000000000E+01,1.62528000000000E+01,1.61880000000000E+01,1.64022000000000E+01,1.66164000000000E+01,1.68306000000000E+01,1.70448000000000E+01,1.72590000000000E+01,1.61638000000000E+01,1.50686000000000E+01,,
MMR,,,,,,,,,,,,,,,,,,,,,,,,,,,,,,,,,,,,,,2.37440000000000E+01,2.28548000000000E+01,2.19656000000000E+01,2.10764000000000E+01,2.01872000000000E+01,1.92980000000000E+01,1.86920000000000E+01,1.80860000000000E+01,1.74800000000000E+01,1.68740000000000E+01,1.62680000000000E+01,1.54112000000000E+01,1.45544000000000E+01,,
MNA,,,,,,,,,,,,,,,,,,,,,,,,,,,,,,,,,,,,,,4.68496590387055E+01,4.54867748484883E+01,4.41172483127085E+01,4.27619413500164E+01,4.14214444459999E+01,4.01035697625353E+01,3.98885645259232E+01,3.96979351395503E+01,3.95367843268518E+01,3.94327787291681E+01,3.93882886603707E+01,3.86738792593857E+01,3.79845587327649E+01,,
MNE,,,,,,,,,,,,,,,,,,,,,,,,,,,,,,,,,,,,,,2.33790000000000E+01,2.28778000000000E+01,2.23766000000000E+01,2.18754000000000E+01,2.13742000000000E+01,2.08730000000000E+01,2.03286000000000E+01,1.97842000000000E+01,1.92398000000000E+01,1.86954000000000E+01,1.81510000000000E+01,1.74868000000000E+01,1.68226000000000E+01,,
MNG,,,,,,,,,,,,,,,,,,,,,,,,,,,,,,,,,,,,,,3.27850000000000E+01,3.05902000000000E+01,2.83954000000000E+01,2.62006000000000E+01,2.40058000000000E+01,2.18110000000000E+01,2.16088000000000E+01,2.14066000000000E+01,2.12044000000000E+01,2.10022000000000E+01,2.08000000000000E+01,2.03866000000000E+01,1.99732000000000E+01,,
MOZ,,,,,,,,,,,,,,,,,,,,,,,,,,,,,,,,,,,,,,1.17049000000000E+02,1.28916000000000E+02,1.40783000000000E+02,1.52650000000000E+02,1.64517000000000E+02,1.76384000000000E+02,1.70948400000000E+02,1.65512800000000E+02,1.60077200000000E+02,1.54641600000000E+02,1.49206000000000E+02,1.44251600000000E+02,1.39297200000000E+02,,
MRT,,,,,,,,,,,,,,,,,,,,,,,,,,,,,,,,,,,,,,9.64920000000000E+01,9.47922000000000E+01,9.30924000000000E+01,9.13926000000000E+01,8.96928000000000E+01,8.79930000000000E+01,8.62422000000000E+01,8.44914000000000E+01,8.27406000000000E+01,8.09898000000000E+01,7.92390000000000E+01,7.76598000000000E+01,7.60806000000000E+01,,
MUS,,,,,,,,,,,,,,,,,,,,,,,,,,,,,,,,,,,,,,3.62890000000000E+01,3.63274000000000E+01,3.63658000000000E+01,3.64042000000000E+01,3.64426000000000E+01,3.64810000000000E+01,3.62686000000000E+01,3.60562000000000E+01,3.58438000000000E+01,3.56314000000000E+01,3.54190000000000E+01,3.47036000000000E+01,3.39882000000000E+01,,
MWI,,,,,,,,,,,,,,,,,,,,,,,,,,,,,,,,,,,,,,1.60904000000000E+02,1.60548000000000E+02,1.60192000000000E+02,1.59836000000000E+02,1.59480000000000E+02,1.59124000000000E+02,1.51131200000000E+02,1.43138400000000E+02,1.35145600000000E+02,1.27152800000000E+02,1.19160000000000E+02,1.16456400000000E+02,1.13752800000000E+02,,
MYS,,,,,,,,,,,,,,,,,,,,,,,,,,,,,,,,,,,,,,1.49990000000000E+01,1.50358000000000E+01,1.50726000000000E+01,1.51094000000000E+01,1.51462000000000E+01,1.51830000000000E+01,1.49948000000000E+01,1.48066000000000E+01,1.46184000000000E+01,1.44302000000000E+01,1.42420000000000E+01,1.33532000000000E+01,1.24644000000000E+01,,
MYT,,,,,,,,,,,,,,,,,,,,,,,,,,,,,,,,,,,,,,8.60010000000000E+01,9.00016000000000E+01,9.40022000000000E+01,9.80028000000000E+01,1.02003400000000E+02,1.06004000000000E+02,1.05312400000000E+02,1.04620800000000E+02,1.03929200000000E+02,1.03237600000000E+02,1.02546000000000E+02,1.01994800000000E+02,1.01443600000000E+02,,
NAC,,,,,,,,,,,,,,,,,,,,,,,,,,,,,,,,,,,,,,4.76179598298422E+01,4.62049141633559E+01,4.47882757780686E+01,4.33634626107987E+01,4.19278267091353E+01,4.04888552755953E+01,4.01178551114389E+01,3.97450084430652E+01,3.93698967539632E+01,3.89919898766168E+01,3.86144887732473E+01,3.60530971180469E+01,3.34912751837511E+01,,
NAM,,,,,,,,,,,,,,,,,,,,,,,,,,,,,,,,,,,,,,9.03900000000000E+01,8.86560000000000E+01,8.69220000000000E+01,8.51880000000000E+01,8.34540000000000E+01,8.17200000000000E+01,8.02588000000000E+01,7.87976000000000E+01,7.73364000000000E+01,7.58752000000000E+01,7.44140000000000E+01,7.04192000000000E+01,6.64244000000000E+01,,
NCL,,,,,,,,,,,,,,,,,,,,,,,,,,,,,,,,,,,,,,1.63070000000000E+01,1.68460000000000E+01,1.73850000000000E+01,1.79240000000000E+01,1.84630000000000E+01,1.90020000000000E+01,1.92014000000000E+01,1.94008000000000E+01,1.96002000000000E+01,1.97996000000000E+01,1.99990000000000E+01,2.00386000000000E+01,2.00782000000000E+01,,
NER,,,,,,,,,,,,,,,,,,,,,,,,,,,,,,,,,,,,,,2.20556000000000E+02,2.19154000000000E+02,2.17752000000000E+02,2.16350000000000E+02,2.14948000000000E+02,2.13546000000000E+02,2.12253600000000E+02,2.10961200000000E+02,2.09668800000000E+02,2.08376400000000E+02,2.07084000000000E+02,2.04390600000000E+02,2.01697200000000E+02,,
NGA,,,,,,,,,,,,,,,,,,,,,,,,,,,,,,,,,,,,,,1.35212000000000E+02,1.33616800000000E+02,1.32021600000000E+02,1.30426400000000E+02,1.28831200000000E+02,1.27236000000000E+02,1.25452600000000E+02,1.23669200000000E+02,1.21885800000000E+02,1.20102400000000E+02,1.18319000000000E+02,1.16923600000000E+02,1.15528200000000E+02,,
NIC,,,,,,,,,,,,,,,,,,,,,,,,,,,,,,,,,,,,,,1.32602000000000E+02,1.29961600000000E+02,1.27321200000000E+02,1.24680800000000E+02,1.22040400000000E+02,1.19400000000000E+02,1.18060400000000E+02,1.16720800000000E+02,1.15381200000000E+02,1.14041600000000E+02,1.12702000000000E+02,1.11131600000000E+02,1.09561200000000E+02,,
NLD,,,,,,,,,,,,,,,,,,,,,,,,,,,,,,,,,,,,,,6.17400000000000E+00,6.35400000000000E+00,6.53400000000000E+00,6.71400000000000E+00,6.89400000000000E+00,7.07400000000000E+00,6.67120000000000E+00,6.26840000000000E+00,5.86560000000000E+00,5.46280000000000E+00,5.06000000000000E+00,4.90160000000000E+00,4.74320000000000E+00,,
NOC,,,,,,,,,,,,,,,,,,,,,,,,,,,,,,,,,,,,,,3.34725765901180E+01,3.12495683162880E+01,2.90395842315634E+01,2.68766768372764E+01,2.47049306326970E+01,2.25487313709629E+01,2.14450011296645E+01,2.02740164483935E+01,1.90780285526853E+01,1.78673367962745E+01,1.66580675679670E+01,1.75525472825750E+01,1.84623650804712E+01,,
NOR,,,,,,,,,,,,,,,,,,,,,,,,,,,,,,,,,,,,,,1.25870000000000E+01,1.19986000000000E+01,1.14102000000000E+01,1.08218000000000E+01,1.02334000000000E+01,9.64500000000000E+00,9.50880000000000E+00,9.37260000000000E+00,9.23640000000000E+00,9.10020000000000E+00,8.96400000000000E+00,8.65140000000000E+00,8.33880000000000E+00,,
NPL,,,,,,,,,,,,,,,,,,,,,,,,,,,,,,,,,,,,,,1.29096000000000E+02,1.27258400000000E+02,1.25420800000000E+02,1.23583200000000E+02,1.21745600000000E+02,1.19908000000000E+02,1.16609800000000E+02,1.13311600000000E+02,1.10013400000000E+02,1.06715200000000E+02,1.03417000000000E+02,9.99714000000000E+01,9.65258000000000E+01,,
NZL,,,,,,,,,,,,,,,,,,,,,,,,,,,,,,,,,,,,,,3.15130000000000E+01,3.06364000000000E+01,2.97598000000000E+01,2.88832000000000E+01,2.80066000000000E+01,2.71300000000000E+01,2.78852000000000E+01,2.86404000000000E+01,2.93956000000000E+01,3.01508000000000E+01,3.09060000000000E+01,2.84406000000000E+01,2.59752000000000E+01,,
OEC,,,,,,,,,,,,,,,,,,,,,,,,,,,,,,,,,,,,,,2.36694538996621E+01,2.32975684086210E+01,2.28958518695345E+01,2.24620152694824E+01,2.19965378936491E+01,2.14969242777420E+01,2.14613871727655E+01,2.14186647671337E+01,2.13629876732753E+01,2.12979534864190E+01,2.12219475873612E+01,2.02405826932359E+01,1.92233217200746E+01,,
OED,,,,,,,,,,,,,,,,,,,,,,,,,,,,,,,,,,,,,,3.33765902677156E+01,3.28699583782270E+01,3.23325386447024E+01,3.17684743097852E+01,3.11828562972936E+01,3.05732135077940E+01,3.04211057038045E+01,3.02731320782949E+01,3.01267286966187E+01,2.99845156170936E+01,2.98407117762648E+01,2.88875549728389E+01,2.78984506275920E+01,,
OMN,,,,,,,,,,,,,,,,,,,,,,,,,,,,,,,,,,,,,,4.31620000000000E+01,3.81558000000000E+01,3.31496000000000E+01,2.81434000000000E+01,2.31372000000000E+01,1.81310000000000E+01,1.63514000000000E+01,1.45718000000000E+01,1.27922000000000E+01,1.10126000000000E+01,9.23300000000000E+00,9.24860000000000E+00,9.26420000000000E+00,,
PAK,,,,,,,,,,,,,,,,,,,,,,,,,,,,,,,,,,,,,,6.00140000000000E+01,5.62622000000000E+01,5.25104000000000E+01,4.87586000000000E+01,4.50068000000000E+01,4.12550000000000E+01,3.93328000000000E+01,3.74106000000000E+01,3.54884000000000E+01,3.35662000000000E+01,3.16440000000000E+01,3.09364000000000E+01,3.02288000000000E+01,,
PAN,,,,,,,,,,,,,,,,,,,,,,,,,,,,,,,,,,,,,,9.32030000000000E+01,9.23618000000000E+01,9.15206000000000E+01,9.06794000000000E+01,8.98382000000000E+01,8.89970000000000E+01,8.77180000000000E+01,8.64390000000000E+01,8.51600000000000E+01,8.38810000000000E+01,8.26020000000000E+01,8.12570000000000E+01,7.99120000000000E+01,,
PER,,,,,,,,,,,,,,,,,,,,,,,,,,,,,,,,,,,,,,7.05000000000000E+01,6.86998000000000E+01,6.68996000000000E+01,6.50994000000000E+01,6.32992000000000E+01,6.14990000000000E+01,6.01390000000000E+01,5.87790000000000E+01,5.74190000000000E+01,5.60590000000000E+01,5.46990000000000E+01,5.35072000000000E+01,5.23154000000000E+01,,
PHL,,,,,,,,,,,,,,,,,,,,,,,,,,,,,,,,,,,,,,4.90620000000000E+01,5.00240000000000E+01,5.09860000000000E+01,5.19480000000000E+01,5.29100000000000E+01,5.38720000000000E+01,5.39148000000000E+01,5.39576000000000E+01,5.40004000000000E+01,5.40432000000000E+01,5.40860000000000E+01,5.25680000000000E+01,5.10500000000000E+01,,
PNG,,,,,,,,,,,,,,,,,,,,,,,,,,,,,,,,,,,,,,7.56480000000000E+01,7.47116000000000E+01,7.37752000000000E+01,7.28388000000000E+01,7.19024000000000E+01,7.09660000000000E+01,7.01502000000000E+01,6.93344000000000E+01,6.85186000000000E+01,6.77028000000000E+01,6.68870000000000E+01,6.59044000000000E+01,6.49218000000000E+01,,
POL,,,,,,,,,,,,,,,,,,,,,,,,,,,,,,,,,,,,,,2.03820000000000E+01,1.92916000000000E+01,1.82012000000000E+01,1.71108000000000E+01,1.60204000000000E+01,1.49300000000000E+01,1.49012000000000E+01,1.48724000000000E+01,1.48436000000000E+01,1.48148000000000E+01,1.47860000000000E+01,1.42686000000000E+01,1.37512000000000E+01,,
PRI,,,,,,,,,,,,,,,,,,,,,,,,,,,,,,,,,,,,,,7.24000000000000E+01,7.09198000000000E+01,6.94396000000000E+01,6.79594000000000E+01,6.64792000000000E+01,6.49990000000000E+01,6.27670000000000E+01,6.05350000000000E+01,5.83030000000000E+01,5.60710000000000E+01,5.38390000000000E+01,5.31898000000000E+01,5.25406000000000E+01,,
PRK,,,,,,,,,,,,,,,,,,,,,,,,,,,,,,,,,,,,,,1.36400000000000E+00,1.28800000000000E+00,1.21200000000000E+00,1.13600000000000E+00,1.06000000000000E+00,9.84000000000000E-01,9.18400000000000E-01,8.52800000000000E-01,7.87200000000000E-01,7.21600000000000E-01,6.56000000000000E-01,6.52000000000000E-01,6.48000000000000E-01,,
PRT,,,,,,,,,,,,,,,,,,,,,,,,,,,,,,,,,,,,,,2.07170000000000E+01,2.06134000000000E+01,2.05098000000000E+01,2.04062000000000E+01,2.03026000000000E+01,2.01990000000000E+01,1.95152000000000E+01,1.88314000000000E+01,1.81476000000000E+01,1.74638000000000E+01,1.67800000000000E+01,1.59278000000000E+01,1.50756000000000E+01,,
PRY,,,,,,,,,,,,,,,,,,,,,,,,,,,,,,,,,,,,,,9.19020000000000E+01,8.99820000000000E+01,8.80620000000000E+01,8.61420000000000E+01,8.42220000000000E+01,8.23020000000000E+01,8.03022000000000E+01,7.83024000000000E+01,7.63026000000000E+01,7.43028000000000E+01,7.23030000000000E+01,7.11840000000000E+01,7.00650000000000E+01,,
PYF,,,,,,,,,,,,,,,,,,,,,,,,,,,,,,,,,,,,,,6.13080000000000E+01,6.01666000000000E+01,5.90252000000000E+01,5.78838000000000E+01,5.67424000000000E+01,5.56010000000000E+01,5.47020000000000E+01,5.38030000000000E+01,5.29040000000000E+01,5.20050000000000E+01,5.11060000000000E+01,5.05030000000000E+01,4.99000000000000E+01,,
QAT,,,,,,,,,,,,,,,,,,,,,,,,,,,,,,,,,,,,,,2.42350000000000E+01,2.30996000000000E+01,2.19642000000000E+01,2.08288000000000E+01,1.96934000000000E+01,1.85580000000000E+01,1.80798000000000E+01,1.76016000000000E+01,1.71234000000000E+01,1.66452000000000E+01,1.61670000000000E+01,1.60284000000000E+01,1.58898000000000E+01,,
ROM,,,,,,,,,,,,,,,,,,,,,,,,,,,,,,,,,,,,,,4.18920000000000E+01,4.05158000000000E+01,3.91396000000000E+01,3.77634000000000E+01,3.63872000000000E+01,3.50110000000000E+01,3.44116000000000E+01,3.38122000000000E+01,3.32128000000000E+01,3.26134000000000E+01,3.20140000000000E+01,3.13636000000000E+01,3.07132000000000E+01,,
RUS,,,,,,,,,,,,,,,,,,,,,,,,,,,,,,,,,,,,,,3.56640000000000E+01,3.41178000000000E+01,3.25716000000000E+01,3.10254000000000E+01,2.94792000000000E+01,2.79330000000000E+01,2.83546000000000E+01,2.87762000000000E+01,2.91978000000000E+01,2.96194000000000E+01,3.00410000000000E+01,2.86748000000000E+01,2.73086000000000E+01,,
RWA,,,,,,,,,,,,,,,,,,,,,,,,,,,,,,,,,,,,,,5.35150000000000E+01,5.17488000000000E+01,4.99826000000000E+01,4.82164000000000E+01,4.64502000000000E+01,4.46840000000000E+01,4.34796000000000E+01,4.22752000000000E+01,4.10708000000000E+01,3.98664000000000E+01,3.86620000000000E+01,3.80292000000000E+01,3.73964000000000E+01,,
SAS,,,,,,,,,,,,,,,,,,,,,,,,,,,,,,,,,,,,,,1.12294688160241E+02,1.08522929025789E+02,1.04743905306093E+02,1.00960362294630E+02,9.71696782849884E+01,9.33734886784550E+01,9.04953649715565E+01,8.76317063034918E+01,8.47857727084885E+01,8.19619842777763E+01,7.91542634824373E+01,7.70307832889532E+01,7.49071606941829E+01,,
SAU,,,,,,,,,,,,,,,,,,,,,,,,,,,,,,,,,,,,,,3.72880000000000E+01,3.39526000000000E+01,3.06172000000000E+01,2.72818000000000E+01,2.39464000000000E+01,2.06110000000000E+01,1.87988000000000E+01,1.69866000000000E+01,1.51744000000000E+01,1.33622000000000E+01,1.15500000000000E+01,1.36516000000000E+01,1.57532000000000E+01,,
SDN,,,,,,,,,,,,,,,,,,,,,,,,,,,,,,,,,,,,,,8.70580000000000E+01,8.43724000000000E+01,8.16868000000000E+01,7.90012000000000E+01,7.63156000000000E+01,7.36300000000000E+01,7.12752000000000E+01,6.89204000000000E+01,6.65656000000000E+01,6.42108000000000E+01,6.18560000000000E+01,6.00804000000000E+01,5.83048000000000E+01,,
SEN,,,,,,,,,,,,,,,,,,,,,,,,,,,,,,,,,,,,,,1.12435000000000E+02,1.11485000000000E+02,1.10535000000000E+02,1.09585000000000E+02,1.08635000000000E+02,1.07685000000000E+02,1.07333800000000E+02,1.06982600000000E+02,1.06631400000000E+02,1.06280200000000E+02,1.05929000000000E+02,1.02684600000000E+02,9.94402000000000E+01,,
SGP,,,,,,,,,,,,,,,,,,,,,,,,,,,,,,,,,,,,,,8.00100000000000E+00,7.80100000000000E+00,7.60100000000000E+00,7.40100000000000E+00,7.20100000000000E+00,7.00100000000000E+00,6.55180000000000E+00,6.10260000000000E+00,5.65340000000000E+00,5.20420000000000E+00,4.75500000000000E+00,5.14900000000000E+00,5.54300000000000E+00,,
SLB,,,,,,,,,,,,,,,,,,,,,,,,,,,,,,,,,,,,,,7.11230000000000E+01,7.09210000000000E+01,7.07190000000000E+01,7.05170000000000E+01,7.03150000000000E+01,7.01130000000000E+01,7.01564000000000E+01,7.01998000000000E+01,7.02432000000000E+01,7.02866000000000E+01,7.03300000000000E+01,6.91822000000000E+01,6.80344000000000E+01,,
SLE,,,,,,,,,,,,,,,,,,,,,,,,,,,,,,,,,,,,,,1.50868000000000E+02,1.49372600000000E+02,1.47877200000000E+02,1.46381800000000E+02,1.44886400000000E+02,1.43391000000000E+02,1.43450000000000E+02,1.43509000000000E+02,1.43568000000000E+02,1.43627000000000E+02,1.43686000000000E+02,1.35790200000000E+02,1.27894400000000E+02,,
SLV,,,,,,,,,,,,,,,,,,,,,,,,,,,,,,,,,,,,,,1.11499000000000E+02,1.07579400000000E+02,1.03659800000000E+02,9.97402000000000E+01,9.58206000000000E+01,9.19010000000000E+01,9.00606000000000E+01,8.82202000000000E+01,8.63798000000000E+01,8.45394000000000E+01,8.26990000000000E+01,8.13902000000000E+01,8.00814000000000E+01,,
SOM,,,,,,,,,,,,,,,,,,,,,,,,,,,,,,,,,,,,,,7.25400000000000E+01,7.24100000000000E+01,7.22800000000000E+01,7.21500000000000E+01,7.20200000000000E+01,7.18900000000000E+01,7.15408000000000E+01,7.11916000000000E+01,7.08424000000000E+01,7.04932000000000E+01,7.01440000000000E+01,6.97116000000000E+01,6.92792000000000E+01,,
SRB,,,,,,,,,,,,,,,,,,,,,,,,,,,,,,,,,,,,,,2.79740000000000E+01,2.75414000000000E+01,2.71088000000000E+01,2.66762000000000E+01,2.62436000000000E+01,2.58110000000000E+01,2.50692000000000E+01,2.43274000000000E+01,2.35856000000000E+01,2.28438000000000E+01,2.21020000000000E+01,2.15308000000000E+01,2.09596000000000E+01,,
SSA,,,,,,,,,,,,,,,,,,,,,,,,,,,,,,,,,,,,,,1.34612150600225E+02,1.33197545073619E+02,1.31782075397010E+02,1.30403205484671E+02,1.29089181804298E+02,1.27842937785853E+02,1.25310541143957E+02,1.22792680376604E+02,1.20276993869690E+02,1.17760882066387E+02,1.15242886438158E+02,1.12714273847123E+02,1.10168641331431E+02,,
SSF,,,,,,,,,,,,,,,,,,,,,,,,,,,,,,,,,,,,,,1.34611804285311E+02,1.33197378939749E+02,1.31782115556494E+02,1.30403459035952E+02,1.29089634142472E+02,1.27843564973047E+02,1.25312158574205E+02,1.22795351900901E+02,1.20280761079863E+02,1.17765755616152E+02,1.15248853144707E+02,1.12720955129868E+02,1.10176028270838E+02,,
STP,,,,,,,,,,,,,,,,,,,,,,,,,,,,,,,,,,,,,,9.45830000000000E+01,9.16752000000000E+01,8.87674000000000E+01,8.58596000000000E+01,8.29518000000000E+01,8.00440000000000E+01,7.72604000000000E+01,7.44768000000000E+01,7.16932000000000E+01,6.89096000000000E+01,6.61260000000000E+01,6.39780000000000E+01,6.18300000000000E+01,,
SUR,,,,,,,,,,,,,,,,,,,,,,,,,,,,,,,,,,,,,,5.08480000000000E+01,4.96450000000000E+01,4.84420000000000E+01,4.72390000000000E+01,4.60360000000000E+01,4.48330000000000E+01,4.37586000000000E+01,4.26842000000000E+01,4.16098000000000E+01,4.05354000000000E+01,3.94610000000000E+01,3.85568000000000E+01,3.76526000000000E+01,,
SVK,,,,,,,,,,,,,,,,,,,,,,,,,,,,,,,,,,,,,,2.73920000000000E+01,2.60490000000000E+01,2.47060000000000E+01,2.33630000000000E+01,2.20200000000000E+01,2.06770000000000E+01,2.05836000000000E+01,2.04902000000000E+01,2.03968000000000E+01,2.03034000000000E+01,2.02100000000000E+01,1.95094000000000E+01,1.88088000000000E+01,,
SVN,,,,,,,,,,,,,,,,,,,,,,,,,,,,,,,,,,,,,,1.27750000000000E+01,1.19168000000000E+01,1.10586000000000E+01,1.02004000000000E+01,9.34220000000000E+00,8.48400000000000E+00,7.78500000000000E+00,7.08600000000000E+00,6.38700000000000E+00,5.68800000000000E+00,4.98900000000000E+00,4.88340000000000E+00,4.77780000000000E+00,,
SWE,,,,,,,,,,,,,,,,,,,,,,,,,,,,,,,,,,,,,,8.92600000000000E+00,8.76400000000000E+00,8.60200000000000E+00,8.44000000000000E+00,8.27800000000000E+00,8.11600000000000E+00,7.68520000000000E+00,7.25440000000000E+00,6.82360000000000E+00,6.39280000000000E+00,5.96200000000000E+00,6.07880000000000E+00,6.19560000000000E+00,,
SWZ,,,,,,,,,,,,,,,,,,,,,,,,,,,,,,,,,,,,,,1.09383000000000E+02,1.07987800000000E+02,1.06592600000000E+02,1.05197400000000E+02,1.03802200000000E+02,1.02407000000000E+02,9.86964000000000E+01,9.49858000000000E+01,9.12752000000000E+01,8.75646000000000E+01,8.38540000000000E+01,8.06692000000000E+01,7.74844000000000E+01,,
SYR,,,,,,,,,,,,,,,,,,,,,,,,,,,,,,,,,,,,,,5.18660000000000E+01,5.05932000000000E+01,4.93204000000000E+01,4.80476000000000E+01,4.67748000000000E+01,4.55020000000000E+01,4.49552000000000E+01,4.44084000000000E+01,4.38616000000000E+01,4.33148000000000E+01,4.27680000000000E+01,4.15206000000000E+01,4.02732000000000E+01,,
TCD,,,,,,,,,,,,,,,,,,,,,,,,,,,,,,,,,,,,,,1.93407000000000E+02,1.92643000000000E+02,1.91879000000000E+02,1.91115000000000E+02,1.90351000000000E+02,1.89587000000000E+02,1.84579200000000E+02,1.79571400000000E+02,1.74563600000000E+02,1.69555800000000E+02,1.64548000000000E+02,1.59267400000000E+02,1.53986800000000E+02,,
TGO,,,,,,,,,,,,,,,,,,,,,,,,,,,,,,,,,,,,,,9.39040000000000E+01,9.09076000000000E+01,8.79112000000000E+01,8.49148000000000E+01,8.19184000000000E+01,7.89220000000000E+01,7.62040000000000E+01,7.34860000000000E+01,7.07680000000000E+01,6.80500000000000E+01,6.53320000000000E+01,6.31308000000000E+01,6.09296000000000E+01,,
THA,,,,,,,,,,,,,,,,,,,,,,,,,,,,,,,,,,,,,,4.57500000000000E+01,4.53198000000000E+01,4.48896000000000E+01,4.44594000000000E+01,4.40292000000000E+01,4.35990000000000E+01,4.35460000000000E+01,4.34930000000000E+01,4.34400000000000E+01,4.33870000000000E+01,4.33340000000000E+01,4.20586000000000E+01,4.07832000000000E+01,,
TJK,,,,,,,,,,,,,,,,,,,,,,,,,,,,,,,,,,,,,,3.57790000000000E+01,3.49242000000000E+01,3.40694000000000E+01,3.32146000000000E+01,3.23598000000000E+01,3.15050000000000E+01,3.08758000000000E+01,3.02466000000000E+01,2.96174000000000E+01,2.89882000000000E+01,2.83590000000000E+01,2.78350000000000E+01,2.73110000000000E+01,,
TKM,,,,,,,,,,,,,,,,,,,,,,,,,,,,,,,,,,,,,,1.77560000000000E+01,1.88112000000000E+01,1.98664000000000E+01,2.09216000000000E+01,2.19768000000000E+01,2.30320000000000E+01,2.23340000000000E+01,2.16360000000000E+01,2.09380000000000E+01,2.02400000000000E+01,1.95420000000000E+01,1.90062000000000E+01,1.84704000000000E+01,,
TMP,,,,,,,,,,,,,,,,,,,,,,,,,,,,,,,,,,,,,,7.19270000000000E+01,7.15600000000000E+01,7.11930000000000E+01,7.08260000000000E+01,7.04590000000000E+01,7.00920000000000E+01,6.92354000000000E+01,6.83788000000000E+01,6.75222000000000E+01,6.66656000000000E+01,6.58090000000000E+01,6.30972000000000E+01,6.03854000000000E+01,,
TON,,,,,,,,,,,,,,,,,,,,,,,,,,,,,,,,,,,,,,2.25030000000000E+01,2.22556000000000E+01,2.20082000000000E+01,2.17608000000000E+01,2.15134000000000E+01,2.12660000000000E+01,2.14730000000000E+01,2.16800000000000E+01,2.18870000000000E+01,2.20940000000000E+01,2.23010000000000E+01,2.14424000000000E+01,2.05838000000000E+01,,
TTO,,,,,,,,,,,,,,,,,,,,,,,,,,,,,,,,,,,,,,4.20840000000000E+01,4.07384000000000E+01,3.93928000000000E+01,3.80472000000000E+01,3.67016000000000E+01,3.53560000000000E+01,3.52252000000000E+01,3.50944000000000E+01,3.49636000000000E+01,3.48328000000000E+01,3.47020000000000E+01,3.40888000000000E+01,3.34756000000000E+01,,
TUN,,,,,,,,,,,,,,,,,,,,,,,,,,,,,,,,,,,,,,8.43400000000000E+00,8.05160000000000E+00,7.66920000000000E+00,7.28680000000000E+00,6.90440000000000E+00,6.52200000000000E+00,6.35320000000000E+00,6.18440000000000E+00,6.01560000000000E+00,5.84680000000000E+00,5.67800000000000E+00,5.41300000000000E+00,5.14800000000000E+00,,
TUR,,,,,,,,,,,,,,,,,,,,,,,,,,,,,,,,,,,,,,5.19950000000000E+01,5.01592000000000E+01,4.83234000000000E+01,4.64876000000000E+01,4.46518000000000E+01,4.28160000000000E+01,4.20860000000000E+01,4.13560000000000E+01,4.06260000000000E+01,3.98960000000000E+01,3.91660000000000E+01,3.74230000000000E+01,3.56800000000000E+01,,
TZA,,,,,,,,,,,,,,,,,,,,,,,,,,,,,,,,,,,,,,1.33285000000000E+02,1.33026200000000E+02,1.32767400000000E+02,1.32508600000000E+02,1.32249800000000E+02,1.31991000000000E+02,1.31680200000000E+02,1.31369400000000E+02,1.31058600000000E+02,1.30747800000000E+02,1.30437000000000E+02,1.30084400000000E+02,1.29731800000000E+02,,
UGA,,,,,,,,,,,,,,,,,,,,,,,,,,,,,,,,,,,,,,1.91015000000000E+02,1.87319400000000E+02,1.83623800000000E+02,1.79928200000000E+02,1.76232600000000E+02,1.72537000000000E+02,1.68015600000000E+02,1.63494200000000E+02,1.58972800000000E+02,1.54451400000000E+02,1.49930000000000E+02,1.45222200000000E+02,1.40514400000000E+02,,
UKR,,,,,,,,,,,,,,,,,,,,,,,,,,,,,,,,,,,,,,4.29980000000000E+01,4.02926000000000E+01,3.75872000000000E+01,3.48818000000000E+01,3.21764000000000E+01,2.94710000000000E+01,2.97340000000000E+01,2.99970000000000E+01,3.02600000000000E+01,3.05230000000000E+01,3.07860000000000E+01,2.98480000000000E+01,2.89100000000000E+01,,
UMC,,,,,,,,,,,,,,,,,,,,,,,,,,,,,,,,,,,,,,3.50209172259496E+01,3.43896615915194E+01,3.36179348577394E+01,3.27948090504541E+01,3.19188743470122E+01,3.10058801433094E+01,3.01528658883093E+01,2.94439668190585E+01,2.89213811111415E+01,2.86053767220141E+01,2.84676276248481E+01,2.85580065433555E+01,2.86816408782043E+01,,
URY,,,,,,,,,,,,,,,,,,,,,,,,,,,,,,,,,,,,,,6.72990000000000E+01,6.65396000000000E+01,6.57802000000000E+01,6.50208000000000E+01,6.42614000000000E+01,6.35020000000000E+01,6.30212000000000E+01,6.25404000000000E+01,6.20596000000000E+01,6.15788000000000E+01,6.10980000000000E+01,6.06864000000000E+01,6.02748000000000E+01,,
USA,,,,,,,,,,,,,,,,,,,,,,,,,,,,,,,,,,,,,,5.05260000000000E+01,4.90400000000000E+01,4.75540000000000E+01,4.60680000000000E+01,4.45820000000000E+01,4.30960000000000E+01,4.27124000000000E+01,4.23288000000000E+01,4.19452000000000E+01,4.15616000000000E+01,4.11780000000000E+01,3.84178000000000E+01,3.56576000000000E+01,,
UZB,,,,,,,,,,,,,,,,,,,,,,,,,,,,,,,,,,,,,,4.14800000000000E+01,3.60502000000000E+01,3.06204000000000E+01,2.51906000000000E+01,1.97608000000000E+01,1.43310000000000E+01,1.42242000000000E+01,1.41174000000000E+01,1.40106000000000E+01,1.39038000000000E+01,1.37970000000000E+01,1.35918000000000E+01,1.33866000000000E+01,,
VCT,,,,,,,,,,,,,,,,,,,,,,,,,,,,,,,,,,,,,,7.61430000000000E+01,7.38354000000000E+01,7.15278000000000E+01,6.92202000000000E+01,6.69126000000000E+01,6.46050000000000E+01,6.34696000000000E+01,6.23342000000000E+01,6.11988000000000E+01,6.00634000000000E+01,5.89280000000000E+01,5.79718000000000E+01,5.70156000000000E+01,,
VEN,,,,,,,,,,,,,,,,,,,,,,,,,,,,,,,,,,,,,,9.40990000000000E+01,9.36986000000000E+01,9.32982000000000E+01,9.28978000000000E+01,9.24974000000000E+01,9.20970000000000E+01,9.16574000000000E+01,9.12178000000000E+01,9.07782000000000E+01,9.03386000000000E+01,8.98990000000000E+01,8.93860000000000E+01,8.88730000000000E+01,,
VIR,,,,,,,,,,,,,,,,,,,,,,,,,,,,,,,,,,,,,,5.18500000000000E+01,4.90050000000000E+01,4.61600000000000E+01,4.33150000000000E+01,4.04700000000000E+01,3.76250000000000E+01,3.59384000000000E+01,3.42518000000000E+01,3.25652000000000E+01,3.08786000000000E+01,2.91920000000000E+01,2.76236000000000E+01,2.60552000000000E+01,,
VNM,,,,,,,,,,,,,,,,,,,,,,,,,,,,,,,,,,,,,,2.70900000000000E+01,2.68252000000000E+01,2.65604000000000E+01,2.62956000000000E+01,2.60308000000000E+01,2.57660000000000E+01,2.59826000000000E+01,2.61992000000000E+01,2.64158000000000E+01,2.66324000000000E+01,2.68490000000000E+01,2.60150000000000E+01,2.51810000000000E+01,,
VUT,,,,,,,,,,,,,,,,,,,,,,,,,,,,,,,,,,,,,,6.19650000000000E+01,6.11820000000000E+01,6.03990000000000E+01,5.96160000000000E+01,5.88330000000000E+01,5.80500000000000E+01,5.72400000000000E+01,5.64300000000000E+01,5.56200000000000E+01,5.48100000000000E+01,5.40000000000000E+01,5.33242000000000E+01,5.26484000000000E+01,,
WBG,,,,,,,,,,,,,,,,,,,,,,,,,,,,,,,,,,,,,,9.64990000000000E+01,9.14730000000000E+01,8.64470000000000E+01,8.14210000000000E+01,7.63950000000000E+01,7.13690000000000E+01,6.77966000000000E+01,6.42242000000000E+01,6.06518000000000E+01,5.70794000000000E+01,5.35070000000000E+01,5.24724000000000E+01,5.14378000000000E+01,,
WLD,,,,,,,,,,,,,,,,,,,,,,,,,,,,,,,,,,,,,,6.72118875709120E+01,6.58846262844383E+01,6.44477863996447E+01,6.29944037897973E+01,6.15288267136478E+01,6.00509341393554E+01,5.87761340519221E+01,5.76132194857179E+01,5.65962302944972E+01,5.57471947909924E+01,5.50328236792980E+01,5.44460952672347E+01,5.38571601446676E+01,,
WSM,,,,,,,,,,,,,,,,,,,,,,,,,,,,,,,,,,,,,,4.54430000000000E+01,4.37202000000000E+01,4.19974000000000E+01,4.02746000000000E+01,3.85518000000000E+01,3.68290000000000E+01,3.51210000000000E+01,3.34130000000000E+01,3.17050000000000E+01,2.99970000000000E+01,2.82890000000000E+01,2.77362000000000E+01,2.71834000000000E+01,,
YEM,,,,,,,,,,,,,,,,,,,,,,,,,,,,,,,,,,,,,,1.09053000000000E+02,1.05488400000000E+02,1.01923800000000E+02,9.83592000000000E+01,9.47946000000000E+01,9.12300000000000E+01,8.87528000000000E+01,8.62756000000000E+01,8.37984000000000E+01,8.13212000000000E+01,7.88440000000000E+01,7.62882000000000E+01,7.37324000000000E+01,,
ZAF,,,,,,,,,,,,,,,,,,,,,,,,,,,,,,,,,,,,,,8.05850000000000E+01,7.86124000000000E+01,7.66398000000000E+01,7.46672000000000E+01,7.26946000000000E+01,7.07220000000000E+01,6.84096000000000E+01,6.60972000000000E+01,6.37848000000000E+01,6.14724000000000E+01,5.91600000000000E+01,5.74142000000000E+01,5.56684000000000E+01,,
ZAR,,,,,,,,,,,,,,,,,,,,,,,,,,,,,,,,,,,,,,2.42038000000000E+02,2.39747000000000E+02,2.37456000000000E+02,2.35165000000000E+02,2.32874000000000E+02,2.30583000000000E+02,2.24749200000000E+02,2.18915400000000E+02,2.13081600000000E+02,2.07247800000000E+02,2.01414000000000E+02,1.95249200000000E+02,1.89084400000000E+02,,
ZMB,,,,,,,,,,,,,,,,,,,,,,,,,,,,,,,,,,,,,,1.43096000000000E+02,1.46394400000000E+02,1.49692800000000E+02,1.52991200000000E+02,1.56289600000000E+02,1.59588000000000E+02,1.57036000000000E+02,1.54484000000000E+02,1.51932000000000E+02,1.49380000000000E+02,1.46828000000000E+02,1.45155400000000E+02,1.43482800000000E+02,,
ZWE,,,,,,,,,,,,,,,,,,,,,,,,,,,,,,,,,,,,,,1.06296000000000E+02,1.00067600000000E+02,9.38392000000000E+01,8.76108000000000E+01,8.13824000000000E+01,7.51540000000000E+01,7.30454000000000E+01,7.09368000000000E+01,6.88282000000000E+01,6.67196000000000E+01,6.46110000000000E+01,6.23600000000000E+01,6.01090000000000E+01,,
