"Country Code",1960,1961,1962,1963,1964,1965,1966,1967,1968,1969,1970,1971,1972,1973,1974,1975,1976,1977,1978,1979,1980,1981,1982,1983,1984,1985,1986,1987,1988,1989,1990,1991,1992,1993,1994,1995,1996,1997,1998,1999,2000,2001,2002,2003,2004,2005,2006,2007,2008,2009,2010,2011AGO,,,,,,,,,,,,,,,,,,,,,,,,,,,,,,,,,,,,,,,,,,,,,,,,2.48000000000000E+01,,,,
ARG,,,,,,,,,,,,,,,,,,,,,,,,,,,,,,,,,,,,,,,,,,,,,,,3.26000000000000E+01,3.30000000000000E+01,3.38000000000000E+01,,,
ARM,,,,,,,,,,,,,,,,,,,,,,,,,,,,,,,,,,,,,,,,,2.89000000000000E+01,,,,,3.59000000000000E+01,,,,,,
AZE,,,,,,,,,,,,,,,,,,,,,,,,,,,,,,,,,,,,,,,,,,,,,,,2.47000000000000E+01,,,,,
BEN,,,,,,,,,,,,,,,,,,,,,,,,,,,,,,,,,,,,,1.75000000000000E+01,,,,,2.08000000000000E+01,,,,,2.25000000000000E+01,,,,,
BFA,,,,,,,,,,,,,,,,,,,,,,,,,,,,,,,,,,6.50000000000000E+00,,,,,,6.80000000000000E+00,,,,9.40000000000000E+00,,,,,,,,
BGD,,,,,,,,,,,,,,,,,,,,,,,,,,,,,,,,,,,8.70000000000000E+00,,,9.30000000000000E+00,,,8.70000000000000E+00,,,,1.01000000000000E+01,,,1.28000000000000E+01,,,,
BLR,,,,,,,,,,,,,,,,,,,,,,,,,,,,,,,,,,,,,,,,,,,,,,5.39000000000000E+01,,,,,,
BOL,,,,,,,,,,,,,,,,,,,,,,,,,,,,,,,,,,,1.91000000000000E+01,,,,1.95000000000000E+01,,,,,2.02000000000000E+01,,,,,,,,
BRA,,,,,,,,,,,,,,,,,,,,,,,,,,,,,,,,2.12000000000000E+01,,,,,2.00000000000000E+01,,,,,,,,,,,,,,,
BTN,,,,,,,,,,,,,,,,,,,,,,,,,,,,,,,,,,,,,,,,,,,,,,2.82000000000000E+01,,,,,,
CAF,,,,,,,,,,,,,,,,,,,,,,,,,,,,,,,,,,,,2.10000000000000E+01,,,,,,,,,,,,,,,,
CIV,,,,,,,,,,,,,,,,,,,,,,,,,,,,,,,,,,,1.51000000000000E+01,,,,,1.44000000000000E+01,,,,,,,,,,,,
CMR,,,,,,,,,,,,,,,,,,,,,,,,,,,,,,,,1.79000000000000E+01,,,,,,,2.24000000000000E+01,,,,,,2.40000000000000E+01,,,,,,,
COG,,,,,,,,,,,,,,,,,,,,,,,,,,,,,,,,,,,,,,,,,,,,,,2.33000000000000E+01,,,,,,
COL,,,,,,,,,,,,,,,,,,,,,,,,,,,,,,,2.27000000000000E+01,,,,,2.36000000000000E+01,,,2.30000000000000E+01,2.40000000000000E+01,2.80000000000000E+01,2.20000000000000E+01,2.10000000000000E+01,2.20000000000000E+01,2.10000000000000E+01,3.03000000000000E+01,2.00000000000000E+01,1.90000000000000E+01,,,,
COM,,,,,,,,,,,,,,,,,,,,,,,,,,,,,,,,,,,,,3.22000000000000E+01,,,,,,,,,,,,,,,
CUB,,,,,,,,,,,,,,,,,,,,,,,,,,,,,,,,,,,,,,,,,,,,,,,4.64000000000000E+01,,,,,
DOM,,,,,,,,,,,,,,,,,,,,,,,,,,,,,,,,2.50000000000000E+01,,,,,2.68000000000000E+01,,,3.28000000000000E+01,,,2.78000000000000E+01,,,,,3.52000000000000E+01,,,,
EGY,,,,,,,,,,,,,,,,,,,,,,,,,,,,,,,,,1.18000000000000E+01,,,1.26000000000000E+01,,,,,1.20000000000000E+01,,,,,1.23000000000000E+01,,,,,,
ERI,,,,,,,,,,,,,,,,,,,,,,,,,,,,,,,,,,,,3.08000000000000E+01,,,,,,,4.67000000000000E+01,,,,,,,,,
ETH,,,,,,,,,,,,,,,,,,,,,,,,,,,,,,,,,,,,,,,,,2.36000000000000E+01,,,,,2.28000000000000E+01,,,,,,
GAB,,,,,,,,,,,,,,,,,,,,,,,,,,,,,,,,,,,,,,,,,2.60000000000000E+01,,,,,,,,,,,
GHA,,,,,,,,,,,,,,,,,,,,,,,,,,,,,,,,,,3.71000000000000E+01,,,,,3.66000000000000E+01,,,,,3.38000000000000E+01,,,,,3.37000000000000E+01,,,
GIN,,,,,,,,,,,,,,,,,,,,,,,,,,,,,,,,,,,,,,,,1.28000000000000E+01,,,,,,1.67000000000000E+01,,,,,,
GTM,,,,,,,,,,,,,,,,,,,,,,,,,,,,,,,,,,,,1.98000000000000E+01,,,,1.95000000000000E+01,,,,,,,,,,,,
HND,,,,,,,,,,,,,,,,,,,,,,,,,,,,,,,,,,,,,,,,,,,,,,2.60000000000000E+01,2.60000000000000E+01,,,,,
HRV,,,,,,,,,,,,,,,,,,,,,,,,,,,,,,,,,,,,,,,,,,,,,,,,,2.44000000000000E+01,,,
HTI,,,,,,,,,,,,,,,,,,,,,,,,,,,,,,,,,,,,3.86000000000000E+01,,,,,4.27000000000000E+01,,,,,4.37000000000000E+01,4.37000000000000E+01,,,,,
IDN,,,,,,,,,,,,,,,,,,,,,,,,,,,,,,,,1.30000000000000E+01,,,1.28000000000000E+01,,,1.22000000000000E+01,,,,,,1.18000000000000E+01,,,,1.29000000000000E+01,,,,
IND,,,,,,,,,,,,,,,,,,,,,,,,,,,,,,,,,,9.20000000000000E+00,,,,,,1.03000000000000E+01,,,,,,,1.44000000000000E+01,,,,,
IRQ,,,,,,,,,,,,,,,,,,,,,,,,,,,,,,,,,,,,,,,,,,,,,,,1.08000000000000E+01,,,,,
JOR,,,,,,,,,,,,,,,,,,,,,,,,,,,,,,,,,,,,,,9.60000000000000E+00,,,,,1.15000000000000E+01,,,,,1.03000000000000E+01,,1.14000000000000E+01,,
KAZ,,,,,,,,,,,,,,,,,,,,,,,,,,,,,,,,,,,,3.20000000000000E+01,,,,3.34000000000000E+01,,,,,,,,,,,,
KEN,,,,,,,,,,,,,,,,,,,,,,,,,,,,,,,,,,3.27000000000000E+01,,,,,3.17000000000000E+01,,,,,3.17000000000000E+01,,,,,,,,
KGZ,,,,,,,,,,,,,,,,,,,,,,,,,,,,,,,,,,,,,,2.64000000000000E+01,,,,,,,,,,,,,,
KHM,,,,,,,,,,,,,,,,,,,,,,,,,,,,,,,,,,,,,,,,,2.54000000000000E+01,,,,,2.35000000000000E+01,,,,,,
LBR,,,,,,,,,,,,,,,,,,,,,,,,,,,,,,,,,,,,,,,,,,,,,,,,3.11000000000000E+01,,3.00000000000000E+01,,
LSO,,,,,,,,,,,,,,,,,,,,,,,,,,,,,,,,,,,,,,,,,,,,,3.73000000000000E+01,,,,,,,
MAR,,,,,,,,,,,,,,,,,,,,,,,,,,,,,,,,,1.63000000000000E+01,,,,,,,,,,,,1.71000000000000E+01,,,,,,,
MDA,,,,,,,,,,,,,,,,,,,,,,,,,,,,,,,,,,,,,,,,,,,,,,3.37000000000000E+01,,,,,,
MDG,,,,,,,,,,,,,,,,,,,,,,,,,,,,,,,,,2.17000000000000E+01,,,,,2.16000000000000E+01,,,,,,,2.17000000000000E+01,,,,,,,
MDV,,,,,,,,,,,,,,,,,,,,,,,,,,,,,,,,,,,,,,,,,,,,,,3.37000000000000E+01,,,,3.50000000000000E+01,,
MKD,,,,,,,,,,,,,,,,,,,,,,,,,,,,,,,,,,,,,,,,,,,,,,,7.60000000000000E+00,,,,,
MLI,,,,,,,,,,,,,,,,,,,,,,,,,,,,,,,,,,,,,8.30000000000000E+00,,,,,1.13000000000000E+01,,,,,1.23000000000000E+01,,,,,
MNG,,,,,,,,,,,,,,,,,,,,,,,,,,,,,,,,,,,,,,,,,,,,,,,,,2.85000000000000E+01,,,
MOZ,,,,,,,,,,,,,,,,,,,,,,,,,,,,,,,,,,,,,,2.68000000000000E+01,,,,,,2.64000000000000E+01,,,,,,,,
MRT,,,,,,,,,,,,,,,,,,,,,,,,,,,,,,,,,,,,,,,,,,2.91000000000000E+01,,,,,,,,,,
MWI,,,,,,,,,,,,,,,,,,,,,,,,,,,,,,,,,2.46000000000000E+01,,,,,,,,2.66000000000000E+01,,,,2.47000000000000E+01,,,,,,,
NAM,,,,,,,,,,,,,,,,,,,,,,,,,,,,,,,,,3.08000000000000E+01,,,,,,,,4.15000000000000E+01,,,,,,,4.40000000000000E+01,,,,
NER,,,,,,,,,,,,,,,,,,,,,,,,,,,,,,,,,9.60000000000000E+00,,,,,,1.32000000000000E+01,,,,,,,,1.85000000000000E+01,,,,,
NGA,,,,,,,,,,,,,,,,,,,,,,,,,,,,,,,1.43000000000000E+01,,,,,,,,,1.69000000000000E+01,,,,1.66000000000000E+01,,,,,,,,
NIC,,,,,,,,,,,,,,,,,,,,,,,,,,,,,,,,,,,,,,,3.09000000000000E+01,,,3.09000000000000E+01,,,,,,,,,,
NPL,,,,,,,,,,,,,,,,,,,,,,,,,,,,,,,,,,,,,1.24000000000000E+01,,,,,1.61000000000000E+01,,,,,2.34000000000000E+01,,,,,
PAK,,,,,,,,,,,,,,,,,,,,,,,,,,,,,,,,7.10000000000000E+00,,,,,,,,,,,,,,,,1.04000000000000E+01,,,,
PER,,,,,,,,,,,,,,,,,,,,,,,,,,,,,,,,,1.52000000000000E+01,,,,1.80000000000000E+01,,,,1.95000000000000E+01,,,,,,2.22000000000000E+01,,,,,
PHL,,,,,,,,,,,,,,,,,,,,,,,,,,,,,,,,,,1.40000000000000E+01,,,,,1.45000000000000E+01,,1.75000000000000E+01,,,1.54000000000000E+01,,,1.87000000000000E+01,,,,,
PRY,,,,,,,,,,,,,,,,,,,,,,,,,,,,,,,1.70000000000000E+01,,,,,,,,,,,,,,,,,,,,,
RWA,,,,,,,,,,,,,,,,,,,,,,,,,,,,,,,,,2.08000000000000E+01,,,,,,,,3.61000000000000E+01,,,,,3.39000000000000E+01,,,,,,
SDN,,,,,,,,,,,,,,,,,,,,,,,,,,,,,,,,,,,,,,,,,,,,,,,1.85000000000000E+01,,,,,
SEN,,,,,,,,,,,,,,,,,,,,,,,,,,,-2.60000000000000E+01,,,,,,,1.58000000000000E+01,,,,1.84000000000000E+01,,,,,,,,2.31000000000000E+01,,,,2.00000000000000E+01,,
SRB,,,,,,,,,,,,,,,,,,,,,,,,,,,,,,,,,,,,,,,,,,,,2.51000000000000E+01,,2.63000000000000E+01,,2.87000000000000E+01,,,,
SWZ,,,,,,,,,,,,,,,,,,,,,,,,,,,,,,,,,,,,,,,,,,,,,,,4.79000000000000E+01,4.79000000000000E+01,,,,
TCD,,,,,,,,,,,,,,,,,,,,,,,,,,,,,,,,,,,,,,2.20000000000000E+01,,,,,,,1.96000000000000E+01,,,,,,,
TGO,,,,,,,,,,,,,,,,,,,,,,,,,,,,,,,,,,,,,,,2.43000000000000E+01,,,,,,,,,,,,,
THA,,,,,,,,,,,,,,,,,,,,,,,,,,,,,,,,,,,,,,,,,,,,,,,3.00000000000000E+01,,,,,
TKM,,,,,,,,,,,,,,,,,,,,,,,,,,,,,,,,,,,,,,,,,2.65000000000000E+01,,,,,,,,,,,
TUR,,,,,,,,,,,,,,,,,,,,,,,,,,,,,,,,,,1.00000000000000E+01,,,,,1.04000000000000E+01,,,,,,,,,,,,,
TZA,,,,,,,,,,,,,,,,,,,,,,,,,,,,,,,,,1.86000000000000E+01,,,,2.18000000000000E+01,,,2.31000000000000E+01,,,,,2.45000000000000E+01,2.45000000000000E+01,,,,,,
UGA,,,,,,,,,,,,,,,,,,,,,,,,,,,,,,,,,,,,2.44000000000000E+01,,,,,,2.75000000000000E+01,,,,,2.99000000000000E+01,2.99000000000000E+01,,,,
UKR,,,,,,,,,,,,,,,,,,,,,,,,,,,,,,,,,,,,,,,,,,,,,,,,4.94000000000000E+01,,,,
UZB,,,,,,,,,,,,,,,,,,,,,,,,,,,,,,,,,,,,,2.22000000000000E+01,,,,,,,,,,,,,,,
VNM,,,,,,,,,,,,,,,,,,,,,,,,,,,,,,,,,,,,,,2.46000000000000E+01,,,,,2.68000000000000E+01,,,,,,,,,
YEM,,,,,,,,,,,,,,,,,,,,,,,,,,,,,,,,,1.22000000000000E+01,,,,,9.50000000000000E+00,,,,,,,,,,,,,,
ZAF,,,,,,,,,,,,,,,,,,,,,,,,,,,,,,,,,,,,,,,4.19000000000000E+01,,,,,,,,,,,,,
ZAR,,,,,,,,,,,,,,,,,,,,,,,,,,,,,,,,,,,,,,,,,,,,,,,,2.08000000000000E+01,,,,
ZMB,,,,,,,,,,,,,,,,,,,,,,,,,,,,,,,,,1.62000000000000E+01,,3.27000000000000E+01,,2.31000000000000E+01,,,3.35000000000000E+01,,,2.26000000000000E+01,,,,,2.43000000000000E+01,,,,
ZWE,,,,,,,,,,,,,,,,,,,,,,,,,,,,,,,,,,,3.27000000000000E+01,,,,,3.35000000000000E+01,,,,,,,3.77000000000000E+01,,,,,
