"Country Code",1960,1961,1962,1963,1964,1965,1966,1967,1968,1969,1970,1971,1972,1973,1974,1975,1976,1977,1978,1979,1980,1981,1982,1983,1984,1985,1986,1987,1988,1989,1990,1991,1992,1993,1994,1995,1996,1997,1998,1999,2000,2001,2002,2003,2004,2005,2006,2007,2008,2009,2010,2011AGO,,,,,,,,,,,,,,,,,,,,,,,,,,,,,,,,,,,,,,,,,,,,,,,,2.86000000000000E+01,,,,
ALB,,,,,,,,,,,,,,,,,,,,,,,,,,,,,,,,,,,,,,,,,,,6.40000000000000E+00,,,,,,,,,
ARM,,,,,,,,,,,,,,,,,,,,,,,,,,,,,,,,,,,,,,,,,6.00000000000000E+00,,,,,4.70000000000000E+00,,,,,,
AZE,,,,,,,,,,,,,,,,,,,,,,,,,,,,,,,,,,,,,,,,,,,,,,,6.30000000000000E+00,,,,,
BDI,,,,,,,,,,,,,,,,,,,,,,,,,,,,5.90000000000000E+00,,,,,,,,,,,,,,,,,,,,,,,,
BEN,,,,,,,,,,,,,,,,,,,,,,,,,,,,,,,,,,,,,2.60000000000000E+01,,,,,2.15000000000000E+01,,,,,2.14000000000000E+01,,,,,
BFA,,,,,,,,,,,,,,,,,,,,,,,,,,,,,,,,,,3.11000000000000E+01,,,,,,2.54000000000000E+01,,,,2.32000000000000E+01,,,,,,,,
BGD,,,,,,,,,,,,,,,,,,,,,,,,,,,,,,,,,,,3.30000000000000E+01,,,3.56000000000000E+01,,,3.47000000000000E+01,,,,3.27000000000000E+01,,,3.27000000000000E+01,,,,
BOL,,,,,,,,,,,,,,,,,,,,,,,,,,,,,,1.72000000000000E+01,,,,,1.75000000000000E+01,,,,1.37000000000000E+01,,,,,1.57000000000000E+01,,,,,1.79000000000000E+01,,,
BRA,,,,,,,,,,,,,,,,,,,,,,,,,,,1.33000000000000E+01,,,,,1.47000000000000E+01,,,,,1.80000000000000E+01,,,,,,,,,,,,,,,
BWA,,,,,,,,,,,,,,,,,,,,,,,,,,,,,2.84000000000000E+01,,,,,,,,,,,,,,,,,,,,,,,
CAF,,,,,,,,,,,,,,,,,,,,,,,,,,,,,,,,,,,,3.61000000000000E+01,,,,,,,,,,,,,,,,
CIV,,,,,,,,,,,,,,,,,,,,,,,,,,,,,,,,,,,3.50000000000000E+01,,,,,3.10000000000000E+01,,,,,,,,,,,,
CMR,,,,,,,,,,,,,,,,,,,,,,,,,,,,,,,,3.50000000000000E+01,,,,,,,3.12000000000000E+01,,,,,,2.84000000000000E+01,,,,,,,
COG,,,,,,,,,,,,,,,,,,,,,,,,,,,,,,,,,,,,,,,,,,,,,,2.73000000000000E+01,,,,,,
COL,,,,,,,,,,,,,,,,,,,,,,,,,,,1.36000000000000E+01,,,,1.28000000000000E+01,,,,,1.74000000000000E+01,,,,,1.91000000000000E+01,,,,,2.05000000000000E+01,,,,,1.95000000000000E+01,
COM,,,,,,,,,,,,,,,,,,,,,,,,,,,,,,,,,,,,,9.10000000000000E+00,,,,,,,,,,,,,,,
DOM,,,,,,,,,,,,,,,,,,,,,,,,,,,1.74000000000000E+01,,,,,1.76000000000000E+01,,,,,2.27000000000000E+01,,,2.08000000000000E+01,,,2.33000000000000E+01,,,,,2.06000000000000E+01,,,,
ECU,,,,,,,,,,,,,,,,,,,,,,,,,,,,1.70000000000000E+01,,,,,,,,,,,,,,,,,1.94000000000000E+01,,,,,,,
EGY,,,,,,,,,,,,,,,,,,,,,,,,,,,,,9.80000000000000E+00,,,,9.90000000000000E+00,,,1.02000000000000E+01,,,,,8.50000000000000E+00,,,,,9.40000000000000E+00,,,9.60000000000000E+00,,,
ERI,,,,,,,,,,,,,,,,,,,,,,,,,,,,,,,,,,,,2.30000000000000E+01,,,,,,,1.40000000000000E+01,,,,,,,,,
ETH,,,,,,,,,,,,,,,,,,,,,,,,,,,,,,,,,,,,,,,,,1.63000000000000E+01,,,,,1.66000000000000E+01,,,,,,
GAB,,,,,,,,,,,,,,,,,,,,,,,,,,,,,,,,,,,,,,,,,3.27000000000000E+01,,,,,,,,,,,
GEO,,,,,,,,,,,,,,,,,,,,,,,,,,,,,,,,,,,,,,,,,,,,,,1.02000000000000E+01,,,,,,
GHA,,,,,,,,,,,,,,,,,,,,,,,,,,,,,2.30000000000000E+01,,,,,2.15000000000000E+01,,,,,1.41000000000000E+01,,,,,1.38000000000000E+01,,,,,1.33000000000000E+01,,,
GIN,,,,,,,,,,,,,,,,,,,,,,,,,,,,,,,,,,,,,,,,3.72000000000000E+01,,,,,,3.18000000000000E+01,,,,,,
GTM,,,,,,,,,,,,,,,,,,,,,,,,,,,,2.28000000000000E+01,,,,,,,,2.11000000000000E+01,,,,2.16000000000000E+01,,,1.92000000000000E+01,,,,,,2.18000000000000E+01,,,
HND,,,,,,,,,,,,,,,,,,,,,,,,,,,,,,,,,,,,,,,,,,,,,,,2.15000000000000E+01,,,,,
HRV,,,,,,,,,,,,,,,,,,,,,,,,,,,,,,,,,,,,,,,,3.80000000000000E+00,3.60000000000000E+00,5.50000000000000E+00,5.30000000000000E+00,5.00000000000000E+00,4.40000000000000E+00,4.40000000000000E+00,4.40000000000000E+00,4.20000000000000E+00,4.06000000000000E+00,3.72000000000000E+00,,
HTI,,,,,,,,,,,,,,,,,,,,,,,,,,,,,,,,,,,,1.45000000000000E+01,,,,,1.80000000000000E+01,,,,,,1.40000000000000E+01,,,,,
IDN,,,,,,,,,,,,,,,,,,,,,,,,,,,,1.09000000000000E+01,,,,1.22000000000000E+01,,,1.12000000000000E+01,,,1.22000000000000E+01,,,,,,1.04000000000000E+01,,,,8.50000000000000E+00,,,,
IND,,,,,,,,,,,,,,,,,,,,,,,,,,,,,,,,,,2.32000000000000E+01,,,,,,2.06000000000000E+01,,,,,,,1.60000000000000E+01,,,,,
JAM,,,,,,,,,,,,,,,,,,,,,,,,,,,,,,,,,,,,,,,,,,,,,,,,,1.37000000000000E+01,,,
JOR,,,,,,,,,,,,,,,,,,,,,,,,,,,,,,,7.40000000000000E+00,,,,,,,5.70000000000000E+00,,,,,4.30000000000000E+00,,,,,4.10000000000000E+00,,4.70000000000000E+00,,
KAZ,,,,,,,,,,,,,,,,,,,,,,,,,,,,,,,,,,,,8.70000000000000E+00,,,,6.70000000000000E+00,,,,,,,7.10000000000000E+00,,,,,
KEN,,,,,,,,,,,,,,,,,,,,,,,,,,,,,,2.54000000000000E+01,,,,2.05000000000000E+01,,,,,2.09000000000000E+01,,,,,2.30000000000000E+01,,,,,,1.77000000000000E+01,,
KGZ,,,,,,,,,,,,,,,,,,,,,,,,,,,,,,,,,,,,,,9.40000000000000E+00,,,,,,,,,,,,,,
KHM,,,,,,,,,,,,,,,,,,,,,,,,,,,,,,,,,,,,,,,,,8.20000000000000E+00,,,,,7.80000000000000E+00,,,,,,
LAO,,,,,,,,,,,,,,,,,,,,,,,,,,,,,,,,,,,,,,,,,,,,,,1.70000000000000E+01,,,,,,
LBR,,,,,,,,,,,,,,,,,,,,,,,,,,,4.54000000000000E+01,,,,,,,,,,,,,,,,,,,,,3.21000000000000E+01,,3.76000000000000E+01,,
LKA,,,,,,,,,,,,,,,,,,,,,,,,,,,,5.00000000000000E+00,,,,,,,,,,,,,,,,,,,,,,,,
LSO,,,,,,,,,,,,,,,,,,,,,,,,,,,,,,,,,,,,,,,,,,,,,2.02000000000000E+01,,,,,,,
MAR,,,,,,,,,,,,,,,,,,,,,,,,,,,,7.60000000000000E+00,,,,,7.10000000000000E+00,,,,,,,,,,,,6.50000000000000E+00,,,,,,,
MDA,,,,,,,,,,,,,,,,,,,,,,,,,,,,,,,,,,,,,,,,,,,,,,6.10000000000000E+00,,,,,,
MDG,,,,,,,,,,,,,,,,,,,,,,,,,,,,,,,,,2.90000000000000E+01,,,,,3.57000000000000E+01,,,,,,,3.40000000000000E+01,,,,,3.17000000000000E+01,,
MDV,,,,,,,,,,,,,,,,,,,,,,,,,,,,,,,,,,,,,,,,,,,,,,6.10000000000000E+00,,,,2.10000000000000E+00,,
MEX,,,,,,,,,,,,,,,,,,,,,,,,,,,,1.79000000000000E+01,,,,,,,,,,,,,,,,,,,,,,,,
MLI,,,,,,,,,,,,,,,,,,,,,,,,,,,,5.06000000000000E+01,,,,,,,,,4.15000000000000E+01,,,,,4.04000000000000E+01,,,,,3.55000000000000E+01,,,,,
MOZ,,,,,,,,,,,,,,,,,,,,,,,,,,,,,,,,,,,,,,4.00000000000000E+01,,,,,,4.10000000000000E+01,,,,,,,,
MRT,,,,,,,,,,,,,,,,,,,,,,,,,,,,,,,,,,,,,,,,,,1.58000000000000E+01,,,,,,,,,,
MWI,,,,,,,,,,,,,,,,,,,,,,,,,,,,,,,,,3.47000000000000E+01,,,,,,,,3.30000000000000E+01,,,,3.41000000000000E+01,,,,,,,
NAM,,,,,,,,,,,,,,,,,,,,,,,,,,,,,,,,,2.15000000000000E+01,,,,,,,,1.76000000000000E+01,,,,,,,1.54000000000000E+01,,,,
NER,,,,,,,,,,,,,,,,,,,,,,,,,,,,,,,,,3.62000000000000E+01,,,,,,4.31000000000000E+01,,,,,,,,3.93000000000000E+01,,,,,
NGA,,,,,,,,,,,,,,,,,,,,,,,,,,,1.04000000000000E+01,,,,2.83000000000000E+01,,,,,,,,,2.19000000000000E+01,,,,2.52000000000000E+01,,,,,2.29000000000000E+01,,,
NIC,,,,,,,,,,,,,,,,,,,,,,,,,,,,,,,,,,,,,,,2.70000000000000E+01,,,2.47000000000000E+01,,,,,2.52000000000000E+01,,,,,
NPL,,,,,,,,,,,,,,,,,,,,,,,,,,,,,,,,,,,,,2.39000000000000E+01,,,,,2.14000000000000E+01,,,,,1.85000000000000E+01,,,,,
PAK,,,,,,,,,,,,,,,,,,,,,,,,,,,,,,,,1.57000000000000E+01,,,,,,,,,,,,,,,,9.10000000000000E+00,,,,
PER,,,,,,,,,,,,,,,,,,,,,,,,,,,1.27000000000000E+01,,,,,,1.14000000000000E+01,,,,1.34000000000000E+01,,,,1.30000000000000E+01,,,,,,2.64000000000000E+01,,,,,
PHL,,,,,,,,,,,,,,,,,,,,,,,,,,,,,,,,,,6.50000000000000E+00,,,,,7.20000000000000E+00,,,,,8.00000000000000E+00,,,,,9.90000000000000E+00,,,
PRY,,,,,,,,,,,,,,,,,,,,,,,,,,,,,,,1.68000000000000E+01,,,,,,,,,,,,,,1.32000000000000E+01,,,,1.16000000000000E+01,,,
RWA,,,,,,,,,,,,,,,,,,,,,,,,,,,,,,,,,1.05000000000000E+01,,,,,,,,6.80000000000000E+00,,,,,4.10000000000000E+00,,,5.70000000000000E+00,,,
SAS,,,,,,,,,,,,,,,,,,,,,,,,,,,,,,,,,,2.32000000000000E+01,,,,,,2.06000000000000E+01,,,,,,,1.60662256111935E+01,,,,,
SDN,,,,,,,,,,,,,,,,,,,,,,,,,,,,,,,1.09000000000000E+01,,,,,,,,,,,,,,,,,,,,,
SEN,,,,,,,,,,,,,,,,,,,,,,,,,,,3.05000000000000E+01,,,,,,,2.38000000000000E+01,,,,2.23000000000000E+01,,,,,,,,1.89000000000000E+01,,,,1.75000000000000E+01,,
SLE,,,,,,,,,,,,,,,,,,,,,,,,,,,,,,,,,,,,,,,,,,,,,,,,,3.40000000000000E+01,,,
SLV,,,,,,,,,,,,,,,,,,,,,,,,,,2.66000000000000E+01,,,,,,,,,,,,,,,,,2.16000000000000E+01,,,,,,2.28000000000000E+01,,,
SWZ,,,,,,,,,,,,,,,,,,,,,,,,,,,,,,,,,,,,,,,,,,,,,,,,2.26000000000000E+01,,,,
TCD,,,,,,,,,,,,,,,,,,,,,,,,,,,,,,,,,,,,,,3.85000000000000E+01,,,,,,,3.66000000000000E+01,,,,,,,
TGO,,,,,,,,,,,,,,,,,,,,,,,,,,,,,2.65000000000000E+01,,,,,,,,,,1.94000000000000E+01,,,,,,,,,,,,,
THA,,,,,,,,,,,,,,,,,,,,,,,,,,,,1.05000000000000E+01,,,,,,,,,,,,,,,,,,,,,,,,
TKM,,,,,,,,,,,,,,,,,,,,,,,,,,,,,,,,,,,,,,,,,4.30000000000000E+00,,,,,,,,,,,
TMP,,,,,,,,,,,,,,,,,,,,,,,,,,,,,,,,,,,,,,,,,,,,,,,,,,7.20000000000000E+00,,
TTO,,,,,,,,,,,,,,,,,,,,,,,,,,,,1.38000000000000E+01,,,,,,,,,,,,,,,,,,,,,,,,
TUN,,,,,,,,,,,,,,,,,,,,,,,,,,,,,2.90000000000000E+00,,,,,,,,,,,,,,,,,,,,,,,
TUR,,,,,,,,,,,,,,,,,,,,,,,,,,,,,,,,,,9.30000000000000E+00,,,,,1.02000000000000E+01,,,,,,,,,,,,,
TZA,,,,,,,,,,,,,,,,,,,,,,,,,,,,,,,,,2.90000000000000E+01,,,,2.61000000000000E+01,,,2.45000000000000E+01,,,,,,2.60000000000000E+01,,,,,,
UGA,,,,,,,,,,,,,,,,,,,,,,,,,,,,,3.72000000000000E+01,3.72000000000000E+01,,,,,,4.29000000000000E+01,,,,,,3.14000000000000E+01,,,,,2.49000000000000E+01,,,,,
UKR,,,,,,,,,,,,,,,,,,,,,,,,,,,,,,,,,,,,,,,,,,,,,,,,4.20000000000000E+00,,,,
UZB,,,,,,,,,,,,,,,,,,,,,,,,,,,,,,,,,,,,,9.50000000000000E+00,,,,,,,,,,,,,,,
VNM,,,,,,,,,,,,,,,,,,,,,,,,,,,,,,,,,,,,,,5.70000000000000E+00,,,,,3.40000000000000E+00,,,,,,,,,
YEM,,,,,,,,,,,,,,,,,,,,,,,,,,,,,,,,,1.41000000000000E+01,,,,,1.55000000000000E+01,,,,,,,,,,,,,,
ZAF,,,,,,,,,,,,,,,,,,,,,,,,,,,,,,,,,,,,,,,1.60000000000000E+01,,,,,,,,,,,,,
ZAR,,,,,,,,,,,,,,,,,,,,,,,,,,,,,,,,,,,,,,,,,,,,,,,,2.38000000000000E+01,,,,
ZMB,,,,,,,,,,,,,,,,,,,,,,,,,,,,,,,,,3.38000000000000E+01,,,,3.07000000000000E+01,,,,,,3.16000000000000E+01,,,,,2.79000000000000E+01,,,,
ZWE,,,,,,,,,,,,,,,,,,,,,,,,,,,,,2.07000000000000E+01,,,,,,1.97000000000000E+01,,,,,2.05000000000000E+01,,,,,,,2.12000000000000E+01,,,,,
