"Country Code",1960,1961,1962,1963,1964,1965,1966,1967,1968,1969,1970,1971,1972,1973,1974,1975,1976,1977,1978,1979,1980,1981,1982,1983,1984,1985,1986,1987,1988,1989,1990,1991,1992,1993,1994,1995,1996,1997,1998,1999,2000,2001,2002,2003,2004,2005,2006,2007,2008,2009,2010,2011AFG,,,,,,,,,,,,,,,,,,,,,,,,,,,,,,,,,,,,,,,,,,,,,0.00000000000000E+00,0.00000000000000E+00,0.00000000000000E+00,0.00000000000000E+00,0.00000000000000E+00,0.00000000000000E+00,0.00000000000000E+00,0.00000000000000E+00
AGO,,,,,,,,,,,,,,,,,,,,,,,,,,,,,,,,,,,,,,,,,,,,,3.00000000000000E+00,3.00000000000000E+00,3.00000000000000E+00,3.00000000000000E+00,3.00000000000000E+00,3.00000000000000E+00,3.00000000000000E+00,4.00000000000000E+00
ALB,,,,,,,,,,,,,,,,,,,,,,,,,,,,,,,,,,,,,,,,,,,,,0.00000000000000E+00,0.00000000000000E+00,0.00000000000000E+00,0.00000000000000E+00,4.00000000000000E+00,4.00000000000000E+00,4.00000000000000E+00,4.00000000000000E+00
ARB,,,,,,,,,,,,,,,,,,,,,,,,,,,,,,,,,,,,,,,,,,,,,1.20000000000000E+00,1.44444444444444E+00,1.66666666666667E+00,2.05000000000000E+00,2.40000000000000E+00,2.70000000000000E+00,2.80000000000000E+00,3.05000000000000E+00
ARE,,,,,,,,,,,,,,,,,,,,,,,,,,,,,,,,,,,,,,,,,,,,,2.00000000000000E+00,2.00000000000000E+00,2.00000000000000E+00,2.00000000000000E+00,5.00000000000000E+00,5.00000000000000E+00,5.00000000000000E+00,5.00000000000000E+00
ARG,,,,,,,,,,,,,,,,,,,,,,,,,,,,,,,,,,,,,,,,,,,,,6.00000000000000E+00,6.00000000000000E+00,6.00000000000000E+00,6.00000000000000E+00,6.00000000000000E+00,6.00000000000000E+00,6.00000000000000E+00,6.00000000000000E+00
ARM,,,,,,,,,,,,,,,,,,,,,,,,,,,,,,,,,,,,,,,,,,,,,,3.00000000000000E+00,3.00000000000000E+00,5.00000000000000E+00,5.00000000000000E+00,5.00000000000000E+00,5.00000000000000E+00,6.00000000000000E+00
ATG,,,,,,,,,,,,,,,,,,,,,,,,,,,,,,,,,,,,,,,,,,,,,,0.00000000000000E+00,0.00000000000000E+00,0.00000000000000E+00,0.00000000000000E+00,0.00000000000000E+00,0.00000000000000E+00,0.00000000000000E+00
AUS,,,,,,,,,,,,,,,,,,,,,,,,,,,,,,,,,,,,,,,,,,,,,5.00000000000000E+00,5.00000000000000E+00,5.00000000000000E+00,5.00000000000000E+00,5.00000000000000E+00,5.00000000000000E+00,5.00000000000000E+00,5.00000000000000E+00
AUT,,,,,,,,,,,,,,,,,,,,,,,,,,,,,,,,,,,,,,,,,,,,,6.00000000000000E+00,6.00000000000000E+00,6.00000000000000E+00,6.00000000000000E+00,6.00000000000000E+00,6.00000000000000E+00,6.00000000000000E+00,6.00000000000000E+00
AZE,,,,,,,,,,,,,,,,,,,,,,,,,,,,,,,,,,,,,,,,,,,,,0.00000000000000E+00,4.00000000000000E+00,4.00000000000000E+00,4.00000000000000E+00,5.00000000000000E+00,5.00000000000000E+00,5.00000000000000E+00,5.00000000000000E+00
BDI,,,,,,,,,,,,,,,,,,,,,,,,,,,,,,,,,,,,,,,,,,,,,2.00000000000000E+00,2.00000000000000E+00,1.00000000000000E+00,1.00000000000000E+00,1.00000000000000E+00,1.00000000000000E+00,1.00000000000000E+00,1.00000000000000E+00
BEL,,,,,,,,,,,,,,,,,,,,,,,,,,,,,,,,,,,,,,,,,,,,,4.00000000000000E+00,4.00000000000000E+00,4.00000000000000E+00,4.00000000000000E+00,4.00000000000000E+00,4.00000000000000E+00,4.00000000000000E+00,4.00000000000000E+00
BEN,,,,,,,,,,,,,,,,,,,,,,,,,,,,,,,,,,,,,,,,,,,,,1.00000000000000E+00,1.00000000000000E+00,1.00000000000000E+00,1.00000000000000E+00,1.00000000000000E+00,1.00000000000000E+00,1.00000000000000E+00,1.00000000000000E+00
BFA,,,,,,,,,,,,,,,,,,,,,,,,,,,,,,,,,,,,,,,,,,,,,1.00000000000000E+00,1.00000000000000E+00,1.00000000000000E+00,1.00000000000000E+00,1.00000000000000E+00,1.00000000000000E+00,1.00000000000000E+00,1.00000000000000E+00
BGD,,,,,,,,,,,,,,,,,,,,,,,,,,,,,,,,,,,,,,,,,,,,,2.00000000000000E+00,2.00000000000000E+00,2.00000000000000E+00,2.00000000000000E+00,2.00000000000000E+00,2.00000000000000E+00,2.00000000000000E+00,2.00000000000000E+00
BGR,,,,,,,,,,,,,,,,,,,,,,,,,,,,,,,,,,,,,,,,,,,,,3.00000000000000E+00,4.00000000000000E+00,5.00000000000000E+00,6.00000000000000E+00,6.00000000000000E+00,6.00000000000000E+00,6.00000000000000E+00,6.00000000000000E+00
BHR,,,,,,,,,,,,,,,,,,,,,,,,,,,,,,,,,,,,,,,,,,,,,,,,3.00000000000000E+00,3.00000000000000E+00,3.00000000000000E+00,3.00000000000000E+00,3.00000000000000E+00
BHS,,,,,,,,,,,,,,,,,,,,,,,,,,,,,,,,,,,,,,,,,,,,,,,,0.00000000000000E+00,0.00000000000000E+00,0.00000000000000E+00,0.00000000000000E+00,0.00000000000000E+00
BIH,,,,,,,,,,,,,,,,,,,,,,,,,,,,,,,,,,,,,,,,,,,,,5.00000000000000E+00,5.00000000000000E+00,5.00000000000000E+00,5.00000000000000E+00,5.00000000000000E+00,5.00000000000000E+00,5.00000000000000E+00,5.00000000000000E+00
BLR,,,,,,,,,,,,,,,,,,,,,,,,,,,,,,,,,,,,,,,,,,,,,3.00000000000000E+00,3.00000000000000E+00,3.00000000000000E+00,3.00000000000000E+00,5.00000000000000E+00,5.00000000000000E+00,5.00000000000000E+00,5.00000000000000E+00
BLZ,,,,,,,,,,,,,,,,,,,,,,,,,,,,,,,,,,,,,,,,,,,,,,0.00000000000000E+00,0.00000000000000E+00,0.00000000000000E+00,0.00000000000000E+00,0.00000000000000E+00,0.00000000000000E+00,0.00000000000000E+00
BOL,,,,,,,,,,,,,,,,,,,,,,,,,,,,,,,,,,,,,,,,,,,,,5.00000000000000E+00,5.00000000000000E+00,6.00000000000000E+00,6.00000000000000E+00,6.00000000000000E+00,6.00000000000000E+00,6.00000000000000E+00,6.00000000000000E+00
BRA,,,,,,,,,,,,,,,,,,,,,,,,,,,,,,,,,,,,,,,,,,,,,5.00000000000000E+00,5.00000000000000E+00,5.00000000000000E+00,5.00000000000000E+00,5.00000000000000E+00,5.00000000000000E+00,5.00000000000000E+00,5.00000000000000E+00
BRN,,,,,,,,,,,,,,,,,,,,,,,,,,,,,,,,,,,,,,,,,,,,,,,0.00000000000000E+00,0.00000000000000E+00,0.00000000000000E+00,0.00000000000000E+00,0.00000000000000E+00,0.00000000000000E+00
BTN,,,,,,,,,,,,,,,,,,,,,,,,,,,,,,,,,,,,,,,,,,,,,0.00000000000000E+00,0.00000000000000E+00,0.00000000000000E+00,0.00000000000000E+00,0.00000000000000E+00,0.00000000000000E+00,0.00000000000000E+00,4.00000000000000E+00
BWA,,,,,,,,,,,,,,,,,,,,,,,,,,,,,,,,,,,,,,,,,,,,,4.00000000000000E+00,4.00000000000000E+00,4.00000000000000E+00,4.00000000000000E+00,4.00000000000000E+00,4.00000000000000E+00,4.00000000000000E+00,4.00000000000000E+00
CAF,,,,,,,,,,,,,,,,,,,,,,,,,,,,,,,,,,,,,,,,,,,,,1.00000000000000E+00,2.00000000000000E+00,2.00000000000000E+00,2.00000000000000E+00,2.00000000000000E+00,2.00000000000000E+00,2.00000000000000E+00,2.00000000000000E+00
CAN,,,,,,,,,,,,,,,,,,,,,,,,,,,,,,,,,,,,,,,,,,,,,6.00000000000000E+00,6.00000000000000E+00,6.00000000000000E+00,6.00000000000000E+00,6.00000000000000E+00,6.00000000000000E+00,6.00000000000000E+00,6.00000000000000E+00
CHE,,,,,,,,,,,,,,,,,,,,,,,,,,,,,,,,,,,,,,,,,,,,,5.00000000000000E+00,5.00000000000000E+00,5.00000000000000E+00,5.00000000000000E+00,5.00000000000000E+00,5.00000000000000E+00,5.00000000000000E+00,5.00000000000000E+00
CHL,,,,,,,,,,,,,,,,,,,,,,,,,,,,,,,,,,,,,,,,,,,,,5.00000000000000E+00,5.00000000000000E+00,5.00000000000000E+00,5.00000000000000E+00,5.00000000000000E+00,5.00000000000000E+00,5.00000000000000E+00,5.00000000000000E+00
CHN,,,,,,,,,,,,,,,,,,,,,,,,,,,,,,,,,,,,,,,,,,,,,2.00000000000000E+00,2.00000000000000E+00,4.00000000000000E+00,4.00000000000000E+00,4.00000000000000E+00,4.00000000000000E+00,4.00000000000000E+00,4.00000000000000E+00
CIV,,,,,,,,,,,,,,,,,,,,,,,,,,,,,,,,,,,,,,,,,,,,,1.00000000000000E+00,1.00000000000000E+00,1.00000000000000E+00,1.00000000000000E+00,1.00000000000000E+00,1.00000000000000E+00,1.00000000000000E+00,1.00000000000000E+00
CMR,,,,,,,,,,,,,,,,,,,,,,,,,,,,,,,,,,,,,,,,,,,,,1.00000000000000E+00,1.00000000000000E+00,2.00000000000000E+00,2.00000000000000E+00,2.00000000000000E+00,2.00000000000000E+00,2.00000000000000E+00,2.00000000000000E+00
COG,,,,,,,,,,,,,,,,,,,,,,,,,,,,,,,,,,,,,,,,,,,,,1.00000000000000E+00,2.00000000000000E+00,2.00000000000000E+00,2.00000000000000E+00,2.00000000000000E+00,2.00000000000000E+00,2.00000000000000E+00,2.00000000000000E+00
COL,,,,,,,,,,,,,,,,,,,,,,,,,,,,,,,,,,,,,,,,,,,,,5.00000000000000E+00,5.00000000000000E+00,5.00000000000000E+00,5.00000000000000E+00,5.00000000000000E+00,5.00000000000000E+00,5.00000000000000E+00,5.00000000000000E+00
COM,,,,,,,,,,,,,,,,,,,,,,,,,,,,,,,,,,,,,,,,,,,,,,0.00000000000000E+00,0.00000000000000E+00,0.00000000000000E+00,0.00000000000000E+00,0.00000000000000E+00,0.00000000000000E+00,0.00000000000000E+00
CPV,,,,,,,,,,,,,,,,,,,,,,,,,,,,,,,,,,,,,,,,,,,,,,3.00000000000000E+00,3.00000000000000E+00,3.00000000000000E+00,3.00000000000000E+00,2.00000000000000E+00,2.00000000000000E+00,5.00000000000000E+00
CRI,,,,,,,,,,,,,,,,,,,,,,,,,,,,,,,,,,,,,,,,,,,,,5.00000000000000E+00,5.00000000000000E+00,5.00000000000000E+00,5.00000000000000E+00,5.00000000000000E+00,5.00000000000000E+00,5.00000000000000E+00,5.00000000000000E+00
CYP,,,,,,,,,,,,,,,,,,,,,,,,,,,,,,,,,,,,,,,,,,,,,,,,,0.00000000000000E+00,0.00000000000000E+00,0.00000000000000E+00,0.00000000000000E+00
CZE,,,,,,,,,,,,,,,,,,,,,,,,,,,,,,,,,,,,,,,,,,,,,4.00000000000000E+00,5.00000000000000E+00,5.00000000000000E+00,5.00000000000000E+00,5.00000000000000E+00,5.00000000000000E+00,5.00000000000000E+00,5.00000000000000E+00
DEU,,,,,,,,,,,,,,,,,,,,,,,,,,,,,,,,,,,,,,,,,,,,,6.00000000000000E+00,6.00000000000000E+00,6.00000000000000E+00,6.00000000000000E+00,6.00000000000000E+00,6.00000000000000E+00,6.00000000000000E+00,6.00000000000000E+00
DJI,,,,,,,,,,,,,,,,,,,,,,,,,,,,,,,,,,,,,,,,,,,,,,1.00000000000000E+00,1.00000000000000E+00,1.00000000000000E+00,1.00000000000000E+00,1.00000000000000E+00,1.00000000000000E+00,1.00000000000000E+00
DMA,,,,,,,,,,,,,,,,,,,,,,,,,,,,,,,,,,,,,,,,,,,,,,0.00000000000000E+00,0.00000000000000E+00,0.00000000000000E+00,0.00000000000000E+00,0.00000000000000E+00,0.00000000000000E+00,0.00000000000000E+00
DNK,,,,,,,,,,,,,,,,,,,,,,,,,,,,,,,,,,,,,,,,,,,,,4.00000000000000E+00,4.00000000000000E+00,4.00000000000000E+00,4.00000000000000E+00,4.00000000000000E+00,4.00000000000000E+00,4.00000000000000E+00,4.00000000000000E+00
DOM,,,,,,,,,,,,,,,,,,,,,,,,,,,,,,,,,,,,,,,,,,,,,5.00000000000000E+00,5.00000000000000E+00,6.00000000000000E+00,6.00000000000000E+00,6.00000000000000E+00,6.00000000000000E+00,6.00000000000000E+00,6.00000000000000E+00
DZA,,,,,,,,,,,,,,,,,,,,,,,,,,,,,,,,,,,,,,,,,,,,,1.00000000000000E+00,1.00000000000000E+00,2.00000000000000E+00,2.00000000000000E+00,2.00000000000000E+00,2.00000000000000E+00,2.00000000000000E+00,3.00000000000000E+00
EAP,,,,,,,,,,,,,,,,,,,,,,,,,,,,,,,,,,,,,,,,,,,,,1.15789473684211E+00,1.30000000000000E+00,1.45000000000000E+00,1.50000000000000E+00,1.60000000000000E+00,1.60000000000000E+00,1.80000000000000E+00,2.00000000000000E+00
EAS,,,,,,,,,,,,,,,,,,,,,,,,,,,,,,,,,,,,,,,,,,,,,2.15384615384615E+00,2.22222222222222E+00,2.25000000000000E+00,2.28571428571429E+00,2.39285714285714E+00,2.39285714285714E+00,2.57142857142857E+00,2.71428571428571E+00
ECA,,,,,,,,,,,,,,,,,,,,,,,,,,,,,,,,,,,,,,,,,,,,,1.55555555555556E+00,2.35000000000000E+00,2.71428571428571E+00,3.09523809523810E+00,4.14285714285714E+00,4.31818181818182E+00,4.36363636363636E+00,4.68181818181818E+00
ECS,,,,,,,,,,,,,,,,,,,,,,,,,,,,,,,,,,,,,,,,,,,,,3.16666666666667E+00,3.47727272727273E+00,3.52173913043478E+00,3.76086956521739E+00,4.19148936170213E+00,4.33333333333333E+00,4.35416666666667E+00,4.50000000000000E+00
ECU,,,,,,,,,,,,,,,,,,,,,,,,,,,,,,,,,,,,,,,,,,,,,4.00000000000000E+00,4.00000000000000E+00,5.00000000000000E+00,5.00000000000000E+00,5.00000000000000E+00,6.00000000000000E+00,6.00000000000000E+00,6.00000000000000E+00
EGY,,,,,,,,,,,,,,,,,,,,,,,,,,,,,,,,,,,,,,,,,,,,,2.00000000000000E+00,2.00000000000000E+00,2.00000000000000E+00,4.00000000000000E+00,5.00000000000000E+00,6.00000000000000E+00,6.00000000000000E+00,6.00000000000000E+00
EMU,,,,,,,,,,,,,,,,,,,,,,,,,,,,,,,,,,,,,,,,,,,,,4.57142857142857E+00,4.57142857142857E+00,4.20000000000000E+00,4.20000000000000E+00,4.06250000000000E+00,4.12500000000000E+00,4.12500000000000E+00,4.12500000000000E+00
ERI,,,,,,,,,,,,,,,,,,,,,,,,,,,,,,,,,,,,,,,,,,,,,0.00000000000000E+00,0.00000000000000E+00,0.00000000000000E+00,0.00000000000000E+00,0.00000000000000E+00,0.00000000000000E+00,0.00000000000000E+00,0.00000000000000E+00
ESP,,,,,,,,,,,,,,,,,,,,,,,,,,,,,,,,,,,,,,,,,,,,,5.00000000000000E+00,5.00000000000000E+00,5.00000000000000E+00,5.00000000000000E+00,5.00000000000000E+00,5.00000000000000E+00,5.00000000000000E+00,5.00000000000000E+00
EST,,,,,,,,,,,,,,,,,,,,,,,,,,,,,,,,,,,,,,,,,,,,,5.00000000000000E+00,5.00000000000000E+00,5.00000000000000E+00,5.00000000000000E+00,5.00000000000000E+00,5.00000000000000E+00,5.00000000000000E+00,5.00000000000000E+00
ETH,,,,,,,,,,,,,,,,,,,,,,,,,,,,,,,,,,,,,,,,,,,,,0.00000000000000E+00,0.00000000000000E+00,2.00000000000000E+00,2.00000000000000E+00,2.00000000000000E+00,2.00000000000000E+00,2.00000000000000E+00,2.00000000000000E+00
EUU,,,,,,,,,,,,,,,,,,,,,,,,,,,,,,,,,,,,,,,,,,,,,4.29166666666667E+00,4.58333333333333E+00,4.44000000000000E+00,4.48000000000000E+00,4.38461538461539E+00,4.50000000000000E+00,4.50000000000000E+00,4.46153846153846E+00
FIN,,,,,,,,,,,,,,,,,,,,,,,,,,,,,,,,,,,,,,,,,,,,,4.00000000000000E+00,4.00000000000000E+00,4.00000000000000E+00,4.00000000000000E+00,4.00000000000000E+00,4.00000000000000E+00,4.00000000000000E+00,4.00000000000000E+00
FJI,,,,,,,,,,,,,,,,,,,,,,,,,,,,,,,,,,,,,,,,,,,,,,3.00000000000000E+00,3.00000000000000E+00,3.00000000000000E+00,3.00000000000000E+00,3.00000000000000E+00,3.00000000000000E+00,3.00000000000000E+00
FRA,,,,,,,,,,,,,,,,,,,,,,,,,,,,,,,,,,,,,,,,,,,,,4.00000000000000E+00,4.00000000000000E+00,4.00000000000000E+00,4.00000000000000E+00,4.00000000000000E+00,4.00000000000000E+00,4.00000000000000E+00,4.00000000000000E+00
FSM,,,,,,,,,,,,,,,,,,,,,,,,,,,,,,,,,,,,,,,,,,,,,0.00000000000000E+00,0.00000000000000E+00,0.00000000000000E+00,0.00000000000000E+00,0.00000000000000E+00,0.00000000000000E+00,0.00000000000000E+00,0.00000000000000E+00
GAB,,,,,,,,,,,,,,,,,,,,,,,,,,,,,,,,,,,,,,,,,,,,,,2.00000000000000E+00,2.00000000000000E+00,2.00000000000000E+00,2.00000000000000E+00,2.00000000000000E+00,2.00000000000000E+00,2.00000000000000E+00
GBR,,,,,,,,,,,,,,,,,,,,,,,,,,,,,,,,,,,,,,,,,,,,,6.00000000000000E+00,6.00000000000000E+00,6.00000000000000E+00,6.00000000000000E+00,6.00000000000000E+00,6.00000000000000E+00,6.00000000000000E+00,6.00000000000000E+00
GEO,,,,,,,,,,,,,,,,,,,,,,,,,,,,,,,,,,,,,,,,,,,,,0.00000000000000E+00,0.00000000000000E+00,3.00000000000000E+00,4.00000000000000E+00,6.00000000000000E+00,6.00000000000000E+00,6.00000000000000E+00,6.00000000000000E+00
GHA,,,,,,,,,,,,,,,,,,,,,,,,,,,,,,,,,,,,,,,,,,,,,0.00000000000000E+00,0.00000000000000E+00,0.00000000000000E+00,0.00000000000000E+00,0.00000000000000E+00,0.00000000000000E+00,3.00000000000000E+00,3.00000000000000E+00
GIN,,,,,,,,,,,,,,,,,,,,,,,,,,,,,,,,,,,,,,,,,,,,,0.00000000000000E+00,0.00000000000000E+00,0.00000000000000E+00,0.00000000000000E+00,0.00000000000000E+00,0.00000000000000E+00,0.00000000000000E+00,0.00000000000000E+00
GMB,,,,,,,,,,,,,,,,,,,,,,,,,,,,,,,,,,,,,,,,,,,,,,0.00000000000000E+00,0.00000000000000E+00,0.00000000000000E+00,0.00000000000000E+00,0.00000000000000E+00,0.00000000000000E+00,0.00000000000000E+00
GNB,,,,,,,,,,,,,,,,,,,,,,,,,,,,,,,,,,,,,,,,,,,,,,1.00000000000000E+00,1.00000000000000E+00,1.00000000000000E+00,1.00000000000000E+00,1.00000000000000E+00,1.00000000000000E+00,1.00000000000000E+00
GNQ,,,,,,,,,,,,,,,,,,,,,,,,,,,,,,,,,,,,,,,,,,,,,,2.00000000000000E+00,2.00000000000000E+00,2.00000000000000E+00,2.00000000000000E+00,2.00000000000000E+00,2.00000000000000E+00,2.00000000000000E+00
GRC,,,,,,,,,,,,,,,,,,,,,,,,,,,,,,,,,,,,,,,,,,,,,4.00000000000000E+00,4.00000000000000E+00,4.00000000000000E+00,4.00000000000000E+00,4.00000000000000E+00,5.00000000000000E+00,5.00000000000000E+00,5.00000000000000E+00
GRD,,,,,,,,,,,,,,,,,,,,,,,,,,,,,,,,,,,,,,,,,,,,,,0.00000000000000E+00,0.00000000000000E+00,0.00000000000000E+00,0.00000000000000E+00,0.00000000000000E+00,0.00000000000000E+00,0.00000000000000E+00
GTM,,,,,,,,,,,,,,,,,,,,,,,,,,,,,,,,,,,,,,,,,,,,,5.00000000000000E+00,5.00000000000000E+00,5.00000000000000E+00,5.00000000000000E+00,5.00000000000000E+00,6.00000000000000E+00,6.00000000000000E+00,6.00000000000000E+00
GUY,,,,,,,,,,,,,,,,,,,,,,,,,,,,,,,,,,,,,,,,,,,,,0.00000000000000E+00,0.00000000000000E+00,0.00000000000000E+00,0.00000000000000E+00,0.00000000000000E+00,0.00000000000000E+00,0.00000000000000E+00,0.00000000000000E+00
HIC,,,,,,,,,,,,,,,,,,,,,,,,,,,,,,,,,,,,,,,,,,,,,4.31578947368421E+00,4.36585365853659E+00,4.13953488372093E+00,4.10869565217391E+00,4.14893617021277E+00,4.21276595744681E+00,4.23404255319149E+00,4.31914893617021E+00
HKG,,,,,,,,,,,,,,,,,,,,,,,,,,,,,,,,,,,,,,,,,,,,,5.00000000000000E+00,5.00000000000000E+00,5.00000000000000E+00,5.00000000000000E+00,5.00000000000000E+00,5.00000000000000E+00,5.00000000000000E+00,5.00000000000000E+00
HND,,,,,,,,,,,,,,,,,,,,,,,,,,,,,,,,,,,,,,,,,,,,,3.00000000000000E+00,4.00000000000000E+00,5.00000000000000E+00,6.00000000000000E+00,6.00000000000000E+00,6.00000000000000E+00,6.00000000000000E+00,6.00000000000000E+00
HPC,,,,,,,,,,,,,,,,,,,,,,,,,,,,,,,,,,,,,,,,,,,,,9.14285714285714E-01,1.05263157894737E+00,1.17948717948718E+00,1.17948717948718E+00,1.25641025641026E+00,1.35897435897436E+00,1.61538461538462E+00,1.69230769230769E+00
HRV,,,,,,,,,,,,,,,,,,,,,,,,,,,,,,,,,,,,,,,,,,,,,0.00000000000000E+00,0.00000000000000E+00,0.00000000000000E+00,3.00000000000000E+00,3.00000000000000E+00,4.00000000000000E+00,4.00000000000000E+00,5.00000000000000E+00
HTI,,,,,,,,,,,,,,,,,,,,,,,,,,,,,,,,,,,,,,,,,,,,,2.00000000000000E+00,2.00000000000000E+00,2.00000000000000E+00,2.00000000000000E+00,2.00000000000000E+00,2.00000000000000E+00,2.00000000000000E+00,2.00000000000000E+00
HUN,,,,,,,,,,,,,,,,,,,,,,,,,,,,,,,,,,,,,,,,,,,,,5.00000000000000E+00,5.00000000000000E+00,5.00000000000000E+00,5.00000000000000E+00,5.00000000000000E+00,5.00000000000000E+00,5.00000000000000E+00,4.00000000000000E+00
IDN,,,,,,,,,,,,,,,,,,,,,,,,,,,,,,,,,,,,,,,,,,,,,2.00000000000000E+00,2.00000000000000E+00,2.00000000000000E+00,3.00000000000000E+00,4.00000000000000E+00,4.00000000000000E+00,4.00000000000000E+00,4.00000000000000E+00
IND,,,,,,,,,,,,,,,,,,,,,,,,,,,,,,,,,,,,,,,,,,,,,0.00000000000000E+00,2.00000000000000E+00,3.00000000000000E+00,4.00000000000000E+00,4.00000000000000E+00,4.00000000000000E+00,4.00000000000000E+00,4.00000000000000E+00
IRL,,,,,,,,,,,,,,,,,,,,,,,,,,,,,,,,,,,,,,,,,,,,,5.00000000000000E+00,5.00000000000000E+00,5.00000000000000E+00,5.00000000000000E+00,5.00000000000000E+00,5.00000000000000E+00,5.00000000000000E+00,5.00000000000000E+00
IRN,,,,,,,,,,,,,,,,,,,,,,,,,,,,,,,,,,,,,,,,,,,,,2.00000000000000E+00,3.00000000000000E+00,3.00000000000000E+00,3.00000000000000E+00,3.00000000000000E+00,3.00000000000000E+00,4.00000000000000E+00,4.00000000000000E+00
IRQ,,,,,,,,,,,,,,,,,,,,,,,,,,,,,,,,,,,,,,,,,,,,,0.00000000000000E+00,0.00000000000000E+00,0.00000000000000E+00,0.00000000000000E+00,0.00000000000000E+00,0.00000000000000E+00,0.00000000000000E+00,0.00000000000000E+00
ISL,,,,,,,,,,,,,,,,,,,,,,,,,,,,,,,,,,,,,,,,,,,,,5.00000000000000E+00,5.00000000000000E+00,5.00000000000000E+00,5.00000000000000E+00,5.00000000000000E+00,5.00000000000000E+00,5.00000000000000E+00,5.00000000000000E+00
ISR,,,,,,,,,,,,,,,,,,,,,,,,,,,,,,,,,,,,,,,,,,,,,3.00000000000000E+00,5.00000000000000E+00,5.00000000000000E+00,5.00000000000000E+00,5.00000000000000E+00,5.00000000000000E+00,5.00000000000000E+00,5.00000000000000E+00
ITA,,,,,,,,,,,,,,,,,,,,,,,,,,,,,,,,,,,,,,,,,,,,,6.00000000000000E+00,6.00000000000000E+00,5.00000000000000E+00,5.00000000000000E+00,5.00000000000000E+00,5.00000000000000E+00,5.00000000000000E+00,5.00000000000000E+00
JAM,,,,,,,,,,,,,,,,,,,,,,,,,,,,,,,,,,,,,,,,,,,,,0.00000000000000E+00,0.00000000000000E+00,0.00000000000000E+00,0.00000000000000E+00,0.00000000000000E+00,0.00000000000000E+00,0.00000000000000E+00,0.00000000000000E+00
JOR,,,,,,,,,,,,,,,,,,,,,,,,,,,,,,,,,,,,,,,,,,,,,2.00000000000000E+00,2.00000000000000E+00,2.00000000000000E+00,2.00000000000000E+00,2.00000000000000E+00,2.00000000000000E+00,2.00000000000000E+00,2.00000000000000E+00
JPN,,,,,,,,,,,,,,,,,,,,,,,,,,,,,,,,,,,,,,,,,,,,,6.00000000000000E+00,6.00000000000000E+00,6.00000000000000E+00,6.00000000000000E+00,6.00000000000000E+00,6.00000000000000E+00,6.00000000000000E+00,6.00000000000000E+00
KAZ,,,,,,,,,,,,,,,,,,,,,,,,,,,,,,,,,,,,,,,,,,,,,0.00000000000000E+00,0.00000000000000E+00,4.00000000000000E+00,4.00000000000000E+00,5.00000000000000E+00,5.00000000000000E+00,5.00000000000000E+00,5.00000000000000E+00
KEN,,,,,,,,,,,,,,,,,,,,,,,,,,,,,,,,,,,,,,,,,,,,,0.00000000000000E+00,2.00000000000000E+00,2.00000000000000E+00,4.00000000000000E+00,4.00000000000000E+00,4.00000000000000E+00,4.00000000000000E+00,4.00000000000000E+00
KGZ,,,,,,,,,,,,,,,,,,,,,,,,,,,,,,,,,,,,,,,,,,,,,0.00000000000000E+00,2.00000000000000E+00,3.00000000000000E+00,3.00000000000000E+00,4.00000000000000E+00,4.00000000000000E+00,4.00000000000000E+00,4.00000000000000E+00
KHM,,,,,,,,,,,,,,,,,,,,,,,,,,,,,,,,,,,,,,,,,,,,,0.00000000000000E+00,0.00000000000000E+00,0.00000000000000E+00,0.00000000000000E+00,0.00000000000000E+00,0.00000000000000E+00,0.00000000000000E+00,0.00000000000000E+00
KIR,,,,,,,,,,,,,,,,,,,,,,,,,,,,,,,,,,,,,,,,,,,,,0.00000000000000E+00,0.00000000000000E+00,0.00000000000000E+00,0.00000000000000E+00,0.00000000000000E+00,0.00000000000000E+00,0.00000000000000E+00,0.00000000000000E+00
KNA,,,,,,,,,,,,,,,,,,,,,,,,,,,,,,,,,,,,,,,,,,,,,,0.00000000000000E+00,0.00000000000000E+00,0.00000000000000E+00,0.00000000000000E+00,0.00000000000000E+00,0.00000000000000E+00,0.00000000000000E+00
KOR,,,,,,,,,,,,,,,,,,,,,,,,,,,,,,,,,,,,,,,,,,,,,5.00000000000000E+00,5.00000000000000E+00,5.00000000000000E+00,5.00000000000000E+00,6.00000000000000E+00,6.00000000000000E+00,6.00000000000000E+00,6.00000000000000E+00
KSV,,,,,,,,,,,,,,,,,,,,,,,,,,,,,,,,,,,,,,,,,,,,,,,,,,5.00000000000000E+00,5.00000000000000E+00,5.00000000000000E+00
KWT,,,,,,,,,,,,,,,,,,,,,,,,,,,,,,,,,,,,,,,,,,,,,3.00000000000000E+00,3.00000000000000E+00,3.00000000000000E+00,4.00000000000000E+00,4.00000000000000E+00,4.00000000000000E+00,4.00000000000000E+00,4.00000000000000E+00
LAC,,,,,,,,,,,,,,,,,,,,,,,,,,,,,,,,,,,,,,,,,,,,,4.28571428571429E+00,3.20689655172414E+00,3.31034482758621E+00,3.34482758620690E+00,3.34482758620690E+00,3.41379310344828E+00,3.41379310344828E+00,3.41379310344828E+00
LAO,,,,,,,,,,,,,,,,,,,,,,,,,,,,,,,,,,,,,,,,,,,,,0.00000000000000E+00,0.00000000000000E+00,0.00000000000000E+00,0.00000000000000E+00,0.00000000000000E+00,0.00000000000000E+00,0.00000000000000E+00,0.00000000000000E+00
LBN,,,,,,,,,,,,,,,,,,,,,,,,,,,,,,,,,,,,,,,,,,,,,4.00000000000000E+00,4.00000000000000E+00,5.00000000000000E+00,5.00000000000000E+00,5.00000000000000E+00,5.00000000000000E+00,5.00000000000000E+00,5.00000000000000E+00
LBR,,,,,,,,,,,,,,,,,,,,,,,,,,,,,,,,,,,,,,,,,,,,,,,0.00000000000000E+00,0.00000000000000E+00,1.00000000000000E+00,1.00000000000000E+00,1.00000000000000E+00,1.00000000000000E+00
LCA,,,,,,,,,,,,,,,,,,,,,,,,,,,,,,,,,,,,,,,,,,,,,,0.00000000000000E+00,0.00000000000000E+00,0.00000000000000E+00,0.00000000000000E+00,0.00000000000000E+00,0.00000000000000E+00,0.00000000000000E+00
LCN,,,,,,,,,,,,,,,,,,,,,,,,,,,,,,,,,,,,,,,,,,,,,4.31818181818182E+00,3.25806451612903E+00,3.35483870967742E+00,3.31250000000000E+00,3.31250000000000E+00,3.37500000000000E+00,3.37500000000000E+00,3.37500000000000E+00
LDC,,,,,,,,,,,,,,,,,,,,,,,,,,,,,,,,,,,,,,,,,,,,,6.41025641025641E-01,7.04545454545455E-01,7.11111111111111E-01,6.88888888888889E-01,7.33333333333333E-01,8.88888888888889E-01,1.04444444444444E+00,1.28888888888889E+00
LIC,,,,,,,,,,,,,,,,,,,,,,,,,,,,,,,,,,,,,,,,,,,,,7.40740740740741E-01,8.70967741935484E-01,9.06250000000000E-01,9.37500000000000E-01,1.03125000000000E+00,1.09375000000000E+00,1.25000000000000E+00,1.34375000000000E+00
LKA,,,,,,,,,,,,,,,,,,,,,,,,,,,,,,,,,,,,,,,,,,,,,4.00000000000000E+00,4.00000000000000E+00,4.00000000000000E+00,3.00000000000000E+00,5.00000000000000E+00,5.00000000000000E+00,5.00000000000000E+00,5.00000000000000E+00
LMC,,,,,,,,,,,,,,,,,,,,,,,,,,,,,,,,,,,,,,,,,,,,,1.17021276595745E+00,1.43396226415094E+00,1.66037735849057E+00,1.81132075471698E+00,2.07547169811321E+00,2.29629629629630E+00,2.51851851851852E+00,2.83333333333333E+00
LMY,,,,,,,,,,,,,,,,,,,,,,,,,,,,,,,,,,,,,,,,,,,,,1.76315789473684E+00,1.85714285714286E+00,2.02222222222222E+00,2.14074074074074E+00,2.38518518518519E+00,2.51470588235294E+00,2.64705882352941E+00,2.81617647058824E+00
LSO,,,,,,,,,,,,,,,,,,,,,,,,,,,,,,,,,,,,,,,,,,,,,0.00000000000000E+00,0.00000000000000E+00,0.00000000000000E+00,0.00000000000000E+00,0.00000000000000E+00,0.00000000000000E+00,0.00000000000000E+00,0.00000000000000E+00
LTU,,,,,,,,,,,,,,,,,,,,,,,,,,,,,,,,,,,,,,,,,,,,,3.00000000000000E+00,6.00000000000000E+00,6.00000000000000E+00,6.00000000000000E+00,6.00000000000000E+00,6.00000000000000E+00,6.00000000000000E+00,6.00000000000000E+00
LUX,,,,,,,,,,,,,,,,,,,,,,,,,,,,,,,,,,,,,,,,,,,,,,,0.00000000000000E+00,0.00000000000000E+00,0.00000000000000E+00,0.00000000000000E+00,0.00000000000000E+00,0.00000000000000E+00
LVA,,,,,,,,,,,,,,,,,,,,,,,,,,,,,,,,,,,,,,,,,,,,,2.00000000000000E+00,3.00000000000000E+00,4.00000000000000E+00,4.00000000000000E+00,4.00000000000000E+00,5.00000000000000E+00,5.00000000000000E+00,5.00000000000000E+00
MAR,,,,,,,,,,,,,,,,,,,,,,,,,,,,,,,,,,,,,,,,,,,,,1.00000000000000E+00,1.00000000000000E+00,1.00000000000000E+00,1.00000000000000E+00,2.00000000000000E+00,5.00000000000000E+00,5.00000000000000E+00,5.00000000000000E+00
MDA,,,,,,,,,,,,,,,,,,,,,,,,,,,,,,,,,,,,,,,,,,,,,0.00000000000000E+00,0.00000000000000E+00,0.00000000000000E+00,0.00000000000000E+00,0.00000000000000E+00,0.00000000000000E+00,0.00000000000000E+00,4.00000000000000E+00
MDG,,,,,,,,,,,,,,,,,,,,,,,,,,,,,,,,,,,,,,,,,,,,,1.00000000000000E+00,1.00000000000000E+00,1.00000000000000E+00,0.00000000000000E+00,0.00000000000000E+00,1.00000000000000E+00,0.00000000000000E+00,0.00000000000000E+00
MDV,,,,,,,,,,,,,,,,,,,,,,,,,,,,,,,,,,,,,,,,,,,,,0.00000000000000E+00,0.00000000000000E+00,0.00000000000000E+00,0.00000000000000E+00,0.00000000000000E+00,0.00000000000000E+00,0.00000000000000E+00,0.00000000000000E+00
MEA,,,,,,,,,,,,,,,,,,,,,,,,,,,,,,,,,,,,,,,,,,,,,1.46666666666667E+00,1.94117647058824E+00,2.17647058823529E+00,2.52631578947368E+00,2.89473684210526E+00,3.21052631578947E+00,3.36842105263158E+00,3.63157894736842E+00
MEX,,,,,,,,,,,,,,,,,,,,,,,,,,,,,,,,,,,,,,,,,,,,,6.00000000000000E+00,6.00000000000000E+00,6.00000000000000E+00,6.00000000000000E+00,6.00000000000000E+00,6.00000000000000E+00,6.00000000000000E+00,6.00000000000000E+00
MHL,,,,,,,,,,,,,,,,,,,,,,,,,,,,,,,,,,,,,,,,,,,,,0.00000000000000E+00,0.00000000000000E+00,0.00000000000000E+00,0.00000000000000E+00,0.00000000000000E+00,0.00000000000000E+00,0.00000000000000E+00,0.00000000000000E+00
MIC,,,,,,,,,,,,,,,,,,,,,,,,,,,,,,,,,,,,,,,,,,,,,2.08045977011494E+00,2.15686274509804E+00,2.36893203883495E+00,2.51456310679612E+00,2.80582524271845E+00,2.95192307692308E+00,3.07692307692308E+00,3.26923076923077E+00
MKD,,,,,,,,,,,,,,,,,,,,,,,,,,,,,,,,,,,,,,,,,,,,,3.00000000000000E+00,3.00000000000000E+00,3.00000000000000E+00,3.00000000000000E+00,4.00000000000000E+00,4.00000000000000E+00,4.00000000000000E+00,6.00000000000000E+00
MLI,,,,,,,,,,,,,,,,,,,,,,,,,,,,,,,,,,,,,,,,,,,,,1.00000000000000E+00,1.00000000000000E+00,1.00000000000000E+00,1.00000000000000E+00,1.00000000000000E+00,1.00000000000000E+00,1.00000000000000E+00,1.00000000000000E+00
MNA,,,,,,,,,,,,,,,,,,,,,,,,,,,,,,,,,,,,,,,,,,,,,1.27272727272727E+00,1.33333333333333E+00,1.66666666666667E+00,2.00000000000000E+00,2.33333333333333E+00,2.83333333333333E+00,3.08333333333333E+00,3.16666666666667E+00
MNE,,,,,,,,,,,,,,,,,,,,,,,,,,,,,,,,,,,,,,,,,,,,,,,0.00000000000000E+00,0.00000000000000E+00,4.00000000000000E+00,4.00000000000000E+00,4.00000000000000E+00,4.00000000000000E+00
MNG,,,,,,,,,,,,,,,,,,,,,,,,,,,,,,,,,,,,,,,,,,,,,3.00000000000000E+00,3.00000000000000E+00,3.00000000000000E+00,3.00000000000000E+00,3.00000000000000E+00,3.00000000000000E+00,3.00000000000000E+00,4.00000000000000E+00
MOZ,,,,,,,,,,,,,,,,,,,,,,,,,,,,,,,,,,,,,,,,,,,,,3.00000000000000E+00,3.00000000000000E+00,3.00000000000000E+00,3.00000000000000E+00,4.00000000000000E+00,4.00000000000000E+00,4.00000000000000E+00,4.00000000000000E+00
MRT,,,,,,,,,,,,,,,,,,,,,,,,,,,,,,,,,,,,,,,,,,,,,1.00000000000000E+00,1.00000000000000E+00,1.00000000000000E+00,1.00000000000000E+00,1.00000000000000E+00,1.00000000000000E+00,1.00000000000000E+00,1.00000000000000E+00
MUS,,,,,,,,,,,,,,,,,,,,,,,,,,,,,,,,,,,,,,,,,,,,,0.00000000000000E+00,0.00000000000000E+00,2.00000000000000E+00,2.00000000000000E+00,3.00000000000000E+00,3.00000000000000E+00,3.00000000000000E+00,3.00000000000000E+00
MWI,,,,,,,,,,,,,,,,,,,,,,,,,,,,,,,,,,,,,,,,,,,,,0.00000000000000E+00,0.00000000000000E+00,0.00000000000000E+00,0.00000000000000E+00,0.00000000000000E+00,0.00000000000000E+00,0.00000000000000E+00,0.00000000000000E+00
MYS,,,,,,,,,,,,,,,,,,,,,,,,,,,,,,,,,,,,,,,,,,,,,6.00000000000000E+00,6.00000000000000E+00,6.00000000000000E+00,6.00000000000000E+00,6.00000000000000E+00,6.00000000000000E+00,6.00000000000000E+00,6.00000000000000E+00
NAC,,,,,,,,,,,,,,,,,,,,,,,,,,,,,,,,,,,,,,,,,,,,,6.00000000000000E+00,6.00000000000000E+00,6.00000000000000E+00,6.00000000000000E+00,6.00000000000000E+00,6.00000000000000E+00,6.00000000000000E+00,6.00000000000000E+00
NAM,,,,,,,,,,,,,,,,,,,,,,,,,,,,,,,,,,,,,,,,,,,,,5.00000000000000E+00,5.00000000000000E+00,5.00000000000000E+00,5.00000000000000E+00,5.00000000000000E+00,5.00000000000000E+00,5.00000000000000E+00,5.00000000000000E+00
NER,,,,,,,,,,,,,,,,,,,,,,,,,,,,,,,,,,,,,,,,,,,,,1.00000000000000E+00,1.00000000000000E+00,1.00000000000000E+00,1.00000000000000E+00,1.00000000000000E+00,1.00000000000000E+00,1.00000000000000E+00,1.00000000000000E+00
NGA,,,,,,,,,,,,,,,,,,,,,,,,,,,,,,,,,,,,,,,,,,,,,0.00000000000000E+00,0.00000000000000E+00,0.00000000000000E+00,0.00000000000000E+00,0.00000000000000E+00,0.00000000000000E+00,0.00000000000000E+00,0.00000000000000E+00
NIC,,,,,,,,,,,,,,,,,,,,,,,,,,,,,,,,,,,,,,,,,,,,,3.00000000000000E+00,4.00000000000000E+00,5.00000000000000E+00,5.00000000000000E+00,5.00000000000000E+00,5.00000000000000E+00,5.00000000000000E+00,5.00000000000000E+00
NLD,,,,,,,,,,,,,,,,,,,,,,,,,,,,,,,,,,,,,,,,,,,,,5.00000000000000E+00,5.00000000000000E+00,5.00000000000000E+00,5.00000000000000E+00,5.00000000000000E+00,5.00000000000000E+00,5.00000000000000E+00,5.00000000000000E+00
NOC,,,,,,,,,,,,,,,,,,,,,,,,,,,,,,,,,,,,,,,,,,,,,2.87500000000000E+00,3.18181818181818E+00,2.91666666666667E+00,3.06666666666667E+00,3.06250000000000E+00,3.12500000000000E+00,3.18750000000000E+00,3.50000000000000E+00
NOR,,,,,,,,,,,,,,,,,,,,,,,,,,,,,,,,,,,,,,,,,,,,,4.00000000000000E+00,4.00000000000000E+00,4.00000000000000E+00,4.00000000000000E+00,4.00000000000000E+00,4.00000000000000E+00,4.00000000000000E+00,4.00000000000000E+00
NPL,,,,,,,,,,,,,,,,,,,,,,,,,,,,,,,,,,,,,,,,,,,,,2.00000000000000E+00,2.00000000000000E+00,2.00000000000000E+00,2.00000000000000E+00,2.00000000000000E+00,3.00000000000000E+00,3.00000000000000E+00,3.00000000000000E+00
NZL,,,,,,,,,,,,,,,,,,,,,,,,,,,,,,,,,,,,,,,,,,,,,5.00000000000000E+00,5.00000000000000E+00,5.00000000000000E+00,5.00000000000000E+00,5.00000000000000E+00,5.00000000000000E+00,5.00000000000000E+00,5.00000000000000E+00
OEC,,,,,,,,,,,,,,,,,,,,,,,,,,,,,,,,,,,,,,,,,,,,,4.70000000000000E+00,4.80000000000000E+00,4.61290322580645E+00,4.61290322580645E+00,4.70967741935484E+00,4.77419354838710E+00,4.77419354838710E+00,4.74193548387097E+00
OED,,,,,,,,,,,,,,,,,,,,,,,,,,,,,,,,,,,,,,,,,,,,,4.75757575757576E+00,4.84848484848485E+00,4.67647058823529E+00,4.67647058823529E+00,4.76470588235294E+00,4.82352941176471E+00,4.82352941176471E+00,4.79411764705882E+00
OMN,,,,,,,,,,,,,,,,,,,,,,,,,,,,,,,,,,,,,,,,,,,,,,2.00000000000000E+00,2.00000000000000E+00,2.00000000000000E+00,2.00000000000000E+00,2.00000000000000E+00,2.00000000000000E+00,4.00000000000000E+00
PAK,,,,,,,,,,,,,,,,,,,,,,,,,,,,,,,,,,,,,,,,,,,,,3.00000000000000E+00,3.00000000000000E+00,4.00000000000000E+00,4.00000000000000E+00,4.00000000000000E+00,4.00000000000000E+00,4.00000000000000E+00,4.00000000000000E+00
PAN,,,,,,,,,,,,,,,,,,,,,,,,,,,,,,,,,,,,,,,,,,,,,6.00000000000000E+00,6.00000000000000E+00,6.00000000000000E+00,6.00000000000000E+00,6.00000000000000E+00,6.00000000000000E+00,6.00000000000000E+00,6.00000000000000E+00
PER,,,,,,,,,,,,,,,,,,,,,,,,,,,,,,,,,,,,,,,,,,,,,6.00000000000000E+00,6.00000000000000E+00,6.00000000000000E+00,6.00000000000000E+00,6.00000000000000E+00,6.00000000000000E+00,6.00000000000000E+00,6.00000000000000E+00
PHL,,,,,,,,,,,,,,,,,,,,,,,,,,,,,,,,,,,,,,,,,,,,,3.00000000000000E+00,3.00000000000000E+00,3.00000000000000E+00,3.00000000000000E+00,3.00000000000000E+00,3.00000000000000E+00,3.00000000000000E+00,3.00000000000000E+00
PLW,,,,,,,,,,,,,,,,,,,,,,,,,,,,,,,,,,,,,,,,,,,,,0.00000000000000E+00,0.00000000000000E+00,0.00000000000000E+00,0.00000000000000E+00,0.00000000000000E+00,0.00000000000000E+00,0.00000000000000E+00,0.00000000000000E+00
PNG,,,,,,,,,,,,,,,,,,,,,,,,,,,,,,,,,,,,,,,,,,,,,0.00000000000000E+00,0.00000000000000E+00,0.00000000000000E+00,0.00000000000000E+00,0.00000000000000E+00,0.00000000000000E+00,3.00000000000000E+00,3.00000000000000E+00
POL,,,,,,,,,,,,,,,,,,,,,,,,,,,,,,,,,,,,,,,,,,,,,4.00000000000000E+00,4.00000000000000E+00,4.00000000000000E+00,4.00000000000000E+00,4.00000000000000E+00,5.00000000000000E+00,5.00000000000000E+00,5.00000000000000E+00
PRI,,,,,,,,,,,,,,,,,,,,,,,,,,,,,,,,,,,,,,,,,,,,,5.00000000000000E+00,5.00000000000000E+00,5.00000000000000E+00,5.00000000000000E+00,5.00000000000000E+00,5.00000000000000E+00,5.00000000000000E+00,5.00000000000000E+00
PRT,,,,,,,,,,,,,,,,,,,,,,,,,,,,,,,,,,,,,,,,,,,,,4.00000000000000E+00,4.00000000000000E+00,4.00000000000000E+00,4.00000000000000E+00,4.00000000000000E+00,4.00000000000000E+00,4.00000000000000E+00,4.00000000000000E+00
PRY,,,,,,,,,,,,,,,,,,,,,,,,,,,,,,,,,,,,,,,,,,,,,6.00000000000000E+00,6.00000000000000E+00,6.00000000000000E+00,6.00000000000000E+00,6.00000000000000E+00,6.00000000000000E+00,6.00000000000000E+00,6.00000000000000E+00
QAT,,,,,,,,,,,,,,,,,,,,,,,,,,,,,,,,,,,,,,,,,,,,,,,,2.00000000000000E+00,2.00000000000000E+00,2.00000000000000E+00,2.00000000000000E+00,4.00000000000000E+00
ROM,,,,,,,,,,,,,,,,,,,,,,,,,,,,,,,,,,,,,,,,,,,,,4.00000000000000E+00,5.00000000000000E+00,5.00000000000000E+00,5.00000000000000E+00,5.00000000000000E+00,5.00000000000000E+00,5.00000000000000E+00,5.00000000000000E+00
RUS,,,,,,,,,,,,,,,,,,,,,,,,,,,,,,,,,,,,,,,,,,,,,0.00000000000000E+00,0.00000000000000E+00,0.00000000000000E+00,4.00000000000000E+00,4.00000000000000E+00,5.00000000000000E+00,5.00000000000000E+00,5.00000000000000E+00
RWA,,,,,,,,,,,,,,,,,,,,,,,,,,,,,,,,,,,,,,,,,,,,,2.00000000000000E+00,2.00000000000000E+00,2.00000000000000E+00,2.00000000000000E+00,2.00000000000000E+00,2.00000000000000E+00,4.00000000000000E+00,6.00000000000000E+00
SAS,,,,,,,,,,,,,,,,,,,,,,,,,,,,,,,,,,,,,,,,,,,,,1.37500000000000E+00,1.62500000000000E+00,1.87500000000000E+00,1.87500000000000E+00,2.12500000000000E+00,2.25000000000000E+00,2.25000000000000E+00,2.75000000000000E+00
SAU,,,,,,,,,,,,,,,,,,,,,,,,,,,,,,,,,,,,,,,,,,,,,0.00000000000000E+00,5.00000000000000E+00,5.00000000000000E+00,6.00000000000000E+00,6.00000000000000E+00,6.00000000000000E+00,6.00000000000000E+00,6.00000000000000E+00
SDN,,,,,,,,,,,,,,,,,,,,,,,,,,,,,,,,,,,,,,,,,,,,,0.00000000000000E+00,0.00000000000000E+00,0.00000000000000E+00,0.00000000000000E+00,0.00000000000000E+00,0.00000000000000E+00,0.00000000000000E+00,0.00000000000000E+00
SEN,,,,,,,,,,,,,,,,,,,,,,,,,,,,,,,,,,,,,,,,,,,,,1.00000000000000E+00,1.00000000000000E+00,1.00000000000000E+00,1.00000000000000E+00,1.00000000000000E+00,1.00000000000000E+00,1.00000000000000E+00,1.00000000000000E+00
SGP,,,,,,,,,,,,,,,,,,,,,,,,,,,,,,,,,,,,,,,,,,,,,3.00000000000000E+00,3.00000000000000E+00,3.00000000000000E+00,3.00000000000000E+00,3.00000000000000E+00,3.00000000000000E+00,4.00000000000000E+00,4.00000000000000E+00
SLB,,,,,,,,,,,,,,,,,,,,,,,,,,,,,,,,,,,,,,,,,,,,,0.00000000000000E+00,0.00000000000000E+00,0.00000000000000E+00,0.00000000000000E+00,0.00000000000000E+00,0.00000000000000E+00,0.00000000000000E+00,0.00000000000000E+00
SLE,,,,,,,,,,,,,,,,,,,,,,,,,,,,,,,,,,,,,,,,,,,,,0.00000000000000E+00,0.00000000000000E+00,0.00000000000000E+00,0.00000000000000E+00,0.00000000000000E+00,0.00000000000000E+00,0.00000000000000E+00,0.00000000000000E+00
SLV,,,,,,,,,,,,,,,,,,,,,,,,,,,,,,,,,,,,,,,,,,,,,5.00000000000000E+00,5.00000000000000E+00,6.00000000000000E+00,6.00000000000000E+00,6.00000000000000E+00,6.00000000000000E+00,6.00000000000000E+00,6.00000000000000E+00
SRB,,,,,,,,,,,,,,,,,,,,,,,,,,,,,,,,,,,,,,,,,,,,,0.00000000000000E+00,4.00000000000000E+00,4.00000000000000E+00,4.00000000000000E+00,4.00000000000000E+00,5.00000000000000E+00,5.00000000000000E+00,5.00000000000000E+00
SSA,,,,,,,,,,,,,,,,,,,,,,,,,,,,,,,,,,,,,,,,,,,,,9.72972972972973E-01,1.18181818181818E+00,1.24444444444444E+00,1.28888888888889E+00,1.35555555555556E+00,1.42222222222222E+00,1.64444444444444E+00,1.80000000000000E+00
SSF,,,,,,,,,,,,,,,,,,,,,,,,,,,,,,,,,,,,,,,,,,,,,9.72972972972973E-01,1.20000000000000E+00,1.26086956521739E+00,1.30434782608696E+00,1.36956521739130E+00,1.43478260869565E+00,1.65217391304348E+00,1.80434782608696E+00
STP,,,,,,,,,,,,,,,,,,,,,,,,,,,,,,,,,,,,,,,,,,,,,0.00000000000000E+00,0.00000000000000E+00,0.00000000000000E+00,0.00000000000000E+00,0.00000000000000E+00,0.00000000000000E+00,0.00000000000000E+00,0.00000000000000E+00
SUR,,,,,,,,,,,,,,,,,,,,,,,,,,,,,,,,,,,,,,,,,,,,,,0.00000000000000E+00,0.00000000000000E+00,0.00000000000000E+00,0.00000000000000E+00,0.00000000000000E+00,0.00000000000000E+00,0.00000000000000E+00
SVK,,,,,,,,,,,,,,,,,,,,,,,,,,,,,,,,,,,,,,,,,,,,,3.00000000000000E+00,3.00000000000000E+00,3.00000000000000E+00,4.00000000000000E+00,4.00000000000000E+00,4.00000000000000E+00,4.00000000000000E+00,4.00000000000000E+00
SVN,,,,,,,,,,,,,,,,,,,,,,,,,,,,,,,,,,,,,,,,,,,,,3.00000000000000E+00,3.00000000000000E+00,3.00000000000000E+00,2.00000000000000E+00,4.00000000000000E+00,4.00000000000000E+00,4.00000000000000E+00,4.00000000000000E+00
SWE,,,,,,,,,,,,,,,,,,,,,,,,,,,,,,,,,,,,,,,,,,,,,4.00000000000000E+00,4.00000000000000E+00,4.00000000000000E+00,4.00000000000000E+00,4.00000000000000E+00,4.00000000000000E+00,4.00000000000000E+00,4.00000000000000E+00
SWZ,,,,,,,,,,,,,,,,,,,,,,,,,,,,,,,,,,,,,,,,,,,,,,5.00000000000000E+00,5.00000000000000E+00,5.00000000000000E+00,5.00000000000000E+00,5.00000000000000E+00,5.00000000000000E+00,5.00000000000000E+00
SYC,,,,,,,,,,,,,,,,,,,,,,,,,,,,,,,,,,,,,,,,,,,,,,0.00000000000000E+00,0.00000000000000E+00,0.00000000000000E+00,0.00000000000000E+00,0.00000000000000E+00,0.00000000000000E+00,0.00000000000000E+00
SYR,,,,,,,,,,,,,,,,,,,,,,,,,,,,,,,,,,,,,,,,,,,,,0.00000000000000E+00,0.00000000000000E+00,0.00000000000000E+00,0.00000000000000E+00,0.00000000000000E+00,0.00000000000000E+00,2.00000000000000E+00,2.00000000000000E+00
TCD,,,,,,,,,,,,,,,,,,,,,,,,,,,,,,,,,,,,,,,,,,,,,0.00000000000000E+00,1.00000000000000E+00,1.00000000000000E+00,1.00000000000000E+00,1.00000000000000E+00,1.00000000000000E+00,1.00000000000000E+00,2.00000000000000E+00
TGO,,,,,,,,,,,,,,,,,,,,,,,,,,,,,,,,,,,,,,,,,,,,,1.00000000000000E+00,1.00000000000000E+00,1.00000000000000E+00,1.00000000000000E+00,1.00000000000000E+00,1.00000000000000E+00,1.00000000000000E+00,1.00000000000000E+00
THA,,,,,,,,,,,,,,,,,,,,,,,,,,,,,,,,,,,,,,,,,,,,,4.00000000000000E+00,4.00000000000000E+00,5.00000000000000E+00,5.00000000000000E+00,5.00000000000000E+00,5.00000000000000E+00,5.00000000000000E+00,5.00000000000000E+00
TJK,,,,,,,,,,,,,,,,,,,,,,,,,,,,,,,,,,,,,,,,,,,,,,0.00000000000000E+00,0.00000000000000E+00,0.00000000000000E+00,0.00000000000000E+00,0.00000000000000E+00,0.00000000000000E+00,0.00000000000000E+00
TMP,,,,,,,,,,,,,,,,,,,,,,,,,,,,,,,,,,,,,,,,,,,,,0.00000000000000E+00,0.00000000000000E+00,0.00000000000000E+00,0.00000000000000E+00,0.00000000000000E+00,0.00000000000000E+00,0.00000000000000E+00,3.00000000000000E+00
TON,,,,,,,,,,,,,,,,,,,,,,,,,,,,,,,,,,,,,,,,,,,,,0.00000000000000E+00,0.00000000000000E+00,0.00000000000000E+00,0.00000000000000E+00,0.00000000000000E+00,0.00000000000000E+00,0.00000000000000E+00,0.00000000000000E+00
TTO,,,,,,,,,,,,,,,,,,,,,,,,,,,,,,,,,,,,,,,,,,,,,,3.00000000000000E+00,3.00000000000000E+00,4.00000000000000E+00,4.00000000000000E+00,4.00000000000000E+00,4.00000000000000E+00,4.00000000000000E+00
TUN,,,,,,,,,,,,,,,,,,,,,,,,,,,,,,,,,,,,,,,,,,,,,2.00000000000000E+00,2.00000000000000E+00,2.00000000000000E+00,3.00000000000000E+00,5.00000000000000E+00,5.00000000000000E+00,5.00000000000000E+00,5.00000000000000E+00
TUR,,,,,,,,,,,,,,,,,,,,,,,,,,,,,,,,,,,,,,,,,,,,,5.00000000000000E+00,5.00000000000000E+00,5.00000000000000E+00,5.00000000000000E+00,5.00000000000000E+00,5.00000000000000E+00,5.00000000000000E+00,5.00000000000000E+00
TZA,,,,,,,,,,,,,,,,,,,,,,,,,,,,,,,,,,,,,,,,,,,,,0.00000000000000E+00,0.00000000000000E+00,0.00000000000000E+00,0.00000000000000E+00,0.00000000000000E+00,0.00000000000000E+00,0.00000000000000E+00,0.00000000000000E+00
UGA,,,,,,,,,,,,,,,,,,,,,,,,,,,,,,,,,,,,,,,,,,,,,0.00000000000000E+00,0.00000000000000E+00,0.00000000000000E+00,0.00000000000000E+00,0.00000000000000E+00,0.00000000000000E+00,4.00000000000000E+00,4.00000000000000E+00
UKR,,,,,,,,,,,,,,,,,,,,,,,,,,,,,,,,,,,,,,,,,,,,,0.00000000000000E+00,0.00000000000000E+00,0.00000000000000E+00,0.00000000000000E+00,3.00000000000000E+00,3.00000000000000E+00,4.00000000000000E+00,4.00000000000000E+00
UMC,,,,,,,,,,,,,,,,,,,,,,,,,,,,,,,,,,,,,,,,,,,,,3.15000000000000E+00,2.93877551020408E+00,3.12000000000000E+00,3.26000000000000E+00,3.58000000000000E+00,3.66000000000000E+00,3.68000000000000E+00,3.74000000000000E+00
URY,,,,,,,,,,,,,,,,,,,,,,,,,,,,,,,,,,,,,,,,,,,,,4.00000000000000E+00,5.00000000000000E+00,6.00000000000000E+00,6.00000000000000E+00,6.00000000000000E+00,6.00000000000000E+00,6.00000000000000E+00,6.00000000000000E+00
USA,,,,,,,,,,,,,,,,,,,,,,,,,,,,,,,,,,,,,,,,,,,,,6.00000000000000E+00,6.00000000000000E+00,6.00000000000000E+00,6.00000000000000E+00,6.00000000000000E+00,6.00000000000000E+00,6.00000000000000E+00,6.00000000000000E+00
UZB,,,,,,,,,,,,,,,,,,,,,,,,,,,,,,,,,,,,,,,,,,,,,0.00000000000000E+00,0.00000000000000E+00,0.00000000000000E+00,0.00000000000000E+00,3.00000000000000E+00,3.00000000000000E+00,3.00000000000000E+00,3.00000000000000E+00
VCT,,,,,,,,,,,,,,,,,,,,,,,,,,,,,,,,,,,,,,,,,,,,,,0.00000000000000E+00,0.00000000000000E+00,0.00000000000000E+00,0.00000000000000E+00,0.00000000000000E+00,0.00000000000000E+00,0.00000000000000E+00
VEN,,,,,,,,,,,,,,,,,,,,,,,,,,,,,,,,,,,,,,,,,,,,,4.00000000000000E+00,4.00000000000000E+00,0.00000000000000E+00,0.00000000000000E+00,0.00000000000000E+00,0.00000000000000E+00,0.00000000000000E+00,0.00000000000000E+00
VNM,,,,,,,,,,,,,,,,,,,,,,,,,,,,,,,,,,,,,,,,,,,,,2.00000000000000E+00,3.00000000000000E+00,3.00000000000000E+00,3.00000000000000E+00,4.00000000000000E+00,4.00000000000000E+00,5.00000000000000E+00,5.00000000000000E+00
VUT,,,,,,,,,,,,,,,,,,,,,,,,,,,,,,,,,,,,,,,,,,,,,0.00000000000000E+00,0.00000000000000E+00,0.00000000000000E+00,0.00000000000000E+00,0.00000000000000E+00,0.00000000000000E+00,0.00000000000000E+00,0.00000000000000E+00
WBG,,,,,,,,,,,,,,,,,,,,,,,,,,,,,,,,,,,,,,,,,,,,,0.00000000000000E+00,0.00000000000000E+00,2.00000000000000E+00,3.00000000000000E+00,3.00000000000000E+00,3.00000000000000E+00,3.00000000000000E+00,3.00000000000000E+00
WLD,,,,,,,,,,,,,,,,,,,,,,,,,,,,,,,,,,,,,,,,,,,,,2.40131578947368E+00,2.44827586206897E+00,2.53370786516854E+00,2.64088397790055E+00,2.84065934065934E+00,2.95081967213115E+00,3.05464480874317E+00,3.20218579234973E+00
WSM,,,,,,,,,,,,,,,,,,,,,,,,,,,,,,,,,,,,,,,,,,,,,0.00000000000000E+00,0.00000000000000E+00,0.00000000000000E+00,0.00000000000000E+00,0.00000000000000E+00,0.00000000000000E+00,0.00000000000000E+00,0.00000000000000E+00
YEM,,,,,,,,,,,,,,,,,,,,,,,,,,,,,,,,,,,,,,,,,,,,,0.00000000000000E+00,0.00000000000000E+00,0.00000000000000E+00,0.00000000000000E+00,0.00000000000000E+00,2.00000000000000E+00,2.00000000000000E+00,2.00000000000000E+00
ZAF,,,,,,,,,,,,,,,,,,,,,,,,,,,,,,,,,,,,,,,,,,,,,5.00000000000000E+00,5.00000000000000E+00,5.00000000000000E+00,6.00000000000000E+00,6.00000000000000E+00,6.00000000000000E+00,6.00000000000000E+00,6.00000000000000E+00
ZAR,,,,,,,,,,,,,,,,,,,,,,,,,,,,,,,,,,,,,,,,,,,,,0.00000000000000E+00,0.00000000000000E+00,0.00000000000000E+00,0.00000000000000E+00,0.00000000000000E+00,0.00000000000000E+00,0.00000000000000E+00,0.00000000000000E+00
ZMB,,,,,,,,,,,,,,,,,,,,,,,,,,,,,,,,,,,,,,,,,,,,,0.00000000000000E+00,0.00000000000000E+00,0.00000000000000E+00,0.00000000000000E+00,0.00000000000000E+00,3.00000000000000E+00,5.00000000000000E+00,5.00000000000000E+00
ZWE,,,,,,,,,,,,,,,,,,,,,,,,,,,,,,,,,,,,,,,,,,,,,0.00000000000000E+00,0.00000000000000E+00,0.00000000000000E+00,0.00000000000000E+00,0.00000000000000E+00,0.00000000000000E+00,0.00000000000000E+00,0.00000000000000E+00
