"Country Code",1960,1961,1962,1963,1964,1965,1966,1967,1968,1969,1970,1971,1972,1973,1974,1975,1976,1977,1978,1979,1980,1981,1982,1983,1984,1985,1986,1987,1988,1989,1990,1991,1992,1993,1994,1995,1996,1997,1998,1999,2000,2001,2002,2003,2004,2005,2006,2007,2008,2009,2010,2011AFG,,,,,,,,,,,,,,,,,,,,,,,,,,,,,,,,,,,,,,,,,,,,,,,,3.00000000000000E+01,3.00000000000000E+01,3.00000000000000E+01,,
AGO,,,,,,,,,,,,,,,,,,,,,,,,,,,,,,,,,,,,,,,,,,,,5.80000000000000E+01,5.80000000000000E+01,5.80000000000000E+01,5.80000000000000E+01,5.80000000000000E+01,5.80000000000000E+01,5.80000000000000E+01,,
ALB,,,,,,,,,,,,,,,,,,,,,,,,,,,,,,,,,,,,,,,,,,,,4.70000000000000E+01,5.60000000000000E+01,5.60000000000000E+01,5.60000000000000E+01,5.60000000000000E+01,5.60000000000000E+01,5.60000000000000E+01,,
ARB,,,,,,,,,,,,,,,,,,,,,,,,,,,,,,,,,,,,,,,,,,,,4.66153846153846E+01,5.49333333333333E+01,5.94705882352941E+01,5.94705882352941E+01,5.70526315789474E+01,5.70526315789474E+01,5.70526315789474E+01,,
ARE,,,,,,,,,,,,,,,,,,,,,,,,,,,,,,,,,,,,,,,,,,,,8.40000000000000E+01,8.40000000000000E+01,8.40000000000000E+01,8.40000000000000E+01,8.40000000000000E+01,8.40000000000000E+01,8.40000000000000E+01,,
ARG,,,,,,,,,,,,,,,,,,,,,,,,,,,,,,,,,,,,,,,,,,,,1.82000000000000E+02,1.82000000000000E+02,1.65000000000000E+02,1.39000000000000E+02,1.39000000000000E+02,9.50000000000000E+01,9.50000000000000E+01,,
ARM,,,,,,,,,,,,,,,,,,,,,,,,,,,,,,,,,,,,,,,,,,,,1.70000000000000E+01,1.70000000000000E+01,1.70000000000000E+01,1.30000000000000E+01,1.30000000000000E+01,1.30000000000000E+01,1.30000000000000E+01,,
ATG,,,,,,,,,,,,,,,,,,,,,,,,,,,,,,,,,,,,,,,,,,,,,,5.20000000000000E+01,5.20000000000000E+01,5.20000000000000E+01,5.20000000000000E+01,5.20000000000000E+01,,
AUS,,,,,,,,,,,,,,,,,,,,,,,,,,,,,,,,,,,,,,,,,,,,4.00000000000000E+00,4.00000000000000E+00,4.00000000000000E+00,4.00000000000000E+00,4.00000000000000E+00,4.00000000000000E+00,4.00000000000000E+00,,
AUT,,,,,,,,,,,,,,,,,,,,,,,,,,,,,,,,,,,,,,,,,,,,2.00000000000000E+00,2.00000000000000E+00,2.00000000000000E+00,2.00000000000000E+00,2.00000000000000E+00,2.00000000000000E+00,2.00000000000000E+00,,
AZE,,,,,,,,,,,,,,,,,,,,,,,,,,,,,,,,,,,,,,,,,,,,2.20000000000000E+01,2.20000000000000E+01,2.20000000000000E+01,2.20000000000000E+01,2.20000000000000E+01,2.20000000000000E+01,2.20000000000000E+01,,
BDI,,,,,,,,,,,,,,,,,,,,,,,,,,,,,,,,,,,,,,,,,,,,2.60000000000000E+01,2.60000000000000E+01,2.60000000000000E+01,2.60000000000000E+01,2.60000000000000E+01,2.60000000000000E+01,2.60000000000000E+01,,
BEL,,,,,,,,,,,,,,,,,,,,,,,,,,,,,,,,,,,,,,,,,,,,1.60000000000000E+01,1.60000000000000E+01,1.60000000000000E+01,1.60000000000000E+01,1.60000000000000E+01,1.60000000000000E+01,1.60000000000000E+01,,
BEN,,,,,,,,,,,,,,,,,,,,,,,,,,,,,,,,,,,,,,,,,,,,3.60000000000000E+01,3.60000000000000E+01,3.60000000000000E+01,3.60000000000000E+01,3.60000000000000E+01,3.60000000000000E+01,3.60000000000000E+01,,
BFA,,,,,,,,,,,,,,,,,,,,,,,,,,,,,,,,,,,,,,,,,,,,3.40000000000000E+01,3.40000000000000E+01,3.40000000000000E+01,3.40000000000000E+01,3.40000000000000E+01,3.40000000000000E+01,3.40000000000000E+01,,
BGD,,,,,,,,,,,,,,,,,,,,,,,,,,,,,,,,,,,,,,,,,,,,1.04000000000000E+02,1.04000000000000E+02,1.04000000000000E+02,1.04000000000000E+02,1.04000000000000E+02,1.04000000000000E+02,1.04000000000000E+02,,
BGR,,,,,,,,,,,,,,,,,,,,,,,,,,,,,,,,,,,,,,,,,,,,9.00000000000000E+00,9.00000000000000E+00,9.00000000000000E+00,9.00000000000000E+00,9.00000000000000E+00,9.00000000000000E+00,9.00000000000000E+00,,
BHR,,,,,,,,,,,,,,,,,,,,,,,,,,,,,,,,,,,,,,,,,,,,,,,,4.00000000000000E+00,4.00000000000000E+00,4.00000000000000E+00,,
BHS,,,,,,,,,,,,,,,,,,,,,,,,,,,,,,,,,,,,,,,,,,,,,,,,2.60000000000000E+01,2.60000000000000E+01,2.60000000000000E+01,,
BIH,,,,,,,,,,,,,,,,,,,,,,,,,,,,,,,,,,,,,,,,,,,,3.10000000000000E+01,3.10000000000000E+01,3.10000000000000E+01,3.10000000000000E+01,3.10000000000000E+01,3.10000000000000E+01,3.10000000000000E+01,,
BLR,,,,,,,,,,,,,,,,,,,,,,,,,,,,,,,,,,,,,,,,,,,,2.20000000000000E+01,2.20000000000000E+01,2.20000000000000E+01,2.20000000000000E+01,2.20000000000000E+01,2.20000000000000E+01,2.20000000000000E+01,,
BLZ,,,,,,,,,,,,,,,,,,,,,,,,,,,,,,,,,,,,,,,,,,,,,,2.40000000000000E+01,2.40000000000000E+01,2.40000000000000E+01,2.40000000000000E+01,2.40000000000000E+01,,
BRA,,,,,,,,,,,,,,,,,,,,,,,,,,,,,,,,,,,,,,,,,,,,4.60000000000000E+01,4.60000000000000E+01,4.60000000000000E+01,4.60000000000000E+01,4.60000000000000E+01,4.60000000000000E+01,4.60000000000000E+01,,
BRN,,,,,,,,,,,,,,,,,,,,,,,,,,,,,,,,,,,,,,,,,,,,,,,4.00000000000000E+00,4.00000000000000E+00,4.00000000000000E+00,4.00000000000000E+00,,
BTN,,,,,,,,,,,,,,,,,,,,,,,,,,,,,,,,,,,,,,,,,,,,,,,,1.00000000000000E+01,1.00000000000000E+01,1.00000000000000E+01,,
BWA,,,,,,,,,,,,,,,,,,,,,,,,,,,,,,,,,,,,,,,,,,,,9.00000000000000E+01,9.00000000000000E+01,9.00000000000000E+01,9.00000000000000E+01,9.00000000000000E+01,9.00000000000000E+01,9.00000000000000E+01,,
CAF,,,,,,,,,,,,,,,,,,,,,,,,,,,,,,,,,,,,,,,,,,,,2.20000000000000E+01,2.20000000000000E+01,2.20000000000000E+01,2.20000000000000E+01,2.20000000000000E+01,2.20000000000000E+01,2.20000000000000E+01,,
CAN,,,,,,,,,,,,,,,,,,,,,,,,,,,,,,,,,,,,,,,,,,,,2.80000000000000E+01,2.80000000000000E+01,2.80000000000000E+01,2.80000000000000E+01,2.80000000000000E+01,2.80000000000000E+01,2.80000000000000E+01,,
CHE,,,,,,,,,,,,,,,,,,,,,,,,,,,,,,,,,,,,,,,,,,,,1.30000000000000E+01,1.30000000000000E+01,1.30000000000000E+01,1.30000000000000E+01,1.30000000000000E+01,1.30000000000000E+01,1.30000000000000E+01,,
CHL,,,,,,,,,,,,,,,,,,,,,,,,,,,,,,,,,,,,,,,,,,,,5.20000000000000E+01,5.20000000000000E+01,5.20000000000000E+01,5.20000000000000E+01,5.20000000000000E+01,5.20000000000000E+01,5.20000000000000E+01,,
CHN,,,,,,,,,,,,,,,,,,,,,,,,,,,,,,,,,,,,,,,,,,,,9.10000000000000E+01,9.10000000000000E+01,9.10000000000000E+01,9.10000000000000E+01,9.10000000000000E+01,9.10000000000000E+01,9.10000000000000E+01,,
CIV,,,,,,,,,,,,,,,,,,,,,,,,,,,,,,,,,,,,,,,,,,,,4.90000000000000E+01,4.90000000000000E+01,4.90000000000000E+01,4.90000000000000E+01,4.90000000000000E+01,4.90000000000000E+01,4.90000000000000E+01,,
CMR,,,,,,,,,,,,,,,,,,,,,,,,,,,,,,,,,,,,,,,,,,,,3.30000000000000E+01,3.30000000000000E+01,3.30000000000000E+01,3.30000000000000E+01,3.30000000000000E+01,3.30000000000000E+01,3.30000000000000E+01,,
COG,,,,,,,,,,,,,,,,,,,,,,,,,,,,,,,,,,,,,,,,,,,,3.30000000000000E+01,3.30000000000000E+01,3.30000000000000E+01,3.30000000000000E+01,3.30000000000000E+01,3.30000000000000E+01,3.30000000000000E+01,,
COL,,,,,,,,,,,,,,,,,,,,,,,,,,,,,,,,,,,,,,,,,,,,5.90000000000000E+01,5.90000000000000E+01,5.90000000000000E+01,5.90000000000000E+01,5.90000000000000E+01,5.90000000000000E+01,5.90000000000000E+01,,
COM,,,,,,,,,,,,,,,,,,,,,,,,,,,,,,,,,,,,,,,,,,,,,,1.00000000000000E+02,1.00000000000000E+02,1.00000000000000E+02,1.00000000000000E+02,1.00000000000000E+02,,
CPV,,,,,,,,,,,,,,,,,,,,,,,,,,,,,,,,,,,,,,,,,,,,,,9.10000000000000E+01,9.10000000000000E+01,9.10000000000000E+01,9.30000000000000E+01,9.30000000000000E+01,,
CRI,,,,,,,,,,,,,,,,,,,,,,,,,,,,,,,,,,,,,,,,,,,,2.90000000000000E+01,2.90000000000000E+01,2.90000000000000E+01,2.90000000000000E+01,2.90000000000000E+01,2.90000000000000E+01,2.90000000000000E+01,,
CYP,,,,,,,,,,,,,,,,,,,,,,,,,,,,,,,,,,,,,,,,,,,,,,,,,6.40000000000000E+01,6.40000000000000E+01,,
CZE,,,,,,,,,,,,,,,,,,,,,,,,,,,,,,,,,,,,,,,,,,,,2.20000000000000E+01,2.20000000000000E+01,2.20000000000000E+01,2.20000000000000E+01,2.20000000000000E+01,2.20000000000000E+01,2.20000000000000E+01,,
DEU,,,,,,,,,,,,,,,,,,,,,,,,,,,,,,,,,,,,,,,,,,,,6.90000000000000E+01,6.90000000000000E+01,6.90000000000000E+01,6.90000000000000E+01,6.90000000000000E+01,6.90000000000000E+01,6.90000000000000E+01,,
DJI,,,,,,,,,,,,,,,,,,,,,,,,,,,,,,,,,,,,,,,,,,,,,,5.60000000000000E+01,5.60000000000000E+01,5.60000000000000E+01,5.60000000000000E+01,5.60000000000000E+01,,
DMA,,,,,,,,,,,,,,,,,,,,,,,,,,,,,,,,,,,,,,,,,,,,,,5.80000000000000E+01,5.80000000000000E+01,5.80000000000000E+01,5.80000000000000E+01,5.80000000000000E+01,,
DOM,,,,,,,,,,,,,,,,,,,,,,,,,,,,,,,,,,,,,,,,,,,,8.80000000000000E+01,8.80000000000000E+01,8.80000000000000E+01,8.80000000000000E+01,8.80000000000000E+01,8.80000000000000E+01,8.80000000000000E+01,,
DZA,,,,,,,,,,,,,,,,,,,,,,,,,,,,,,,,,,,,,,,,,,,,1.70000000000000E+01,1.70000000000000E+01,1.70000000000000E+01,1.70000000000000E+01,1.70000000000000E+01,1.70000000000000E+01,1.70000000000000E+01,,
EAP,,,,,,,,,,,,,,,,,,,,,,,,,,,,,,,,,,,,,,,,,,,,5.80000000000000E+01,5.54375000000000E+01,5.54375000000000E+01,5.54375000000000E+01,5.54375000000000E+01,5.66875000000000E+01,5.66875000000000E+01,,
EAS,,,,,,,,,,,,,,,,,,,,,,,,,,,,,,,,,,,,,,,,,,,,5.11428571428571E+01,4.95909090909091E+01,4.95909090909091E+01,4.76086956521739E+01,4.76086956521739E+01,4.84782608695652E+01,4.84782608695652E+01,,
ECA,,,,,,,,,,,,,,,,,,,,,,,,,,,,,,,,,,,,,,,,,,,,2.56842105263158E+01,2.58421052631579E+01,2.55714285714286E+01,2.53333333333333E+01,2.58095238095238E+01,2.60000000000000E+01,2.55000000000000E+01,,
ECS,,,,,,,,,,,,,,,,,,,,,,,,,,,,,,,,,,,,,,,,,,,,2.78292682926829E+01,2.70952380952381E+01,2.69090909090909E+01,2.70666666666667E+01,2.74444444444444E+01,2.84042553191489E+01,2.84893617021277E+01,,
ECU,,,,,,,,,,,,,,,,,,,,,,,,,,,,,,,,,,,,,,,,,,,,1.35000000000000E+02,1.35000000000000E+02,1.35000000000000E+02,1.35000000000000E+02,1.35000000000000E+02,1.35000000000000E+02,1.35000000000000E+02,,
EGY,,,,,,,,,,,,,,,,,,,,,,,,,,,,,,,,,,,,,,,,,,,,1.23000000000000E+02,1.32000000000000E+02,1.32000000000000E+02,1.32000000000000E+02,1.32000000000000E+02,1.32000000000000E+02,1.32000000000000E+02,,
EMU,,,,,,,,,,,,,,,,,,,,,,,,,,,,,,,,,,,,,,,,,,,,3.14285714285714E+01,3.22142857142857E+01,3.22142857142857E+01,3.26666666666667E+01,3.31333333333333E+01,3.54375000000000E+01,3.63750000000000E+01,,
ERI,,,,,,,,,,,,,,,,,,,,,,,,,,,,,,,,,,,,,,,,,,,,,6.90000000000000E+01,6.90000000000000E+01,6.90000000000000E+01,6.90000000000000E+01,6.90000000000000E+01,6.90000000000000E+01,,
ESP,,,,,,,,,,,,,,,,,,,,,,,,,,,,,,,,,,,,,,,,,,,,5.60000000000000E+01,5.60000000000000E+01,5.60000000000000E+01,5.60000000000000E+01,5.60000000000000E+01,5.60000000000000E+01,5.60000000000000E+01,,
EST,,,,,,,,,,,,,,,,,,,,,,,,,,,,,,,,,,,,,,,,,,,,3.50000000000000E+01,3.50000000000000E+01,3.50000000000000E+01,3.50000000000000E+01,3.50000000000000E+01,3.50000000000000E+01,3.50000000000000E+01,,
ETH,,,,,,,,,,,,,,,,,,,,,,,,,,,,,,,,,,,,,,,,,,,,4.00000000000000E+01,4.00000000000000E+01,4.00000000000000E+01,4.00000000000000E+01,4.00000000000000E+01,4.00000000000000E+01,4.00000000000000E+01,,
EUU,,,,,,,,,,,,,,,,,,,,,,,,,,,,,,,,,,,,,,,,,,,,2.69565217391304E+01,2.74347826086957E+01,2.74347826086957E+01,2.79166666666667E+01,2.82916666666667E+01,2.99600000000000E+01,3.05600000000000E+01,,
FIN,,,,,,,,,,,,,,,,,,,,,,,,,,,,,,,,,,,,,,,,,,,,2.60000000000000E+01,2.60000000000000E+01,2.60000000000000E+01,2.60000000000000E+01,2.60000000000000E+01,2.60000000000000E+01,2.60000000000000E+01,,
FJI,,,,,,,,,,,,,,,,,,,,,,,,,,,,,,,,,,,,,,,,,,,,2.00000000000000E+00,2.00000000000000E+00,2.00000000000000E+00,2.00000000000000E+00,2.00000000000000E+00,2.20000000000000E+01,2.20000000000000E+01,,
FRA,,,,,,,,,,,,,,,,,,,,,,,,,,,,,,,,,,,,,,,,,,,,3.20000000000000E+01,3.20000000000000E+01,3.20000000000000E+01,3.20000000000000E+01,3.20000000000000E+01,3.20000000000000E+01,3.20000000000000E+01,,
GAB,,,,,,,,,,,,,,,,,,,,,,,,,,,,,,,,,,,,,,,,,,,,,,4.30000000000000E+01,4.30000000000000E+01,4.30000000000000E+01,4.30000000000000E+01,4.30000000000000E+01,,
GBR,,,,,,,,,,,,,,,,,,,,,,,,,,,,,,,,,,,,,,,,,,,,2.20000000000000E+01,2.20000000000000E+01,2.20000000000000E+01,2.20000000000000E+01,2.20000000000000E+01,2.20000000000000E+01,2.20000000000000E+01,,
GEO,,,,,,,,,,,,,,,,,,,,,,,,,,,,,,,,,,,,,,,,,,,,2.20000000000000E+01,2.20000000000000E+01,4.00000000000000E+00,4.00000000000000E+00,4.00000000000000E+00,4.00000000000000E+00,4.00000000000000E+00,,
GHA,,,,,,,,,,,,,,,,,,,,,,,,,,,,,,,,,,,,,,,,,,,,1.78000000000000E+02,1.78000000000000E+02,1.78000000000000E+02,1.78000000000000E+02,1.78000000000000E+02,1.78000000000000E+02,1.78000000000000E+02,,
GIN,,,,,,,,,,,,,,,,,,,,,,,,,,,,,,,,,,,,,,,,,,,,2.60000000000000E+01,2.60000000000000E+01,2.60000000000000E+01,2.60000000000000E+01,2.60000000000000E+01,2.60000000000000E+01,2.60000000000000E+01,,
GMB,,,,,,,,,,,,,,,,,,,,,,,,,,,,,,,,,,,,,,,,,,,,,,9.00000000000000E+00,9.00000000000000E+00,9.00000000000000E+00,2.60000000000000E+01,2.60000000000000E+01,,
GNB,,,,,,,,,,,,,,,,,,,,,,,,,,,,,,,,,,,,,,,,,,,,,,8.70000000000000E+01,8.70000000000000E+01,8.70000000000000E+01,8.70000000000000E+01,8.70000000000000E+01,,
GNQ,,,,,,,,,,,,,,,,,,,,,,,,,,,,,,,,,,,,,,,,,,,,,,1.33000000000000E+02,1.33000000000000E+02,1.33000000000000E+02,1.33000000000000E+02,1.33000000000000E+02,,
GRC,,,,,,,,,,,,,,,,,,,,,,,,,,,,,,,,,,,,,,,,,,,,2.40000000000000E+01,2.40000000000000E+01,2.40000000000000E+01,2.40000000000000E+01,2.40000000000000E+01,2.40000000000000E+01,2.40000000000000E+01,,
GRD,,,,,,,,,,,,,,,,,,,,,,,,,,,,,,,,,,,,,,,,,,,,,,2.90000000000000E+01,2.90000000000000E+01,2.90000000000000E+01,2.90000000000000E+01,2.90000000000000E+01,,
GTM,,,,,,,,,,,,,,,,,,,,,,,,,,,,,,,,,,,,,,,,,,,,1.01000000000000E+02,1.01000000000000E+02,1.01000000000000E+02,1.01000000000000E+02,1.01000000000000E+02,1.01000000000000E+02,1.01000000000000E+02,,
GUY,,,,,,,,,,,,,,,,,,,,,,,,,,,,,,,,,,,,,,,,,,,,,5.60000000000000E+01,5.60000000000000E+01,5.60000000000000E+01,5.60000000000000E+01,5.60000000000000E+01,5.60000000000000E+01,,
HIC,,,,,,,,,,,,,,,,,,,,,,,,,,,,,,,,,,,,,,,,,,,,3.59411764705882E+01,3.47428571428571E+01,3.82702702702703E+01,3.74102564102564E+01,3.72619047619048E+01,3.80232558139535E+01,3.83720930232558E+01,,
HKG,,,,,,,,,,,,,,,,,,,,,,,,,,,,,,,,,,,,,,,,,,,,1.00000000000000E+01,1.00000000000000E+01,1.00000000000000E+01,1.00000000000000E+01,1.00000000000000E+01,1.00000000000000E+01,1.00000000000000E+01,,
HND,,,,,,,,,,,,,,,,,,,,,,,,,,,,,,,,,,,,,,,,,,,,7.40000000000000E+01,7.40000000000000E+01,7.40000000000000E+01,7.40000000000000E+01,7.40000000000000E+01,7.40000000000000E+01,9.50000000000000E+01,,
HPC,,,,,,,,,,,,,,,,,,,,,,,,,,,,,,,,,,,,,,,,,,,,5.27931034482759E+01,5.65151515151515E+01,5.71111111111111E+01,5.78378378378378E+01,5.71052631578947E+01,5.73157894736842E+01,5.78684210526316E+01,,
HRV,,,,,,,,,,,,,,,,,,,,,,,,,,,,,,,,,,,,,,,,,,,,6.90000000000000E+01,3.90000000000000E+01,3.90000000000000E+01,3.90000000000000E+01,3.90000000000000E+01,3.90000000000000E+01,3.90000000000000E+01,,
HTI,,,,,,,,,,,,,,,,,,,,,,,,,,,,,,,,,,,,,,,,,,,,1.70000000000000E+01,1.70000000000000E+01,1.70000000000000E+01,1.70000000000000E+01,1.70000000000000E+01,1.70000000000000E+01,1.70000000000000E+01,,
HUN,,,,,,,,,,,,,,,,,,,,,,,,,,,,,,,,,,,,,,,,,,,,3.50000000000000E+01,3.50000000000000E+01,3.50000000000000E+01,3.50000000000000E+01,3.50000000000000E+01,3.50000000000000E+01,3.50000000000000E+01,,
IDN,,,,,,,,,,,,,,,,,,,,,,,,,,,,,,,,,,,,,,,,,,,,1.08000000000000E+02,1.08000000000000E+02,1.08000000000000E+02,1.08000000000000E+02,1.08000000000000E+02,1.08000000000000E+02,1.08000000000000E+02,,
IND,,,,,,,,,,,,,,,,,,,,,,,,,,,,,,,,,,,,,,,,,,,,5.60000000000000E+01,5.60000000000000E+01,5.60000000000000E+01,5.60000000000000E+01,5.60000000000000E+01,5.60000000000000E+01,5.60000000000000E+01,,
IRL,,,,,,,,,,,,,,,,,,,,,,,,,,,,,,,,,,,,,,,,,,,,1.30000000000000E+01,2.40000000000000E+01,2.40000000000000E+01,2.40000000000000E+01,1.80000000000000E+01,1.80000000000000E+01,1.80000000000000E+01,,
IRN,,,,,,,,,,,,,,,,,,,,,,,,,,,,,,,,,,,,,,,,,,,,8.70000000000000E+01,8.70000000000000E+01,8.70000000000000E+01,8.70000000000000E+01,8.70000000000000E+01,8.70000000000000E+01,8.70000000000000E+01,,
ISL,,,,,,,,,,,,,,,,,,,,,,,,,,,,,,,,,,,,,,,,,,,,,1.30000000000000E+01,1.30000000000000E+01,1.30000000000000E+01,1.30000000000000E+01,1.30000000000000E+01,1.30000000000000E+01,,
ISR,,,,,,,,,,,,,,,,,,,,,,,,,,,,,,,,,,,,,,,,,,,,9.10000000000000E+01,9.10000000000000E+01,9.10000000000000E+01,9.10000000000000E+01,9.10000000000000E+01,9.10000000000000E+01,9.10000000000000E+01,,
ITA,,,,,,,,,,,,,,,,,,,,,,,,,,,,,,,,,,,,,,,,,,,,2.00000000000000E+00,2.00000000000000E+00,2.00000000000000E+00,2.00000000000000E+00,2.00000000000000E+00,1.10000000000000E+01,1.10000000000000E+01,,
JAM,,,,,,,,,,,,,,,,,,,,,,,,,,,,,,,,,,,,,,,,,,,,6.20000000000000E+01,6.20000000000000E+01,6.20000000000000E+01,6.20000000000000E+01,6.20000000000000E+01,6.20000000000000E+01,6.20000000000000E+01,,
JOR,,,,,,,,,,,,,,,,,,,,,,,,,,,,,,,,,,,,,,,,,,,,4.00000000000000E+00,4.00000000000000E+00,4.00000000000000E+00,4.00000000000000E+00,4.00000000000000E+00,4.00000000000000E+00,4.00000000000000E+00,,
JPN,,,,,,,,,,,,,,,,,,,,,,,,,,,,,,,,,,,,,,,,,,,,4.00000000000000E+00,4.00000000000000E+00,4.00000000000000E+00,4.00000000000000E+00,4.00000000000000E+00,4.00000000000000E+00,4.00000000000000E+00,,
KAZ,,,,,,,,,,,,,,,,,,,,,,,,,,,,,,,,,,,,,,,,,,,,9.00000000000000E+00,9.00000000000000E+00,9.00000000000000E+00,9.00000000000000E+00,9.00000000000000E+00,9.00000000000000E+00,9.00000000000000E+00,,
KEN,,,,,,,,,,,,,,,,,,,,,,,,,,,,,,,,,,,,,,,,,,,,4.70000000000000E+01,4.70000000000000E+01,4.70000000000000E+01,4.70000000000000E+01,4.70000000000000E+01,4.70000000000000E+01,4.70000000000000E+01,,
KGZ,,,,,,,,,,,,,,,,,,,,,,,,,,,,,,,,,,,,,,,,,,,,2.20000000000000E+01,2.20000000000000E+01,1.70000000000000E+01,1.70000000000000E+01,1.70000000000000E+01,1.70000000000000E+01,1.70000000000000E+01,,
KHM,,,,,,,,,,,,,,,,,,,,,,,,,,,,,,,,,,,,,,,,,,,,3.90000000000000E+01,3.90000000000000E+01,3.90000000000000E+01,3.90000000000000E+01,3.90000000000000E+01,3.90000000000000E+01,3.90000000000000E+01,,
KIR,,,,,,,,,,,,,,,,,,,,,,,,,,,,,,,,,,,,,,,,,,,,4.00000000000000E+00,4.00000000000000E+00,4.00000000000000E+00,4.00000000000000E+00,4.00000000000000E+00,4.00000000000000E+00,4.00000000000000E+00,,
KNA,,,,,,,,,,,,,,,,,,,,,,,,,,,,,,,,,,,,,,,,,,,,,,1.30000000000000E+01,1.30000000000000E+01,1.30000000000000E+01,1.30000000000000E+01,1.30000000000000E+01,,
KOR,,,,,,,,,,,,,,,,,,,,,,,,,,,,,,,,,,,,,,,,,,,,9.10000000000000E+01,9.10000000000000E+01,9.10000000000000E+01,9.10000000000000E+01,9.10000000000000E+01,9.10000000000000E+01,9.10000000000000E+01,,
KSV,,,,,,,,,,,,,,,,,,,,,,,,,,,,,,,,,,,,,,,,,,,,,,,,,3.00000000000000E+01,3.00000000000000E+01,,
KWT,,,,,,,,,,,,,,,,,,,,,,,,,,,,,,,,,,,,,,,,,,,,7.80000000000000E+01,7.80000000000000E+01,7.80000000000000E+01,7.80000000000000E+01,7.80000000000000E+01,7.80000000000000E+01,7.80000000000000E+01,,
LAC,,,,,,,,,,,,,,,,,,,,,,,,,,,,,,,,,,,,,,,,,,,,6.83888888888889E+01,6.77368421052632E+01,5.85925925925926E+01,5.76296296296296E+01,5.76296296296296E+01,5.60000000000000E+01,5.54814814814815E+01,,
LAO,,,,,,,,,,,,,,,,,,,,,,,,,,,,,,,,,,,,,,,,,,,,1.62000000000000E+02,1.62000000000000E+02,1.62000000000000E+02,1.62000000000000E+02,1.62000000000000E+02,1.62000000000000E+02,1.62000000000000E+02,,
LBN,,,,,,,,,,,,,,,,,,,,,,,,,,,,,,,,,,,,,,,,,,,,1.70000000000000E+01,1.70000000000000E+01,1.70000000000000E+01,1.70000000000000E+01,1.70000000000000E+01,1.70000000000000E+01,1.70000000000000E+01,,
LBR,,,,,,,,,,,,,,,,,,,,,,,,,,,,,,,,,,,,,,,,,,,,,,,8.40000000000000E+01,8.40000000000000E+01,8.40000000000000E+01,8.40000000000000E+01,,
LCA,,,,,,,,,,,,,,,,,,,,,,,,,,,,,,,,,,,,,,,,,,,,,,5.60000000000000E+01,5.60000000000000E+01,5.60000000000000E+01,5.60000000000000E+01,5.60000000000000E+01,,
LCN,,,,,,,,,,,,,,,,,,,,,,,,,,,,,,,,,,,,,,,,,,,,6.83888888888889E+01,6.77368421052632E+01,5.88928571428571E+01,5.79642857142857E+01,5.68620689655172E+01,5.53448275862069E+01,5.48620689655172E+01,,
LDC,,,,,,,,,,,,,,,,,,,,,,,,,,,,,,,,,,,,,,,,,,,,5.29393939393939E+01,5.51891891891892E+01,5.77857142857143E+01,5.83953488372093E+01,5.66888888888889E+01,5.68666666666667E+01,5.68666666666667E+01,,
LIC,,,,,,,,,,,,,,,,,,,,,,,,,,,,,,,,,,,,,,,,,,,,5.49600000000000E+01,5.83461538461538E+01,6.08333333333333E+01,6.43548387096774E+01,6.32812500000000E+01,6.35312500000000E+01,6.35312500000000E+01,,
LKA,,,,,,,,,,,,,,,,,,,,,,,,,,,,,,,,,,,,,,,,,,,,1.56000000000000E+02,1.56000000000000E+02,2.17000000000000E+02,2.17000000000000E+02,2.17000000000000E+02,2.17000000000000E+02,2.17000000000000E+02,,
LMC,,,,,,,,,,,,,,,,,,,,,,,,,,,,,,,,,,,,,,,,,,,,6.20263157894737E+01,6.38604651162791E+01,6.47659574468085E+01,6.46808510638298E+01,6.37083333333333E+01,6.34693877551020E+01,6.38979591836735E+01,,
LMY,,,,,,,,,,,,,,,,,,,,,,,,,,,,,,,,,,,,,,,,,,,,5.48787878787879E+01,5.65660377358491E+01,5.64032258064516E+01,5.66825396825397E+01,5.61875000000000E+01,5.58759689922481E+01,5.54418604651163E+01,,
LSO,,,,,,,,,,,,,,,,,,,,,,,,,,,,,,,,,,,,,,,,,,,,4.40000000000000E+01,4.40000000000000E+01,4.40000000000000E+01,4.40000000000000E+01,4.40000000000000E+01,4.40000000000000E+01,4.40000000000000E+01,,
LTU,,,,,,,,,,,,,,,,,,,,,,,,,,,,,,,,,,,,,,,,,,,,3.00000000000000E+01,3.00000000000000E+01,3.00000000000000E+01,3.00000000000000E+01,3.00000000000000E+01,3.00000000000000E+01,3.00000000000000E+01,,
LUX,,,,,,,,,,,,,,,,,,,,,,,,,,,,,,,,,,,,,,,,,,,,,,,3.90000000000000E+01,3.90000000000000E+01,3.90000000000000E+01,5.20000000000000E+01,,
LVA,,,,,,,,,,,,,,,,,,,,,,,,,,,,,,,,,,,,,,,,,,,,1.70000000000000E+01,1.70000000000000E+01,1.70000000000000E+01,1.70000000000000E+01,1.70000000000000E+01,1.70000000000000E+01,1.70000000000000E+01,,
MAR,,,,,,,,,,,,,,,,,,,,,,,,,,,,,,,,,,,,,,,,,,,,5.40000000000000E+01,5.40000000000000E+01,8.50000000000000E+01,8.50000000000000E+01,8.50000000000000E+01,8.50000000000000E+01,8.50000000000000E+01,,
MDA,,,,,,,,,,,,,,,,,,,,,,,,,,,,,,,,,,,,,,,,,,,,2.20000000000000E+01,2.90000000000000E+01,2.90000000000000E+01,2.90000000000000E+01,3.70000000000000E+01,3.70000000000000E+01,3.70000000000000E+01,,
MDG,,,,,,,,,,,,,,,,,,,,,,,,,,,,,,,,,,,,,,,,,,,,3.00000000000000E+01,3.00000000000000E+01,3.00000000000000E+01,3.00000000000000E+01,3.00000000000000E+01,3.00000000000000E+01,3.00000000000000E+01,,
MDV,,,,,,,,,,,,,,,,,,,,,,,,,,,,,,,,,,,,,,,,,,,,,,,9.00000000000000E+00,9.00000000000000E+00,9.00000000000000E+00,9.00000000000000E+00,,
MEA,,,,,,,,,,,,,,,,,,,,,,,,,,,,,,,,,,,,,,,,,,,,5.37857142857143E+01,5.68666666666667E+01,5.87500000000000E+01,5.87500000000000E+01,5.62777777777778E+01,5.62777777777778E+01,5.62777777777778E+01,,
MEX,,,,,,,,,,,,,,,,,,,,,,,,,,,,,,,,,,,,,,,,,,,,5.20000000000000E+01,5.20000000000000E+01,5.20000000000000E+01,5.20000000000000E+01,5.20000000000000E+01,5.20000000000000E+01,5.20000000000000E+01,,
MIC,,,,,,,,,,,,,,,,,,,,,,,,,,,,,,,,,,,,,,,,,,,,5.48513513513514E+01,5.59875000000000E+01,5.49893617021277E+01,5.41789473684210E+01,5.38229166666667E+01,5.33505154639175E+01,5.27731958762887E+01,,
MKD,,,,,,,,,,,,,,,,,,,,,,,,,,,,,,,,,,,,,,,,,,,,4.80000000000000E+01,3.50000000000000E+01,3.50000000000000E+01,2.60000000000000E+01,2.60000000000000E+01,2.60000000000000E+01,2.60000000000000E+01,,
MLI,,,,,,,,,,,,,,,,,,,,,,,,,,,,,,,,,,,,,,,,,,,,3.10000000000000E+01,3.10000000000000E+01,3.10000000000000E+01,3.10000000000000E+01,3.10000000000000E+01,3.10000000000000E+01,3.10000000000000E+01,,
MNA,,,,,,,,,,,,,,,,,,,,,,,,,,,,,,,,,,,,,,,,,,,,4.62222222222222E+01,5.16000000000000E+01,5.48181818181818E+01,5.48181818181818E+01,5.48181818181818E+01,5.48181818181818E+01,5.48181818181818E+01,,
MNE,,,,,,,,,,,,,,,,,,,,,,,,,,,,,,,,,,,,,,,,,,,,,,3.90000000000000E+01,3.90000000000000E+01,3.90000000000000E+01,3.90000000000000E+01,2.80000000000000E+01,,
MNG,,,,,,,,,,,,,,,,,,,,,,,,,,,,,,,,,,,,,,,,,,,,9.00000000000000E+00,9.00000000000000E+00,9.00000000000000E+00,9.00000000000000E+00,9.00000000000000E+00,9.00000000000000E+00,9.00000000000000E+00,,
MOZ,,,,,,,,,,,,,,,,,,,,,,,,,,,,,,,,,,,,,,,,,,,,1.43000000000000E+02,1.43000000000000E+02,1.43000000000000E+02,1.43000000000000E+02,1.43000000000000E+02,1.34000000000000E+02,1.34000000000000E+02,,
MRT,,,,,,,,,,,,,,,,,,,,,,,,,,,,,,,,,,,,,,,,,,,,3.10000000000000E+01,3.10000000000000E+01,3.10000000000000E+01,3.10000000000000E+01,3.10000000000000E+01,3.10000000000000E+01,3.10000000000000E+01,,
MUS,,,,,,,,,,,,,,,,,,,,,,,,,,,,,,,,,,,,,,,,,,,,,3.50000000000000E+01,3.50000000000000E+01,3.50000000000000E+01,3.50000000000000E+01,3.50000000000000E+01,4.00000000000000E+00,,
MWI,,,,,,,,,,,,,,,,,,,,,,,,,,,,,,,,,,,,,,,,,,,,8.40000000000000E+01,8.40000000000000E+01,8.40000000000000E+01,8.40000000000000E+01,8.40000000000000E+01,8.40000000000000E+01,8.40000000000000E+01,,
MYS,,,,,,,,,,,,,,,,,,,,,,,,,,,,,,,,,,,,,,,,,,,,7.50000000000000E+01,7.50000000000000E+01,7.50000000000000E+01,7.50000000000000E+01,7.50000000000000E+01,7.50000000000000E+01,7.50000000000000E+01,,
NAC,,,,,,,,,,,,,,,,,,,,,,,,,,,,,,,,,,,,,,,,,,,,2.80000000000000E+01,2.80000000000000E+01,2.80000000000000E+01,2.80000000000000E+01,2.80000000000000E+01,2.80000000000000E+01,2.80000000000000E+01,,
NAM,,,,,,,,,,,,,,,,,,,,,,,,,,,,,,,,,,,,,,,,,,,,2.40000000000000E+01,2.40000000000000E+01,2.40000000000000E+01,2.40000000000000E+01,2.40000000000000E+01,2.40000000000000E+01,2.40000000000000E+01,,
NER,,,,,,,,,,,,,,,,,,,,,,,,,,,,,,,,,,,,,,,,,,,,3.50000000000000E+01,3.50000000000000E+01,3.50000000000000E+01,3.50000000000000E+01,3.50000000000000E+01,3.50000000000000E+01,3.50000000000000E+01,,
NGA,,,,,,,,,,,,,,,,,,,,,,,,,,,,,,,,,,,,,,,,,,,,5.00000000000000E+01,5.00000000000000E+01,5.00000000000000E+01,5.00000000000000E+01,5.00000000000000E+01,5.00000000000000E+01,5.00000000000000E+01,,
NIC,,,,,,,,,,,,,,,,,,,,,,,,,,,,,,,,,,,,,,,,,,,,2.20000000000000E+01,2.20000000000000E+01,2.20000000000000E+01,2.20000000000000E+01,2.20000000000000E+01,2.20000000000000E+01,2.20000000000000E+01,,
NLD,,,,,,,,,,,,,,,,,,,,,,,,,,,,,,,,,,,,,,,,,,,,1.70000000000000E+01,1.70000000000000E+01,1.70000000000000E+01,1.70000000000000E+01,1.70000000000000E+01,1.70000000000000E+01,1.70000000000000E+01,,
NOC,,,,,,,,,,,,,,,,,,,,,,,,,,,,,,,,,,,,,,,,,,,,5.25000000000000E+01,4.87500000000000E+01,5.90000000000000E+01,5.40000000000000E+01,4.95000000000000E+01,5.04666666666667E+01,5.04666666666667E+01,,
NOR,,,,,,,,,,,,,,,,,,,,,,,,,,,,,,,,,,,,,,,,,,,,1.30000000000000E+01,1.30000000000000E+01,1.30000000000000E+01,1.30000000000000E+01,1.30000000000000E+01,1.30000000000000E+01,1.30000000000000E+01,,
NPL,,,,,,,,,,,,,,,,,,,,,,,,,,,,,,,,,,,,,,,,,,,,9.00000000000000E+01,9.00000000000000E+01,9.00000000000000E+01,9.00000000000000E+01,9.00000000000000E+01,9.00000000000000E+01,9.00000000000000E+01,,
OEC,,,,,,,,,,,,,,,,,,,,,,,,,,,,,,,,,,,,,,,,,,,,3.08461538461538E+01,3.05925925925926E+01,3.05925925925926E+01,3.08928571428571E+01,3.11428571428571E+01,3.13571428571429E+01,3.18928571428571E+01,,
OED,,,,,,,,,,,,,,,,,,,,,,,,,,,,,,,,,,,,,,,,,,,,3.45172413793103E+01,3.41666666666667E+01,3.41666666666667E+01,3.43225806451613E+01,3.45483870967742E+01,3.47419354838710E+01,3.52258064516129E+01,,
OMN,,,,,,,,,,,,,,,,,,,,,,,,,,,,,,,,,,,,,,,,,,,,4.00000000000000E+00,4.00000000000000E+00,4.00000000000000E+00,4.00000000000000E+00,4.00000000000000E+00,4.00000000000000E+00,4.00000000000000E+00,,
PAK,,,,,,,,,,,,,,,,,,,,,,,,,,,,,,,,,,,,,,,,,,,,9.00000000000000E+01,9.00000000000000E+01,9.00000000000000E+01,9.00000000000000E+01,9.00000000000000E+01,9.00000000000000E+01,9.00000000000000E+01,,
PAN,,,,,,,,,,,,,,,,,,,,,,,,,,,,,,,,,,,,,,,,,,,,4.40000000000000E+01,4.40000000000000E+01,4.40000000000000E+01,4.40000000000000E+01,4.40000000000000E+01,4.40000000000000E+01,4.40000000000000E+01,,
PER,,,,,,,,,,,,,,,,,,,,,,,,,,,,,,,,,,,,,,,,,,,,5.20000000000000E+01,5.20000000000000E+01,5.20000000000000E+01,5.20000000000000E+01,5.20000000000000E+01,5.20000000000000E+01,1.70000000000000E+01,,
PHL,,,,,,,,,,,,,,,,,,,,,,,,,,,,,,,,,,,,,,,,,,,,9.10000000000000E+01,9.10000000000000E+01,9.10000000000000E+01,9.10000000000000E+01,9.10000000000000E+01,9.10000000000000E+01,9.10000000000000E+01,,
PNG,,,,,,,,,,,,,,,,,,,,,,,,,,,,,,,,,,,,,,,,,,,,3.90000000000000E+01,3.90000000000000E+01,3.90000000000000E+01,3.90000000000000E+01,3.90000000000000E+01,3.90000000000000E+01,3.90000000000000E+01,,
POL,,,,,,,,,,,,,,,,,,,,,,,,,,,,,,,,,,,,,,,,,,,,1.30000000000000E+01,1.30000000000000E+01,1.30000000000000E+01,1.30000000000000E+01,1.30000000000000E+01,1.30000000000000E+01,1.30000000000000E+01,,
PRT,,,,,,,,,,,,,,,,,,,,,,,,,,,,,,,,,,,,,,,,,,,,9.50000000000000E+01,9.50000000000000E+01,9.50000000000000E+01,9.50000000000000E+01,9.50000000000000E+01,9.50000000000000E+01,9.70000000000000E+01,,
PRY,,,,,,,,,,,,,,,,,,,,,,,,,,,,,,,,,,,,,,,,,,,,9.90000000000000E+01,9.90000000000000E+01,9.90000000000000E+01,9.90000000000000E+01,9.90000000000000E+01,9.90000000000000E+01,9.90000000000000E+01,,
QAT,,,,,,,,,,,,,,,,,,,,,,,,,,,,,,,,,,,,,,,,,,,,,,,,6.90000000000000E+01,6.90000000000000E+01,6.90000000000000E+01,,
ROM,,,,,,,,,,,,,,,,,,,,,,,,,,,,,,,,,,,,,,,,,,,,6.00000000000000E+00,6.00000000000000E+00,6.00000000000000E+00,6.00000000000000E+00,8.00000000000000E+00,8.00000000000000E+00,8.00000000000000E+00,,
RUS,,,,,,,,,,,,,,,,,,,,,,,,,,,,,,,,,,,,,,,,,,,,1.70000000000000E+01,1.70000000000000E+01,1.70000000000000E+01,1.70000000000000E+01,1.70000000000000E+01,1.70000000000000E+01,1.70000000000000E+01,,
RWA,,,,,,,,,,,,,,,,,,,,,,,,,,,,,,,,,,,,,,,,,,,,2.60000000000000E+01,2.60000000000000E+01,2.60000000000000E+01,2.60000000000000E+01,2.60000000000000E+01,2.60000000000000E+01,2.60000000000000E+01,,
SAS,,,,,,,,,,,,,,,,,,,,,,,,,,,,,,,,,,,,,,,,,,,,9.92000000000000E+01,9.92000000000000E+01,1.11400000000000E+02,9.43333333333333E+01,7.57500000000000E+01,7.57500000000000E+01,7.57500000000000E+01,,
SAU,,,,,,,,,,,,,,,,,,,,,,,,,,,,,,,,,,,,,,,,,,,,8.00000000000000E+01,8.00000000000000E+01,8.00000000000000E+01,8.00000000000000E+01,8.00000000000000E+01,8.00000000000000E+01,8.00000000000000E+01,,
SDN,,,,,,,,,,,,,,,,,,,,,,,,,,,,,,,,,,,,,,,,,,,,,1.18000000000000E+02,1.18000000000000E+02,1.18000000000000E+02,1.18000000000000E+02,1.18000000000000E+02,1.18000000000000E+02,,
SEN,,,,,,,,,,,,,,,,,,,,,,,,,,,,,,,,,,,,,,,,,,,,3.80000000000000E+01,3.80000000000000E+01,3.80000000000000E+01,3.80000000000000E+01,3.80000000000000E+01,3.80000000000000E+01,3.80000000000000E+01,,
SGP,,,,,,,,,,,,,,,,,,,,,,,,,,,,,,,,,,,,,,,,,,,,4.00000000000000E+00,4.00000000000000E+00,4.00000000000000E+00,4.00000000000000E+00,4.00000000000000E+00,4.00000000000000E+00,4.00000000000000E+00,,
SLB,,,,,,,,,,,,,,,,,,,,,,,,,,,,,,,,,,,,,,,,,,,,4.40000000000000E+01,4.40000000000000E+01,4.40000000000000E+01,4.40000000000000E+01,4.40000000000000E+01,4.40000000000000E+01,4.40000000000000E+01,,
SLE,,,,,,,,,,,,,,,,,,,,,,,,,,,,,,,,,,,,,,,,,,,,1.89000000000000E+02,1.89000000000000E+02,1.89000000000000E+02,1.89000000000000E+02,1.89000000000000E+02,1.89000000000000E+02,1.89000000000000E+02,,
SLV,,,,,,,,,,,,,,,,,,,,,,,,,,,,,,,,,,,,,,,,,,,,8.60000000000000E+01,8.60000000000000E+01,8.60000000000000E+01,8.60000000000000E+01,8.60000000000000E+01,8.60000000000000E+01,8.60000000000000E+01,,
SRB,,,,,,,,,,,,,,,,,,,,,,,,,,,,,,,,,,,,,,,,,,,,1.70000000000000E+01,1.70000000000000E+01,1.70000000000000E+01,2.50000000000000E+01,2.50000000000000E+01,2.50000000000000E+01,2.50000000000000E+01,,
SSA,,,,,,,,,,,,,,,,,,,,,,,,,,,,,,,,,,,,,,,,,,,,5.85454545454545E+01,6.26756756756757E+01,6.42727272727273E+01,6.66222222222222E+01,6.66222222222222E+01,6.68444444444444E+01,6.61555555555556E+01,,
SSF,,,,,,,,,,,,,,,,,,,,,,,,,,,,,,,,,,,,,,,,,,,,5.85454545454545E+01,6.26756756756757E+01,6.58000000000000E+01,6.80652173913043E+01,6.80652173913043E+01,6.82826086956522E+01,6.76086956521739E+01,,
STP,,,,,,,,,,,,,,,,,,,,,,,,,,,,,,,,,,,,,,,,,,,,,9.10000000000000E+01,9.10000000000000E+01,9.10000000000000E+01,9.10000000000000E+01,9.10000000000000E+01,9.10000000000000E+01,,
SUR,,,,,,,,,,,,,,,,,,,,,,,,,,,,,,,,,,,,,,,,,,,,,,2.60000000000000E+01,2.60000000000000E+01,2.60000000000000E+01,2.60000000000000E+01,2.60000000000000E+01,,
SVK,,,,,,,,,,,,,,,,,,,,,,,,,,,,,,,,,,,,,,,,,,,,1.30000000000000E+01,1.30000000000000E+01,1.30000000000000E+01,1.30000000000000E+01,2.60000000000000E+01,2.60000000000000E+01,2.60000000000000E+01,,
SVN,,,,,,,,,,,,,,,,,,,,,,,,,,,,,,,,,,,,,,,,,,,,4.00000000000000E+01,4.00000000000000E+01,4.00000000000000E+01,4.00000000000000E+01,4.00000000000000E+01,3.70000000000000E+01,3.70000000000000E+01,,
SWE,,,,,,,,,,,,,,,,,,,,,,,,,,,,,,,,,,,,,,,,,,,,2.60000000000000E+01,2.60000000000000E+01,2.60000000000000E+01,2.60000000000000E+01,2.60000000000000E+01,2.60000000000000E+01,2.60000000000000E+01,,
SWZ,,,,,,,,,,,,,,,,,,,,,,,,,,,,,,,,,,,,,,,,,,,,,,5.30000000000000E+01,5.30000000000000E+01,5.30000000000000E+01,5.30000000000000E+01,5.30000000000000E+01,,
SYC,,,,,,,,,,,,,,,,,,,,,,,,,,,,,,,,,,,,,,,,,,,,,,3.90000000000000E+01,3.90000000000000E+01,3.90000000000000E+01,3.90000000000000E+01,3.90000000000000E+01,,
SYR,,,,,,,,,,,,,,,,,,,,,,,,,,,,,,,,,,,,,,,,,,,,8.00000000000000E+01,8.00000000000000E+01,8.00000000000000E+01,8.00000000000000E+01,8.00000000000000E+01,8.00000000000000E+01,8.00000000000000E+01,,
TCD,,,,,,,,,,,,,,,,,,,,,,,,,,,,,,,,,,,,,,,,,,,,3.60000000000000E+01,3.60000000000000E+01,3.60000000000000E+01,3.60000000000000E+01,3.60000000000000E+01,3.60000000000000E+01,3.60000000000000E+01,,
TGO,,,,,,,,,,,,,,,,,,,,,,,,,,,,,,,,,,,,,,,,,,,,3.60000000000000E+01,3.60000000000000E+01,3.60000000000000E+01,3.60000000000000E+01,3.60000000000000E+01,3.60000000000000E+01,3.60000000000000E+01,,
THA,,,,,,,,,,,,,,,,,,,,,,,,,,,,,,,,,,,,,,,,,,,,5.40000000000000E+01,5.40000000000000E+01,5.40000000000000E+01,5.40000000000000E+01,5.40000000000000E+01,5.40000000000000E+01,5.40000000000000E+01,,
TJK,,,,,,,,,,,,,,,,,,,,,,,,,,,,,,,,,,,,,,,,,,,,,,3.00000000000000E+01,3.00000000000000E+01,3.00000000000000E+01,3.00000000000000E+01,3.00000000000000E+01,,
TMP,,,,,,,,,,,,,,,,,,,,,,,,,,,,,,,,,,,,,,,,,,,,,1.70000000000000E+01,1.70000000000000E+01,1.70000000000000E+01,1.70000000000000E+01,1.70000000000000E+01,1.70000000000000E+01,,
TTO,,,,,,,,,,,,,,,,,,,,,,,,,,,,,,,,,,,,,,,,,,,,,,6.70000000000000E+01,6.70000000000000E+01,6.70000000000000E+01,6.70000000000000E+01,6.70000000000000E+01,,
TUN,,,,,,,,,,,,,,,,,,,,,,,,,,,,,,,,,,,,,,,,,,,,1.70000000000000E+01,1.70000000000000E+01,1.70000000000000E+01,1.70000000000000E+01,1.70000000000000E+01,1.70000000000000E+01,1.70000000000000E+01,,
TUR,,,,,,,,,,,,,,,,,,,,,,,,,,,,,,,,,,,,,,,,,,,,9.50000000000000E+01,9.50000000000000E+01,9.50000000000000E+01,9.50000000000000E+01,9.50000000000000E+01,9.50000000000000E+01,9.50000000000000E+01,,
TZA,,,,,,,,,,,,,,,,,,,,,,,,,,,,,,,,,,,,,,,,,,,,1.80000000000000E+01,1.80000000000000E+01,1.80000000000000E+01,1.80000000000000E+01,1.80000000000000E+01,1.80000000000000E+01,1.80000000000000E+01,,
UGA,,,,,,,,,,,,,,,,,,,,,,,,,,,,,,,,,,,,,,,,,,,,1.30000000000000E+01,1.30000000000000E+01,1.30000000000000E+01,1.30000000000000E+01,1.30000000000000E+01,1.30000000000000E+01,1.30000000000000E+01,,
UKR,,,,,,,,,,,,,,,,,,,,,,,,,,,,,,,,,,,,,,,,,,,,1.30000000000000E+01,1.30000000000000E+01,1.30000000000000E+01,1.30000000000000E+01,1.30000000000000E+01,1.30000000000000E+01,1.30000000000000E+01,,
UMC,,,,,,,,,,,,,,,,,,,,,,,,,,,,,,,,,,,,,,,,,,,,4.72777777777778E+01,4.68378378378378E+01,4.52127659574468E+01,4.38958333333333E+01,4.39375000000000E+01,4.30208333333333E+01,4.14166666666667E+01,,
URY,,,,,,,,,,,,,,,,,,,,,,,,,,,,,,,,,,,,,,,,,,,,3.10000000000000E+01,3.10000000000000E+01,3.10000000000000E+01,3.10000000000000E+01,3.10000000000000E+01,3.10000000000000E+01,3.10000000000000E+01,,
UZB,,,,,,,,,,,,,,,,,,,,,,,,,,,,,,,,,,,,,,,,,,,,2.20000000000000E+01,2.20000000000000E+01,2.20000000000000E+01,2.20000000000000E+01,2.20000000000000E+01,2.20000000000000E+01,2.20000000000000E+01,,
VCT,,,,,,,,,,,,,,,,,,,,,,,,,,,,,,,,,,,,,,,,,,,,,,5.40000000000000E+01,5.40000000000000E+01,5.40000000000000E+01,5.40000000000000E+01,5.40000000000000E+01,,
VNM,,,,,,,,,,,,,,,,,,,,,,,,,,,,,,,,,,,,,,,,,,,,8.70000000000000E+01,8.70000000000000E+01,8.70000000000000E+01,8.70000000000000E+01,8.70000000000000E+01,8.70000000000000E+01,8.70000000000000E+01,,
VUT,,,,,,,,,,,,,,,,,,,,,,,,,,,,,,,,,,,,,,,,,,,,5.60000000000000E+01,5.60000000000000E+01,5.60000000000000E+01,5.60000000000000E+01,5.60000000000000E+01,5.60000000000000E+01,5.60000000000000E+01,,
WBG,,,,,,,,,,,,,,,,,,,,,,,,,,,,,,,,,,,,,,,,,,,,,9.10000000000000E+01,9.10000000000000E+01,9.10000000000000E+01,9.10000000000000E+01,9.10000000000000E+01,9.10000000000000E+01,,
WLD,,,,,,,,,,,,,,,,,,,,,,,,,,,,,,,,,,,,,,,,,,,,5.00375939849624E+01,5.11489361702128E+01,5.22360248447205E+01,5.21272727272727E+01,5.15117647058824E+01,5.14127906976744E+01,5.11744186046512E+01,,
WSM,,,,,,,,,,,,,,,,,,,,,,,,,,,,,,,,,,,,,,,,,,,,9.00000000000000E+00,9.00000000000000E+00,9.00000000000000E+00,9.00000000000000E+00,9.00000000000000E+00,9.00000000000000E+00,9.00000000000000E+00,,
YEM,,,,,,,,,,,,,,,,,,,,,,,,,,,,,,,,,,,,,,,,,,,,1.70000000000000E+01,1.70000000000000E+01,1.70000000000000E+01,1.70000000000000E+01,1.70000000000000E+01,1.70000000000000E+01,1.70000000000000E+01,,
ZAF,,,,,,,,,,,,,,,,,,,,,,,,,,,,,,,,,,,,,,,,,,,,2.40000000000000E+01,2.40000000000000E+01,2.40000000000000E+01,2.40000000000000E+01,2.40000000000000E+01,2.40000000000000E+01,2.40000000000000E+01,,
ZAR,,,,,,,,,,,,,,,,,,,,,,,,,,,,,,,,,,,,,,,,,,,,3.10000000000000E+01,3.10000000000000E+01,3.10000000000000E+01,3.10000000000000E+01,3.10000000000000E+01,3.10000000000000E+01,3.10000000000000E+01,,
ZMB,,,,,,,,,,,,,,,,,,,,,,,,,,,,,,,,,,,,,,,,,,,,1.78000000000000E+02,1.78000000000000E+02,1.78000000000000E+02,1.78000000000000E+02,1.78000000000000E+02,1.78000000000000E+02,1.78000000000000E+02,,
ZWE,,,,,,,,,,,,,,,,,,,,,,,,,,,,,,,,,,,,,,,,,,,,1.99000000000000E+02,2.73000000000000E+02,3.60000000000000E+02,4.46000000000000E+02,4.46000000000000E+02,4.46000000000000E+02,4.46000000000000E+02,,
