"Country Code",1960,1961,1962,1963,1964,1965,1966,1967,1968,1969,1970,1971,1972,1973,1974,1975,1976,1977,1978,1979,1980,1981,1982,1983,1984,1985,1986,1987,1988,1989,1990,1991,1992,1993,1994,1995,1996,1997,1998,1999,2000,2001,2002,2003,2004,2005,2006,2007,2008,2009,2010,2011AFG,,,,,,,,,,,,,,,,,,,,,,,,,,,,,,,,,,,,,,,,,,,,,2.52000000000000E+02,2.52000000000000E+02,2.52000000000000E+02,2.50000000000000E+02,2.50000000000000E+02,2.50000000000000E+02,2.50000000000000E+02,2.50000000000000E+02
AGO,,,,,,,,,,,,,,,,,,,,,,,,,,,,,,,,,,,,,,,,,,,,,3.34000000000000E+02,3.34000000000000E+02,3.34000000000000E+02,3.34000000000000E+02,3.34000000000000E+02,1.84000000000000E+02,1.84000000000000E+02,1.84000000000000E+02
ALB,,,,,,,,,,,,,,,,,,,,,,,,,,,,,,,,,,,,,,,,,,,,,4.20000000000000E+01,4.20000000000000E+01,4.20000000000000E+01,4.20000000000000E+01,4.20000000000000E+01,4.20000000000000E+01,4.20000000000000E+01,3.30000000000000E+01
ARB,,,,,,,,,,,,,,,,,,,,,,,,,,,,,,,,,,,,,,,,,,,,,4.58125000000000E+01,4.51111111111111E+01,4.40000000000000E+01,4.10500000000000E+01,3.42500000000000E+01,3.33000000000000E+01,3.31500000000000E+01,3.27500000000000E+01
ARE,,,,,,,,,,,,,,,,,,,,,,,,,,,,,,,,,,,,,,,,,,,,,2.00000000000000E+00,2.00000000000000E+00,2.00000000000000E+00,2.00000000000000E+00,2.00000000000000E+00,2.00000000000000E+00,2.00000000000000E+00,2.00000000000000E+00
ARG,,,,,,,,,,,,,,,,,,,,,,,,,,,,,,,,,,,,,,,,,,,,,5.10000000000000E+01,5.10000000000000E+01,5.10000000000000E+01,5.10000000000000E+01,5.10000000000000E+01,5.20000000000000E+01,5.20000000000000E+01,5.30000000000000E+01
ARM,,,,,,,,,,,,,,,,,,,,,,,,,,,,,,,,,,,,,,,,,,,,,6.00000000000000E+00,6.00000000000000E+00,4.00000000000000E+00,4.00000000000000E+00,4.00000000000000E+00,4.00000000000000E+00,7.00000000000000E+00,7.00000000000000E+00
ATG,,,,,,,,,,,,,,,,,,,,,,,,,,,,,,,,,,,,,,,,,,,,,,2.60000000000000E+01,2.60000000000000E+01,2.60000000000000E+01,2.60000000000000E+01,2.60000000000000E+01,2.60000000000000E+01,2.60000000000000E+01
AUS,,,,,,,,,,,,,,,,,,,,,,,,,,,,,,,,,,,,,,,,,,,,,7.00000000000000E+00,5.00000000000000E+00,5.00000000000000E+00,5.00000000000000E+00,5.00000000000000E+00,5.00000000000000E+00,5.00000000000000E+00,5.00000000000000E+00
AUT,,,,,,,,,,,,,,,,,,,,,,,,,,,,,,,,,,,,,,,,,,,,,3.20000000000000E+01,3.20000000000000E+01,3.20000000000000E+01,3.20000000000000E+01,3.20000000000000E+01,3.20000000000000E+01,2.10000000000000E+01,2.10000000000000E+01
AZE,,,,,,,,,,,,,,,,,,,,,,,,,,,,,,,,,,,,,,,,,,,,,6.10000000000000E+01,6.10000000000000E+01,6.10000000000000E+01,6.10000000000000E+01,1.10000000000000E+01,1.10000000000000E+01,1.10000000000000E+01,1.10000000000000E+01
BDI,,,,,,,,,,,,,,,,,,,,,,,,,,,,,,,,,,,,,,,,,,,,,9.40000000000000E+01,9.40000000000000E+01,9.40000000000000E+01,9.40000000000000E+01,9.40000000000000E+01,9.40000000000000E+01,9.40000000000000E+01,9.40000000000000E+01
BEL,,,,,,,,,,,,,,,,,,,,,,,,,,,,,,,,,,,,,,,,,,,,,1.32000000000000E+02,1.32000000000000E+02,1.32000000000000E+02,1.32000000000000E+02,1.32000000000000E+02,7.90000000000000E+01,7.90000000000000E+01,6.40000000000000E+01
BEN,,,,,,,,,,,,,,,,,,,,,,,,,,,,,,,,,,,,,,,,,,,,,1.20000000000000E+02,1.20000000000000E+02,1.20000000000000E+02,1.20000000000000E+02,1.20000000000000E+02,1.20000000000000E+02,1.20000000000000E+02,1.20000000000000E+02
BFA,,,,,,,,,,,,,,,,,,,,,,,,,,,,,,,,,,,,,,,,,,,,,1.82000000000000E+02,1.82000000000000E+02,1.82000000000000E+02,1.82000000000000E+02,1.36000000000000E+02,5.90000000000000E+01,5.90000000000000E+01,5.90000000000000E+01
BGD,,,,,,,,,,,,,,,,,,,,,,,,,,,,,,,,,,,,,,,,,,,,,4.25000000000000E+02,4.25000000000000E+02,4.25000000000000E+02,4.25000000000000E+02,2.45000000000000E+02,2.45000000000000E+02,2.45000000000000E+02,2.45000000000000E+02
BGR,,,,,,,,,,,,,,,,,,,,,,,,,,,,,,,,,,,,,,,,,,,,,1.90000000000000E+01,1.90000000000000E+01,1.90000000000000E+01,1.90000000000000E+01,1.90000000000000E+01,1.50000000000000E+01,1.50000000000000E+01,1.50000000000000E+01
BHR,,,,,,,,,,,,,,,,,,,,,,,,,,,,,,,,,,,,,,,,,,,,,,,,3.10000000000000E+01,3.10000000000000E+01,3.10000000000000E+01,3.10000000000000E+01,3.10000000000000E+01
BHS,,,,,,,,,,,,,,,,,,,,,,,,,,,,,,,,,,,,,,,,,,,,,,,,2.72000000000000E+02,2.72000000000000E+02,2.72000000000000E+02,1.22000000000000E+02,1.22000000000000E+02
BIH,,,,,,,,,,,,,,,,,,,,,,,,,,,,,,,,,,,,,,,,,,,,,3.31000000000000E+02,3.31000000000000E+02,3.31000000000000E+02,3.31000000000000E+02,1.28000000000000E+02,8.40000000000000E+01,3.30000000000000E+01,3.30000000000000E+01
BLR,,,,,,,,,,,,,,,,,,,,,,,,,,,,,,,,,,,,,,,,,,,,,2.31000000000000E+02,2.31000000000000E+02,2.31000000000000E+02,2.31000000000000E+02,2.10000000000000E+01,1.80000000000000E+01,1.50000000000000E+01,1.00000000000000E+01
BLZ,,,,,,,,,,,,,,,,,,,,,,,,,,,,,,,,,,,,,,,,,,,,,,6.00000000000000E+01,6.00000000000000E+01,6.00000000000000E+01,6.00000000000000E+01,6.00000000000000E+01,6.00000000000000E+01,6.00000000000000E+01
BOL,,,,,,,,,,,,,,,,,,,,,,,,,,,,,,,,,,,,,,,,,,,,,9.20000000000000E+01,9.20000000000000E+01,9.20000000000000E+01,9.20000000000000E+01,9.20000000000000E+01,9.20000000000000E+01,9.20000000000000E+01,9.20000000000000E+01
BRA,,,,,,,,,,,,,,,,,,,,,,,,,,,,,,,,,,,,,,,,,,,,,4.70000000000000E+01,4.70000000000000E+01,4.60000000000000E+01,4.40000000000000E+01,3.90000000000000E+01,3.90000000000000E+01,3.90000000000000E+01,3.90000000000000E+01
BRN,,,,,,,,,,,,,,,,,,,,,,,,,,,,,,,,,,,,,,,,,,,,,,,2.98000000000000E+02,2.98000000000000E+02,2.98000000000000E+02,2.98000000000000E+02,2.98000000000000E+02,2.98000000000000E+02
BTN,,,,,,,,,,,,,,,,,,,,,,,,,,,,,,,,,,,,,,,,,,,,,9.20000000000000E+01,9.20000000000000E+01,9.20000000000000E+01,9.20000000000000E+01,9.20000000000000E+01,9.20000000000000E+01,9.20000000000000E+01,9.20000000000000E+01
BWA,,,,,,,,,,,,,,,,,,,,,,,,,,,,,,,,,,,,,,,,,,,,,1.80000000000000E+01,1.80000000000000E+01,1.10000000000000E+01,1.10000000000000E+01,1.10000000000000E+01,1.60000000000000E+01,1.60000000000000E+01,1.60000000000000E+01
CAF,,,,,,,,,,,,,,,,,,,,,,,,,,,,,,,,,,,,,,,,,,,,,7.50000000000000E+01,7.50000000000000E+01,7.50000000000000E+01,7.50000000000000E+01,7.50000000000000E+01,7.50000000000000E+01,7.50000000000000E+01,7.50000000000000E+01
CAN,,,,,,,,,,,,,,,,,,,,,,,,,,,,,,,,,,,,,,,,,,,,,1.70000000000000E+01,1.70000000000000E+01,1.70000000000000E+01,1.70000000000000E+01,1.70000000000000E+01,1.70000000000000E+01,1.70000000000000E+01,1.70000000000000E+01
CHE,,,,,,,,,,,,,,,,,,,,,,,,,,,,,,,,,,,,,,,,,,,,,1.60000000000000E+01,1.60000000000000E+01,1.60000000000000E+01,1.60000000000000E+01,1.60000000000000E+01,1.60000000000000E+01,1.60000000000000E+01,1.60000000000000E+01
CHL,,,,,,,,,,,,,,,,,,,,,,,,,,,,,,,,,,,,,,,,,,,,,3.10000000000000E+01,3.10000000000000E+01,3.10000000000000E+01,3.10000000000000E+01,3.10000000000000E+01,3.10000000000000E+01,3.10000000000000E+01,3.10000000000000E+01
CHN,,,,,,,,,,,,,,,,,,,,,,,,,,,,,,,,,,,,,,,,,,,,,2.90000000000000E+01,2.90000000000000E+01,2.90000000000000E+01,2.90000000000000E+01,2.90000000000000E+01,2.90000000000000E+01,2.90000000000000E+01,2.90000000000000E+01
CIV,,,,,,,,,,,,,,,,,,,,,,,,,,,,,,,,,,,,,,,,,,,,,3.97000000000000E+02,3.97000000000000E+02,6.20000000000000E+01,6.20000000000000E+01,6.20000000000000E+01,6.20000000000000E+01,6.20000000000000E+01,6.20000000000000E+01
CMR,,,,,,,,,,,,,,,,,,,,,,,,,,,,,,,,,,,,,,,,,,,,,9.30000000000000E+01,9.30000000000000E+01,9.30000000000000E+01,9.30000000000000E+01,9.30000000000000E+01,9.30000000000000E+01,9.30000000000000E+01,9.30000000000000E+01
COG,,,,,,,,,,,,,,,,,,,,,,,,,,,,,,,,,,,,,,,,,,,,,7.60000000000000E+01,7.60000000000000E+01,7.60000000000000E+01,7.60000000000000E+01,5.50000000000000E+01,5.50000000000000E+01,5.50000000000000E+01,5.50000000000000E+01
COL,,,,,,,,,,,,,,,,,,,,,,,,,,,,,,,,,,,,,,,,,,,,,2.30000000000000E+01,2.30000000000000E+01,2.30000000000000E+01,2.30000000000000E+01,2.30000000000000E+01,2.00000000000000E+01,2.00000000000000E+01,1.50000000000000E+01
COM,,,,,,,,,,,,,,,,,,,,,,,,,,,,,,,,,,,,,,,,,,,,,,3.00000000000000E+01,3.00000000000000E+01,3.00000000000000E+01,3.00000000000000E+01,3.00000000000000E+01,3.00000000000000E+01,3.00000000000000E+01
CPV,,,,,,,,,,,,,,,,,,,,,,,,,,,,,,,,,,,,,,,,,,,,,,8.30000000000000E+01,8.30000000000000E+01,8.30000000000000E+01,7.30000000000000E+01,7.30000000000000E+01,7.30000000000000E+01,3.10000000000000E+01
CRI,,,,,,,,,,,,,,,,,,,,,,,,,,,,,,,,,,,,,,,,,,,,,2.10000000000000E+01,2.10000000000000E+01,2.10000000000000E+01,2.10000000000000E+01,2.10000000000000E+01,2.10000000000000E+01,2.10000000000000E+01,2.00000000000000E+01
CYP,,,,,,,,,,,,,,,,,,,,,,,,,,,,,,,,,,,,,,,,,,,,,,,,,4.20000000000000E+01,4.20000000000000E+01,4.20000000000000E+01,4.20000000000000E+01
CZE,,,,,,,,,,,,,,,,,,,,,,,,,,,,,,,,,,,,,,,,,,,,,1.23000000000000E+02,1.23000000000000E+02,1.23000000000000E+02,1.23000000000000E+02,1.23000000000000E+02,7.80000000000000E+01,4.30000000000000E+01,2.50000000000000E+01
DEU,,,,,,,,,,,,,,,,,,,,,,,,,,,,,,,,,,,,,,,,,,,,,4.00000000000000E+01,4.00000000000000E+01,4.00000000000000E+01,4.00000000000000E+01,4.00000000000000E+01,4.00000000000000E+01,4.00000000000000E+01,4.00000000000000E+01
DJI,,,,,,,,,,,,,,,,,,,,,,,,,,,,,,,,,,,,,,,,,,,,,,4.90000000000000E+01,4.90000000000000E+01,4.00000000000000E+01,4.00000000000000E+01,4.00000000000000E+01,4.00000000000000E+01,4.00000000000000E+01
DMA,,,,,,,,,,,,,,,,,,,,,,,,,,,,,,,,,,,,,,,,,,,,,,4.20000000000000E+01,4.20000000000000E+01,4.20000000000000E+01,4.20000000000000E+01,4.20000000000000E+01,4.20000000000000E+01,4.20000000000000E+01
DNK,,,,,,,,,,,,,,,,,,,,,,,,,,,,,,,,,,,,,,,,,,,,,4.20000000000000E+01,4.20000000000000E+01,4.20000000000000E+01,4.20000000000000E+01,4.20000000000000E+01,4.20000000000000E+01,4.20000000000000E+01,1.60000000000000E+01
DOM,,,,,,,,,,,,,,,,,,,,,,,,,,,,,,,,,,,,,,,,,,,,,1.07000000000000E+02,1.07000000000000E+02,1.07000000000000E+02,6.00000000000000E+01,6.00000000000000E+01,6.00000000000000E+01,6.00000000000000E+01,6.00000000000000E+01
DZA,,,,,,,,,,,,,,,,,,,,,,,,,,,,,,,,,,,,,,,,,,,,,5.10000000000000E+01,5.10000000000000E+01,5.10000000000000E+01,5.10000000000000E+01,5.10000000000000E+01,4.80000000000000E+01,4.80000000000000E+01,4.80000000000000E+01
EAP,,,,,,,,,,,,,,,,,,,,,,,,,,,,,,,,,,,,,,,,,,,,,1.14647058823529E+02,1.14647058823529E+02,1.14647058823529E+02,1.14647058823529E+02,1.14058823529412E+02,1.13058823529412E+02,9.81764705882353E+01,7.98235294117647E+01
EAS,,,,,,,,,,,,,,,,,,,,,,,,,,,,,,,,,,,,,,,,,,,,,8.47083333333333E+01,8.46250000000000E+01,9.31600000000000E+01,9.31600000000000E+01,9.27600000000000E+01,9.19200000000000E+01,8.18000000000000E+01,6.93200000000000E+01
ECA,,,,,,,,,,,,,,,,,,,,,,,,,,,,,,,,,,,,,,,,,,,,,7.68421052631579E+01,6.96000000000000E+01,7.06666666666667E+01,7.04761904761905E+01,4.60952380952381E+01,3.77727272727273E+01,3.54545454545455E+01,2.92727272727273E+01
ECS,,,,,,,,,,,,,,,,,,,,,,,,,,,,,,,,,,,,,,,,,,,,,9.32093023255814E+01,8.91590909090909E+01,7.56304347826087E+01,6.81956521739130E+01,5.55531914893617E+01,4.61458333333333E+01,3.61041666666667E+01,3.19791666666667E+01
ECU,,,,,,,,,,,,,,,,,,,,,,,,,,,,,,,,,,,,,,,,,,,,,2.20000000000000E+01,2.00000000000000E+01,1.90000000000000E+01,1.60000000000000E+01,1.60000000000000E+01,1.60000000000000E+01,1.60000000000000E+01,1.60000000000000E+01
EGY,,,,,,,,,,,,,,,,,,,,,,,,,,,,,,,,,,,,,,,,,,,,,1.93000000000000E+02,1.93000000000000E+02,1.93000000000000E+02,1.93000000000000E+02,7.20000000000000E+01,7.20000000000000E+01,7.20000000000000E+01,7.20000000000000E+01
EMU,,,,,,,,,,,,,,,,,,,,,,,,,,,,,,,,,,,,,,,,,,,,,7.62142857142857E+01,7.55000000000000E+01,7.18666666666667E+01,6.52000000000000E+01,6.31250000000000E+01,5.49375000000000E+01,3.35000000000000E+01,3.23750000000000E+01
ERI,,,,,,,,,,,,,,,,,,,,,,,,,,,,,,,,,,,,,,,,,,,,,7.80000000000000E+01,7.80000000000000E+01,7.80000000000000E+01,7.80000000000000E+01,7.80000000000000E+01,7.80000000000000E+01,7.80000000000000E+01,7.80000000000000E+01
ESP,,,,,,,,,,,,,,,,,,,,,,,,,,,,,,,,,,,,,,,,,,,,,2.50000000000000E+01,2.00000000000000E+01,1.40000000000000E+01,1.30000000000000E+01,1.30000000000000E+01,1.30000000000000E+01,1.30000000000000E+01,1.30000000000000E+01
EST,,,,,,,,,,,,,,,,,,,,,,,,,,,,,,,,,,,,,,,,,,,,,5.10000000000000E+01,5.10000000000000E+01,5.10000000000000E+01,5.10000000000000E+01,5.10000000000000E+01,1.80000000000000E+01,1.80000000000000E+01,1.80000000000000E+01
ETH,,,,,,,,,,,,,,,,,,,,,,,,,,,,,,,,,,,,,,,,,,,,,4.30000000000000E+01,4.30000000000000E+01,4.30000000000000E+01,4.30000000000000E+01,4.30000000000000E+01,4.10000000000000E+01,4.10000000000000E+01,4.10000000000000E+01
EUU,,,,,,,,,,,,,,,,,,,,,,,,,,,,,,,,,,,,,,,,,,,,,7.18750000000000E+01,7.11666666666667E+01,6.91200000000000E+01,6.45200000000000E+01,6.13461538461538E+01,5.17692307692308E+01,3.50769230769231E+01,3.17692307692308E+01
FIN,,,,,,,,,,,,,,,,,,,,,,,,,,,,,,,,,,,,,,,,,,,,,1.40000000000000E+01,1.40000000000000E+01,1.40000000000000E+01,1.40000000000000E+01,1.40000000000000E+01,1.40000000000000E+01,1.40000000000000E+01,1.40000000000000E+01
FJI,,,,,,,,,,,,,,,,,,,,,,,,,,,,,,,,,,,,,,,,,,,,,6.80000000000000E+01,6.80000000000000E+01,6.80000000000000E+01,6.80000000000000E+01,6.80000000000000E+01,6.80000000000000E+01,6.80000000000000E+01,6.80000000000000E+01
FRA,,,,,,,,,,,,,,,,,,,,,,,,,,,,,,,,,,,,,,,,,,,,,1.83000000000000E+02,1.83000000000000E+02,1.83000000000000E+02,1.23000000000000E+02,1.13000000000000E+02,9.80000000000000E+01,5.90000000000000E+01,5.90000000000000E+01
GAB,,,,,,,,,,,,,,,,,,,,,,,,,,,,,,,,,,,,,,,,,,,,,,3.90000000000000E+01,3.90000000000000E+01,3.90000000000000E+01,3.90000000000000E+01,3.90000000000000E+01,3.90000000000000E+01,3.90000000000000E+01
GBR,,,,,,,,,,,,,,,,,,,,,,,,,,,,,,,,,,,,,,,,,,,,,4.20000000000000E+01,4.20000000000000E+01,4.20000000000000E+01,4.20000000000000E+01,4.20000000000000E+01,2.90000000000000E+01,2.90000000000000E+01,2.90000000000000E+01
GEO,,,,,,,,,,,,,,,,,,,,,,,,,,,,,,,,,,,,,,,,,,,,,3.90000000000000E+01,9.00000000000000E+00,9.00000000000000E+00,5.00000000000000E+00,3.00000000000000E+00,3.00000000000000E+00,2.00000000000000E+00,2.00000000000000E+00
GHA,,,,,,,,,,,,,,,,,,,,,,,,,,,,,,,,,,,,,,,,,,,,,1.69000000000000E+02,1.69000000000000E+02,1.69000000000000E+02,3.40000000000000E+01,3.40000000000000E+01,3.40000000000000E+01,3.40000000000000E+01,3.40000000000000E+01
GIN,,,,,,,,,,,,,,,,,,,,,,,,,,,,,,,,,,,,,,,,,,,,,5.90000000000000E+01,5.90000000000000E+01,5.90000000000000E+01,5.90000000000000E+01,5.90000000000000E+01,5.90000000000000E+01,5.90000000000000E+01,5.90000000000000E+01
GMB,,,,,,,,,,,,,,,,,,,,,,,,,,,,,,,,,,,,,,,,,,,,,,6.60000000000000E+01,6.60000000000000E+01,6.60000000000000E+01,6.60000000000000E+01,6.60000000000000E+01,6.60000000000000E+01,6.60000000000000E+01
GNB,,,,,,,,,,,,,,,,,,,,,,,,,,,,,,,,,,,,,,,,,,,,,,2.10000000000000E+02,2.10000000000000E+02,2.10000000000000E+02,2.10000000000000E+02,2.10000000000000E+02,2.10000000000000E+02,2.10000000000000E+02
GNQ,,,,,,,,,,,,,,,,,,,,,,,,,,,,,,,,,,,,,,,,,,,,,,2.30000000000000E+01,2.30000000000000E+01,2.30000000000000E+01,2.30000000000000E+01,2.30000000000000E+01,2.30000000000000E+01,2.30000000000000E+01
GRC,,,,,,,,,,,,,,,,,,,,,,,,,,,,,,,,,,,,,,,,,,,,,2.20000000000000E+01,2.20000000000000E+01,2.20000000000000E+01,2.20000000000000E+01,2.20000000000000E+01,2.20000000000000E+01,1.80000000000000E+01,1.80000000000000E+01
GRD,,,,,,,,,,,,,,,,,,,,,,,,,,,,,,,,,,,,,,,,,,,,,,7.70000000000000E+01,7.70000000000000E+01,7.70000000000000E+01,7.70000000000000E+01,7.70000000000000E+01,4.70000000000000E+01,4.70000000000000E+01
GTM,,,,,,,,,,,,,,,,,,,,,,,,,,,,,,,,,,,,,,,,,,,,,6.90000000000000E+01,6.90000000000000E+01,3.70000000000000E+01,3.00000000000000E+01,3.00000000000000E+01,2.70000000000000E+01,2.30000000000000E+01,2.30000000000000E+01
GUY,,,,,,,,,,,,,,,,,,,,,,,,,,,,,,,,,,,,,,,,,,,,,,3.40000000000000E+01,3.40000000000000E+01,3.40000000000000E+01,3.40000000000000E+01,3.40000000000000E+01,3.40000000000000E+01,7.50000000000000E+01
HIC,,,,,,,,,,,,,,,,,,,,,,,,,,,,,,,,,,,,,,,,,,,,,7.93846153846154E+01,7.95609756097561E+01,6.98604651162791E+01,6.48913043478261E+01,6.31702127659574E+01,5.75744680851064E+01,4.51489361702128E+01,4.36595744680851E+01
HKG,,,,,,,,,,,,,,,,,,,,,,,,,,,,,,,,,,,,,,,,,,,,,3.60000000000000E+01,3.60000000000000E+01,3.60000000000000E+01,3.60000000000000E+01,3.60000000000000E+01,3.60000000000000E+01,3.60000000000000E+01,3.60000000000000E+01
HND,,,,,,,,,,,,,,,,,,,,,,,,,,,,,,,,,,,,,,,,,,,,,3.60000000000000E+01,3.60000000000000E+01,3.60000000000000E+01,2.30000000000000E+01,2.30000000000000E+01,2.30000000000000E+01,2.30000000000000E+01,2.30000000000000E+01
HPC,,,,,,,,,,,,,,,,,,,,,,,,,,,,,,,,,,,,,,,,,,,,,1.29794117647059E+02,1.25078947368421E+02,1.14282051282051E+02,1.00435897435897E+02,9.05641025641026E+01,8.57692307692308E+01,8.07692307692308E+01,7.88974358974359E+01
HRV,,,,,,,,,,,,,,,,,,,,,,,,,,,,,,,,,,,,,,,,,,,,,9.56000000000000E+02,9.56000000000000E+02,3.99000000000000E+02,1.74000000000000E+02,1.74000000000000E+02,1.04000000000000E+02,1.04000000000000E+02,1.04000000000000E+02
HTI,,,,,,,,,,,,,,,,,,,,,,,,,,,,,,,,,,,,,,,,,,,,,6.83000000000000E+02,6.83000000000000E+02,6.83000000000000E+02,3.01000000000000E+02,3.01000000000000E+02,3.01000000000000E+02,3.01000000000000E+02,3.01000000000000E+02
HUN,,,,,,,,,,,,,,,,,,,,,,,,,,,,,,,,,,,,,,,,,,,,,7.80000000000000E+01,7.80000000000000E+01,7.80000000000000E+01,6.30000000000000E+01,1.70000000000000E+01,1.70000000000000E+01,1.70000000000000E+01,1.70000000000000E+01
IDN,,,,,,,,,,,,,,,,,,,,,,,,,,,,,,,,,,,,,,,,,,,,,3.90000000000000E+01,3.90000000000000E+01,3.90000000000000E+01,3.90000000000000E+01,3.90000000000000E+01,2.20000000000000E+01,2.20000000000000E+01,2.20000000000000E+01
IND,,,,,,,,,,,,,,,,,,,,,,,,,,,,,,,,,,,,,,,,,,,,,6.10000000000000E+01,6.10000000000000E+01,6.10000000000000E+01,6.10000000000000E+01,4.40000000000000E+01,4.40000000000000E+01,4.40000000000000E+01,4.40000000000000E+01
IRL,,,,,,,,,,,,,,,,,,,,,,,,,,,,,,,,,,,,,,,,,,,,,3.80000000000000E+01,3.80000000000000E+01,3.80000000000000E+01,3.80000000000000E+01,3.80000000000000E+01,3.80000000000000E+01,3.80000000000000E+01,3.80000000000000E+01
IRN,,,,,,,,,,,,,,,,,,,,,,,,,,,,,,,,,,,,,,,,,,,,,3.60000000000000E+01,3.60000000000000E+01,3.60000000000000E+01,3.60000000000000E+01,3.60000000000000E+01,3.60000000000000E+01,3.60000000000000E+01,3.60000000000000E+01
IRQ,,,,,,,,,,,,,,,,,,,,,,,,,,,,,,,,,,,,,,,,,,,,,5.10000000000000E+01,5.10000000000000E+01,5.10000000000000E+01,5.10000000000000E+01,5.10000000000000E+01,5.10000000000000E+01,5.10000000000000E+01,5.10000000000000E+01
ISL,,,,,,,,,,,,,,,,,,,,,,,,,,,,,,,,,,,,,,,,,,,,,4.00000000000000E+00,4.00000000000000E+00,4.00000000000000E+00,4.00000000000000E+00,4.00000000000000E+00,4.00000000000000E+00,4.00000000000000E+00,4.00000000000000E+00
ISR,,,,,,,,,,,,,,,,,,,,,,,,,,,,,,,,,,,,,,,,,,,,,1.44000000000000E+02,1.44000000000000E+02,1.44000000000000E+02,1.44000000000000E+02,1.44000000000000E+02,1.44000000000000E+02,1.44000000000000E+02,1.44000000000000E+02
ITA,,,,,,,,,,,,,,,,,,,,,,,,,,,,,,,,,,,,,,,,,,,,,2.70000000000000E+01,2.70000000000000E+01,2.70000000000000E+01,2.70000000000000E+01,2.70000000000000E+01,2.70000000000000E+01,2.70000000000000E+01,2.70000000000000E+01
JAM,,,,,,,,,,,,,,,,,,,,,,,,,,,,,,,,,,,,,,,,,,,,,5.50000000000000E+01,5.50000000000000E+01,5.50000000000000E+01,5.50000000000000E+01,5.50000000000000E+01,5.50000000000000E+01,3.70000000000000E+01,3.70000000000000E+01
JOR,,,,,,,,,,,,,,,,,,,,,,,,,,,,,,,,,,,,,,,,,,,,,2.10000000000000E+01,2.10000000000000E+01,2.10000000000000E+01,2.10000000000000E+01,2.10000000000000E+01,2.10000000000000E+01,2.10000000000000E+01,2.10000000000000E+01
JPN,,,,,,,,,,,,,,,,,,,,,,,,,,,,,,,,,,,,,,,,,,,,,1.40000000000000E+01,1.40000000000000E+01,1.40000000000000E+01,1.40000000000000E+01,1.40000000000000E+01,1.40000000000000E+01,1.40000000000000E+01,1.40000000000000E+01
KAZ,,,,,,,,,,,,,,,,,,,,,,,,,,,,,,,,,,,,,,,,,,,,,5.10000000000000E+01,5.10000000000000E+01,5.10000000000000E+01,5.10000000000000E+01,4.00000000000000E+01,4.00000000000000E+01,4.00000000000000E+01,4.00000000000000E+01
KEN,,,,,,,,,,,,,,,,,,,,,,,,,,,,,,,,,,,,,,,,,,,,,3.90000000000000E+01,7.30000000000000E+01,7.30000000000000E+01,6.40000000000000E+01,6.40000000000000E+01,6.40000000000000E+01,6.40000000000000E+01,6.40000000000000E+01
KGZ,,,,,,,,,,,,,,,,,,,,,,,,,,,,,,,,,,,,,,,,,,,,,8.00000000000000E+00,8.00000000000000E+00,8.00000000000000E+00,8.00000000000000E+00,8.00000000000000E+00,5.00000000000000E+00,5.00000000000000E+00,5.00000000000000E+00
KHM,,,,,,,,,,,,,,,,,,,,,,,,,,,,,,,,,,,,,,,,,,,,,5.60000000000000E+01,5.60000000000000E+01,5.60000000000000E+01,5.60000000000000E+01,5.60000000000000E+01,5.60000000000000E+01,5.60000000000000E+01,5.60000000000000E+01
KIR,,,,,,,,,,,,,,,,,,,,,,,,,,,,,,,,,,,,,,,,,,,,,5.13000000000000E+02,5.13000000000000E+02,5.13000000000000E+02,5.13000000000000E+02,5.13000000000000E+02,5.13000000000000E+02,5.13000000000000E+02,5.13000000000000E+02
KNA,,,,,,,,,,,,,,,,,,,,,,,,,,,,,,,,,,,,,,,,,,,,,,8.10000000000000E+01,8.10000000000000E+01,8.10000000000000E+01,8.10000000000000E+01,8.10000000000000E+01,8.10000000000000E+01,8.10000000000000E+01
KOR,,,,,,,,,,,,,,,,,,,,,,,,,,,,,,,,,,,,,,,,,,,,,1.10000000000000E+01,1.10000000000000E+01,1.10000000000000E+01,1.10000000000000E+01,1.10000000000000E+01,1.10000000000000E+01,1.10000000000000E+01,1.10000000000000E+01
KSV,,,,,,,,,,,,,,,,,,,,,,,,,,,,,,,,,,,,,,,,,,,,,,,,,,3.30000000000000E+01,3.30000000000000E+01,3.30000000000000E+01
KWT,,,,,,,,,,,,,,,,,,,,,,,,,,,,,,,,,,,,,,,,,,,,,7.50000000000000E+01,7.50000000000000E+01,5.50000000000000E+01,5.50000000000000E+01,5.50000000000000E+01,5.50000000000000E+01,5.50000000000000E+01,4.70000000000000E+01
LAC,,,,,,,,,,,,,,,,,,,,,,,,,,,,,,,,,,,,,,,,,,,,,8.61500000000000E+01,7.89310344827586E+01,7.71034482758621E+01,6.10689655172414E+01,6.08965517241379E+01,5.97931034482759E+01,5.77586206896552E+01,5.64137931034483E+01
LAO,,,,,,,,,,,,,,,,,,,,,,,,,,,,,,,,,,,,,,,,,,,,,1.35000000000000E+02,1.35000000000000E+02,1.35000000000000E+02,1.35000000000000E+02,1.35000000000000E+02,1.35000000000000E+02,9.80000000000000E+01,9.80000000000000E+01
LBN,,,,,,,,,,,,,,,,,,,,,,,,,,,,,,,,,,,,,,,,,,,,,2.50000000000000E+01,2.50000000000000E+01,2.50000000000000E+01,2.50000000000000E+01,2.50000000000000E+01,2.50000000000000E+01,2.50000000000000E+01,2.50000000000000E+01
LBR,,,,,,,,,,,,,,,,,,,,,,,,,,,,,,,,,,,,,,,,,,,,,,,5.00000000000000E+01,5.00000000000000E+01,5.00000000000000E+01,5.00000000000000E+01,5.00000000000000E+01,5.00000000000000E+01
LCA,,,,,,,,,,,,,,,,,,,,,,,,,,,,,,,,,,,,,,,,,,,,,,1.70000000000000E+01,1.70000000000000E+01,1.70000000000000E+01,1.70000000000000E+01,1.70000000000000E+01,1.70000000000000E+01,1.70000000000000E+01
LCN,,,,,,,,,,,,,,,,,,,,,,,,,,,,,,,,,,,,,,,,,,,,,9.12857142857143E+01,8.53225806451613E+01,8.36129032258064E+01,7.49687500000000E+01,7.48125000000000E+01,7.38125000000000E+01,6.72812500000000E+01,6.60625000000000E+01
LDC,,,,,,,,,,,,,,,,,,,,,,,,,,,,,,,,,,,,,,,,,,,,,1.51315789473684E+02,1.42511627906977E+02,1.40159090909091E+02,1.31045454545455E+02,1.18681818181818E+02,1.11090909090909E+02,1.03090909090909E+02,9.51136363636364E+01
LIC,,,,,,,,,,,,,,,,,,,,,,,,,,,,,,,,,,,,,,,,,,,,,1.35037037037037E+02,1.29774193548387E+02,1.26937500000000E+02,1.14406250000000E+02,9.90312500000000E+01,9.32187500000000E+01,8.71562500000000E+01,8.59375000000000E+01
LKA,,,,,,,,,,,,,,,,,,,,,,,,,,,,,,,,,,,,,,,,,,,,,8.30000000000000E+01,8.30000000000000E+01,8.30000000000000E+01,8.30000000000000E+01,8.30000000000000E+01,8.30000000000000E+01,8.30000000000000E+01,8.30000000000000E+01
LMC,,,,,,,,,,,,,,,,,,,,,,,,,,,,,,,,,,,,,,,,,,,,,1.08577777777778E+02,1.02520000000000E+02,9.09200000000000E+01,8.75000000000000E+01,8.25800000000000E+01,7.71176470588235E+01,7.44509803921569E+01,6.63921568627451E+01
LMY,,,,,,,,,,,,,,,,,,,,,,,,,,,,,,,,,,,,,,,,,,,,,9.91081081081081E+01,9.36976744186046E+01,8.87862595419847E+01,8.38931297709924E+01,7.43282442748092E+01,6.83333333333333E+01,6.40526315789474E+01,5.95714285714286E+01
LSO,,,,,,,,,,,,,,,,,,,,,,,,,,,,,,,,,,,,,,,,,,,,,1.01000000000000E+02,1.01000000000000E+02,1.01000000000000E+02,1.01000000000000E+02,1.01000000000000E+02,1.01000000000000E+02,1.01000000000000E+02,1.01000000000000E+02
LTU,,,,,,,,,,,,,,,,,,,,,,,,,,,,,,,,,,,,,,,,,,,,,3.00000000000000E+00,3.00000000000000E+00,3.00000000000000E+00,3.00000000000000E+00,3.00000000000000E+00,3.00000000000000E+00,3.00000000000000E+00,3.00000000000000E+00
LUX,,,,,,,,,,,,,,,,,,,,,,,,,,,,,,,,,,,,,,,,,,,,,,,2.90000000000000E+01,2.90000000000000E+01,2.90000000000000E+01,2.90000000000000E+01,2.90000000000000E+01,2.90000000000000E+01
LVA,,,,,,,,,,,,,,,,,,,,,,,,,,,,,,,,,,,,,,,,,,,,,5.50000000000000E+01,5.50000000000000E+01,5.40000000000000E+01,5.40000000000000E+01,5.00000000000000E+01,4.50000000000000E+01,4.20000000000000E+01,1.80000000000000E+01
MAR,,,,,,,,,,,,,,,,,,,,,,,,,,,,,,,,,,,,,,,,,,,,,7.60000000000000E+01,7.60000000000000E+01,7.60000000000000E+01,7.50000000000000E+01,7.50000000000000E+01,7.50000000000000E+01,7.50000000000000E+01,7.50000000000000E+01
MDA,,,,,,,,,,,,,,,,,,,,,,,,,,,,,,,,,,,,,,,,,,,,,4.80000000000000E+01,4.80000000000000E+01,4.80000000000000E+01,4.80000000000000E+01,4.80000000000000E+01,5.00000000000000E+00,5.00000000000000E+00,5.00000000000000E+00
MDG,,,,,,,,,,,,,,,,,,,,,,,,,,,,,,,,,,,,,,,,,,,,,1.34000000000000E+02,1.34000000000000E+02,1.34000000000000E+02,1.34000000000000E+02,7.40000000000000E+01,7.40000000000000E+01,7.40000000000000E+01,7.40000000000000E+01
MDV,,,,,,,,,,,,,,,,,,,,,,,,,,,,,,,,,,,,,,,,,,,,,,,,,,,5.70000000000000E+01,5.70000000000000E+01
MEA,,,,,,,,,,,,,,,,,,,,,,,,,,,,,,,,,,,,,,,,,,,,,5.34375000000000E+01,5.31764705882353E+01,5.20000000000000E+01,4.80526315789474E+01,4.08947368421053E+01,3.98947368421053E+01,3.97368421052632E+01,3.93157894736842E+01
MEX,,,,,,,,,,,,,,,,,,,,,,,,,,,,,,,,,,,,,,,,,,,,,7.40000000000000E+01,7.40000000000000E+01,7.40000000000000E+01,7.40000000000000E+01,7.40000000000000E+01,7.40000000000000E+01,7.40000000000000E+01,7.40000000000000E+01
MIC,,,,,,,,,,,,,,,,,,,,,,,,,,,,,,,,,,,,,,,,,,,,,8.75595238095238E+01,8.22857142857143E+01,7.64545454545455E+01,7.40303030303030E+01,6.63434343434343E+01,6.03700000000000E+01,5.67326732673267E+01,5.12178217821782E+01
MKD,,,,,,,,,,,,,,,,,,,,,,,,,,,,,,,,,,,,,,,,,,,,,7.40000000000000E+01,7.40000000000000E+01,9.80000000000000E+01,9.80000000000000E+01,6.60000000000000E+01,5.80000000000000E+01,5.80000000000000E+01,4.00000000000000E+01
MLI,,,,,,,,,,,,,,,,,,,,,,,,,,,,,,,,,,,,,,,,,,,,,4.40000000000000E+01,4.40000000000000E+01,3.30000000000000E+01,2.90000000000000E+01,2.90000000000000E+01,2.90000000000000E+01,2.90000000000000E+01,2.90000000000000E+01
MNA,,,,,,,,,,,,,,,,,,,,,,,,,,,,,,,,,,,,,,,,,,,,,5.58181818181818E+01,5.52500000000000E+01,5.52500000000000E+01,5.37500000000000E+01,4.25833333333333E+01,4.10000000000000E+01,4.10000000000000E+01,4.10000000000000E+01
MNE,,,,,,,,,,,,,,,,,,,,,,,,,,,,,,,,,,,,,,,,,,,,,,,7.10000000000000E+01,7.10000000000000E+01,7.10000000000000E+01,7.10000000000000E+01,7.10000000000000E+01,7.10000000000000E+01
MNG,,,,,,,,,,,,,,,,,,,,,,,,,,,,,,,,,,,,,,,,,,,,,1.10000000000000E+01,1.10000000000000E+01,1.10000000000000E+01,1.10000000000000E+01,1.10000000000000E+01,1.10000000000000E+01,1.10000000000000E+01,1.10000000000000E+01
MOZ,,,,,,,,,,,,,,,,,,,,,,,,,,,,,,,,,,,,,,,,,,,,,4.20000000000000E+01,4.20000000000000E+01,4.20000000000000E+01,4.20000000000000E+01,4.20000000000000E+01,4.20000000000000E+01,4.20000000000000E+01,4.20000000000000E+01
MRT,,,,,,,,,,,,,,,,,,,,,,,,,,,,,,,,,,,,,,,,,,,,,4.90000000000000E+01,4.90000000000000E+01,4.90000000000000E+01,4.90000000000000E+01,4.90000000000000E+01,4.90000000000000E+01,4.90000000000000E+01,4.90000000000000E+01
MUS,,,,,,,,,,,,,,,,,,,,,,,,,,,,,,,,,,,,,,,,,,,,,2.10000000000000E+02,2.10000000000000E+02,2.10000000000000E+02,2.10000000000000E+02,2.10000000000000E+02,2.60000000000000E+01,2.60000000000000E+01,2.20000000000000E+01
MWI,,,,,,,,,,,,,,,,,,,,,,,,,,,,,,,,,,,,,,,,,,,,,8.80000000000000E+01,8.80000000000000E+01,8.80000000000000E+01,8.80000000000000E+01,8.80000000000000E+01,8.80000000000000E+01,4.90000000000000E+01,6.90000000000000E+01
MYS,,,,,,,,,,,,,,,,,,,,,,,,,,,,,,,,,,,,,,,,,,,,,1.44000000000000E+02,1.44000000000000E+02,1.44000000000000E+02,1.44000000000000E+02,1.44000000000000E+02,1.44000000000000E+02,4.80000000000000E+01,4.80000000000000E+01
NAC,,,,,,,,,,,,,,,,,,,,,,,,,,,,,,,,,,,,,,,,,,,,,1.45000000000000E+01,1.45000000000000E+01,1.45000000000000E+01,1.45000000000000E+01,1.45000000000000E+01,1.45000000000000E+01,1.45000000000000E+01,1.45000000000000E+01
NAM,,,,,,,,,,,,,,,,,,,,,,,,,,,,,,,,,,,,,,,,,,,,,3.90000000000000E+01,3.90000000000000E+01,3.90000000000000E+01,3.90000000000000E+01,3.90000000000000E+01,3.90000000000000E+01,3.90000000000000E+01,3.90000000000000E+01
NER,,,,,,,,,,,,,,,,,,,,,,,,,,,,,,,,,,,,,,,,,,,,,3.50000000000000E+01,3.50000000000000E+01,3.50000000000000E+01,3.50000000000000E+01,3.50000000000000E+01,3.50000000000000E+01,3.50000000000000E+01,3.50000000000000E+01
NGA,,,,,,,,,,,,,,,,,,,,,,,,,,,,,,,,,,,,,,,,,,,,,2.74000000000000E+02,2.74000000000000E+02,8.20000000000000E+01,8.20000000000000E+01,8.20000000000000E+01,8.20000000000000E+01,8.20000000000000E+01,8.20000000000000E+01
NIC,,,,,,,,,,,,,,,,,,,,,,,,,,,,,,,,,,,,,,,,,,,,,1.24000000000000E+02,1.24000000000000E+02,1.24000000000000E+02,1.24000000000000E+02,1.24000000000000E+02,1.24000000000000E+02,1.24000000000000E+02,4.90000000000000E+01
NLD,,,,,,,,,,,,,,,,,,,,,,,,,,,,,,,,,,,,,,,,,,,,,7.00000000000000E+00,7.00000000000000E+00,7.00000000000000E+00,7.00000000000000E+00,7.00000000000000E+00,7.00000000000000E+00,7.00000000000000E+00,7.00000000000000E+00
NOC,,,,,,,,,,,,,,,,,,,,,,,,,,,,,,,,,,,,,,,,,,,,,1.44111111111111E+02,1.34727272727273E+02,1.00250000000000E+02,8.64666666666667E+01,8.35625000000000E+01,7.89375000000000E+01,6.93750000000000E+01,6.88750000000000E+01
NOR,,,,,,,,,,,,,,,,,,,,,,,,,,,,,,,,,,,,,,,,,,,,,1.00000000000000E+00,1.00000000000000E+00,1.00000000000000E+00,3.00000000000000E+00,3.00000000000000E+00,3.00000000000000E+00,3.00000000000000E+00,3.00000000000000E+00
NPL,,,,,,,,,,,,,,,,,,,,,,,,,,,,,,,,,,,,,,,,,,,,,5.00000000000000E+00,5.00000000000000E+00,5.00000000000000E+00,5.00000000000000E+00,5.00000000000000E+00,5.00000000000000E+00,5.00000000000000E+00,5.00000000000000E+00
NZL,,,,,,,,,,,,,,,,,,,,,,,,,,,,,,,,,,,,,,,,,,,,,2.00000000000000E+00,2.00000000000000E+00,2.00000000000000E+00,2.00000000000000E+00,2.00000000000000E+00,2.00000000000000E+00,2.00000000000000E+00,2.00000000000000E+00
OEC,,,,,,,,,,,,,,,,,,,,,,,,,,,,,,,,,,,,,,,,,,,,,5.99666666666667E+01,5.93333333333333E+01,5.80967741935484E+01,5.44516129032258E+01,5.26451612903226E+01,4.65483870967742E+01,3.26451612903226E+01,3.06451612903226E+01
OED,,,,,,,,,,,,,,,,,,,,,,,,,,,,,,,,,,,,,,,,,,,,,5.78787878787879E+01,5.73030303030303E+01,5.62352941176471E+01,5.29117647058824E+01,5.12647058823529E+01,4.57058823529412E+01,3.30294117647059E+01,3.12058823529412E+01
OMN,,,,,,,,,,,,,,,,,,,,,,,,,,,,,,,,,,,,,,,,,,,,,1.60000000000000E+01,1.60000000000000E+01,1.60000000000000E+01,1.60000000000000E+01,1.60000000000000E+01,1.60000000000000E+01,1.60000000000000E+01,1.60000000000000E+01
PAK,,,,,,,,,,,,,,,,,,,,,,,,,,,,,,,,,,,,,,,,,,,,,5.00000000000000E+01,5.00000000000000E+01,5.00000000000000E+01,5.00000000000000E+01,5.00000000000000E+01,5.00000000000000E+01,5.00000000000000E+01,5.00000000000000E+01
PAN,,,,,,,,,,,,,,,,,,,,,,,,,,,,,,,,,,,,,,,,,,,,,4.40000000000000E+01,4.40000000000000E+01,4.40000000000000E+01,4.40000000000000E+01,4.40000000000000E+01,3.20000000000000E+01,3.20000000000000E+01,3.20000000000000E+01
PER,,,,,,,,,,,,,,,,,,,,,,,,,,,,,,,,,,,,,,,,,,,,,3.30000000000000E+01,3.30000000000000E+01,3.30000000000000E+01,3.30000000000000E+01,3.30000000000000E+01,1.40000000000000E+01,7.00000000000000E+00,7.00000000000000E+00
PHL,,,,,,,,,,,,,,,,,,,,,,,,,,,,,,,,,,,,,,,,,,,,,3.90000000000000E+01,3.90000000000000E+01,3.90000000000000E+01,3.90000000000000E+01,3.90000000000000E+01,3.90000000000000E+01,3.90000000000000E+01,3.90000000000000E+01
PLW,,,,,,,,,,,,,,,,,,,,,,,,,,,,,,,,,,,,,,,,,,,,,1.40000000000000E+01,1.40000000000000E+01,1.40000000000000E+01,1.40000000000000E+01,1.40000000000000E+01,1.40000000000000E+01,1.40000000000000E+01,1.40000000000000E+01
PNG,,,,,,,,,,,,,,,,,,,,,,,,,,,,,,,,,,,,,,,,,,,,,7.20000000000000E+01,7.20000000000000E+01,7.20000000000000E+01,7.20000000000000E+01,7.20000000000000E+01,7.20000000000000E+01,7.20000000000000E+01,7.20000000000000E+01
POL,,,,,,,,,,,,,,,,,,,,,,,,,,,,,,,,,,,,,,,,,,,,,2.04000000000000E+02,1.97000000000000E+02,1.97000000000000E+02,1.97000000000000E+02,1.97000000000000E+02,1.97000000000000E+02,1.52000000000000E+02,1.52000000000000E+02
PRI,,,,,,,,,,,,,,,,,,,,,,,,,,,,,,,,,,,,,,,,,,,,,1.94000000000000E+02,1.94000000000000E+02,1.94000000000000E+02,1.94000000000000E+02,1.94000000000000E+02,1.94000000000000E+02,1.94000000000000E+02,1.94000000000000E+02
PRT,,,,,,,,,,,,,,,,,,,,,,,,,,,,,,,,,,,,,,,,,,,,,8.30000000000000E+01,8.30000000000000E+01,8.10000000000000E+01,4.20000000000000E+01,4.20000000000000E+01,1.20000000000000E+01,1.00000000000000E+00,1.00000000000000E+00
PRY,,,,,,,,,,,,,,,,,,,,,,,,,,,,,,,,,,,,,,,,,,,,,4.60000000000000E+01,4.60000000000000E+01,4.60000000000000E+01,4.60000000000000E+01,4.60000000000000E+01,4.60000000000000E+01,4.60000000000000E+01,4.60000000000000E+01
QAT,,,,,,,,,,,,,,,,,,,,,,,,,,,,,,,,,,,,,,,,,,,,,,,,1.60000000000000E+01,1.60000000000000E+01,1.60000000000000E+01,1.30000000000000E+01,1.30000000000000E+01
ROM,,,,,,,,,,,,,,,,,,,,,,,,,,,,,,,,,,,,,,,,,,,,,7.70000000000000E+01,7.70000000000000E+01,7.70000000000000E+01,7.70000000000000E+01,7.70000000000000E+01,2.60000000000000E+01,2.60000000000000E+01,2.60000000000000E+01
RUS,,,,,,,,,,,,,,,,,,,,,,,,,,,,,,,,,,,,,,,,,,,,,5.20000000000000E+01,5.20000000000000E+01,5.20000000000000E+01,5.20000000000000E+01,5.20000000000000E+01,4.30000000000000E+01,4.30000000000000E+01,4.30000000000000E+01
RWA,,,,,,,,,,,,,,,,,,,,,,,,,,,,,,,,,,,,,,,,,,,,,3.71000000000000E+02,3.71000000000000E+02,3.71000000000000E+02,3.71000000000000E+02,3.15000000000000E+02,6.00000000000000E+01,5.50000000000000E+01,2.50000000000000E+01
SAS,,,,,,,,,,,,,,,,,,,,,,,,,,,,,,,,,,,,,,,,,,,,,1.38285714285714E+02,1.38285714285714E+02,1.38285714285714E+02,1.38000000000000E+02,1.09857142857143E+02,1.09857142857143E+02,1.03250000000000E+02,1.03250000000000E+02
SAU,,,,,,,,,,,,,,,,,,,,,,,,,,,,,,,,,,,,,,,,,,,,,4.00000000000000E+00,4.00000000000000E+00,4.00000000000000E+00,4.00000000000000E+00,2.00000000000000E+00,2.00000000000000E+00,2.00000000000000E+00,2.00000000000000E+00
SDN,,,,,,,,,,,,,,,,,,,,,,,,,,,,,,,,,,,,,,,,,,,,,9.00000000000000E+00,9.00000000000000E+00,9.00000000000000E+00,9.00000000000000E+00,9.00000000000000E+00,9.00000000000000E+00,9.00000000000000E+00,9.00000000000000E+00
SEN,,,,,,,,,,,,,,,,,,,,,,,,,,,,,,,,,,,,,,,,,,,,,1.45000000000000E+02,1.45000000000000E+02,1.45000000000000E+02,1.45000000000000E+02,1.24000000000000E+02,1.24000000000000E+02,1.22000000000000E+02,1.22000000000000E+02
SGP,,,,,,,,,,,,,,,,,,,,,,,,,,,,,,,,,,,,,,,,,,,,,9.00000000000000E+00,9.00000000000000E+00,9.00000000000000E+00,9.00000000000000E+00,9.00000000000000E+00,5.00000000000000E+00,5.00000000000000E+00,5.00000000000000E+00
SLB,,,,,,,,,,,,,,,,,,,,,,,,,,,,,,,,,,,,,,,,,,,,,2.97000000000000E+02,2.97000000000000E+02,2.97000000000000E+02,2.97000000000000E+02,2.97000000000000E+02,2.97000000000000E+02,2.97000000000000E+02,8.70000000000000E+01
SLE,,,,,,,,,,,,,,,,,,,,,,,,,,,,,,,,,,,,,,,,,,,,,2.36000000000000E+02,2.36000000000000E+02,2.36000000000000E+02,2.36000000000000E+02,8.60000000000000E+01,2.36000000000000E+02,8.60000000000000E+01,8.60000000000000E+01
SLV,,,,,,,,,,,,,,,,,,,,,,,,,,,,,,,,,,,,,,,,,,,,,5.20000000000000E+01,5.20000000000000E+01,3.30000000000000E+01,3.10000000000000E+01,3.10000000000000E+01,3.10000000000000E+01,3.10000000000000E+01,3.10000000000000E+01
SRB,,,,,,,,,,,,,,,,,,,,,,,,,,,,,,,,,,,,,,,,,,,,,1.86000000000000E+02,1.11000000000000E+02,1.11000000000000E+02,1.11000000000000E+02,1.11000000000000E+02,1.11000000000000E+02,9.10000000000000E+01,1.10000000000000E+01
SSA,,,,,,,,,,,,,,,,,,,,,,,,,,,,,,,,,,,,,,,,,,,,,1.15864864864865E+02,1.09681818181818E+02,9.62444444444444E+01,9.28666666666667E+01,8.40888888888889E+01,7.27111111111111E+01,6.83777777777778E+01,6.59555555555555E+01
SSF,,,,,,,,,,,,,,,,,,,,,,,,,,,,,,,,,,,,,,,,,,,,,1.15864864864865E+02,1.07755555555556E+02,9.46521739130435E+01,9.13478260869565E+01,8.27608695652174E+01,7.16304347826087E+01,6.73913043478261E+01,6.50217391304348E+01
STP,,,,,,,,,,,,,,,,,,,,,,,,,,,,,,,,,,,,,,,,,,,,,6.20000000000000E+01,6.20000000000000E+01,6.20000000000000E+01,6.20000000000000E+01,6.20000000000000E+01,6.20000000000000E+01,6.20000000000000E+01,6.20000000000000E+01
SUR,,,,,,,,,,,,,,,,,,,,,,,,,,,,,,,,,,,,,,,,,,,,,,1.93000000000000E+02,1.93000000000000E+02,1.93000000000000E+02,1.93000000000000E+02,1.97000000000000E+02,1.97000000000000E+02,1.97000000000000E+02
SVK,,,,,,,,,,,,,,,,,,,,,,,,,,,,,,,,,,,,,,,,,,,,,2.20000000000000E+01,1.70000000000000E+01,1.70000000000000E+01,1.70000000000000E+01,1.70000000000000E+01,1.70000000000000E+01,1.70000000000000E+01,1.70000000000000E+01
SVN,,,,,,,,,,,,,,,,,,,,,,,,,,,,,,,,,,,,,,,,,,,,,3.91000000000000E+02,3.91000000000000E+02,3.91000000000000E+02,3.91000000000000E+02,3.91000000000000E+02,3.91000000000000E+02,1.13000000000000E+02,1.10000000000000E+02
SWE,,,,,,,,,,,,,,,,,,,,,,,,,,,,,,,,,,,,,,,,,,,,,1.50000000000000E+01,1.50000000000000E+01,1.50000000000000E+01,1.50000000000000E+01,1.50000000000000E+01,1.50000000000000E+01,7.00000000000000E+00,7.00000000000000E+00
SWZ,,,,,,,,,,,,,,,,,,,,,,,,,,,,,,,,,,,,,,,,,,,,,,4.40000000000000E+01,4.40000000000000E+01,4.40000000000000E+01,4.40000000000000E+01,4.40000000000000E+01,4.40000000000000E+01,2.10000000000000E+01
SYC,,,,,,,,,,,,,,,,,,,,,,,,,,,,,,,,,,,,,,,,,,,,,,3.30000000000000E+01,3.30000000000000E+01,3.30000000000000E+01,3.30000000000000E+01,3.30000000000000E+01,3.30000000000000E+01,3.30000000000000E+01
SYR,,,,,,,,,,,,,,,,,,,,,,,,,,,,,,,,,,,,,,,,,,,,,2.70000000000000E+01,2.70000000000000E+01,2.70000000000000E+01,2.70000000000000E+01,1.90000000000000E+01,1.90000000000000E+01,1.90000000000000E+01,1.90000000000000E+01
TCD,,,,,,,,,,,,,,,,,,,,,,,,,,,,,,,,,,,,,,,,,,,,,4.40000000000000E+01,4.40000000000000E+01,4.40000000000000E+01,4.40000000000000E+01,4.40000000000000E+01,4.40000000000000E+01,4.40000000000000E+01,4.40000000000000E+01
TGO,,,,,,,,,,,,,,,,,,,,,,,,,,,,,,,,,,,,,,,,,,,,,2.95000000000000E+02,2.95000000000000E+02,2.95000000000000E+02,2.95000000000000E+02,2.95000000000000E+02,2.95000000000000E+02,2.95000000000000E+02,2.95000000000000E+02
THA,,,,,,,,,,,,,,,,,,,,,,,,,,,,,,,,,,,,,,,,,,,,,2.00000000000000E+00,2.00000000000000E+00,2.00000000000000E+00,2.00000000000000E+00,2.00000000000000E+00,2.00000000000000E+00,2.00000000000000E+00,2.00000000000000E+00
TJK,,,,,,,,,,,,,,,,,,,,,,,,,,,,,,,,,,,,,,,,,,,,,,3.70000000000000E+01,3.70000000000000E+01,3.70000000000000E+01,3.70000000000000E+01,3.70000000000000E+01,3.70000000000000E+01,3.70000000000000E+01
TON,,,,,,,,,,,,,,,,,,,,,,,,,,,,,,,,,,,,,,,,,,,,,1.08000000000000E+02,1.08000000000000E+02,1.08000000000000E+02,1.08000000000000E+02,1.08000000000000E+02,1.08000000000000E+02,1.08000000000000E+02,1.08000000000000E+02
TTO,,,,,,,,,,,,,,,,,,,,,,,,,,,,,,,,,,,,,,,,,,,,,,1.62000000000000E+02,1.62000000000000E+02,1.62000000000000E+02,1.62000000000000E+02,1.62000000000000E+02,1.62000000000000E+02,1.62000000000000E+02
TUN,,,,,,,,,,,,,,,,,,,,,,,,,,,,,,,,,,,,,,,,,,,,,4.70000000000000E+01,4.70000000000000E+01,4.70000000000000E+01,3.90000000000000E+01,3.90000000000000E+01,3.90000000000000E+01,3.90000000000000E+01,3.90000000000000E+01
TUR,,,,,,,,,,,,,,,,,,,,,,,,,,,,,,,,,,,,,,,,,,,,,6.00000000000000E+00,6.00000000000000E+00,6.00000000000000E+00,6.00000000000000E+00,6.00000000000000E+00,6.00000000000000E+00,6.00000000000000E+00,6.00000000000000E+00
TZA,,,,,,,,,,,,,,,,,,,,,,,,,,,,,,,,,,,,,,,,,,,,,7.70000000000000E+01,7.70000000000000E+01,7.70000000000000E+01,7.30000000000000E+01,7.30000000000000E+01,7.30000000000000E+01,7.30000000000000E+01,7.30000000000000E+01
UGA,,,,,,,,,,,,,,,,,,,,,,,,,,,,,,,,,,,,,,,,,,,,,7.70000000000000E+01,7.70000000000000E+01,7.70000000000000E+01,7.70000000000000E+01,7.70000000000000E+01,7.70000000000000E+01,7.70000000000000E+01,4.80000000000000E+01
UKR,,,,,,,,,,,,,,,,,,,,,,,,,,,,,,,,,,,,,,,,,,,,,9.30000000000000E+01,9.30000000000000E+01,9.30000000000000E+01,9.30000000000000E+01,9.30000000000000E+01,9.30000000000000E+01,1.17000000000000E+02,1.17000000000000E+02
UMC,,,,,,,,,,,,,,,,,,,,,,,,,,,,,,,,,,,,,,,,,,,,,6.33076923076923E+01,6.12083333333333E+01,6.16938775510204E+01,6.02857142857143E+01,4.97755102040816E+01,4.29387755102041E+01,3.86600000000000E+01,3.57400000000000E+01
URY,,,,,,,,,,,,,,,,,,,,,,,,,,,,,,,,,,,,,,,,,,,,,6.60000000000000E+01,6.60000000000000E+01,6.60000000000000E+01,6.60000000000000E+01,6.60000000000000E+01,6.60000000000000E+01,6.60000000000000E+01,6.60000000000000E+01
USA,,,,,,,,,,,,,,,,,,,,,,,,,,,,,,,,,,,,,,,,,,,,,1.20000000000000E+01,1.20000000000000E+01,1.20000000000000E+01,1.20000000000000E+01,1.20000000000000E+01,1.20000000000000E+01,1.20000000000000E+01,1.20000000000000E+01
UZB,,,,,,,,,,,,,,,,,,,,,,,,,,,,,,,,,,,,,,,,,,,,,7.80000000000000E+01,7.80000000000000E+01,7.80000000000000E+01,7.80000000000000E+01,7.80000000000000E+01,7.80000000000000E+01,7.80000000000000E+01,7.80000000000000E+01
VCT,,,,,,,,,,,,,,,,,,,,,,,,,,,,,,,,,,,,,,,,,,,,,,3.80000000000000E+01,3.80000000000000E+01,3.80000000000000E+01,3.80000000000000E+01,3.80000000000000E+01,3.80000000000000E+01,3.80000000000000E+01
VEN,,,,,,,,,,,,,,,,,,,,,,,,,,,,,,,,,,,,,,,,,,,,,4.70000000000000E+01,4.70000000000000E+01,4.70000000000000E+01,3.80000000000000E+01,3.80000000000000E+01,3.80000000000000E+01,3.80000000000000E+01,3.80000000000000E+01
VNM,,,,,,,,,,,,,,,,,,,,,,,,,,,,,,,,,,,,,,,,,,,,,6.70000000000000E+01,6.70000000000000E+01,6.70000000000000E+01,6.70000000000000E+01,5.70000000000000E+01,5.70000000000000E+01,5.70000000000000E+01,5.70000000000000E+01
VUT,,,,,,,,,,,,,,,,,,,,,,,,,,,,,,,,,,,,,,,,,,,,,2.08000000000000E+02,2.08000000000000E+02,2.08000000000000E+02,2.08000000000000E+02,2.08000000000000E+02,2.08000000000000E+02,2.08000000000000E+02,1.18000000000000E+02
WBG,,,,,,,,,,,,,,,,,,,,,,,,,,,,,,,,,,,,,,,,,,,,,6.80000000000000E+01,6.80000000000000E+01,6.80000000000000E+01,6.80000000000000E+01,6.30000000000000E+01,4.70000000000000E+01,4.70000000000000E+01,4.70000000000000E+01
WLD,,,,,,,,,,,,,,,,,,,,,,,,,,,,,,,,,,,,,,,,,,,,,9.39800000000000E+01,9.02882352941176E+01,8.41091954022989E+01,7.89548022598870E+01,7.13820224719101E+01,6.55083798882682E+01,5.91166666666667E+01,5.54166666666667E+01
WSM,,,,,,,,,,,,,,,,,,,,,,,,,,,,,,,,,,,,,,,,,,,,,1.47000000000000E+02,1.47000000000000E+02,1.47000000000000E+02,1.47000000000000E+02,1.47000000000000E+02,1.47000000000000E+02,2.70000000000000E+01,1.50000000000000E+01
YEM,,,,,,,,,,,,,,,,,,,,,,,,,,,,,,,,,,,,,,,,,,,,,1.90000000000000E+01,1.90000000000000E+01,1.90000000000000E+01,1.90000000000000E+01,1.90000000000000E+01,1.90000000000000E+01,1.90000000000000E+01,1.90000000000000E+01
ZAF,,,,,,,,,,,,,,,,,,,,,,,,,,,,,,,,,,,,,,,,,,,,,2.40000000000000E+01,2.40000000000000E+01,2.40000000000000E+01,2.40000000000000E+01,2.40000000000000E+01,2.40000000000000E+01,2.40000000000000E+01,2.30000000000000E+01
ZAR,,,,,,,,,,,,,,,,,,,,,,,,,,,,,,,,,,,,,,,,,,,,,5.40000000000000E+01,5.40000000000000E+01,5.40000000000000E+01,5.40000000000000E+01,5.40000000000000E+01,5.40000000000000E+01,5.40000000000000E+01,5.40000000000000E+01
ZMB,,,,,,,,,,,,,,,,,,,,,,,,,,,,,,,,,,,,,,,,,,,,,7.00000000000000E+01,7.00000000000000E+01,7.00000000000000E+01,7.00000000000000E+01,3.90000000000000E+01,3.90000000000000E+01,4.00000000000000E+01,4.00000000000000E+01
ZWE,,,,,,,,,,,,,,,,,,,,,,,,,,,,,,,,,,,,,,,,,,,,,3.00000000000000E+01,3.00000000000000E+01,3.00000000000000E+01,3.00000000000000E+01,3.00000000000000E+01,3.10000000000000E+01,3.10000000000000E+01,3.10000000000000E+01
