"Country Code",1960,1961,1962,1963,1964,1965,1966,1967,1968,1969,1970,1971,1972,1973,1974,1975,1976,1977,1978,1979,1980,1981,1982,1983,1984,1985,1986,1987,1988,1989,1990,1991,1992,1993,1994,1995,1996,1997,1998,1999,2000,2001,2002,2003,2004,2005,2006,2007,2008,2009,2010,2011AFG,,,,,,,,,,,,,,,,,,,,,,,,,,,,,,,,,,,,,,,,,,,,,9.00000000000000E+01,9.00000000000000E+00,9.00000000000000E+00,9.00000000000000E+00,9.00000000000000E+00,7.00000000000000E+00,7.00000000000000E+00,7.00000000000000E+00
AGO,,,,,,,,,,,,,,,,,,,,,,,,,,,,,,,,,,,,,,,,,,,,1.19000000000000E+02,1.19000000000000E+02,1.19000000000000E+02,1.19000000000000E+02,1.19000000000000E+02,6.80000000000000E+01,6.80000000000000E+01,6.80000000000000E+01,6.80000000000000E+01
ALB,,,,,,,,,,,,,,,,,,,,,,,,,,,,,,,,,,,,,,,,,,,,4.10000000000000E+01,4.10000000000000E+01,4.10000000000000E+01,3.90000000000000E+01,3.60000000000000E+01,8.00000000000000E+00,5.00000000000000E+00,5.00000000000000E+00,5.00000000000000E+00
ARB,,,,,,,,,,,,,,,,,,,,,,,,,,,,,,,,,,,,,,,,,,,,4.97857142857143E+01,4.54375000000000E+01,4.12777777777778E+01,3.79473684210526E+01,3.37500000000000E+01,2.24000000000000E+01,2.14000000000000E+01,2.16000000000000E+01,2.11000000000000E+01
ARE,,,,,,,,,,,,,,,,,,,,,,,,,,,,,,,,,,,,,,,,,,,,1.90000000000000E+01,1.90000000000000E+01,1.90000000000000E+01,1.90000000000000E+01,1.80000000000000E+01,1.80000000000000E+01,1.50000000000000E+01,1.50000000000000E+01,1.30000000000000E+01
ARG,,,,,,,,,,,,,,,,,,,,,,,,,,,,,,,,,,,,,,,,,,,,6.60000000000000E+01,3.00000000000000E+01,3.00000000000000E+01,3.00000000000000E+01,3.00000000000000E+01,3.10000000000000E+01,2.60000000000000E+01,2.60000000000000E+01,2.60000000000000E+01
ARM,,,,,,,,,,,,,,,,,,,,,,,,,,,,,,,,,,,,,,,,,,,,1.80000000000000E+01,1.80000000000000E+01,1.80000000000000E+01,1.70000000000000E+01,1.70000000000000E+01,1.70000000000000E+01,1.40000000000000E+01,1.40000000000000E+01,8.00000000000000E+00
ATG,,,,,,,,,,,,,,,,,,,,,,,,,,,,,,,,,,,,,,,,,,,,,,3.10000000000000E+01,2.10000000000000E+01,2.10000000000000E+01,2.10000000000000E+01,2.10000000000000E+01,2.10000000000000E+01,2.10000000000000E+01
AUS,,,,,,,,,,,,,,,,,,,,,,,,,,,,,,,,,,,,,,,,,,,,2.00000000000000E+00,2.00000000000000E+00,2.00000000000000E+00,2.00000000000000E+00,2.00000000000000E+00,2.00000000000000E+00,2.00000000000000E+00,2.00000000000000E+00,2.00000000000000E+00
AUT,,,,,,,,,,,,,,,,,,,,,,,,,,,,,,,,,,,,,,,,,,,,2.80000000000000E+01,2.80000000000000E+01,2.80000000000000E+01,2.80000000000000E+01,2.80000000000000E+01,2.80000000000000E+01,2.80000000000000E+01,2.80000000000000E+01,2.80000000000000E+01
AZE,,,,,,,,,,,,,,,,,,,,,,,,,,,,,,,,,,,,,,,,,,,,1.05000000000000E+02,1.21000000000000E+02,1.13000000000000E+02,5.10000000000000E+01,3.60000000000000E+01,1.00000000000000E+01,1.00000000000000E+01,8.00000000000000E+00,8.00000000000000E+00
BDI,,,,,,,,,,,,,,,,,,,,,,,,,,,,,,,,,,,,,,,,,,,,4.30000000000000E+01,1.40000000000000E+01,1.40000000000000E+01,1.40000000000000E+01,1.40000000000000E+01,1.40000000000000E+01,1.40000000000000E+01,1.40000000000000E+01,1.40000000000000E+01
BEL,,,,,,,,,,,,,,,,,,,,,,,,,,,,,,,,,,,,,,,,,,,,5.60000000000000E+01,3.40000000000000E+01,3.40000000000000E+01,2.70000000000000E+01,4.00000000000000E+00,4.00000000000000E+00,4.00000000000000E+00,4.00000000000000E+00,4.00000000000000E+00
BEN,,,,,,,,,,,,,,,,,,,,,,,,,,,,,,,,,,,,,,,,,,,,3.20000000000000E+01,3.10000000000000E+01,3.10000000000000E+01,3.10000000000000E+01,3.10000000000000E+01,3.10000000000000E+01,3.10000000000000E+01,3.10000000000000E+01,2.90000000000000E+01
BFA,,,,,,,,,,,,,,,,,,,,,,,,,,,,,,,,,,,,,,,,,,,,4.00000000000000E+01,4.00000000000000E+01,4.00000000000000E+01,3.40000000000000E+01,1.80000000000000E+01,1.60000000000000E+01,1.40000000000000E+01,1.40000000000000E+01,1.30000000000000E+01
BGD,,,,,,,,,,,,,,,,,,,,,,,,,,,,,,,,,,,,,,,,,,,,5.00000000000000E+01,5.00000000000000E+01,5.00000000000000E+01,5.00000000000000E+01,7.40000000000000E+01,7.30000000000000E+01,4.40000000000000E+01,1.90000000000000E+01,1.90000000000000E+01
BGR,,,,,,,,,,,,,,,,,,,,,,,,,,,,,,,,,,,,,,,,,,,,3.20000000000000E+01,3.20000000000000E+01,3.20000000000000E+01,3.20000000000000E+01,3.20000000000000E+01,4.90000000000000E+01,1.80000000000000E+01,1.80000000000000E+01,1.80000000000000E+01
BHR,,,,,,,,,,,,,,,,,,,,,,,,,,,,,,,,,,,,,,,,,,,,,,,,9.00000000000000E+00,9.00000000000000E+00,9.00000000000000E+00,9.00000000000000E+00,9.00000000000000E+00
BHS,,,,,,,,,,,,,,,,,,,,,,,,,,,,,,,,,,,,,,,,,,,,,,,,3.10000000000000E+01,3.10000000000000E+01,3.10000000000000E+01,3.10000000000000E+01,3.10000000000000E+01
BIH,,,,,,,,,,,,,,,,,,,,,,,,,,,,,,,,,,,,,,,,,,,,6.80000000000000E+01,6.30000000000000E+01,6.30000000000000E+01,6.30000000000000E+01,6.30000000000000E+01,6.90000000000000E+01,6.90000000000000E+01,6.40000000000000E+01,4.00000000000000E+01
BLR,,,,,,,,,,,,,,,,,,,,,,,,,,,,,,,,,,,,,,,,,,,,7.90000000000000E+01,7.90000000000000E+01,7.90000000000000E+01,6.90000000000000E+01,4.80000000000000E+01,3.10000000000000E+01,6.00000000000000E+00,5.00000000000000E+00,5.00000000000000E+00
BLZ,,,,,,,,,,,,,,,,,,,,,,,,,,,,,,,,,,,,,,,,,,,,,,4.50000000000000E+01,4.50000000000000E+01,4.40000000000000E+01,4.40000000000000E+01,4.40000000000000E+01,4.40000000000000E+01,4.40000000000000E+01
BOL,,,,,,,,,,,,,,,,,,,,,,,,,,,,,,,,,,,,,,,,,,,,6.00000000000000E+01,6.00000000000000E+01,5.00000000000000E+01,5.00000000000000E+01,5.00000000000000E+01,5.00000000000000E+01,5.00000000000000E+01,5.00000000000000E+01,5.00000000000000E+01
BRA,,,,,,,,,,,,,,,,,,,,,,,,,,,,,,,,,,,,,,,,,,,,1.52000000000000E+02,1.52000000000000E+02,1.52000000000000E+02,1.49000000000000E+02,1.49000000000000E+02,1.49000000000000E+02,1.19000000000000E+02,1.19000000000000E+02,1.19000000000000E+02
BRN,,,,,,,,,,,,,,,,,,,,,,,,,,,,,,,,,,,,,,,,,,,,,,,1.16000000000000E+02,1.16000000000000E+02,1.16000000000000E+02,1.16000000000000E+02,1.05000000000000E+02,1.01000000000000E+02
BTN,,,,,,,,,,,,,,,,,,,,,,,,,,,,,,,,,,,,,,,,,,,,6.20000000000000E+01,6.20000000000000E+01,6.20000000000000E+01,6.20000000000000E+01,4.80000000000000E+01,4.60000000000000E+01,4.60000000000000E+01,4.60000000000000E+01,3.60000000000000E+01
BWA,,,,,,,,,,,,,,,,,,,,,,,,,,,,,,,,,,,,,,,,,,,,1.08000000000000E+02,1.08000000000000E+02,1.08000000000000E+02,1.08000000000000E+02,1.08000000000000E+02,7.80000000000000E+01,6.10000000000000E+01,6.10000000000000E+01,6.10000000000000E+01
CAF,,,,,,,,,,,,,,,,,,,,,,,,,,,,,,,,,,,,,,,,,,,,2.20000000000000E+01,2.20000000000000E+01,2.20000000000000E+01,2.20000000000000E+01,2.20000000000000E+01,2.20000000000000E+01,2.20000000000000E+01,2.20000000000000E+01,2.10000000000000E+01
CAN,,,,,,,,,,,,,,,,,,,,,,,,,,,,,,,,,,,,,,,,,,,,3.00000000000000E+00,3.00000000000000E+00,3.00000000000000E+00,3.00000000000000E+00,3.00000000000000E+00,5.00000000000000E+00,5.00000000000000E+00,5.00000000000000E+00,5.00000000000000E+00
CHE,,,,,,,,,,,,,,,,,,,,,,,,,,,,,,,,,,,,,,,,,,,,2.00000000000000E+01,1.80000000000000E+01,1.80000000000000E+01,1.80000000000000E+01,1.80000000000000E+01,1.80000000000000E+01,1.80000000000000E+01,1.80000000000000E+01,1.80000000000000E+01
CHL,,,,,,,,,,,,,,,,,,,,,,,,,,,,,,,,,,,,,,,,,,,,2.70000000000000E+01,2.70000000000000E+01,2.70000000000000E+01,2.70000000000000E+01,2.70000000000000E+01,2.70000000000000E+01,2.70000000000000E+01,2.20000000000000E+01,7.00000000000000E+00
CHN,,,,,,,,,,,,,,,,,,,,,,,,,,,,,,,,,,,,,,,,,,,,4.80000000000000E+01,4.80000000000000E+01,4.80000000000000E+01,3.50000000000000E+01,3.50000000000000E+01,4.10000000000000E+01,3.80000000000000E+01,3.80000000000000E+01,3.80000000000000E+01
CIV,,,,,,,,,,,,,,,,,,,,,,,,,,,,,,,,,,,,,,,,,,,,6.20000000000000E+01,5.80000000000000E+01,4.50000000000000E+01,4.50000000000000E+01,4.00000000000000E+01,4.00000000000000E+01,4.00000000000000E+01,4.00000000000000E+01,3.20000000000000E+01
CMR,,,,,,,,,,,,,,,,,,,,,,,,,,,,,,,,,,,,,,,,,,,,4.50000000000000E+01,4.50000000000000E+01,4.50000000000000E+01,4.50000000000000E+01,3.80000000000000E+01,3.80000000000000E+01,3.50000000000000E+01,1.90000000000000E+01,1.50000000000000E+01
COG,,,,,,,,,,,,,,,,,,,,,,,,,,,,,,,,,,,,,,,,,,,,3.70000000000000E+01,3.70000000000000E+01,3.70000000000000E+01,3.70000000000000E+01,3.70000000000000E+01,1.60000000000000E+02,1.60000000000000E+02,1.60000000000000E+02,1.60000000000000E+02
COL,,,,,,,,,,,,,,,,,,,,,,,,,,,,,,,,,,,,,,,,,,,,6.00000000000000E+01,4.20000000000000E+01,4.20000000000000E+01,4.30000000000000E+01,4.20000000000000E+01,3.60000000000000E+01,2.00000000000000E+01,1.40000000000000E+01,1.40000000000000E+01
COM,,,,,,,,,,,,,,,,,,,,,,,,,,,,,,,,,,,,,,,,,,,,,,2.40000000000000E+01,2.40000000000000E+01,2.40000000000000E+01,2.40000000000000E+01,2.40000000000000E+01,2.40000000000000E+01,2.40000000000000E+01
CPV,,,,,,,,,,,,,,,,,,,,,,,,,,,,,,,,,,,,,,,,,,,,,,5.20000000000000E+01,5.20000000000000E+01,5.20000000000000E+01,5.20000000000000E+01,2.40000000000000E+01,1.10000000000000E+01,1.10000000000000E+01
CRI,,,,,,,,,,,,,,,,,,,,,,,,,,,,,,,,,,,,,,,,,,,,7.70000000000000E+01,7.70000000000000E+01,7.70000000000000E+01,7.70000000000000E+01,7.70000000000000E+01,6.00000000000000E+01,6.00000000000000E+01,6.00000000000000E+01,6.00000000000000E+01
CYP,,,,,,,,,,,,,,,,,,,,,,,,,,,,,,,,,,,,,,,,,,,,,,,,,8.00000000000000E+00,8.00000000000000E+00,8.00000000000000E+00,8.00000000000000E+00
CZE,,,,,,,,,,,,,,,,,,,,,,,,,,,,,,,,,,,,,,,,,,,,4.00000000000000E+01,4.00000000000000E+01,4.00000000000000E+01,2.40000000000000E+01,1.70000000000000E+01,2.00000000000000E+01,2.00000000000000E+01,2.00000000000000E+01,2.00000000000000E+01
DEU,,,,,,,,,,,,,,,,,,,,,,,,,,,,,,,,,,,,,,,,,,,,4.50000000000000E+01,4.50000000000000E+01,2.40000000000000E+01,2.40000000000000E+01,1.80000000000000E+01,1.80000000000000E+01,1.80000000000000E+01,1.50000000000000E+01,1.50000000000000E+01
DJI,,,,,,,,,,,,,,,,,,,,,,,,,,,,,,,,,,,,,,,,,,,,,,3.70000000000000E+01,3.70000000000000E+01,3.70000000000000E+01,3.70000000000000E+01,3.70000000000000E+01,3.70000000000000E+01,3.70000000000000E+01
DMA,,,,,,,,,,,,,,,,,,,,,,,,,,,,,,,,,,,,,,,,,,,,,,1.40000000000000E+01,1.40000000000000E+01,1.40000000000000E+01,1.40000000000000E+01,1.40000000000000E+01,1.40000000000000E+01,1.40000000000000E+01
DNK,,,,,,,,,,,,,,,,,,,,,,,,,,,,,,,,,,,,,,,,,,,,7.00000000000000E+00,7.00000000000000E+00,6.00000000000000E+00,6.00000000000000E+00,6.00000000000000E+00,6.00000000000000E+00,6.00000000000000E+00,6.00000000000000E+00,6.00000000000000E+00
DOM,,,,,,,,,,,,,,,,,,,,,,,,,,,,,,,,,,,,,,,,,,,,7.70000000000000E+01,7.70000000000000E+01,7.40000000000000E+01,7.20000000000000E+01,2.20000000000000E+01,1.90000000000000E+01,1.90000000000000E+01,1.90000000000000E+01,1.90000000000000E+01
DZA,,,,,,,,,,,,,,,,,,,,,,,,,,,,,,,,,,,,,,,,,,,,2.50000000000000E+01,2.50000000000000E+01,2.50000000000000E+01,2.50000000000000E+01,2.50000000000000E+01,2.50000000000000E+01,2.50000000000000E+01,2.50000000000000E+01,2.50000000000000E+01
EAP,,,,,,,,,,,,,,,,,,,,,,,,,,,,,,,,,,,,,,,,,,,,5.31052631578947E+01,5.44000000000000E+01,5.65500000000000E+01,5.19000000000000E+01,5.00000000000000E+01,4.76000000000000E+01,4.52000000000000E+01,4.39500000000000E+01,3.91000000000000E+01
EAS,,,,,,,,,,,,,,,,,,,,,,,,,,,,,,,,,,,,,,,,,,,,4.37692307692308E+01,4.50740740740741E+01,4.65925925925926E+01,4.54642857142857E+01,4.40714285714286E+01,4.17142857142857E+01,3.90000000000000E+01,3.74285714285714E+01,3.32857142857143E+01
ECA,,,,,,,,,,,,,,,,,,,,,,,,,,,,,,,,,,,,,,,,,,,,4.12105263157895E+01,3.86842105263158E+01,3.73500000000000E+01,3.11904761904762E+01,2.67142857142857E+01,2.42727272727273E+01,1.88181818181818E+01,1.78181818181818E+01,1.62727272727273E+01
ECS,,,,,,,,,,,,,,,,,,,,,,,,,,,,,,,,,,,,,,,,,,,,4.02093023255814E+01,3.59302325581395E+01,3.08636363636364E+01,2.63478260869565E+01,2.23478260869565E+01,1.93333333333333E+01,1.65208333333333E+01,1.55000000000000E+01,1.41875000000000E+01
ECU,,,,,,,,,,,,,,,,,,,,,,,,,,,,,,,,,,,,,,,,,,,,9.20000000000000E+01,9.20000000000000E+01,6.90000000000000E+01,6.50000000000000E+01,6.50000000000000E+01,6.50000000000000E+01,6.40000000000000E+01,5.60000000000000E+01,5.60000000000000E+01
EGY,,,,,,,,,,,,,,,,,,,,,,,,,,,,,,,,,,,,,,,,,,,,3.70000000000000E+01,3.70000000000000E+01,2.20000000000000E+01,1.90000000000000E+01,9.00000000000000E+00,7.00000000000000E+00,7.00000000000000E+00,7.00000000000000E+00,7.00000000000000E+00
EMU,,,,,,,,,,,,,,,,,,,,,,,,,,,,,,,,,,,,,,,,,,,,5.11428571428571E+01,4.15714285714286E+01,2.91428571428571E+01,2.50000000000000E+01,2.11333333333333E+01,1.57500000000000E+01,1.48125000000000E+01,1.40625000000000E+01,1.22500000000000E+01
ERI,,,,,,,,,,,,,,,,,,,,,,,,,,,,,,,,,,,,,,,,,,,,9.10000000000000E+01,9.10000000000000E+01,7.60000000000000E+01,7.60000000000000E+01,8.40000000000000E+01,8.40000000000000E+01,8.40000000000000E+01,8.40000000000000E+01,8.40000000000000E+01
ESP,,,,,,,,,,,,,,,,,,,,,,,,,,,,,,,,,,,,,,,,,,,,1.14000000000000E+02,1.14000000000000E+02,4.70000000000000E+01,4.70000000000000E+01,4.70000000000000E+01,4.70000000000000E+01,4.70000000000000E+01,4.70000000000000E+01,2.80000000000000E+01
EST,,,,,,,,,,,,,,,,,,,,,,,,,,,,,,,,,,,,,,,,,,,,7.20000000000000E+01,7.20000000000000E+01,3.50000000000000E+01,3.50000000000000E+01,7.00000000000000E+00,7.00000000000000E+00,7.00000000000000E+00,7.00000000000000E+00,7.00000000000000E+00
ETH,,,,,,,,,,,,,,,,,,,,,,,,,,,,,,,,,,,,,,,,,,,,4.40000000000000E+01,3.20000000000000E+01,3.20000000000000E+01,1.60000000000000E+01,1.60000000000000E+01,1.60000000000000E+01,9.00000000000000E+00,9.00000000000000E+00,9.00000000000000E+00
EUU,,,,,,,,,,,,,,,,,,,,,,,,,,,,,,,,,,,,,,,,,,,,4.07083333333333E+01,3.50833333333333E+01,2.65000000000000E+01,2.34800000000000E+01,1.99200000000000E+01,1.70000000000000E+01,1.52307692307692E+01,1.46153846153846E+01,1.36923076923077E+01
FIN,,,,,,,,,,,,,,,,,,,,,,,,,,,,,,,,,,,,,,,,,,,,3.10000000000000E+01,1.40000000000000E+01,1.40000000000000E+01,1.40000000000000E+01,1.40000000000000E+01,1.40000000000000E+01,1.40000000000000E+01,1.40000000000000E+01,1.40000000000000E+01
FJI,,,,,,,,,,,,,,,,,,,,,,,,,,,,,,,,,,,,,,,,,,,,4.50000000000000E+01,4.50000000000000E+01,4.60000000000000E+01,4.60000000000000E+01,4.60000000000000E+01,4.60000000000000E+01,4.60000000000000E+01,4.60000000000000E+01,4.50000000000000E+01
FRA,,,,,,,,,,,,,,,,,,,,,,,,,,,,,,,,,,,,,,,,,,,,4.10000000000000E+01,7.00000000000000E+00,7.00000000000000E+00,7.00000000000000E+00,7.00000000000000E+00,7.00000000000000E+00,7.00000000000000E+00,7.00000000000000E+00,7.00000000000000E+00
FSM,,,,,,,,,,,,,,,,,,,,,,,,,,,,,,,,,,,,,,,,,,,,1.60000000000000E+01,1.60000000000000E+01,1.60000000000000E+01,1.60000000000000E+01,1.60000000000000E+01,1.60000000000000E+01,1.60000000000000E+01,1.60000000000000E+01,1.60000000000000E+01
GAB,,,,,,,,,,,,,,,,,,,,,,,,,,,,,,,,,,,,,,,,,,,,,,5.80000000000000E+01,5.80000000000000E+01,5.80000000000000E+01,5.80000000000000E+01,5.80000000000000E+01,5.80000000000000E+01,5.80000000000000E+01
GBR,,,,,,,,,,,,,,,,,,,,,,,,,,,,,,,,,,,,,,,,,,,,1.30000000000000E+01,1.30000000000000E+01,1.30000000000000E+01,1.30000000000000E+01,1.30000000000000E+01,1.30000000000000E+01,1.30000000000000E+01,1.30000000000000E+01,1.30000000000000E+01
GEO,,,,,,,,,,,,,,,,,,,,,,,,,,,,,,,,,,,,,,,,,,,,2.50000000000000E+01,2.50000000000000E+01,2.10000000000000E+01,1.60000000000000E+01,1.10000000000000E+01,3.00000000000000E+00,3.00000000000000E+00,3.00000000000000E+00,2.00000000000000E+00
GHA,,,,,,,,,,,,,,,,,,,,,,,,,,,,,,,,,,,,,,,,,,,,2.20000000000000E+01,2.20000000000000E+01,1.80000000000000E+01,1.80000000000000E+01,1.50000000000000E+01,1.30000000000000E+01,1.20000000000000E+01,1.20000000000000E+01,1.20000000000000E+01
GIN,,,,,,,,,,,,,,,,,,,,,,,,,,,,,,,,,,,,,,,,,,,,4.00000000000000E+01,4.00000000000000E+01,4.00000000000000E+01,4.00000000000000E+01,4.00000000000000E+01,4.00000000000000E+01,4.00000000000000E+01,4.00000000000000E+01,4.00000000000000E+01
GMB,,,,,,,,,,,,,,,,,,,,,,,,,,,,,,,,,,,,,,,,,,,,,,2.70000000000000E+01,2.70000000000000E+01,3.20000000000000E+01,2.70000000000000E+01,2.70000000000000E+01,2.70000000000000E+01,2.70000000000000E+01
GNB,,,,,,,,,,,,,,,,,,,,,,,,,,,,,,,,,,,,,,,,,,,,,,2.59000000000000E+02,2.59000000000000E+02,2.59000000000000E+02,2.59000000000000E+02,2.16000000000000E+02,2.16000000000000E+02,9.00000000000000E+00
GNQ,,,,,,,,,,,,,,,,,,,,,,,,,,,,,,,,,,,,,,,,,,,,,,1.37000000000000E+02,1.37000000000000E+02,1.37000000000000E+02,1.37000000000000E+02,1.37000000000000E+02,1.37000000000000E+02,1.37000000000000E+02
GRC,,,,,,,,,,,,,,,,,,,,,,,,,,,,,,,,,,,,,,,,,,,,3.80000000000000E+01,3.80000000000000E+01,3.80000000000000E+01,3.80000000000000E+01,3.80000000000000E+01,1.90000000000000E+01,1.90000000000000E+01,1.90000000000000E+01,1.00000000000000E+01
GRD,,,,,,,,,,,,,,,,,,,,,,,,,,,,,,,,,,,,,,,,,,,,,,2.00000000000000E+01,2.00000000000000E+01,2.00000000000000E+01,2.00000000000000E+01,2.00000000000000E+01,1.50000000000000E+01,1.50000000000000E+01
GTM,,,,,,,,,,,,,,,,,,,,,,,,,,,,,,,,,,,,,,,,,,,,3.90000000000000E+01,3.90000000000000E+01,3.90000000000000E+01,3.00000000000000E+01,3.40000000000000E+01,3.40000000000000E+01,3.70000000000000E+01,3.70000000000000E+01,3.70000000000000E+01
GUY,,,,,,,,,,,,,,,,,,,,,,,,,,,,,,,,,,,,,,,,,,,,4.60000000000000E+01,4.60000000000000E+01,4.60000000000000E+01,4.60000000000000E+01,4.40000000000000E+01,4.00000000000000E+01,3.40000000000000E+01,3.00000000000000E+01,2.60000000000000E+01
HIC,,,,,,,,,,,,,,,,,,,,,,,,,,,,,,,,,,,,,,,,,,,,3.29487179487179E+01,2.94615384615385E+01,2.73414634146341E+01,2.62727272727273E+01,2.35000000000000E+01,2.05957446808511E+01,1.94255319148936E+01,1.85744680851064E+01,1.73191489361702E+01
HKG,,,,,,,,,,,,,,,,,,,,,,,,,,,,,,,,,,,,,,,,,,,,1.10000000000000E+01,1.10000000000000E+01,1.10000000000000E+01,1.10000000000000E+01,1.10000000000000E+01,1.10000000000000E+01,6.00000000000000E+00,6.00000000000000E+00,3.00000000000000E+00
HND,,,,,,,,,,,,,,,,,,,,,,,,,,,,,,,,,,,,,,,,,,,,6.20000000000000E+01,6.20000000000000E+01,6.20000000000000E+01,4.40000000000000E+01,2.10000000000000E+01,2.00000000000000E+01,1.40000000000000E+01,1.40000000000000E+01,1.40000000000000E+01
HPC,,,,,,,,,,,,,,,,,,,,,,,,,,,,,,,,,,,,,,,,,,,,6.17575757575758E+01,5.86285714285714E+01,5.75000000000000E+01,5.47692307692308E+01,5.01282051282051E+01,4.82564102564103E+01,4.55128205128205E+01,4.12307692307692E+01,3.10769230769231E+01
HRV,,,,,,,,,,,,,,,,,,,,,,,,,,,,,,,,,,,,,,,,,,,,2.90000000000000E+01,2.90000000000000E+01,2.90000000000000E+01,2.50000000000000E+01,2.20000000000000E+01,2.20000000000000E+01,2.20000000000000E+01,7.00000000000000E+00,7.00000000000000E+00
HTI,,,,,,,,,,,,,,,,,,,,,,,,,,,,,,,,,,,,,,,,,,,,2.02000000000000E+02,2.02000000000000E+02,2.02000000000000E+02,2.02000000000000E+02,2.02000000000000E+02,1.95000000000000E+02,1.95000000000000E+02,1.05000000000000E+02,1.05000000000000E+02
HUN,,,,,,,,,,,,,,,,,,,,,,,,,,,,,,,,,,,,,,,,,,,,5.20000000000000E+01,5.20000000000000E+01,3.80000000000000E+01,3.80000000000000E+01,1.60000000000000E+01,5.00000000000000E+00,4.00000000000000E+00,4.00000000000000E+00,4.00000000000000E+00
IDN,,,,,,,,,,,,,,,,,,,,,,,,,,,,,,,,,,,,,,,,,,,,1.68000000000000E+02,1.51000000000000E+02,1.51000000000000E+02,9.70000000000000E+01,1.05000000000000E+02,7.60000000000000E+01,6.00000000000000E+01,4.70000000000000E+01,4.50000000000000E+01
IND,,,,,,,,,,,,,,,,,,,,,,,,,,,,,,,,,,,,,,,,,,,,8.90000000000000E+01,8.90000000000000E+01,7.10000000000000E+01,3.50000000000000E+01,3.30000000000000E+01,3.00000000000000E+01,3.00000000000000E+01,2.90000000000000E+01,2.90000000000000E+01
IRL,,,,,,,,,,,,,,,,,,,,,,,,,,,,,,,,,,,,,,,,,,,,1.80000000000000E+01,1.80000000000000E+01,1.80000000000000E+01,1.30000000000000E+01,1.30000000000000E+01,1.30000000000000E+01,1.30000000000000E+01,1.30000000000000E+01,1.30000000000000E+01
IRN,,,,,,,,,,,,,,,,,,,,,,,,,,,,,,,,,,,,,,,,,,,,2.90000000000000E+01,2.90000000000000E+01,2.80000000000000E+01,2.80000000000000E+01,2.80000000000000E+01,2.80000000000000E+01,9.00000000000000E+00,8.00000000000000E+00,8.00000000000000E+00
IRQ,,,,,,,,,,,,,,,,,,,,,,,,,,,,,,,,,,,,,,,,,,,,,7.70000000000000E+01,7.70000000000000E+01,7.70000000000000E+01,7.70000000000000E+01,7.70000000000000E+01,7.70000000000000E+01,7.70000000000000E+01,7.70000000000000E+01
ISL,,,,,,,,,,,,,,,,,,,,,,,,,,,,,,,,,,,,,,,,,,,,5.00000000000000E+00,5.00000000000000E+00,5.00000000000000E+00,5.00000000000000E+00,5.00000000000000E+00,5.00000000000000E+00,5.00000000000000E+00,5.00000000000000E+00,5.00000000000000E+00
ISR,,,,,,,,,,,,,,,,,,,,,,,,,,,,,,,,,,,,,,,,,,,,3.40000000000000E+01,3.40000000000000E+01,3.40000000000000E+01,3.40000000000000E+01,3.40000000000000E+01,3.40000000000000E+01,3.40000000000000E+01,3.40000000000000E+01,3.40000000000000E+01
ITA,,,,,,,,,,,,,,,,,,,,,,,,,,,,,,,,,,,,,,,,,,,,2.30000000000000E+01,1.30000000000000E+01,1.30000000000000E+01,1.30000000000000E+01,1.30000000000000E+01,1.00000000000000E+01,1.00000000000000E+01,6.00000000000000E+00,6.00000000000000E+00
JAM,,,,,,,,,,,,,,,,,,,,,,,,,,,,,,,,,,,,,,,,,,,,3.10000000000000E+01,3.10000000000000E+01,8.00000000000000E+00,8.00000000000000E+00,8.00000000000000E+00,8.00000000000000E+00,8.00000000000000E+00,8.00000000000000E+00,7.00000000000000E+00
JOR,,,,,,,,,,,,,,,,,,,,,,,,,,,,,,,,,,,,,,,,,,,,7.90000000000000E+01,2.60000000000000E+01,1.60000000000000E+01,1.60000000000000E+01,1.30000000000000E+01,1.30000000000000E+01,1.20000000000000E+01,1.20000000000000E+01,1.20000000000000E+01
JPN,,,,,,,,,,,,,,,,,,,,,,,,,,,,,,,,,,,,,,,,,,,,3.10000000000000E+01,3.10000000000000E+01,3.10000000000000E+01,2.30000000000000E+01,2.30000000000000E+01,2.30000000000000E+01,2.30000000000000E+01,2.30000000000000E+01,2.30000000000000E+01
KAZ,,,,,,,,,,,,,,,,,,,,,,,,,,,,,,,,,,,,,,,,,,,,2.60000000000000E+01,2.60000000000000E+01,2.50000000000000E+01,2.10000000000000E+01,2.10000000000000E+01,2.10000000000000E+01,2.00000000000000E+01,1.90000000000000E+01,1.90000000000000E+01
KEN,,,,,,,,,,,,,,,,,,,,,,,,,,,,,,,,,,,,,,,,,,,,6.00000000000000E+01,4.70000000000000E+01,5.40000000000000E+01,5.40000000000000E+01,4.40000000000000E+01,3.00000000000000E+01,3.40000000000000E+01,3.30000000000000E+01,3.30000000000000E+01
KGZ,,,,,,,,,,,,,,,,,,,,,,,,,,,,,,,,,,,,,,,,,,,,2.10000000000000E+01,2.10000000000000E+01,2.10000000000000E+01,2.10000000000000E+01,2.10000000000000E+01,1.50000000000000E+01,1.10000000000000E+01,1.00000000000000E+01,1.00000000000000E+01
KHM,,,,,,,,,,,,,,,,,,,,,,,,,,,,,,,,,,,,,,,,,,,,9.40000000000000E+01,9.40000000000000E+01,8.60000000000000E+01,8.60000000000000E+01,8.60000000000000E+01,8.50000000000000E+01,8.50000000000000E+01,8.50000000000000E+01,8.50000000000000E+01
KIR,,,,,,,,,,,,,,,,,,,,,,,,,,,,,,,,,,,,,,,,,,,,2.10000000000000E+01,3.10000000000000E+01,3.10000000000000E+01,3.10000000000000E+01,3.10000000000000E+01,3.10000000000000E+01,3.10000000000000E+01,3.10000000000000E+01,3.10000000000000E+01
KNA,,,,,,,,,,,,,,,,,,,,,,,,,,,,,,,,,,,,,,,,,,,,,,1.90000000000000E+01,1.90000000000000E+01,1.90000000000000E+01,1.90000000000000E+01,1.90000000000000E+01,1.90000000000000E+01,1.90000000000000E+01
KOR,,,,,,,,,,,,,,,,,,,,,,,,,,,,,,,,,,,,,,,,,,,,1.70000000000000E+01,1.70000000000000E+01,1.70000000000000E+01,1.70000000000000E+01,1.70000000000000E+01,1.70000000000000E+01,1.40000000000000E+01,1.40000000000000E+01,7.00000000000000E+00
KSV,,,,,,,,,,,,,,,,,,,,,,,,,,,,,,,,,,,,,,,,,,,,,,,,,5.20000000000000E+01,5.20000000000000E+01,5.80000000000000E+01,5.80000000000000E+01
KWT,,,,,,,,,,,,,,,,,,,,,,,,,,,,,,,,,,,,,,,,,,,,3.50000000000000E+01,3.50000000000000E+01,3.50000000000000E+01,3.50000000000000E+01,3.50000000000000E+01,3.50000000000000E+01,3.50000000000000E+01,3.50000000000000E+01,3.20000000000000E+01
LAC,,,,,,,,,,,,,,,,,,,,,,,,,,,,,,,,,,,,,,,,,,,,7.55238095238095E+01,7.26190476190476E+01,7.75862068965517E+01,7.33793103448276E+01,6.95517241379310E+01,6.75517241379310E+01,6.45862068965517E+01,5.97586206896552E+01,5.70344827586207E+01
LAO,,,,,,,,,,,,,,,,,,,,,,,,,,,,,,,,,,,,,,,,,,,,1.53000000000000E+02,1.53000000000000E+02,1.53000000000000E+02,1.23000000000000E+02,9.30000000000000E+01,9.30000000000000E+01,9.30000000000000E+01,9.30000000000000E+01,9.30000000000000E+01
LBN,,,,,,,,,,,,,,,,,,,,,,,,,,,,,,,,,,,,,,,,,,,,4.60000000000000E+01,4.60000000000000E+01,4.60000000000000E+01,4.60000000000000E+01,4.60000000000000E+01,1.10000000000000E+01,9.00000000000000E+00,9.00000000000000E+00,9.00000000000000E+00
LBR,,,,,,,,,,,,,,,,,,,,,,,,,,,,,,,,,,,,,,,,,,,,,,,6.80000000000000E+01,6.80000000000000E+01,3.10000000000000E+01,2.00000000000000E+01,2.00000000000000E+01,6.00000000000000E+00
LCA,,,,,,,,,,,,,,,,,,,,,,,,,,,,,,,,,,,,,,,,,,,,,,2.00000000000000E+01,2.00000000000000E+01,2.00000000000000E+01,2.00000000000000E+01,1.40000000000000E+01,1.40000000000000E+01,1.50000000000000E+01
LCN,,,,,,,,,,,,,,,,,,,,,,,,,,,,,,,,,,,,,,,,,,,,7.24090909090909E+01,6.96363636363636E+01,7.41935483870968E+01,7.02580645161290E+01,6.55625000000000E+01,6.37500000000000E+01,6.10625000000000E+01,5.66875000000000E+01,5.41875000000000E+01
LDC,,,,,,,,,,,,,,,,,,,,,,,,,,,,,,,,,,,,,,,,,,,,6.86111111111111E+01,6.65641025641026E+01,6.77272727272727E+01,6.44222222222222E+01,6.06222222222222E+01,5.34888888888889E+01,5.03111111111111E+01,4.65111111111111E+01,3.62444444444444E+01
LIC,,,,,,,,,,,,,,,,,,,,,,,,,,,,,,,,,,,,,,,,,,,,6.24230769230769E+01,5.91111111111111E+01,6.07419354838710E+01,5.78750000000000E+01,5.39375000000000E+01,5.10000000000000E+01,4.67187500000000E+01,4.07500000000000E+01,3.30000000000000E+01
LKA,,,,,,,,,,,,,,,,,,,,,,,,,,,,,,,,,,,,,,,,,,,,5.80000000000000E+01,5.00000000000000E+01,5.00000000000000E+01,5.00000000000000E+01,3.90000000000000E+01,3.80000000000000E+01,3.80000000000000E+01,3.50000000000000E+01,3.50000000000000E+01
LMC,,,,,,,,,,,,,,,,,,,,,,,,,,,,,,,,,,,,,,,,,,,,5.83695652173913E+01,5.73469387755102E+01,5.38490566037736E+01,5.02452830188679E+01,4.63584905660377E+01,4.13333333333333E+01,3.95000000000000E+01,3.83703703703704E+01,3.36481481481481E+01
LMY,,,,,,,,,,,,,,,,,,,,,,,,,,,,,,,,,,,,,,,,,,,,5.78571428571429E+01,5.54913793103448E+01,5.68571428571429E+01,5.30740740740741E+01,4.95629629629630E+01,4.53308823529412E+01,4.20808823529412E+01,3.97573529411765E+01,3.52426470588235E+01
LSO,,,,,,,,,,,,,,,,,,,,,,,,,,,,,,,,,,,,,,,,,,,,9.30000000000000E+01,9.30000000000000E+01,9.30000000000000E+01,7.30000000000000E+01,7.30000000000000E+01,4.00000000000000E+01,4.00000000000000E+01,4.00000000000000E+01,4.00000000000000E+01
LTU,,,,,,,,,,,,,,,,,,,,,,,,,,,,,,,,,,,,,,,,,,,,2.60000000000000E+01,2.60000000000000E+01,2.60000000000000E+01,2.60000000000000E+01,2.60000000000000E+01,2.60000000000000E+01,2.60000000000000E+01,2.20000000000000E+01,2.20000000000000E+01
LUX,,,,,,,,,,,,,,,,,,,,,,,,,,,,,,,,,,,,,,,,,,,,,,,2.60000000000000E+01,2.60000000000000E+01,2.60000000000000E+01,2.40000000000000E+01,1.90000000000000E+01,1.90000000000000E+01
LVA,,,,,,,,,,,,,,,,,,,,,,,,,,,,,,,,,,,,,,,,,,,,1.60000000000000E+01,1.60000000000000E+01,1.60000000000000E+01,1.60000000000000E+01,1.60000000000000E+01,1.60000000000000E+01,1.60000000000000E+01,1.60000000000000E+01,1.60000000000000E+01
MAR,,,,,,,,,,,,,,,,,,,,,,,,,,,,,,,,,,,,,,,,,,,,3.60000000000000E+01,1.20000000000000E+01,1.20000000000000E+01,1.20000000000000E+01,1.20000000000000E+01,1.20000000000000E+01,1.20000000000000E+01,1.20000000000000E+01,1.20000000000000E+01
MDA,,,,,,,,,,,,,,,,,,,,,,,,,,,,,,,,,,,,,,,,,,,,4.20000000000000E+01,3.00000000000000E+01,3.00000000000000E+01,3.00000000000000E+01,2.30000000000000E+01,1.50000000000000E+01,1.00000000000000E+01,1.00000000000000E+01,9.00000000000000E+00
MDG,,,,,,,,,,,,,,,,,,,,,,,,,,,,,,,,,,,,,,,,,,,,6.70000000000000E+01,4.40000000000000E+01,3.80000000000000E+01,2.10000000000000E+01,7.00000000000000E+00,7.00000000000000E+00,7.00000000000000E+00,7.00000000000000E+00,8.00000000000000E+00
MDV,,,,,,,,,,,,,,,,,,,,,,,,,,,,,,,,,,,,,,,,,,,,1.30000000000000E+01,9.00000000000000E+00,9.00000000000000E+00,9.00000000000000E+00,9.00000000000000E+00,9.00000000000000E+00,9.00000000000000E+00,9.00000000000000E+00,9.00000000000000E+00
MEA,,,,,,,,,,,,,,,,,,,,,,,,,,,,,,,,,,,,,,,,,,,,4.52000000000000E+01,4.18125000000000E+01,3.88235294117647E+01,3.54444444444444E+01,3.20526315789474E+01,2.25263157894737E+01,2.06315789473684E+01,2.07894736842105E+01,2.02631578947368E+01
MEX,,,,,,,,,,,,,,,,,,,,,,,,,,,,,,,,,,,,,,,,,,,,5.80000000000000E+01,5.80000000000000E+01,5.80000000000000E+01,2.70000000000000E+01,2.70000000000000E+01,2.80000000000000E+01,1.30000000000000E+01,9.00000000000000E+00,9.00000000000000E+00
MHL,,,,,,,,,,,,,,,,,,,,,,,,,,,,,,,,,,,,,,,,,,,,1.70000000000000E+01,1.70000000000000E+01,1.70000000000000E+01,1.70000000000000E+01,1.70000000000000E+01,1.70000000000000E+01,1.70000000000000E+01,1.70000000000000E+01,1.70000000000000E+01
MIC,,,,,,,,,,,,,,,,,,,,,,,,,,,,,,,,,,,,,,,,,,,,5.64767441860465E+01,5.43932584269663E+01,5.56764705882353E+01,5.15825242718447E+01,4.82038834951456E+01,4.35865384615385E+01,4.06538461538462E+01,3.94519230769231E+01,3.59326923076923E+01
MKD,,,,,,,,,,,,,,,,,,,,,,,,,,,,,,,,,,,,,,,,,,,,4.80000000000000E+01,4.80000000000000E+01,4.80000000000000E+01,1.80000000000000E+01,1.50000000000000E+01,9.00000000000000E+00,4.00000000000000E+00,3.00000000000000E+00,3.00000000000000E+00
MLI,,,,,,,,,,,,,,,,,,,,,,,,,,,,,,,,,,,,,,,,,,,,4.10000000000000E+01,4.10000000000000E+01,4.10000000000000E+01,4.10000000000000E+01,2.50000000000000E+01,2.50000000000000E+01,8.00000000000000E+00,8.00000000000000E+00,8.00000000000000E+00
MNA,,,,,,,,,,,,,,,,,,,,,,,,,,,,,,,,,,,,,,,,,,,,4.84000000000000E+01,4.31818181818182E+01,3.94166666666667E+01,3.91666666666667E+01,3.80000000000000E+01,2.49166666666667E+01,2.29166666666667E+01,2.26666666666667E+01,2.26666666666667E+01
MNE,,,,,,,,,,,,,,,,,,,,,,,,,,,,,,,,,,,,,,,,,,,,,,,2.40000000000000E+01,2.40000000000000E+01,2.10000000000000E+01,1.20000000000000E+01,1.00000000000000E+01,1.00000000000000E+01
MNG,,,,,,,,,,,,,,,,,,,,,,,,,,,,,,,,,,,,,,,,,,,,2.00000000000000E+01,1.30000000000000E+01,1.30000000000000E+01,1.30000000000000E+01,1.30000000000000E+01,1.30000000000000E+01,1.30000000000000E+01,1.30000000000000E+01,1.30000000000000E+01
MOZ,,,,,,,,,,,,,,,,,,,,,,,,,,,,,,,,,,,,,,,,,,,,1.53000000000000E+02,1.53000000000000E+02,1.53000000000000E+02,1.13000000000000E+02,2.90000000000000E+01,2.60000000000000E+01,2.60000000000000E+01,1.30000000000000E+01,1.30000000000000E+01
MRT,,,,,,,,,,,,,,,,,,,,,,,,,,,,,,,,,,,,,,,,,,,,8.20000000000000E+01,8.20000000000000E+01,8.20000000000000E+01,8.20000000000000E+01,6.50000000000000E+01,1.90000000000000E+01,1.90000000000000E+01,1.90000000000000E+01,1.90000000000000E+01
MUS,,,,,,,,,,,,,,,,,,,,,,,,,,,,,,,,,,,,,,,,,,,,4.60000000000000E+01,4.60000000000000E+01,4.60000000000000E+01,4.60000000000000E+01,7.00000000000000E+00,6.00000000000000E+00,6.00000000000000E+00,6.00000000000000E+00,6.00000000000000E+00
MWI,,,,,,,,,,,,,,,,,,,,,,,,,,,,,,,,,,,,,,,,,,,,4.50000000000000E+01,3.90000000000000E+01,3.90000000000000E+01,3.90000000000000E+01,3.90000000000000E+01,3.90000000000000E+01,3.90000000000000E+01,3.90000000000000E+01,3.90000000000000E+01
MYS,,,,,,,,,,,,,,,,,,,,,,,,,,,,,,,,,,,,,,,,,,,,3.70000000000000E+01,3.70000000000000E+01,3.70000000000000E+01,3.70000000000000E+01,3.10000000000000E+01,2.00000000000000E+01,1.80000000000000E+01,1.70000000000000E+01,6.00000000000000E+00
NAC,,,,,,,,,,,,,,,,,,,,,,,,,,,,,,,,,,,,,,,,,,,,4.50000000000000E+00,4.50000000000000E+00,4.50000000000000E+00,4.50000000000000E+00,4.50000000000000E+00,5.50000000000000E+00,5.50000000000000E+00,5.50000000000000E+00,5.50000000000000E+00
NAM,,,,,,,,,,,,,,,,,,,,,,,,,,,,,,,,,,,,,,,,,,,,8.50000000000000E+01,8.50000000000000E+01,9.50000000000000E+01,9.50000000000000E+01,9.90000000000000E+01,6.60000000000000E+01,6.60000000000000E+01,6.60000000000000E+01,6.60000000000000E+01
NER,,,,,,,,,,,,,,,,,,,,,,,,,,,,,,,,,,,,,,,,,,,,3.50000000000000E+01,3.50000000000000E+01,3.50000000000000E+01,2.40000000000000E+01,2.30000000000000E+01,1.90000000000000E+01,1.70000000000000E+01,1.70000000000000E+01,1.70000000000000E+01
NGA,,,,,,,,,,,,,,,,,,,,,,,,,,,,,,,,,,,,,,,,,,,,4.40000000000000E+01,4.40000000000000E+01,4.30000000000000E+01,4.30000000000000E+01,3.40000000000000E+01,3.10000000000000E+01,3.10000000000000E+01,3.10000000000000E+01,3.40000000000000E+01
NIC,,,,,,,,,,,,,,,,,,,,,,,,,,,,,,,,,,,,,,,,,,,,4.60000000000000E+01,3.90000000000000E+01,3.90000000000000E+01,3.90000000000000E+01,3.90000000000000E+01,3.90000000000000E+01,3.90000000000000E+01,3.90000000000000E+01,3.90000000000000E+01
NLD,,,,,,,,,,,,,,,,,,,,,,,,,,,,,,,,,,,,,,,,,,,,9.00000000000000E+00,9.00000000000000E+00,9.00000000000000E+00,8.00000000000000E+00,8.00000000000000E+00,8.00000000000000E+00,8.00000000000000E+00,8.00000000000000E+00,8.00000000000000E+00
NOC,,,,,,,,,,,,,,,,,,,,,,,,,,,,,,,,,,,,,,,,,,,,2.92222222222222E+01,2.92222222222222E+01,3.94545454545455E+01,4.05384615384615E+01,3.59333333333333E+01,3.22500000000000E+01,2.99375000000000E+01,2.81875000000000E+01,2.67500000000000E+01
NOR,,,,,,,,,,,,,,,,,,,,,,,,,,,,,,,,,,,,,,,,,,,,1.80000000000000E+01,1.80000000000000E+01,8.00000000000000E+00,7.00000000000000E+00,7.00000000000000E+00,7.00000000000000E+00,7.00000000000000E+00,7.00000000000000E+00,7.00000000000000E+00
NPL,,,,,,,,,,,,,,,,,,,,,,,,,,,,,,,,,,,,,,,,,,,,3.10000000000000E+01,3.10000000000000E+01,3.10000000000000E+01,3.10000000000000E+01,3.10000000000000E+01,3.10000000000000E+01,3.10000000000000E+01,3.10000000000000E+01,2.90000000000000E+01
NZL,,,,,,,,,,,,,,,,,,,,,,,,,,,,,,,,,,,,,,,,,,,,1.20000000000000E+01,1.20000000000000E+01,1.20000000000000E+01,1.20000000000000E+01,1.20000000000000E+01,1.00000000000000E+00,1.00000000000000E+00,1.00000000000000E+00,1.00000000000000E+00
OEC,,,,,,,,,,,,,,,,,,,,,,,,,,,,,,,,,,,,,,,,,,,,3.40666666666667E+01,2.95333333333333E+01,2.29000000000000E+01,2.02903225806452E+01,1.74838709677419E+01,1.45806451612903E+01,1.40000000000000E+01,1.36129032258065E+01,1.24516129032258E+01
OED,,,,,,,,,,,,,,,,,,,,,,,,,,,,,,,,,,,,,,,,,,,,3.46969696969697E+01,2.96060606060606E+01,2.35757575757576E+01,2.02647058823529E+01,1.77058823529412E+01,1.50882352941176E+01,1.41176470588235E+01,1.35000000000000E+01,1.20000000000000E+01
OMN,,,,,,,,,,,,,,,,,,,,,,,,,,,,,,,,,,,,,,,,,,,,3.50000000000000E+01,3.50000000000000E+01,3.50000000000000E+01,3.50000000000000E+01,3.50000000000000E+01,1.40000000000000E+01,1.20000000000000E+01,1.20000000000000E+01,8.00000000000000E+00
PAK,,,,,,,,,,,,,,,,,,,,,,,,,,,,,,,,,,,,,,,,,,,,2.40000000000000E+01,2.40000000000000E+01,2.40000000000000E+01,2.40000000000000E+01,2.40000000000000E+01,2.40000000000000E+01,2.10000000000000E+01,2.10000000000000E+01,2.10000000000000E+01
PAN,,,,,,,,,,,,,,,,,,,,,,,,,,,,,,,,,,,,,,,,,,,,1.80000000000000E+01,1.80000000000000E+01,1.80000000000000E+01,1.80000000000000E+01,1.80000000000000E+01,1.20000000000000E+01,1.20000000000000E+01,9.00000000000000E+00,8.00000000000000E+00
PER,,,,,,,,,,,,,,,,,,,,,,,,,,,,,,,,,,,,,,,,,,,,9.80000000000000E+01,9.80000000000000E+01,1.02000000000000E+02,7.20000000000000E+01,7.20000000000000E+01,6.50000000000000E+01,4.10000000000000E+01,2.70000000000000E+01,2.60000000000000E+01
PHL,,,,,,,,,,,,,,,,,,,,,,,,,,,,,,,,,,,,,,,,,,,,4.90000000000000E+01,4.90000000000000E+01,4.70000000000000E+01,4.70000000000000E+01,4.70000000000000E+01,4.10000000000000E+01,4.10000000000000E+01,3.60000000000000E+01,3.50000000000000E+01
PLW,,,,,,,,,,,,,,,,,,,,,,,,,,,,,,,,,,,,,,,,,,,,2.40000000000000E+01,2.40000000000000E+01,2.40000000000000E+01,2.80000000000000E+01,2.80000000000000E+01,2.80000000000000E+01,2.80000000000000E+01,2.80000000000000E+01,2.80000000000000E+01
PNG,,,,,,,,,,,,,,,,,,,,,,,,,,,,,,,,,,,,,,,,,,,,5.10000000000000E+01,5.10000000000000E+01,5.10000000000000E+01,5.10000000000000E+01,5.10000000000000E+01,5.10000000000000E+01,5.10000000000000E+01,5.10000000000000E+01,5.10000000000000E+01
POL,,,,,,,,,,,,,,,,,,,,,,,,,,,,,,,,,,,,,,,,,,,,3.10000000000000E+01,3.10000000000000E+01,3.10000000000000E+01,3.10000000000000E+01,3.10000000000000E+01,3.10000000000000E+01,3.20000000000000E+01,3.20000000000000E+01,3.20000000000000E+01
PRI,,,,,,,,,,,,,,,,,,,,,,,,,,,,,,,,,,,,,,,,,,,,7.00000000000000E+00,7.00000000000000E+00,7.00000000000000E+00,7.00000000000000E+00,7.00000000000000E+00,7.00000000000000E+00,7.00000000000000E+00,7.00000000000000E+00,6.00000000000000E+00
PRT,,,,,,,,,,,,,,,,,,,,,,,,,,,,,,,,,,,,,,,,,,,,7.80000000000000E+01,7.80000000000000E+01,5.40000000000000E+01,8.00000000000000E+00,7.00000000000000E+00,6.00000000000000E+00,6.00000000000000E+00,6.00000000000000E+00,5.00000000000000E+00
PRY,,,,,,,,,,,,,,,,,,,,,,,,,,,,,,,,,,,,,,,,,,,,7.40000000000000E+01,7.40000000000000E+01,7.40000000000000E+01,7.40000000000000E+01,3.50000000000000E+01,3.50000000000000E+01,3.50000000000000E+01,3.50000000000000E+01,3.50000000000000E+01
QAT,,,,,,,,,,,,,,,,,,,,,,,,,,,,,,,,,,,,,,,,,,,,,,,6.00000000000000E+00,7.00000000000000E+00,7.00000000000000E+00,7.00000000000000E+00,1.30000000000000E+01,1.20000000000000E+01
ROM,,,,,,,,,,,,,,,,,,,,,,,,,,,,,,,,,,,,,,,,,,,,2.90000000000000E+01,2.80000000000000E+01,1.10000000000000E+01,1.10000000000000E+01,9.00000000000000E+00,9.00000000000000E+00,9.00000000000000E+00,9.00000000000000E+00,1.40000000000000E+01
RUS,,,,,,,,,,,,,,,,,,,,,,,,,,,,,,,,,,,,,,,,,,,,4.40000000000000E+01,3.60000000000000E+01,3.10000000000000E+01,3.00000000000000E+01,3.00000000000000E+01,3.00000000000000E+01,3.00000000000000E+01,3.00000000000000E+01,3.00000000000000E+01
RWA,,,,,,,,,,,,,,,,,,,,,,,,,,,,,,,,,,,,,,,,,,,,1.80000000000000E+01,1.80000000000000E+01,1.80000000000000E+01,1.60000000000000E+01,1.60000000000000E+01,1.40000000000000E+01,3.00000000000000E+00,3.00000000000000E+00,3.00000000000000E+00
SAS,,,,,,,,,,,,,,,,,,,,,,,,,,,,,,,,,,,,,,,,,,,,4.67142857142857E+01,5.06250000000000E+01,3.82500000000000E+01,3.37500000000000E+01,3.33750000000000E+01,3.25000000000000E+01,2.82500000000000E+01,2.46250000000000E+01,2.31250000000000E+01
SAU,,,,,,,,,,,,,,,,,,,,,,,,,,,,,,,,,,,,,,,,,,,,7.10000000000000E+01,7.10000000000000E+01,6.40000000000000E+01,3.90000000000000E+01,1.50000000000000E+01,1.20000000000000E+01,5.00000000000000E+00,5.00000000000000E+00,5.00000000000000E+00
SDN,,,,,,,,,,,,,,,,,,,,,,,,,,,,,,,,,,,,,,,,,,,,,3.90000000000000E+01,3.90000000000000E+01,3.90000000000000E+01,3.90000000000000E+01,3.90000000000000E+01,3.60000000000000E+01,3.60000000000000E+01,3.60000000000000E+01
SEN,,,,,,,,,,,,,,,,,,,,,,,,,,,,,,,,,,,,,,,,,,,,5.80000000000000E+01,5.80000000000000E+01,5.80000000000000E+01,5.80000000000000E+01,5.80000000000000E+01,8.00000000000000E+00,8.00000000000000E+00,8.00000000000000E+00,5.00000000000000E+00
SGP,,,,,,,,,,,,,,,,,,,,,,,,,,,,,,,,,,,,,,,,,,,,8.00000000000000E+00,8.00000000000000E+00,6.00000000000000E+00,6.00000000000000E+00,5.00000000000000E+00,4.00000000000000E+00,3.00000000000000E+00,3.00000000000000E+00,3.00000000000000E+00
SLB,,,,,,,,,,,,,,,,,,,,,,,,,,,,,,,,,,,,,,,,,,,,5.70000000000000E+01,5.70000000000000E+01,5.70000000000000E+01,5.70000000000000E+01,5.70000000000000E+01,5.70000000000000E+01,5.70000000000000E+01,5.70000000000000E+01,4.30000000000000E+01
SLE,,,,,,,,,,,,,,,,,,,,,,,,,,,,,,,,,,,,,,,,,,,,2.60000000000000E+01,2.60000000000000E+01,2.60000000000000E+01,2.60000000000000E+01,2.60000000000000E+01,1.70000000000000E+01,1.20000000000000E+01,1.20000000000000E+01,1.20000000000000E+01
SLV,,,,,,,,,,,,,,,,,,,,,,,,,,,,,,,,,,,,,,,,,,,,1.15000000000000E+02,1.15000000000000E+02,4.00000000000000E+01,2.60000000000000E+01,2.60000000000000E+01,1.70000000000000E+01,1.70000000000000E+01,1.70000000000000E+01,1.70000000000000E+01
SRB,,,,,,,,,,,,,,,,,,,,,,,,,,,,,,,,,,,,,,,,,,,,5.60000000000000E+01,5.60000000000000E+01,2.30000000000000E+01,2.30000000000000E+01,2.30000000000000E+01,2.30000000000000E+01,1.30000000000000E+01,1.30000000000000E+01,1.30000000000000E+01
SSA,,,,,,,,,,,,,,,,,,,,,,,,,,,,,,,,,,,,,,,,,,,,6.36388888888889E+01,5.97027027027027E+01,6.03409090909091E+01,5.78666666666667E+01,5.31111111111111E+01,4.80222222222222E+01,4.51333333333333E+01,4.29777777777778E+01,3.42666666666667E+01
SSF,,,,,,,,,,,,,,,,,,,,,,,,,,,,,,,,,,,,,,,,,,,,6.36388888888889E+01,5.97027027027027E+01,6.20444444444444E+01,5.95869565217391E+01,5.49347826086956E+01,4.99565217391304E+01,4.71304347826087E+01,4.50217391304348E+01,3.65000000000000E+01
STP,,,,,,,,,,,,,,,,,,,,,,,,,,,,,,,,,,,,,,,,,,,,1.92000000000000E+02,1.92000000000000E+02,1.44000000000000E+02,1.44000000000000E+02,1.44000000000000E+02,1.44000000000000E+02,1.44000000000000E+02,1.44000000000000E+02,1.00000000000000E+01
SUR,,,,,,,,,,,,,,,,,,,,,,,,,,,,,,,,,,,,,,,,,,,,,,6.94000000000000E+02,6.94000000000000E+02,6.94000000000000E+02,6.94000000000000E+02,6.94000000000000E+02,6.94000000000000E+02,6.94000000000000E+02
SVK,,,,,,,,,,,,,,,,,,,,,,,,,,,,,,,,,,,,,,,,,,,,1.03000000000000E+02,5.20000000000000E+01,2.70000000000000E+01,2.70000000000000E+01,2.70000000000000E+01,1.80000000000000E+01,1.80000000000000E+01,1.80000000000000E+01,1.80000000000000E+01
SVN,,,,,,,,,,,,,,,,,,,,,,,,,,,,,,,,,,,,,,,,,,,,6.00000000000000E+01,6.00000000000000E+01,6.00000000000000E+01,6.00000000000000E+01,6.00000000000000E+01,1.90000000000000E+01,6.00000000000000E+00,6.00000000000000E+00,6.00000000000000E+00
SWE,,,,,,,,,,,,,,,,,,,,,,,,,,,,,,,,,,,,,,,,,,,,1.50000000000000E+01,1.50000000000000E+01,1.50000000000000E+01,1.50000000000000E+01,1.50000000000000E+01,1.50000000000000E+01,1.50000000000000E+01,1.50000000000000E+01,1.50000000000000E+01
SWZ,,,,,,,,,,,,,,,,,,,,,,,,,,,,,,,,,,,,,,,,,,,,,,6.00000000000000E+01,6.00000000000000E+01,6.00000000000000E+01,6.00000000000000E+01,6.00000000000000E+01,5.60000000000000E+01,5.60000000000000E+01
SYC,,,,,,,,,,,,,,,,,,,,,,,,,,,,,,,,,,,,,,,,,,,,,,3.90000000000000E+01,3.90000000000000E+01,3.90000000000000E+01,3.90000000000000E+01,3.90000000000000E+01,3.90000000000000E+01,3.90000000000000E+01
SYR,,,,,,,,,,,,,,,,,,,,,,,,,,,,,,,,,,,,,,,,,,,,4.30000000000000E+01,4.30000000000000E+01,4.30000000000000E+01,4.30000000000000E+01,4.30000000000000E+01,1.60000000000000E+01,1.50000000000000E+01,1.30000000000000E+01,1.30000000000000E+01
TCD,,,,,,,,,,,,,,,,,,,,,,,,,,,,,,,,,,,,,,,,,,,,7.50000000000000E+01,7.50000000000000E+01,7.50000000000000E+01,7.50000000000000E+01,7.50000000000000E+01,7.50000000000000E+01,7.50000000000000E+01,7.50000000000000E+01,6.60000000000000E+01
TGO,,,,,,,,,,,,,,,,,,,,,,,,,,,,,,,,,,,,,,,,,,,,6.50000000000000E+01,6.50000000000000E+01,6.50000000000000E+01,6.50000000000000E+01,6.20000000000000E+01,6.20000000000000E+01,8.40000000000000E+01,8.40000000000000E+01,8.40000000000000E+01
THA,,,,,,,,,,,,,,,,,,,,,,,,,,,,,,,,,,,,,,,,,,,,3.30000000000000E+01,3.30000000000000E+01,3.30000000000000E+01,3.30000000000000E+01,3.30000000000000E+01,3.30000000000000E+01,3.20000000000000E+01,3.20000000000000E+01,2.90000000000000E+01
TJK,,,,,,,,,,,,,,,,,,,,,,,,,,,,,,,,,,,,,,,,,,,,,,8.00000000000000E+01,8.00000000000000E+01,6.20000000000000E+01,6.20000000000000E+01,3.80000000000000E+01,2.70000000000000E+01,2.40000000000000E+01
TMP,,,,,,,,,,,,,,,,,,,,,,,,,,,,,,,,,,,,,,,,,,,,,9.20000000000000E+01,1.57000000000000E+02,1.57000000000000E+02,1.47000000000000E+02,1.47000000000000E+02,1.47000000000000E+02,1.47000000000000E+02,1.03000000000000E+02
TON,,,,,,,,,,,,,,,,,,,,,,,,,,,,,,,,,,,,,,,,,,,,3.20000000000000E+01,3.20000000000000E+01,3.20000000000000E+01,3.20000000000000E+01,3.20000000000000E+01,2.50000000000000E+01,2.50000000000000E+01,2.50000000000000E+01,1.60000000000000E+01
TTO,,,,,,,,,,,,,,,,,,,,,,,,,,,,,,,,,,,,,,,,,,,,,,4.30000000000000E+01,4.30000000000000E+01,4.30000000000000E+01,4.30000000000000E+01,4.30000000000000E+01,4.30000000000000E+01,4.30000000000000E+01
TUN,,,,,,,,,,,,,,,,,,,,,,,,,,,,,,,,,,,,,,,,,,,,1.10000000000000E+01,1.10000000000000E+01,1.10000000000000E+01,1.10000000000000E+01,1.10000000000000E+01,1.10000000000000E+01,1.10000000000000E+01,1.10000000000000E+01,1.10000000000000E+01
TUR,,,,,,,,,,,,,,,,,,,,,,,,,,,,,,,,,,,,,,,,,,,,3.80000000000000E+01,6.00000000000000E+00,6.00000000000000E+00,6.00000000000000E+00,6.00000000000000E+00,6.00000000000000E+00,6.00000000000000E+00,6.00000000000000E+00,6.00000000000000E+00
TZA,,,,,,,,,,,,,,,,,,,,,,,,,,,,,,,,,,,,,,,,,,,,3.10000000000000E+01,3.10000000000000E+01,3.10000000000000E+01,3.00000000000000E+01,2.90000000000000E+01,2.90000000000000E+01,2.90000000000000E+01,2.90000000000000E+01,2.90000000000000E+01
UGA,,,,,,,,,,,,,,,,,,,,,,,,,,,,,,,,,,,,,,,,,,,,3.40000000000000E+01,3.40000000000000E+01,3.40000000000000E+01,2.80000000000000E+01,2.80000000000000E+01,2.50000000000000E+01,2.50000000000000E+01,2.50000000000000E+01,3.40000000000000E+01
UKR,,,,,,,,,,,,,,,,,,,,,,,,,,,,,,,,,,,,,,,,,,,,4.00000000000000E+01,3.40000000000000E+01,3.40000000000000E+01,3.30000000000000E+01,2.70000000000000E+01,2.70000000000000E+01,2.70000000000000E+01,2.70000000000000E+01,2.40000000000000E+01
UMC,,,,,,,,,,,,,,,,,,,,,,,,,,,,,,,,,,,,,,,,,,,,5.43000000000000E+01,5.07750000000000E+01,5.76530612244898E+01,5.30000000000000E+01,5.01600000000000E+01,4.60200000000000E+01,4.19000000000000E+01,4.06200000000000E+01,3.84000000000000E+01
URY,,,,,,,,,,,,,,,,,,,,,,,,,,,,,,,,,,,,,,,,,,,,4.50000000000000E+01,4.50000000000000E+01,4.50000000000000E+01,4.30000000000000E+01,4.40000000000000E+01,4.40000000000000E+01,6.50000000000000E+01,6.50000000000000E+01,7.00000000000000E+00
USA,,,,,,,,,,,,,,,,,,,,,,,,,,,,,,,,,,,,,,,,,,,,6.00000000000000E+00,6.00000000000000E+00,6.00000000000000E+00,6.00000000000000E+00,6.00000000000000E+00,6.00000000000000E+00,6.00000000000000E+00,6.00000000000000E+00,6.00000000000000E+00
UZB,,,,,,,,,,,,,,,,,,,,,,,,,,,,,,,,,,,,,,,,,,,,2.90000000000000E+01,2.90000000000000E+01,2.90000000000000E+01,2.90000000000000E+01,1.50000000000000E+01,1.50000000000000E+01,1.50000000000000E+01,1.50000000000000E+01,1.40000000000000E+01
VCT,,,,,,,,,,,,,,,,,,,,,,,,,,,,,,,,,,,,,,,,,,,,,,1.20000000000000E+01,1.20000000000000E+01,1.20000000000000E+01,1.20000000000000E+01,1.10000000000000E+01,1.00000000000000E+01,1.00000000000000E+01
VEN,,,,,,,,,,,,,,,,,,,,,,,,,,,,,,,,,,,,,,,,,,,,1.41000000000000E+02,1.41000000000000E+02,1.41000000000000E+02,1.41000000000000E+02,1.41000000000000E+02,1.41000000000000E+02,1.41000000000000E+02,1.41000000000000E+02,1.41000000000000E+02
VNM,,,,,,,,,,,,,,,,,,,,,,,,,,,,,,,,,,,,,,,,,,,,6.30000000000000E+01,5.60000000000000E+01,5.00000000000000E+01,5.00000000000000E+01,5.00000000000000E+01,5.00000000000000E+01,5.00000000000000E+01,4.40000000000000E+01,4.40000000000000E+01
VUT,,,,,,,,,,,,,,,,,,,,,,,,,,,,,,,,,,,,,,,,,,,,3.90000000000000E+01,4.70000000000000E+01,4.70000000000000E+01,4.70000000000000E+01,4.70000000000000E+01,4.70000000000000E+01,4.70000000000000E+01,4.70000000000000E+01,3.50000000000000E+01
WBG,,,,,,,,,,,,,,,,,,,,,,,,,,,,,,,,,,,,,,,,,,,,1.06000000000000E+02,1.06000000000000E+02,9.30000000000000E+01,9.30000000000000E+01,9.20000000000000E+01,4.90000000000000E+01,4.90000000000000E+01,4.90000000000000E+01,4.90000000000000E+01
WLD,,,,,,,,,,,,,,,,,,,,,,,,,,,,,,,,,,,,,,,,,,,,5.14238410596027E+01,4.89419354838710E+01,4.99022988505747E+01,4.64860335195531E+01,4.29392265193370E+01,3.89781420765027E+01,3.62622950819672E+01,3.43169398907104E+01,3.06393442622951E+01
WSM,,,,,,,,,,,,,,,,,,,,,,,,,,,,,,,,,,,,,,,,,,,,4.20000000000000E+01,4.20000000000000E+01,3.50000000000000E+01,3.50000000000000E+01,3.50000000000000E+01,3.50000000000000E+01,9.00000000000000E+00,9.00000000000000E+00,9.00000000000000E+00
YEM,,,,,,,,,,,,,,,,,,,,,,,,,,,,,,,,,,,,,,,,,,,,7.20000000000000E+01,6.30000000000000E+01,6.30000000000000E+01,6.30000000000000E+01,6.30000000000000E+01,1.30000000000000E+01,1.20000000000000E+01,1.20000000000000E+01,1.20000000000000E+01
ZAF,,,,,,,,,,,,,,,,,,,,,,,,,,,,,,,,,,,,,,,,,,,,3.80000000000000E+01,3.80000000000000E+01,3.50000000000000E+01,3.50000000000000E+01,3.10000000000000E+01,2.20000000000000E+01,2.20000000000000E+01,2.20000000000000E+01,1.90000000000000E+01
ZAR,,,,,,,,,,,,,,,,,,,,,,,,,,,,,,,,,,,,,,,,,,,,1.66000000000000E+02,1.33000000000000E+02,1.33000000000000E+02,1.33000000000000E+02,1.33000000000000E+02,1.33000000000000E+02,1.27000000000000E+02,8.40000000000000E+01,6.50000000000000E+01
ZMB,,,,,,,,,,,,,,,,,,,,,,,,,,,,,,,,,,,,,,,,,,,,3.50000000000000E+01,3.50000000000000E+01,3.50000000000000E+01,3.50000000000000E+01,3.30000000000000E+01,1.80000000000000E+01,1.80000000000000E+01,1.80000000000000E+01,1.80000000000000E+01
ZWE,,,,,,,,,,,,,,,,,,,,,,,,,,,,,,,,,,,,,,,,,,,,9.70000000000000E+01,9.70000000000000E+01,9.70000000000000E+01,9.70000000000000E+01,9.70000000000000E+01,9.70000000000000E+01,9.70000000000000E+01,9.00000000000000E+01,9.00000000000000E+01
