"Country Code",1960,1961,1962,1963,1964,1965,1966,1967,1968,1969,1970,1971,1972,1973,1974,1975,1976,1977,1978,1979,1980,1981,1982,1983,1984,1985,1986,1987,1988,1989,1990,1991,1992,1993,1994,1995,1996,1997,1998,1999,2000,2001,2002,2003,2004,2005,2006,2007,2008,2009,2010,2011ADO,,,,,,,,,,,,,,,,,,,,,,,,,,,,,,,,,,,2.00000000000000E+00,2.00000000000000E+00,3.00000000000000E+00,1.00000000000000E+00,2.00000000000000E+00,1.00000000000000E+00,2.00000000000000E+00,1.00000000000000E+00,1.00000000000000E+01,1.00000000000000E+01,3.00000000000000E+00,9.00000000000000E+00,1.00000000000000E+01,9.00000000000000E+00,6.00000000000000E+00,6.00000000000000E+00,6.00000000000000E+00,
AFG,,,,,,,,,,,,,,,,,,,,,,,,,,,,,,,6.33909500000000E+06,6.30630100000000E+06,4.55215300000000E+06,3.37457600000000E+06,2.73116900000000E+06,2.67913300000000E+06,2.67423600000000E+06,2.67667400000000E+06,2.66711500000000E+06,2.56824300000000E+06,3.58733600000000E+06,3.80976700000000E+06,2.51028500000000E+06,2.13604300000000E+06,2.41447600000000E+06,2.16614900000000E+06,2.10751900000000E+06,3.05569800000000E+06,2.83312800000000E+06,2.88712300000000E+06,3.05470900000000E+06,
AGO,,,,,,,,,,,,,,,,,,,,,,,,,,,,,,,4.07760000000000E+05,3.81636000000000E+05,3.00492000000000E+05,3.23831000000000E+05,2.82577000000000E+05,2.46657000000000E+05,2.49687000000000E+05,2.67696000000000E+05,3.19430000000000E+05,3.50645000000000E+05,4.33760000000000E+05,4.70625000000000E+05,4.35421000000000E+05,3.29583000000000E+05,2.28858000000000E+05,2.15827000000000E+05,2.06501000000000E+05,1.86155000000000E+05,1.71393000000000E+05,1.41021000000000E+05,1.34858000000000E+05,
ALB,,,,,,,,,,,,,,,,,,,,,,,,,,,,,,,1.82200000000000E+03,3.54000000000000E+03,4.35300000000000E+03,4.74400000000000E+03,5.01900000000000E+03,5.80300000000000E+03,5.78500000000000E+03,5.37900000000000E+03,5.35300000000000E+03,4.32500000000000E+03,6.80200000000000E+03,7.62600000000000E+03,1.07610000000000E+04,1.03850000000000E+04,1.04780000000000E+04,1.27220000000000E+04,1.40790000000000E+04,1.53400000000000E+04,1.50060000000000E+04,1.57110000000000E+04,1.47720000000000E+04,
ARB,,,,,,,,,,,,,,,,,,,,,,,,,,,,,,,2.21249800000000E+06,2.40868000000000E+06,2.61488500000000E+06,1.90659900000000E+06,2.00178400000000E+06,2.00505600000000E+06,2.03556400000000E+06,1.86433600000000E+06,1.80613500000000E+06,1.71567000000000E+06,1.67273600000000E+06,1.87300900000000E+06,1.89557300000000E+06,1.83111500000000E+06,1.88061400000000E+06,1.79779300000000E+06,3.02389400000000E+06,3.72282400000000E+06,3.32824700000000E+06,3.02930600000000E+06,3.03437200000000E+06,
ARE,,,,,,,,,,,,,,,,,,,,,,,,,,,,,,,,,,,,,,4.00000000000000E+00,7.00000000000000E+00,1.00000000000000E+01,1.60000000000000E+01,1.80000000000000E+01,3.10000000000000E+01,2.00000000000000E+01,7.10000000000000E+01,3.00000000000000E+01,2.65000000000000E+02,3.08000000000000E+02,2.56000000000000E+02,4.14000000000000E+02,4.24000000000000E+02,
ARG,,,,,,,,,,,,,,,,,,,,,,,,,,,,,,,3.34000000000000E+02,1.98000000000000E+02,1.13000000000000E+02,9.80000000000000E+01,4.69000000000000E+02,3.30000000000000E+02,2.17000000000000E+02,1.59000000000000E+02,1.42000000000000E+02,4.72000000000000E+02,6.09000000000000E+02,6.59000000000000E+02,7.71000000000000E+02,7.84000000000000E+02,7.96000000000000E+02,8.56000000000000E+02,8.94000000000000E+02,1.17100000000000E+03,1.04700000000000E+03,6.08000000000000E+02,5.57000000000000E+02,
ARM,,,,,,,,,,,,,,,,,,,,,,,,,,,,,,,1.00000000000000E+00,1.00000000000000E+00,1.95003000000000E+05,2.00116000000000E+05,2.01842000000000E+05,2.01442000000000E+05,2.03231000000000E+05,2.03690000000000E+05,1.93150000000000E+05,1.92230000000000E+05,5.78600000000000E+03,7.20600000000000E+03,1.32460000000000E+04,1.31620000000000E+04,1.34110000000000E+04,1.39650000000000E+04,1.49170000000000E+04,1.54360000000000E+04,1.63360000000000E+04,1.80000000000000E+04,1.75470000000000E+04,
ATG,,,,,,,,,,,,,,,,,,,,,,,,,,,,,,,,,,,,,,1.00000000000000E+00,2.00000000000000E+00,1.00000000000000E+00,1.00000000000000E+00,4.00000000000000E+00,5.00000000000000E+00,5.00000000000000E+00,8.00000000000000E+00,1.30000000000000E+01,1.90000000000000E+01,2.50000000000000E+01,2.60000000000000E+01,2.80000000000000E+01,3.00000000000000E+01,
AUS,,,,,,,,,,,,,,,,,,,,,,,,,,,,,,,,,,,2.00000000000000E+00,1.00000000000000E+00,1.00000000000000E+00,2.00000000000000E+00,1.00000000000000E+00,3.00000000000000E+00,3.00000000000000E+00,1.00000000000000E+00,1.00000000000000E+01,1.50000000000000E+01,1.30000000000000E+01,4.40000000000000E+01,2.90000000000000E+01,6.30000000000000E+01,4.30000000000000E+01,2.80000000000000E+01,3.70000000000000E+01,
AUT,,,,,,,,,,,,,,,,,,,,,,,,,,,,,,,,,,,6.00000000000000E+01,4.90000000000000E+01,5.20000000000000E+01,5.50000000000000E+01,6.00000000000000E+01,1.60000000000000E+01,3.50000000000000E+01,2.90000000000000E+01,7.20000000000000E+01,6.60000000000000E+01,4.70000000000000E+01,6.60000000000000E+01,3.40000000000000E+01,2.30000000000000E+01,1.40000000000000E+01,1.20000000000000E+01,1.00000000000000E+01,
AZE,,,,,,,,,,,,,,,,,,,,,,,,,,,,,,,,,3.00000000000000E+05,3.28005000000000E+05,2.99095000000000E+05,2.00520000000000E+05,2.36086000000000E+05,2.34950000000000E+05,3.29657000000000E+05,3.10353000000000E+05,2.84277000000000E+05,2.68759000000000E+05,2.60217000000000E+05,2.53255000000000E+05,2.50589000000000E+05,2.33675000000000E+05,1.26068000000000E+05,1.59160000000000E+04,1.63190000000000E+04,1.69390000000000E+04,1.67530000000000E+04,
BDI,,,,,,,,,,,,,,,,,,,,,,,,,,,,,,,1.91622000000000E+05,2.23946000000000E+05,1.84135000000000E+05,8.71382000000000E+05,3.89706000000000E+05,3.50582000000000E+05,4.28680000000000E+05,5.19123000000000E+05,5.02568000000000E+05,5.26392000000000E+05,5.68084000000000E+05,5.53999000000000E+05,5.74555000000000E+05,5.31637000000000E+05,4.85454000000000E+05,4.38706000000000E+05,3.96541000000000E+05,3.75715000000000E+05,2.81592000000000E+05,9.42390000000000E+04,8.40640000000000E+04,
BEL,,,,,,,,,,,,,,,,,,,,,,,,,,,,,,,,,,,2.00000000000000E+00,3.00000000000000E+00,5.00000000000000E+00,1.00000000000000E+01,1.40000000000000E+01,6.00000000000000E+00,1.90000000000000E+01,1.30000000000000E+01,2.70000000000000E+01,4.00000000000000E+01,4.50000000000000E+01,9.50000000000000E+01,6.40000000000000E+01,6.00000000000000E+01,6.10000000000000E+01,7.10000000000000E+01,8.30000000000000E+01,
BEN,,,,,,,,,,,,,,,,,,,,,,,,,,,,,,,2.00000000000000E+00,4.00000000000000E+00,4.00000000000000E+00,6.80000000000000E+01,7.70000000000000E+01,5.40000000000000E+01,4.60000000000000E+01,4.60000000000000E+01,5.60000000000000E+01,4.10000000000000E+01,5.40000000000000E+01,5.50000000000000E+01,2.32000000000000E+02,2.82000000000000E+02,3.09000000000000E+02,4.11000000000000E+02,2.15000000000000E+02,2.71000000000000E+02,3.18000000000000E+02,4.11000000000000E+02,4.42000000000000E+02,
BFA,,,,,,,,,,,,,,,,,,,,,,,,,,,,,,,2.00000000000000E+00,8.00000000000000E+00,6.10000000000000E+01,6.30000000000000E+01,6.70000000000000E+01,6.30000000000000E+01,7.20000000000000E+01,1.18000000000000E+02,1.03000000000000E+02,7.30000000000000E+01,1.30000000000000E+02,9.80000000000000E+01,9.78000000000000E+02,8.53000000000000E+02,5.83000000000000E+02,6.07000000000000E+02,3.77000000000000E+02,5.58000000000000E+02,7.25000000000000E+02,9.90000000000000E+02,1.14500000000000E+03,
BGD,,,,,,,,,,,,,,,,,,,,,,,,,,,,,,,4.77000000000000E+02,6.11000000000000E+02,5.39210000000000E+04,5.71580000000000E+04,5.61990000000000E+04,5.69560000000000E+04,5.79590000000000E+04,4.43730000000000E+04,4.65800000000000E+03,2.77000000000000E+03,5.40100000000000E+03,5.54800000000000E+03,5.79000000000000E+03,5.56500000000000E+03,5.73100000000000E+03,7.30400000000000E+03,7.80300000000000E+03,1.02430000000000E+04,1.00980000000000E+04,1.04320000000000E+04,1.00490000000000E+04,
BGR,,,,,,,,,,,,,,,,,,,,,,,,,,,,,,,1.92200000000000E+03,2.73500000000000E+03,2.98100000000000E+03,3.15500000000000E+03,4.68900000000000E+03,4.15600000000000E+03,3.24600000000000E+03,3.04800000000000E+03,3.12200000000000E+03,2.04500000000000E+03,2.40400000000000E+03,2.12100000000000E+03,2.84100000000000E+03,2.56700000000000E+03,2.23900000000000E+03,4.25400000000000E+03,3.43800000000000E+03,3.31100000000000E+03,3.04000000000000E+03,2.74500000000000E+03,2.55900000000000E+03,
BHR,,,,,,,,,,,,,,,,,,,,,,,,,,,,,,,3.90000000000000E+01,5.20000000000000E+01,5.30000000000000E+01,6.00000000000000E+01,7.50000000000000E+01,7.10000000000000E+01,6.30000000000000E+01,8.20000000000000E+01,9.70000000000000E+01,1.05000000000000E+02,9.50000000000000E+01,4.60000000000000E+01,4.90000000000000E+01,5.20000000000000E+01,5.20000000000000E+01,4.10000000000000E+01,6.20000000000000E+01,7.30000000000000E+01,8.00000000000000E+01,7.90000000000000E+01,8.70000000000000E+01,
BHS,,,,,,,,,,,,,,,,,,,,,,,,,,,,,,,,,,,,,,,1.00000000000000E+00,1.00000000000000E+00,1.00000000000000E+00,,1.00000000000000E+00,1.00000000000000E+00,1.00000000000000E+00,1.00000000000000E+00,1.40000000000000E+01,1.40000000000000E+01,1.50000000000000E+01,1.50000000000000E+01,1.70000000000000E+01,
BIH,,,,,,,,,,,,,,,,,,,,,,,,,,,,,,,,,4.37501000000000E+05,6.18427000000000E+05,7.76084000000000E+05,7.69753000000000E+05,9.93868000000000E+05,8.49241000000000E+05,6.40075000000000E+05,5.54419000000000E+05,4.74981000000000E+05,4.47321000000000E+05,4.06326000000000E+05,3.00006000000000E+05,2.28815000000000E+05,1.09930000000000E+05,1.99946000000000E+05,7.82730000000000E+04,7.43660000000000E+04,7.00180000000000E+04,6.30040000000000E+04,
BLR,,,,,,,,,,,,,,,,,,,,,,,,,,,,,,,,,,2.00000000000000E+00,3.70000000000000E+01,8.40000000000000E+01,5.01000000000000E+02,3.03000000000000E+02,2.90000000000000E+02,1.43100000000000E+03,2.51900000000000E+03,3.69600000000000E+03,6.36400000000000E+03,7.81500000000000E+03,8.23100000000000E+03,8.85700000000000E+03,9.37100000000000E+03,4.97000000000000E+03,5.38400000000000E+03,5.52500000000000E+03,5.74300000000000E+03,
BLZ,,,,,,,,,,,,,,,,,,,,,,,,,,,,,,,,,,,8.00000000000000E+00,8.00000000000000E+00,3.00000000000000E+00,,,1.10000000000000E+01,1.20000000000000E+01,,1.00000000000000E+00,1.00000000000000E+01,9.00000000000000E+00,8.00000000000000E+00,1.80000000000000E+01,1.70000000000000E+01,2.00000000000000E+01,1.70000000000000E+01,2.30000000000000E+01,
BMU,,,,,,,,,,,,,,,,,,,,,,,,,,,,,,,,,,,,,,,1.00000000000000E+00,,1.00000000000000E+00,1.00000000000000E+00,1.00000000000000E+00,,,2.00000000000000E+00,,,,,,
BOL,,,,,,,,,,,,,,,,,,,,,,,,,,,,,,,7.31000000000000E+02,6.70000000000000E+01,2.80000000000000E+01,4.10000000000000E+01,1.77000000000000E+02,1.80000000000000E+02,1.77000000000000E+02,1.61000000000000E+02,1.83000000000000E+02,1.16000000000000E+02,1.75000000000000E+02,1.56000000000000E+02,2.15000000000000E+02,2.64000000000000E+02,2.85000000000000E+02,2.69000000000000E+02,3.74000000000000E+02,4.28000000000000E+02,4.54000000000000E+02,5.73000000000000E+02,5.90000000000000E+02,
BRA,,,,,,,,,,,,,,,,,,,,,,,,,,,,,,,1.40000000000000E+01,1.10000000000000E+01,1.10000000000000E+01,1.20000000000000E+01,4.10000000000000E+01,5.30000000000000E+01,8.50000000000000E+01,1.04000000000000E+02,1.36000000000000E+02,1.69000000000000E+02,2.24000000000000E+02,2.54000000000000E+02,4.41000000000000E+02,3.78000000000000E+02,4.03000000000000E+02,3.70000000000000E+02,7.07000000000000E+02,1.62400000000000E+03,1.40400000000000E+03,9.73000000000000E+02,9.94000000000000E+02,
BRB,,,,,,,,,,,,,,,,,,,,,,,,,,,,,,,,,,,4.00000000000000E+00,3.00000000000000E+00,2.00000000000000E+00,3.00000000000000E+00,5.00000000000000E+00,2.00000000000000E+00,8.00000000000000E+00,7.00000000000000E+00,9.00000000000000E+00,1.10000000000000E+01,7.00000000000000E+00,8.00000000000000E+00,2.80000000000000E+01,3.80000000000000E+01,3.40000000000000E+01,2.90000000000000E+01,3.20000000000000E+01,
BRN,,,,,,,,,,,,,,,,,,,,,,,,,,,,,,,,,,,,3.00000000000000E+00,,,,,,,2.00000000000000E+00,1.00000000000000E+00,1.00000000000000E+00,4.90000000000000E+01,2.00000000000000E+00,2.00000000000000E+00,1.00000000000000E+00,1.00000000000000E+00,1.00000000000000E+00,
BTN,,,,,,,,,,,,,,,,,,,,,,,,,,,,,,,,9.50400000000000E+03,7.54420000000000E+04,8.53340000000000E+04,1.03271000000000E+05,1.04750000000000E+05,1.06822000000000E+05,1.08703000000000E+05,1.05689000000000E+05,1.07595000000000E+05,1.08945000000000E+05,1.10845000000000E+05,1.12523000000000E+05,1.03978000000000E+05,1.05255000000000E+05,1.06537000000000E+05,1.08073000000000E+05,1.10598000000000E+05,1.04965000000000E+05,8.90700000000000E+04,7.50700000000000E+04,
BWA,,,,,,,,,,,,,,,,,,,,,,,,,,,,,,,3.00000000000000E+00,3.00000000000000E+00,3.00000000000000E+00,4.00000000000000E+00,2.10000000000000E+01,2.50000000000000E+01,2.30000000000000E+01,1.70000000000000E+01,1.60000000000000E+01,,3.00000000000000E+00,2.00000000000000E+00,5.00000000000000E+00,5.00000000000000E+00,6.00000000000000E+00,4.00000000000000E+00,1.10000000000000E+01,1.60000000000000E+01,2.60000000000000E+01,3.00000000000000E+01,5.30000000000000E+01,
CAF,,,,,,,,,,,,,,,,,,,,,,,,,,,,,,,1.00000000000000E+02,3.20000000000000E+02,3.25000000000000E+02,3.13000000000000E+02,2.66000000000000E+02,2.42000000000000E+02,2.40000000000000E+02,1.49000000000000E+02,1.73000000000000E+02,1.75000000000000E+02,1.39000000000000E+02,2.87040000000000E+04,2.53760000000000E+04,3.54000000000000E+04,3.10690000000000E+04,4.28900000000000E+04,7.16850000000000E+04,9.81040000000000E+04,1.25106000000000E+05,1.59554000000000E+05,1.64905000000000E+05,
CAN,,,,,,,,,,,,,,,,,,,,,,,,,,,,,,,,4.00000000000000E+00,4.00000000000000E+00,4.00000000000000E+00,4.00000000000000E+00,4.00000000000000E+00,8.00000000000000E+00,1.10000000000000E+01,1.50000000000000E+01,1.40000000000000E+01,2.60000000000000E+01,4.00000000000000E+00,5.10000000000000E+01,6.00000000000000E+01,5.60000000000000E+01,1.22000000000000E+02,9.50000000000000E+01,5.30000000000000E+02,1.01000000000000E+02,9.90000000000000E+01,9.00000000000000E+01,
CHE,,,,,,,,,,,,,,,,,,,,,,,,,,,,,,,,,,,8.00000000000000E+00,2.70000000000000E+01,3.30000000000000E+01,5.50000000000000E+01,7.70000000000000E+01,,7.00000000000000E+01,6.10000000000000E+01,5.60000000000000E+01,3.50000000000000E+01,1.20000000000000E+01,1.60000000000000E+01,3.60000000000000E+01,3.10000000000000E+01,3.20000000000000E+01,1.80000000000000E+01,1.90000000000000E+01,
CHL,,,,,,,,,,,,,,,,,,,,,,,,,,,,,,,1.45480000000000E+04,1.40070000000000E+04,1.40430000000000E+04,1.52670000000000E+04,1.54740000000000E+04,1.42730000000000E+04,1.28050000000000E+04,9.77600000000000E+03,7.01100000000000E+03,1.45700000000000E+03,8.60000000000000E+02,8.34000000000000E+02,1.70900000000000E+03,1.55500000000000E+03,1.19400000000000E+03,9.38000000000000E+02,8.05000000000000E+02,9.70000000000000E+02,9.94000000000000E+02,1.31200000000000E+03,1.17000000000000E+03,
CHN,,,,,,,,,,,,,,,,,,,,,,,,,,,,,,,1.92260000000000E+04,2.08110000000000E+04,1.02376000000000E+05,1.32641000000000E+05,1.35071000000000E+05,1.24728000000000E+05,1.25847000000000E+05,1.27244000000000E+05,1.30631000000000E+05,-2.14682627300000E+09,1.31943000000000E+05,1.38129000000000E+05,1.52741000000000E+05,1.52445000000000E+05,1.54766000000000E+05,1.44299000000000E+05,1.60782000000000E+05,1.69265000000000E+05,1.95259000000000E+05,2.00638000000000E+05,1.99684000000000E+05,
CIV,,,,,,,,,,,,,,,,,,,,,,,,,,,,,,,2.00000000000000E+00,1.30000000000000E+01,3.40000000000000E+01,4.10000000000000E+01,9.80000000000000E+01,2.01000000000000E+02,2.68000000000000E+02,3.60000000000000E+02,5.37000000000000E+02,2.50000000000000E+02,7.73000000000000E+02,8.58000000000000E+02,2.37410000000000E+04,3.36370000000000E+04,2.36530000000000E+04,1.83380000000000E+04,2.63150000000000E+04,2.22320000000000E+04,2.22270000000000E+04,2.31530000000000E+04,4.17580000000000E+04,
CMR,,,,,,,,,,,,,,,,,,,,,,,,,,,,,,,1.00000000000000E+02,1.00000000000000E+00,8.30000000000000E+01,1.73000000000000E+02,2.38000000000000E+02,2.01700000000000E+03,2.10900000000000E+03,2.25800000000000E+03,1.34800000000000E+03,1.36100000000000E+03,2.06200000000000E+03,2.72400000000000E+03,5.22300000000000E+03,6.20600000000000E+03,7.62600000000000E+03,9.10100000000000E+03,1.03850000000000E+04,1.15080000000000E+04,1.38700000000000E+04,1.47660000000000E+04,1.49630000000000E+04,
COG,,,,,,,,,,,,,,,,,,,,,,,,,,,,,,,2.00000000000000E+00,4.00000000000000E+00,7.00000000000000E+00,1.10000000000000E+01,3.20000000000000E+01,1.77000000000000E+02,2.21000000000000E+02,2.11470000000000E+04,1.71430000000000E+04,2.73500000000000E+04,2.75790000000000E+04,2.42370000000000E+04,2.79940000000000E+04,2.89580000000000E+04,2.81490000000000E+04,2.44380000000000E+04,2.06080000000000E+04,1.97350000000000E+04,1.99250000000000E+04,2.05440000000000E+04,2.06790000000000E+04,
COL,,,,,,,,,,,,,,,,,,,,,,,,,,,,,,,4.94000000000000E+02,7.40000000000000E+02,8.43000000000000E+02,1.04200000000000E+03,1.36300000000000E+03,1.90200000000000E+03,2.16800000000000E+03,2.37700000000000E+03,3.53800000000000E+03,3.53700000000000E+03,9.27900000000000E+03,1.79380000000000E+04,3.06170000000000E+04,3.79950000000000E+04,4.73810000000000E+04,6.04500000000000E+04,7.27960000000000E+04,5.51744000000000E+05,3.73532000000000E+05,3.89753000000000E+05,3.95577000000000E+05,
COM,,,,,,,,,,,,,,,,,,,,,,,,,,,,,,,4.00000000000000E+00,2.00000000000000E+00,2.00000000000000E+00,2.00000000000000E+00,5.00000000000000E+00,1.00000000000000E+01,1.30000000000000E+01,1.00000000000000E+01,3.30000000000000E+01,2.20000000000000E+01,2.80000000000000E+01,2.60000000000000E+01,4.30000000000000E+01,5.80000000000000E+01,5.00000000000000E+01,6.10000000000000E+01,7.20000000000000E+01,9.60000000000000E+01,3.78000000000000E+02,2.68000000000000E+02,3.68000000000000E+02,
CPV,,,,,,,,,,,,,,,,,,,,,,,,,,,,,,,,,1.00000000000000E+00,1.00000000000000E+00,1.00000000000000E+00,1.00000000000000E+00,2.00000000000000E+00,2.00000000000000E+00,1.00000000000000E+00,4.00000000000000E+00,2.00000000000000E+00,4.00000000000000E+00,8.00000000000000E+00,9.00000000000000E+00,8.00000000000000E+00,5.00000000000000E+00,4.00000000000000E+01,3.20000000000000E+01,3.00000000000000E+01,2.40000000000000E+01,2.50000000000000E+01,
CRI,,,,,,,,,,,,,,,,,,,,,,,,,,,,,,,,1.00000000000000E+00,5.00000000000000E+00,5.00000000000000E+00,2.23000000000000E+02,2.11000000000000E+02,1.39000000000000E+02,9.00000000000000E+01,5.40000000000000E+01,4.00000000000000E+00,5.70000000000000E+01,8.60000000000000E+01,9.80000000000000E+01,9.20000000000000E+01,1.38000000000000E+02,1.78000000000000E+02,2.84000000000000E+02,3.61000000000000E+02,3.54000000000000E+02,3.44000000000000E+02,3.52000000000000E+02,
CUB,,,,,,,,,,,,,,,,,,,,,,,,,,,,,,,1.35230000000000E+04,1.76150000000000E+04,2.12730000000000E+04,2.24060000000000E+04,2.33160000000000E+04,2.48540000000000E+04,2.54620000000000E+04,2.49130000000000E+04,2.35590000000000E+04,2.26260000000000E+04,2.00840000000000E+04,1.89590000000000E+04,1.80340000000000E+04,1.60930000000000E+04,1.56750000000000E+04,1.90000000000000E+04,3.35800000000000E+04,7.50300000000000E+03,7.93800000000000E+03,7.54900000000000E+03,7.47700000000000E+03,
CYP,,,,,,,,,,,,,,,,,,,,,,,,,,,,,,,1.10000000000000E+01,,,,6.00000000000000E+00,9.00000000000000E+00,1.00000000000000E+01,8.00000000000000E+00,1.10000000000000E+01,4.00000000000000E+00,1.10000000000000E+01,5.00000000000000E+00,7.00000000000000E+00,5.00000000000000E+00,2.00000000000000E+00,5.00000000000000E+00,5.00000000000000E+00,9.00000000000000E+00,1.00000000000000E+01,1.10000000000000E+01,1.30000000000000E+01,
CZE,,,,,,,,,,,,,,,,,,,,,,,,,,,,,,,6.12300000000000E+03,4.49100000000000E+03,3.32700000000000E+03,5.01500000000000E+03,4.64800000000000E+03,2.03900000000000E+03,9.77000000000000E+02,6.98000000000000E+02,1.93400000000000E+03,3.50000000000000E+02,8.10000000000000E+02,1.17900000000000E+03,6.98400000000000E+03,6.70200000000000E+03,4.54200000000000E+03,3.58900000000000E+03,2.13800000000000E+03,1.38400000000000E+03,1.35800000000000E+03,1.06700000000000E+03,8.17000000000000E+02,
DEU,,,,,,,,,,,,,,,,,,,,,,,,,,,,,,,,4.00000000000000E+00,4.00000000000000E+00,8.00000000000000E+00,4.49000000000000E+02,3.86000000000000E+02,4.20000000000000E+02,4.43000000000000E+02,6.88000000000000E+02,5.70000000000000E+01,1.18300000000000E+03,1.03300000000000E+03,9.28000000000000E+02,7.25000000000000E+02,7.80000000000000E+01,7.80000000000000E+01,1.14000000000000E+02,1.29000000000000E+02,1.66000000000000E+02,1.70000000000000E+02,1.64000000000000E+02,
DJI,,,,,,,,,,,,,,,,,,,,,,,,,,,,,,,5.00000000000000E+00,1.00000000000000E+01,1.10000000000000E+01,3.80000000000000E+01,1.80680000000000E+04,1.80950000000000E+04,1.81010000000000E+04,8.14200000000000E+03,3.21900000000000E+03,1.58000000000000E+03,1.91000000000000E+03,4.52000000000000E+02,4.70000000000000E+02,5.22000000000000E+02,4.95000000000000E+02,5.04000000000000E+02,4.85000000000000E+02,6.48000000000000E+02,6.50000000000000E+02,6.22000000000000E+02,5.66000000000000E+02,
DMA,,,,,,,,,,,,,,,,,,,,,,,,,,,,,,,,,,,,,1.00000000000000E+00,1.00000000000000E+00,1.00000000000000E+00,1.00000000000000E+00,2.00000000000000E+00,5.00000000000000E+00,6.00000000000000E+00,1.70000000000000E+01,2.50000000000000E+01,3.00000000000000E+01,4.90000000000000E+01,5.80000000000000E+01,5.60000000000000E+01,5.30000000000000E+01,5.20000000000000E+01,
DNK,,,,,,,,,,,,,,,,,,,,,,,,,,,,,,,,,,,1.10000000000000E+01,1.80000000000000E+01,3.40000000000000E+01,3.30000000000000E+01,2.80000000000000E+01,,2.50000000000000E+01,3.00000000000000E+00,8.00000000000000E+00,1.00000000000000E+01,1.00000000000000E+01,1.20000000000000E+01,1.20000000000000E+01,1.40000000000000E+01,1.10000000000000E+01,1.00000000000000E+01,9.00000000000000E+00,
DOM,,,,,,,,,,,,,,,,,,,,,,,,,,,,,,,,,,1.00000000000000E+00,2.90000000000000E+01,3.00000000000000E+01,2.90000000000000E+01,4.70000000000000E+01,4.20000000000000E+01,7.00000000000000E+00,4.70000000000000E+01,4.60000000000000E+01,8.30000000000000E+01,9.20000000000000E+01,9.70000000000000E+01,6.70000000000000E+01,1.50000000000000E+02,3.58000000000000E+02,3.18000000000000E+02,2.30000000000000E+02,2.46000000000000E+02,
DZA,,,,,,,,,,,,,,,,,,,,,,,,,,,,,,,1.90000000000000E+01,5.50000000000000E+01,7.10000000000000E+01,8.60000000000000E+01,2.07430000000000E+04,1.52000000000000E+03,2.24700000000000E+03,3.41800000000000E+03,5.72700000000000E+03,2.97800000000000E+03,8.03400000000000E+03,8.41900000000000E+03,1.20910000000000E+04,1.16670000000000E+04,1.06910000000000E+04,1.20410000000000E+04,8.35300000000000E+03,1.06150000000000E+04,9.06000000000000E+03,8.18500000000000E+03,6.68900000000000E+03,
EAP,,,,,,,,,,,,,,,,,,,,,,,,,,,,,,,7.12481000000000E+05,7.30895000000000E+05,9.96559000000000E+05,1.03426300000000E+06,9.51661000000000E+05,9.52894000000000E+05,9.11075000000000E+05,8.91289000000000E+05,8.60690000000000E+05,-2.14602193100000E+09,8.70393000000000E+05,8.13113000000000E+05,8.05436000000000E+05,7.27913000000000E+05,7.31190000000000E+05,7.48005000000000E+05,8.25143000000000E+05,7.44791000000000E+05,7.61070000000000E+05,9.96708000000000E+05,1.00225500000000E+06,
EAS,,,,,,,,,,,,,,,,,,,,,,,,,,,,,,,7.12481000000000E+05,7.30900000000000E+05,9.96567000000000E+05,1.03427300000000E+06,9.51957000000000E+05,9.53145000000000E+05,9.11245000000000E+05,8.91414000000000E+05,8.60825000000000E+05,-2.14602188200000E+09,8.70515000000000E+05,8.13233000000000E+05,8.05773000000000E+05,7.28245000000000E+05,7.31564000000000E+05,7.48432000000000E+05,8.26815000000000E+05,7.46714000000000E+05,7.62542000000000E+05,9.97571000000000E+05,1.00314800000000E+06,
ECA,,,,,,,,,,,,,,,,,,,,,,,,,,,,,,,1.80020000000000E+05,2.41308000000000E+05,1.33898700000000E+06,1.57453100000000E+06,1.73753100000000E+06,1.61175300000000E+06,2.09618600000000E+06,1.93680600000000E+06,1.69941000000000E+06,1.44027300000000E+06,1.13210300000000E+06,1.10360500000000E+06,1.52238100000000E+06,1.37908500000000E+06,1.22813000000000E+06,1.04589700000000E+06,1.04818100000000E+06,6.86557000000000E+05,7.10145000000000E+05,6.56361000000000E+05,6.37188000000000E+05,
ECS,,,,,,,,,,,,,,,,,,,,,,,,,,,,,,,2.17570000000000E+05,2.72188000000000E+05,1.52946200000000E+06,1.77817800000000E+06,1.87504600000000E+06,1.89578500000000E+06,2.42955200000000E+06,2.30311800000000E+06,2.04827700000000E+06,1.79332200000000E+06,1.47545800000000E+06,1.40215300000000E+06,1.82924200000000E+06,1.63895700000000E+06,1.46469900000000E+06,1.19514000000000E+06,1.16714600000000E+06,7.96240000000000E+05,8.14013000000000E+05,7.38922000000000E+05,7.08333000000000E+05,
ECU,,,,,,,,,,,,,,,,,,,,,,,,,,,,,,,3.00000000000000E+00,2.70000000000000E+01,4.00000000000000E+01,4.70000000000000E+01,1.74000000000000E+02,2.06000000000000E+02,2.21000000000000E+02,2.17000000000000E+02,5.12000000000000E+02,3.31000000000000E+02,6.71000000000000E+02,6.53000000000000E+02,8.18000000000000E+02,7.30000000000000E+02,7.27000000000000E+02,7.75000000000000E+02,8.87000000000000E+02,1.33200000000000E+03,1.06600000000000E+03,1.02700000000000E+03,8.52000000000000E+02,
EGY,,,,,,,,,,,,,,,,,,,,,,,,,,,,,,,4.80000000000000E+01,9.70000000000000E+01,2.09000000000000E+02,2.58000000000000E+02,5.02000000000000E+02,8.72000000000000E+02,1.20200000000000E+03,1.72200000000000E+03,2.61200000000000E+03,2.11400000000000E+03,3.95300000000000E+03,4.67800000000000E+03,6.44200000000000E+03,5.73500000000000E+03,5.37600000000000E+03,6.29100000000000E+03,7.61300000000000E+03,6.79900000000000E+03,6.78000000000000E+03,6.99000000000000E+03,6.91300000000000E+03,
EMU,,,,,,,,,,,,,,,,,,,,,,,,,,,,,,,2.80000000000000E+01,1.30000000000000E+01,6.60000000000000E+01,2.85360000000000E+04,1.60670000000000E+04,1.42040000000000E+04,6.18000000000000E+03,6.13900000000000E+03,5.48500000000000E+03,3.95900000000000E+03,5.73700000000000E+03,2.77100000000000E+03,4.56200000000000E+03,4.12600000000000E+03,2.91300000000000E+03,3.08100000000000E+03,6.17100000000000E+03,1.30100000000000E+03,1.24100000000000E+03,1.21000000000000E+03,1.04400000000000E+03,
ERI,,,,,,,,,,,,,,,,,,,,,,,,,,,,,,,4.30000000000000E+01,5.00633000000000E+05,5.03200000000000E+05,4.27213000000000E+05,4.22433000000000E+05,2.86712000000000E+05,3.32225000000000E+05,3.19077000000000E+05,3.46781000000000E+05,3.46714000000000E+05,3.76851000000000E+05,3.33229000000000E+05,3.18159000000000E+05,1.24121000000000E+05,1.31131000000000E+05,1.44066000000000E+05,1.93745000000000E+05,2.08748000000000E+05,1.86398000000000E+05,2.09168000000000E+05,2.22460000000000E+05,
ESP,,,,,,,,,,,,,,,,,,,,,,,,,,,,,,,,,,,4.20000000000000E+01,3.60000000000000E+01,2.18000000000000E+02,2.15000000000000E+02,6.00000000000000E+01,1.10000000000000E+01,8.00000000000000E+01,4.80000000000000E+01,5.80000000000000E+01,5.30000000000000E+01,4.90000000000000E+01,4.90000000000000E+01,2.44400000000000E+03,4.10000000000000E+01,2.70000000000000E+01,3.40000000000000E+01,4.20000000000000E+01,
EST,,,,,,,,,,,,,,,,,,,,,,,,,,,,,,,,2.00000000000000E+00,5.90000000000000E+01,9.50000000000000E+01,2.97000000000000E+02,3.51000000000000E+02,1.31000000000000E+03,1.26600000000000E+03,7.92000000000000E+02,4.49000000000000E+02,4.55000000000000E+02,4.79000000000000E+02,1.06000000000000E+03,1.02700000000000E+03,8.55000000000000E+02,7.43000000000000E+02,6.27000000000000E+02,2.62000000000000E+02,2.48000000000000E+02,2.48000000000000E+02,2.40000000000000E+02,
ETH,,,,,,,,,,,,,,,,,,,,,,,,,,,,,,,1.34592800000000E+06,2.51241000000000E+05,3.13129000000000E+05,2.51828000000000E+05,2.26436000000000E+05,1.00987000000000E+05,9.62700000000000E+04,8.44010000000000E+04,7.06800000000000E+04,6.25300000000000E+04,6.64100000000000E+04,5.89970000000000E+04,6.11800000000000E+04,6.26770000000000E+04,6.31550000000000E+04,6.54610000000000E+04,7.40260000000000E+04,5.98580000000000E+04,6.38780000000000E+04,6.28890000000000E+04,6.88480000000000E+04,
EUU,,,,,,,,,,,,,,,,,,,,,,,,,,,,,,,9.07590000000000E+04,6.07970000000000E+04,5.00160000000000E+04,7.87010000000000E+04,8.83770000000000E+04,5.98460000000000E+04,4.09910000000000E+04,3.15150000000000E+04,2.60400000000000E+04,1.58870000000000E+04,1.84920000000000E+04,1.72190000000000E+04,4.81150000000000E+04,4.52970000000000E+04,3.36560000000000E+04,4.96860000000000E+04,3.81810000000000E+04,1.89620000000000E+04,1.58640000000000E+04,1.44530000000000E+04,1.29710000000000E+04,
FIN,,,,,,,,,,,,,,,,,,,,,,,,,,,,,,,,,,,,1.00000000000000E+00,1.00000000000000E+00,2.00000000000000E+00,6.00000000000000E+00,5.00000000000000E+00,5.00000000000000E+00,2.00000000000000E+00,9.00000000000000E+00,7.00000000000000E+00,3.00000000000000E+00,5.00000000000000E+00,6.00000000000000E+00,4.00000000000000E+00,4.00000000000000E+00,6.00000000000000E+00,6.00000000000000E+00,
FJI,,,,,,,,,,,,,,,,,,,,,,,,,,,,,,,1.00000000000000E+00,1.00000000000000E+00,1.90000000000000E+01,8.90000000000000E+01,1.56000000000000E+02,2.22000000000000E+02,3.05000000000000E+02,3.26000000000000E+02,3.01000000000000E+02,3.09000000000000E+02,4.01000000000000E+02,7.31000000000000E+02,1.07200000000000E+03,1.08700000000000E+03,1.28100000000000E+03,1.37900000000000E+03,1.68600000000000E+03,1.82800000000000E+03,1.86800000000000E+03,1.89200000000000E+03,1.85100000000000E+03,
FRA,,,,,,,,,,,,,,,,,,,,,,,,,,,,,,,,,,,2.00000000000000E+01,1.50000000000000E+01,4.40000000000000E+01,6.10000000000000E+01,6.40000000000000E+01,2.50000000000000E+01,7.80000000000000E+01,4.40000000000000E+01,9.00000000000000E+01,1.10000000000000E+02,1.10000000000000E+02,2.86000000000000E+02,8.20000000000000E+01,1.01000000000000E+02,1.01000000000000E+02,8.70000000000000E+01,9.20000000000000E+01,
GAB,,,,,,,,,,,,,,,,,,,,,,,,,,,,,,,,,1.70000000000000E+01,1.80000000000000E+01,2.20000000000000E+01,2.50000000000000E+01,2.40000000000000E+01,1.90000000000000E+01,2.80000000000000E+01,6.00000000000000E+00,2.60000000000000E+01,2.70000000000000E+01,3.70000000000000E+01,3.90000000000000E+01,5.30000000000000E+01,8.10000000000000E+01,9.50000000000000E+01,1.16000000000000E+02,1.29000000000000E+02,1.44000000000000E+02,1.65000000000000E+02,
GBR,,,,,,,,,,,,,,,,,,,,,,,,,,,,,,,1.00000000000000E+00,1.00000000000000E+00,1.00000000000000E+00,2.00000000000000E+00,1.08000000000000E+02,7.70000000000000E+01,7.30000000000000E+01,7.90000000000000E+01,9.20000000000000E+01,7.30000000000000E+01,1.13000000000000E+02,1.09000000000000E+02,1.64000000000000E+02,1.49000000000000E+02,1.44000000000000E+02,1.35000000000000E+02,1.74000000000000E+02,2.01000000000000E+02,1.85000000000000E+02,1.56000000000000E+02,1.53000000000000E+02,
GEO,,,,,,,,,,,,,,,,,,,,,,,,,,,,,,,,,,6.01200000000000E+03,5.11700000000000E+03,3.08000000000000E+02,4.84890000000000E+04,4.71640000000000E+04,3.56690000000000E+04,2.90670000000000E+04,2.18210000000000E+04,1.74980000000000E+04,1.69750000000000E+04,1.24970000000000E+04,6.62600000000000E+03,7.30100000000000E+03,6.34000000000000E+03,1.18100000000000E+04,1.25980000000000E+04,1.50200000000000E+04,1.06400000000000E+04,
GHA,,,,,,,,,,,,,,,,,,,,,,,,,,,,,,,4.69100000000000E+03,4.70100000000000E+03,4.77600000000000E+03,4.47300000000000E+03,1.42890000000000E+04,1.35920000000000E+04,1.50950000000000E+04,1.47750000000000E+04,1.36330000000000E+04,1.26680000000000E+04,1.47750000000000E+04,1.45560000000000E+04,1.56860000000000E+04,1.58790000000000E+04,1.47720000000000E+04,1.84330000000000E+04,9.96000000000000E+03,5.06300000000000E+03,1.32420000000000E+04,1.48930000000000E+04,2.02030000000000E+04,
GIN,,,,,,,,,,,,,,,,,,,,,,,,,,,,,,,,2.00000000000000E+00,1.90000000000000E+01,3.10000000000000E+01,1.06000000000000E+02,4.41000000000000E+02,5.23000000000000E+02,6.48000000000000E+02,9.24000000000000E+02,6.33000000000000E+02,1.49700000000000E+03,2.01900000000000E+03,3.41800000000000E+03,3.87100000000000E+03,4.78200000000000E+03,5.82000000000000E+03,6.84000000000000E+03,8.27800000000000E+03,9.49500000000000E+03,1.09200000000000E+04,1.19850000000000E+04,
GMB,,,,,,,,,,,,,,,,,,,,,,,,,,,,,,,4.00000000000000E+00,1.50000000000000E+01,2.40000000000000E+01,2.60000000000000E+01,3.00000000000000E+01,1.61000000000000E+02,3.10000000000000E+02,4.21000000000000E+02,5.70000000000000E+02,5.92000000000000E+02,7.50000000000000E+02,7.34000000000000E+02,8.59000000000000E+02,7.46000000000000E+02,6.84000000000000E+02,1.68300000000000E+03,1.25400000000000E+03,1.26700000000000E+03,1.35200000000000E+03,1.97300000000000E+03,2.24200000000000E+03,
GNB,,,,,,,,,,,,,,,,,,,,,,,,,,,,,,,5.00300000000000E+03,5.00600000000000E+03,5.00800000000000E+03,5.01100000000000E+03,5.01500000000000E+03,8.30000000000000E+02,8.56000000000000E+02,8.68000000000000E+02,8.88700000000000E+03,3.16200000000000E+03,8.86000000000000E+02,9.27000000000000E+02,9.86000000000000E+02,9.75000000000000E+02,1.01700000000000E+03,1.05000000000000E+03,1.00300000000000E+03,1.02800000000000E+03,1.06500000000000E+03,1.10900000000000E+03,1.12700000000000E+03,
GNQ,,,,,,,,,,,,,,,,,,,,,,,,,,,,,,,,6.00000000000000E+01,1.14000000000000E+02,2.14000000000000E+02,3.42000000000000E+02,3.43000000000000E+02,3.97000000000000E+02,4.73000000000000E+02,4.20000000000000E+02,4.25000000000000E+02,5.09000000000000E+02,5.29000000000000E+02,5.52000000000000E+02,5.91000000000000E+02,5.52000000000000E+02,4.77000000000000E+02,4.61000000000000E+02,4.07000000000000E+02,3.84000000000000E+02,3.44000000000000E+02,3.05000000000000E+02,
GRC,,,,,,,,,,,,,,,,,,,,,,,,,,,,,,,1.60000000000000E+01,6.00000000000000E+00,1.00000000000000E+00,1.00000000000000E+00,9.40000000000000E+01,2.22000000000000E+02,2.50000000000000E+02,1.78000000000000E+02,1.74000000000000E+02,1.20000000000000E+01,1.25000000000000E+02,9.70000000000000E+01,3.01000000000000E+02,2.70000000000000E+02,2.24000000000000E+02,3.31000000000000E+02,9.10000000000000E+01,9.20000000000000E+01,6.70000000000000E+01,6.20000000000000E+01,5.10000000000000E+01,
GRD,,,,,,,,,,,,,,,,,,,,,,,,,,,,,,,4.00000000000000E+00,4.00000000000000E+00,1.00000000000000E+00,,3.00000000000000E+00,6.00000000000000E+00,1.10000000000000E+01,1.20000000000000E+01,2.00000000000000E+01,1.00000000000000E+00,2.40000000000000E+01,5.30000000000000E+01,7.30000000000000E+01,7.70000000000000E+01,9.90000000000000E+01,1.52000000000000E+02,2.02000000000000E+02,2.97000000000000E+02,3.12000000000000E+02,3.33000000000000E+02,3.45000000000000E+02,
GTM,,,,,,,,,,,,,,,,,,,,,,,,,,,,,,,4.79880000000000E+04,5.25870000000000E+04,5.39410000000000E+04,5.02670000000000E+04,4.96100000000000E+04,4.28990000000000E+04,4.03420000000000E+04,3.75080000000000E+04,3.27470000000000E+04,2.71820000000000E+04,2.07110000000000E+04,1.68670000000000E+04,1.38880000000000E+04,6.69600000000000E+03,4.37600000000000E+03,3.37900000000000E+03,6.49600000000000E+03,6.16100000000000E+03,5.93400000000000E+03,5.76800000000000E+03,5.67900000000000E+03,
GUY,,,,,,,,,,,,,,,,,,,,,,,,,,,,,,,2.00000000000000E+00,1.00000000000000E+00,2.00000000000000E+00,4.00000000000000E+00,7.10000000000000E+01,6.20000000000000E+01,5.50000000000000E+01,3.80000000000000E+01,4.10000000000000E+01,1.20000000000000E+01,3.60000000000000E+01,3.60000000000000E+01,4.90000000000000E+01,7.80000000000000E+01,1.94000000000000E+02,4.06000000000000E+02,5.37000000000000E+02,6.77000000000000E+02,7.08000000000000E+02,7.27000000000000E+02,7.49000000000000E+02,
HIC,,,,,,,,,,,,,,,,,,,,,,,,,,,,,,,3.76520000000000E+04,3.10860000000000E+04,1.90780000000000E+05,2.04162000000000E+05,1.40512000000000E+05,2.86987000000000E+05,3.36445000000000E+05,3.69319000000000E+05,3.51703000000000E+05,3.54350000000000E+05,3.45540000000000E+05,3.00619000000000E+05,3.09833000000000E+05,2.62880000000000E+05,2.39487000000000E+05,1.52289000000000E+05,1.25305000000000E+05,1.18515000000000E+05,1.11774000000000E+05,9.00340000000000E+04,7.94110000000000E+04,
HKG,,,,,,,,,,,,,,,,,,,,,,,,,,,,,,,,,2.00000000000000E+00,2.00000000000000E+00,2.61000000000000E+02,2.05000000000000E+02,1.05000000000000E+02,5.00000000000000E+01,4.20000000000000E+01,,1.30000000000000E+01,7.00000000000000E+00,5.00000000000000E+00,9.00000000000000E+00,8.00000000000000E+00,,1.00000000000000E+01,1.10000000000000E+01,1.10000000000000E+01,1.20000000000000E+01,1.70000000000000E+01,
HND,,,,,,,,,,,,,,,,,,,,,,,,,,,,,,,1.80000000000000E+01,2.10000000000000E+01,4.10000000000000E+01,4.48000000000000E+02,1.21400000000000E+03,1.21900000000000E+03,1.25900000000000E+03,1.24600000000000E+03,1.10100000000000E+03,8.48000000000000E+02,9.03000000000000E+02,7.81000000000000E+02,6.73000000000000E+02,6.04000000000000E+02,4.84000000000000E+02,5.35000000000000E+02,1.03500000000000E+03,1.23600000000000E+03,1.11600000000000E+03,1.16600000000000E+03,1.30200000000000E+03,
HPC,,,,,,,,,,,,,,,,,,,,,,,,,,,,,,,1.17183670000000E+07,1.11310220000000E+07,9.71500200000000E+06,9.40461600000000E+06,9.20494800000000E+06,8.08402600000000E+06,6.82077300000000E+06,5.99281000000000E+06,5.79281900000000E+06,5.77780100000000E+06,6.92601400000000E+06,6.80527700000000E+06,5.58171600000000E+06,5.09750200000000E+06,5.38128200000000E+06,5.02590600000000E+06,4.93439100000000E+06,5.60831600000000E+06,5.27642900000000E+06,5.39327800000000E+06,5.71192800000000E+06,
HRV,,,,,,,,,,,,,,,,,,,,,,,,,,,,,,,,,1.68571000000000E+05,1.51688000000000E+05,7.62560000000000E+04,2.45572000000000E+05,3.10088000000000E+05,3.49307000000000E+05,3.38089000000000E+05,3.46034000000000E+05,3.35199000000000E+05,2.90279000000000E+05,2.74806000000000E+05,2.30189000000000E+05,2.15477000000000E+05,1.19148000000000E+05,9.37670000000000E+04,1.00423000000000E+05,9.70120000000000E+04,7.64780000000000E+04,6.58610000000000E+04,
HTI,,,,,,,,,,,,,,,,,,,,,,,,,,,,,,,2.09200000000000E+03,1.85800000000000E+03,2.48600000000000E+03,3.86600000000000E+03,9.80300000000000E+03,1.39250000000000E+04,1.51180000000000E+04,1.54810000000000E+04,1.35380000000000E+04,8.58200000000000E+03,7.56100000000000E+03,7.24800000000000E+03,7.71800000000000E+03,7.54700000000000E+03,9.20800000000000E+03,1.35420000000000E+04,2.08370000000000E+04,2.22800000000000E+04,2.30660000000000E+04,2.41160000000000E+04,2.58920000000000E+04,
HUN,,,,,,,,,,,,,,,,,,,,,,,,,,,,,,,5.76700000000000E+03,4.73300000000000E+03,3.99300000000000E+03,5.01600000000000E+03,4.47100000000000E+03,2.34800000000000E+03,3.08300000000000E+03,2.66900000000000E+03,1.24200000000000E+03,8.25000000000000E+02,5.18000000000000E+02,9.53000000000000E+02,3.51700000000000E+03,3.39500000000000E+03,2.74900000000000E+03,3.51900000000000E+03,3.11900000000000E+03,3.38600000000000E+03,1.61400000000000E+03,1.53700000000000E+03,1.43800000000000E+03,
IDN,,,,,,,,,,,,,,,,,,,,,,,,,,,,,,,7.16900000000000E+03,6.16400000000000E+03,6.82900000000000E+03,7.92400000000000E+03,8.72600000000000E+03,9.83600000000000E+03,1.13650000000000E+04,8.79900000000000E+03,9.05300000000000E+03,2.21400000000000E+03,9.14900000000000E+03,8.97000000000000E+03,9.91100000000000E+03,1.62400000000000E+04,2.79190000000000E+04,3.43840000000000E+04,3.47280000000000E+04,2.05580000000000E+04,1.93450000000000E+04,1.82130000000000E+04,1.68920000000000E+04,
IND,,,,,,,,,,,,,,,,,,,,,,,,,,,,,,,1.98000000000000E+02,4.08000000000000E+02,1.01900000000000E+03,1.49200000000000E+03,3.26300000000000E+03,5.01100000000000E+03,7.55000000000000E+03,8.92400000000000E+03,9.66300000000000E+03,6.54900000000000E+03,1.13990000000000E+04,1.15710000000000E+04,1.43470000000000E+04,1.37060000000000E+04,1.33440000000000E+04,1.62850000000000E+04,1.78110000000000E+04,2.04660000000000E+04,1.95690000000000E+04,1.95140000000000E+04,1.77690000000000E+04,
IRL,,,,,,,,,,,,,,,,,,,,,,,,,,,,,,,,,,,3.00000000000000E+00,2.00000000000000E+00,2.00000000000000E+00,1.00000000000000E+00,,,3.00000000000000E+00,3.00000000000000E+00,7.00000000000000E+00,6.00000000000000E+00,3.00000000000000E+00,2.10000000000000E+01,4.00000000000000E+00,1.00000000000000E+01,7.00000000000000E+00,7.00000000000000E+00,8.00000000000000E+00,
IRN,,,,,,,,,,,,,,,,,,,,,,,,,,,,,,,7.58890000000000E+04,1.30366000000000E+05,1.28781000000000E+05,1.15523000000000E+05,1.21287000000000E+05,1.12364000000000E+05,1.04129000000000E+05,9.39930000000000E+04,8.99790000000000E+04,6.81040000000000E+04,8.82780000000000E+04,9.24910000000000E+04,1.37945000000000E+05,1.22530000000000E+05,1.15177000000000E+05,9.94280000000000E+04,1.02483000000000E+05,6.83970000000000E+04,6.90610000000000E+04,7.27740000000000E+04,6.87910000000000E+04,
IRQ,,,,,,,,,,,,,,,,,,,,,,,,,,,,,,,1.13380500000000E+06,1.32185300000000E+06,1.34382400000000E+06,7.71077000000000E+05,7.49834000000000E+05,7.18719000000000E+05,7.14730000000000E+05,7.07338000000000E+05,6.75030000000000E+05,6.04002000000000E+05,5.26179000000000E+05,5.30511000000000E+05,4.22119000000000E+05,3.68580000000000E+05,3.11905000000000E+05,2.62299000000000E+05,1.45090500000000E+06,2.30924500000000E+06,1.90351900000000E+06,1.78521200000000E+06,1.68357900000000E+06,
ISL,,,,,,,,,,,,,,,,,,,,,,,,,,,,,,,,,,,,,4.00000000000000E+00,5.00000000000000E+00,5.00000000000000E+00,1.00000000000000E+00,5.00000000000000E+00,,1.30000000000000E+01,1.20000000000000E+01,1.00000000000000E+01,7.00000000000000E+00,3.10000000000000E+01,7.00000000000000E+00,7.00000000000000E+00,4.00000000000000E+00,4.00000000000000E+00,
ISR,,,,,,,,,,,,,,,,,,,,,,,,,,,,,,,1.60000000000000E+01,2.80000000000000E+01,4.00000000000000E+01,1.18000000000000E+02,8.87000000000000E+02,9.37000000000000E+02,1.12600000000000E+03,9.87000000000000E+02,8.35000000000000E+02,8.40000000000000E+01,4.16000000000000E+02,3.63000000000000E+02,5.64000000000000E+02,6.25000000000000E+02,6.72000000000000E+02,6.32000000000000E+02,8.82000000000000E+02,1.54100000000000E+03,1.49400000000000E+03,1.31000000000000E+03,1.30100000000000E+03,
ITA,,,,,,,,,,,,,,,,,,,,,,,,,,,,,,,,,1.00000000000000E+00,3.00000000000000E+00,1.46000000000000E+02,1.21000000000000E+02,1.12000000000000E+02,1.12000000000000E+02,7.90000000000000E+01,7.00000000000000E+00,4.80000000000000E+01,3.40000000000000E+01,2.24000000000000E+02,2.07000000000000E+02,1.92000000000000E+02,2.17000000000000E+02,1.05000000000000E+02,9.00000000000000E+01,6.20000000000000E+01,4.50000000000000E+01,5.00000000000000E+01,
JAM,,,,,,,,,,,,,,,,,,,,,,,,,,,,,,,,,,3.00000000000000E+00,7.00000000000000E+00,1.00000000000000E+01,1.80000000000000E+01,2.10000000000000E+01,2.70000000000000E+01,1.50000000000000E+01,3.70000000000000E+01,3.70000000000000E+01,1.47000000000000E+02,2.59000000000000E+02,3.50000000000000E+02,4.89000000000000E+02,6.60000000000000E+02,7.66000000000000E+02,8.26000000000000E+02,9.09000000000000E+02,1.05700000000000E+03,
JOR,,,,,,,,,,,,,,,,,,,,,,,,,,,,,,,5.50000000000000E+01,1.12000000000000E+02,1.83000000000000E+02,2.42000000000000E+02,4.43000000000000E+02,5.13000000000000E+02,7.08000000000000E+02,7.19000000000000E+02,8.99000000000000E+02,4.66000000000000E+02,9.19000000000000E+02,7.75000000000000E+02,1.29300000000000E+03,1.16200000000000E+03,1.17000000000000E+03,1.78900000000000E+03,1.60300000000000E+03,1.78700000000000E+03,1.89000000000000E+03,2.12900000000000E+03,2.25400000000000E+03,
JPN,,,,,,,,,,,,,,,,,,,,,,,,,,,,,,,,,,,7.00000000000000E+00,3.00000000000000E+00,2.00000000000000E+00,2.00000000000000E+00,3.00000000000000E+00,2.00000000000000E+00,5.00000000000000E+00,5.00000000000000E+00,1.90000000000000E+01,1.90000000000000E+01,2.10000000000000E+01,1.30000000000000E+01,1.68000000000000E+02,5.21000000000000E+02,1.85000000000000E+02,1.50000000000000E+02,1.52000000000000E+02,
KAZ,,,,,,,,,,,,,,,,,,,,,,,,,,,,,,,,,1.00000000000000E+00,2.00000000000000E+00,2.70000000000000E+01,1.39000000000000E+02,4.01630000000000E+04,4.07740000000000E+04,2.04590000000000E+04,8.44000000000000E+03,2.53700000000000E+03,2.80300000000000E+03,6.31500000000000E+03,6.55900000000000E+03,6.12100000000000E+03,4.31600000000000E+03,7.37700000000000E+03,5.23500000000000E+03,4.82500000000000E+03,3.74400000000000E+03,3.63200000000000E+03,
KEN,,,,,,,,,,,,,,,,,,,,,,,,,,,,,,,1.00000000000000E+01,3.30000000000000E+01,6.30000000000000E+01,8.50000000000000E+01,8.77400000000000E+03,9.32700000000000E+03,9.39000000000000E+03,9.57000000000000E+03,6.04600000000000E+03,5.43300000000000E+03,2.37300000000000E+03,2.55900000000000E+03,3.08700000000000E+03,3.16300000000000E+03,3.84700000000000E+03,4.64000000000000E+03,5.35700000000000E+03,7.54600000000000E+03,9.68800000000000E+03,9.62000000000000E+03,8.60200000000000E+03,
KGZ,,,,,,,,,,,,,,,,,,,,,,,,,,,,,,,,,,1.00000000000000E+00,1.40000000000000E+01,2.20000000000000E+01,1.71180000000000E+04,1.63200000000000E+04,7.44900000000000E+03,3.95000000000000E+03,7.48000000000000E+02,6.85000000000000E+02,2.95000000000000E+03,3.14100000000000E+03,3.28400000000000E+03,3.12200000000000E+03,2.48800000000000E+03,2.25400000000000E+03,2.51700000000000E+03,2.61200000000000E+03,2.74400000000000E+03,
KHM,,,,,,,,,,,,,,,,,,,,,,,,,,,,,,,5.43640000000000E+04,4.31680000000000E+04,2.88510000000000E+04,9.75300000000000E+03,8.53800000000000E+03,6.12250000000000E+04,6.22440000000000E+04,1.03246000000000E+05,7.65760000000000E+04,3.83260000000000E+04,3.68550000000000E+04,3.47590000000000E+04,3.34560000000000E+04,3.14070000000000E+04,1.81210000000000E+04,1.78060000000000E+04,1.79650000000000E+04,1.77040000000000E+04,1.72530000000000E+04,1.70250000000000E+04,1.63140000000000E+04,
KIR,,,,,,,,,,,,,,,,,,,,,,,,,,,,,,,,,,,,,,,,,,,3.00000000000000E+00,1.60000000000000E+01,3.20000000000000E+01,3.30000000000000E+01,4.10000000000000E+01,3.80000000000000E+01,3.80000000000000E+01,3.30000000000000E+01,3.30000000000000E+01,
KNA,,,,,,,,,,,,,,,,,,,,,,,,,,,,,,,,,,,,,,,,,,,2.00000000000000E+00,1.00000000000000E+00,1.00000000000000E+00,3.10000000000000E+01,2.00000000000000E+00,2.00000000000000E+00,4.00000000000000E+00,4.00000000000000E+00,7.00000000000000E+00,
KOR,,,,,,,,,,,,,,,,,,,,,,,,,,,,,,,,5.00000000000000E+00,5.00000000000000E+00,7.00000000000000E+00,1.70000000000000E+01,3.00000000000000E+01,4.20000000000000E+01,4.80000000000000E+01,6.50000000000000E+01,3.10000000000000E+01,7.30000000000000E+01,8.30000000000000E+01,2.45000000000000E+02,2.37000000000000E+02,2.72000000000000E+02,2.68000000000000E+02,1.33400000000000E+03,1.18800000000000E+03,1.10400000000000E+03,5.73000000000000E+02,5.85000000000000E+02,
KWT,,,,,,,,,,,,,,,,,,,,,,,,,,,,,,,4.40000000000000E+01,4.70000000000000E+01,7.40000000000000E+01,8.90000000000000E+01,7.56000000000000E+02,7.62000000000000E+02,8.54000000000000E+02,8.25000000000000E+02,8.30000000000000E+02,5.55000000000000E+02,6.92000000000000E+02,7.01000000000000E+02,7.12000000000000E+02,6.16000000000000E+02,3.98000000000000E+02,3.81000000000000E+02,6.17000000000000E+02,7.46000000000000E+02,8.54000000000000E+02,9.38000000000000E+02,9.88000000000000E+02,
LAC,,,,,,,,,,,,,,,,,,,,,,,,,,,,,,,1.70754000000000E+05,1.74621000000000E+05,1.72323000000000E+05,1.56534000000000E+05,1.68092000000000E+05,1.55681000000000E+05,1.49505000000000E+05,1.40565000000000E+05,1.25986000000000E+05,1.04446000000000E+05,8.33560000000000E+04,8.51310000000000E+04,9.49510000000000E+04,9.10590000000000E+04,9.59610000000000E+04,1.17604000000000E+05,1.63626000000000E+05,6.24685000000000E+05,4.46670000000000E+05,4.62524000000000E+05,4.70386000000000E+05,
LAO,,,,,,,,,,,,,,,,,,,,,,,,,,,,,,,1.35633000000000E+05,1.22326000000000E+05,9.61570000000000E+04,7.45010000000000E+04,5.48960000000000E+04,5.81930000000000E+04,4.69090000000000E+04,3.73670000000000E+04,2.90170000000000E+04,2.12310000000000E+04,1.60940000000000E+04,1.26310000000000E+04,1.12350000000000E+04,1.03630000000000E+04,1.61140000000000E+04,2.44420000000000E+04,2.64470000000000E+04,1.00130000000000E+04,8.59800000000000E+03,8.39800000000000E+03,8.41400000000000E+03,
LBN,,,,,,,,,,,,,,,,,,,,,,,,,,,,,,,6.99300000000000E+03,8.50100000000000E+03,1.02570000000000E+04,1.06350000000000E+04,1.56540000000000E+04,1.35150000000000E+04,1.08900000000000E+04,1.02350000000000E+04,9.78600000000000E+03,5.19600000000000E+03,1.02150000000000E+04,8.76300000000000E+03,2.62920000000000E+04,2.49320000000000E+04,1.98650000000000E+04,1.83230000000000E+04,1.22520000000000E+04,1.30940000000000E+04,1.29670000000000E+04,1.62600000000000E+04,1.58690000000000E+04,
LBR,,,,,,,,,,,,,,,,,,,,,,,,,,,,,,,7.35689000000000E+05,6.73435000000000E+05,5.20915000000000E+05,7.04051000000000E+05,7.97835000000000E+05,7.44637000000000E+05,7.84008000000000E+05,4.93340000000000E+05,3.65398000000000E+05,2.93073000000000E+05,2.66930000000000E+05,2.44608000000000E+05,2.75438000000000E+05,3.53344000000000E+05,3.35441000000000E+05,2.31139000000000E+05,1.60548000000000E+05,9.15400000000000E+04,7.52130000000000E+04,7.15990000000000E+04,7.01290000000000E+04,
LBY,,,,,,,,,,,,,,,,,,,,,,,,,,,,,,,5.81000000000000E+02,8.40000000000000E+02,6.86000000000000E+02,5.97000000000000E+02,6.72000000000000E+02,6.24000000000000E+02,2.81000000000000E+02,2.74000000000000E+02,4.33000000000000E+02,2.90000000000000E+02,6.19000000000000E+02,8.88000000000000E+02,1.45500000000000E+03,1.57000000000000E+03,1.72000000000000E+03,1.57500000000000E+03,1.57300000000000E+03,1.95400000000000E+03,2.08400000000000E+03,2.20200000000000E+03,2.30900000000000E+03,
LCA,,,,,,,,,,,,,,,,,,,,,,,,,,,,,,,,,,,,2.00000000000000E+00,2.00000000000000E+00,3.00000000000000E+00,5.00000000000000E+00,4.00000000000000E+00,1.10000000000000E+01,9.00000000000000E+00,1.00000000000000E+01,1.60000000000000E+01,3.40000000000000E+01,9.90000000000000E+01,1.63000000000000E+02,2.27000000000000E+02,2.88000000000000E+02,3.14000000000000E+02,3.34000000000000E+02,
LCN,,,,,,,,,,,,,,,,,,,,,,,,,,,,,,,1.70755000000000E+05,1.74622000000000E+05,1.72324000000000E+05,1.56535000000000E+05,1.68121000000000E+05,1.55710000000000E+05,1.49535000000000E+05,1.40589000000000E+05,1.26018000000000E+05,1.04456000000000E+05,8.33890000000000E+04,8.51540000000000E+04,9.49960000000000E+04,9.11090000000000E+04,9.60100000000000E+04,1.17676000000000E+05,1.63821000000000E+05,6.24948000000000E+05,4.46950000000000E+05,4.62808000000000E+05,4.70690000000000E+05,
LDC,,,,,,,,,,,,,,,,,,,,,,,,,,,,,,,1.22584820000000E+07,1.16768700000000E+07,1.04659060000000E+07,1.01988700000000E+07,9.88878000000000E+06,8.74156500000000E+06,7.44802100000000E+06,6.62159400000000E+06,6.40448500000000E+06,6.52906100000000E+06,7.73908300000000E+06,7.61346700000000E+06,6.27974500000000E+06,5.64118200000000E+06,5.84049600000000E+06,5.49126900000000E+06,5.43577200000000E+06,6.07546100000000E+06,5.70466200000000E+06,5.99410500000000E+06,6.27684900000000E+06,
LIC,,,,,,,,,,,,,,,,,,,,,,,,,,,,,,,1.10650810000000E+07,1.08621550000000E+07,9.68892100000000E+06,9.29912800000000E+06,8.99660600000000E+06,7.83423200000000E+06,6.58271200000000E+06,5.84710900000000E+06,5.54456000000000E+06,5.41789700000000E+06,6.58136800000000E+06,6.47448600000000E+06,5.21216600000000E+06,4.62178500000000E+06,4.79083700000000E+06,4.48176500000000E+06,4.37863300000000E+06,5.21931500000000E+06,4.96617700000000E+06,5.36484200000000E+06,5.65081100000000E+06,
LKA,,,,,,,,,,,,,,,,,,,,,,,,,,,,,,,2.08271000000000E+05,2.09349000000000E+05,1.28115000000000E+05,9.18450000000000E+04,1.14456000000000E+05,1.07589000000000E+05,1.09578000000000E+05,1.22287000000000E+05,1.14976000000000E+05,9.62790000000000E+04,1.24160000000000E+05,1.22420000000000E+05,1.32999000000000E+05,1.22010000000000E+05,1.14053000000000E+05,1.08139000000000E+05,1.16966000000000E+05,1.34952000000000E+05,1.37752000000000E+05,1.45721000000000E+05,1.41074000000000E+05,
LMC,,,,,,,,,,,,,,,,,,,,,,,,,,,,,,,3.18632400000000E+06,3.05707500000000E+06,3.26422100000000E+06,2.77959000000000E+06,2.83167900000000E+06,2.76399200000000E+06,2.90442200000000E+06,2.74993100000000E+06,2.70940200000000E+06,2.82053800000000E+06,2.57807600000000E+06,2.77923800000000E+06,2.87531100000000E+06,2.64551300000000E+06,2.58307800000000E+06,2.49972100000000E+06,3.66477100000000E+06,4.25008600000000E+06,3.74796900000000E+06,3.30972700000000E+06,3.22348600000000E+06,
LMY,,,,,,,,,,,,,,,,,,,,,,,,,,,,,,,1.45868950000000E+07,1.43730420000000E+07,1.43295750000000E+07,1.36887330000000E+07,1.36155560000000E+07,1.22514830000000E+07,1.14178030000000E+07,1.03908050000000E+07,9.88545100000000E+06,-2.13736315800000E+09,1.04625480000000E+07,1.05436030000000E+07,9.80858900000000E+06,8.83043800000000E+06,8.79884400000000E+06,8.21954500000000E+06,9.40378100000000E+06,1.09466190000000E+07,1.00566360000000E+07,9.98747700000000E+06,1.01691350000000E+07,
LSO,,,,,,,,,,,,,,,,,,,,,,,,,,,,,,,4.00000000000000E+00,4.00000000000000E+00,,5.50000000000000E+01,,,2.00000000000000E+00,3.00000000000000E+00,3.00000000000000E+00,1.00000000000000E+00,4.00000000000000E+00,1.00000000000000E+00,4.00000000000000E+00,6.00000000000000E+00,7.00000000000000E+00,6.00000000000000E+00,8.00000000000000E+00,7.00000000000000E+00,8.00000000000000E+00,1.00000000000000E+01,1.10000000000000E+01,
LTU,,,,,,,,,,,,,,,,,,,,,,,,,,,,,,,4.00000000000000E+00,4.00000000000000E+00,8.00000000000000E+00,1.10000000000000E+01,6.30000000000000E+01,1.09000000000000E+02,6.62000000000000E+02,6.49000000000000E+02,2.82000000000000E+02,2.43000000000000E+02,1.63000000000000E+02,2.16000000000000E+02,1.37100000000000E+03,1.54100000000000E+03,1.48200000000000E+03,1.44800000000000E+03,9.42000000000000E+02,4.66000000000000E+02,4.90000000000000E+02,5.01000000000000E+02,5.15000000000000E+02,
LUX,,,,,,,,,,,,,,,,,,,,,,,,,,,,,,,,,,,,,,,,,,,,,6.00000000000000E+00,1.00000000000000E+00,2.00000000000000E+00,2.00000000000000E+00,,,,
LVA,,,,,,,,,,,,,,,,,,,,,,,,,,,,,,,,,4.00000000000000E+00,4.00000000000000E+00,9.30000000000000E+01,1.60000000000000E+02,1.95800000000000E+03,1.91500000000000E+03,1.01300000000000E+03,8.29000000000000E+02,4.91000000000000E+02,6.19000000000000E+02,3.08200000000000E+03,3.17700000000000E+03,2.82600000000000E+03,2.43000000000000E+03,1.42400000000000E+03,6.62000000000000E+02,7.63000000000000E+02,7.91000000000000E+02,7.13000000000000E+02,
MAC,,,,,,,,,,,,,,,,,,,,,,,,,,,,,,,,,,,,,1.00000000000000E+00,1.00000000000000E+00,1.00000000000000E+00,1.00000000000000E+00,6.00000000000000E+00,8.00000000000000E+00,1.50000000000000E+01,1.50000000000000E+01,2.00000000000000E+01,9.00000000000000E+00,9.00000000000000E+00,9.00000000000000E+00,9.00000000000000E+00,9.00000000000000E+00,1.00000000000000E+01,
MAR,,,,,,,,,,,,,,,,,,,,,,,,,,,,,,,1.50000000000000E+01,4.40000000000000E+01,9.10000000000000E+01,1.05000000000000E+02,1.80000000000000E+02,3.01000000000000E+02,2.97000000000000E+02,3.10000000000000E+02,3.53000000000000E+02,2.31000000000000E+02,3.92000000000000E+02,3.63000000000000E+02,1.26800000000000E+03,1.29100000000000E+03,1.31800000000000E+03,2.92000000000000E+03,4.71000000000000E+03,4.03900000000000E+03,3.53300000000000E+03,2.28600000000000E+03,2.28400000000000E+03,
MCO,,,,,,,,,,,,,,,,,,,,,,,,,,,,,,,,,,,,,1.00000000000000E+00,1.00000000000000E+00,1.00000000000000E+00,1.00000000000000E+00,1.00000000000000E+00,,1.00000000000000E+00,1.00000000000000E+00,,,,,,1.00000000000000E+00,2.00000000000000E+00,
MDA,,,,,,,,,,,,,,,,,,,,,,,,,,,,,,,,,,6.00000000000000E+00,4.58000000000000E+02,5.29000000000000E+02,5.82900000000000E+03,5.14100000000000E+03,2.75400000000000E+03,2.15900000000000E+03,2.65700000000000E+03,3.73700000000000E+03,1.01300000000000E+04,1.11460000000000E+04,1.19380000000000E+04,1.20640000000000E+04,1.16800000000000E+04,4.91800000000000E+03,5.55500000000000E+03,5.92500000000000E+03,6.20000000000000E+03,
MDG,,,,,,,,,,,,,,,,,,,,,,,,,,,,,,,,1.00000000000000E+00,1.00000000000000E+00,1.00000000000000E+00,3.00000000000000E+00,7.90000000000000E+01,7.90000000000000E+01,7.60000000000000E+01,6.60000000000000E+01,5.00000000000000E+01,5.40000000000000E+01,4.00000000000000E+01,5.30000000000000E+01,8.80000000000000E+01,1.35000000000000E+02,2.03000000000000E+02,2.60000000000000E+02,2.84000000000000E+02,2.77000000000000E+02,2.74000000000000E+02,2.70000000000000E+02,
MDV,,,,,,,,,,,,,,,,,,,,,,,,,,,,,,,1.00000000000000E+00,1.00000000000000E+00,,,,,1.00000000000000E+00,1.00000000000000E+00,2.00000000000000E+00,1.00000000000000E+00,4.00000000000000E+00,3.00000000000000E+00,3.00000000000000E+00,1.00000000000000E+00,3.00000000000000E+00,1.30000000000000E+01,1.60000000000000E+01,1.70000000000000E+01,1.60000000000000E+01,1.60000000000000E+01,1.90000000000000E+01,
MEA,,,,,,,,,,,,,,,,,,,,,,,,,,,,,,,1.22822900000000E+06,1.53035600000000E+06,1.58414900000000E+06,9.85856000000000E+05,1.01935600000000E+06,9.50070000000000E+05,9.45300000000000E+05,9.16343000000000E+05,8.78737000000000E+05,7.93676000000000E+05,7.61648000000000E+05,1.00589800000000E+06,1.06278700000000E+06,9.15116000000000E+05,8.45334000000000E+05,7.76961000000000E+05,1.94322400000000E+06,2.77917900000000E+06,2.37242900000000E+06,2.01748400000000E+06,1.90892700000000E+06,
MEX,,,,,,,,,,,,,,,,,,,,,,,,,,,,,,,,,,,2.48000000000000E+02,3.61000000000000E+02,5.20000000000000E+02,6.65000000000000E+02,1.01600000000000E+03,4.55000000000000E+02,1.29100000000000E+03,1.59400000000000E+03,1.67000000000000E+03,1.65200000000000E+03,1.74400000000000E+03,2.31300000000000E+03,3.30400000000000E+03,5.57200000000000E+03,6.16200000000000E+03,6.43500000000000E+03,6.81600000000000E+03,
MIC,,,,,,,,,,,,,,,,,,,,,,,,,,,,,,,3.52181400000000E+06,3.51088700000000E+06,4.64065400000000E+06,4.38960500000000E+06,4.61895000000000E+06,4.41725100000000E+06,4.83509100000000E+06,4.54369600000000E+06,4.34089100000000E+06,-2.14278105500000E+09,3.88118000000000E+06,4.06911700000000E+06,4.59642300000000E+06,4.20865300000000E+06,4.00800700000000E+06,3.73778000000000E+06,5.02514800000000E+06,5.72730400000000E+06,5.09045900000000E+06,4.62263500000000E+06,4.51832400000000E+06,
MKD,,,,,,,,,,,,,,,,,,,,,,,,,,,,,,,,,,1.89700000000000E+03,3.47000000000000E+02,1.28830000000000E+04,1.30410000000000E+04,1.27470000000000E+04,1.93900000000000E+03,3.76000000000000E+03,2.17600000000000E+03,1.21970000000000E+04,8.07200000000000E+03,5.98200000000000E+03,5.10400000000000E+03,8.60000000000000E+03,7.94000000000000E+03,8.07700000000000E+03,7.52100000000000E+03,7.92600000000000E+03,7.88900000000000E+03,
MLI,,,,,,,,,,,,,,,,,,,,,,,,,,,,,,,1.00000000000000E+00,1.47040000000000E+04,7.11890000000000E+04,9.85720000000000E+04,1.72905000000000E+05,7.72190000000000E+04,5.51980000000000E+04,1.80150000000000E+04,3.70200000000000E+03,3.26000000000000E+02,3.64000000000000E+02,3.11000000000000E+02,5.31000000000000E+02,4.61000000000000E+02,4.83000000000000E+02,5.20000000000000E+02,5.94000000000000E+02,4.49400000000000E+03,1.75800000000000E+03,2.92600000000000E+03,3.66300000000000E+03,
MLT,,,,,,,,,,,,,,,,,,,,,,,,,,,,,,,1.00000000000000E+00,1.00000000000000E+00,1.00000000000000E+00,,7.00000000000000E+00,1.30000000000000E+01,1.80000000000000E+01,1.40000000000000E+01,1.70000000000000E+01,4.00000000000000E+00,1.60000000000000E+01,7.00000000000000E+00,8.00000000000000E+00,7.00000000000000E+00,3.00000000000000E+00,5.00000000000000E+00,2.80000000000000E+01,9.00000000000000E+00,9.00000000000000E+00,9.00000000000000E+00,6.00000000000000E+00,
MMR,,,,,,,,,,,,,,,,,,,,,,,,,,,,,,,2.80000000000000E+01,4.00530000000000E+04,2.45130000000000E+05,2.81574000000000E+05,2.04510000000000E+05,1.52298000000000E+05,1.43017000000000E+05,1.35772000000000E+05,1.33407000000000E+05,1.31168000000000E+05,1.37128000000000E+05,1.45856000000000E+05,1.48497000000000E+05,1.51384000000000E+05,1.61013000000000E+05,1.64864000000000E+05,2.02826000000000E+05,1.91313000000000E+05,1.84413000000000E+05,4.06669000000000E+05,4.15670000000000E+05,
MNA,,,,,,,,,,,,,,,,,,,,,,,,,,,,,,,1.22812900000000E+06,1.53022800000000E+06,1.58398100000000E+06,9.85582000000000E+05,1.01739600000000E+06,9.47987000000000E+05,9.42969000000000E+05,9.14044000000000E+05,8.76555000000000E+05,7.92876000000000E+05,7.60330000000000E+05,1.00472300000000E+06,1.06118400000000E+06,9.13536000000000E+05,8.43898000000000E+05,7.75698000000000E+05,1.94066300000000E+06,2.77564400000000E+06,2.36889700000000E+06,2.01396900000000E+06,1.90527900000000E+06,
MNE,,,,,,,,,,,,,,,,,,,,,,,,,,,,,,,,,,,,,,,,,,,,,,,1.35000000000000E+02,5.57000000000000E+02,1.28300000000000E+03,2.58200000000000E+03,3.24600000000000E+03,
MNG,,,,,,,,,,,,,,,,,,,,,,,,,,,,,,,1.00000000000000E+00,1.00000000000000E+00,1.00000000000000E+00,1.00000000000000E+00,4.00000000000000E+00,4.00000000000000E+00,7.00000000000000E+00,9.00000000000000E+00,1.90000000000000E+01,1.10000000000000E+01,2.30000000000000E+01,6.00000000000000E+01,2.80000000000000E+02,3.24000000000000E+02,4.42000000000000E+02,6.54000000000000E+02,8.67000000000000E+02,1.10100000000000E+03,1.33300000000000E+03,1.49500000000000E+03,1.72400000000000E+03,
MOZ,,,,,,,,,,,,,,,,,,,,,,,,,,,,,,,1.24799200000000E+06,1.31663600000000E+06,1.44547400000000E+06,1.17255000000000E+06,2.34497000000000E+05,1.25562000000000E+05,3.46570000000000E+04,3.36520000000000E+04,5.90000000000000E+01,1.40000000000000E+01,3.00000000000000E+01,4.60000000000000E+01,1.29000000000000E+02,1.11000000000000E+02,1.04000000000000E+02,1.04000000000000E+02,2.31000000000000E+02,2.22000000000000E+02,2.08000000000000E+02,1.36000000000000E+02,1.31000000000000E+02,
MRT,,,,,,,,,,,,,,,,,,,,,,,,,,,,,,,6.59990000000000E+04,7.98810000000000E+04,7.95940000000000E+04,6.78940000000000E+04,6.80430000000000E+04,8.43120000000000E+04,8.32340000000000E+04,7.02940000000000E+04,7.02240000000000E+04,2.97440000000000E+04,2.97520000000000E+04,2.98620000000000E+04,3.01350000000000E+04,3.05250000000000E+04,3.11310000000000E+04,3.16510000000000E+04,3.34280000000000E+04,3.31080000000000E+04,4.56010000000000E+04,3.91430000000000E+04,3.77330000000000E+04,
MUS,,,,,,,,,,,,,,,,,,,,,,,,,,,,,,,,,,,1.00000000000000E+00,1.30000000000000E+01,1.30000000000000E+01,3.00000000000000E+00,1.50000000000000E+01,6.00000000000000E+00,3.50000000000000E+01,3.50000000000000E+01,4.30000000000000E+01,6.10000000000000E+01,1.90000000000000E+01,2.70000000000000E+01,8.00000000000000E+01,7.10000000000000E+01,2.40000000000000E+01,2.30000000000000E+01,2.80000000000000E+01,
MWI,,,,,,,,,,,,,,,,,,,,,,,,,,,,,,,5.30000000000000E+01,5.00000000000000E+01,5.00000000000000E+01,4.40000000000000E+01,6.00000000000000E+01,3.70000000000000E+01,3.90000000000000E+01,3.40000000000000E+01,2.80000000000000E+01,1.10000000000000E+01,3.30000000000000E+01,2.50000000000000E+01,4.80000000000000E+01,5.90000000000000E+01,9.40000000000000E+01,1.01000000000000E+02,1.13000000000000E+02,9.70000000000000E+01,1.06000000000000E+02,1.30000000000000E+02,1.71000000000000E+02,
MYS,,,,,,,,,,,,,,,,,,,,,,,,,,,,,,,,3.00000000000000E+00,4.00000000000000E+00,4.00000000000000E+00,8.20000000000000E+01,7.90000000000000E+01,1.03000000000000E+02,8.70000000000000E+01,9.00000000000000E+01,3.30000000000000E+01,8.20000000000000E+01,7.90000000000000E+01,1.29000000000000E+02,2.39000000000000E+02,2.92000000000000E+02,3.94000000000000E+02,5.84000000000000E+02,6.15000000000000E+02,6.08000000000000E+02,5.32000000000000E+02,5.52000000000000E+02,
NAC,,,,,,,,,,,,,,,,,,,,,,,,,,,,,,,1.00000000000000E+00,1.20000000000000E+01,1.40000000000000E+01,1.60000000000000E+01,3.70000000000000E+02,2.49000000000000E+02,1.51000000000000E+02,8.60000000000000E+01,6.70000000000000E+01,1.70000000000000E+01,2.03000000000000E+02,2.24000000000000E+02,4.35000000000000E+02,4.55000000000000E+02,5.07000000000000E+02,8.07000000000000E+02,1.45100000000000E+03,2.70400000000000E+03,2.23800000000000E+03,2.46700000000000E+03,3.11600000000000E+03,
NAM,,,,,,,,,,,,,,,,,,,,,,,,,,,,,,,5.32000000000000E+02,2.04000000000000E+02,1.50000000000000E+01,1.33000000000000E+02,6.50000000000000E+01,1.30000000000000E+01,1.20000000000000E+01,2.00000000000000E+00,1.90200000000000E+03,7.01000000000000E+02,2.30800000000000E+03,2.29700000000000E+03,1.30200000000000E+03,1.29300000000000E+03,1.31400000000000E+03,1.22600000000000E+03,1.20200000000000E+03,1.12800000000000E+03,9.85000000000000E+02,9.21000000000000E+02,1.01700000000000E+03,
NER,,,,,,,,,,,,,,,,,,,,,,,,,,,,,,,,2.00000000000000E+00,2.20080000000000E+04,2.23070000000000E+04,2.20240000000000E+04,1.02910000000000E+04,1.03610000000000E+04,2.78800000000000E+03,4.23000000000000E+02,4.94000000000000E+02,4.93000000000000E+02,4.83000000000000E+02,8.34000000000000E+02,7.28000000000000E+02,6.89000000000000E+02,6.55000000000000E+02,8.18000000000000E+02,8.27000000000000E+02,7.96000000000000E+02,8.22000000000000E+02,8.03000000000000E+02,
NGA,,,,,,,,,,,,,,,,,,,,,,,,,,,,,,,1.60000000000000E+01,2.30000000000000E+01,7.60000000000000E+01,1.00000000000000E+02,5.92000000000000E+02,1.93900000000000E+03,4.75400000000000E+03,3.05900000000000E+03,3.99900000000000E+03,3.05400000000000E+03,5.74200000000000E+03,6.08400000000000E+03,2.45680000000000E+04,2.44280000000000E+04,2.38970000000000E+04,2.21280000000000E+04,1.32530000000000E+04,1.39040000000000E+04,1.41690000000000E+04,1.56090000000000E+04,1.56420000000000E+04,
NIC,,,,,,,,,,,,,,,,,,,,,,,,,,,,,,,5.26180000000000E+04,4.67890000000000E+04,4.42750000000000E+04,3.30520000000000E+04,2.85910000000000E+04,2.39380000000000E+04,2.28200000000000E+04,2.24940000000000E+04,2.13890000000000E+04,2.03090000000000E+04,5.07100000000000E+03,4.39900000000000E+03,4.04800000000000E+03,3.98300000000000E+03,1.82100000000000E+03,1.46300000000000E+03,1.82800000000000E+03,1.90000000000000E+03,1.53700000000000E+03,1.47800000000000E+03,1.43100000000000E+03,
NLD,,,,,,,,,,,,,,,,,,,,,,,,,,,,,,,,,,,7.50000000000000E+01,8.50000000000000E+01,9.60000000000000E+01,7.70000000000000E+01,5.70000000000000E+01,5.00000000000000E+00,1.52000000000000E+02,4.00000000000000E+00,2.56000000000000E+02,2.71000000000000E+02,4.80000000000000E+01,1.59000000000000E+02,3.90000000000000E+01,4.30000000000000E+01,4.60000000000000E+01,4.40000000000000E+01,5.30000000000000E+01,
NOC,,,,,,,,,,,,,,,,,,,,,,,,,,,,,,,9.60000000000000E+01,1.61000000000000E+02,1.68817000000000E+05,1.52062000000000E+05,7.79780000000000E+04,2.47318000000000E+05,3.11859000000000E+05,3.51201000000000E+05,3.39973000000000E+05,3.47208000000000E+05,3.36703000000000E+05,2.91681000000000E+05,2.76525000000000E+05,2.31862000000000E+05,2.16913000000000E+05,1.20443000000000E+05,9.62520000000000E+04,1.03245000000000E+05,9.98610000000000E+04,7.94320000000000E+04,6.89440000000000E+04,
NOR,,,,,,,,,,,,,,,,,,,,,,,,,,,,,,,,,,,2.00000000000000E+00,1.00000000000000E+00,1.00000000000000E+00,3.00000000000000E+00,4.00000000000000E+00,2.00000000000000E+00,4.00000000000000E+00,3.00000000000000E+00,5.00000000000000E+00,6.00000000000000E+00,5.00000000000000E+00,1.50000000000000E+01,4.00000000000000E+00,3.00000000000000E+00,4.00000000000000E+00,4.00000000000000E+00,7.00000000000000E+00,
NPL,,,,,,,,,,,,,,,,,,,,,,,,,,,,,,,,,1.00000000000000E+00,1.00000000000000E+00,4.00000000000000E+00,2.70000000000000E+01,4.40000000000000E+01,5.20000000000000E+01,1.01000000000000E+02,1.43000000000000E+02,2.35000000000000E+02,3.06000000000000E+02,9.02000000000000E+02,1.23100000000000E+03,1.41600000000000E+03,2.06500000000000E+03,2.64700000000000E+03,3.36400000000000E+03,4.18900000000000E+03,5.10800000000000E+03,5.88900000000000E+03,
NZL,,,,,,,,,,,,,,,,,,,,,,,,,,,,,,,,,,,,,,,,,,,2.00000000000000E+00,1.00000000000000E+00,3.00000000000000E+00,4.00000000000000E+00,8.00000000000000E+00,1.30000000000000E+01,1.00000000000000E+01,1.00000000000000E+01,1.50000000000000E+01,
OEC,,,,,,,,,,,,,,,,,,,,,,,,,,,,,,,3.75560000000000E+04,3.09250000000000E+04,2.19630000000000E+04,5.21000000000000E+04,6.25340000000000E+04,3.96690000000000E+04,2.45860000000000E+04,1.81180000000000E+04,1.17300000000000E+04,7.14200000000000E+03,8.83700000000000E+03,8.93800000000000E+03,3.33080000000000E+04,3.10180000000000E+04,2.25740000000000E+04,3.18460000000000E+04,2.90530000000000E+04,1.52700000000000E+04,1.19130000000000E+04,1.06020000000000E+04,1.04670000000000E+04,
OED,,,,,,,,,,,,,,,,,,,,,,,,,,,,,,,5.76120000000000E+04,5.13840000000000E+04,4.60950000000000E+04,8.41350000000000E+04,1.07129000000000E+05,9.91690000000000E+04,8.82650000000000E+04,7.59000000000000E+04,6.47760000000000E+04,4.59850000000000E+04,5.81430000000000E+04,5.84560000000000E+04,2.30420000000000E+05,2.19323000000000E+05,2.00097000000000E+05,2.05658000000000E+05,2.60394000000000E+05,2.43751000000000E+05,2.33447000000000E+05,1.64736000000000E+05,1.65247000000000E+05,
OMN,,,,,,,,,,,,,,,,,,,,,,,,,,,,,,,,,,,3.00000000000000E+00,1.00000000000000E+01,1.00000000000000E+01,1.00000000000000E+01,1.10000000000000E+01,2.00000000000000E+00,5.00000000000000E+00,5.00000000000000E+00,1.90000000000000E+01,1.10000000000000E+01,1.60000000000000E+01,1.20000000000000E+01,3.80000000000000E+01,4.30000000000000E+01,5.60000000000000E+01,6.40000000000000E+01,6.30000000000000E+01,
PAK,,,,,,,,,,,,,,,,,,,,,,,,,,,,,,,4.86000000000000E+02,5.25000000000000E+02,1.08600000000000E+03,1.42200000000000E+03,4.43000000000000E+03,5.27700000000000E+03,7.50200000000000E+03,5.98500000000000E+03,6.86400000000000E+03,3.89800000000000E+03,1.01330000000000E+04,1.23240000000000E+04,2.31670000000000E+04,2.43890000000000E+04,2.59490000000000E+04,2.99130000000000E+04,2.56390000000000E+04,3.18580000000000E+04,3.24030000000000E+04,3.51320000000000E+04,3.99820000000000E+04,
PAN,,,,,,,,,,,,,,,,,,,,,,,,,,,,,,,6.29000000000000E+02,6.40000000000000E+02,6.52000000000000E+02,6.77000000000000E+02,4.86000000000000E+02,1.60000000000000E+02,1.49000000000000E+02,1.22000000000000E+02,8.50000000000000E+01,1.90000000000000E+01,6.70000000000000E+01,3.70000000000000E+01,4.40000000000000E+01,3.00000000000000E+01,4.00000000000000E+01,4.20000000000000E+01,7.50000000000000E+01,1.09000000000000E+02,1.11000000000000E+02,1.05000000000000E+02,1.00000000000000E+02,
PER,,,,,,,,,,,,,,,,,,,,,,,,,,,,,,,2.56000000000000E+02,4.75000000000000E+02,7.27000000000000E+02,1.97000000000000E+03,4.33200000000000E+03,5.90400000000000E+03,6.69600000000000E+03,6.61000000000000E+03,7.06600000000000E+03,6.38200000000000E+03,6.94400000000000E+03,6.50200000000000E+03,6.39700000000000E+03,5.58100000000000E+03,4.76900000000000E+03,4.86500000000000E+03,6.98600000000000E+03,7.74300000000000E+03,7.33900000000000E+03,6.27100000000000E+03,5.83400000000000E+03,
PHL,,,,,,,,,,,,,,,,,,,,,,,,,,,,,,,1.00000000000000E+01,1.50000000000000E+01,4.60000000000000E+01,1.13000000000000E+02,4.36000000000000E+02,5.16000000000000E+02,5.98000000000000E+02,5.25000000000000E+02,4.55980000000000E+04,4.54540000000000E+04,4.54820000000000E+04,4.54670000000000E+04,4.56090000000000E+04,4.12000000000000E+02,4.34000000000000E+02,4.65000000000000E+02,8.86000000000000E+02,1.55200000000000E+03,1.35400000000000E+03,9.93000000000000E+02,9.70000000000000E+02,
PLW,,,,,,,,,,,,,,,,,,,,,,,,,,,,,,,,,,,,,,,,,,,,,,,,1.00000000000000E+00,1.00000000000000E+00,,,
PNG,,,,,,,,,,,,,,,,,,,,,,,,,,,,,,,,,,,,2.00000000000000E+03,2.00800000000000E+03,8.08000000000000E+02,2.20000000000000E+02,1.00000000000000E+00,8.00000000000000E+00,8.00000000000000E+00,1.60000000000000E+01,1.80000000000000E+01,1.80000000000000E+01,2.30000000000000E+01,3.10000000000000E+01,3.60000000000000E+01,4.60000000000000E+01,7.00000000000000E+01,8.90000000000000E+01,
POL,,,,,,,,,,,,,,,,,,,,,,,,,,,,,,,2.56320000000000E+04,2.16430000000000E+04,1.45180000000000E+04,1.33900000000000E+04,3.59380000000000E+04,1.97320000000000E+04,1.28690000000000E+04,7.29400000000000E+03,1.88000000000000E+03,1.80200000000000E+03,8.65000000000000E+02,3.19100000000000E+03,1.67120000000000E+04,1.52110000000000E+04,1.06770000000000E+04,1.96410000000000E+04,1.35130000000000E+04,2.91500000000000E+03,2.39100000000000E+03,2.05900000000000E+03,1.76400000000000E+03,
PRI,,,,,,,,,,,,,,,,,,,,,,,,,,,,,,,,,,,1.20000000000000E+01,1.20000000000000E+01,1.20000000000000E+01,,,,,,,,,,,,,,,
PRK,,,,,,,,,,,,,,,,,,,,,,,,,,,,,,,,,,,3.00000000000000E+00,7.00000000000000E+00,1.10000000000000E+01,1.00000000000000E+00,9.00000000000000E+00,1.10000000000000E+01,1.30000000000000E+01,1.90000000000000E+01,2.59000000000000E+02,3.04000000000000E+02,3.43000000000000E+02,2.88000000000000E+02,3.98000000000000E+02,6.05000000000000E+02,8.86000000000000E+02,8.81000000000000E+02,9.17000000000000E+02,
PRT,,,,,,,,,,,,,,,,,,,,,,,,,,,,,,,,,,,2.50000000000000E+01,2.50000000000000E+01,2.17000000000000E+02,2.13000000000000E+02,1.80000000000000E+01,1.30000000000000E+01,2.30000000000000E+01,1.70000000000000E+01,6.20000000000000E+01,5.50000000000000E+01,4.70000000000000E+01,7.40000000000000E+01,2.50000000000000E+01,3.20000000000000E+01,3.60000000000000E+01,3.10000000000000E+01,3.00000000000000E+01,
PRY,,,,,,,,,,,,,,,,,,,,,,,,,,,,,,,1.90000000000000E+01,8.00000000000000E+00,9.00000000000000E+00,1.40000000000000E+01,6.30000000000000E+01,5.10000000000000E+01,4.40000000000000E+01,2.00000000000000E+01,2.10000000000000E+01,5.00000000000000E+00,1.90000000000000E+01,8.00000000000000E+00,3.10000000000000E+01,3.20000000000000E+01,3.70000000000000E+01,4.40000000000000E+01,1.05000000000000E+02,1.02000000000000E+02,1.01000000000000E+02,7.70000000000000E+01,8.60000000000000E+01,
PYF,,,,,,,,,,,,,,,,,,,,,,,,,,,,,,,,,,,,,,,,,,,,,,1.00000000000000E+00,1.00000000000000E+00,,,,,
QAT,,,,,,,,,,,,,,,,,,,,,,,,,,,,,,,,,,,4.90000000000000E+01,3.00000000000000E+01,1.80000000000000E+01,1.90000000000000E+01,2.30000000000000E+01,2.00000000000000E+00,1.00000000000000E+00,,8.00000000000000E+00,1.30000000000000E+01,1.00000000000000E+01,1.10000000000000E+01,5.20000000000000E+01,6.20000000000000E+01,7.10000000000000E+01,6.80000000000000E+01,1.12000000000000E+02,
ROM,,,,,,,,,,,,,,,,,,,,,,,,,,,,,,,5.12820000000000E+04,2.71770000000000E+04,2.51180000000000E+04,2.35720000000000E+04,2.22780000000000E+04,1.69780000000000E+04,1.18710000000000E+04,8.95100000000000E+03,1.09210000000000E+04,5.76000000000000E+03,7.34800000000000E+03,6.05200000000000E+03,8.84600000000000E+03,8.38700000000000E+03,6.04500000000000E+03,1.15020000000000E+04,7.23400000000000E+03,5.30600000000000E+03,4.75600000000000E+03,4.35800000000000E+03,3.93400000000000E+03,
RUS,,,,,,,,,,,,,,,,,,,,,,,,,,,,,,,1.17736000000000E+05,1.55576000000000E+05,2.13802000000000E+05,2.43312000000000E+05,2.51393000000000E+05,2.07034000000000E+05,1.73723000000000E+05,1.98063000000000E+05,1.72730000000000E+05,2.56760000000000E+04,4.03100000000000E+04,4.51560000000000E+04,9.16110000000000E+04,9.64200000000000E+04,1.08100000000000E+05,1.03037000000000E+05,1.59382000000000E+05,9.32240000000000E+04,1.03061000000000E+05,1.09455000000000E+05,1.11948000000000E+05,
RWA,,,,,,,,,,,,,,,,,,,,,,,,,,,,,,,3.61322000000000E+05,4.31240000000000E+05,4.34736000000000E+05,4.50462000000000E+05,2.25757300000000E+06,1.81936600000000E+06,4.69136000000000E+05,6.80030000000000E+04,7.77430000000000E+04,8.66470000000000E+04,1.19056000000000E+05,8.45130000000000E+04,7.52510000000000E+04,7.52630000000000E+04,6.33080000000000E+04,1.00264000000000E+05,9.29660000000000E+04,8.09640000000000E+04,7.25300000000000E+04,1.29109000000000E+05,1.14836000000000E+05,
SAS,,,,,,,,,,,,,,,,,,,,,,,,,,,,,,,6.54852800000000E+06,6.52669900000000E+06,4.81173700000000E+06,3.61182800000000E+06,3.01279200000000E+06,2.95874300000000E+06,2.96369200000000E+06,2.96699900000000E+06,2.90906800000000E+06,2.78547800000000E+06,3.84761300000000E+06,4.07278400000000E+06,2.80001600000000E+06,2.40692300000000E+06,2.68022700000000E+06,2.43640500000000E+06,2.38647400000000E+06,3.36719600000000E+06,3.14212000000000E+06,3.19211600000000E+06,3.34456100000000E+06,
SAU,,,,,,,,,,,,,,,,,,,,,,,,,,,,,,,,,,7.00000000000000E+00,1.83000000000000E+02,2.60000000000000E+02,2.42000000000000E+02,3.58000000000000E+02,3.62000000000000E+02,3.80000000000000E+01,7.70000000000000E+01,3.50000000000000E+01,2.12000000000000E+02,2.36000000000000E+02,2.14000000000000E+02,1.51000000000000E+02,6.17000000000000E+02,7.53000000000000E+02,7.12000000000000E+02,6.33000000000000E+02,6.67000000000000E+02,
SDN,,,,,,,,,,,,,,,,,,,,,,,,,,,,,,,5.23998000000000E+05,1.96242000000000E+05,2.67767000000000E+05,3.93871000000000E+05,4.05135000000000E+05,4.45280000000000E+05,4.75305000000000E+05,3.64589000000000E+05,3.90013000000000E+05,4.78516000000000E+05,4.94363000000000E+05,4.89950000000000E+05,5.08871000000000E+05,6.06242000000000E+05,7.30647000000000E+05,6.93632000000000E+05,6.86311000000000E+05,5.23032000000000E+05,4.19248000000000E+05,3.68195000000000E+05,3.87288000000000E+05,
SEN,,,,,,,,,,,,,,,,,,,,,,,,,,,,,,,6.00060000000000E+04,2.51380000000000E+04,1.54660000000000E+04,2.26010000000000E+04,2.56220000000000E+04,1.75920000000000E+04,1.76310000000000E+04,1.71630000000000E+04,9.71600000000000E+03,1.15120000000000E+04,1.10880000000000E+04,8.55900000000000E+03,1.20690000000000E+04,8.35100000000000E+03,8.33200000000000E+03,8.67100000000000E+03,1.51630000000000E+04,1.58960000000000E+04,1.60060000000000E+04,1.63050000000000E+04,1.62670000000000E+04,
SGP,,,,,,,,,,,,,,,,,,,,,,,,,,,,,,,,,1.00000000000000E+00,1.00000000000000E+00,9.00000000000000E+00,9.00000000000000E+00,1.90000000000000E+01,2.20000000000000E+01,2.30000000000000E+01,1.20000000000000E+01,2.20000000000000E+01,1.60000000000000E+01,3.90000000000000E+01,3.50000000000000E+01,3.60000000000000E+01,3.90000000000000E+01,1.11000000000000E+02,1.16000000000000E+02,1.09000000000000E+02,8.00000000000000E+01,7.60000000000000E+01,
SLB,,,,,,,,,,,,,,,,,,,,,,,,,,,,,,,,,,,,3.40000000000000E+01,3.40000000000000E+01,3.40000000000000E+01,3.40000000000000E+01,,3.40000000000000E+01,4.20000000000000E+01,5.40000000000000E+01,6.00000000000000E+01,6.10000000000000E+01,2.70000000000000E+01,3.80000000000000E+01,4.80000000000000E+01,5.20000000000000E+01,6.60000000000000E+01,7.50000000000000E+01,
SLE,,,,,,,,,,,,,,,,,,,,,,,,,,,,,,,9.00000000000000E+00,1.42614000000000E+05,2.53592000000000E+05,3.11183000000000E+05,2.75302000000000E+05,3.79495000000000E+05,3.75104000000000E+05,3.29327000000000E+05,4.06077000000000E+05,4.88869000000000E+05,4.02807000000000E+05,1.79113000000000E+05,1.41472000000000E+05,7.05800000000000E+04,4.17970000000000E+04,4.04770000000000E+04,4.28620000000000E+04,3.21270000000000E+04,3.25360000000000E+04,1.54170000000000E+04,1.12750000000000E+04,
SLV,,,,,,,,,,,,,,,,,,,,,,,,,,,,,,,3.00190000000000E+04,3.30490000000000E+04,3.08550000000000E+04,2.61240000000000E+04,3.07350000000000E+04,2.35350000000000E+04,1.96390000000000E+04,1.71260000000000E+04,1.25910000000000E+04,1.17900000000000E+04,7.75600000000000E+03,7.15000000000000E+03,6.63200000000000E+03,5.65800000000000E+03,4.49700000000000E+03,4.28100000000000E+03,6.38800000000000E+03,6.02200000000000E+03,5.15100000000000E+03,5.05100000000000E+03,4.97600000000000E+03,
SMR,,,,,,,,,,,,,,,,,,,,,,,,,,,,,,,,,,,,,,2.00000000000000E+00,4.00000000000000E+00,4.00000000000000E+00,4.00000000000000E+00,,3.00000000000000E+00,1.00000000000000E+00,1.00000000000000E+00,1.00000000000000E+00,2.00000000000000E+00,2.00000000000000E+00,1.00000000000000E+00,1.00000000000000E+00,2.00000000000000E+00,
SOM,,,,,,,,,,,,,,,,,,,,,,,,,,,,,,,4.70174000000000E+05,7.32594000000000E+05,8.12195000000000E+05,5.74617000000000E+05,6.31426000000000E+05,6.38698000000000E+05,6.36985000000000E+05,6.08094000000000E+05,5.57959000000000E+05,4.81904000000000E+05,4.75655000000000E+05,4.40134000000000E+05,4.32254000000000E+05,4.02336000000000E+05,3.89304000000000E+05,3.95553000000000E+05,4.64252000000000E+05,4.57356000000000E+05,5.61155000000000E+05,6.78309000000000E+05,7.70154000000000E+05,
SRB,,,,,,,,,,,,,,,,,,,,,,,,,,,,,,,1.74500000000000E+03,4.58230000000000E+04,9.00810000000000E+04,5.82530000000000E+04,5.49760000000000E+04,8.61200000000000E+04,1.03967000000000E+05,1.06654000000000E+05,1.15292000000000E+05,1.56033000000000E+05,1.46748000000000E+05,1.44231000000000E+05,3.23335000000000E+05,2.96632000000000E+05,2.37032000000000E+05,1.89989000000000E+05,1.74027000000000E+05,1.65643000000000E+05,1.85935000000000E+05,1.95626000000000E+05,1.83289000000000E+05,
SSA,,,,,,,,,,,,,,,,,,,,,,,,,,,,,,,5.74698300000000E+06,5.16929100000000E+06,5.42598800000000E+06,6.32599500000000E+06,6.72808400000000E+06,5.62442500000000E+06,4.35437600000000E+06,3.54110200000000E+06,3.41374200000000E+06,3.53570000000000E+06,3.76875300000000E+06,3.46424700000000E+06,3.52462100000000E+06,3.31192200000000E+06,3.21943800000000E+06,3.09593600000000E+06,3.03969400000000E+06,2.74774600000000E+06,2.62773400000000E+06,2.66579900000000E+06,2.80946600000000E+06,
SSF,,,,,,,,,,,,,,,,,,,,,,,,,,,,,,,5.74698300000000E+06,5.16935100000000E+06,5.42610200000000E+06,6.32620900000000E+06,6.72842600000000E+06,5.62476800000000E+06,4.35477300000000E+06,3.54157500000000E+06,3.41416200000000E+06,3.53612500000000E+06,3.76926200000000E+06,3.46477600000000E+06,3.52517300000000E+06,3.31251300000000E+06,3.21999000000000E+06,3.09641300000000E+06,3.04015500000000E+06,2.74815300000000E+06,2.62811800000000E+06,2.66614300000000E+06,2.80977100000000E+06,
STP,,,,,,,,,,,,,,,,,,,,,,,,,,,,,,,1.00000000000000E+00,1.00000000000000E+00,1.00000000000000E+00,1.00000000000000E+00,3.00000000000000E+01,3.60000000000000E+01,4.90000000000000E+01,4.30000000000000E+01,4.20000000000000E+01,2.90000000000000E+01,2.50000000000000E+01,2.30000000000000E+01,3.90000000000000E+01,4.20000000000000E+01,3.90000000000000E+01,2.40000000000000E+01,3.20000000000000E+01,3.30000000000000E+01,3.50000000000000E+01,3.30000000000000E+01,3.30000000000000E+01,
SUR,,,,,,,,,,,,,,,,,,,,,,,,,,,,,,,6.62000000000000E+03,5.92100000000000E+03,2.54500000000000E+03,8.93000000000000E+02,9.15000000000000E+02,8.17000000000000E+02,7.54000000000000E+02,6.63000000000000E+02,4.91000000000000E+02,4.20000000000000E+01,3.34000000000000E+02,2.37000000000000E+02,1.03000000000000E+02,7.00000000000000E+01,5.10000000000000E+01,2.90000000000000E+01,6.60000000000000E+01,6.30000000000000E+01,5.00000000000000E+01,4.50000000000000E+01,2.50000000000000E+01,
SVK,,,,,,,,,,,,,,,,,,,,,,,,,,,,,,,,,,,1.20000000000000E+01,2.60000000000000E+01,5.70000000000000E+01,7.00000000000000E+01,1.43000000000000E+02,1.18000000000000E+02,2.20000000000000E+02,1.91000000000000E+02,5.95000000000000E+02,6.67000000000000E+02,6.19000000000000E+02,7.91000000000000E+02,7.41000000000000E+02,3.42000000000000E+02,3.31000000000000E+02,3.34000000000000E+02,1.58000000000000E+02,
SVN,,,,,,,,,,,,,,,,,,,,,,,,,,,,,,,,,,2.84290000000000E+04,1.48290000000000E+04,1.28600000000000E+04,3.36800000000000E+03,3.41400000000000E+03,3.30200000000000E+03,3.22700000000000E+03,3.28400000000000E+03,7.65000000000000E+02,8.58000000000000E+02,6.10000000000000E+02,5.82000000000000E+02,1.55000000000000E+02,1.76000000000000E+03,5.20000000000000E+01,5.20000000000000E+01,3.90000000000000E+01,3.80000000000000E+01,
SWE,,,,,,,,,,,,,,,,,,,,,,,,,,,,,,,,,,,1.10000000000000E+01,2.50000000000000E+01,3.80000000000000E+01,4.00000000000000E+01,4.10000000000000E+01,1.00000000000000E+00,1.80000000000000E+01,5.00000000000000E+00,2.80000000000000E+01,3.20000000000000E+01,2.90000000000000E+01,7.50000000000000E+01,1.60000000000000E+01,1.60000000000000E+01,1.50000000000000E+01,1.90000000000000E+01,2.50000000000000E+01,
SWZ,,,,,,,,,,,,,,,,,,,,,,,,,,,,,,,,,,1.00000000000000E+00,1.30000000000000E+01,1.50000000000000E+01,1.70000000000000E+01,2.00000000000000E+01,3.00000000000000E+01,1.00000000000000E+00,1.60000000000000E+01,1.50000000000000E+01,1.90000000000000E+01,5.00000000000000E+00,1.40000000000000E+01,1.30000000000000E+01,2.20000000000000E+01,2.50000000000000E+01,3.20000000000000E+01,3.20000000000000E+01,3.60000000000000E+01,
SYC,,,,,,,,,,,,,,,,,,,,,,,,,,,,,,,6.00000000000000E+01,6.90000000000000E+01,5.40000000000000E+01,2.80000000000000E+01,5.53000000000000E+02,3.39000000000000E+02,1.38000000000000E+02,3.30000000000000E+01,3.90000000000000E+01,3.00000000000000E+00,2.30000000000000E+01,1.30000000000000E+01,4.40000000000000E+01,3.80000000000000E+01,4.40000000000000E+01,4.00000000000000E+01,6.10000000000000E+01,5.50000000000000E+01,5.30000000000000E+01,4.90000000000000E+01,4.90000000000000E+01,
SYR,,,,,,,,,,,,,,,,,,,,,,,,,,,,,,,2.14800000000000E+03,3.03700000000000E+03,4.40800000000000E+03,5.40400000000000E+03,7.08700000000000E+03,7.99400000000000E+03,8.60900000000000E+03,8.65300000000000E+03,8.12600000000000E+03,4.64500000000000E+03,5.87100000000000E+03,4.86900000000000E+03,1.88980000000000E+04,2.08190000000000E+04,2.14400000000000E+04,1.64010000000000E+04,1.23380000000000E+04,1.36900000000000E+04,1.52110000000000E+04,1.79140000000000E+04,1.84520000000000E+04,
TCD,,,,,,,,,,,,,,,,,,,,,,,,,,,,,,,1.84806000000000E+05,7.23190000000000E+04,6.63810000000000E+04,2.12932000000000E+05,2.11971000000000E+05,5.97270000000000E+04,5.84450000000000E+04,5.50250000000000E+04,6.12980000000000E+04,5.84130000000000E+04,5.49620000000000E+04,4.62940000000000E+04,4.73490000000000E+04,5.22750000000000E+04,5.26630000000000E+04,4.84000000000000E+04,3.63000000000000E+04,5.57220000000000E+04,5.51050000000000E+04,5.50140000000000E+04,5.37330000000000E+04,
TGO,,,,,,,,,,,,,,,,,,,,,,,,,,,,,,,6.00000000000000E+00,1.80000000000000E+01,1.06000000000000E+02,2.91060000000000E+05,1.67871000000000E+05,9.31550000000000E+04,2.55930000000000E+04,7.18700000000000E+03,3.50600000000000E+03,3.30500000000000E+03,4.01600000000000E+03,4.35400000000000E+03,1.04470000000000E+04,1.06140000000000E+04,1.08180000000000E+04,5.11070000000000E+04,2.73320000000000E+04,2.25020000000000E+04,1.67500000000000E+04,1.83780000000000E+04,1.83300000000000E+04,
THA,,,,,,,,,,,,,,,,,,,,,,,,,,,,,,,2.00000000000000E+01,3.00000000000000E+01,3.50000000000000E+01,3.60000000000000E+01,1.37000000000000E+02,2.11000000000000E+02,2.84000000000000E+02,2.72000000000000E+02,2.95000000000000E+02,6.20000000000000E+01,2.17000000000000E+02,9.40000000000000E+01,3.45000000000000E+02,2.96000000000000E+02,3.19000000000000E+02,4.24000000000000E+02,3.32500000000000E+03,2.32500000000000E+03,1.81500000000000E+03,5.02000000000000E+02,3.56000000000000E+02,
TJK,,,,,,,,,,,,,,,,,,,,,,,,,,,,,,,,,6.00080000000000E+04,7.01080000000000E+04,5.71440000000000E+04,5.89560000000000E+04,1.07503000000000E+05,7.58780000000000E+04,5.63490000000000E+04,4.49810000000000E+04,5.99400000000000E+04,5.61080000000000E+04,6.32640000000000E+04,5.89360000000000E+04,5.67750000000000E+04,5.47530000000000E+04,6.45000000000000E+02,8.94000000000000E+02,5.44000000000000E+02,5.62000000000000E+02,5.77000000000000E+02,
TKM,,,,,,,,,,,,,,,,,,,,,,,,,,,,,,,,,,,7.00000000000000E+00,4.70000000000000E+01,2.93700000000000E+03,3.18100000000000E+03,1.56200000000000E+03,9.88000000000000E+02,3.00000000000000E+02,3.10000000000000E+02,7.98000000000000E+02,8.40000000000000E+02,8.12000000000000E+02,8.20000000000000E+02,6.92000000000000E+02,6.78000000000000E+02,7.36000000000000E+02,7.43000000000000E+02,7.38000000000000E+02,
TMP,,,,,,,,,,,,,,,,,,,,,,,,,,,,,,,,,,,,,,,,1.62472000000000E+05,1.22202000000000E+05,7.30420000000000E+04,2.80970000000000E+04,1.27000000000000E+02,2.21000000000000E+02,2.51000000000000E+02,2.51000000000000E+02,6.00000000000000E+00,7.00000000000000E+00,7.00000000000000E+00,8.00000000000000E+00,
TON,,,,,,,,,,,,,,,,,,,,,,,,,,,,,,,,,,,,,3.00000000000000E+00,3.00000000000000E+00,2.00000000000000E+00,2.00000000000000E+00,3.00000000000000E+00,1.00000000000000E+00,8.00000000000000E+00,1.20000000000000E+01,5.00000000000000E+00,4.00000000000000E+00,6.00000000000000E+00,5.00000000000000E+00,7.00000000000000E+00,5.00000000000000E+00,6.00000000000000E+00,
TTO,,,,,,,,,,,,,,,,,,,,,,,,,,,,,,,1.00000000000000E+00,1.00000000000000E+00,1.00000000000000E+00,1.00000000000000E+00,1.30000000000000E+01,1.40000000000000E+01,1.60000000000000E+01,2.10000000000000E+01,2.60000000000000E+01,7.00000000000000E+00,2.40000000000000E+01,1.60000000000000E+01,3.50000000000000E+01,3.80000000000000E+01,4.10000000000000E+01,6.30000000000000E+01,1.53000000000000E+02,2.11000000000000E+02,2.31000000000000E+02,2.40000000000000E+02,2.55000000000000E+02,
TUN,,,,,,,,,,,,,,,,,,,,,,,,,,,,,,,4.20000000000000E+01,6.30000000000000E+01,8.60000000000000E+01,1.04000000000000E+02,2.12000000000000E+02,3.33000000000000E+02,4.06000000000000E+02,6.98000000000000E+02,9.32000000000000E+02,9.07000000000000E+02,1.20700000000000E+03,1.36800000000000E+03,2.54200000000000E+03,2.56300000000000E+03,2.51800000000000E+03,3.12900000000000E+03,2.84400000000000E+03,2.50700000000000E+03,2.34900000000000E+03,2.26000000000000E+03,2.17400000000000E+03,
TUR,,,,,,,,,,,,,,,,,,,,,,,,,,,,,,,5.50800000000000E+03,6.45200000000000E+03,1.00890000000000E+04,1.67680000000000E+04,2.88730000000000E+04,4.48660000000000E+04,5.03540000000000E+04,4.73410000000000E+04,4.50190000000000E+04,3.69310000000000E+04,4.71550000000000E+04,4.70900000000000E+04,1.93733000000000E+05,1.85098000000000E+05,1.74585000000000E+05,1.70561000000000E+05,2.27232000000000E+05,2.21939000000000E+05,2.14378000000000E+05,1.46387000000000E+05,1.46794000000000E+05,
TZA,,,,,,,,,,,,,,,,,,,,,,,,,,,,,,,8.00000000000000E+00,1.10000000000000E+01,2.00000000000000E+01,3.20000000000000E+01,6.20000000000000E+01,6.80000000000000E+01,6.50000000000000E+01,6.60000000000000E+01,1.02000000000000E+02,3.80000000000000E+01,3.13000000000000E+02,3.78000000000000E+02,5.77000000000000E+02,7.11000000000000E+02,9.85000000000000E+02,1.54900000000000E+03,1.66800000000000E+03,1.25500000000000E+03,1.27000000000000E+03,1.20400000000000E+03,1.14400000000000E+03,
UGA,,,,,,,,,,,,,,,,,,,,,,,,,,,,,,,5.88200000000000E+04,3.93860000000000E+04,3.24560000000000E+04,3.34150000000000E+04,3.14500000000000E+04,2.41660000000000E+04,2.83390000000000E+04,5.52410000000000E+04,1.33010000000000E+04,1.07640000000000E+04,3.24140000000000E+04,4.01410000000000E+04,4.04090000000000E+04,3.52470000000000E+04,3.19600000000000E+04,3.42250000000000E+04,2.17510000000000E+04,2.13410000000000E+04,7.54800000000000E+03,7.55400000000000E+03,6.44100000000000E+03,
UKR,,,,,,,,,,,,,,,,,,,,,,,,,,,,,,,,,3.80000000000000E+01,1.34000000000000E+02,9.15000000000000E+02,1.70100000000000E+03,6.10700000000000E+03,6.34800000000000E+03,4.59600000000000E+03,1.12890000000000E+04,1.93120000000000E+04,2.67160000000000E+04,8.52630000000000E+04,9.41480000000000E+04,8.95870000000000E+04,8.42280000000000E+04,6.37230000000000E+04,2.59850000000000E+04,2.84240000000000E+04,2.45220000000000E+04,2.51110000000000E+04,
UMC,,,,,,,,,,,,,,,,,,,,,,,,,,,,,,,3.35490000000000E+05,4.53812000000000E+05,1.37643300000000E+06,1.61001500000000E+06,1.78727100000000E+06,1.65325900000000E+06,1.93066900000000E+06,1.79376500000000E+06,1.63148900000000E+06,-2.14560159300000E+09,1.30310400000000E+06,1.28987900000000E+06,1.72111200000000E+06,1.56314000000000E+06,1.42492900000000E+06,1.23805900000000E+06,1.36037700000000E+06,1.47721800000000E+06,1.34249000000000E+06,1.31290800000000E+06,1.29483800000000E+06,
URY,,,,,,,,,,,,,,,,,,,,,,,,,,,,,,,8.42000000000000E+02,6.01000000000000E+02,4.29000000000000E+02,1.62000000000000E+02,3.62000000000000E+02,2.62000000000000E+02,2.01000000000000E+02,8.90000000000000E+01,7.40000000000000E+01,1.60000000000000E+01,5.10000000000000E+01,4.60000000000000E+01,6.10000000000000E+01,5.70000000000000E+01,8.10000000000000E+01,1.11000000000000E+02,1.64000000000000E+02,1.97000000000000E+02,1.99000000000000E+02,1.88000000000000E+02,1.86000000000000E+02,
USA,,,,,,,,,,,,,,,,,,,,,,,,,,,,,,,1.00000000000000E+00,8.00000000000000E+00,1.00000000000000E+01,1.20000000000000E+01,3.66000000000000E+02,2.45000000000000E+02,1.43000000000000E+02,7.50000000000000E+01,5.10000000000000E+01,3.00000000000000E+00,1.76000000000000E+02,2.19000000000000E+02,3.83000000000000E+02,3.95000000000000E+02,4.51000000000000E+02,6.83000000000000E+02,1.35600000000000E+03,2.17400000000000E+03,2.13700000000000E+03,2.36800000000000E+03,3.02600000000000E+03,
UZB,,,,,,,,,,,,,,,,,,,,,,,,,,,,,,,,,,2.00000000000000E+00,2.90600000000000E+04,1.43000000000000E+02,6.97470000000000E+04,6.90690000000000E+04,5.17290000000000E+04,4.53640000000000E+04,3.62800000000000E+03,3.45800000000000E+03,6.88100000000000E+03,7.39100000000000E+03,4.05000000000000E+03,8.32300000000000E+03,9.10100000000000E+03,5.66300000000000E+03,6.30800000000000E+03,6.66900000000000E+03,8.84000000000000E+03,
VCT,,,,,,,,,,,,,,,,,,,,,,,,,,,,,,,,,,,7.00000000000000E+00,7.00000000000000E+00,1.30000000000000E+01,1.30000000000000E+01,2.40000000000000E+01,,4.80000000000000E+01,6.70000000000000E+01,8.10000000000000E+01,1.05000000000000E+02,1.81000000000000E+02,2.79000000000000E+02,3.87000000000000E+02,6.46000000000000E+02,7.50000000000000E+02,8.49000000000000E+02,9.46000000000000E+02,
VEN,,,,,,,,,,,,,,,,,,,,,,,,,,,,,,,,1.00000000000000E+00,4.00000000000000E+00,1.35000000000000E+02,3.71000000000000E+02,4.76000000000000E+02,5.57000000000000E+02,6.08000000000000E+02,5.70000000000000E+02,5.20000000000000E+01,4.71000000000000E+02,4.66000000000000E+02,5.26000000000000E+02,5.98000000000000E+02,1.25600000000000E+03,2.59000000000000E+03,3.82800000000000E+03,5.09400000000000E+03,5.80700000000000E+03,6.22100000000000E+03,6.70100000000000E+03,
VNM,,,,,,,,,,,,,,,,,,,,,,,,,,,,,,,4.96029000000000E+05,4.98323000000000E+05,5.17111000000000E+05,5.27627000000000E+05,5.39101000000000E+05,5.43541000000000E+05,5.18340000000000E+05,4.76795000000000E+05,4.35437000000000E+05,4.03047000000000E+05,3.70758000000000E+05,3.53224000000000E+05,3.73724000000000E+05,3.63179000000000E+05,3.49809000000000E+05,3.58268000000000E+05,3.74279000000000E+05,3.27776000000000E+05,3.28183000000000E+05,3.39289000000000E+05,3.38698000000000E+05,
VUT,,,,,,,,,,,,,,,,,,,,,,,,,,,,,,,,,,,,,,,,,,,,,,,,,,,1.00000000000000E+00,
WBG,,,,,,,,,,,,,,,,,,,,,,,,,,,,,,,8.52100000000000E+03,6.51770000000000E+04,9.53430000000000E+04,8.14740000000000E+04,8.25640000000000E+04,7.27680000000000E+04,8.02150000000000E+04,7.68210000000000E+04,7.75240000000000E+04,1.00596000000000E+05,1.10640000000000E+05,3.49161000000000E+05,4.28765000000000E+05,3.50568000000000E+05,3.50617000000000E+05,3.49673000000000E+05,3.34142000000000E+05,3.41237000000000E+05,3.40016000000000E+05,9.52010000000000E+04,9.33230000000000E+04,
WLD,,,,,,,,,,,,,,,,,,,,,,,,,,,,,,,1.98184930000000E+07,1.94273340000000E+07,2.05606390000000E+07,1.91981150000000E+07,1.87763070000000E+07,1.80687280000000E+07,1.66652200000000E+07,1.54844590000000E+07,1.50542420000000E+07,1.53672400000000E+07,1.58706540000000E+07,1.59587830000000E+07,1.46197490000000E+07,1.37292440000000E+07,1.37927900000000E+07,1.30119340000000E+07,1.43261320000000E+07,1.59517870000000E+07,1.51616230000000E+07,1.51632100000000E+07,1.53699150000000E+07,
WSM,,,,,,,,,,,,,,,,,,,,,,,,,,,,,,,,,,,1.00000000000000E+00,,,1.00000000000000E+00,1.00000000000000E+00,1.00000000000000E+00,1.00000000000000E+00,1.00000000000000E+00,,,,,3.00000000000000E+00,2.00000000000000E+00,4.00000000000000E+00,,1.00000000000000E+00,
YEM,,,,,,,,,,,,,,,,,,,,,,,,,,,,,,,8.00000000000000E+00,7.30000000000000E+01,3.10000000000000E+01,3.90000000000000E+01,1.50000000000000E+02,3.69000000000000E+02,1.15400000000000E+03,1.72100000000000E+03,1.93500000000000E+03,1.76700000000000E+03,2.11300000000000E+03,1.98500000000000E+03,1.60400000000000E+03,1.59700000000000E+03,1.60600000000000E+03,1.32500000000000E+03,1.36200000000000E+03,1.63200000000000E+03,1.77700000000000E+03,1.93400000000000E+03,2.07600000000000E+03,
ZAF,,,,,,,,,,,,,,,,,,,,,,,,,,,,,,,1.47830000000000E+04,1.12060000000000E+04,9.24100000000000E+03,9.09400000000000E+03,1.51400000000000E+03,4.88000000000000E+02,2.90000000000000E+02,2.44000000000000E+02,1.88000000000000E+02,9.10000000000000E+01,1.68000000000000E+02,1.23000000000000E+02,2.75000000000000E+02,2.88000000000000E+02,2.75000000000000E+02,2.68000000000000E+02,5.10000000000000E+02,4.74000000000000E+02,4.53000000000000E+02,3.84000000000000E+02,3.80000000000000E+02,
ZAR,,,,,,,,,,,,,,,,,,,,,,,,,,,,,,,6.74230000000000E+04,6.58160000000000E+04,8.12690000000000E+04,7.48260000000000E+04,7.32860000000000E+04,8.97380000000000E+04,1.58794000000000E+05,1.73995000000000E+05,1.58833000000000E+05,2.50034000000000E+05,3.71713000000000E+05,3.92146000000000E+05,4.21350000000000E+05,4.53465000000000E+05,4.61042000000000E+05,4.30929000000000E+05,4.01914000000000E+05,3.70386000000000E+05,3.67995000000000E+05,4.55852000000000E+05,4.76693000000000E+05,
ZMB,,,,,,,,,,,,,,,,,,,,,,,,,,,,,,,1.00000000000000E+00,1.00000000000000E+00,1.99000000000000E+03,1.57400000000000E+03,1.60000000000000E+01,2.00000000000000E+01,4.00000000000000E+01,6.30000000000000E+01,7.70000000000000E+01,3.50000000000000E+01,9.80000000000000E+01,6.20000000000000E+01,9.20000000000000E+01,1.00000000000000E+02,1.24000000000000E+02,1.51000000000000E+02,2.04000000000000E+02,1.96000000000000E+02,1.95000000000000E+02,2.06000000000000E+02,2.28000000000000E+02,
ZWE,,,,,,,,,,,,,,,,,,,,,,,,,,,,,,,4.00000000000000E+00,1.28000000000000E+02,9.00000000000000E+00,1.70000000000000E+01,4.20000000000000E+01,3.60000000000000E+01,3.40000000000000E+01,3.80000000000000E+01,4.20000000000000E+01,1.40000000000000E+01,1.09000000000000E+02,2.57000000000000E+02,4.03000000000000E+03,7.16200000000000E+03,9.56600000000000E+03,1.12510000000000E+04,1.27810000000000E+04,1.43740000000000E+04,1.68410000000000E+04,2.24490000000000E+04,2.40890000000000E+04,
