"Country Code",1960,1961,1962,1963,1964,1965,1966,1967,1968,1969,1970,1971,1972,1973,1974,1975,1976,1977,1978,1979,1980,1981,1982,1983,1984,1985,1986,1987,1988,1989,1990,1991,1992,1993,1994,1995,1996,1997,1998,1999,2000,2001,2002,2003,2004,2005,2006,2007,2008,2009,2010,2011AGO,,,,,,,,,,,,,,,,,,,,,,,,,,,,,,,,,,,,,,,,2.50000000000000E+03,5.72729980468750E+03,4.70860009765625E+03,,,,,,,,,,
ALB,,,,,,,,,,,,,,,,,,,,,,,,,,,,,,,,1.19500000000000E+03,,,,,,1.34000000000000E+03,1.83000000000000E+03,,2.20000000000000E+03,2.20000000000000E+03,,,,,,,,,,
ARM,,,,,,,,,,,,,,,,,,,,,,,,,,,,,,,1.53300000000000E+03,3.71300000000000E+03,7.13000000000000E+02,5.72000000000000E+02,7.30000000000000E+01,6.00000000000000E+01,8.23000030517578E+01,8.10999984741210E+01,7.18000030518000E+01,,,1.42800003051758E+02,2.04500000000000E+02,7.93000000000000E+01,5.53000000000000E+01,5.55000000000000E+01,9.12000000000000E+01,1.32900000000000E+02,1.79400000000000E+02,,,
AUS,,,,,,,,,,,,,,,,,,,,,,,,,,,,,,,,,,,,,,,,,,,,1.52777000000000E+05,1.62300000000000E+05,1.68630000000000E+05,1.73000000000000E+05,1.82734000000000E+05,1.89847000000000E+05,,,
AUT,,,,,,,,,,,,,,,,,,,,,,,,,,,,,,,1.33000000000000E+04,,,1.42000000000000E+04,1.47000000000000E+04,1.49000000000000E+04,1.15000000000000E+04,1.57000000000000E+04,1.61000000000000E+04,2.52000000000000E+04,2.63000000000000E+04,,,2.64110000000000E+04,,,,,,,,
AZE,,,,,,,,,,,,,,,,,,,,,,,,,,,,,,,3.28700000000000E+03,3.01000000000000E+03,1.27800000000000E+03,5.99000000000000E+02,5.85000000000000E+02,5.27000000000000E+02,4.80000000000000E+02,9.02000000000000E+02,1.39200000000000E+03,,3.51300000000000E+03,4.84300000000000E+03,5.33400000000000E+03,6.24100000000000E+03,6.96500000000000E+03,7.53600000000000E+03,8.22200000000000E+03,9.13400000000000E+03,9.94700000000000E+03,,,
BEL,,,,,,,,,,,,,,,,,,,,,,,,,,,,,,,2.50000000000000E+04,,,3.03000000000000E+04,3.53000000000000E+04,3.66000000000000E+04,3.14320000000000E+04,1.91560000000000E+04,1.74870000000000E+04,3.67880000000000E+04,3.24500000000000E+04,,,5.11470000000000E+04,5.48560000000000E+04,4.89440000000000E+04,5.15720000000000E+04,5.20000000000000E+04,4.68910000000000E+04,,,
BGR,,,,,,,,,,,,,,,,,,,,,,,,,,,,,,,,,,,,,,,,,,5.42300000000000E+03,6.60300000000000E+03,6.84000000000000E+03,9.01500000000000E+03,1.18430000000000E+04,,,,,,
BIH,,,,,,,,,,,,,,,,,,,,,,,,,,,,,,,,,,,,,,,,,3.00000000000000E+02,,3.00000000000000E+02,3.00000000000000E+02,,,,,,,,
BLR,,,,,,,,,,,,,,,,,,,,,,,,,,,,,,,,2.21280000000000E+04,1.75690000000000E+04,1.48390000000000E+04,1.24880000000000E+04,9.53900000000000E+03,8.65800000000000E+03,9.06500000000000E+03,9.68600000000000E+03,,,,1.14000000000000E+04,1.27100000000000E+04,1.39690000000000E+04,1.50450000000000E+04,1.57790000000000E+04,1.92000000000000E+04,2.27670000000000E+04,,,
CAF,,,,,,,,,,,,,,,,,,,,,,,,,,,,,,,1.44000000000000E+02,1.39000000000000E+02,1.48000000000000E+02,1.54000000000000E+02,1.03000000000000E+02,9.00000000000000E+01,6.00000000000000E+01,,,,,,,,,,,,,,,
CAN,,,,,,,,,,,,,,,,,,,,,,,,,,,,,,,,,,,,,,,,,,1.70931000000000E+05,1.77216000000000E+05,1.84774000000000E+05,,,,1.30600000000000E+05,1.29600000000000E+05,,,
CHE,,,,,,,,,,,,,,,,,,,,,,,,,,,,,,,1.04000000000000E+04,1.04000000000000E+04,1.20750000000000E+04,1.24560000000000E+04,1.30090000000000E+04,1.28680000000000E+04,1.62890000000000E+04,1.78630000000000E+04,1.95040000000000E+04,,,,2.45000000000000E+04,1.45820000000000E+04,1.50000000000000E+04,1.57530000000000E+04,1.63370000000000E+04,1.69000000000000E+04,1.62260000000000E+04,,,
CHN,,,,,,,,,,,,,,,,,,,,,,,,,,,,,,,,,,,,,5.01120000000000E+05,5.27150000000000E+05,5.48340000000000E+05,,,,6.78250000000000E+05,7.09950000000000E+05,7.84090000000000E+05,8.69320000000000E+05,9.75420000000000E+05,1.13547000000000E+06,3.28681900000000E+06,,,
COL,,,,,,,,,,,,,,,,,,,,,,,,,,,,,,,6.22700000000000E+03,,,,,,,,,,2.70960000000000E+04,3.72050000000000E+04,3.11710000000000E+04,3.70190000000000E+04,4.36280000000000E+04,3.81990000000000E+04,3.97260000000000E+04,,,,,
CRI,,,,,,,,,,,,,,,,,,,,,,,,,,,,,,,2.24300000000000E+03,,2.40000000000000E+03,2.57000000000000E+03,2.73000000000000E+03,2.90000000000000E+03,3.07000000000000E+03,,,,,,,,,,,1.06000000000000E+00,,,,
CUB,,,,,,,,,,,,,,,,,,,,,,,,,,,,,,,,,,,,,,,,,,2.76210009765625E+03,2.49500000000000E+03,1.75530000000000E+03,1.93860000000000E+03,1.86360000000000E+03,2.09450000000000E+03,2.00730000000000E+03,2.22180000000000E+03,,,
CYP,,,,,,,,,,,,,,,,,,,,,,,,,,,,,,,,,,,,,,,,,,,,,1.10000000000000E+03,1.37380004882813E+03,1.14359997558594E+03,1.18380000000000E+03,1.29470000000000E+03,,,
CZE,,,,,,,,,,,,,,,,,,,,,,,,,,,,,,,,,,,,,,,,,3.90000000000000E+04,4.02600000000000E+04,4.51000000000000E+04,4.65640000000000E+04,4.60100000000000E+04,4.34470000000000E+04,5.03690000000000E+04,4.81410000000000E+04,5.08770000000000E+04,,,
DEU,,,,,,,,,,,,,,,,,,,,,,,,,,,,,,,1.82800000000000E+05,,,2.51500000000000E+05,2.72500000000000E+05,2.79700000000000E+05,1.99196000000000E+05,2.03119000000000E+05,2.10402000000000E+05,3.41700000000000E+05,3.47200000000000E+05,,2.25467000000000E+05,2.27197000000000E+05,2.32296000000000E+05,2.37609000000000E+05,4.61900000000000E+05,4.66200000000000E+05,4.72700000000000E+05,,,
DNK,,,,,,,,,,,,,,,,,,,,,,,,,,,,,,,1.37000000000000E+04,,,1.33000000000000E+04,1.45000000000000E+04,1.47000000000000E+04,9.97600000000000E+03,1.03070000000000E+04,1.07400000000000E+04,1.69140000000000E+04,1.77660000000000E+04,,,,1.05380000000000E+04,1.10580000000000E+04,1.14950000000000E+04,1.17980000000000E+04,1.07170000000000E+04,,,
DZA,,,,,,,,,,,,,,,,,,,,,,,,,,,,,,,,1.40000000000000E+04,,,,,,,,,,,,,,,,,,,,
ECA,,,,,,,,,,,,,,,,,,,,,,,,,,,,,,,,,,,,,,1.34000000000000E+03,1.83000000000000E+03,,,2.25550000000000E+03,4.01350000000000E+03,6.24100000000000E+03,7.99000000000000E+03,1.50450000000000E+04,1.20390000000000E+04,1.92000000000000E+04,2.07285000000000E+04,,,
ECS,,,,,,,,,,,,,,,,,,,,,,,,,,,,,,,,,,1.44000000000000E+04,1.45000000000000E+04,1.48000000000000E+04,1.23805000000000E+04,1.38510000000000E+04,1.42000000000000E+04,,1.61692000000000E+04,1.24050000000000E+04,1.36140000000000E+04,1.52410000000000E+04,1.44675000000000E+04,1.59080000000000E+04,2.42570000000000E+04,2.69000000000000E+04,2.19025000000000E+04,,,
ECU,,,,,,,,,,,,,,,,,,,,,,,,,,,,,,,2.63800000000000E+03,2.77600000000000E+03,2.92900000000000E+03,3.07500000000000E+03,3.22900000000000E+03,3.39000000000000E+03,3.55800000000000E+03,3.75300000000000E+03,3.95900000000000E+03,,,4.64600000000000E+03,4.90100000000000E+03,5.17000000000000E+03,5.45300000000000E+03,1.02615600585938E+03,1.10650401500000E+03,1.19314328000000E+03,,,,
EGY,,,,,,,,,,,,,,,,,,,,,,,,,,,,,,,3.14000000000000E+04,3.14000000000000E+04,3.14000000000000E+04,3.13610000000000E+04,3.13620000000000E+04,3.14000000000000E+04,3.15000000000000E+04,,,,,,,,,,,,,,,
EMU,,,,,,,,,,,,,,,,,,,,,,,,,,,,,,,2.56500000000000E+04,,,2.76500000000000E+04,3.05000000000000E+04,2.32000000000000E+04,2.13000000000000E+04,1.91560000000000E+04,1.74870000000000E+04,3.16440000000000E+04,2.75000000000000E+04,1.60796000976562E+04,2.31870000000000E+04,2.78000000000000E+04,2.33085000000000E+04,2.51750000000000E+04,3.57160000000000E+04,,,,,
ESP,,,,,,,,,,,,,,,,,,,,,,,,,,,,,,,7.89000000000000E+04,,,8.80000000000000E+04,9.22000000000000E+04,9.46000000000000E+04,7.87440000000000E+04,7.87990000000000E+04,1.03000000000000E+05,1.23489000000000E+05,1.33078000000000E+05,,1.24472000000000E+05,1.32868000000000E+05,,,,,,,,
EST,,,,,,,,,,,,,,,,,,,,,,,,,,,,,,,4.51000000000000E+03,3.81100000000000E+03,1.45700000000000E+03,1.05600000000000E+03,1.41500000000000E+03,1.54900000000000E+03,1.89700000000000E+03,2.77300000000000E+03,3.79100000000000E+03,,,3.87500000000000E+03,4.21100000000000E+03,6.36439990234375E+03,6.83700000000000E+03,7.64100000000000E+03,,,,,,
ETH,,,,,,,,,,,,,,,,,,,,,,,,,,,,,,,,,,,,,,,,,,2.45569995117188E+03,,,,,,,,,,
EUU,,,,,,,,,,,,,,,,,,,,,,,,,,,,,,,2.63000000000000E+04,,,2.54500000000000E+04,2.63500000000000E+04,2.32000000000000E+04,2.24000000000000E+04,2.16000000000000E+04,1.74870000000000E+04,3.37390000000000E+04,2.75000000000000E+04,1.84520000000000E+04,2.42685000000000E+04,2.93270000000000E+04,2.81000000000000E+04,2.51750000000000E+04,3.53090000000000E+04,4.34530000000000E+04,3.90715000000000E+04,,,
FIN,,,,,,,,,,,,,,,,,,,,,,,,,,,,,,,2.63000000000000E+04,,,2.50000000000000E+04,2.57000000000000E+04,2.32000000000000E+04,2.41000000000000E+04,2.54000000000000E+04,2.65000000000000E+04,2.65000000000000E+04,2.75000000000000E+04,,2.90000000000000E+04,2.78000000000000E+04,2.81000000000000E+04,2.78000000000000E+04,2.64000000000000E+04,2.69000000000000E+04,2.85000000000000E+04,,,
FRA,,,,,,,,,,,,,,,,,,,,,,,,,,,,,,,1.90500000000000E+05,,,1.91200000000000E+05,2.10700000000000E+05,2.32800000000000E+05,1.66000000000000E+05,2.37200000000000E+05,2.45400000000000E+05,2.60300000000000E+05,2.66500000000000E+05,,,1.89000000000000E+05,1.97000000000000E+05,1.93000000000000E+05,3.13000000000000E+05,3.30000000000000E+05,3.13000000000000E+05,,,
GBR,,,,,,,,,,,,,,,,,,,,,,,,,,,,,,,1.33000000000000E+05,,,1.31500000000000E+05,1.40700000000000E+05,1.46700000000000E+05,1.53900000000000E+05,1.57100000000000E+05,1.59500000000000E+05,1.64562000000000E+05,1.65827000000000E+05,1.62786000000000E+05,1.64741000000000E+05,1.59000000000000E+05,1.63000000000000E+05,1.63000000000000E+05,1.66728000000000E+05,1.73077000000000E+05,,,,
GEO,,,,,,,,,,,,,,,,,,,,,,,,,,,,,,,,,,,4.38000000000000E+02,1.30000000000000E+02,1.31000000000000E+02,3.03000000000000E+02,3.85000000000000E+02,,,5.20000000000000E+02,5.43000000000000E+02,5.62000000000000E+02,5.70000000000000E+02,,5.86100000000000E+02,,,,,
GRC,,,,,,,,,,,,,,,,,,,,,,,,,,,,,,,1.09000000000000E+04,,,1.29000000000000E+04,1.28000000000000E+04,1.48000000000000E+04,1.28440000000000E+04,1.38510000000000E+04,1.35220000000000E+04,1.77000000000000E+04,1.83600000000000E+04,1.83600000000000E+04,,,,,,,,,,
HIC,,,,,,,,,,,,,,,,,,,,,,,,,,,,,,,2.64000000000000E+04,,,2.81000000000000E+04,3.11500000000000E+04,2.93000000000000E+04,2.27000000000000E+04,2.03780000000000E+04,1.95040000000000E+04,,2.69000000000000E+04,,,4.65640000000000E+04,3.28885000000000E+04,2.95050000000000E+04,3.56705000000000E+04,,,,,
HRV,,,,,,,,,,,,,,,,,,,,,,,,,,,,,,,,,,,,,1.11700000000000E+03,1.09100000000000E+03,1.15100000000000E+03,1.09000000000000E+03,6.78300000000000E+03,7.41300000000000E+03,7.41300000000000E+03,8.24100000000000E+03,8.81900000000000E+03,9.32800000000000E+03,1.01750000000000E+04,1.05020000000000E+04,1.10420000000000E+04,,,
HUN,,,,,,,,,,,,,,,,,,,,,,,,,,,,,,,,,,,,,,,,,1.33290000000000E+04,1.25000000000000E+04,1.20000000000000E+04,1.25050000000000E+04,,9.09000000000000E+03,3.04950000000000E+04,3.04950000000000E+04,3.57430000000000E+04,,,
IRL,,,,,,,,,,,,,,,,,,,,,,,,,,,,,,,5.10000000000000E+03,,,5.10000000000000E+03,5.30000000000000E+03,5.50000000000000E+03,5.70000000000000E+03,5.70000000000000E+03,5.90000000000000E+03,6.10000000000000E+03,6.50000000000000E+03,1.24050000000000E+04,1.44480000000000E+04,1.59000000000000E+04,,,,,,,,
ISL,,,,,,,,,,,,,,,,,,,,,,,,,,,,,,,,,,,,,,,,,,,8.00000000000000E+02,8.00000000000000E+02,,,,,,,,
ITA,,,,,,,,,,,,,,,,,,,,,,,,,,,,,,,1.77900000000000E+05,,,1.79400000000000E+05,1.87200000000000E+05,1.94800000000000E+05,1.39863000000000E+05,2.07200000000000E+05,2.19800000000000E+05,1.73578000000000E+05,1.84756000000000E+05,1.86510000000000E+05,1.92700000000000E+05,,,,,,,,,
JPN,,,,,,,,,,,,,,,,,,,,,,,,,,,,,,,2.74444000000000E+05,2.83776000000000E+05,2.81599000000000E+05,2.75885000000000E+05,2.80587000000000E+05,2.94648000000000E+05,3.05510000000000E+05,3.06263000000000E+05,3.00670000000000E+05,,,3.13072000000000E+05,3.12028000000000E+05,3.21862000000000E+05,3.27632000000000E+05,,,,,,,
KAZ,,,,,,,,,,,,,,,,,,,,,,,,,,,,,,,,,,,,,,,,,,,,4.01580000000000E+04,4.39100000000000E+04,4.71230000000000E+04,5.38160000000000E+04,6.14440000000000E+04,6.34810000000000E+04,,,
KEN,,,,,,,,,,,,,,,,,,,,,,,,,,,,,,,,,,,,,,,,1.85520000457764E+01,2.15030002593994E+01,2.15030002593994E+01,,,,,,,,,,
KGZ,,,,,,,,,,,,,,,,,,,,,,,,,,,,,,,,,,1.27500000000000E+03,8.11000000000000E+02,7.09000000000000E+02,8.88000000000000E+02,1.25300000000000E+03,1.01470001220700E+03,,,1.05050000000000E+03,8.75099975585938E+02,7.97200012207031E+02,8.47400024414063E+02,1.33559997558594E+03,8.19000000000000E+02,9.02500000000000E+02,,,,
KOR,,,,,,,,,,,,,,,,,,,,,,,,,,,,,,,,,,,,,,,,,,,,,1.25450000000000E+04,1.25450000000000E+04,1.25450000000000E+04,,,,,
LAO,,,,,,,,,,,,,,,,,,,,,,,,,,,,,,,1.20000000000000E+02,9.80000000000000E+01,6.00000000000000E+01,3.00000000000000E+01,,,,,,,,,,2.42300000000000E+02,3.28300000000000E+02,2.59900000000000E+02,2.66300000000000E+02,2.77100000000000E+02,2.86700000000000E+02,,,
LTU,,,,,,,,,,,,,,,,,,,,,,,,,,,,,,,,7.01900000000000E+03,4.98900000000000E+03,6.90600000000000E+03,4.57400000000000E+03,5.16000000000000E+03,4.19100000000000E+03,8.62200000000000E+03,5.61100000000000E+03,,,8.27359960937500E+03,1.07087001953125E+04,1.14622001953125E+04,1.22790000000000E+04,1.59080000000000E+04,1.81340000000000E+04,2.02780000000000E+04,2.04190000000000E+04,,,
LUX,,,,,,,,,,,,,,,,,,,,,,,,,,,,,,,,,,,,,,,,,,8.69900000000000E+03,9.14200000000000E+03,9.49300000000000E+03,,,,1.04700000000000E+04,1.02670000000000E+04,,,
LVA,,,,,,,,,,,,,,,,,,,,,,,,,,,,,,,,,,,,,,,,,,,1.93030004882813E+03,2.32369995117188E+03,2.33019995117188E+03,2.76700000000000E+03,2.72900000000000E+03,1.31420000000000E+04,1.23440000000000E+04,,,
MAR,,,,,,,,,,,,,,,,,,,,,,,,,,,,,,,,,,,,,,,,,,,,1.21100000000000E+03,1.25100000000000E+03,1.25600000000000E+03,1.21200000000000E+03,6.97000000000000E+02,7.94000000000000E+02,,,
MDA,,,,,,,,,,,,,,,,,,,,,,,,,,,,,,,,,,1.69900000000000E+03,1.25000000000000E+03,1.12100000000000E+03,9.44000000000000E+02,9.46000000000000E+02,9.40000000000000E+02,,,9.63799987792969E+02,1.15250000000000E+03,1.57700000000000E+03,,,,,,,,
MEX,,,,,,,,,,,,,,,,,,,,,,,,,,,,,,,1.08884000000000E+05,1.24924000000000E+05,1.34298000000000E+05,1.39675000000000E+05,1.58320000000000E+05,1.62827000000000E+05,1.70838000000000E+05,1.54083000000000E+05,1.79085000000000E+05,,,,1.92900000000000E+05,1.95200000000000E+05,1.99800000000000E+05,2.04217000000000E+05,2.09392000000000E+05,2.22391000000000E+05,2.27290000000000E+05,,,
MKD,,,,,,,,,,,,,,,,,,,,,,,,,,,,,,,,,,,,,,,,,8.00000000000000E+02,2.31100000000000E+03,2.69300000000000E+03,4.10000000000000E+03,5.34100000000000E+03,5.57600000000000E+03,8.29900000000000E+03,5.93800000000000E+03,3.97800000000000E+03,,,
MNG,,,,,,,,,,,,,,,,,,,,,,,,,,,,,,,,,,,,,,,,,,,,2.42399993896484E+02,2.82300000000000E+02,3.11000000000000E+02,4.58300000000000E+02,6.61900000000000E+02,7.82100000000000E+02,,,
MOZ,,,,,,,,,,,,,,,,,,,,,,,,,,,,,,,,,,,4.90000000000000E+01,7.60000000000000E+01,1.10000000000000E+02,,,,,,,,,,,,,,,
NAC,,,,,,,,,,,,,,,,,,,,,,,,,,,,,,,1.07310000000000E+06,1.10668000000000E+06,1.18990000000000E+06,1.25703600000000E+06,1.32565500000000E+06,1.34463400000000E+06,1.41909300000000E+06,1.53443000000000E+06,,1.59975400000000E+06,,1.70931000000000E+05,1.77216000000000E+05,1.10984450000000E+06,2.11653200000000E+06,1.88557600000000E+06,1.88992300000000E+06,1.30600000000000E+05,1.29600000000000E+05,,,
NAM,,,,,,,,,,,,,,,,,,,,,,,,,,,,,,,,,,,,,,,,5.10000000000000E+02,4.61000000000000E+02,5.55000000000000E+02,5.91000000000000E+02,,,,,,,,,
NLD,,,,,,,,,,,,,,,,,,,,,,,,,,,,,,,3.18000000000000E+04,,,3.95000000000000E+04,4.07000000000000E+04,4.22000000000000E+04,2.13000000000000E+04,2.16000000000000E+04,2.92000000000000E+04,4.86000000000000E+04,4.57000000000000E+04,4.57000000000000E+04,,7.71000000000000E+04,,,,,,,,
NOR,,,,,,,,,,,,,,,,,,,,,,,,,,,,,,,7.94000000000000E+03,7.69200000000000E+03,7.56100000000000E+03,8.26600000000000E+03,8.71400000000000E+03,9.65400000000000E+03,1.06510000000000E+04,1.18380000000000E+04,1.26360000000000E+04,1.50940000000000E+04,1.24830000000000E+04,1.32870000000000E+04,1.36140000000000E+04,1.41150000000000E+04,1.49660000000000E+04,,,1.63130000000000E+04,1.75640000000000E+04,,,
OEC,,,,,,,,,,,,,,,,,,,,,,,,,,,,,,,2.64000000000000E+04,,,2.81000000000000E+04,3.11500000000000E+04,2.93000000000000E+04,2.41000000000000E+04,2.16000000000000E+04,2.30020000000000E+04,3.37390000000000E+04,2.75000000000000E+04,2.86230000000000E+04,3.28100000000000E+04,4.88555000000000E+04,4.18435000000000E+04,3.93730000000000E+04,4.50320000000000E+04,4.72735000000000E+04,,,,
OED,,,,,,,,,,,,,,,,,,,,,,,,,,,,,,,2.65000000000000E+04,,,3.03000000000000E+04,3.53000000000000E+04,3.66000000000000E+04,3.11850000000000E+04,2.54000000000000E+04,2.78500000000000E+04,3.37390000000000E+04,2.75000000000000E+04,3.41610000000000E+04,4.08600000000000E+04,6.41235000000000E+04,5.04330000000000E+04,4.34470000000000E+04,5.03690000000000E+04,5.00705000000000E+04,4.88840000000000E+04,,,
PAK,,,,,,,,,,,,,,,,,,,,,,,,,,,,,,,,3.52110000000000E+04,4.15360000000000E+04,5.37190000000000E+04,6.93830000000000E+04,7.31950000000000E+04,7.84930000000000E+04,8.41740000000000E+04,9.02680000000000E+04,,,,,,,1.29249000000000E+05,,,,,,
PER,,,,,,,,,,,,,,,,,,,,,,,,,,,,,,,,,,,,,,,,7.18000030517578E+01,,,,,,,,,,,,
POL,,,,,,,,,,,,,,,,,,,,,,,,,,,,,,,4.98000000000000E+04,4.90000000000000E+04,5.88500000000000E+04,5.71000000000000E+04,6.40000000000000E+04,7.16000000000000E+04,7.92000000000000E+04,9.55000000000000E+04,6.95430000000000E+04,,,7.44030000000000E+04,7.46790000000000E+04,8.59890000000000E+04,1.10481000000000E+05,1.19740000000000E+05,1.36490000000000E+05,1.59527000000000E+05,1.74222600000000E+05,,,
PRI,,,,,,,,,,,,,,,,,,,,,,,,,,,,,,,,,,,,,,,,,,9.69999980926514E+00,,,,,,,,,,
PRT,,,,,,,,,,,,,,,,,,,,,,,,,,,,,,,1.22000000000000E+04,,,1.14000000000000E+04,1.30000000000000E+04,1.30000000000000E+04,1.19170000000000E+04,1.35000000000000E+04,1.42000000000000E+04,2.11710000000000E+04,2.04700000000000E+04,2.30850000000000E+04,2.31870000000000E+04,,,,4.50320000000000E+04,4.64060000000000E+04,,,,
ROM,,,,,,,,,,,,,,,,,,,,,,,,,,,,,,,1.38000000000000E+04,1.38000000000000E+04,1.53000000000000E+04,1.46000000000000E+04,1.72000000000000E+04,1.97480000000000E+04,2.24000000000000E+04,2.17500000000000E+04,1.57850000000000E+04,,1.42880000000000E+04,1.85440000000000E+04,2.53500000000000E+04,3.08540000000000E+04,3.72200000000000E+04,5.15310000000000E+04,,5.95170000000000E+04,5.63770000000000E+04,,,
RUS,,,,,,,,,,,,,,,,,,,,,,,,,,,,,,,,,,,,,,,,,,,,,,1.94000000000000E+05,1.99000000000000E+05,2.06000000000000E+05,,,,
SRB,,,,,,,,,,,,,,,,,,,,,,,,,,,,,,,,,,,,,,,,,2.50000000000000E+03,,,,4.52000000000000E+02,,,,1.11200000000000E+03,,,
SVK,,,,,,,,,,,,,,,,,,,,,,,,,,,,,,,,,,,,,,,,1.85160000000000E+04,1.43402001953125E+04,1.37992001953125E+04,1.49289003906250E+04,1.68590000000000E+04,1.85170000000000E+04,2.25500000000000E+04,2.21140000000000E+04,,,,,
SVN,,,,,,,,,,,,,,,,,,,,,,,,,,,,,,,,,,,,2.35900000000000E+03,2.28700000000000E+03,2.77700000000000E+03,3.84400000000000E+03,,5.25160009765625E+03,7.03520019531250E+03,6.60860009765625E+03,7.04000000000000E+03,9.00650000000000E+03,1.10325000000000E+04,1.21120000000000E+04,1.37340000000000E+04,1.62610000000000E+04,,,
SWE,,,,,,,,,,,,,,,,,,,,,,,,,,,,,,,2.65000000000000E+04,,,2.59000000000000E+04,2.70000000000000E+04,2.93000000000000E+04,3.11850000000000E+04,3.31260000000000E+04,3.65000000000000E+04,3.37390000000000E+04,3.24190000000000E+04,3.41610000000000E+04,3.66200000000000E+04,3.70480000000000E+04,3.76770000000000E+04,3.93730000000000E+04,4.01230000000000E+04,4.05000000000000E+04,4.24000000000000E+04,,,
TCD,,,,,,,,,,,,,,,,,,,,,,,,,,,,,,,,,,3.20000000000000E+02,8.50000000000000E+02,,,,,,,,,,,,,,,,,
TJK,,,,,,,,,,,,,,,,,,,,,,,,,,,,,,,,,,,,,,,,,1.45724000000000E+04,,,,,,,,,,,
TUN,,,,,,,,,,,,,,,,,,,,,,,,,,,,,,,,,,,,,,,,1.33080000000000E+04,1.45050000000000E+04,1.55100000000000E+04,1.66110000000000E+04,,,,,,,,,
TUR,,,,,,,,,,,,,,,,,,,,,,,,,,,,,,,,,,,,1.12515000000000E+05,1.35781000000000E+05,1.39789000000000E+05,1.52210000000000E+05,,,1.51421000000000E+05,1.50912000000000E+05,1.52163000000000E+05,1.56853000000000E+05,1.66831000000000E+05,1.77399000000000E+05,1.81330000000000E+05,1.81935000000000E+05,,,
UKR,,,,,,,,,,,,,,,,,,,,,,,,,,,,,,,7.96680000000000E+04,7.85190000000000E+04,6.45570000000000E+04,5.72150000000000E+04,3.52540000000000E+04,3.44780000000000E+04,2.22010000000000E+04,2.05320000000000E+04,1.82656992187500E+04,,,,2.05930996093750E+04,2.43868007812500E+04,1.97255996093750E+04,2.38946992187500E+04,2.66251000000000E+04,3.10529000000000E+04,3.68664000000000E+04,,,
USA,,,,,,,,,,,,,,,,,,,,,,,,,,,,,,,1.07310000000000E+06,1.10668000000000E+06,1.18990000000000E+06,1.25703600000000E+06,1.32565500000000E+06,1.34463400000000E+06,1.41909300000000E+06,1.53443000000000E+06,,1.59975400000000E+06,,,,2.03491500000000E+06,2.11653200000000E+06,1.88557600000000E+06,1.88992300000000E+06,,,,,
UZB,,,,,,,,,,,,,,,,,,,,,,,,,,,,,,,,,,,,,,,,,1.20000000000000E+03,1.20000000000000E+03,,,,,,1.81585000000000E+04,2.10380000000000E+04,,,
VNM,,,,,,,,,,,,,,,,,,,,,,,,,,,,,,,,,,,,,,,,,,,,1.23380000000000E+04,1.49388000000000E+04,1.76683000000000E+04,2.05371000000000E+04,2.46469000000000E+04,,,,
ZAF,,,,,,,,,,,,,,,,,,,,,,,,,,,,,,,,,,,,,,,,4.34000000000000E+02,4.34000000000000E+02,4.34000000000000E+02,,,,,,,,,,
