"Country Code",1960,1961,1962,1963,1964,1965,1966,1967,1968,1969,1970,1971,1972,1973,1974,1975,1976,1977,1978,1979,1980,1981,1982,1983,1984,1985,1986,1987,1988,1989,1990,1991,1992,1993,1994,1995,1996,1997,1998,1999,2000,2001,2002,2003,2004,2005,2006,2007,2008,2009,2010,2011AGO,,,,,,,,,,,,,,,,,,,,,,,,,,,,,,,0.00000000000000E+00,,,,,0.00000000000000E+00,,,,,0.00000000000000E+00,,,,,0.00000000000000E+00,,,,,,
ALB,,,,,,,,,,,,,,,,,,,,,,,,,,,,,,,0.00000000000000E+00,,,,,0.00000000000000E+00,,,,,0.00000000000000E+00,,,,,0.00000000000000E+00,,,,,,
ARB,,,,,,,,,,,,,,,,,,,,,,,,,,,,,,,4.81140000000000E+03,,,,,3.18110000000000E+03,,,,,5.34703126792150E+03,,,,,,,,,,,
ARE,,,,,,,,,,,,,,,,,,,,,,,,,,,,,,,4.56100000000000E+02,,,,,4.29900000000000E+02,,,,,6.60100000000000E+02,,,,,7.96200000000000E+02,,,,,,
ARG,,,,,,,,,,,,,,,,,,,,,,,,,,,,,,,1.49600000000000E+02,,,,,1.52300000000000E+02,,,,,2.24000000000000E+02,,,,,3.46200000000000E+02,,,,,,
ARM,,,,,,,,,,,,,,,,,,,,,,,,,,,,,,,0.00000000000000E+00,,,,,0.00000000000000E+00,,,,,0.00000000000000E+00,,,,,0.00000000000000E+00,,,,,,
AUS,,,,,,,,,,,,,,,,,,,,,,,,,,,,,,,3.85100000000000E+02,,,,,4.78100000000000E+02,,,,,4.71200000000000E+02,,,,,4.66600000000000E+02,,,,,,
AUT,,,,,,,,,,,,,,,,,,,,,,,,,,,,,,,5.66300000000000E+02,,,,,1.02290000000000E+03,,,,,3.77400000000000E+02,,,,,2.71600000000000E+02,,,,,,
AZE,,,,,,,,,,,,,,,,,,,,,,,,,,,,,,,0.00000000000000E+00,,,,,0.00000000000000E+00,,,,,0.00000000000000E+00,,,,,0.00000000000000E+00,,,,,,
BEL,,,,,,,,,,,,,,,,,,,,,,,,,,,,,,,3.04600000000000E+02,,,,,4.82300000000000E+02,,,,,2.53800000000000E+02,,,,,1.80200000000000E+02,,,,,,
BEN,,,,,,,,,,,,,,,,,,,,,,,,,,,,,,,0.00000000000000E+00,,,,,0.00000000000000E+00,,,,,0.00000000000000E+00,,,,,0.00000000000000E+00,,,,,,
BGD,,,,,,,,,,,,,,,,,,,,,,,,,,,,,,,0.00000000000000E+00,,,,,0.00000000000000E+00,,,,,0.00000000000000E+00,,,,,0.00000000000000E+00,,,,,,
BGR,,,,,,,,,,,,,,,,,,,,,,,,,,,,,,,0.00000000000000E+00,,,,,0.00000000000000E+00,,,,,0.00000000000000E+00,,,,,0.00000000000000E+00,,,,,,
BHR,,,,,,,,,,,,,,,,,,,,,,,,,,,,,,,0.00000000000000E+00,,,,,0.00000000000000E+00,,,,,0.00000000000000E+00,,,,,0.00000000000000E+00,,,,,,
BIH,,,,,,,,,,,,,,,,,,,,,,,,,,,,,,,0.00000000000000E+00,,,,,0.00000000000000E+00,,,,,0.00000000000000E+00,,,,,0.00000000000000E+00,,,,,,
BLR,,,,,,,,,,,,,,,,,,,,,,,,,,,,,,,0.00000000000000E+00,,,,,0.00000000000000E+00,,,,,0.00000000000000E+00,,,,,0.00000000000000E+00,,,,,,
BOL,,,,,,,,,,,,,,,,,,,,,,,,,,,,,,,0.00000000000000E+00,,,,,0.00000000000000E+00,,,,,0.00000000000000E+00,,,,,0.00000000000000E+00,,,,,,
BRA,,,,,,,,,,,,,,,,,,,,,,,,,,,,,,,1.51910000000000E+03,,,,,1.02230000000000E+03,,,,,7.64600000000000E+02,,,,,1.22300000000000E+03,,,,,,
BRN,,,,,,,,,,,,,,,,,,,,,,,,,,,,,,,0.00000000000000E+00,,,,,0.00000000000000E+00,,,,,0.00000000000000E+00,,,,,0.00000000000000E+00,,,,,,
BWA,,,,,,,,,,,,,,,,,,,,,,,,,,,,,,,0.00000000000000E+00,,,,,0.00000000000000E+00,,,,,0.00000000000000E+00,,,,,0.00000000000000E+00,,,,,,
CAN,,,,,,,,,,,,,,,,,,,,,,,,,,,,,,,3.91340000000000E+03,,,,,4.53470000000000E+03,,,,,4.83140000000000E+03,,,,,4.10440000000000E+03,,,,,,
CHE,,,,,,,,,,,,,,,,,,,,,,,,,,,,,,,7.53000000000000E+02,,,,,6.59800000000000E+02,,,,,4.08100000000000E+02,,,,,4.37600000000000E+02,,,,,,
CHL,,,,,,,,,,,,,,,,,,,,,,,,,,,,,,,1.88000000000000E+01,,,,,2.43000000000000E+01,,,,,7.90000000000000E+00,,,,,1.32000000000000E+01,,,,,,
CHN,,,,,,,,,,,,,,,,,,,,,,,,,,,,,,,1.40970000000000E+03,,,,,3.68190000000000E+03,,,,,1.04554000000000E+04,,,,,3.05110000000000E+04,,,,,,
CIV,,,,,,,,,,,,,,,,,,,,,,,,,,,,,,,0.00000000000000E+00,,,,,0.00000000000000E+00,,,,,0.00000000000000E+00,,,,,0.00000000000000E+00,,,,,,
CMR,,,,,,,,,,,,,,,,,,,,,,,,,,,,,,,0.00000000000000E+00,,,,,0.00000000000000E+00,,,,,0.00000000000000E+00,,,,,0.00000000000000E+00,,,,,,
COG,,,,,,,,,,,,,,,,,,,,,,,,,,,,,,,0.00000000000000E+00,,,,,0.00000000000000E+00,,,,,0.00000000000000E+00,,,,,0.00000000000000E+00,,,,,,
COL,,,,,,,,,,,,,,,,,,,,,,,,,,,,,,,4.17000000000000E+01,,,,,1.02300000000000E+02,,,,,2.82000000000000E+01,,,,,8.29000000000000E+01,,,,,,
CRI,,,,,,,,,,,,,,,,,,,,,,,,,,,,,,,0.00000000000000E+00,,,,,0.00000000000000E+00,,,,,0.00000000000000E+00,,,,,0.00000000000000E+00,,,,,,
CUB,,,,,,,,,,,,,,,,,,,,,,,,,,,,,,,0.00000000000000E+00,,,,,0.00000000000000E+00,,,,,0.00000000000000E+00,,,,,0.00000000000000E+00,,,,,,
CYP,,,,,,,,,,,,,,,,,,,,,,,,,,,,,,,0.00000000000000E+00,,,,,0.00000000000000E+00,,,,,0.00000000000000E+00,,,,,0.00000000000000E+00,,,,,,
CZE,,,,,,,,,,,,,,,,,,,,,,,,,,,,,,,3.30000000000000E+00,,,,,3.60000000000000E+00,,,,,1.30000000000000E+01,,,,,5.60000000000000E+00,,,,,,
DEU,,,,,,,,,,,,,,,,,,,,,,,,,,,,,,,2.22067000000000E+04,,,,,3.59913000000000E+04,,,,,1.74755000000000E+04,,,,,1.48553000000000E+04,,,,,,
DNK,,,,,,,,,,,,,,,,,,,,,,,,,,,,,,,2.52900000000000E+02,,,,,4.11300000000000E+02,,,,,2.03600000000000E+02,,,,,1.38800000000000E+02,,,,,,
DOM,,,,,,,,,,,,,,,,,,,,,,,,,,,,,,,0.00000000000000E+00,,,,,0.00000000000000E+00,,,,,0.00000000000000E+00,,,,,0.00000000000000E+00,,,,,,
DZA,,,,,,,,,,,,,,,,,,,,,,,,,,,,,,,3.26000000000000E+02,,,,,9.89000000000000E+01,,,,,3.11400000000000E+02,,,,,3.20600000000000E+02,,,,,,
EAP,,,,,,,,,,,,,,,,,,,,,,,,,,,,,,,4.66770000000000E+03,,,,,6.64410000000000E+03,,,,,1.29129869362440E+04,,,,,,,,,,,
EAS,,,,,,,,,,,,,,,,,,,,,,,,,,,,,,,2.57378000000000E+04,,,,,3.16113000000000E+04,,,,,2.64956218486922E+04,,,,,,,,,,,
ECA,,,,,,,,,,,,,,,,,,,,,,,,,,,,,,,7.23200000000000E+03,,,,,1.11602000000000E+04,,,,,1.23682570688204E+04,,,,,,,,,,,
ECS,,,,,,,,,,,,,,,,,,,,,,,,,,,,,,,4.15576000000000E+04,,,,,5.99144000000000E+04,,,,,4.43012947030737E+04,,,,,,,,,,,
ECU,,,,,,,,,,,,,,,,,,,,,,,,,,,,,,,0.00000000000000E+00,,,,,0.00000000000000E+00,,,,,0.00000000000000E+00,,,,,0.00000000000000E+00,,,,,,
EGY,,,,,,,,,,,,,,,,,,,,,,,,,,,,,,,7.78600000000000E+02,,,,,6.54400000000000E+02,,,,,1.11180000000000E+03,,,,,1.14410000000000E+03,,,,,,
EMU,,,,,,,,,,,,,,,,,,,,,,,,,,,,,,,2.96344000000000E+04,,,,,4.47037000000000E+04,,,,,3.03526093608292E+04,,,,,,,,,,,
ERI,,,,,,,,,,,,,,,,,,,,,,,,,,,,,,,0.00000000000000E+00,,,,,0.00000000000000E+00,,,,,0.00000000000000E+00,,,,,0.00000000000000E+00,,,,,,
ESP,,,,,,,,,,,,,,,,,,,,,,,,,,,,,,,4.08300000000000E+02,,,,,6.00800000000000E+02,,,,,0.00000000000000E+00,,,,,7.43800000000000E+02,,,,,,
EST,,,,,,,,,,,,,,,,,,,,,,,,,,,,,,,1.60000000000000E+00,,,,,1.80000000000000E+00,,,,,2.00000000000000E+00,,,,,2.20000000000000E+00,,,,,,
ETH,,,,,,,,,,,,,,,,,,,,,,,,,,,,,,,0.00000000000000E+00,,,,,0.00000000000000E+00,,,,,0.00000000000000E+00,,,,,0.00000000000000E+00,,,,,,
EUU,,,,,,,,,,,,,,,,,,,,,,,,,,,,,,,3.13071000000000E+04,,,,,4.75443000000000E+04,,,,,3.12023682346146E+04,,,,,,,,,,,
FIN,,,,,,,,,,,,,,,,,,,,,,,,,,,,,,,9.84000000000000E+01,,,,,1.62600000000000E+02,,,,,1.13900000000000E+02,,,,,5.09000000000000E+01,,,,,,
FRA,,,,,,,,,,,,,,,,,,,,,,,,,,,,,,,3.65720000000000E+03,,,,,3.45560000000000E+03,,,,,2.73850000000000E+03,,,,,1.89440000000000E+03,,,,,,
GAB,,,,,,,,,,,,,,,,,,,,,,,,,,,,,,,0.00000000000000E+00,,,,,0.00000000000000E+00,,,,,0.00000000000000E+00,,,,,0.00000000000000E+00,,,,,,
GBR,,,,,,,,,,,,,,,,,,,,,,,,,,,,,,,1.11850000000000E+03,,,,,1.94930000000000E+03,,,,,1.17770000000000E+03,,,,,6.38200000000000E+02,,,,,,
GEO,,,,,,,,,,,,,,,,,,,,,,,,,,,,,,,0.00000000000000E+00,,,,,0.00000000000000E+00,,,,,0.00000000000000E+00,,,,,0.00000000000000E+00,,,,,,
GHA,,,,,,,,,,,,,,,,,,,,,,,,,,,,,,,0.00000000000000E+00,,,,,0.00000000000000E+00,,,,,0.00000000000000E+00,,,,,0.00000000000000E+00,,,,,,
GIB,,,,,,,,,,,,,,,,,,,,,,,,,,,,,,,0.00000000000000E+00,,,,,0.00000000000000E+00,,,,,0.00000000000000E+00,,,,,0.00000000000000E+00,,,,,,
GRC,,,,,,,,,,,,,,,,,,,,,,,,,,,,,,,1.44300000000000E+02,,,,,2.14900000000000E+02,,,,,1.36500000000000E+02,,,,,1.24900000000000E+02,,,,,,
GTM,,,,,,,,,,,,,,,,,,,,,,,,,,,,,,,0.00000000000000E+00,,,,,0.00000000000000E+00,,,,,0.00000000000000E+00,,,,,0.00000000000000E+00,,,,,,
HIC,,,,,,,,,,,,,,,,,,,,,,,,,,,,,,,1.06050100000000E+05,,,,,1.31591600000000E+05,,,,,1.01540109258631E+05,,,,,,,,,,,
HKG,,,,,,,,,,,,,,,,,,,,,,,,,,,,,,,3.79000000000000E+02,,,,,1.59900000000000E+02,,,,,1.55300000000000E+02,,,,,1.19000000000000E+02,,,,,,
HND,,,,,,,,,,,,,,,,,,,,,,,,,,,,,,,0.00000000000000E+00,,,,,0.00000000000000E+00,,,,,0.00000000000000E+00,,,,,0.00000000000000E+00,,,,,,
HRV,,,,,,,,,,,,,,,,,,,,,,,,,,,,,,,0.00000000000000E+00,,,,,0.00000000000000E+00,,,,,0.00000000000000E+00,,,,,0.00000000000000E+00,,,,,,
HTI,,,,,,,,,,,,,,,,,,,,,,,,,,,,,,,0.00000000000000E+00,,,,,0.00000000000000E+00,,,,,0.00000000000000E+00,,,,,0.00000000000000E+00,,,,,,
HUN,,,,,,,,,,,,,,,,,,,,,,,,,,,,,,,1.86000000000000E+01,,,,,3.19000000000000E+01,,,,,2.52000000000000E+01,,,,,3.00000000000000E+01,,,,,,
IDN,,,,,,,,,,,,,,,,,,,,,,,,,,,,,,,1.06950000000000E+03,,,,,9.65500000000000E+02,,,,,8.30400000000000E+02,,,,,8.98700000000000E+02,,,,,,
IND,,,,,,,,,,,,,,,,,,,,,,,,,,,,,,,5.76200000000000E+03,,,,,3.43460000000000E+03,,,,,3.43710000000000E+03,,,,,4.57870000000000E+03,,,,,,
IRL,,,,,,,,,,,,,,,,,,,,,,,,,,,,,,,3.38000000000000E+01,,,,,8.09000000000000E+01,,,,,7.65000000000000E+01,,,,,6.18000000000000E+01,,,,,,
IRN,,,,,,,,,,,,,,,,,,,,,,,,,,,,,,,2.44310000000000E+03,,,,,1.83720000000000E+03,,,,,1.73440000000000E+03,,,,,2.46050000000000E+03,,,,,,
IRQ,,,,,,,,,,,,,,,,,,,,,,,,,,,,,,,2.52900000000000E+02,,,,,1.88600000000000E+02,,,,,1.56100000000000E+02,,,,,8.60000000000000E+01,,,,,,
ISL,,,,,,,,,,,,,,,,,,,,,,,,,,,,,,,3.50000000000000E+00,,,,,1.23000000000000E+01,,,,,1.79000000000000E+01,,,,,3.50000000000000E+00,,,,,,
ISR,,,,,,,,,,,,,,,,,,,,,,,,,,,,,,,1.00100000000000E+03,,,,,6.82500000000000E+02,,,,,1.00520000000000E+03,,,,,5.53700000000000E+02,,,,,,
ITA,,,,,,,,,,,,,,,,,,,,,,,,,,,,,,,1.64620000000000E+03,,,,,1.93720000000000E+03,,,,,1.57380000000000E+03,,,,,1.14550000000000E+03,,,,,,
JAM,,,,,,,,,,,,,,,,,,,,,,,,,,,,,,,0.00000000000000E+00,,,,,0.00000000000000E+00,,,,,0.00000000000000E+00,,,,,0.00000000000000E+00,,,,,,
JOR,,,,,,,,,,,,,,,,,,,,,,,,,,,,,,,0.00000000000000E+00,,,,,0.00000000000000E+00,,,,,0.00000000000000E+00,,,,,0.00000000000000E+00,,,,,,
JPN,,,,,,,,,,,,,,,,,,,,,,,,,,,,,,,1.44548000000000E+04,,,,,1.88312000000000E+04,,,,,7.17670000000000E+03,,,,,4.39240000000000E+03,,,,,,
KAZ,,,,,,,,,,,,,,,,,,,,,,,,,,,,,,,0.00000000000000E+00,,,,,0.00000000000000E+00,,,,,0.00000000000000E+00,,,,,0.00000000000000E+00,,,,,,
KEN,,,,,,,,,,,,,,,,,,,,,,,,,,,,,,,0.00000000000000E+00,,,,,0.00000000000000E+00,,,,,0.00000000000000E+00,,,,,0.00000000000000E+00,,,,,,
KGZ,,,,,,,,,,,,,,,,,,,,,,,,,,,,,,,0.00000000000000E+00,,,,,0.00000000000000E+00,,,,,0.00000000000000E+00,,,,,0.00000000000000E+00,,,,,,
KHM,,,,,,,,,,,,,,,,,,,,,,,,,,,,,,,0.00000000000000E+00,,,,,0.00000000000000E+00,,,,,0.00000000000000E+00,,,,,0.00000000000000E+00,,,,,,
KOR,,,,,,,,,,,,,,,,,,,,,,,,,,,,,,,3.47290000000000E+03,,,,,3.75820000000000E+03,,,,,4.05050000000000E+03,,,,,4.61560000000000E+03,,,,,,
KWT,,,,,,,,,,,,,,,,,,,,,,,,,,,,,,,2.63000000000000E+02,,,,,4.57700000000000E+02,,,,,3.50900000000000E+02,,,,,3.86000000000000E+02,,,,,,
LAC,,,,,,,,,,,,,,,,,,,,,,,,,,,,,,,2.90240000000000E+03,,,,,2.11020000000000E+03,,,,,2.32737848719760E+03,,,,,,,,,,,
LBN,,,,,,,,,,,,,,,,,,,,,,,,,,,,,,,0.00000000000000E+00,,,,,0.00000000000000E+00,,,,,0.00000000000000E+00,,,,,0.00000000000000E+00,,,,,,
LBY,,,,,,,,,,,,,,,,,,,,,,,,,,,,,,,2.82300000000000E+02,,,,,1.16700000000000E+02,,,,,1.78200000000000E+02,,,,,2.80300000000000E+02,,,,,,
LCN,,,,,,,,,,,,,,,,,,,,,,,,,,,,,,,2.90240000000000E+03,,,,,2.11020000000000E+03,,,,,2.39964483354680E+03,,,,,,,,,,,
LKA,,,,,,,,,,,,,,,,,,,,,,,,,,,,,,,0.00000000000000E+00,,,,,0.00000000000000E+00,,,,,0.00000000000000E+00,,,,,0.00000000000000E+00,,,,,,
LMC,,,,,,,,,,,,,,,,,,,,,,,,,,,,,,,9.27580000000000E+03,,,,,5.96710000000000E+03,,,,,8.21923160721720E+03,,,,,,,,,,,
LMY,,,,,,,,,,,,,,,,,,,,,,,,,,,,,,,2.69518000000000E+04,,,,,2.75097000000000E+04,,,,,3.83444098098484E+04,,,,,,,,,,,
LTU,,,,,,,,,,,,,,,,,,,,,,,,,,,,,,,0.00000000000000E+00,,,,,0.00000000000000E+00,,,,,0.00000000000000E+00,,,,,0.00000000000000E+00,,,,,,
LUX,,,,,,,,,,,,,,,,,,,,,,,,,,,,,,,0.00000000000000E+00,,,,,0.00000000000000E+00,,,,,4.05100000000000E+02,,,,,0.00000000000000E+00,,,,,,
LVA,,,,,,,,,,,,,,,,,,,,,,,,,,,,,,,0.00000000000000E+00,,,,,0.00000000000000E+00,,,,,0.00000000000000E+00,,,,,0.00000000000000E+00,,,,,,
MAR,,,,,,,,,,,,,,,,,,,,,,,,,,,,,,,0.00000000000000E+00,,,,,0.00000000000000E+00,,,,,0.00000000000000E+00,,,,,0.00000000000000E+00,,,,,,
MDA,,,,,,,,,,,,,,,,,,,,,,,,,,,,,,,0.00000000000000E+00,,,,,0.00000000000000E+00,,,,,0.00000000000000E+00,,,,,0.00000000000000E+00,,,,,,
MEA,,,,,,,,,,,,,,,,,,,,,,,,,,,,,,,8.25550000000000E+03,,,,,5.70080000000000E+03,,,,,8.23288527595500E+03,,,,,,,,,,,
MEX,,,,,,,,,,,,,,,,,,,,,,,,,,,,,,,8.63400000000000E+02,,,,,7.24100000000000E+02,,,,,8.36500000000000E+02,,,,,4.37400000000000E+02,,,,,,
MIC,,,,,,,,,,,,,,,,,,,,,,,,,,,,,,,2.69518000000000E+04,,,,,2.75097000000000E+04,,,,,3.71830300195815E+04,,,,,,,,,,,
MKD,,,,,,,,,,,,,,,,,,,,,,,,,,,,,,,0.00000000000000E+00,,,,,0.00000000000000E+00,,,,,0.00000000000000E+00,,,,,0.00000000000000E+00,,,,,,
MLT,,,,,,,,,,,,,,,,,,,,,,,,,,,,,,,0.00000000000000E+00,,,,,0.00000000000000E+00,,,,,0.00000000000000E+00,,,,,0.00000000000000E+00,,,,,,
MMR,,,,,,,,,,,,,,,,,,,,,,,,,,,,,,,0.00000000000000E+00,,,,,0.00000000000000E+00,,,,,0.00000000000000E+00,,,,,0.00000000000000E+00,,,,,,
MNA,,,,,,,,,,,,,,,,,,,,,,,,,,,,,,,4.08290000000000E+03,,,,,2.89580000000000E+03,,,,,4.62301459455410E+03,,,,,,,,,,,
MNG,,,,,,,,,,,,,,,,,,,,,,,,,,,,,,,0.00000000000000E+00,,,,,0.00000000000000E+00,,,,,0.00000000000000E+00,,,,,0.00000000000000E+00,,,,,,
MOZ,,,,,,,,,,,,,,,,,,,,,,,,,,,,,,,0.00000000000000E+00,,,,,0.00000000000000E+00,,,,,0.00000000000000E+00,,,,,0.00000000000000E+00,,,,,,
MYS,,,,,,,,,,,,,,,,,,,,,,,,,,,,,,,5.97100000000000E+02,,,,,7.23900000000000E+02,,,,,4.28700000000000E+02,,,,,6.27000000000000E+02,,,,,,
NAC,,,,,,,,,,,,,,,,,,,,,,,,,,,,,,,4.64818000000000E+04,,,,,5.50652000000000E+04,,,,,5.09756372958770E+04,,,,,,,,,,,
NAM,,,,,,,,,,,,,,,,,,,,,,,,,,,,,,,0.00000000000000E+00,,,,,0.00000000000000E+00,,,,,0.00000000000000E+00,,,,,0.00000000000000E+00,,,,,,
NGA,,,,,,,,,,,,,,,,,,,,,,,,,,,,,,,2.41900000000000E+02,,,,,3.29000000000000E+01,,,,,1.82800000000000E+02,,,,,3.26600000000000E+02,,,,,,
NIC,,,,,,,,,,,,,,,,,,,,,,,,,,,,,,,0.00000000000000E+00,,,,,0.00000000000000E+00,,,,,0.00000000000000E+00,,,,,0.00000000000000E+00,,,,,,
NLD,,,,,,,,,,,,,,,,,,,,,,,,,,,,,,,4.57400000000000E+02,,,,,6.30000000000000E+02,,,,,0.00000000000000E+00,,,,,2.34200000000000E+02,,,,,,
NOC,,,,,,,,,,,,,,,,,,,,,,,,,,,,,,,5.87950000000000E+03,,,,,3.95890000000000E+03,,,,,5.18474028041060E+03,,,,,,,,,,,
NOR,,,,,,,,,,,,,,,,,,,,,,,,,,,,,,,2.26360000000000E+03,,,,,5.39600000000000E+02,,,,,9.76500000000000E+02,,,,,3.13000000000000E+02,,,,,,
NPL,,,,,,,,,,,,,,,,,,,,,,,,,,,,,,,0.00000000000000E+00,,,,,0.00000000000000E+00,,,,,0.00000000000000E+00,,,,,0.00000000000000E+00,,,,,,
NZL,,,,,,,,,,,,,,,,,,,,,,,,,,,,,,,4.94000000000000E+01,,,,,6.33000000000000E+01,,,,,5.84000000000000E+01,,,,,5.34000000000000E+01,,,,,,
OEC,,,,,,,,,,,,,,,,,,,,,,,,,,,,,,,1.00170600000000E+05,,,,,1.27632700000000E+05,,,,,9.65173377596439E+04,,,,,,,,,,,
OED,,,,,,,,,,,,,,,,,,,,,,,,,,,,,,,1.03079900000000E+05,,,,,1.30083800000000E+05,,,,,9.83051460446478E+04,,,,,,,,,,,
OMN,,,,,,,,,,,,,,,,,,,,,,,,,,,,,,,0.00000000000000E+00,,,,,0.00000000000000E+00,,,,,0.00000000000000E+00,,,,,0.00000000000000E+00,,,,,,
PAK,,,,,,,,,,,,,,,,,,,,,,,,,,,,,,,1.00900000000000E+03,,,,,3.37800000000000E+02,,,,,3.47200000000000E+02,,,,,8.19400000000000E+02,,,,,,
PAN,,,,,,,,,,,,,,,,,,,,,,,,,,,,,,,0.00000000000000E+00,,,,,0.00000000000000E+00,,,,,0.00000000000000E+00,,,,,0.00000000000000E+00,,,,,,
PER,,,,,,,,,,,,,,,,,,,,,,,,,,,,,,,0.00000000000000E+00,,,,,0.00000000000000E+00,,,,,0.00000000000000E+00,,,,,0.00000000000000E+00,,,,,,
PHL,,,,,,,,,,,,,,,,,,,,,,,,,,,,,,,1.61900000000000E+02,,,,,3.53300000000000E+02,,,,,2.21400000000000E+02,,,,,3.65300000000000E+02,,,,,,
POL,,,,,,,,,,,,,,,,,,,,,,,,,,,,,,,1.04300000000000E+02,,,,,2.17600000000000E+02,,,,,1.89800000000000E+02,,,,,2.18500000000000E+02,,,,,,
PRK,,,,,,,,,,,,,,,,,,,,,,,,,,,,,,,0.00000000000000E+00,,,,,0.00000000000000E+00,,,,,0.00000000000000E+00,,,,,0.00000000000000E+00,,,,,,
PRT,,,,,,,,,,,,,,,,,,,,,,,,,,,,,,,1.08000000000000E+02,,,,,1.21600000000000E+02,,,,,1.28000000000000E+02,,,,,1.03800000000000E+02,,,,,,
PRY,,,,,,,,,,,,,,,,,,,,,,,,,,,,,,,0.00000000000000E+00,,,,,0.00000000000000E+00,,,,,0.00000000000000E+00,,,,,0.00000000000000E+00,,,,,,
QAT,,,,,,,,,,,,,,,,,,,,,,,,,,,,,,,0.00000000000000E+00,,,,,0.00000000000000E+00,,,,,0.00000000000000E+00,,,,,0.00000000000000E+00,,,,,,
ROM,,,,,,,,,,,,,,,,,,,,,,,,,,,,,,,1.60000000000000E+00,,,,,1.80000000000000E+00,,,,,2.00000000000000E+00,,,,,2.20000000000000E+00,,,,,,
RUS,,,,,,,,,,,,,,,,,,,,,,,,,,,,,,,4.97550000000000E+03,,,,,9.39590000000000E+03,,,,,9.07980000000000E+03,,,,,9.45720000000000E+03,,,,,,
SAS,,,,,,,,,,,,,,,,,,,,,,,,,,,,,,,6.77100000000000E+03,,,,,3.77240000000000E+03,,,,,4.34364854836310E+03,,,,,,,,,,,
SAU,,,,,,,,,,,,,,,,,,,,,,,,,,,,,,,2.45250000000000E+03,,,,,1.23490000000000E+03,,,,,1.27050000000000E+03,,,,,1.99490000000000E+03,,,,,,
SDN,,,,,,,,,,,,,,,,,,,,,,,,,,,,,,,0.00000000000000E+00,,,,,0.00000000000000E+00,,,,,0.00000000000000E+00,,,,,0.00000000000000E+00,,,,,,
SEN,,,,,,,,,,,,,,,,,,,,,,,,,,,,,,,0.00000000000000E+00,,,,,0.00000000000000E+00,,,,,0.00000000000000E+00,,,,,0.00000000000000E+00,,,,,,
SGP,,,,,,,,,,,,,,,,,,,,,,,,,,,,,,,3.73600000000000E+02,,,,,3.48600000000000E+02,,,,,2.64500000000000E+02,,,,,3.18000000000000E+02,,,,,,
SLV,,,,,,,,,,,,,,,,,,,,,,,,,,,,,,,0.00000000000000E+00,,,,,0.00000000000000E+00,,,,,0.00000000000000E+00,,,,,0.00000000000000E+00,,,,,,
SRB,,,,,,,,,,,,,,,,,,,,,,,,,,,,,,,2.27800000000000E+02,,,,,5.98000000000000E+01,,,,,2.29000000000000E+01,,,,,1.43000000000000E+01,,,,,,
SVK,,,,,,,,,,,,,,,,,,,,,,,,,,,,,,,0.00000000000000E+00,,,,,0.00000000000000E+00,,,,,2.45650000000000E+03,,,,,0.00000000000000E+00,,,,,,
SVN,,,,,,,,,,,,,,,,,,,,,,,,,,,,,,,1.60000000000000E+00,,,,,1.80000000000000E+00,,,,,2.00000000000000E+00,,,,,2.20000000000000E+00,,,,,,
SWE,,,,,,,,,,,,,,,,,,,,,,,,,,,,,,,1.73500000000000E+02,,,,,2.25100000000000E+02,,,,,1.95200000000000E+02,,,,,2.18400000000000E+02,,,,,,
SYR,,,,,,,,,,,,,,,,,,,,,,,,,,,,,,,0.00000000000000E+00,,,,,0.00000000000000E+00,,,,,0.00000000000000E+00,,,,,0.00000000000000E+00,,,,,,
TGO,,,,,,,,,,,,,,,,,,,,,,,,,,,,,,,0.00000000000000E+00,,,,,0.00000000000000E+00,,,,,0.00000000000000E+00,,,,,0.00000000000000E+00,,,,,,
THA,,,,,,,,,,,,,,,,,,,,,,,,,,,,,,,1.42950000000000E+03,,,,,9.19500000000000E+02,,,,,4.53100000000000E+02,,,,,1.10390000000000E+03,,,,,,
TJK,,,,,,,,,,,,,,,,,,,,,,,,,,,,,,,0.00000000000000E+00,,,,,0.00000000000000E+00,,,,,0.00000000000000E+00,,,,,0.00000000000000E+00,,,,,,
TKM,,,,,,,,,,,,,,,,,,,,,,,,,,,,,,,0.00000000000000E+00,,,,,0.00000000000000E+00,,,,,0.00000000000000E+00,,,,,0.00000000000000E+00,,,,,,
TTO,,,,,,,,,,,,,,,,,,,,,,,,,,,,,,,0.00000000000000E+00,,,,,0.00000000000000E+00,,,,,0.00000000000000E+00,,,,,0.00000000000000E+00,,,,,,
TUN,,,,,,,,,,,,,,,,,,,,,,,,,,,,,,,0.00000000000000E+00,,,,,0.00000000000000E+00,,,,,0.00000000000000E+00,,,,,0.00000000000000E+00,,,,,,
TUR,,,,,,,,,,,,,,,,,,,,,,,,,,,,,,,2.02710000000000E+03,,,,,1.70270000000000E+03,,,,,9.89200000000000E+02,,,,,1.60210000000000E+03,,,,,,
TZA,,,,,,,,,,,,,,,,,,,,,,,,,,,,,,,0.00000000000000E+00,,,,,0.00000000000000E+00,,,,,0.00000000000000E+00,,,,,0.00000000000000E+00,,,,,,
UKR,,,,,,,,,,,,,,,,,,,,,,,,,,,,,,,0.00000000000000E+00,,,,,0.00000000000000E+00,,,,,1.55400000000000E+02,,,,,2.91600000000000E+02,,,,,,
UMC,,,,,,,,,,,,,,,,,,,,,,,,,,,,,,,1.76760000000000E+04,,,,,2.15426000000000E+04,,,,,2.89273654123773E+04,,,,,,,,,,,
URY,,,,,,,,,,,,,,,,,,,,,,,,,,,,,,,0.00000000000000E+00,,,,,0.00000000000000E+00,,,,,0.00000000000000E+00,,,,,0.00000000000000E+00,,,,,,
USA,,,,,,,,,,,,,,,,,,,,,,,,,,,,,,,4.25684000000000E+04,,,,,5.05305000000000E+04,,,,,4.61332000000000E+04,,,,,4.26754000000000E+04,,,,,,
UZB,,,,,,,,,,,,,,,,,,,,,,,,,,,,,,,0.00000000000000E+00,,,,,0.00000000000000E+00,,,,,0.00000000000000E+00,,,,,0.00000000000000E+00,,,,,,
VEN,,,,,,,,,,,,,,,,,,,,,,,,,,,,,,,3.09800000000000E+02,,,,,8.49000000000000E+01,,,,,1.91400000000000E+02,,,,,2.25100000000000E+02,,,,,,
VNM,,,,,,,,,,,,,,,,,,,,,,,,,,,,,,,0.00000000000000E+00,,,,,0.00000000000000E+00,,,,,0.00000000000000E+00,,,,,0.00000000000000E+00,,,,,,
WLD,,,,,,,,,,,,,,,,,,,,,,,,,,,,,,,1.33001900000000E+05,,,,,1.59101300000000E+05,,,,,1.38499181033278E+05,,,,,,,,,,,
YEM,,,,,,,,,,,,,,,,,,,,,,,,,,,,,,,0.00000000000000E+00,,,,,0.00000000000000E+00,,,,,0.00000000000000E+00,,,,,0.00000000000000E+00,,,,,,
ZAF,,,,,,,,,,,,,,,,,,,,,,,,,,,,,,,1.05390000000000E+03,,,,,8.94100000000000E+02,,,,,1.01540000000000E+03,,,,,1.51970000000000E+03,,,,,,
ZAR,,,,,,,,,,,,,,,,,,,,,,,,,,,,,,,0.00000000000000E+00,,,,,0.00000000000000E+00,,,,,0.00000000000000E+00,,,,,0.00000000000000E+00,,,,,,
ZMB,,,,,,,,,,,,,,,,,,,,,,,,,,,,,,,0.00000000000000E+00,,,,,0.00000000000000E+00,,,,,0.00000000000000E+00,,,,,0.00000000000000E+00,,,,,,
ZWE,,,,,,,,,,,,,,,,,,,,,,,,,,,,,,,0.00000000000000E+00,,,,,0.00000000000000E+00,,,,,0.00000000000000E+00,,,,,0.00000000000000E+00,,,,,,
