"Country Code",1960,1961,1962,1963,1964,1965,1966,1967,1968,1969,1970,1971,1972,1973,1974,1975,1976,1977,1978,1979,1980,1981,1982,1983,1984,1985,1986,1987,1988,1989,1990,1991,1992,1993,1994,1995,1996,1997,1998,1999,2000,2001,2002,2003,2004,2005,2006,2007,2008,2009,2010,2011AGO,,,,,,,,,,,,,,,,,,,,,,,,,,,,,,,7.60000000000000E+01,,,,,9.56000000000000E+01,,,,,1.13500000000000E+02,,,,,1.39200000000000E+02,,,,,,
ALB,,,,,,,,,,,,,,,,,,,,,,,,,,,,,,,3.88000000000000E+01,,,,,2.43000000000000E+01,,,,,7.06000000000000E+01,,,,,7.34000000000000E+01,,,,,,
ARB,,,,,,,,,,,,,,,,,,,,,,,,,,,,,,,2.80850000000000E+03,,,,,3.36120000000000E+03,,,,,4.10540000000000E+03,,,,,5.36540000000000E+03,,,,,,
ARE,,,,,,,,,,,,,,,,,,,,,,,,,,,,,,,1.17400000000000E+02,,,,,1.38300000000000E+02,,,,,1.77400000000000E+02,,,,,2.13400000000000E+02,,,,,,
ARG,,,,,,,,,,,,,,,,,,,,,,,,,,,,,,,9.07000000000000E+02,,,,,1.40280000000000E+03,,,,,1.41090000000000E+03,,,,,1.74940000000000E+03,,,,,,
ARM,,,,,,,,,,,,,,,,,,,,,,,,,,,,,,,3.70000000000000E+01,,,,,3.30000000000000E+00,,,,,5.20000000000000E+00,,,,,7.00000000000000E+00,,,,,,
AUS,,,,,,,,,,,,,,,,,,,,,,,,,,,,,,,2.66710000000000E+03,,,,,2.91150000000000E+03,,,,,3.85170000000000E+03,,,,,4.70890000000000E+03,,,,,,
AUT,,,,,,,,,,,,,,,,,,,,,,,,,,,,,,,6.42900000000000E+02,,,,,7.40200000000000E+02,,,,,8.08400000000000E+02,,,,,1.02400000000000E+03,,,,,,
AZE,,,,,,,,,,,,,,,,,,,,,,,,,,,,,,,1.02100000000000E+02,,,,,5.44000000000000E+01,,,,,1.35800000000000E+02,,,,,2.18000000000000E+02,,,,,,
BEL,,,,,,,,,,,,,,,,,,,,,,,,,,,,,,,7.34500000000000E+02,,,,,8.57500000000000E+02,,,,,8.50900000000000E+02,,,,,8.23800000000000E+02,,,,,,
BEN,,,,,,,,,,,,,,,,,,,,,,,,,,,,,,,8.70000000000000E+01,,,,,9.21000000000000E+01,,,,,1.10200000000000E+02,,,,,1.17200000000000E+02,,,,,,
BGD,,,,,,,,,,,,,,,,,,,,,,,,,,,,,,,1.25750000000000E+03,,,,,1.34610000000000E+03,,,,,1.44200000000000E+03,,,,,1.61390000000000E+03,,,,,,
BGR,,,,,,,,,,,,,,,,,,,,,,,,,,,,,,,6.21300000000000E+02,,,,,3.51500000000000E+02,,,,,3.04500000000000E+02,,,,,3.48100000000000E+02,,,,,,
BHR,,,,,,,,,,,,,,,,,,,,,,,,,,,,,,,1.37000000000000E+01,,,,,1.65000000000000E+01,,,,,2.35000000000000E+01,,,,,3.25000000000000E+01,,,,,,
BIH,,,,,,,,,,,,,,,,,,,,,,,,,,,,,,,8.87800000000000E+02,,,,,9.04000000000000E+01,,,,,2.03400000000000E+02,,,,,2.95500000000000E+02,,,,,,
BLR,,,,,,,,,,,,,,,,,,,,,,,,,,,,,,,8.57100000000000E+02,,,,,4.95700000000000E+02,,,,,4.57600000000000E+02,,,,,4.98800000000000E+02,,,,,,
BOL,,,,,,,,,,,,,,,,,,,,,,,,,,,,,,,9.22000000000000E+01,,,,,1.35400000000000E+02,,,,,8.71000000000000E+01,,,,,1.13100000000000E+02,,,,,,
BRA,,,,,,,,,,,,,,,,,,,,,,,,,,,,,,,3.78210000000000E+03,,,,,4.33040000000000E+03,,,,,4.78390000000000E+03,,,,,5.62720000000000E+03,,,,,,
BRN,,,,,,,,,,,,,,,,,,,,,,,,,,,,,,,6.10000000000000E+00,,,,,1.27000000000000E+01,,,,,1.20000000000000E+01,,,,,1.30000000000000E+01,,,,,,
BWA,,,,,,,,,,,,,,,,,,,,,,,,,,,,,,,2.73000000000000E+01,,,,,3.22000000000000E+01,,,,,4.06000000000000E+01,,,,,4.19000000000000E+01,,,,,,
CAN,,,,,,,,,,,,,,,,,,,,,,,,,,,,,,,6.99170000000000E+03,,,,,7.54880000000000E+03,,,,,8.35050000000000E+03,,,,,7.31140000000000E+03,,,,,,
CHE,,,,,,,,,,,,,,,,,,,,,,,,,,,,,,,4.29400000000000E+02,,,,,5.08200000000000E+02,,,,,4.80800000000000E+02,,,,,4.34900000000000E+02,,,,,,
CHL,,,,,,,,,,,,,,,,,,,,,,,,,,,,,,,2.78600000000000E+02,,,,,3.52800000000000E+02,,,,,4.61300000000000E+02,,,,,4.80400000000000E+02,,,,,,
CHN,,,,,,,,,,,,,,,,,,,,,,,,,,,,,,,2.12192000000000E+04,,,,,2.63673000000000E+04,,,,,2.92295000000000E+04,,,,,4.49841000000000E+04,,,,,,
CIV,,,,,,,,,,,,,,,,,,,,,,,,,,,,,,,1.52800000000000E+02,,,,,1.84700000000000E+02,,,,,1.91300000000000E+02,,,,,2.01800000000000E+02,,,,,,
CMR,,,,,,,,,,,,,,,,,,,,,,,,,,,,,,,1.35600000000000E+02,,,,,2.13600000000000E+02,,,,,2.29200000000000E+02,,,,,2.39600000000000E+02,,,,,,
COG,,,,,,,,,,,,,,,,,,,,,,,,,,,,,,,2.31000000000000E+01,,,,,2.47000000000000E+01,,,,,2.72000000000000E+01,,,,,3.39000000000000E+01,,,,,,
COL,,,,,,,,,,,,,,,,,,,,,,,,,,,,,,,6.26800000000000E+02,,,,,7.10600000000000E+02,,,,,6.56600000000000E+02,,,,,6.53200000000000E+02,,,,,,
CRI,,,,,,,,,,,,,,,,,,,,,,,,,,,,,,,5.03000000000000E+01,,,,,5.96000000000000E+01,,,,,8.08000000000000E+01,,,,,5.72000000000000E+01,,,,,,
CUB,,,,,,,,,,,,,,,,,,,,,,,,,,,,,,,7.76800000000000E+02,,,,,4.05700000000000E+02,,,,,4.03100000000000E+02,,,,,2.93100000000000E+02,,,,,,
CYP,,,,,,,,,,,,,,,,,,,,,,,,,,,,,,,1.58000000000000E+01,,,,,2.18000000000000E+01,,,,,2.48000000000000E+01,,,,,3.80000000000000E+01,,,,,,
CZE,,,,,,,,,,,,,,,,,,,,,,,,,,,,,,,1.91360000000000E+03,,,,,2.29320000000000E+03,,,,,3.44660000000000E+03,,,,,3.43560000000000E+03,,,,,,
DEU,,,,,,,,,,,,,,,,,,,,,,,,,,,,,,,1.11315000000000E+04,,,,,7.66860000000000E+03,,,,,6.49650000000000E+03,,,,,5.81640000000000E+03,,,,,,
DNK,,,,,,,,,,,,,,,,,,,,,,,,,,,,,,,4.82400000000000E+02,,,,,5.86600000000000E+02,,,,,5.75100000000000E+02,,,,,5.92000000000000E+02,,,,,,
DOM,,,,,,,,,,,,,,,,,,,,,,,,,,,,,,,9.99000000000000E+01,,,,,1.26200000000000E+02,,,,,1.66700000000000E+02,,,,,1.75600000000000E+02,,,,,,
DZA,,,,,,,,,,,,,,,,,,,,,,,,,,,,,,,2.78400000000000E+02,,,,,3.33900000000000E+02,,,,,3.42200000000000E+02,,,,,3.66900000000000E+02,,,,,,
EAP,,,,,,,,,,,,,,,,,,,,,,,,,,,,,,,3.08911000000000E+04,,,,,3.75108000000000E+04,,,,,4.13101000000000E+04,,,,,5.83772000000000E+04,,,,,,
EAS,,,,,,,,,,,,,,,,,,,,,,,,,,,,,,,4.23486000000000E+04,,,,,5.20544000000000E+04,,,,,5.90458000000000E+04,,,,,7.72493000000000E+04,,,,,,
ECA,,,,,,,,,,,,,,,,,,,,,,,,,,,,,,,3.12809000000000E+04,,,,,1.98385000000000E+04,,,,,1.73774000000000E+04,,,,,1.79663000000000E+04,,,,,,
ECS,,,,,,,,,,,,,,,,,,,,,,,,,,,,,,,6.79840000000000E+04,,,,,5.45909000000000E+04,,,,,5.37117000000000E+04,,,,,5.45722000000000E+04,,,,,,
ECU,,,,,,,,,,,,,,,,,,,,,,,,,,,,,,,1.52600000000000E+02,,,,,1.79100000000000E+02,,,,,1.58000000000000E+02,,,,,1.71600000000000E+02,,,,,,
EGY,,,,,,,,,,,,,,,,,,,,,,,,,,,,,,,4.59100000000000E+02,,,,,4.88200000000000E+02,,,,,5.71700000000000E+02,,,,,1.26810000000000E+03,,,,,,
EMU,,,,,,,,,,,,,,,,,,,,,,,,,,,,,,,2.58816000000000E+04,,,,,2.30759000000000E+04,,,,,2.29047000000000E+04,,,,,2.32524000000000E+04,,,,,,
ERI,,,,,,,,,,,,,,,,,,,,,,,,,,,,,,,2.77000000000000E+01,,,,,3.45000000000000E+01,,,,,4.30000000000000E+01,,,,,4.56000000000000E+01,,,,,,
ESP,,,,,,,,,,,,,,,,,,,,,,,,,,,,,,,1.88400000000000E+03,,,,,2.19860000000000E+03,,,,,2.60370000000000E+03,,,,,2.97580000000000E+03,,,,,,
EST,,,,,,,,,,,,,,,,,,,,,,,,,,,,,,,4.66100000000000E+02,,,,,1.99700000000000E+02,,,,,1.61500000000000E+02,,,,,2.00500000000000E+02,,,,,,
ETH,,,,,,,,,,,,,,,,,,,,,,,,,,,,,,,6.55400000000000E+02,,,,,1.28910000000000E+03,,,,,1.44450000000000E+03,,,,,1.58750000000000E+03,,,,,,
EUU,,,,,,,,,,,,,,,,,,,,,,,,,,,,,,,3.74768000000000E+04,,,,,3.49112000000000E+04,,,,,3.64977000000000E+04,,,,,3.68232000000000E+04,,,,,,
FIN,,,,,,,,,,,,,,,,,,,,,,,,,,,,,,,1.40540000000000E+03,,,,,1.37160000000000E+03,,,,,1.62110000000000E+03,,,,,1.86440000000000E+03,,,,,,
FRA,,,,,,,,,,,,,,,,,,,,,,,,,,,,,,,3.63550000000000E+03,,,,,3.60120000000000E+03,,,,,3.74320000000000E+03,,,,,3.59620000000000E+03,,,,,,
GAB,,,,,,,,,,,,,,,,,,,,,,,,,,,,,,,2.64000000000000E+01,,,,,3.76000000000000E+01,,,,,3.89000000000000E+01,,,,,4.82000000000000E+01,,,,,,
GBR,,,,,,,,,,,,,,,,,,,,,,,,,,,,,,,3.45620000000000E+03,,,,,3.52020000000000E+03,,,,,3.36050000000000E+03,,,,,2.85780000000000E+03,,,,,,
GEO,,,,,,,,,,,,,,,,,,,,,,,,,,,,,,,9.49000000000000E+01,,,,,7.89000000000000E+01,,,,,6.72000000000000E+01,,,,,6.66000000000000E+01,,,,,,
GHA,,,,,,,,,,,,,,,,,,,,,,,,,,,,,,,2.43600000000000E+02,,,,,3.77700000000000E+02,,,,,4.24500000000000E+02,,,,,4.53200000000000E+02,,,,,,
GIB,,,,,,,,,,,,,,,,,,,,,,,,,,,,,,,1.00000000000000E+00,,,,,1.90000000000000E+00,,,,,2.50000000000000E+00,,,,,3.20000000000000E+00,,,,,,
GRC,,,,,,,,,,,,,,,,,,,,,,,,,,,,,,,8.29200000000000E+02,,,,,8.57900000000000E+02,,,,,9.68200000000000E+02,,,,,9.74200000000000E+02,,,,,,
GTM,,,,,,,,,,,,,,,,,,,,,,,,,,,,,,,1.78200000000000E+02,,,,,2.01700000000000E+02,,,,,2.60500000000000E+02,,,,,2.93600000000000E+02,,,,,,
HIC,,,,,,,,,,,,,,,,,,,,,,,,,,,,,,,1.25154400000000E+05,,,,,1.35627700000000E+05,,,,,1.47204800000000E+05,,,,,1.37958000000000E+05,,,,,,
HKG,,,,,,,,,,,,,,,,,,,,,,,,,,,,,,,1.47800000000000E+02,,,,,1.64000000000000E+02,,,,,1.64000000000000E+02,,,,,1.62400000000000E+02,,,,,,
HND,,,,,,,,,,,,,,,,,,,,,,,,,,,,,,,8.69000000000000E+01,,,,,9.47000000000000E+01,,,,,8.89000000000000E+01,,,,,1.10000000000000E+02,,,,,,
HPC,,,,,,,,,,,,,,,,,,,,,,,,,,,,,,,4.31450000000000E+03,,,,,5.23220000000000E+03,,,,,5.77330000000000E+03,,,,,6.41500000000000E+03,,,,,,
HRV,,,,,,,,,,,,,,,,,,,,,,,,,,,,,,,3.78300000000000E+02,,,,,2.05300000000000E+02,,,,,2.24800000000000E+02,,,,,2.42000000000000E+02,,,,,,
HTI,,,,,,,,,,,,,,,,,,,,,,,,,,,,,,,4.89000000000000E+01,,,,,5.37000000000000E+01,,,,,6.73000000000000E+01,,,,,8.96000000000000E+01,,,,,,
HUN,,,,,,,,,,,,,,,,,,,,,,,,,,,,,,,6.81100000000000E+02,,,,,4.20800000000000E+02,,,,,3.50200000000000E+02,,,,,3.44600000000000E+02,,,,,,
IDN,,,,,,,,,,,,,,,,,,,,,,,,,,,,,,,3.64450000000000E+03,,,,,3.76680000000000E+03,,,,,4.04080000000000E+03,,,,,4.29950000000000E+03,,,,,,
IND,,,,,,,,,,,,,,,,,,,,,,,,,,,,,,,1.84004000000000E+04,,,,,2.15570000000000E+04,,,,,2.33749000000000E+04,,,,,2.55819000000000E+04,,,,,,
IRL,,,,,,,,,,,,,,,,,,,,,,,,,,,,,,,2.46400000000000E+02,,,,,2.95600000000000E+02,,,,,3.30000000000000E+02,,,,,3.33100000000000E+02,,,,,,
IRN,,,,,,,,,,,,,,,,,,,,,,,,,,,,,,,1.96560000000000E+03,,,,,2.14430000000000E+03,,,,,2.14240000000000E+03,,,,,2.40780000000000E+03,,,,,,
IRQ,,,,,,,,,,,,,,,,,,,,,,,,,,,,,,,2.18300000000000E+02,,,,,2.27900000000000E+02,,,,,2.65300000000000E+02,,,,,3.32200000000000E+02,,,,,,
ISL,,,,,,,,,,,,,,,,,,,,,,,,,,,,,,,2.46000000000000E+01,,,,,2.92000000000000E+01,,,,,3.90000000000000E+01,,,,,4.29000000000000E+01,,,,,,
ISR,,,,,,,,,,,,,,,,,,,,,,,,,,,,,,,1.35800000000000E+02,,,,,1.93000000000000E+02,,,,,2.60900000000000E+02,,,,,2.73800000000000E+02,,,,,,
ITA,,,,,,,,,,,,,,,,,,,,,,,,,,,,,,,2.34850000000000E+03,,,,,2.77710000000000E+03,,,,,2.86310000000000E+03,,,,,3.31150000000000E+03,,,,,,
JAM,,,,,,,,,,,,,,,,,,,,,,,,,,,,,,,6.09000000000000E+01,,,,,5.13000000000000E+01,,,,,5.54000000000000E+01,,,,,7.24000000000000E+01,,,,,,
JOR,,,,,,,,,,,,,,,,,,,,,,,,,,,,,,,3.07000000000000E+01,,,,,3.99000000000000E+01,,,,,5.04000000000000E+01,,,,,5.49000000000000E+01,,,,,,
JPN,,,,,,,,,,,,,,,,,,,,,,,,,,,,,,,6.32750000000000E+03,,,,,8.10510000000000E+03,,,,,9.18040000000000E+03,,,,,9.24420000000000E+03,,,,,,
KAZ,,,,,,,,,,,,,,,,,,,,,,,,,,,,,,,3.56300000000000E+03,,,,,2.86730000000000E+03,,,,,1.86880000000000E+03,,,,,2.24370000000000E+03,,,,,,
KEN,,,,,,,,,,,,,,,,,,,,,,,,,,,,,,,3.59400000000000E+02,,,,,4.45900000000000E+02,,,,,4.75400000000000E+02,,,,,5.26100000000000E+02,,,,,,
KGZ,,,,,,,,,,,,,,,,,,,,,,,,,,,,,,,7.68800000000000E+02,,,,,1.06900000000000E+02,,,,,1.24600000000000E+02,,,,,1.68600000000000E+02,,,,,,
KHM,,,,,,,,,,,,,,,,,,,,,,,,,,,,,,,2.09400000000000E+02,,,,,2.12400000000000E+02,,,,,2.03500000000000E+02,,,,,2.05100000000000E+02,,,,,,
KOR,,,,,,,,,,,,,,,,,,,,,,,,,,,,,,,1.58250000000000E+03,,,,,2.36730000000000E+03,,,,,3.19170000000000E+03,,,,,3.03050000000000E+03,,,,,,
KWT,,,,,,,,,,,,,,,,,,,,,,,,,,,,,,,6.48000000000000E+01,,,,,9.17000000000000E+01,,,,,1.31600000000000E+02,,,,,1.79700000000000E+02,,,,,,
LAC,,,,,,,,,,,,,,,,,,,,,,,,,,,,,,,1.03321000000000E+04,,,,,1.17687000000000E+04,,,,,1.27489000000000E+04,,,,,1.47133000000000E+04,,,,,,
LBN,,,,,,,,,,,,,,,,,,,,,,,,,,,,,,,3.25000000000000E+01,,,,,6.95000000000000E+01,,,,,8.33000000000000E+01,,,,,8.43000000000000E+01,,,,,,
LBY,,,,,,,,,,,,,,,,,,,,,,,,,,,,,,,1.05800000000000E+02,,,,,1.21400000000000E+02,,,,,1.38000000000000E+02,,,,,1.44300000000000E+02,,,,,,
LCN,,,,,,,,,,,,,,,,,,,,,,,,,,,,,,,1.03656000000000E+04,,,,,1.17984000000000E+04,,,,,1.27944000000000E+04,,,,,1.47397000000000E+04,,,,,,
LDC,,,,,,,,,,,,,,,,,,,,,,,,,,,,,,,5.22750000000000E+03,,,,,6.79710000000000E+03,,,,,7.78420000000000E+03,,,,,8.69050000000000E+03,,,,,,
LIC,,,,,,,,,,,,,,,,,,,,,,,,,,,,,,,6.51720000000000E+03,,,,,7.06610000000000E+03,,,,,7.84680000000000E+03,,,,,8.61840000000000E+03,,,,,,
LKA,,,,,,,,,,,,,,,,,,,,,,,,,,,,,,,2.46100000000000E+02,,,,,2.84800000000000E+02,,,,,2.36800000000000E+02,,,,,2.47800000000000E+02,,,,,,
LMC,,,,,,,,,,,,,,,,,,,,,,,,,,,,,,,3.44840000000000E+04,,,,,3.74737000000000E+04,,,,,4.10416000000000E+04,,,,,4.53580000000000E+04,,,,,,
LMY,,,,,,,,,,,,,,,,,,,,,,,,,,,,,,,1.05834700000000E+05,,,,,1.09297400000000E+05,,,,,1.15083700000000E+05,,,,,1.39591800000000E+05,,,,,,
LTU,,,,,,,,,,,,,,,,,,,,,,,,,,,,,,,2.95100000000000E+02,,,,,1.40000000000000E+02,,,,,1.10600000000000E+02,,,,,1.21700000000000E+02,,,,,,
LUX,,,,,,,,,,,,,,,,,,,,,,,,,,,,,,,4.99000000000000E+01,,,,,6.70000000000000E+01,,,,,8.17000000000000E+01,,,,,9.54000000000000E+01,,,,,,
LVA,,,,,,,,,,,,,,,,,,,,,,,,,,,,,,,2.18100000000000E+02,,,,,1.33200000000000E+02,,,,,1.18500000000000E+02,,,,,1.44700000000000E+02,,,,,,
MAR,,,,,,,,,,,,,,,,,,,,,,,,,,,,,,,1.78600000000000E+02,,,,,1.11700000000000E+02,,,,,1.34800000000000E+02,,,,,1.75200000000000E+02,,,,,,
MDA,,,,,,,,,,,,,,,,,,,,,,,,,,,,,,,8.47000000000000E+01,,,,,1.12900000000000E+02,,,,,3.79000000000000E+01,,,,,4.63000000000000E+01,,,,,,
MEA,,,,,,,,,,,,,,,,,,,,,,,,,,,,,,,4.58580000000000E+03,,,,,5.27810000000000E+03,,,,,5.95990000000000E+03,,,,,7.42240000000000E+03,,,,,,
MEX,,,,,,,,,,,,,,,,,,,,,,,,,,,,,,,2.16190000000000E+03,,,,,2.44160000000000E+03,,,,,2.78670000000000E+03,,,,,3.35220000000000E+03,,,,,,
MIC,,,,,,,,,,,,,,,,,,,,,,,,,,,,,,,9.93175000000000E+04,,,,,1.02231300000000E+05,,,,,1.07236900000000E+05,,,,,1.30973400000000E+05,,,,,,
MKD,,,,,,,,,,,,,,,,,,,,,,,,,,,,,,,1.29600000000000E+02,,,,,1.36800000000000E+02,,,,,5.52000000000000E+01,,,,,9.53000000000000E+01,,,,,,
MLT,,,,,,,,,,,,,,,,,,,,,,,,,,,,,,,8.90000000000000E+00,,,,,9.60000000000000E+00,,,,,7.30000000000000E+00,,,,,8.30000000000000E+00,,,,,,
MMR,,,,,,,,,,,,,,,,,,,,,,,,,,,,,,,4.01200000000000E+02,,,,,4.52800000000000E+02,,,,,7.08000000000000E+02,,,,,7.95200000000000E+02,,,,,,
MNA,,,,,,,,,,,,,,,,,,,,,,,,,,,,,,,3.67020000000000E+03,,,,,4.10120000000000E+03,,,,,4.43100000000000E+03,,,,,5.64830000000000E+03,,,,,,
MNG,,,,,,,,,,,,,,,,,,,,,,,,,,,,,,,9.11000000000000E+01,,,,,6.95000000000000E+01,,,,,7.72000000000000E+01,,,,,7.79000000000000E+01,,,,,,
MOZ,,,,,,,,,,,,,,,,,,,,,,,,,,,,,,,2.45100000000000E+02,,,,,3.00200000000000E+02,,,,,3.03700000000000E+02,,,,,3.19400000000000E+02,,,,,,
MYS,,,,,,,,,,,,,,,,,,,,,,,,,,,,,,,2.60500000000000E+02,,,,,4.91300000000000E+02,,,,,4.76400000000000E+02,,,,,6.27400000000000E+02,,,,,,
NAC,,,,,,,,,,,,,,,,,,,,,,,,,,,,,,,7.60447000000000E+04,,,,,8.51251000000000E+04,,,,,9.15604000000000E+04,,,,,8.06795000000000E+04,,,,,,
NAM,,,,,,,,,,,,,,,,,,,,,,,,,,,,,,,5.59000000000000E+01,,,,,8.86000000000000E+01,,,,,2.81000000000000E+01,,,,,4.08000000000000E+01,,,,,,
NGA,,,,,,,,,,,,,,,,,,,,,,,,,,,,,,,1.15680000000000E+03,,,,,1.65570000000000E+03,,,,,1.75330000000000E+03,,,,,1.96720000000000E+03,,,,,,
NIC,,,,,,,,,,,,,,,,,,,,,,,,,,,,,,,7.47000000000000E+01,,,,,7.25000000000000E+01,,,,,8.90000000000000E+01,,,,,1.10700000000000E+02,,,,,,
NLD,,,,,,,,,,,,,,,,,,,,,,,,,,,,,,,7.09000000000000E+02,,,,,8.51300000000000E+02,,,,,8.82400000000000E+02,,,,,8.81000000000000E+02,,,,,,
NOC,,,,,,,,,,,,,,,,,,,,,,,,,,,,,,,1.83480000000000E+03,,,,,2.09980000000000E+03,,,,,2.72150000000000E+03,,,,,3.24180000000000E+03,,,,,,
NOR,,,,,,,,,,,,,,,,,,,,,,,,,,,,,,,3.96300000000000E+02,,,,,4.73600000000000E+02,,,,,3.69400000000000E+02,,,,,3.67800000000000E+02,,,,,,
NPL,,,,,,,,,,,,,,,,,,,,,,,,,,,,,,,4.90500000000000E+02,,,,,5.28900000000000E+02,,,,,5.63000000000000E+02,,,,,5.89200000000000E+02,,,,,,
NZL,,,,,,,,,,,,,,,,,,,,,,,,,,,,,,,2.54000000000000E+02,,,,,3.02500000000000E+02,,,,,3.56000000000000E+02,,,,,4.56600000000000E+02,,,,,,
OEC,,,,,,,,,,,,,,,,,,,,,,,,,,,,,,,1.23319600000000E+05,,,,,1.33527900000000E+05,,,,,1.44483300000000E+05,,,,,1.34716200000000E+05,,,,,,
OED,,,,,,,,,,,,,,,,,,,,,,,,,,,,,,,1.29698100000000E+05,,,,,1.39922800000000E+05,,,,,1.51678900000000E+05,,,,,1.42140300000000E+05,,,,,,
OMN,,,,,,,,,,,,,,,,,,,,,,,,,,,,,,,3.32000000000000E+01,,,,,4.44000000000000E+01,,,,,6.53000000000000E+01,,,,,8.98000000000000E+01,,,,,,
PAK,,,,,,,,,,,,,,,,,,,,,,,,,,,,,,,2.13860000000000E+03,,,,,2.59290000000000E+03,,,,,3.04610000000000E+03,,,,,3.21480000000000E+03,,,,,,
PAN,,,,,,,,,,,,,,,,,,,,,,,,,,,,,,,3.61000000000000E+01,,,,,4.05000000000000E+01,,,,,4.87000000000000E+01,,,,,5.84000000000000E+01,,,,,,
PER,,,,,,,,,,,,,,,,,,,,,,,,,,,,,,,2.24600000000000E+02,,,,,2.71600000000000E+02,,,,,2.38900000000000E+02,,,,,2.19900000000000E+02,,,,,,
PHL,,,,,,,,,,,,,,,,,,,,,,,,,,,,,,,9.33100000000000E+02,,,,,9.15600000000000E+02,,,,,1.36500000000000E+03,,,,,1.15220000000000E+03,,,,,,
POL,,,,,,,,,,,,,,,,,,,,,,,,,,,,,,,2.05310000000000E+03,,,,,2.47520000000000E+03,,,,,3.43640000000000E+03,,,,,3.91460000000000E+03,,,,,,
PRK,,,,,,,,,,,,,,,,,,,,,,,,,,,,,,,6.02300000000000E+02,,,,,4.39600000000000E+02,,,,,4.22400000000000E+02,,,,,4.50800000000000E+02,,,,,,
PRT,,,,,,,,,,,,,,,,,,,,,,,,,,,,,,,5.34500000000000E+02,,,,,6.31400000000000E+02,,,,,8.19400000000000E+02,,,,,7.14800000000000E+02,,,,,,
PRY,,,,,,,,,,,,,,,,,,,,,,,,,,,,,,,1.36300000000000E+02,,,,,1.57200000000000E+02,,,,,1.47200000000000E+02,,,,,1.51300000000000E+02,,,,,,
QAT,,,,,,,,,,,,,,,,,,,,,,,,,,,,,,,2.16000000000000E+01,,,,,2.93000000000000E+01,,,,,4.25000000000000E+01,,,,,6.78000000000000E+01,,,,,,
ROM,,,,,,,,,,,,,,,,,,,,,,,,,,,,,,,8.59900000000000E+02,,,,,7.42700000000000E+02,,,,,7.39000000000000E+02,,,,,6.85300000000000E+02,,,,,,
RUS,,,,,,,,,,,,,,,,,,,,,,,,,,,,,,,1.44640000000000E+04,,,,,8.80530000000000E+03,,,,,6.91860000000000E+03,,,,,6.77510000000000E+03,,,,,,
SAS,,,,,,,,,,,,,,,,,,,,,,,,,,,,,,,2.25331000000000E+04,,,,,2.63097000000000E+04,,,,,2.86628000000000E+04,,,,,3.12476000000000E+04,,,,,,
SAU,,,,,,,,,,,,,,,,,,,,,,,,,,,,,,,5.20200000000000E+02,,,,,6.54100000000000E+02,,,,,8.20400000000000E+02,,,,,9.08800000000000E+02,,,,,,
SDN,,,,,,,,,,,,,,,,,,,,,,,,,,,,,,,3.33000000000000E+02,,,,,4.30000000000000E+02,,,,,5.56100000000000E+02,,,,,6.32900000000000E+02,,,,,,
SEN,,,,,,,,,,,,,,,,,,,,,,,,,,,,,,,9.30000000000000E+01,,,,,1.01700000000000E+02,,,,,1.04300000000000E+02,,,,,1.10200000000000E+02,,,,,,
SGP,,,,,,,,,,,,,,,,,,,,,,,,,,,,,,,6.69000000000000E+01,,,,,8.55000000000000E+01,,,,,8.66000000000000E+01,,,,,8.47000000000000E+01,,,,,,
SLV,,,,,,,,,,,,,,,,,,,,,,,,,,,,,,,7.91000000000000E+01,,,,,9.38000000000000E+01,,,,,1.02700000000000E+02,,,,,1.12800000000000E+02,,,,,,
SRB,,,,,,,,,,,,,,,,,,,,,,,,,,,,,,,4.52500000000000E+02,,,,,2.63600000000000E+02,,,,,4.46300000000000E+02,,,,,5.85600000000000E+02,,,,,,
SSA,,,,,,,,,,,,,,,,,,,,,,,,,,,,,,,7.12730000000000E+03,,,,,9.76850000000000E+03,,,,,1.05535000000000E+04,,,,,1.16391000000000E+04,,,,,,
SSF,,,,,,,,,,,,,,,,,,,,,,,,,,,,,,,7.12730000000000E+03,,,,,9.76850000000000E+03,,,,,1.05535000000000E+04,,,,,1.16391000000000E+04,,,,,,
SVK,,,,,,,,,,,,,,,,,,,,,,,,,,,,,,,1.11500000000000E+03,,,,,8.09900000000000E+02,,,,,4.76300000000000E+02,,,,,4.42500000000000E+02,,,,,,
SVN,,,,,,,,,,,,,,,,,,,,,,,,,,,,,,,1.24500000000000E+02,,,,,1.16900000000000E+02,,,,,1.66200000000000E+02,,,,,1.52500000000000E+02,,,,,,
SWE,,,,,,,,,,,,,,,,,,,,,,,,,,,,,,,1.01440000000000E+03,,,,,1.17190000000000E+03,,,,,1.15160000000000E+03,,,,,1.12640000000000E+03,,,,,,
SYR,,,,,,,,,,,,,,,,,,,,,,,,,,,,,,,2.07100000000000E+02,,,,,2.66900000000000E+02,,,,,2.62100000000000E+02,,,,,2.41500000000000E+02,,,,,,
TGO,,,,,,,,,,,,,,,,,,,,,,,,,,,,,,,7.52000000000000E+01,,,,,8.56000000000000E+01,,,,,9.04000000000000E+01,,,,,9.65000000000000E+01,,,,,,
THA,,,,,,,,,,,,,,,,,,,,,,,,,,,,,,,2.69070000000000E+03,,,,,3.79140000000000E+03,,,,,3.60470000000000E+03,,,,,4.36920000000000E+03,,,,,,
TJK,,,,,,,,,,,,,,,,,,,,,,,,,,,,,,,3.12000000000000E+01,,,,,1.41000000000000E+01,,,,,1.09000000000000E+01,,,,,1.92000000000000E+01,,,,,,
TKM,,,,,,,,,,,,,,,,,,,,,,,,,,,,,,,7.32000000000000E+01,,,,,4.05000000000000E+01,,,,,5.12000000000000E+01,,,,,6.46000000000000E+01,,,,,,
TTO,,,,,,,,,,,,,,,,,,,,,,,,,,,,,,,3.35000000000000E+01,,,,,2.97000000000000E+01,,,,,4.55000000000000E+01,,,,,2.64000000000000E+01,,,,,,
TUN,,,,,,,,,,,,,,,,,,,,,,,,,,,,,,,1.38000000000000E+02,,,,,1.58200000000000E+02,,,,,1.98100000000000E+02,,,,,2.09300000000000E+02,,,,,,
TUR,,,,,,,,,,,,,,,,,,,,,,,,,,,,,,,3.93800000000000E+03,,,,,3.60050000000000E+03,,,,,3.94760000000000E+03,,,,,3.59150000000000E+03,,,,,,
TZA,,,,,,,,,,,,,,,,,,,,,,,,,,,,,,,3.37800000000000E+02,,,,,4.32400000000000E+02,,,,,4.77100000000000E+02,,,,,5.44600000000000E+02,,,,,,
UKR,,,,,,,,,,,,,,,,,,,,,,,,,,,,,,,3.58710000000000E+03,,,,,1.59610000000000E+03,,,,,1.11190000000000E+03,,,,,1.40150000000000E+03,,,,,,
UMC,,,,,,,,,,,,,,,,,,,,,,,,,,,,,,,6.48335000000000E+04,,,,,6.47576000000000E+04,,,,,6.61953000000000E+04,,,,,8.56154000000000E+04,,,,,,
URY,,,,,,,,,,,,,,,,,,,,,,,,,,,,,,,8.88000000000000E+01,,,,,1.06900000000000E+02,,,,,1.04700000000000E+02,,,,,1.01600000000000E+02,,,,,,
USA,,,,,,,,,,,,,,,,,,,,,,,,,,,,,,,6.90530000000000E+04,,,,,7.75763000000000E+04,,,,,8.32099000000000E+04,,,,,7.33681000000000E+04,,,,,,
UZB,,,,,,,,,,,,,,,,,,,,,,,,,,,,,,,1.76700000000000E+02,,,,,1.80100000000000E+02,,,,,5.92000000000000E+02,,,,,5.15800000000000E+02,,,,,,
VEN,,,,,,,,,,,,,,,,,,,,,,,,,,,,,,,3.89400000000000E+02,,,,,4.80600000000000E+02,,,,,5.50500000000000E+02,,,,,7.20000000000000E+02,,,,,,
VNM,,,,,,,,,,,,,,,,,,,,,,,,,,,,,,,8.39100000000000E+02,,,,,1.00410000000000E+03,,,,,1.18260000000000E+03,,,,,1.41580000000000E+03,,,,,,
WLD,,,,,,,,,,,,,,,,,,,,,,,,,,,,,,,2.30989100000000E+05,,,,,2.44925100000000E+05,,,,,2.62288500000000E+05,,,,,2.77549800000000E+05,,,,,,
YEM,,,,,,,,,,,,,,,,,,,,,,,,,,,,,,,5.61000000000000E+01,,,,,1.39300000000000E+02,,,,,2.42700000000000E+02,,,,,3.63800000000000E+02,,,,,,
ZAF,,,,,,,,,,,,,,,,,,,,,,,,,,,,,,,1.93940000000000E+03,,,,,2.41660000000000E+03,,,,,2.54000000000000E+03,,,,,2.82740000000000E+03,,,,,,
ZAR,,,,,,,,,,,,,,,,,,,,,,,,,,,,,,,6.76700000000000E+02,,,,,1.00450000000000E+03,,,,,1.11350000000000E+03,,,,,1.22460000000000E+03,,,,,,
ZMB,,,,,,,,,,,,,,,,,,,,,,,,,,,,,,,1.57000000000000E+02,,,,,1.98200000000000E+02,,,,,2.01400000000000E+02,,,,,2.16000000000000E+02,,,,,,
ZWE,,,,,,,,,,,,,,,,,,,,,,,,,,,,,,,2.43100000000000E+02,,,,,2.27300000000000E+02,,,,,2.47300000000000E+02,,,,,2.25300000000000E+02,,,,,,
