"Country Code",1960,1961,1962,1963,1964,1965,1966,1967,1968,1969,1970,1971,1972,1973,1974,1975,1976,1977,1978,1979,1980,1981,1982,1983,1984,1985,1986,1987,1988,1989,1990,1991,1992,1993,1994,1995,1996,1997,1998,1999,2000,2001,2002,2003,2004,2005,2006,2007,2008,2009,2010,2011AGO,,,,,,,,,,,,,,,,,,,,,,,,,,,,,,,0.00000000000000E+00,,,,,0.00000000000000E+00,,,,,7.00000000000000E-01,,,,,1.95000000000000E+01,,,,,,
ALB,,,,,,,,,,,,,,,,,,,,,,,,,,,,,,,0.00000000000000E+00,,,,,2.70000000000000E+00,,,,,1.55000000000000E+01,,,,,6.23000000000000E+01,,,,,,
ARE,,,,,,,,,,,,,,,,,,,,,,,,,,,,,,,0.00000000000000E+00,,,,,0.00000000000000E+00,,,,,0.00000000000000E+00,,,,,0.00000000000000E+00,,,,,,
ARG,,,,,,,,,,,,,,,,,,,,,,,,,,,,,,,2.06300000000000E+02,,,,,2.34400000000000E+02,,,,,2.79200000000000E+02,,,,,3.38300000000000E+02,,,,,,
ARM,,,,,,,,,,,,,,,,,,,,,,,,,,,,,,,0.00000000000000E+00,,,,,6.80000000000000E+00,,,,,4.20000000000000E+01,,,,,3.35100000000000E+02,,,,,,
AUS,,,,,,,,,,,,,,,,,,,,,,,,,,,,,,,6.12500000000000E+02,,,,,1.17420000000000E+03,,,,,2.54570000000000E+03,,,,,5.19130000000000E+03,,,,,,
AUT,,,,,,,,,,,,,,,,,,,,,,,,,,,,,,,3.05000000000000E+01,,,,,3.08000000000000E+02,,,,,1.01720000000000E+03,,,,,1.89770000000000E+03,,,,,,
AZE,,,,,,,,,,,,,,,,,,,,,,,,,,,,,,,0.00000000000000E+00,,,,,1.10000000000000E+00,,,,,8.50000000000000E+00,,,,,5.59000000000000E+01,,,,,,
BEL,,,,,,,,,,,,,,,,,,,,,,,,,,,,,,,5.00000000000000E-01,,,,,1.96800000000000E+02,,,,,9.97700000000000E+02,,,,,1.90020000000000E+03,,,,,,
BEN,,,,,,,,,,,,,,,,,,,,,,,,,,,,,,,0.00000000000000E+00,,,,,0.00000000000000E+00,,,,,0.00000000000000E+00,,,,,0.00000000000000E+00,,,,,,
BGD,,,,,,,,,,,,,,,,,,,,,,,,,,,,,,,0.00000000000000E+00,,,,,0.00000000000000E+00,,,,,0.00000000000000E+00,,,,,0.00000000000000E+00,,,,,,
BGR,,,,,,,,,,,,,,,,,,,,,,,,,,,,,,,0.00000000000000E+00,,,,,2.49000000000000E+01,,,,,1.03100000000000E+02,,,,,3.64700000000000E+02,,,,,,
BHR,,,,,,,,,,,,,,,,,,,,,,,,,,,,,,,0.00000000000000E+00,,,,,0.00000000000000E+00,,,,,0.00000000000000E+00,,,,,0.00000000000000E+00,,,,,,
BIH,,,,,,,,,,,,,,,,,,,,,,,,,,,,,,,0.00000000000000E+00,,,,,2.30000000000000E+00,,,,,7.98000000000000E+01,,,,,4.26800000000000E+02,,,,,,
BLR,,,,,,,,,,,,,,,,,,,,,,,,,,,,,,,0.00000000000000E+00,,,,,1.45000000000000E+01,,,,,1.07700000000000E+02,,,,,4.44000000000000E+02,,,,,,
BOL,,,,,,,,,,,,,,,,,,,,,,,,,,,,,,,0.00000000000000E+00,,,,,0.00000000000000E+00,,,,,0.00000000000000E+00,,,,,0.00000000000000E+00,,,,,,
BRA,,,,,,,,,,,,,,,,,,,,,,,,,,,,,,,1.93070000000000E+03,,,,,2.19510000000000E+03,,,,,2.76000000000000E+03,,,,,4.97130000000000E+03,,,,,,
BRN,,,,,,,,,,,,,,,,,,,,,,,,,,,,,,,0.00000000000000E+00,,,,,5.00000000000000E+00,,,,,1.00700000000000E+02,,,,,2.59100000000000E+02,,,,,,
BWA,,,,,,,,,,,,,,,,,,,,,,,,,,,,,,,0.00000000000000E+00,,,,,0.00000000000000E+00,,,,,0.00000000000000E+00,,,,,0.00000000000000E+00,,,,,,
CAN,,,,,,,,,,,,,,,,,,,,,,,,,,,,,,,4.18500000000000E+02,,,,,1.10650000000000E+03,,,,,5.82990000000000E+03,,,,,1.16001000000000E+04,,,,,,
CHE,,,,,,,,,,,,,,,,,,,,,,,,,,,,,,,3.00000000000000E-01,,,,,1.58800000000000E+02,,,,,8.48200000000000E+02,,,,,1.62130000000000E+03,,,,,,
CHL,,,,,,,,,,,,,,,,,,,,,,,,,,,,,,,0.00000000000000E+00,,,,,0.00000000000000E+00,,,,,0.00000000000000E+00,,,,,0.00000000000000E+00,,,,,,
CHN,,,,,,,,,,,,,,,,,,,,,,,,,,,,,,,5.97010000000000E+03,,,,,2.80708000000000E+04,,,,,6.27001000000000E+04,,,,,1.00320200000000E+05,,,,,,
CIV,,,,,,,,,,,,,,,,,,,,,,,,,,,,,,,0.00000000000000E+00,,,,,0.00000000000000E+00,,,,,0.00000000000000E+00,,,,,0.00000000000000E+00,,,,,,
CMR,,,,,,,,,,,,,,,,,,,,,,,,,,,,,,,0.00000000000000E+00,,,,,0.00000000000000E+00,,,,,0.00000000000000E+00,,,,,0.00000000000000E+00,,,,,,
COG,,,,,,,,,,,,,,,,,,,,,,,,,,,,,,,0.00000000000000E+00,,,,,1.00000000000000E-01,,,,,8.00000000000000E-01,,,,,4.80000000000000E+00,,,,,,
COL,,,,,,,,,,,,,,,,,,,,,,,,,,,,,,,0.00000000000000E+00,,,,,0.00000000000000E+00,,,,,0.00000000000000E+00,,,,,0.00000000000000E+00,,,,,,
CRI,,,,,,,,,,,,,,,,,,,,,,,,,,,,,,,0.00000000000000E+00,,,,,2.70000000000000E+00,,,,,2.52000000000000E+01,,,,,6.19000000000000E+01,,,,,,
CUB,,,,,,,,,,,,,,,,,,,,,,,,,,,,,,,0.00000000000000E+00,,,,,5.50000000000000E+00,,,,,3.42000000000000E+01,,,,,1.28800000000000E+02,,,,,,
CYP,,,,,,,,,,,,,,,,,,,,,,,,,,,,,,,0.00000000000000E+00,,,,,1.50000000000000E+01,,,,,7.84000000000000E+01,,,,,1.89900000000000E+02,,,,,,
CZE,,,,,,,,,,,,,,,,,,,,,,,,,,,,,,,1.00000000000000E-01,,,,,8.24000000000000E+01,,,,,3.99500000000000E+02,,,,,1.08780000000000E+03,,,,,,
DEU,,,,,,,,,,,,,,,,,,,,,,,,,,,,,,,2.58140000000000E+03,,,,,4.45680000000000E+03,,,,,9.33990000000000E+03,,,,,1.52718000000000E+04,,,,,,
DNK,,,,,,,,,,,,,,,,,,,,,,,,,,,,,,,3.00000000000000E-01,,,,,1.29500000000000E+02,,,,,6.62200000000000E+02,,,,,1.26120000000000E+03,,,,,,
DOM,,,,,,,,,,,,,,,,,,,,,,,,,,,,,,,0.00000000000000E+00,,,,,0.00000000000000E+00,,,,,0.00000000000000E+00,,,,,0.00000000000000E+00,,,,,,
DZA,,,,,,,,,,,,,,,,,,,,,,,,,,,,,,,0.00000000000000E+00,,,,,1.10000000000000E+01,,,,,6.05000000000000E+01,,,,,1.68300000000000E+02,,,,,,
EAP,,,,,,,,,,,,,,,,,,,,,,,,,,,,,,,5.97040000000000E+03,,,,,2.81440000000000E+04,,,,,8.56359813957325E+04,,,,,,,,,,,
EAS,,,,,,,,,,,,,,,,,,,,,,,,,,,,,,,1.76535000000000E+04,,,,,4.67718000000000E+04,,,,,1.04046558519623E+05,,,,,,,,,,,
ECA,,,,,,,,,,,,,,,,,,,,,,,,,,,,,,,5.03640000000000E+03,,,,,8.92280000000000E+03,,,,,1.74443927875135E+04,,,,,,,,,,,
ECS,,,,,,,,,,,,,,,,,,,,,,,,,,,,,,,2.21453000000000E+04,,,,,3.02658000000000E+04,,,,,6.49489932269328E+04,,,,,,,,,,,
ECU,,,,,,,,,,,,,,,,,,,,,,,,,,,,,,,0.00000000000000E+00,,,,,4.00000000000000E+00,,,,,1.97000000000000E+01,,,,,6.26000000000000E+01,,,,,,
EGY,,,,,,,,,,,,,,,,,,,,,,,,,,,,,,,0.00000000000000E+00,,,,,1.04000000000000E+01,,,,,9.47000000000000E+01,,,,,3.18200000000000E+02,,,,,,
EMU,,,,,,,,,,,,,,,,,,,,,,,,,,,,,,,1.44900000000000E+04,,,,,1.72481000000000E+04,,,,,3.73258000000000E+04,,,,,,,,,,,
ERI,,,,,,,,,,,,,,,,,,,,,,,,,,,,,,,0.00000000000000E+00,,,,,0.00000000000000E+00,,,,,0.00000000000000E+00,,,,,0.00000000000000E+00,,,,,,
ESP,,,,,,,,,,,,,,,,,,,,,,,,,,,,,,,1.95030000000000E+03,,,,,2.62810000000000E+03,,,,,3.29680000000000E+03,,,,,6.32030000000000E+03,,,,,,
EST,,,,,,,,,,,,,,,,,,,,,,,,,,,,,,,0.00000000000000E+00,,,,,1.20000000000000E+00,,,,,7.80000000000000E+00,,,,,3.41000000000000E+01,,,,,,
ETH,,,,,,,,,,,,,,,,,,,,,,,,,,,,,,,0.00000000000000E+00,,,,,1.00000000000000E-01,,,,,3.60000000000000E+00,,,,,1.04000000000000E+01,,,,,,
EUU,,,,,,,,,,,,,,,,,,,,,,,,,,,,,,,1.71088000000000E+04,,,,,2.12739000000000E+04,,,,,4.70422000000000E+04,,,,,,,,,,,
FIN,,,,,,,,,,,,,,,,,,,,,,,,,,,,,,,1.00000000000000E-01,,,,,6.23000000000000E+01,,,,,3.78200000000000E+02,,,,,7.58400000000000E+02,,,,,,
FRA,,,,,,,,,,,,,,,,,,,,,,,,,,,,,,,4.65350000000000E+03,,,,,2.05400000000000E+03,,,,,7.09140000000000E+03,,,,,1.29492000000000E+04,,,,,,
GAB,,,,,,,,,,,,,,,,,,,,,,,,,,,,,,,0.00000000000000E+00,,,,,6.00000000000000E-01,,,,,2.90000000000000E+00,,,,,8.50000000000000E+00,,,,,,
GBR,,,,,,,,,,,,,,,,,,,,,,,,,,,,,,,2.61780000000000E+03,,,,,3.42540000000000E+03,,,,,6.41470000000000E+03,,,,,9.18200000000000E+03,,,,,,
GEO,,,,,,,,,,,,,,,,,,,,,,,,,,,,,,,0.00000000000000E+00,,,,,4.00000000000000E-01,,,,,2.50000000000000E+00,,,,,1.19000000000000E+01,,,,,,
GHA,,,,,,,,,,,,,,,,,,,,,,,,,,,,,,,0.00000000000000E+00,,,,,4.00000000000000E-01,,,,,1.90000000000000E+00,,,,,7.90000000000000E+00,,,,,,
GIB,,,,,,,,,,,,,,,,,,,,,,,,,,,,,,,0.00000000000000E+00,,,,,0.00000000000000E+00,,,,,0.00000000000000E+00,,,,,0.00000000000000E+00,,,,,,
GRC,,,,,,,,,,,,,,,,,,,,,,,,,,,,,,,5.07200000000000E+02,,,,,6.37500000000000E+02,,,,,1.02920000000000E+03,,,,,1.57960000000000E+03,,,,,,
GTM,,,,,,,,,,,,,,,,,,,,,,,,,,,,,,,1.00000000000000E-01,,,,,2.40000000000000E+01,,,,,1.57600000000000E+02,,,,,4.81200000000000E+02,,,,,,
HIC,,,,,,,,,,,,,,,,,,,,,,,,,,,,,,,5.84011000000000E+04,,,,,8.42061000000000E+04,,,,,1.97768004231066E+05,,,,,,,,,,,
HKG,,,,,,,,,,,,,,,,,,,,,,,,,,,,,,,0.00000000000000E+00,,,,,0.00000000000000E+00,,,,,0.00000000000000E+00,,,,,0.00000000000000E+00,,,,,,
HND,,,,,,,,,,,,,,,,,,,,,,,,,,,,,,,0.00000000000000E+00,,,,,0.00000000000000E+00,,,,,0.00000000000000E+00,,,,,0.00000000000000E+00,,,,,,
HRV,,,,,,,,,,,,,,,,,,,,,,,,,,,,,,,0.00000000000000E+00,,,,,3.00000000000000E+00,,,,,1.63000000000000E+01,,,,,4.80000000000000E+01,,,,,,
HTI,,,,,,,,,,,,,,,,,,,,,,,,,,,,,,,0.00000000000000E+00,,,,,0.00000000000000E+00,,,,,0.00000000000000E+00,,,,,0.00000000000000E+00,,,,,,
HUN,,,,,,,,,,,,,,,,,,,,,,,,,,,,,,,1.00000000000000E-01,,,,,6.94000000000000E+01,,,,,4.28200000000000E+02,,,,,1.20190000000000E+03,,,,,,
IDN,,,,,,,,,,,,,,,,,,,,,,,,,,,,,,,0.00000000000000E+00,,,,,0.00000000000000E+00,,,,,0.00000000000000E+00,,,,,0.00000000000000E+00,,,,,,
IND,,,,,,,,,,,,,,,,,,,,,,,,,,,,,,,1.70210000000000E+03,,,,,1.93390000000000E+03,,,,,2.30320000000000E+03,,,,,2.79040000000000E+03,,,,,,
IRL,,,,,,,,,,,,,,,,,,,,,,,,,,,,,,,1.20000000000000E+00,,,,,6.00000000000000E+01,,,,,4.16300000000000E+02,,,,,8.67700000000000E+02,,,,,,
IRN,,,,,,,,,,,,,,,,,,,,,,,,,,,,,,,0.00000000000000E+00,,,,,0.00000000000000E+00,,,,,0.00000000000000E+00,,,,,0.00000000000000E+00,,,,,,
IRQ,,,,,,,,,,,,,,,,,,,,,,,,,,,,,,,0.00000000000000E+00,,,,,0.00000000000000E+00,,,,,0.00000000000000E+00,,,,,0.00000000000000E+00,,,,,,
ISL,,,,,,,,,,,,,,,,,,,,,,,,,,,,,,,0.00000000000000E+00,,,,,3.70000000000000E+00,,,,,2.23000000000000E+01,,,,,4.68000000000000E+01,,,,,,
ISR,,,,,,,,,,,,,,,,,,,,,,,,,,,,,,,4.60000000000000E+00,,,,,1.31700000000000E+02,,,,,6.91900000000000E+02,,,,,1.31830000000000E+03,,,,,,
ITA,,,,,,,,,,,,,,,,,,,,,,,,,,,,,,,1.97220000000000E+03,,,,,3.23450000000000E+03,,,,,7.61560000000000E+03,,,,,1.24278000000000E+04,,,,,,
JAM,,,,,,,,,,,,,,,,,,,,,,,,,,,,,,,0.00000000000000E+00,,,,,3.50000000000000E+00,,,,,1.78000000000000E+01,,,,,5.07000000000000E+01,,,,,,
JOR,,,,,,,,,,,,,,,,,,,,,,,,,,,,,,,0.00000000000000E+00,,,,,0.00000000000000E+00,,,,,1.97000000000000E+01,,,,,1.11500000000000E+02,,,,,,
JPN,,,,,,,,,,,,,,,,,,,,,,,,,,,,,,,9.15430000000000E+03,,,,,1.50409000000000E+04,,,,,2.52238000000000E+04,,,,,4.11213000000000E+04,,,,,,
KAZ,,,,,,,,,,,,,,,,,,,,,,,,,,,,,,,0.00000000000000E+00,,,,,1.14000000000000E+01,,,,,5.75000000000000E+01,,,,,3.39000000000000E+02,,,,,,
KEN,,,,,,,,,,,,,,,,,,,,,,,,,,,,,,,0.00000000000000E+00,,,,,0.00000000000000E+00,,,,,0.00000000000000E+00,,,,,0.00000000000000E+00,,,,,,
KGZ,,,,,,,,,,,,,,,,,,,,,,,,,,,,,,,0.00000000000000E+00,,,,,1.10000000000000E+00,,,,,7.90000000000000E+00,,,,,2.42000000000000E+01,,,,,,
KHM,,,,,,,,,,,,,,,,,,,,,,,,,,,,,,,0.00000000000000E+00,,,,,0.00000000000000E+00,,,,,0.00000000000000E+00,,,,,0.00000000000000E+00,,,,,,
KOR,,,,,,,,,,,,,,,,,,,,,,,,,,,,,,,1.90170000000000E+03,,,,,2.19850000000000E+03,,,,,2.63740000000000E+03,,,,,3.15130000000000E+03,,,,,,
KWT,,,,,,,,,,,,,,,,,,,,,,,,,,,,,,,1.00000000000000E-01,,,,,3.03000000000000E+01,,,,,1.47300000000000E+02,,,,,5.45100000000000E+02,,,,,,
LAC,,,,,,,,,,,,,,,,,,,,,,,,,,,,,,,4.72190000000000E+03,,,,,5.51640000000000E+03,,,,,8.71043868126000E+03,,,,,,,,,,,
LBN,,,,,,,,,,,,,,,,,,,,,,,,,,,,,,,0.00000000000000E+00,,,,,0.00000000000000E+00,,,,,0.00000000000000E+00,,,,,0.00000000000000E+00,,,,,,
LBY,,,,,,,,,,,,,,,,,,,,,,,,,,,,,,,0.00000000000000E+00,,,,,0.00000000000000E+00,,,,,0.00000000000000E+00,,,,,0.00000000000000E+00,,,,,,
LCN,,,,,,,,,,,,,,,,,,,,,,,,,,,,,,,4.72190000000000E+03,,,,,5.51640000000000E+03,,,,,8.98090245930740E+03,,,,,,,,,,,
LKA,,,,,,,,,,,,,,,,,,,,,,,,,,,,,,,0.00000000000000E+00,,,,,0.00000000000000E+00,,,,,0.00000000000000E+00,,,,,0.00000000000000E+00,,,,,,
LMY,,,,,,,,,,,,,,,,,,,,,,,,,,,,,,,1.74310000000000E+04,,,,,4.45919000000000E+04,,,,,1.17387043611113E+05,,,,,,,,,,,
LTU,,,,,,,,,,,,,,,,,,,,,,,,,,,,,,,1.00000000000000E-01,,,,,2.89000000000000E+01,,,,,1.64500000000000E+02,,,,,6.47700000000000E+02,,,,,,
LUX,,,,,,,,,,,,,,,,,,,,,,,,,,,,,,,1.00000000000000E-01,,,,,9.60000000000000E+00,,,,,5.11000000000000E+01,,,,,1.00400000000000E+02,,,,,,
LVA,,,,,,,,,,,,,,,,,,,,,,,,,,,,,,,1.00000000000000E-01,,,,,2.99000000000000E+01,,,,,1.90000000000000E+02,,,,,8.84300000000000E+02,,,,,,
MAR,,,,,,,,,,,,,,,,,,,,,,,,,,,,,,,0.00000000000000E+00,,,,,0.00000000000000E+00,,,,,0.00000000000000E+00,,,,,0.00000000000000E+00,,,,,,
MDA,,,,,,,,,,,,,,,,,,,,,,,,,,,,,,,0.00000000000000E+00,,,,,6.00000000000000E-01,,,,,1.90000000000000E+00,,,,,8.10000000000000E+00,,,,,,
MEX,,,,,,,,,,,,,,,,,,,,,,,,,,,,,,,1.59520000000000E+03,,,,,1.88160000000000E+03,,,,,2.77120000000000E+03,,,,,4.11730000000000E+03,,,,,,
MIC,,,,,,,,,,,,,,,,,,,,,,,,,,,,,,,1.74308000000000E+04,,,,,4.45154000000000E+04,,,,,1.12083146183122E+05,,,,,,,,,,,
MKD,,,,,,,,,,,,,,,,,,,,,,,,,,,,,,,0.00000000000000E+00,,,,,9.80000000000000E+00,,,,,5.18000000000000E+01,,,,,1.20300000000000E+02,,,,,,
MLT,,,,,,,,,,,,,,,,,,,,,,,,,,,,,,,0.00000000000000E+00,,,,,8.90000000000000E+00,,,,,5.00000000000000E+01,,,,,1.14700000000000E+02,,,,,,
MMR,,,,,,,,,,,,,,,,,,,,,,,,,,,,,,,0.00000000000000E+00,,,,,0.00000000000000E+00,,,,,0.00000000000000E+00,,,,,0.00000000000000E+00,,,,,,
MNG,,,,,,,,,,,,,,,,,,,,,,,,,,,,,,,0.00000000000000E+00,,,,,0.00000000000000E+00,,,,,0.00000000000000E+00,,,,,0.00000000000000E+00,,,,,,
MOZ,,,,,,,,,,,,,,,,,,,,,,,,,,,,,,,0.00000000000000E+00,,,,,1.50000000000000E+00,,,,,1.88000000000000E+01,,,,,7.59000000000000E+01,,,,,,
MYS,,,,,,,,,,,,,,,,,,,,,,,,,,,,,,,1.00000000000000E-01,,,,,1.00000000000000E-01,,,,,6.90000000000000E+00,,,,,2.61000000000000E+01,,,,,,
NAC,,,,,,,,,,,,,,,,,,,,,,,,,,,,,,,2.96043000000000E+04,,,,,4.40410000000000E+04,,,,,1.14999299763190E+05,,,,,,,,,,,
NAM,,,,,,,,,,,,,,,,,,,,,,,,,,,,,,,0.00000000000000E+00,,,,,0.00000000000000E+00,,,,,0.00000000000000E+00,,,,,0.00000000000000E+00,,,,,,
NGA,,,,,,,,,,,,,,,,,,,,,,,,,,,,,,,0.00000000000000E+00,,,,,4.00000000000000E+00,,,,,8.81000000000000E+01,,,,,3.42400000000000E+02,,,,,,
NIC,,,,,,,,,,,,,,,,,,,,,,,,,,,,,,,0.00000000000000E+00,,,,,0.00000000000000E+00,,,,,0.00000000000000E+00,,,,,0.00000000000000E+00,,,,,,
NLD,,,,,,,,,,,,,,,,,,,,,,,,,,,,,,,2.79280000000000E+03,,,,,3.47250000000000E+03,,,,,5.35010000000000E+03,,,,,3.17370000000000E+03,,,,,,
NOR,,,,,,,,,,,,,,,,,,,,,,,,,,,,,,,0.00000000000000E+00,,,,,2.86000000000000E+01,,,,,1.62300000000000E+02,,,,,3.20500000000000E+02,,,,,,
NPL,,,,,,,,,,,,,,,,,,,,,,,,,,,,,,,0.00000000000000E+00,,,,,0.00000000000000E+00,,,,,0.00000000000000E+00,,,,,0.00000000000000E+00,,,,,,
NZL,,,,,,,,,,,,,,,,,,,,,,,,,,,,,,,2.00000000000000E-01,,,,,6.73000000000000E+01,,,,,3.47300000000000E+02,,,,,7.28100000000000E+02,,,,,,
OEC,,,,,,,,,,,,,,,,,,,,,,,,,,,,,,,5.83865000000000E+04,,,,,8.39786000000000E+04,,,,,1.93791300000000E+05,,,,,,,,,,,
OED,,,,,,,,,,,,,,,,,,,,,,,,,,,,,,,5.99817000000000E+04,,,,,8.58786000000000E+04,,,,,1.98115528683413E+05,,,,,,,,,,,
OMN,,,,,,,,,,,,,,,,,,,,,,,,,,,,,,,0.00000000000000E+00,,,,,6.30000000000000E+00,,,,,8.60000000000000E+00,,,,,1.75400000000000E+02,,,,,,
PAK,,,,,,,,,,,,,,,,,,,,,,,,,,,,,,,0.00000000000000E+00,,,,,0.00000000000000E+00,,,,,0.00000000000000E+00,,,,,0.00000000000000E+00,,,,,,
PAN,,,,,,,,,,,,,,,,,,,,,,,,,,,,,,,0.00000000000000E+00,,,,,0.00000000000000E+00,,,,,0.00000000000000E+00,,,,,0.00000000000000E+00,,,,,,
PER,,,,,,,,,,,,,,,,,,,,,,,,,,,,,,,0.00000000000000E+00,,,,,2.08000000000000E+01,,,,,1.03100000000000E+02,,,,,3.29900000000000E+02,,,,,,
PHL,,,,,,,,,,,,,,,,,,,,,,,,,,,,,,,0.00000000000000E+00,,,,,0.00000000000000E+00,,,,,0.00000000000000E+00,,,,,0.00000000000000E+00,,,,,,
POL,,,,,,,,,,,,,,,,,,,,,,,,,,,,,,,1.00000000000000E-01,,,,,1.01100000000000E+02,,,,,6.67200000000000E+02,,,,,1.75190000000000E+03,,,,,,
PRK,,,,,,,,,,,,,,,,,,,,,,,,,,,,,,,2.00000000000000E-01,,,,,7.31000000000000E+01,,,,,1.76010000000000E+03,,,,,2.79380000000000E+03,,,,,,
PRT,,,,,,,,,,,,,,,,,,,,,,,,,,,,,,,2.00000000000000E-01,,,,,5.76000000000000E+01,,,,,3.52700000000000E+02,,,,,6.53700000000000E+02,,,,,,
PRY,,,,,,,,,,,,,,,,,,,,,,,,,,,,,,,0.00000000000000E+00,,,,,0.00000000000000E+00,,,,,0.00000000000000E+00,,,,,0.00000000000000E+00,,,,,,
QAT,,,,,,,,,,,,,,,,,,,,,,,,,,,,,,,0.00000000000000E+00,,,,,0.00000000000000E+00,,,,,0.00000000000000E+00,,,,,0.00000000000000E+00,,,,,,
ROM,,,,,,,,,,,,,,,,,,,,,,,,,,,,,,,0.00000000000000E+00,,,,,3.24000000000000E+01,,,,,1.18200000000000E+02,,,,,4.22800000000000E+02,,,,,,
RUS,,,,,,,,,,,,,,,,,,,,,,,,,,,,,,,5.03560000000000E+03,,,,,8.48150000000000E+03,,,,,1.35518000000000E+04,,,,,2.36241000000000E+04,,,,,,
SAS,,,,,,,,,,,,,,,,,,,,,,,,,,,,,,,1.70210000000000E+03,,,,,1.93390000000000E+03,,,,,3.01111635177270E+03,,,,,,,,,,,
SAU,,,,,,,,,,,,,,,,,,,,,,,,,,,,,,,1.00000000000000E-01,,,,,1.71000000000000E+01,,,,,7.55000000000000E+01,,,,,1.98400000000000E+02,,,,,,
SDN,,,,,,,,,,,,,,,,,,,,,,,,,,,,,,,0.00000000000000E+00,,,,,0.00000000000000E+00,,,,,0.00000000000000E+00,,,,,0.00000000000000E+00,,,,,,
SEN,,,,,,,,,,,,,,,,,,,,,,,,,,,,,,,0.00000000000000E+00,,,,,0.00000000000000E+00,,,,,0.00000000000000E+00,,,,,0.00000000000000E+00,,,,,,
SGP,,,,,,,,,,,,,,,,,,,,,,,,,,,,,,,1.26000000000000E+01,,,,,1.32000000000000E+02,,,,,7.28900000000000E+02,,,,,1.44810000000000E+03,,,,,,
SLV,,,,,,,,,,,,,,,,,,,,,,,,,,,,,,,0.00000000000000E+00,,,,,1.00000000000000E-01,,,,,4.14000000000000E+01,,,,,7.69000000000000E+01,,,,,,
SRB,,,,,,,,,,,,,,,,,,,,,,,,,,,,,,,5.00000000000000E-01,,,,,2.03200000000000E+02,,,,,1.66200000000000E+03,,,,,4.35180000000000E+03,,,,,,
SVK,,,,,,,,,,,,,,,,,,,,,,,,,,,,,,,0.00000000000000E+00,,,,,1.89000000000000E+01,,,,,1.09300000000000E+02,,,,,3.22500000000000E+02,,,,,,
SVN,,,,,,,,,,,,,,,,,,,,,,,,,,,,,,,0.00000000000000E+00,,,,,2.64000000000000E+01,,,,,1.44100000000000E+02,,,,,3.60100000000000E+02,,,,,,
SWE,,,,,,,,,,,,,,,,,,,,,,,,,,,,,,,2.00000000000000E-01,,,,,1.01900000000000E+02,,,,,5.68800000000000E+02,,,,,1.13710000000000E+03,,,,,,
SYR,,,,,,,,,,,,,,,,,,,,,,,,,,,,,,,0.00000000000000E+00,,,,,0.00000000000000E+00,,,,,0.00000000000000E+00,,,,,0.00000000000000E+00,,,,,,
TGO,,,,,,,,,,,,,,,,,,,,,,,,,,,,,,,0.00000000000000E+00,,,,,0.00000000000000E+00,,,,,0.00000000000000E+00,,,,,0.00000000000000E+00,,,,,,
THA,,,,,,,,,,,,,,,,,,,,,,,,,,,,,,,0.00000000000000E+00,,,,,0.00000000000000E+00,,,,,0.00000000000000E+00,,,,,0.00000000000000E+00,,,,,,
TJK,,,,,,,,,,,,,,,,,,,,,,,,,,,,,,,0.00000000000000E+00,,,,,7.00000000000000E-01,,,,,2.50000000000000E+00,,,,,1.20000000000000E+01,,,,,,
TKM,,,,,,,,,,,,,,,,,,,,,,,,,,,,,,,0.00000000000000E+00,,,,,1.90000000000000E+00,,,,,1.09000000000000E+01,,,,,7.34000000000000E+01,,,,,,
TTO,,,,,,,,,,,,,,,,,,,,,,,,,,,,,,,0.00000000000000E+00,,,,,0.00000000000000E+00,,,,,0.00000000000000E+00,,,,,0.00000000000000E+00,,,,,,
TUN,,,,,,,,,,,,,,,,,,,,,,,,,,,,,,,0.00000000000000E+00,,,,,0.00000000000000E+00,,,,,0.00000000000000E+00,,,,,0.00000000000000E+00,,,,,,
TUR,,,,,,,,,,,,,,,,,,,,,,,,,,,,,,,0.00000000000000E+00,,,,,1.84000000000000E+01,,,,,9.94400000000000E+02,,,,,2.91750000000000E+03,,,,,,
TZA,,,,,,,,,,,,,,,,,,,,,,,,,,,,,,,0.00000000000000E+00,,,,,0.00000000000000E+00,,,,,0.00000000000000E+00,,,,,0.00000000000000E+00,,,,,,
UKR,,,,,,,,,,,,,,,,,,,,,,,,,,,,,,,1.00000000000000E-01,,,,,1.64000000000000E+01,,,,,5.47000000000000E+01,,,,,2.29200000000000E+02,,,,,,
UMC,,,,,,,,,,,,,,,,,,,,,,,,,,,,,,,1.57285000000000E+04,,,,,4.24825000000000E+04,,,,,1.00089505514196E+05,,,,,,,,,,,
URY,,,,,,,,,,,,,,,,,,,,,,,,,,,,,,,0.00000000000000E+00,,,,,2.40000000000000E+00,,,,,2.93000000000000E+01,,,,,5.91000000000000E+01,,,,,,
USA,,,,,,,,,,,,,,,,,,,,,,,,,,,,,,,2.91858000000000E+04,,,,,4.29345000000000E+04,,,,,1.09144500000000E+05,,,,,1.87834900000000E+05,,,,,,
UZB,,,,,,,,,,,,,,,,,,,,,,,,,,,,,,,0.00000000000000E+00,,,,,3.39000000000000E+01,,,,,1.92000000000000E+02,,,,,6.07500000000000E+02,,,,,,
VEN,,,,,,,,,,,,,,,,,,,,,,,,,,,,,,,9.89600000000000E+02,,,,,1.14230000000000E+03,,,,,1.44660000000000E+03,,,,,1.95950000000000E+03,,,,,,
VNM,,,,,,,,,,,,,,,,,,,,,,,,,,,,,,,0.00000000000000E+00,,,,,0.00000000000000E+00,,,,,0.00000000000000E+00,,,,,0.00000000000000E+00,,,,,,
WLD,,,,,,,,,,,,,,,,,,,,,,,,,,,,,,,7.58321000000000E+04,,,,,1.28798000000000E+05,,,,,3.01889878215621E+05,,,,,,,,,,,
YEM,,,,,,,,,,,,,,,,,,,,,,,,,,,,,,,0.00000000000000E+00,,,,,0.00000000000000E+00,,,,,0.00000000000000E+00,,,,,0.00000000000000E+00,,,,,,
ZAF,,,,,,,,,,,,,,,,,,,,,,,,,,,,,,,2.00000000000000E-01,,,,,4.67000000000000E+01,,,,,2.54600000000000E+02,,,,,5.29200000000000E+02,,,,,,
ZAR,,,,,,,,,,,,,,,,,,,,,,,,,,,,,,,0.00000000000000E+00,,,,,0.00000000000000E+00,,,,,0.00000000000000E+00,,,,,0.00000000000000E+00,,,,,,
ZMB,,,,,,,,,,,,,,,,,,,,,,,,,,,,,,,0.00000000000000E+00,,,,,0.00000000000000E+00,,,,,1.00000000000000E-01,,,,,4.00000000000000E-01,,,,,,
ZWE,,,,,,,,,,,,,,,,,,,,,,,,,,,,,,,0.00000000000000E+00,,,,,0.00000000000000E+00,,,,,0.00000000000000E+00,,,,,0.00000000000000E+00,,,,,,
