"Country Code",1960,1961,1962,1963,1964,1965,1966,1967,1968,1969,1970,1971,1972,1973,1974,1975,1976,1977,1978,1979,1980,1981,1982,1983,1984,1985,1986,1987,1988,1989,1990,1991,1992,1993,1994,1995,1996,1997,1998,1999,2000,2001,2002,2003,2004,2005,2006,2007,2008,2009,2010,2011AFG,,,,,,,,,,,,,,,,,,,,,,,,,,,,,,,,,,,,,,,,,,,,,,,6.29069058339300E+00,5.28802168696701E+00,5.22597868761740E+00,7.26642106852521E+00,,
ALB,,,,,,,,,,,,,,,,,,,,,,,,,,,,,,,,,,,,1.34227682132808E+01,9.40997906859071E+00,1.01857622874510E+01,1.35980485427755E+01,,,,1.61089182573328E+01,1.70719284201438E+01,1.72917603914058E+01,,,,,,,
ARE,,,,,,,,,,,,,,,,,,,,,,,,,,,,,,,3.78777703156481E-01,3.31311295231654E-01,4.34428864156856E-01,2.95298726738492E-01,7.14623648999352E-01,8.49530754728708E-01,9.73415284360190E-01,9.92336343973077E-01,1.07587239217888E+00,1.12244700541070E+00,,,,,,,,,,,,
ARG,,,,,,,,,,,,,,,,,,,,,,,,,,,,,,,,,,,,,,,,,,,9.81895378706002E+00,1.25187846482703E+01,1.41974328834626E+01,,,,,,,
ARM,,,,,,,,,,,,,,,,,,,,,,,,,,,,,,,,,,,,,,,,,,,,1.39997870190166E+01,1.39964056466186E+01,1.43356634088462E+01,1.43959865593942E+01,1.59625317291070E+01,1.73217587321083E+01,1.65058632327843E+01,,
AUS,,,,,,,,,,,,,,,,,,,,,,,,,,,,,,,,,,,,,,,,2.23830286095119E+01,2.29827661263476E+01,2.46880682307103E+01,2.33748768446952E+01,2.42212141066014E+01,2.42278500037574E+01,2.47474791114030E+01,2.45025165194992E+01,2.40054539106977E+01,2.41725407235033E+01,2.21315991013583E+01,,
AUT,,,,,,,,,,,,,,,,,,,,,,,,,,,,,,,,,,,,1.78118304930897E+01,1.88886506056107E+01,1.99958857637721E+01,2.01874152326469E+01,2.00915108397978E+01,1.97920463710339E+01,2.15196505012259E+01,2.09647772044891E+01,2.10720363252037E+01,2.07886673401565E+01,2.00894650732598E+01,1.96800212042816E+01,1.99765871645346E+01,2.01083025777546E+01,1.86865694256472E+01,,
AZE,,,,,,,,,,,,,,,,,,,,,,,,,,,,,,,,,,,,,,,,,,,,,,,,,1.58537753281245E+01,,,
BDI,,,,,,,,,,,,,,,,,,,,,,,,,,,,,,,,1.51426629793580E+01,1.51227839625130E+01,1.49289163086995E+01,1.56160547705857E+01,1.66782065773911E+01,1.34389965792474E+01,1.14203617269545E+01,1.43476586706647E+01,1.35974418093983E+01,,,,,,,,,,,,
BEL,,,,,,,,,,,,,,,,,,,,,,,,,,,,,,,,,,,,2.54309783777541E+01,2.59298816306919E+01,2.64817703030190E+01,2.70991492902803E+01,2.70786306108860E+01,2.73278359088074E+01,2.69439818077613E+01,2.59372361510478E+01,2.53149540411806E+01,2.58927035782982E+01,2.60145350221909E+01,2.57245596914938E+01,2.50532760605750E+01,2.54290222087013E+01,2.39345988338343E+01,,
BEN,,,,,,,,,,,,,,,,,,,,,,,,,,,,,,,,,,,,,,,,,,1.54670808212335E+01,1.56816667789135E+01,1.56647359418734E+01,1.63498752577869E+01,1.54720146983860E+01,1.59577425931012E+01,,1.72479350202165E+01,1.61497400772397E+01,,
BFA,,,,,,,,,,,,,,,,,,,,,,,,,,,,,,,,,,,,,,,,,,,1.05055475901203E+01,1.08939136127230E+01,1.18026761236801E+01,1.17631638469680E+01,1.20066345023362E+01,1.24949946905217E+01,1.23416894023036E+01,1.28662535002601E+01,,
BGD,,,,,,,,,,,,,,,,,,,,,,,,,,,,,,,,,,,,,,,,,,7.59654090927735E+00,7.69752270306478E+00,8.07147479157802E+00,8.11135013609207E+00,8.22066985516864E+00,8.17180157983142E+00,8.04930133092221E+00,8.81827075986621E+00,8.59914054306214E+00,,
BGR,,,,,,,,,,,,,,,,,,,,,,,,,,,,,,,2.38331295204348E+01,2.23338246131172E+01,1.69033864541833E+01,1.52137838742054E+01,2.12389649923897E+01,2.00680856789631E+01,1.93617446237345E+01,1.85232181674284E+01,1.81135370148050E+01,1.75257328567430E+01,1.78799899402142E+01,1.71136674636676E+01,1.63862241645928E+01,1.82270150240988E+01,2.12792743746461E+01,2.16105615387790E+01,2.25021458833249E+01,2.31300915752233E+01,2.32696960847214E+01,2.10152688146547E+01,,
BHR,,,,,,,,,,,,,,,,,,,,,,,,,,,,,,,5.18737424547284E+00,5.04119384762240E+00,5.39072995969548E+00,5.34956281449701E+00,5.17340196278890E+00,4.79676289305848E+00,5.04293269586433E+00,5.09780903556752E+00,5.66427242645189E+00,5.01305502360043E+00,4.24438572943340E+00,4.64578022272910E+00,4.04372611664474E+00,3.75716234652115E+00,4.93549532489052E+00,1.37841095457330E+00,1.36111250901649E+00,1.34702045870107E+00,1.45068849114797E+00,,,
BHS,,,,,,,,,,,,,,,,,,,,,,,,,,,,,,,1.38629185091598E+01,1.36379999742861E+01,1.54326149887424E+01,1.53945666235446E+01,1.67167842896594E+01,1.73461650627005E+01,1.70490440565254E+01,1.56552026418356E+01,1.44553034703009E+01,1.54028046474004E+01,1.56011165084733E+01,1.44922410800067E+01,1.35179648394529E+01,1.38646736237739E+01,1.41545985769527E+01,1.51147952377816E+01,1.66333266915177E+01,1.66730670338238E+01,1.74830337577839E+01,1.59650604911565E+01,,
BIH,,,,,,,,,,,,,,,,,,,,,,,,,,,,,,,,,,,,,,,,,,,,1.97627739987846E+01,1.90310136301377E+01,2.07348247169179E+01,2.27699880786283E+01,2.21501731093547E+01,2.09606403609237E+01,1.95733985785286E+01,,
BLR,,,,,,,,,,,,,,,,,,,,,,,,,,,,,,,,,2.04434829637642E+01,2.66309422319652E+01,2.47499044578828E+01,1.98877124542637E+01,1.87997552116564E+01,2.07345853025692E+01,1.71123265017102E+01,1.66724778463851E+01,1.66247345026167E+01,1.57546642442876E+01,1.42010383230738E+01,1.76881219095961E+01,1.83713469008917E+01,2.01496562779039E+01,2.22230966228065E+01,2.37266987288672E+01,2.53533892055523E+01,1.92596284110703E+01,,
BLZ,,,,,,,,,,,,,,,,,,,,,,,,,,,,,,,2.14061259956374E+01,2.07109753422456E+01,1.99392570612646E+01,1.95253443783770E+01,1.99196669738065E+01,1.87562162583319E+01,1.95422738363756E+01,1.92100826868130E+01,,,,,,,,,,,,,,
BOL,,,,,,,,,,,,,,,,,,,,,,,,,,,,,,,,,,,,,,,,,,,1.31841049699931E+01,1.29730003175784E+01,1.50163487981632E+01,1.62151641091835E+01,1.68161681629038E+01,1.69648657303097E+01,,,,
BRA,,,,,,,,,,,,,,,,,,,,,,,,,,,,,,,1.20091242848293E+01,9.52972660096524E+00,9.73379589010628E+00,1.05001503337974E+01,1.18960101028903E+01,,,1.03360112523423E+01,1.22339362924003E+01,1.34484707369319E+01,1.40038766351231E+01,1.47120488362669E+01,1.58367203322168E+01,1.54058211269553E+01,1.58846447436013E+01,1.67086790166633E+01,1.64553309090776E+01,1.68093503481105E+01,1.67185702251176E+01,1.56402086958771E+01,,
BRB,,,,,,,,,,,,,,,,,,,,,,,,,,,,,,,,,,,,,,,,,,,,,,,,3.55908036049513E+01,3.31524816093470E+01,,,
BTN,,,,,,,,,,,,,,,,,,,,,,,,,,,,,,,4.70424747159497E+00,5.08430265872902E+00,5.31313328542206E+00,6.45223597327204E+00,6.33564401149562E+00,6.99424955286342E+00,7.91689674659877E+00,6.97944957832902E+00,8.49229742666832E+00,7.41028008409310E+00,1.02836156545731E+01,8.91445175615298E+00,9.79207881847941E+00,9.53431010856962E+00,7.82035160620106E+00,8.34658466275847E+00,9.03097340781244E+00,7.51948277779463E+00,8.42071613824162E+00,9.23514990159008E+00,,
BWA,,,,,,,,,,,,,,,,,,,,,,,,,,,,,,,2.75016129375315E+01,2.55571934886930E+01,2.78455400724745E+01,2.36845760088885E+01,1.95458125474337E+01,1.66155553081201E+01,1.50862209860680E+01,,,,,,,,,,,,,,,
CAF,,,,,,,,,,,,,,,,,,,,,,,,,,,,,,,,,,,,,,,,,,,,,6.21422340399183E+00,,,,,,,
CAN,,,,,,,,,,,,,,,,,,,,,,,,,,,,,,,,1.52988107101743E+01,1.46462425765190E+01,1.35155613984906E+01,1.37418225829676E+01,1.37243869273691E+01,1.45975929183236E+01,1.51186145754152E+01,1.51801200691168E+01,1.55197105983973E+01,1.53481822479953E+01,1.43411657256725E+01,1.38217806324025E+01,1.38532363426546E+01,1.40507519525047E+01,1.38485054718691E+01,1.37499525994464E+01,1.37098266266298E+01,1.27313027544907E+01,1.17759821057761E+01,,
CHE,,,,,,,,,,,,,,,,,,,,,,,,,,,,,,,8.81196509404874E+00,8.54522334024817E+00,8.71133078034947E+00,8.02984213438769E+00,8.61298793130186E+00,8.70826951094239E+00,9.16683858188061E+00,9.12625913185122E+00,1.01583123919141E+01,9.73449466070500E+00,1.10872137862478E+01,1.00390244845743E+01,9.95144178837123E+00,9.95113442407889E+00,9.97907911391086E+00,1.03085831957633E+01,1.04272074030572E+01,1.00015476644034E+01,1.08756064303013E+01,,,
CHL,,,,,,,,,,,,,,,,,,,,,,,,,,,,,,,,,,,,,,,,,1.67219141271570E+01,1.65974714879971E+01,1.67969640040303E+01,1.63054622670901E+01,1.70122876389800E+01,1.87437883357297E+01,2.05561884490952E+01,2.14020668614050E+01,1.96869604682570E+01,1.55640939256681E+01,,
CHN,,,,,,,,,,,,,,,,,,,,,,,,,,,,,,,3.93243981615402E+00,3.60948511351376E+00,3.25180604304790E+00,2.49675241057455E+00,5.55086424927227E+00,5.01877661665600E+00,4.70407409176611E+00,5.32928975725881E+00,5.66052937134191E+00,6.18620159015132E+00,6.81563311769763E+00,7.40202210801349E+00,8.50340163369074E+00,8.53899621945530E+00,8.86055151511520E+00,8.67959444151063E+00,9.18806034693220E+00,9.92881656740578E+00,1.02686609093658E+01,,,
CIV,,,,,,,,,,,,,,,,,,,,,,,,,,,,,,,,,,,,,,,,,,,,1.49056345026589E+01,1.51789597703262E+01,9.77037724798847E+00,1.50238002081075E+01,1.54752228411243E+01,1.55746876303885E+01,1.65551181482312E+01,,
CMR,,,,,,,,,,,,,,,,,,,,,,,,,,,,,,,9.76735861966012E+00,8.90515524478040E+00,9.75370088628914E+00,8.35786231651996E+00,7.27976428286057E+00,8.60129114304134E+00,,,1.11450313215774E+01,1.11980825234458E+01,,,,,,,,,,,,
COG,,,,,,,,,,,,,,,,,,,,,,,,,,,,,,,,,1.46960329726945E+01,1.17352979871070E+01,8.27598843601124E+00,1.12431357697406E+01,1.11310302377472E+01,7.61820461754075E+00,1.09025302147639E+01,7.77133788725592E+00,5.93542628340240E+00,9.21564092173998E+00,8.36144923074730E+00,8.70277394689438E+00,7.84924768592719E+00,6.24311241343009E+00,,,,,,
COL,,,,,,,,,,,,,,,,,,,,,,,,,,,,,,,,,,,,,,,,,,1.10283150328346E+01,9.85437015826845E+00,1.12267740388334E+01,1.05321459358205E+01,1.28128644210304E+01,1.18320783129894E+01,1.36042369135550E+01,1.23160032928860E+01,1.18308957868925E+01,,
CPV,,,,,,,,,,,,,,,,,,,,,,,,,,,,,,,,,,,,,,,,,,,,,,2.05000837556712E+01,2.27444438575378E+01,2.37764869186589E+01,2.45612884404758E+01,1.99475082481803E+01,,
CRI,,,,,,,,,,,,,,,,,,,,,,,,,,,,,,,,,,,,,,,,,,,,,,,,,1.57245660081419E+01,1.38614337100854E+01,,
CYP,,,,,,,,,,,,,,,,,,,,,,,,,,,,,,,,,,,,3.38262141211779E+01,3.26567872125214E+01,3.13579474479829E+01,3.47495346767015E+01,3.57083603565557E+01,3.93164314054302E+01,4.04583760702998E+01,4.11539796237536E+01,4.36551173095083E+01,4.28204342266410E+01,4.54391422381463E+01,4.77099620644963E+01,5.57073580344653E+01,5.23887426390607E+01,2.57706833471026E+01,,
CZE,,,,,,,,,,,,,,,,,,,,,,,,,,,,,,,,,,2.22851441684126E+01,1.93916218007684E+01,1.70867535570554E+01,1.64366406699270E+01,1.58896777306976E+01,1.53359683002560E+01,1.58543096707656E+01,1.54354460528173E+01,1.59117325209356E+01,1.57584790328968E+01,1.61458765826837E+01,1.56971353173021E+01,1.55609743346039E+01,1.46559565338420E+01,1.51835404728098E+01,1.48271859482558E+01,1.34639044752080E+01,,
DEU,,,,,,,,,,,,,,,,,,,,,,,,,,,,,,,,,,,,1.10738436570192E+01,1.08293333333333E+01,1.07325107183938E+01,1.09644333316324E+01,1.17408259174083E+01,1.19819291819292E+01,1.13245159141729E+01,1.13103836413094E+01,1.14454016298021E+01,1.09363756433028E+01,1.11432296349577E+01,1.13522624141061E+01,1.18052295655755E+01,1.18615086102353E+01,1.21575068435460E+01,,
DNK,,,,,,,,,,,,,,,,,,,,,,,,,,,,,,,,,,,,3.19102148507422E+01,3.21927875768592E+01,3.18595360332468E+01,3.18385102989302E+01,3.19141835047010E+01,3.08221867068945E+01,2.95493972421611E+01,2.94228974668855E+01,2.94876307303049E+01,3.07945818385191E+01,3.26096565166830E+01,3.15757152689379E+01,3.57663467164996E+01,3.49769048673545E+01,3.45559589108923E+01,,
DOM,,,,,,,,,,,,,,,,,,,,,,,,,,,,,,,,,,,,,,,,,,,,,1.28930892232305E+01,1.45501716557190E+01,1.48369114874165E+01,1.59142470019749E+01,1.49290485252902E+01,,,
DZA,,,,,,,,,,,,,,,,,,,,,,,,,,,,,,,,,,,,,,,,,,,,,,,4.07007753759398E+01,3.72034303567443E+01,4.52558181653536E+01,3.43017492555567E+01,,
EAP,,,,,,,,,,,,,,,,,,,,,,,,,,,,,,,,7.40766575329550E+00,7.25488201796519E+00,6.60993829932636E+00,8.71666126442264E+00,7.75160018888446E+00,8.43032988275798E+00,8.87058989482264E+00,7.52652754774859E+00,8.04078199335531E+00,7.67358175470426E+00,8.66388497913652E+00,9.51688619279713E+00,9.87603041120466E+00,1.00737697173847E+01,1.00108602432519E+01,1.03791610950781E+01,1.08399305882051E+01,1.11159719766300E+01,,,
EAS,,,,,,,,,,,,,,,,,,,,,,,,,,,,,,,,,,,,,,,,,,,,,,,1.24404711333098E+01,1.25668337804254E+01,1.19246103942446E+01,,,
ECA,,,,,,,,,,,,,,,,,,,,,,,,,,,,,,,,,,,,,,,,,,,,,,1.65385963688194E+01,1.73292565715148E+01,1.70033209849284E+01,1.70540217671534E+01,1.50775407138270E+01,,
ECS,,,,,,,,,,,,,,,,,,,,,,,,,,,,,,,,,,,,1.84513788982159E+01,1.88981210966492E+01,1.95926590322816E+01,2.01466339789513E+01,2.07485474535911E+01,2.09577786523770E+01,2.03816060470106E+01,1.95753750506150E+01,1.92656260375215E+01,1.91787010341132E+01,1.96726817614657E+01,2.00450022887529E+01,2.00426850608879E+01,1.95802226235874E+01,1.85329820951429E+01,,
ECU,,,,,,,,,,,,,,,,,,,,,,,,,,,,,,,1.41049180097578E+01,1.62390908291557E+01,2.52022348750777E+01,2.77098831030818E+01,2.72492317243601E+01,,,,,,,,,,,,,,,,,
EGY,,,,,,,,,,,,,,,,,,,,,,,,,,,,,,,1.31883746840479E+01,1.49041206563002E+01,1.84802300503235E+01,1.87641752577320E+01,1.90474285714286E+01,1.76230392156863E+01,1.74629468177855E+01,1.59646483640466E+01,,,,,1.34077591945404E+01,1.33499401279463E+01,1.38359776727383E+01,1.40686351509983E+01,1.58295127412365E+01,1.53498523093448E+01,1.53205248464545E+01,1.56613605833813E+01,,
EMU,,,,,,,,,,,,,,,,,,,,,,,,,,,,,,,,,,,,1.71604881344683E+01,1.76473529581423E+01,1.82189337291766E+01,1.86202297882878E+01,1.92657584164918E+01,1.91798364810944E+01,1.88215373174038E+01,1.82427592904080E+01,1.80803612203501E+01,1.78517918739371E+01,1.80748364995742E+01,1.85286716964960E+01,1.86318881825519E+01,1.80407614905940E+01,1.72232169175956E+01,,
ESP,,,,,,,,,,,,,,,,,,,,,,,,,,,,,,,,,,,,1.58625238984358E+01,1.60918424412531E+01,1.55792276964048E+01,1.55672084716576E+01,1.59926337461332E+01,1.61594445493389E+01,1.58289235144958E+01,1.27869216654827E+01,1.21891001610619E+01,1.17620760913248E+01,1.25861583288585E+01,1.31655091416705E+01,1.38941489477826E+01,1.07121063408215E+01,8.51540068734261E+00,,
EST,,,,,,,,,,,,,,,,,,,,,,,,,,,,,,,,,,,,1.92434139847674E+01,2.21691263776605E+01,1.82889473134797E+01,1.79553162478613E+01,1.66276010854713E+01,1.57682376697517E+01,1.54849556772425E+01,1.60303765633636E+01,1.61915556910510E+01,1.59625465243506E+01,1.60587040608619E+01,1.61675257731959E+01,1.66258025439128E+01,1.50866416681547E+01,1.74182363112392E+01,,
ETH,,,,,,,,,,,,,,,,,,,,,,,,,,,,,,,8.70539252038160E+00,7.50772065481130E+00,5.64371883119481E+00,5.95726008957602E+00,7.73715198125592E+00,8.49415949263640E+00,9.02117011205424E+00,1.01658127942398E+01,1.09115136673029E+01,1.07093284343744E+01,,8.14588325223808E+00,9.78430917745197E+00,9.18683926479199E+00,9.75502791008763E+00,8.79135703469483E+00,,,,,,
EUU,,,,,,,,,,,,,,,,,,,,,,,,,,,,,,,,,,,,1.87834915890801E+01,1.92186914734317E+01,1.99485552605422E+01,2.04828909109614E+01,2.11335345722105E+01,2.11811404564568E+01,2.06374474757600E+01,1.99649066875747E+01,1.96612662093070E+01,1.95755914519385E+01,1.99145368285724E+01,2.03655953579272E+01,2.04641744599235E+01,2.00159277471439E+01,1.88476410800430E+01,,
FIN,,,,,,,,,,,,,,,,,,,,,,,,,,,,,,,,,,,,2.07372168554297E+01,2.21212335192826E+01,2.28962562860868E+01,2.30564772659070E+01,2.28415398827675E+01,2.46476795642800E+01,2.24075297225892E+01,2.29710538406917E+01,2.27401721969890E+01,2.25493544192400E+01,2.25860546659129E+01,2.21011673151751E+01,2.16643496635712E+01,2.12231552752207E+01,,,
FJI,,,,,,,,,,,,,,,,,,,,,,,,,,,,,,,2.27570707070707E+01,2.18716944172380E+01,2.16010076879642E+01,2.14106682530240E+01,2.14956593324353E+01,2.22061424086037E+01,2.12021419009371E+01,,,,,,,,2.21900155920428E+01,2.13480642250410E+01,2.31870233191460E+01,,,,,
FRA,,,,,,,,,,,,,,,,,,,,,,,,,,,,,,,,,,,,1.87679790934650E+01,1.98972336469109E+01,2.06719612866001E+01,2.26721002034738E+01,2.34149055603515E+01,2.31904842680977E+01,2.29816647767304E+01,2.24619742365099E+01,2.21336651421397E+01,2.22767868171638E+01,2.24213320369776E+01,2.25439934519884E+01,2.18846054403864E+01,2.16708090923533E+01,1.98036132161710E+01,,
GBR,,,,,,,,,,,,,,,,,,,,,,,,,,,,,,,,,,,,2.63276900879081E+01,2.62776215707294E+01,2.67367310208241E+01,2.77739101947214E+01,2.80368890850947E+01,2.84345741516160E+01,2.82104228891751E+01,2.70510169548256E+01,2.63358678161626E+01,2.65576629569161E+01,2.72498560672632E+01,2.79641182417758E+01,2.76563606661233E+01,2.86112148756900E+01,2.59681617561142E+01,,
GEO,,,,,,,,,,,,,,,,,,,,,,,,,,,,,,,,,,,,,,8.33383325987132E+00,7.24198647730730E+00,7.90305220338784E+00,7.65175655171470E+00,7.35241442875454E+00,7.61665802995069E+00,7.03285234497347E+00,9.92742942325607E+00,1.21100333079592E+01,1.54482480512354E+01,1.77153065086424E+01,2.38093586661000E+01,2.31385522072723E+01,,
GHA,,,,,,,,,,,,,,,,,,,,,,,,,,,,,,,1.14367966265691E+01,1.31595931185276E+01,1.07686567778712E+01,1.31492471785336E+01,,,,,,,,1.71929278946802E+01,1.74931112111661E+01,1.84776861347961E+01,2.17521055188478E+01,2.13215083157860E+01,1.28073759381947E+01,1.38779345698684E+01,1.38959526173948E+01,1.26121267899524E+01,,
GIN,,,,,,,,,,,,,,,,,,,,,,,,,,,,,,,,,,,,,,,1.04510890398349E+01,1.11293021249752E+01,,,,,,,,,,,,
GMB,,,,,,,,,,,,,,,,,,,,,,,,,,,,,,,1.82047799494292E+01,,,,,,,,,,,,,,,,,,,,,
GRC,,,,,,,,,,,,,,,,,,,,,,,,,,,,,,,,,,,,1.89290089131204E+01,1.89490826202051E+01,1.99170436648681E+01,2.15080954061597E+01,2.25222413383727E+01,2.34642953580879E+01,2.20092480235910E+01,2.16105104671903E+01,1.99572418434174E+01,1.97659601730114E+01,2.03382897250875E+01,2.04066338543508E+01,2.07464058592099E+01,2.03593223471134E+01,1.96117272126072E+01,,
GRD,,,,,,,,,,,,,,,,,,,,,,,,,,,,,,,,2.30467312645652E+01,2.17160902365309E+01,2.35222743121397E+01,2.23358800226372E+01,2.30831099195710E+01,,,,,,,,,,,,,,,,
GTM,,,,,,,,,,,,,,,,,,,,,,,,,,,,,,,6.86521167042449E+00,7.32568643787739E+00,8.31394870079594E+00,7.81982716975758E+00,6.76522723609661E+00,7.71473124255776E+00,8.52966373904846E+00,8.69766927303715E+00,9.37193397451466E+00,1.02471509266561E+01,1.00649764496874E+01,1.08630282940689E+01,1.18805489985650E+01,1.16738573729302E+01,1.15527349544555E+01,1.12053931831344E+01,1.18569711198545E+01,1.20593627523828E+01,1.12738131249546E+01,1.03494408002119E+01,,
HIC,,,,,,,,,,,,,,,,,,,,,,,,,,,,,,,,,,,,,,,,,,1.63622192958030E+01,1.50663001029952E+01,1.50676743628883E+01,1.53065570218724E+01,1.59797123696895E+01,1.58403709689748E+01,1.60823735092388E+01,1.51763944459922E+01,1.35264238807185E+01,,
HKG,,,,,,,,,,,,,,,,,,,,,,,,,,,,,,,,,,,,,,,,,,,9.09463139055863E+00,1.06039144417422E+01,1.20449128934155E+01,1.26623944914978E+01,1.27222767099760E+01,1.42449061448129E+01,1.29516741392871E+01,1.27841451943572E+01,,
HND,,,,,,,,,,,,,,,,,,,,,,,,,,,,,,,,,,,,,,,,,,,,1.37464619792931E+01,1.44958633647621E+01,1.45348512347871E+01,1.52383532598614E+01,1.63850009926031E+01,1.61305187063750E+01,1.45733670515883E+01,,
HRV,,,,,,,,,,,,,,,,,,,,,,,,,,,,,,,,1.48888717639539E+01,1.97348173178989E+01,2.15487455988172E+01,2.68720230340023E+01,2.31346666966644E+01,2.29788795668076E+01,2.21018246018336E+01,2.53209073958310E+01,2.33470644947430E+01,2.24228053611764E+01,2.10579271484305E+01,2.16341760203893E+01,2.09286131054153E+01,2.01406652451226E+01,2.00445131211661E+01,2.00894036954577E+01,2.01801496052304E+01,2.01652268657585E+01,1.89978968535288E+01,,
HUN,,,,,,,,,,,,,,,,,,,,,,,,,,,,,,,,,,,,2.34910469568837E+01,2.31526078326190E+01,2.11343574056717E+01,2.09873081199863E+01,2.20121859837156E+01,2.26418699543214E+01,2.17061516172845E+01,2.11600045912784E+01,2.10512058406420E+01,2.06973591796533E+01,2.02789109396041E+01,2.01385927010012E+01,2.18390381471205E+01,2.36724406323613E+01,2.39281507384849E+01,,
IDN,,,,,,,,,,,,,,,,,,,,,,,,,,,,,,,,1.56411641187481E+01,1.57580392596338E+01,1.43564067572313E+01,1.55619918465926E+01,1.40193667847269E+01,1.40472204640775E+01,1.59964695626844E+01,1.49661706338839E+01,1.54751667001886E+01,,1.15781845835748E+01,1.18269595891699E+01,1.23855323103378E+01,1.23307674977850E+01,1.25023780424986E+01,1.22544609662795E+01,1.24272818853744E+01,1.30362100278717E+01,1.14354830723082E+01,,
IND,,,,,,,,,,,,,,,,,,,,,,,,,,,,,,,1.01073690715279E+01,1.02879206511396E+01,9.91733889988055E+00,8.63566276471030E+00,9.08616568415498E+00,9.33342730780752E+00,9.33993995431654E+00,9.11621456326064E+00,8.21088865400220E+00,8.79861272979224E+00,8.96759475511270E+00,8.20811495810355E+00,8.81078123542255E+00,9.23342993464437E+00,9.40587112058476E+00,9.91614048533711E+00,1.10281362898703E+01,1.18958749212362E+01,1.12000040124508E+01,9.78706071855653E+00,,
IRL,,,,,,,,,,,,,,,,,,,,,,,,,,,,,,,,,,,,2.62375832191861E+01,2.68685913011626E+01,2.66431458213856E+01,2.60758550532967E+01,2.62485304686850E+01,2.59783006631530E+01,2.41279455317049E+01,2.31721432985042E+01,2.36230365988996E+01,2.47450417688279E+01,2.51004842182184E+01,2.64243849280786E+01,2.55277030820985E+01,2.33048917029505E+01,2.12824304075730E+01,,
IRN,,,,,,,,,,,,,,,,,,,,,,,,,,,,,,,5.99378538796878E+00,6.65888770723327E+00,7.44098903204848E+00,4.09507386964288E+00,4.67815187597363E+00,6.60363234380922E+00,8.65277949514969E+00,1.09895593577632E+01,9.28557933281745E+00,9.05929345275257E+00,6.34188978653308E+00,6.31644258490717E+00,5.51801074847178E+00,5.89792542142200E+00,6.04887451475428E+00,7.85160944251178E+00,7.42892297459296E+00,7.26247165693542E+00,7.55670180900076E+00,9.25652898264144E+00,,
ISL,,,,,,,,,,,,,,,,,,,,,,,,,,,,,,,,,,,,,,,2.45677671814169E+01,2.65686731435526E+01,2.60534208765723E+01,2.36601045919725E+01,2.36356685165639E+01,2.46687103711114E+01,2.58388542717259E+01,2.81066238287935E+01,2.80661489437542E+01,2.73100364433399E+01,2.43017244695577E+01,2.14574148184403E+01,,
ISR,,,,,,,,,,,,,,,,,,,,,,,,,,,,,,,,,,,,,,,,,2.87370047577855E+01,2.83952918404019E+01,2.76283291621531E+01,2.66869222738641E+01,2.65892889393300E+01,2.69281663041064E+01,2.75652299907048E+01,2.78580734367331E+01,2.53687563780787E+01,2.30358787200235E+01,,
ITA,,,,,,,,,,,,,,,,,,,,,,,,,,,,,,,,,,,,2.36725270925712E+01,2.35251311118350E+01,2.52111410897365E+01,2.40621464258720E+01,2.45826627224187E+01,2.32113933864840E+01,2.28323736160161E+01,2.20760749239162E+01,2.20989386693239E+01,2.15743796509093E+01,2.12070232886327E+01,2.27352330136322E+01,2.30196743232314E+01,2.24978118041603E+01,2.29841735124275E+01,,
JAM,,,,,,,,,,,,,,,,,,,,,,,,,,,,,,,,,,,,,,,,,,,,2.45451751361794E+01,2.52181833571926E+01,2.55370993700267E+01,2.60097094085758E+01,2.68911507351634E+01,2.62305994358727E+01,2.09994117201574E+01,,
JOR,,,,,,,,,,,,,,,,,,,,,,,,,,,,,,,1.86328373871004E+01,1.85968967811986E+01,2.29722470258526E+01,2.09185606416309E+01,1.99874211479151E+01,2.07090740244189E+01,2.16865826323394E+01,1.90499222461603E+01,1.81192317681285E+01,1.81052061105074E+01,1.89911513273009E+01,1.86699228872520E+01,1.74779998234100E+01,1.82136534631556E+01,2.09960841472259E+01,2.44158117376541E+01,2.36312638984759E+01,2.37796279298612E+01,1.71225568441996E+01,1.61650819551392E+01,,
JPN,,,,,,,,,,,,,,,,,,,,,,,,,,,,,,,,,,,,,,,,,,,,,,,1.09170955493956E+01,1.04247668957426E+01,9.22614327043866E+00,8.70365380315444E+00,,
KAZ,,,,,,,,,,,,,,,,,,,,,,,,,,,,,,,,,,,,,,6.78722058676219E+00,7.29479389602331E+00,7.74536993437448E+00,1.02213950712596E+01,9.64230065323767E+00,1.21343597833771E+01,1.30832376530724E+01,1.39086779667034E+01,1.71493405893716E+01,1.48508425872809E+01,1.22785729312081E+01,1.26609941312107E+01,8.05513661002019E+00,,
KEN,,,,,,,,,,,,,,,,,,,,,,,,,,,,,,,,1.76238629026727E+01,1.84072504575753E+01,1.49656205102726E+01,1.49354372843902E+01,2.04943252750119E+01,1.58475751382998E+01,1.60621721300303E+01,1.50594340769165E+01,1.61544422237968E+01,1.68311439614109E+01,1.78317747821305E+01,1.72945998384495E+01,1.57657722070151E+01,1.69728203627164E+01,1.86704592164792E+01,1.73776101832185E+01,1.77901886596932E+01,1.87756093372736E+01,1.88195210628155E+01,,
KGZ,,,,,,,,,,,,,,,,,,,,,,,,,,,,,,,,,,1.48598427549629E+01,1.46756855697551E+01,1.50640132300203E+01,1.25944793220310E+01,1.25113978172243E+01,1.42331794484720E+01,1.22148314354288E+01,1.17437942451139E+01,1.24356925042601E+01,,,,,1.42182679980070E+01,1.63963384184522E+01,1.65085064835240E+01,1.50360908226648E+01,,
KHM,,,,,,,,,,,,,,,,,,,,,,,,,,,,,,,,,,,,,,,,,,,8.17291193041795E+00,7.53784443444623E+00,8.11726502340037E+00,7.89324276816088E+00,8.17891487617308E+00,9.69697926494016E+00,1.05551963609478E+01,9.66870176824224E+00,,
KNA,,,,,,,,,,,,,,,,,,,,,,,,,,,,,,,1.96328413461320E+01,1.95453590599259E+01,1.93419454199186E+01,2.02102254844942E+01,2.02939691842208E+01,,,,,,,,,2.00042594072548E+01,,,1.84031296344659E+01,,,,,
KOR,,,,,,,,,,,,,,,,,,,,,,,,,,,,,,,1.44158148125135E+01,1.34495536652545E+01,1.37202000268711E+01,1.35536018687505E+01,1.38917874407495E+01,1.42348629530258E+01,1.44809454556479E+01,1.42380462553254E+01,1.40048241819713E+01,1.42885885088487E+01,1.54060188715528E+01,1.47053400043475E+01,1.44291668361000E+01,1.49474870543962E+01,1.42455903891762E+01,1.47318129016294E+01,1.51906731028041E+01,1.65596891528626E+01,1.62994492288873E+01,1.54493803406605E+01,,
KWT,,,,,,,,,,,,,,,,,,,,,,,,,,,,,,,1.54507084715104E+00,2.55607392280297E-01,8.58148102225656E-02,1.09262407164020E+00,1.42276427699562E+00,1.14616711856051E+00,9.65076954124893E-01,1.17308423396513E+00,1.49232966631140E+00,1.26511869628042E+00,,,9.57722174288179E-01,9.60257937898647E-01,1.07895187532112E+00,9.83342516848218E-01,8.24567356633865E-01,8.77812221847089E-01,8.85199169813208E-01,1.10158730158730E+00,,
LAC,,,,,,,,,,,,,,,,,,,,,,,,,,,,,,,1.22785617633439E+01,1.10714980152522E+01,1.11798212467443E+01,1.14390391777501E+01,1.18837176338737E+01,,,1.12481531309416E+01,1.17809523331747E+01,1.23544327464538E+01,1.30492475450871E+01,,,,,,,,,,,
LAO,,,,,,,,,,,,,,,,,,,,,,,,,,,,,,,,,,,,,,,,,,,,,,,1.03790278542732E+01,1.14879110725515E+01,1.20281679002495E+01,1.25968437913281E+01,,
LBN,,,,,,,,,,,,,,,,,,,,,,,,,,,,,,,,,,,,,,,,,1.19012298232129E+01,1.18780771977299E+01,1.44305901911887E+01,1.53767134599505E+01,1.60319055012634E+01,1.49159854346837E+01,1.47301957074440E+01,1.48073253382045E+01,1.58940213915536E+01,1.70855020988050E+01,,
LBR,,,,,,,,,,,,,,,,,,,,,,,,,,,,,,,,,,,,,,,,,,,,,,2.39591827710000E-01,2.28126402974983E-01,3.11015540856539E-01,3.18976728159059E-01,,,
LCN,,,,,,,,,,,,,,,,,,,,,,,,,,,,,,,1.22845275118666E+01,1.10808089381992E+01,1.11944637137805E+01,1.15052483937054E+01,1.19385161696531E+01,,,1.12606173993482E+01,1.17894418118283E+01,1.23666265263874E+01,1.30583959331099E+01,,,,,,,,,,,
LIC,,,,,,,,,,,,,,,,,,,,,,,,,,,,,,,,,,,,,,,,,,9.67362428117601E+00,9.75055907946889E+00,1.00739135674166E+01,1.04694019405770E+01,1.07344397026947E+01,,,,,,
LKA,,,,,,,,,,,,,,,,,,,,,,,,,,,,,,,1.90208338512791E+01,1.83047979696249E+01,1.79534568745988E+01,1.74699988990422E+01,1.71679756304785E+01,1.77520171555561E+01,1.69506905099150E+01,1.60076740505440E+01,1.44764269842611E+01,1.50120618754318E+01,1.45027689482572E+01,1.46255051951688E+01,1.35562948759716E+01,1.27106758527447E+01,1.34659689569891E+01,1.37325290221471E+01,1.45772591775899E+01,1.42216085895166E+01,1.32773314246342E+01,,,
LMC,,,,,,,,,,,,,,,,,,,,,,,,,,,,,,,,1.26318476052710E+01,1.31181501124725E+01,1.21700146046947E+01,1.25980617539626E+01,1.24100488420748E+01,1.25583530600692E+01,1.26549405133362E+01,1.05288171683918E+01,1.11601351477272E+01,,9.95869675537334E+00,1.09321041752592E+01,1.13005847581992E+01,1.07222031977702E+01,1.11165467054841E+01,1.18104688292574E+01,1.22875649027868E+01,1.22543022102944E+01,1.16198433831461E+01,,
LMY,,,,,,,,,,,,,,,,,,,,,,,,,,,,,,,,,,,,,,,,,1.08938031011279E+01,,1.14335209025965E+01,1.18287923841583E+01,1.20424523709921E+01,1.28307330218141E+01,1.38033523597111E+01,1.40145580701994E+01,1.40397442749183E+01,,,
LSO,,,,,,,,,,,,,,,,,,,,,,,,,,,,,,,3.98879693943803E+01,4.23682483095430E+01,4.36332215522615E+01,4.76366608866918E+01,4.84018409162750E+01,4.78601705694414E+01,4.54044308066992E+01,4.62109228844391E+01,3.82270064399645E+01,3.93531470794610E+01,3.73776995041952E+01,4.02457376497936E+01,3.82663851324989E+01,4.08942236130945E+01,4.67031496603172E+01,4.66476728290390E+01,6.16236381921511E+01,5.74799745840215E+01,5.97935415563790E+01,,,
LTU,,,,,,,,,,,,,,,,,,,,,,,,,,,,,,,,,,,,,,,,,1.45550191530671E+01,1.43874301199295E+01,1.72941861068060E+01,1.70835718072873E+01,1.69619986666199E+01,1.72599652513725E+01,1.78571083475858E+01,1.77478055439849E+01,1.73842300552459E+01,1.39787725048683E+01,,
LUX,,,,,,,,,,,,,,,,,,,,,,,,,,,,,,,,,,,,,,,,2.55029637371974E+01,2.63752141653884E+01,2.59406482175848E+01,2.53749927979143E+01,2.45545982457378E+01,2.43971511572444E+01,2.52480639308530E+01,2.41639978565328E+01,2.40104658027577E+01,2.36706842635908E+01,2.45202272717292E+01,,
LVA,,,,,,,,,,,,,,,,,,,,,,,,,,,,,,,,,,,1.51383108935129E+01,1.32173171582497E+01,1.41113747927571E+01,1.66690055853378E+01,1.71090727407825E+01,1.55120604810687E+01,1.41556417547018E+01,1.37410573068010E+01,1.37289923719137E+01,1.41002862918124E+01,1.36109524653727E+01,1.50544756101600E+01,1.58723907035812E+01,1.56449237147643E+01,1.50109042173352E+01,1.27107854246742E+01,,
MAC,,,,,,,,,,,,,,,,,,,,,,,,,,,,,,,,,,,,,1.41872567144395E+01,1.73635891496288E+01,1.56269860284488E+01,1.57053008565722E+01,1.65673043642790E+01,1.73392456374330E+01,1.81998314227989E+01,2.09364286140135E+01,2.21441278780020E+01,2.17143630971082E+01,2.16448862327724E+01,2.60532676116065E+01,3.07147017453956E+01,2.96976680155782E+01,,
MAR,,,,,,,,,,,,,,,,,,,,,,,,,,,,,,,,,,,,,,,,,,,1.99317738845189E+01,1.96351223830517E+01,1.98713402843648E+01,2.19662602343453E+01,2.24316535377290E+01,2.51186450826804E+01,2.75739556710605E+01,2.39697846193915E+01,,
MDA,,,,,,,,,,,,,,,,,,,,,,,,,,,,,,,,,,,,,1.20896172189218E+01,1.82831986606131E+01,1.87333174316512E+01,1.50573270821849E+01,1.47258544054338E+01,1.21713376650726E+01,1.28813543692286E+01,1.46729136890880E+01,1.63575064848884E+01,1.84854037391876E+01,1.95710510216802E+01,2.05667007882208E+01,2.04460968019778E+01,1.76852556677147E+01,,
MDG,,,,,,,,,,,,,,,,,,,,,,,,,,,,,,,,,,,,,,,,,1.13260830447828E+01,9.73894115486739E+00,7.66963419363322E+00,1.00089825071768E+01,1.08775238476274E+01,1.01056230978936E+01,1.06709445885519E+01,1.14329106023142E+01,1.30043872984669E+01,,,
MDV,,,,,,,,,,,,,,,,,,,,,,,,,,,,,,,1.39623192639112E+01,1.46140952989065E+01,1.49589823640772E+01,1.37345373227277E+01,1.30045821514292E+01,1.35963884925789E+01,1.34521788341822E+01,1.44455044148385E+01,1.42002404073801E+01,1.40915703839537E+01,1.37961100788493E+01,1.08457082456813E+01,1.04716411038531E+01,1.06334652004828E+01,1.21543047725864E+01,1.37404093091512E+01,1.44417704938008E+01,1.50245400994016E+01,1.46965358290264E+01,1.19035124309826E+01,,
MEX,,,,,,,,,,,,,,,,,,,,,,,,,,,,,,,1.17826894954672E+01,1.15461491162096E+01,1.15880233550549E+01,1.12649620972236E+01,1.06281303976660E+01,1.06498433952436E+01,1.07931965514921E+01,1.12025012279627E+01,1.01941981633662E+01,1.07374484170144E+01,1.16552896026751E+01,,,,,,,,,,,
MIC,,,,,,,,,,,,,,,,,,,,,,,,,,,,,,,,,,,,,,,,1.01838799090432E+01,1.08850518986630E+01,,1.14741306867087E+01,1.18669581684811E+01,1.20742578252131E+01,1.28710540238450E+01,1.38518761164400E+01,1.40592222972499E+01,1.40740944350608E+01,,,
MKD,,,,,,,,,,,,,,,,,,,,,,,,,,,,,,,,,,,,,,,,,,,,,,1.92615755992164E+01,1.89177571600861E+01,1.94876951539635E+01,1.90944490529436E+01,,,
MLI,,,,,,,,,,,,,,,,,,,,,,,,,,,,,,,,,,,,,,,,,1.31520130369393E+01,1.39488803755771E+01,1.30013925681659E+01,1.37661785378272E+01,1.52884759253669E+01,1.56560899113477E+01,1.56626751201433E+01,1.48817518248175E+01,1.32743674929721E+01,1.47482163949917E+01,,
MLT,,,,,,,,,,,,,,,,,,,,,,,,,,,,,,,,,,,,,,,,,,,,2.48823332669248E+01,2.61002117951380E+01,2.61808066615329E+01,2.72857043553811E+01,2.82150585031111E+01,2.68301327406824E+01,2.76412303844217E+01,,
MMR,,,,,,,,,,,,,,,,,,,,,,,,,,,,,,,6.19778414572987E+00,5.61020629285277E+00,5.03739654451358E+00,4.72801035299943E+00,4.25171345046186E+00,3.74448720005159E+00,3.95931715447360E+00,4.41523918074799E+00,3.51930951883989E+00,2.75274845684649E+00,2.96650687713913E+00,2.25714053823730E+00,2.00104706364423E+00,2.21041192149512E+00,3.27245647586846E+00,3.88177848278208E+00,,,,,,
MNA,,,,,,,,,,,,,,,,,,,,,,,,,,,,,,,,,,,,,,,,,,,1.18757826964606E+01,1.19460570035244E+01,,,1.86721421039791E+01,1.77041862238654E+01,1.98309102303672E+01,1.74177489679196E+01,,
MNG,,,,,,,,,,,,,,,,,,,,,,,,,,,,,,,,,1.10813657493787E+01,1.75173290207141E+01,1.13241649288739E+01,9.77395635681235E+00,9.60234781660849E+00,1.05724331517910E+01,8.35867208743328E+00,9.80581787717774E+00,1.39101606967841E+01,1.46620591872283E+01,1.33692402227291E+01,1.80387455710695E+01,,,2.87099746783994E+01,2.34791764783736E+01,2.16518153602834E+01,1.65402944035133E+01,,
MUS,,,,,,,,,,,,,,,,,,,,,,,,,,,,,,,,,,,,,,,,,,,,,,,,,,1.86947579509011E+01,,
MYS,,,,,,,,,,,,,,,,,,,,,,,,,,,,,,,,,,,,,1.93778503209833E+01,1.97533666432124E+01,1.67301582344219E+01,1.40937078196333E+01,1.36669089031737E+01,1.77948888050621E+01,1.74469550876406E+01,1.54956551225138E+01,1.51990937626569E+01,1.54261214099092E+01,1.50808074284391E+01,1.48226053657914E+01,1.52056297627441E+01,1.56638410560629E+01,,
NAC,,,,,,,,,,,,,,,,,,,,,,,,,,,,,,,,,,,,,,,,,,1.26290913835464E+01,1.05988697121119E+01,1.01393311619401E+01,1.02919250412637E+01,1.14174308692683E+01,1.20560327727371E+01,1.20584280213917E+01,1.05527027059680E+01,8.58341539193124E+00,8.95745266064186E+00,
NAM,,,,,,,,,,,,,,,,,,,,,,,,,,,,,,,2.73145864167078E+01,3.24149956408021E+01,3.03422710984802E+01,2.98441195441840E+01,2.71594353511735E+01,2.84141350543050E+01,2.74059023382853E+01,3.04817622828488E+01,2.92798978125499E+01,3.18976020112164E+01,2.75296552995392E+01,2.63951825773702E+01,2.59757183178098E+01,2.31756540853528E+01,2.42869139389395E+01,2.57606579032852E+01,2.91451654697564E+01,2.73342488039819E+01,,,,
NER,,,,,,,,,,,,,,,,,,,,,,,,,,,,,,,,,,,,,,,,,,,,,,1.00907213753689E+01,1.07006171697796E+01,1.13400715110636E+01,,,,
NGA,,,,,,,,,,,,,,,,,,,,,,,,,,,,,,,,,,,,,,,,,,,,,2.30420236137425E-01,1.75064442991168E-01,1.16679544052715E-01,1.95382728813977E-01,2.79011609156926E-01,,,
NIC,,,,,,,,,,,,,,,,,,,,,,,,,,,,,,,2.62658366755162E+01,1.82393673743543E+01,1.98495091477019E+01,1.89808828317596E+01,1.16691781181357E+01,1.21999392408435E+01,1.23189223348460E+01,1.37391881027682E+01,1.43196973905223E+01,1.39076831878510E+01,1.38141615951313E+01,1.27186326608685E+01,1.34880260706856E+01,1.52076083184712E+01,1.58139929956321E+01,1.67373265634697E+01,1.76958928913003E+01,1.81742363320965E+01,1.76035579318306E+01,1.75456102011137E+01,,
NLD,,,,,,,,,,,,,,,,,,,,,,,,,,,,,,,,,,,,2.19120686887614E+01,2.26714203061719E+01,2.22196898640416E+01,2.21668910567670E+01,2.26280642062389E+01,2.23301272849076E+01,2.25939235835803E+01,2.25206034212212E+01,2.16379247082997E+01,2.16291654451285E+01,2.26372059594045E+01,2.31938705999082E+01,2.33750107122932E+01,2.28360536333373E+01,2.26278790849959E+01,,
NOR,,,,,,,,,,,,,,,,,,,,,,,,,,,,,,,,,,,,,,,,,2.74352384250774E+01,2.68792045218679E+01,2.79331100099393E+01,2.62826055039885E+01,2.79622223458886E+01,2.89202021261068E+01,2.96859610673036E+01,2.92459919343443E+01,2.90088323369391E+01,2.61132814678609E+01,,
NPL,,,,,,,,,,,,,,,,,,,,,,,,,,,,,,,6.99669296820608E+00,6.62030193617176E+00,6.48334407233372E+00,6.65463735613210E+00,7.72913404793448E+00,8.98551385878864E+00,8.71991418688457E+00,8.72365986603116E+00,8.63933254666024E+00,8.42250523336725E+00,8.73598111139219E+00,8.80256568799984E+00,8.56058314089016E+00,8.65181185256516E+00,8.97495850015557E+00,9.17945342137588E+00,8.77975841023477E+00,9.77247340370720E+00,1.04400864087645E+01,1.18466620717715E+01,1.33364649864963E+01,
NZL,,,,,,,,,,,,,,,,,,,,,,,,,,,,,,,,,,,,,,,,,,2.90974507968211E+01,2.87095214935646E+01,2.97583962024530E+01,2.97430795659456E+01,3.07590906425661E+01,3.26194186663219E+01,3.08388277069251E+01,,,,
OEC,,,,,,,,,,,,,,,,,,,,,,,,,,,,,,,,,,,,,,,,,,1.63628932479003E+01,1.51241216449013E+01,1.51062729455567E+01,1.53314632588665E+01,1.60239691535290E+01,1.58782144513270E+01,1.61049543372962E+01,1.51942284101364E+01,1.35198842665929E+01,,
OED,,,,,,,,,,,,,,,,,,,,,,,,,,,,,,,,,,,,,,,,,,1.63636601635171E+01,1.51291787332324E+01,1.51097953823785E+01,1.53371816983989E+01,1.60347383355329E+01,1.59519830862482E+01,1.61686632658750E+01,1.52703868549273E+01,1.36125749158342E+01,,
OMN,,,,,,,,,,,,,,,,,,,,,,,,,,,,,,,9.36143693382893E+00,7.50779673282246E+00,6.99262724493301E+00,6.14330918094139E+00,7.12258167847919E+00,7.42590114429170E+00,7.53621707348666E+00,8.76262417910528E+00,6.79490076237971E+00,6.68647502410056E+00,7.16174467593237E+00,7.38804509728590E+00,,,,,,,,,,
PAK,,,,,,,,,,,,,,,,,,,,,,,,,,,,,,,1.33191108828184E+01,1.22266219741051E+01,1.29939827614246E+01,1.28260871196010E+01,1.27520011479056E+01,1.32486245405757E+01,1.38154763785785E+01,1.27424729606410E+01,1.28290938044319E+01,1.31653200625243E+01,1.00889911453170E+01,1.00426069860065E+01,1.03113109619566E+01,1.07838383738941E+01,1.02845452063440E+01,9.60441442497610E+00,9.42741274831255E+00,9.83822565806761E+00,9.85963798961222E+00,9.27745294949979E+00,9.99590470444044E+00,
PAN,,,,,,,,,,,,,,,,,,,,,,,,,,,,,,,1.26101031393511E+01,1.34655871831299E+01,1.30604992923179E+01,1.24546720531664E+01,1.24296926518315E+01,1.30000885392292E+01,1.11970478754787E+01,1.15182467274891E+01,1.07642350788932E+01,1.10463238567426E+01,1.02043801901811E+01,9.26013127249629E+00,,,,,,,,,,
PER,,,,,,,,,,,,,,,,,,,,,,,,,,,,,,,1.07712108627666E+01,1.10397692959037E+01,1.19880655232352E+01,1.21694119594318E+01,1.29723489280164E+01,1.36095350249604E+01,1.40470397908784E+01,1.41585694779218E+01,1.39183681017402E+01,1.26542837446243E+01,1.22322286777148E+01,1.24413936747647E+01,1.20518972076189E+01,1.28404436317119E+01,1.30909512412381E+01,1.35169375836647E+01,1.50486880128829E+01,1.56330945003956E+01,1.56954475376825E+01,1.37486429685413E+01,,
PHL,,,,,,,,,,,,,,,,,,,,,,,,,,,,,,,1.40823235741067E+01,1.46052398576615E+01,1.54417972134402E+01,1.56104925406438E+01,1.60257470471348E+01,1.62919718292863E+01,1.69386377595512E+01,1.69842871700876E+01,1.41083167760748E+01,1.33064040026905E+01,1.28475489567751E+01,1.25966578889827E+01,1.18230392309249E+01,1.21032913922912E+01,1.18146208972157E+01,1.24278107040110E+01,1.37112964958434E+01,1.35351039887753E+01,1.35888116818646E+01,1.22304197029492E+01,,
PNG,,,,,,,,,,,,,,,,,,,,,,,,,,,,,,,2.00734672648072E+01,1.77335256268028E+01,1.82841581813876E+01,1.98643956360050E+01,2.05960074498671E+01,1.97271538573297E+01,2.24631845408922E+01,2.37232047008306E+01,2.04802911476754E+01,2.17881674633561E+01,1.89759649951725E+01,2.46964496984504E+01,2.10132469649522E+01,,,,,,,,,
POL,,,,,,,,,,,,,,,,,,,,,,,,,,,,,,,,,,,,,,,,,,1.59884242987106E+01,1.70080066487092E+01,1.69585462239491E+01,1.56944333277810E+01,1.66737177388025E+01,1.73580772637781E+01,1.83075742498111E+01,1.83050919217959E+01,1.63409673908674E+01,,
PRT,,,,,,,,,,,,,,,,,,,,,,,,,,,,,,,,,,,,1.92727017857367E+01,2.02323635226869E+01,1.99979303119188E+01,2.00948010204869E+01,2.06406268480189E+01,2.05947050371041E+01,2.02852603791196E+01,2.07942010288129E+01,2.08699443204869E+01,1.99955854873400E+01,2.07210053575006E+01,2.14136086127775E+01,2.16668103794490E+01,2.15190969345244E+01,1.95449282445936E+01,,
PRY,,,,,,,,,,,,,,,,,,,,,,,,,,,,,,,9.16648646978871E+00,8.97868589163014E+00,9.98988645529565E+00,9.07934654802905E+00,1.10344312869003E+01,1.25080165740260E+01,1.15337104263506E+01,1.15727994023757E+01,1.15127464520789E+01,1.05417672017551E+01,1.08577795372006E+01,1.07741909407432E+01,1.01270007713049E+01,1.03080388255620E+01,1.18714265670031E+01,1.18487801003582E+01,1.20424491506858E+01,1.14103065741814E+01,1.17573925555033E+01,1.30214049286116E+01,,
QAT,,,,,,,,,,,,,,,,,,,,,,,,,,,,,,,,,,,,,,,,,,,,,2.55553435445541E+01,2.10484784382061E+01,2.01791535021434E+01,2.03402145475329E+01,1.65787018243493E+01,1.98201126222545E+01,,
ROM,,,,,,,,,,,,,,,,,,,,,,,,,,,,,,,,,,,,,,,,,,,1.17406540601544E+01,1.22786381710207E+01,1.23017458561567E+01,1.22084083331367E+01,1.13755684711176E+01,1.18110950384181E+01,1.78879978331571E+01,,,
RUS,,,,,,,,,,,,,,,,,,,,,,,,,,,,,,,,,,,,,,,,,,,1.36491915073076E+01,1.33140302040264E+01,1.32340253896688E+01,1.66229096830050E+01,1.65682157585875E+01,1.65513130625047E+01,1.58180678239645E+01,1.29633160294342E+01,,
RWA,,,,,,,,,,,,,,,,,,,,,,,,,,,,,,,8.78380627032784E+00,9.26006395908355E+00,9.04825873576215E+00,,,,,,,,,,,,,,,,,,,
SAS,,,,,,,,,,,,,,,,,,,,,,,,,,,,,,,1.06163223233153E+01,1.07342651716416E+01,1.06199246460575E+01,9.51546343462956E+00,9.80112343034290E+00,1.01300997497167E+01,1.01635500262088E+01,9.78485684856985E+00,8.99409162846520E+00,9.49553866284243E+00,9.28290036887235E+00,8.54825700127516E+00,9.02110790575911E+00,9.40707042414002E+00,9.51124169783481E+00,9.87111203073157E+00,1.07461634472556E+01,1.15188196456926E+01,1.09364102472820E+01,9.66955369738698E+00,,
SDN,,,,,,,,,,,,,,,,,,,,,,,,,,,,,,,,,,,,,,,6.19716329332189E+00,6.38661722838147E+00,,,,,,,,,,,,
SEN,,,,,,,,,,,,,,,,,,,,,,,,,,,,,,,,,,,,,1.42507766673520E+01,1.47074053576416E+01,1.47894273595515E+01,1.55090447767523E+01,1.61295760076734E+01,1.61153634158383E+01,,,,,,,,,,
SGP,,,,,,,,,,,,,,,,,,,,,,,,,,,,,,,1.45672859728430E+01,1.52756248478715E+01,1.61405115627438E+01,1.63255447903480E+01,1.67161024903855E+01,1.59044017899543E+01,1.60832918553048E+01,1.54399720555768E+01,1.41490503457665E+01,1.47725795677841E+01,1.51343212528162E+01,1.49335512336121E+01,1.29544453310084E+01,1.26652469881680E+01,1.18450769145157E+01,1.17965910740229E+01,1.20992816646949E+01,1.30815873318778E+01,1.40618521458515E+01,1.37193841427560E+01,,
SLE,,,,,,,,,,,,,,,,,,,,,,,,,,,,,,,5.31681336775558E+00,7.46981989607886E+00,1.01278234675759E+01,1.18341798379112E+01,1.21317186866261E+01,9.04221993783493E+00,7.66118615293770E+00,9.91106072843444E+00,7.19960126924218E+00,6.29415872256603E+00,1.01603881283355E+01,1.20347690150228E+01,1.13766187240810E+01,1.15150552292868E+01,1.07835381515584E+01,1.07663887734526E+01,1.11801128608802E+01,1.02178331753594E+01,1.05257925070766E+01,1.10401244806723E+01,,
SLV,,,,,,,,,,,,,,,,,,,,,,,,,,,,,,,,,,,,,,,,,,,1.07103664716531E+01,1.11592575116138E+01,1.09935879176873E+01,1.24770384583884E+01,1.35153929501313E+01,1.41686852458853E+01,1.43185105688022E+01,1.27593049707178E+01,,
SMR,,,,,,,,,,,,,,,,,,,,,,,,,,,,,,,,,,,,,,,,,,,2.35180579679144E+01,2.19686489145729E+01,2.06981250405278E+01,2.19880604195298E+01,2.23701316071734E+01,,,,,
SRB,,,,,,,,,,,,,,,,,,,,,,,,,,,,,,,,,,,,,,,,,,,,,,,,2.36093441999868E+01,2.31110098582070E+01,2.25037801228105E+01,,
SSA,,,,,,,,,,,,,,,,,,,,,,,,,,,,,,,,,,,,,,,,,,,,,1.75195109314607E+01,1.76006741310606E+01,1.77118418601104E+01,1.78506838471154E+01,,,,
SSF,,,,,,,,,,,,,,,,,,,,,,,,,,,,,,,,,,,,,,,,,,,,,1.75195109314607E+01,1.76006741310606E+01,1.77118418601104E+01,1.78506838471154E+01,,,,
SVK,,,,,,,,,,,,,,,,,,,,,,,,,,,,,,,,,,,,,,,,,,,,1.72340170760856E+01,1.58410137538228E+01,1.49149156883265E+01,1.39405048158417E+01,1.41944237857431E+01,1.34943443979309E+01,1.24241717986118E+01,,
SVN,,,,,,,,,,,,,,,,,,,,,,,,,,,,,,,,,1.87689661611361E+01,1.97129812566145E+01,2.14949082141464E+01,1.97791113872916E+01,2.02630134912642E+01,2.05586921791495E+01,2.09693634459618E+01,2.19271783153469E+01,2.04625182274265E+01,2.04193142571093E+01,1.88105355801648E+01,2.07384412494901E+01,2.04877951053944E+01,2.05412927122698E+01,2.09953420116775E+01,1.96478771893580E+01,1.99293139584510E+01,1.80713580502485E+01,,
SWE,,,,,,,,,,,,,,,,,,,,,,,,,,,,,,,,,,,,2.08424630092701E+01,2.10802544884744E+01,2.19373839878985E+01,2.25155356183433E+01,2.45029860817865E+01,2.36495049321392E+01,2.14560519225913E+01,2.03708417395432E+01,2.07081155911095E+01,2.13499504125771E+01,2.25860708643647E+01,2.32560927566158E+01,2.24244710043256E+01,2.16522070205223E+01,2.16306709810420E+01,,
SWZ,,,,,,,,,,,,,,,,,,,,,,,,,,,,,,,,,,,,,,,,2.50560443278910E+01,2.43088178303733E+01,2.39756469190641E+01,2.40795089970707E+01,2.61011964178764E+01,,,,,,,,
SYC,,,,,,,,,,,,,,,,,,,,,,,,,,,,,,,,,,3.53599934842808E+01,3.19671464584858E+01,2.76340798281134E+01,2.69378449724022E+01,2.69649420412779E+01,2.64361353200262E+01,2.72180993299883E+01,2.60808926080893E+01,2.52572087025707E+01,2.61380284637924E+01,3.27289901083620E+01,3.53997245966380E+01,2.83899205984365E+01,2.59328341445152E+01,2.35849768746339E+01,2.34901370838117E+01,2.71408314744546E+01,,
SYR,,,,,,,,,,,,,,,,,,,,,,,,,,,,,,,1.67120091827912E+01,1.80897022762578E+01,1.93961736135403E+01,1.74605744945680E+01,1.74698330965558E+01,1.86290117780989E+01,1.56427451701293E+01,1.62976191009546E+01,,,,,,,,,,,,,,
TGO,,,,,,,,,,,,,,,,,,,,,,,,,,,,,,,,,,,,,,,,,,,,,1.43897493037720E+01,1.38848838477434E+01,1.48105869486524E+01,1.61950462250652E+01,1.49089234071365E+01,1.53698822172377E+01,,
THA,,,,,,,,,,,,,,,,,,,,,,,,,,,,,,,,,,,,,,,,,,,,1.54603267170533E+01,1.59171945098800E+01,1.72428380757410E+01,1.67446565231419E+01,1.61220728389033E+01,1.64462925140626E+01,1.51630344174357E+01,,
TJK,,,,,,,,,,,,,,,,,,,,,,,,,,,,,,,,,,,,,,,7.68973885367496E+00,8.20972872475386E+00,7.70282274237956E+00,8.20188813088430E+00,,9.70952974513639E+00,9.82118344049536E+00,,,,,,,
TTO,,,,,,,,,,,,,,,,,,,,,,,,,,,,,,,,,,2.32231005594812E+01,2.13866810449211E+01,2.27105944023751E+01,,,,,,2.21212859407496E+01,2.04554983123112E+01,2.14333084153935E+01,2.27012301505160E+01,2.63786972845196E+01,3.02576088175177E+01,2.59952903378909E+01,3.02387714808044E+01,,,
TUN,,,,,,,,,,,,,,,,,,,,,,,,,,,,,,,1.99534010743641E+01,2.03844107475392E+01,2.04993506398751E+01,2.10079792675442E+01,2.07641427107969E+01,2.04858138143774E+01,1.98376192549157E+01,1.84410331511459E+01,1.91831638304300E+01,1.91311664547799E+01,1.92923685337066E+01,1.95974976690270E+01,1.95406246580672E+01,1.87452117840292E+01,1.86721938282889E+01,1.88775047168685E+01,1.85107559429235E+01,1.90641272158206E+01,2.04912073842058E+01,1.98836777963443E+01,,
TUR,,,,,,,,,,,,,,,,,,,,,,,,,,,,,,,,,,,,,,,,,,,,,,,1.96971246962356E+01,1.87283076262562E+01,1.85865904259682E+01,1.89117716281990E+01,,
UGA,,,,,,,,,,,,,,,,,,,,,,,,,,,,,,,,,,,,,,,1.00247680063406E+01,1.14501591138825E+01,1.04439529546881E+01,1.04395853420620E+01,1.11799833915401E+01,1.12611357118555E+01,1.06889187105462E+01,1.17595526731609E+01,1.22519599984198E+01,1.23938070736427E+01,1.29034290841627E+01,1.21667963045742E+01,,
UKR,,,,,,,,,,,,,,,,,,,,,,,,,,,,,,,,,,,,,,,,1.29917508808824E+01,1.41003704357029E+01,1.20613644154954E+01,1.30987018156858E+01,1.36544779929267E+01,1.32756561345588E+01,1.71230847294836E+01,1.77475452675994E+01,1.64845968884369E+01,1.78831102804054E+01,1.64108305185883E+01,,
UMC,,,,,,,,,,,,,,,,,,,,,,,,,,,,,,,,,,,,,,,,,1.10603785534565E+01,,1.16613957430589E+01,1.20579166000384E+01,1.25293173897371E+01,1.34522731015792E+01,1.44733323861001E+01,1.45861664081804E+01,1.45490253264396E+01,,,
URY,,,,,,,,,,,,,,,,,,,,,,,,,,,,,,,1.62025863999242E+01,1.67932403160897E+01,1.72408574744059E+01,1.93894941077350E+01,1.90344093835043E+01,1.68787580283368E+01,1.73511022349298E+01,1.67807924544678E+01,1.69828417694613E+01,1.52782851689813E+01,1.46991370360034E+01,1.53059815814420E+01,1.57776762191992E+01,1.72060058983263E+01,1.78462046158179E+01,1.78969219608520E+01,1.87744579087999E+01,1.80510205063561E+01,1.77674643197649E+01,1.89245735337285E+01,,
USA,,,,,,,,,,,,,,,,,,,,,,,,,,,,,,,,,,,,,,,,,,1.25094050166603E+01,1.03752903627882E+01,9.84933989827941E+00,9.97618584018354E+00,1.11983274640890E+01,1.18936278700079E+01,1.18903894247946E+01,1.03237205268275E+01,8.27943698765077E+00,8.95745266064186E+00,
VCT,,,,,,,,,,,,,,,,,,,,,,,,,,,,,,,2.21429105314299E+01,,,2.24293852221535E+01,,,,,,,,,,,,,,,,,,
VEN,,,,,,,,,,,,,,,,,,,,,,,,,,,,,,,1.81047119802910E+01,1.82654995226193E+01,1.36048474140753E+01,1.34499330773933E+01,1.40583041061617E+01,1.29233377725702E+01,1.39564457553890E+01,1.74708023247943E+01,1.26968412012029E+01,1.34921408182042E+01,1.32866035486830E+01,1.17962760067401E+01,1.09504581994060E+01,1.15341551032862E+01,1.29281172002994E+01,1.55137289149198E+01,,,,,,
VUT,,,,,,,,,,,,,,,,,,,,,,,,,,,,,,,2.15208715348938E+01,,,,,1.90824848415513E+01,1.97984739512979E+01,1.92849915682968E+01,1.77349916287969E+01,1.71253469010176E+01,,,,,,,,,,,,
WLD,,,,,,,,,,,,,,,,,,,,,,,,,,,,,,,,,,,,,,,,,,1.55249711650022E+01,1.44650783301700E+01,1.45100048498358E+01,1.47027203486069E+01,1.53519095815201E+01,1.54211061731448E+01,1.56083340104815E+01,1.48888977413810E+01,1.36755292155971E+01,,
YEM,,,,,,,,,,,,,,,,,,,,,,,,,,,,,,,1.08570704050121E+01,1.32972594950965E+01,9.66482134555175E+00,9.23795368945737E+00,8.27534889269882E+00,8.60712119138298E+00,1.07245233004812E+01,1.07830688987536E+01,1.30147832821067E+01,9.42043691674779E+00,,,,,,,,,,,,
ZAF,,,,,,,,,,,,,,,,,,,,,,,,,,,,,,,,,,,,,,,,,2.39556879283642E+01,2.48053194140807E+01,2.41963442479886E+01,2.40011881776326E+01,2.53346880778479E+01,2.68603421081777E+01,2.83804320643287E+01,2.88735649743126E+01,2.79324174995460E+01,2.55357644443647E+01,,
ZAR,,,,,,,,,,,,,,,,,,,,,,,,,,,,,,,9.29067611358098E+00,4.38908041173521E+00,2.73389078403243E+00,3.40760166547893E+00,2.65117796862662E+00,4.93161586838294E+00,4.76004716520026E+00,4.05375006486000E+00,5.34976331230315E+00,3.45978698837808E+00,3.45674850993419E+00,4.36362599261560E+00,6.31818031619978E+00,,,,,,,,,
ZMB,,,,,,,,,,,,,,,,,,,,,,,,,,,,,,,1.94828836678430E+01,1.74938306192652E+01,1.87109261093925E+01,1.50401714418581E+01,1.88343652970956E+01,1.71753149271536E+01,1.77156221568524E+01,1.76627376554657E+01,1.76910695872629E+01,1.84321380583603E+01,,1.86214007328273E+01,1.74250368674306E+01,1.66532433957919E+01,1.75190315060848E+01,1.71716977521992E+01,1.63440590082821E+01,1.68894455784837E+01,,,,
ZWE,,,,,,,,,,,,,,,,,,,,,,,,,,,,,,,2.15669493013052E+01,1.99628673383471E+01,2.20542577887592E+01,2.29686210236478E+01,1.98477542196270E+01,2.31574756006715E+01,2.25995893657322E+01,2.60534211212986E+01,,,,,,,,,,,,,,
