"Country Code",1960,1961,1962,1963,1964,1965,1966,1967,1968,1969,1970,1971,1972,1973,1974,1975,1976,1977,1978,1979,1980,1981,1982,1983,1984,1985,1986,1987,1988,1989,1990,1991,1992,1993,1994,1995,1996,1997,1998,1999,2000,2001,2002,2003,2004,2005,2006,2007,2008,2009,2010,2011AFG,,,,,,,,,,,,,,,,,,,,,,,,,,,,,,,,,,,,,,,,,,,,,,,2.36453874507531E-01,9.06879554973287E-02,3.94633016546157E-02,4.00708296191389E-02,,
ALB,,,,,,,,,,,,,,,,,,,,,,,,,,,,,,,,,,,,9.19776411792363E+00,1.21608992022617E+01,2.21552856684362E+01,3.10532391373495E+01,,,,1.63343532018323E+01,1.92149116949130E+01,1.69042738568665E+01,,,,,,,
ARB,,,,,,,,,,,,,,,,,,,,,,,,,,,,,,,,,,,,,,,,,,,,,,,,,3.98648693376054E+00,,,
ARE,,,,,,,,,,,,,,,,,,,,,,,,,,,,,,,0.00000000000000E+00,0.00000000000000E+00,0.00000000000000E+00,0.00000000000000E+00,0.00000000000000E+00,0.00000000000000E+00,0.00000000000000E+00,0.00000000000000E+00,0.00000000000000E+00,0.00000000000000E+00,,,,,,,,,,,,
ARG,,,,,,,,,,,,,,,,,,,,,,,,,,,,,,,,,,,,,,,,,,,3.42849338854665E+01,3.00083948621788E+01,2.63142537893684E+01,,,,,,,
ARM,,,,,,,,,,,,,,,,,,,,,,,,,,,,,,,,,,,,,,,,,,,,4.27392936550906E+00,3.04007337922149E+00,2.44056684019969E+00,1.98130833211915E+00,1.85513374476396E+00,1.46541025281867E+00,2.17186874224572E+00,,
AUS,,,,,,,,,,,,,,,,,,,,,,,,,,,,,,,,,,,,,,,,7.75163269994421E+00,6.56836208574856E+00,6.00259274998252E+00,5.27513736814663E+00,4.99270820254778E+00,4.12811709432598E+00,3.92774405194717E+00,3.91887715580386E+00,3.60677039323712E+00,3.56042928843732E+00,3.44172095028259E+00,,
AUT,,,,,,,,,,,,,,,,,,,,,,,,,,,,,,,,,,,,8.99722022906002E+00,8.84003046770454E+00,8.55653350996745E+00,8.44601907968206E+00,8.02855688810624E+00,8.51462525291891E+00,8.22255460361342E+00,7.96876948235140E+00,7.37088751191372E+00,6.57504103534800E+00,7.20773983842689E+00,6.96323426000871E+00,7.03788682864237E+00,6.40400151523415E+00,6.51879620090044E+00,,
AZE,,,,,,,,,,,,,,,,,,,,,,,,,,,,,,,,,,,,,,,,,,,,,,,,,5.55997845764776E-01,,,
BDI,,,,,,,,,,,,,,,,,,,,,,,,,,,,,,,,6.79018671476297E+00,6.21548508955869E+00,6.14216272460437E+00,6.80791056440926E+00,6.30452089367685E+00,7.39897933573162E+00,,,,,,,,,,,,,,,
BEL,,,,,,,,,,,,,,,,,,,,,,,,,,,,,,,,,,,,1.78912228333957E+01,1.69799553557186E+01,1.58821294040447E+01,1.53800639992489E+01,1.44563340073748E+01,1.43482273668992E+01,1.37104477453824E+01,1.27002874740413E+01,1.13276767730953E+01,1.05560481254551E+01,9.03882234410070E+00,9.21450600450214E+00,8.81708672700452E+00,8.33057090678155E+00,7.51824119304853E+00,,
BEN,,,,,,,,,,,,,,,,,,,,,,,,,,,,,,,,,,,,,,,,,,6.39624903532061E+00,5.99164300590903E+00,4.49555978258878E+00,2.58190223591993E+00,2.24910323129216E+00,1.74373742669382E+00,,2.31731871067617E+00,3.30043905308733E+00,,
BFA,,,,,,,,,,,,,,,,,,,,,,,,,,,,,,,,,,,,,,,,,,,6.63215135079844E+00,6.52997957918583E+00,6.51751736739136E+00,5.47011046492022E+00,4.47999709875690E+00,2.89923498219450E+00,2.78857211460110E+00,3.38045023733493E+00,,
BGD,,,,,,,,,,,,,,,,,,,,,,,,,,,,,,,,,,,,,,,,,,1.81205424054193E+01,1.98553644624484E+01,2.05754548912446E+01,1.95078365026761E+01,1.94320761524452E+01,2.08285469686043E+01,2.17344305333332E+01,2.29042099279642E+01,2.17712932807459E+01,,
BGR,,,,,,,,,,,,,,,,,,,,,,,,,,,,,,,9.82256802931127E+00,1.63974620524434E+01,1.74780265444380E+01,2.23420387531592E+01,3.32558635487255E+01,3.70864056660587E+01,4.31566499670773E+01,2.65970865802706E+01,1.42976686356470E+01,1.20944660380407E+01,1.23423646750326E+01,1.17893971881136E+01,6.65586910776309E+00,6.15625795726648E+00,5.16299413394810E+00,4.72217211178592E+00,4.04006425834310E+00,3.42196164910147E+00,2.75775936794422E+00,2.32345310120823E+00,,
BHR,,,,,,,,,,,,,,,,,,,,,,,,,,,,,,,4.22401518747034E+00,1.95530726256983E+00,2.68528464017186E+00,3.10972032075103E+00,3.25387816874763E+00,3.98600038887809E+00,3.90119584395217E+00,3.96021366734205E+00,4.32908209089276E+00,5.07258468212915E+00,6.97434385137128E+00,7.33579755473415E+00,4.29323128438173E+00,5.68534929220854E+00,4.79273258849326E+00,5.97662450098600E+00,6.49979707434137E+00,5.03930505001071E+00,3.41939763493258E+00,,,
BHS,,,,,,,,,,,,,,,,,,,,,,,,,,,,,,,1.17512835139760E+01,1.34180011043622E+01,1.26645321949484E+01,1.43042671614100E+01,1.41629364368845E+01,1.36333109469443E+01,1.32645317954166E+01,1.32054951586455E+01,1.35381323217734E+01,1.20448532191004E+01,1.11272025102583E+01,1.16147635524798E+01,1.06535168527149E+01,1.07107107107107E+01,1.11565000190934E+01,1.08530871866849E+01,9.83031752429878E+00,1.00914504466185E+01,1.06413161792259E+01,1.08231412057635E+01,,
BIH,,,,,,,,,,,,,,,,,,,,,,,,,,,,,,,,,,,,,,,,,,,,2.08742849737526E+00,1.56554926281615E+00,1.62447077393825E+00,1.53218558780165E+00,1.28684183603892E+00,1.18610288070247E+00,1.13975937415031E+00,,
BLR,,,,,,,,,,,,,,,,,,,,,,,,,,,,,,,,,2.06185567010309E+00,2.14963707426019E+00,7.35818598190487E-01,8.29098996082342E-01,2.30669143583457E+00,2.37772787101350E+00,2.79663225396421E+00,2.36012845871525E+00,3.25423845981024E+00,2.64117088731033E+00,2.20571706733266E+00,1.78319999339354E+00,1.59872470517418E+00,1.14818688376041E+00,1.03943078865540E+00,1.02116569395334E+00,1.57315040468583E+00,2.22083630680411E+00,,
BLZ,,,,,,,,,,,,,,,,,,,,,,,,,,,,,,,8.02592295929513E+00,7.18047356901240E+00,6.75538226818105E+00,8.08978594379328E+00,9.19886268606790E+00,1.11189418931949E+01,1.18043254462779E+01,1.17254312365617E+01,,,,,,,,,,,,,,
BOL,,,,,,,,,,,,,,,,,,,,,,,,,,,,,,,,,,,,,,,,,,,8.17612819398618E+00,8.96932464047546E+00,9.36340460569721E+00,1.00328721053237E+01,1.27985050949459E+01,9.53554185581189E+00,,,,
BRA,,,,,,,,,,,,,,,,,,,,,,,,,,,,,,,7.90736442681560E+01,3.49446821634830E+01,4.90240027152363E+01,5.29341528896426E+01,4.51803449305101E+01,,,1.43418656760252E+01,1.99010324566689E+01,2.02432009042024E+01,1.68184044644753E+01,1.66624708946807E+01,1.47230742163955E+01,2.66482632430998E+01,1.92822970123295E+01,2.36370975193121E+01,1.97839422719170E+01,1.67509169335100E+01,1.50136073717971E+01,1.87241976030182E+01,,
BRB,,,,,,,,,,,,,,,,,,,,,,,,,,,,,,,,,,,,,,,,,,,,,,,,1.42223449689623E+01,1.33524382246479E+01,,,
BTN,,,,,,,,,,,,,,,,,,,,,,,,,,,,,,,3.82726346029098E+00,2.98934932426385E+00,5.03001098993998E+00,4.90566037735849E+00,1.31720592682189E+01,1.00550199384181E+01,7.85430362329919E+00,7.73862024005829E+00,3.85046728971963E+00,2.58224591067818E+00,2.11805097055328E+00,1.71463833913695E+00,2.39800890309023E+00,3.14310998288744E+00,4.07198855146066E+00,5.68315154916611E+00,4.86825341820016E+00,4.87556633994541E+00,1.39180767680169E+01,1.21612425589341E+01,,
BWA,,,,,,,,,,,,,,,,,,,,,,,,,,,,,,,2.78049402661451E+00,2.73534315713578E+00,2.54872563718141E+00,2.39282456673761E+00,2.54142981743812E+00,2.28081970070466E+00,1.95830565851777E+00,,,,,,,,,,,,,,,
CAF,,,,,,,,,,,,,,,,,,,,,,,,,,,,,,,,,,,,,,,,,,,,,8.56128502931253E+00,,,,,,,
CAN,,,,,,,,,,,,,,,,,,,,,,,,,,,,,,,,2.28909296207094E+01,2.10446335533171E+01,2.09939867512087E+01,2.21042867833841E+01,2.41988275019162E+01,2.42028844385299E+01,2.40899620051477E+01,2.33729466899122E+01,2.27082462361096E+01,2.22113455043806E+01,1.92267327349489E+01,1.75301331197315E+01,1.55206866492322E+01,1.38144981256055E+01,1.29970006921480E+01,1.27265235616200E+01,1.18978107696254E+01,1.07339806935594E+01,9.13529089566812E+00,,
CHE,,,,,,,,,,,,,,,,,,,,,,,,,,,,,,,,2.66658015960553E+00,3.03689165207376E+00,2.85201696205284E+00,3.56436275448337E+00,3.50822370134267E+00,3.10747083643584E+00,3.22862892641526E+00,3.28626179521538E+00,3.49373208162348E+00,3.40254819657516E+00,4.55676263579653E+00,4.72998928333461E+00,3.92337966330268E+00,3.75206099003192E+00,4.20418882110906E+00,4.77942297649895E+00,4.74617870373501E+00,3.77394026145264E+00,,,
CHL,,,,,,,,,,,,,,,,,,,,,,,,,,,,,,,,,,,,,,,,,5.82976045544636E+00,5.72907688507041E+00,5.57393390986214E+00,5.73921306769855E+00,5.10152487377595E+00,4.62831932073587E+00,4.07438203945877E+00,3.52246741780817E+00,2.53678492555246E+00,2.46854701715343E+00,,
CHN,,,,,,,,,,,,,,,,,,,,,,,,,,,,,,,,,,,,,,,,,,,5.25360554696161E+00,6.73032203509266E+00,4.16867681843777E+00,,,,,,,
CIV,,,,,,,,,,,,,,,,,,,,,,,,,,,,,,,,,,,,,,,,,,,,1.57241777264859E+01,1.33682925077221E+01,1.21501097694841E+01,8.95026124720092E+00,9.97317683486651E+00,9.67810587922320E+00,8.69355701657761E+00,,
CMR,,,,,,,,,,,,,,,,,,,,,,,,,,,,,,,7.80231938696062E+00,8.13748698039958E+00,8.25926547040081E+00,1.27595785018297E+01,2.39273116935304E+01,2.56165010188381E+01,,,2.49332938037355E+01,2.24412638401296E+01,,,,,,,,,,,,
COG,,,,,,,,,,,,,,,,,,,,,,,,,,,,,,,,,2.26701183431953E+01,2.10585585585586E+01,3.57142857142857E+01,4.72698412698413E+01,4.82651796778191E+01,3.88721480843737E+01,3.65130077590142E+01,4.35041407867495E+01,3.51510961663827E+01,3.13792311691062E+01,3.01236464090796E+01,2.86342628193502E+01,6.79171553489267E+00,1.81552309751589E+01,,,,,,
COL,,,,,,,,,,,,,,,,,,,,,,,,,,,,,,,,,,,,,,,,,,1.97217523357663E+01,2.39478143628245E+01,2.11016192868429E+01,2.90126634434048E+01,2.09683613378230E+01,3.21381422293206E+01,2.50534049753990E+01,1.54777005771456E+01,1.67649644186442E+01,,
CPV,,,,,,,,,,,,,,,,,,,,,,,,,,,,,,,,,,,,,,,,,,,,,,7.39504657733881E+00,6.65875875403540E+00,6.22494605870952E+00,5.97396357521668E+00,5.25034663630558E+00,,
CRI,,,,,,,,,,,,,,,,,,,,,,,,,,,,,,,,,,,,,,,,,,,,,,,,,9.75378677931978E+00,8.36331328621497E+00,,
CYP,,,,,,,,,,,,,,,,,,,,,,,,,,,,,,,,,,,,1.18363327065986E+01,1.26004718678770E+01,1.29301085225379E+01,1.43581921278642E+01,1.42443631931749E+01,1.48747829010029E+01,1.41829471452370E+01,1.22458507434814E+01,1.10071503141805E+01,1.19019611624274E+01,1.14428122641675E+01,1.06796920274857E+01,1.02925025909140E+01,1.04665808329601E+01,7.16479442200210E+00,,
CZE,,,,,,,,,,,,,,,,,,,,,,,,,,,,,,,,,,4.80385413225155E+00,3.57970500182201E+00,3.21615823347810E+00,2.76035415438011E+00,3.19381113160918E+00,3.06866599792928E+00,2.65692011395591E+00,2.61976477926512E+00,2.18577725133856E+00,1.48738914808020E+00,1.86909957191825E+00,2.85320492233222E+00,2.14181003690916E+00,2.73707976829231E+00,2.84542560321716E+00,3.25446608825035E+00,3.42367181898533E+00,,
DEU,,,,,,,,,,,,,,,,,,,,,,,,,,,,,,,,,,,,6.07934704867685E+00,7.11093714322993E+00,6.97761376014046E+00,6.99345057803010E+00,6.65499124343257E+00,6.58288541412167E+00,6.32393221563375E+00,5.85743499853929E+00,5.75764052147895E+00,5.62843659349699E+00,5.49690415727452E+00,5.72635062841491E+00,5.88787305740001E+00,5.76743407750338E+00,5.11623625940146E+00,,
DNK,,,,,,,,,,,,,,,,,,,,,,,,,,,,,,,,,,,,1.35243062533544E+01,1.35416787982829E+01,1.26874160343399E+01,1.16749273549858E+01,1.07938996290315E+01,1.01821350297631E+01,9.50203252032520E+00,8.85089124880670E+00,7.85853332706917E+00,7.07356443712959E+00,5.94160866967631E+00,5.02963162695703E+00,3.94411718194038E+00,3.30226506946809E+00,4.60339832544221E+00,,
DOM,,,,,,,,,,,,,,,,,,,,,,,,,,,,,,,,,,,,,,,,,,,,,1.24278857248604E+01,8.52749111837760E+00,9.48012350134452E+00,8.49644239535655E+00,9.87356087363538E+00,,,
DZA,,,,,,,,,,,,,,,,,,,,,,,,,,,,,,,,,,,,,,,,,,,,,,,5.97252784298823E+00,3.95353452092015E+00,2.49013259147565E+00,1.40430943365073E+00,,
EAP,,,,,,,,,,,,,,,,,,,,,,,,,,,,,,,,,,,,,,,,,,,1.01166341218703E+01,7.20468188895096E+00,1.00478675973357E+01,,8.91049421139181E+00,6.21390880802290E+00,7.03927927925605E+00,5.48574137622280E+00,,
EAS,,,,,,,,,,,,,,,,,,,,,,,,,,,,,,,,,,,,,,,,,,,5.27817804514897E+00,5.26018642525631E+00,5.35414445305348E+00,5.59060037215405E+00,5.53113133620627E+00,4.31388279958317E+00,5.42303279183526E+00,4.61106159709578E+00,,
ECA,,,,,,,,,,,,,,,,,,,,,,,,,,,,,,,,,,,,,,,,,,,,5.75879731691175E+00,4.59538334568951E+00,2.89404767188956E+00,2.82123424690934E+00,2.15155092764215E+00,1.85350175256815E+00,2.53598477274581E+00,,
ECS,,,,,,,,,,,,,,,,,,,,,,,,,,,,,,,,,,,,8.99722022906002E+00,8.87815944416250E+00,9.72365640664428E+00,9.13327602498245E+00,7.83823345228737E+00,7.69819082808217E+00,6.96072554701549E+00,5.98760002574389E+00,5.69802337718915E+00,5.16299413394810E+00,4.54900858306640E+00,4.28877426033785E+00,3.52151717447044E+00,3.56287952725381E+00,4.11246424946951E+00,,
ECU,,,,,,,,,,,,,,,,,,,,,,,,,,,,,,,2.48424842484248E+01,2.37924865831843E+01,2.37636906737471E+01,2.46079919069297E+01,2.55475946775844E+01,,,,,,,,,,,,,,,,,
EGY,,,,,,,,,,,,,,,,,,,,,,,,,,,,,,,1.62763516730877E+01,1.91362645230579E+01,1.80797004546670E+01,2.74905861165684E+01,3.06930875576037E+01,2.60217864923747E+01,2.59337744059270E+01,2.39861561622150E+01,,,,,1.96650652822440E+01,2.07925477377687E+01,2.10859853332209E+01,2.02089647363532E+01,1.72010542481219E+01,1.75603051506530E+01,1.50853305376009E+01,1.39585815012770E+01,,
EMU,,,,,,,,,,,,,,,,,,,,,,,,,,,,,,,,,,,,1.03872764679525E+01,1.01787905596301E+01,9.76534618129907E+00,8.83046477290257E+00,7.80267231605307E+00,7.72718398160401E+00,7.42310176692416E+00,5.98760002574389E+00,6.02373744676677E+00,5.62843659349699E+00,5.49690415727452E+00,5.31631027697773E+00,5.48850800172136E+00,5.76344806460532E+00,4.96992679282846E+00,,
ESP,,,,,,,,,,,,,,,,,,,,,,,,,,,,,,,,,,,,1.14679341212756E+01,1.20399058845455E+01,1.15533153651394E+01,1.07769800189236E+01,9.30908151902003E+00,8.65224625623960E+00,8.30024479096394E+00,8.57147253107947E+00,7.86584817188390E+00,6.64201082117663E+00,5.94227504244482E+00,5.31631027697773E+00,4.97542324534062E+00,4.52146235184149E+00,4.52378443054376E+00,,
EST,,,,,,,,,,,,,,,,,,,,,,,,,,,,,,,,,,,,1.39839438386772E+00,1.11845098000435E+00,6.21854142575417E-01,9.82896376974477E-01,4.99174133571105E-01,2.50523389806654E-01,1.35206164607720E-01,4.63833222613136E-01,4.74359042652362E-01,5.44499092100675E-01,4.51121392471337E-01,3.69651586772972E-01,2.77623794081085E-01,3.10286178346877E-01,5.68919217767668E-01,,
ETH,,,,,,,,,,,,,,,,,,,,,,,,,,,,,,,5.61681343891068E+00,7.24093194226715E+00,9.17121795445728E+00,1.34358221051565E+01,1.91994382022472E+01,1.47474676420934E+01,1.55477680433876E+01,1.35140994695535E+01,1.04507078238047E+01,9.54461931012158E+00,,1.07546012886624E+01,8.61483127415464E+00,8.71812897584061E+00,7.82192945176371E+00,6.99120764639802E+00,,,,,,
EUU,,,,,,,,,,,,,,,,,,,,,,,,,,,,,,,,,,,,1.03872764679525E+01,1.01787905596301E+01,9.76534618129907E+00,9.43608727706232E+00,7.87379458852167E+00,7.69819082808217E+00,7.42310176692416E+00,6.32173456675349E+00,6.15625795726648E+00,5.61741444098232E+00,5.28716376396593E+00,5.02831241731714E+00,4.77546468254822E+00,4.54032497797157E+00,4.58647069107136E+00,,
FIN,,,,,,,,,,,,,,,,,,,,,,,,,,,,,,,,,,,,7.51282856843649E+00,8.72484684645403E+00,9.76534618129907E+00,8.83046477290257E+00,7.74082073434125E+00,7.72718398160401E+00,7.42396574523015E+00,5.70183223872355E+00,5.03123160752596E+00,4.68904244817374E+00,4.37584505434687E+00,4.00515481398582E+00,3.86610244842178E+00,3.62714327679772E+00,,,
FJI,,,,,,,,,,,,,,,,,,,,,,,,,,,,,,,1.44432263777038E+01,1.42622746531528E+01,1.21745994725417E+01,1.02570368879561E+01,1.01567050339759E+01,1.18299869199962E+01,1.04351819671317E+01,,,,,,,,1.01038226779969E+01,1.02847186536485E+01,1.00137137581703E+01,,,,,
FRA,,,,,,,,,,,,,,,,,,,,,,,,,,,,,,,,,,,,,6.46245631219252E+00,6.32362130013191E+00,6.39497713152243E+00,5.94724806675162E+00,5.96133838665329E+00,6.04842957768423E+00,5.85773176756224E+00,5.63840623289935E+00,5.60639228846765E+00,5.45741632489228E+00,5.28405057321054E+00,5.48850800172136E+00,5.76344806460532E+00,4.56954305670050E+00,,
GBR,,,,,,,,,,,,,,,,,,,,,,,,,,,,,,,,,,,,8.68372017661117E+00,8.91628842062046E+00,9.37192070946854E+00,9.43608727706232E+00,7.87379458852167E+00,7.42118333889609E+00,6.26849092676258E+00,5.24850344522597E+00,5.06352866702840E+00,4.93420563368910E+00,5.01949421565077E+00,5.02699320767724E+00,5.45690782956957E+00,5.16978203221008E+00,4.16230164248521E+00,,
GEO,,,,,,,,,,,,,,,,,,,,,,,,,,,,,,,,,,,,,,1.00071377587438E+01,1.77669902912621E+01,1.81840430739109E+01,2.43127147766323E+01,1.59368070953437E+01,1.74705251875670E+01,1.84032328527741E+01,9.94274542661639E+00,5.96710885874696E+00,3.58915753008821E+00,2.50385604113111E+00,2.14773075053558E+00,3.00433040447056E+00,,
GHA,,,,,,,,,,,,,,,,,,,,,,,,,,,,,,,,,,,,,,,,,,3.91266110238665E+01,3.06439949469595E+01,2.49409952135882E+01,1.85123493881729E+01,1.60037476629801E+01,1.34628319010912E+01,1.06369965929695E+01,1.09535367058226E+01,1.56464948402951E+01,,
GIN,,,,,,,,,,,,,,,,,,,,,,,,,,,,,,,,,,,,,,,2.78638841086640E+01,3.21934545904479E+01,,,,,,,,,,,,
GMB,,,,,,,,,,,,,,,,,,,,,,,,,,,,,,,2.13944158055562E+01,,,,,,,,,,,,,,,,,,,,,
GRC,,,,,,,,,,,,,,,,,,,,,,,,,,,,,,,,,,,,2.52885439241974E+01,2.45653366405113E+01,2.14974970710406E+01,1.91277035623410E+01,1.74499793535793E+01,1.66271885507943E+01,1.47329880615231E+01,1.29346500490794E+01,1.18262935440206E+01,1.13148145806729E+01,1.09633454047176E+01,1.07127910306394E+01,1.06167826182158E+01,1.05933152373530E+01,1.02712309199927E+01,,
GRD,,,,,,,,,,,,,,,,,,,,,,,,,,,,,,,,8.32955208400856E+00,6.78054166396051E+00,9.06169665809769E+00,9.73941165495367E+00,9.12902014766612E+00,,,,,,,,,,,,,,,,
GTM,,,,,,,,,,,,,,,,,,,,,,,,,,,,,,,1.24101264691709E+01,1.94995310370558E+01,1.02012254868933E+01,1.04441685733051E+01,1.12065985833683E+01,1.24097924216317E+01,1.27770210090638E+01,8.16615778620741E+00,1.08262752514870E+01,1.07423456193218E+01,1.02108549201923E+01,1.08933083528074E+01,1.05569763795307E+01,8.84079818780098E+00,1.05562907265262E+01,1.07599575404997E+01,1.04602832254936E+01,1.17494625601457E+01,1.14620492123421E+01,1.12313542971615E+01,,
HIC,,,,,,,,,,,,,,,,,,,,,,,,,,,,,,,,,,,,8.68372017661117E+00,8.72484684645403E+00,8.55653350996745E+00,8.16422143380634E+00,7.74622671714273E+00,7.25831720842013E+00,6.52302922026882E+00,5.85743499853929E+00,5.58303544043209E+00,5.58448993428754E+00,5.45741632489228E+00,5.28405057321054E+00,4.99103502399967E+00,4.54032497797157E+00,4.71350782584884E+00,,
HKG,,,,,,,,,,,,,,,,,,,,,,,,,,,,,,,,,,,,,,,,,,,1.83767453313878E-02,1.31102345982837E-02,2.96458659391865E-01,3.90247769497975E-01,4.22316884131382E-01,3.85823000372519E-01,2.84862453484585E-01,2.79987314075930E-01,,
HND,,,,,,,,,,,,,,,,,,,,,,,,,,,,,,,,,,,,,,,,,,,,6.87745790986380E+00,6.91969271862271E+00,6.21675850421139E+00,4.39059370681731E+00,2.73700480714274E+00,2.80960751295444E+00,2.72759266146408E+00,,
HRV,,,,,,,,,,,,,,,,,,,,,,,,,,,,,,,,3.72856077554064E-01,6.51546015627375E+00,2.79996656406135E+00,3.46115127776849E+00,3.35111843161808E+00,2.71577268009417E+00,3.48057156539139E+00,3.41509846133723E+00,3.48614143742530E+00,3.96425913461256E+00,4.54038997214485E+00,4.83272607262476E+00,4.90117734803687E+00,4.99612382593333E+00,5.42021680433999E+00,5.46526111127989E+00,5.00664680265872E+00,4.12938341506159E+00,4.57040377789520E+00,,
HUN,,,,,,,,,,,,,,,,,,,,,,,,,,,,,,,,,,,,1.67331824066426E+01,1.90825384803681E+01,1.88936371061805E+01,1.54716986157910E+01,1.52064431492915E+01,1.25955398699116E+01,1.11957864380550E+01,9.13457148205347E+00,9.20692601656855E+00,1.01874532394136E+01,9.58400488786356E+00,8.75487001673539E+00,9.17087766748857E+00,8.81998958322545E+00,9.70372042149111E+00,,
IDN,,,,,,,,,,,,,,,,,,,,,,,,,,,,,,,,1.78482003129890E+01,1.76969079617520E+01,1.79626137528385E+01,2.01674175575165E+01,1.65107447202668E+01,1.21589403973510E+01,1.37464625503693E+01,2.48196124475945E+01,2.41141248303554E+01,,,2.89277302413984E+01,2.12222425856978E+01,1.71849050870875E+01,1.25630662665426E+01,1.28992699298328E+01,1.14668651897204E+01,9.68036810388009E+00,1.06507556540518E+01,,
IND,,,,,,,,,,,,,,,,,,,,,,,,,,,,,,,2.23617245476762E+01,2.45658765159868E+01,2.52507256704848E+01,2.59968342503957E+01,2.76257636985936E+01,2.74408421837153E+01,2.81390020366599E+01,2.71387659925346E+01,2.86779507021845E+01,2.95148856945808E+01,2.96480827255773E+01,2.92710304262904E+01,2.86908516561786E+01,2.76162102393284E+01,2.56445936669826E+01,2.33823470709695E+01,2.25783590403803E+01,2.22020791244665E+01,1.96059763318551E+01,2.09343226212862E+01,,
IRL,,,,,,,,,,,,,,,,,,,,,,,,,,,,,,,,,,,,1.39536283647527E+01,1.25843317617997E+01,1.12320647608155E+01,1.09170013029126E+01,7.80267231605307E+00,7.09545107794418E+00,4.98519015825174E+00,4.50109741772477E+00,4.14834457874424E+00,3.74291866035135E+00,3.51935687277427E+00,3.22563826432216E+00,3.23634590377113E+00,3.65935673569070E+00,4.82361732625546E+00,,
IRN,,,,,,,,,,,,,,,,,,,,,,,,,,,,,,,5.38444970923972E-02,4.22416220782878E-02,3.00510868476410E-02,9.52925481227368E-02,8.75092114959469E-02,2.38395259339986E-02,2.84259149591377E-02,1.72574534346300E-01,7.23938223938224E-01,7.36464449081393E-05,7.65930942338625E-05,8.87716245747646E-05,9.74478736004648E-01,1.02748711996790E+00,1.00952430294861E+00,1.08154828859303E+00,1.07760337700475E+00,1.41594572003427E+00,1.12382689910617E+00,7.31057198176761E-01,,
ISL,,,,,,,,,,,,,,,,,,,,,,,,,,,,,,,,,,,,,,,1.06497210904741E+01,1.03815155855882E+01,9.44463868568267E+00,9.15093418905364E+00,7.67996197324097E+00,6.73825275256626E+00,6.24992318557701E+00,5.81566225253887E+00,5.89369467651465E+00,7.18185038302895E+00,6.29714573936380E+00,1.60938831896828E+01,,
ISR,,,,,,,,,,,,,,,,,,,,,,,,,,,,,,,,,,,,,,,,,1.19864988328034E+01,1.12352722182953E+01,1.00354219407920E+01,1.20386179853595E+01,1.21611298381107E+01,1.12792929240755E+01,1.06414097073142E+01,1.07145025255601E+01,8.52812657517411E+00,8.66069413742037E+00,,
ITA,,,,,,,,,,,,,,,,,,,,,,,,,,,,,,,,,,,,2.37006525052286E+01,2.38073706585080E+01,2.02231177094380E+01,1.94169333130174E+01,1.62149534760273E+01,1.59528345759762E+01,1.54630549285177E+01,1.41112415886260E+01,1.27601635029193E+01,1.20149375803945E+01,1.16042138046928E+01,1.12029479921985E+01,1.19218117199769E+01,1.19968970259993E+01,9.88374962423894E+00,,
JAM,,,,,,,,,,,,,,,,,,,,,,,,,,,,,,,,,,,,,,,,,,,,4.71473650398354E+01,4.43016986585198E+01,3.97665805170457E+01,3.86161175865945E+01,3.46228328944908E+01,3.55250391321112E+01,4.27457368075224E+01,,
JOR,,,,,,,,,,,,,,,,,,,,,,,,,,,,,,,2.13879672099151E+01,2.10311252247414E+01,1.74788218793829E+01,1.21255803318454E+01,1.00719027057881E+01,1.07674331802470E+01,1.08415257291880E+01,1.37573457897837E+01,1.17938652147550E+01,1.25994737828805E+01,1.28528399311532E+01,1.21844849571744E+01,9.17567006025348E+00,8.01545532650082E+00,6.19558194628188E+00,6.50889433653907E+00,7.60686156186903E+00,7.80664623169367E+00,7.71130569673219E+00,7.70591009116630E+00,,
KAZ,,,,,,,,,,,,,,,,,,,,,,,,,,,,,,,,,,,,,,2.96713465220166E+00,4.75670617592015E+00,7.48723686971117E+00,9.82723841784201E+00,8.41460728484808E+00,8.00134080874172E+00,5.36133667655703E+00,4.13105985892022E+00,2.14402899260624E+00,1.89554725770914E+00,1.85567624056093E+00,2.60813955047100E+00,2.40742794255490E+00,,
KEN,,,,,,,,,,,,,,,,,,,,,,,,,,,,,,,,2.38077803203661E+01,2.76784389375278E+01,2.80528996515057E+01,3.55109326193664E+01,4.55324031729666E+01,2.98209964502829E+01,2.93043057713164E+01,,,1.78137425197000E+01,1.29635245422540E+01,1.51864362439932E+01,1.71189157456798E+01,1.04372308396598E+01,1.04371084235366E+01,9.81670696872477E+00,1.09173588380245E+01,1.10592854839653E+01,1.02557133949427E+01,,
KGZ,,,,,,,,,,,,,,,,,,,,,,,,,,,,,,,,,,,,5.12621735549203E+00,3.04030505555783E+00,6.01439208279350E+00,8.82386904933745E+00,8.59565705295064E+00,9.10710481981371E+00,8.97933593280313E+00,,,,,5.16798771456901E+00,3.30795175121446E+00,4.28080337000819E+00,4.20684847224824E+00,,
KHM,,,,,,,,,,,,,,,,,,,,,,,,,,,,,,,,,,,,,,,,,,,1.75496637011519E+00,1.97763354431433E+00,2.77128213907428E+00,2.82529780006935E+00,1.94989885452240E+00,2.42603770604235E+00,2.11721342964355E+00,1.81526955053622E+00,,
KNA,,,,,,,,,,,,,,,,,,,,,,,,,,,,,,,1.15335404862000E+01,1.27989005955108E+01,1.20465434633812E+01,9.93966817496229E+00,7.80543706627618E+00,,,,,,,,,2.06322795341098E+01,,,2.83801870901207E+01,,,,,
KOR,,,,,,,,,,,,,,,,,,,,,,,,,,,,,,,4.74560974692588E+00,3.89549436795995E+00,4.01406938030287E+00,2.91186998161943E+00,3.72526667209511E+00,3.40697878309662E+00,3.01977305575202E+00,3.19210597000155E+00,4.14181307667875E+00,6.70089084160655E+00,6.86820124485240E+00,6.23383824037868E+00,5.65022901339341E+00,4.55402436843262E+00,5.58448993428754E+00,5.91640335005548E+00,6.51276652540601E+00,6.84616918697866E+00,6.79023011334359E+00,4.95101241380645E+00,,
KWT,,,,,,,,,,,,,,,,,,,,,,,,,,,,,,,0.00000000000000E+00,0.00000000000000E+00,0.00000000000000E+00,8.69044051543302E+00,1.08970831040176E+01,4.98180800447803E+00,5.50964187327824E+00,4.73057644110276E+00,4.02644230769231E+00,4.40229062276306E+00,,,1.44755576649264E+00,7.15935334872979E-01,3.68173450603395E-01,2.30823863636364E-01,2.11244718882028E-01,1.36411332633788E-01,5.75043128234618E-02,0.00000000000000E+00,0.00000000000000E+00,
LAC,,,,,,,,,,,,,,,,,,,,,,,,,,,,,,,,,,,,,,,,,,,1.26025831499234E+01,1.51698532746331E+01,1.24278857248604E+01,1.08028607695636E+01,1.10951255310519E+01,1.02947129121592E+01,9.87356087363538E+00,8.86258668850203E+00,,
LAO,,,,,,,,,,,,,,,,,,,,,,,,,,,,,,,,,,,,,,,,,,,,,,,7.88431446373936E+00,4.77134621783592E+00,7.03927927925605E+00,4.61106159709578E+00,,
LBN,,,,,,,,,,,,,,,,,,,,,,,,,,,,,,,,,,,,,,,,,5.01820151406366E+01,5.30051175746583E+01,5.33374868675023E+01,5.35690371168814E+01,4.58001985169615E+01,3.91832318366559E+01,4.11697988805068E+01,3.97298012989463E+01,3.69673110887334E+01,3.76536155505768E+01,,
LBR,,,,,,,,,,,,,,,,,,,,,,,,,,,,,,,,,,,,,,,,,,,,,,1.28507149968516E+00,1.91038968658468E+00,1.28176008726360E+00,2.46149961604707E+00,,,
LCN,,,,,,,,,,,,,,,,,,,,,,,,,,,,,,,,,,,,,,,,,,,1.31298558209064E+01,1.64796317372313E+01,1.25463918075065E+01,1.08457639986275E+01,1.07777043782728E+01,9.91512738398556E+00,9.81367382647758E+00,8.86258668850203E+00,,
LKA,,,,,,,,,,,,,,,,,,,,,,,,,,,,,,,2.60712708924629E+01,2.32376721270055E+01,2.54358612304132E+01,2.53525570796266E+01,2.70242807097329E+01,2.20581446344898E+01,2.55007844711205E+01,2.71794316750630E+01,2.47776027585833E+01,2.64715908606687E+01,2.46269637582407E+01,2.81388278049465E+01,3.21543097786192E+01,3.35276874186098E+01,2.76609796876010E+01,2.42567571659571E+01,2.42615823281799E+01,2.54639961305197E+01,2.50746131269538E+01,,,
LMC,,,,,,,,,,,,,,,,,,,,,,,,,,,,,,,,,,,,,,,,,,,1.51120808275324E+01,1.41125516648542E+01,1.20176043633239E+01,1.07599575404997E+01,9.47756529100159E+00,7.85031947047869E+00,7.03927927925605E+00,,,
LMY,,,,,,,,,,,,,,,,,,,,,,,,,,,,,,,,,,,,,,,,,,,,1.00767765012647E+01,1.01854836610336E+01,8.71010472247944E+00,8.07980006096320E+00,6.72117567003759E+00,5.46644679315979E+00,,,
LSO,,,,,,,,,,,,,,,,,,,,,,,,,,,,,,,1.87485500846006E+01,1.32660271004412E+01,8.21712375298452E+00,,4.69894416436793E+00,5.08853360838920E+00,5.49705662880358E+00,,,,,7.87892880672790E+00,7.36852696538771E+00,7.12601761212236E+00,4.71149846174595E+00,6.16828477273654E+00,6.62649402143573E+00,5.64366957233915E+00,1.72389901517912E+00,,,
LTU,,,,,,,,,,,,,,,,,,,,,,,,,,,,,,,,,,,,,,,,,6.27191305550358E+00,5.92313864803172E+00,4.72444676112401E+00,4.50279272615981E+00,3.41320780033992E+00,2.89404767188956E+00,2.55126543275463E+00,2.34759043737658E+00,1.99050251612446E+00,3.14417370312243E+00,,
LUX,,,,,,,,,,,,,,,,,,,,,,,,,,,,,,,,,,,,,,,,6.32711683142498E-01,5.11473280380268E-01,7.53547474082389E-01,6.44071183889295E-01,4.04764871186902E-01,3.10946608138293E-01,2.80781312729359E-01,3.30412444213417E-01,4.62988185358318E-01,6.68907196196549E-01,8.29120259573279E-01,,
LVA,,,,,,,,,,,,,,,,,,,,,,,,,,,,,,,,,,,1.60453391233945E+00,3.29547009716710E+00,5.47945205479452E+00,3.09620933240474E+00,2.19000819000819E+00,2.07564404375562E+00,3.38309277115650E+00,3.54141481815931E+00,2.77062944944306E+00,2.70784121680014E+00,2.42236325759411E+00,1.89827671472591E+00,1.65667305433640E+00,1.22880371660859E+00,1.23715663661145E+00,3.12894210622927E+00,,
MAC,,,,,,,,,,,,,,,,,,,,,,,,,,,,,,,,,,,,,5.55932260496380E-02,2.45206218429699E-03,1.38697787340697E-02,0.00000000000000E+00,0.00000000000000E+00,0.00000000000000E+00,0.00000000000000E+00,0.00000000000000E+00,0.00000000000000E+00,0.00000000000000E+00,0.00000000000000E+00,0.00000000000000E+00,0.00000000000000E+00,0.00000000000000E+00,,
MAR,,,,,,,,,,,,,,,,,,,,,,,,,,,,,,,,,,,,,,,,,,,1.26469758404125E+01,1.25009256032225E+01,1.20176043633239E+01,7.75166420611259E+00,6.29824232727623E+00,6.72117567003759E+00,4.46375101107718E+00,3.73517056058817E+00,,
MDA,,,,,,,,,,,,,,,,,,,,,,,,,,,,,,,,,,,,,,1.10647242577292E+01,1.40762463343109E+01,2.45935129991884E+01,2.20277531993871E+01,1.87819531157969E+01,,9.44426336375489E+00,8.84966901069702E+00,4.26220003804727E+00,3.00527290065631E+00,3.52151717447044E+00,3.49861577770990E+00,3.62883404892096E+00,,
MDG,,,,,,,,,,,,,,,,,,,,,,,,,,,,,,,,,,,,,,,,,1.33625174925545E+01,1.02578292857608E+01,1.28541226215645E+01,1.48745406167244E+01,2.33045651006557E+01,2.39167489010496E+01,2.07822533566842E+01,1.00684562924941E+01,6.73225458605096E+00,,,
MDV,,,,,,,,,,,,,,,,,,,,,,,,,,,,,,,3.66784037558685E+00,4.99883747965589E+00,3.97338754389207E+00,5.04721589058938E+00,8.10810810810811E+00,8.71199180047831E+00,8.47812434582374E+00,7.36886632825719E+00,6.28707912782187E+00,6.38628275638952E+00,5.67194413348259E+00,5.90950593486862E+00,6.47103441736987E+00,5.76373790339771E+00,4.97112729098669E+00,3.33598949023324E+00,3.54506223474446E+00,3.57159189646499E+00,3.75174188015865E+00,4.27956285253827E+00,,
MEA,,,,,,,,,,,,,,,,,,,,,,,,,,,,,,,,,,,,,,,,,,,,,,,7.60686156186903E+00,6.72117567003759E+00,3.98648693376054E+00,6.30098824617982E+00,,
MEX,,,,,,,,,,,,,,,,,,,,,,,,,,,,,,,4.78337811097347E+01,3.32191307286946E+01,2.52648470845180E+01,1.79357470918749E+01,1.46540683170710E+01,1.92488279959184E+01,1.98088906670467E+01,1.46051030799006E+01,1.54441758151698E+01,1.68822334064109E+01,1.33324614762896E+01,,,,,,,,,,,
MIC,,,,,,,,,,,,,,,,,,,,,,,,,,,,,,,,,,,,,,,,,,,1.20753104789405E+01,1.06976978148655E+01,1.04922563109885E+01,9.75114662686748E+00,9.17521700519993E+00,7.33190277230046E+00,5.78231793946869E+00,6.87331152278006E+00,,
MKD,,,,,,,,,,,,,,,,,,,,,,,,,,,,,,,,,,,,,,,,,,,,,,2.93944037324640E+00,3.17231402007901E+00,2.67158999304666E+00,2.06782426553614E+00,,,
MLI,,,,,,,,,,,,,,,,,,,,,,,,,,,,,,,,,,,,,,,,,7.99200799200799E+00,5.21855374574205E+00,5.80033481068680E+00,5.31187496429924E+00,4.47398778058461E+00,4.41432046442897E+00,3.16412821879205E+00,2.74833137023950E+00,2.67683914998516E+00,2.49687025132727E+00,,
MLT,,,,,,,,,,,,,,,,,,,,,,,,,,,,,,,,,,,,,,,,,,,,7.79835563726021E+00,8.51260683327019E+00,8.88483214053835E+00,8.35232900870163E+00,8.04574766902226E+00,7.38276205779861E+00,7.25975554878586E+00,,
MNA,,,,,,,,,,,,,,,,,,,,,,,,,,,,,,,,,,,,,,,,,,,1.17412301230623E+01,1.12888510522436E+01,1.09484673432874E+01,8.72573666665164E+00,7.60686156186903E+00,7.26391095086563E+00,6.01413645340463E+00,7.38758365103511E+00,,
MNG,,,,,,,,,,,,,,,,,,,,,,,,,,,,,,,,,6.62605535962381E-01,6.09027298117061E+00,3.13494033500653E+00,2.36451388066964E+00,3.99934920328246E+00,1.19026830437152E+01,6.39198898370026E+00,8.46468155905165E+00,6.63767026567466E+00,5.35925480651751E+00,5.95767804132227E+00,3.92244034270746E+00,,,1.92286766097277E+00,1.61487541400335E+00,1.18866987933760E+00,1.69869728976682E+00,,
MUS,,,,,,,,,,,,,,,,,,,,,,,,,,,,,,,,,,,,,,,,,,,,,,,,,,1.36000669093480E+01,,
MYS,,,,,,,,,,,,,,,,,,,,,,,,,,,,,,,,,,,,,1.43293968789540E+01,1.34195246250888E+01,1.45482035236555E+01,1.42072494364332E+01,1.53866806231478E+01,1.45765832410205E+01,1.42755902024184E+01,1.42874561391625E+01,1.21955033339662E+01,1.20697725216089E+01,1.18165124318592E+01,1.07097690140990E+01,8.49364047508606E+00,9.20572587091975E+00,,
NAC,,,,,,,,,,,,,,,,,,,,,,,,,,,,,,,,2.28909296207094E+01,2.10446335533171E+01,2.09939867512087E+01,2.21042867833841E+01,2.41988275019162E+01,2.42028844385299E+01,2.40899620051477E+01,2.33729466899122E+01,2.27082462361096E+01,2.22113455043806E+01,1.60382321724944E+01,1.40458820894740E+01,1.23108785552597E+01,1.13712601082304E+01,1.12613755509440E+01,1.13080080545613E+01,1.11632778490450E+01,9.78091168871125E+00,7.99941528069945E+00,7.61467889908257E+00,
NAM,,,,,,,,,,,,,,,,,,,,,,,,,,,,,,,,8.38280121931654E-01,7.46655605102147E-01,,,,,,,7.41849634065203E+00,6.60608926721614E+00,7.03557197975228E+00,8.05770989867474E+00,7.80259442865646E+00,8.83480794987854E+00,9.80248412654426E+00,9.62407267580955E+00,7.72457417908697E+00,,,,
NER,,,,,,,,,,,,,,,,,,,,,,,,,,,,,,,,,,,,,,,,,,,,,,6.35985990257502E+00,6.06332799653993E+00,2.97925405783164E+00,,,,
NGA,,,,,,,,,,,,,,,,,,,,,,,,,,,,,,,,,,,,,,,,,,,,,1.04282218954508E+01,8.95508849458495E+00,1.09674283779413E+01,1.10428862205133E+01,8.91977120048395E+00,,,
NIC,,,,,,,,,,,,,,,,,,,,,,,,,,,,,,,7.83867996629368E-03,4.95001546515089E+00,1.22212824322780E+01,1.57695960503025E+01,1.97168612947278E+01,1.67635269069819E+01,1.26369063993235E+01,1.91827342797803E+01,1.86154933816288E+01,1.02109393690243E+01,1.26934849041054E+01,1.24563784412563E+01,1.41671887361395E+01,1.81485532084388E+01,1.23880497059355E+01,1.07580978635424E+01,9.40017276319893E+00,7.85031947047869E+00,5.78231793946869E+00,6.54193994493082E+00,,
NLD,,,,,,,,,,,,,,,,,,,,,,,,,,,,,,,,,,,,9.30661881462930E+00,1.01787905596301E+01,9.72365640664428E+00,9.56147663987728E+00,8.79151120298490E+00,7.66919767456032E+00,6.72212622490389E+00,5.98760002574389E+00,5.46892528606686E+00,5.34698406294129E+00,5.11691120303959E+00,4.53748426233261E+00,4.57550611975582E+00,4.55918760410166E+00,4.11246424946951E+00,,
NOC,,,,,,,,,,,,,,,,,,,,,,,,,,,,,,,,3.72856077554064E-01,,6.22247037657423E+00,6.01517233140195E+00,5.85956410821933E+00,5.07563331510844E+00,4.73057644110276E+00,4.02644230769231E+00,3.87873177505207E+00,,,1.67084065338467E+00,1.40159339038064E+00,3.01802045922689E+00,3.08898111586913E+00,2.96126684557022E+00,3.98052482889447E+00,3.46431024568824E+00,,,
NOR,,,,,,,,,,,,,,,,,,,,,,,,,,,,,,,,,,,,,,,,,3.29366171961851E+00,3.67988874391568E+00,3.11213573885219E+00,3.40345076038095E+00,2.84617885760092E+00,2.58104002003011E+00,3.72386094093337E+00,2.56749434667463E+00,2.71974476810315E+00,2.72445583388534E+00,,
NPL,,,,,,,,,,,,,,,,,,,,,,,,,,,,,,,,,,,,,,,,,,,,,8.35259624969845E+00,7.00371135878533E+00,,,,,,
NZL,,,,,,,,,,,,,,,,,,,,,,,,,,,,,,,,,,,,,,,,,,6.26466684560321E+00,5.27817804514897E+00,5.52766464796483E+00,5.35414445305348E+00,5.26479739425263E+00,4.54949614700652E+00,3.85641938133041E+00,,,,
OEC,,,,,,,,,,,,,,,,,,,,,,,,,,,,,,,,,,,,9.30661881462930E+00,9.54753949012531E+00,9.74450129397168E+00,9.13327602498245E+00,7.80267231605307E+00,7.66919767456032E+00,7.07261399591403E+00,5.92266589665306E+00,5.75764052147895E+00,5.60639228846765E+00,5.49690415727452E+00,5.28405057321054E+00,5.45690782956957E+00,5.46661504840770E+00,4.88731487003096E+00,,
OED,,,,,,,,,,,,,,,,,,,,,,,,,,,,,,,,,,,,1.03872764679525E+01,1.01787905596301E+01,9.76534618129907E+00,9.43608727706232E+00,7.83823345228737E+00,7.66919767456032E+00,6.72212622490389E+00,5.85773176756224E+00,5.74842679458875E+00,5.59544111137760E+00,5.47716024108340E+00,5.28405057321054E+00,5.45690782956957E+00,5.46661504840770E+00,4.88731487003096E+00,,
OMN,,,,,,,,,,,,,,,,,,,,,,,,,,,,,,,6.32097414146942E+00,5.01771383124864E+00,6.06863409524983E+00,6.22247037657423E+00,6.01517233140195E+00,6.73732021196064E+00,7.10267229254571E+00,6.34616535951626E+00,6.23657234055614E+00,5.76328530595578E+00,5.35366158460385E+00,4.56570155902004E+00,,,,,,,,,,
PAK,,,,,,,,,,,,,,,,,,,,,,,,,,,,,,,2.83278198321227E+01,2.74776947802993E+01,2.61719427167676E+01,2.86278065169858E+01,3.24126144007057E+01,2.82275796968704E+01,2.86104806393363E+01,3.05056477269411E+01,3.55760789340792E+01,3.58113459064506E+01,3.59771471324426E+01,4.56999351154186E+01,4.22957193280433E+01,3.13742265641472E+01,3.90234406185326E+01,2.89017894434514E+01,3.11108338889725E+01,2.63946452854847E+01,2.56556270364322E+01,3.51635123230170E+01,3.13094857860608E+01,
PAN,,,,,,,,,,,,,,,,,,,,,,,,,,,,,,,7.67623181416285E+00,6.56869294143843E+00,1.30000644205373E+01,7.77147134036051E+00,1.45638629283489E+01,8.14133869577708E+00,1.65770245585549E+01,1.35166252187529E+01,1.70871803599541E+01,1.96929375639713E+01,2.16653035790786E+01,2.14647553745952E+01,,,,,,,,,,
PER,,,,,,,,,,,,,,,,,,,,,,,,,,,,,,,3.94882063720375E+01,2.67214799588900E+01,2.58976020738820E+01,2.73592910342227E+01,2.34632831503517E+01,1.91888142453987E+01,1.48953102630976E+01,1.17478721421471E+01,1.25927621871888E+01,1.30434782608696E+01,1.32405857048810E+01,1.21614885195885E+01,1.20753104789405E+01,1.21911533408274E+01,1.19076029998444E+01,1.08457639986275E+01,1.10951255310519E+01,1.02947129121592E+01,9.16011474055966E+00,7.22726379171919E+00,,
PHL,,,,,,,,,,,,,,,,,,,,,,,,,,,,,,,3.93793573180794E+01,3.75364482610046E+01,3.63189713429892E+01,3.26100024300508E+01,,,,,,,2.40681521568306E+01,,,2.85584383377225E+01,3.07457016972361E+01,3.23065110565111E+01,3.06756249003727E+01,2.42180738411825E+01,2.23499199968394E+01,2.02678099736273E+01,,
PNG,,,,,,,,,,,,,,,,,,,,,,,,,,,,,,,1.21685502300974E+01,8.87089319060033E+00,1.12391695941705E+01,1.07599750580722E+01,1.22613277895541E+01,1.97119258993681E+01,1.48913812185601E+01,1.51899101218776E+01,1.80267926998675E+01,1.48315639469995E+01,1.38880238360329E+01,1.49902143832489E+01,2.06090815469043E+01,,,,,,,,,
POL,,,,,,,,,,,,,,,,,,,,,,,,,,,,,,,,,,,,,,,,,,7.95777009363991E+00,8.07948458339610E+00,7.47813397671916E+00,7.14405151297358E+00,7.33929006989400E+00,6.50760531806569E+00,5.71124970207357E+00,6.42457914031772E+00,6.93951326576722E+00,,
PRT,,,,,,,,,,,,,,,,,,,,,,,,,,,,,,,,,,,,1.45382680692929E+01,1.25497936156023E+01,1.00183814901872E+01,8.16422143380634E+00,7.79118236500730E+00,7.73861754564322E+00,7.42310176692416E+00,7.02958891091949E+00,6.52020730906445E+00,6.16828181311138E+00,5.71209563740054E+00,6.39038991249728E+00,6.89076813823942E+00,6.98359993416469E+00,6.16179908083240E+00,,
PRY,,,,,,,,,,,,,,,,,,,,,,,,,,,,,,,1.11442265315117E+01,9.15265419068574E+00,7.50136271231563E+00,6.77192969847675E+00,5.47085990234439E+00,5.29827015915857E+00,3.89154073672065E+00,3.53048350740549E+00,4.97897463658947E+00,4.38604462671326E+00,7.03697532078389E+00,8.04067244641663E+00,8.90882073811916E+00,9.18172073114583E+00,8.31617144755998E+00,7.54044764858748E+00,6.31513283428739E+00,5.71142893932685E+00,4.44918747542680E+00,3.60333306575550E+00,,
QAT,,,,,,,,,,,,,,,,,,,,,,,,,,,,,,,,,,,,,,,,,,,,,6.93355398052076E+00,5.90543837824642E+00,4.08426981479473E+00,3.98052482889447E+00,3.50922285644390E+00,5.21439284132453E+00,,
ROM,,,,,,,,,,,,,,,,,,,,,,,,,,,,,,,,,,,,,,,,,,,8.42961762119451E+00,6.66823988076168E+00,5.72884849921788E+00,4.28055014950683E+00,2.82123424690934E+00,2.54860015139959E+00,1.85350175256815E+00,,,
RUS,,,,,,,,,,,,,,,,,,,,,,,,,,,,,,,,,,,,,,,,,,,9.12172017634430E+00,7.17657435266506E+00,5.05970683245881E+00,4.83304759723719E+00,3.29396075442942E+00,1.83943209004981E+00,1.74958932469227E+00,1.46808916299852E+00,,
RWA,,,,,,,,,,,,,,,,,,,,,,,,,,,,,,,7.88266627210180E+00,1.43718189124029E+01,1.18023112859602E+01,,,,,,,,,,,,,,,,,,,
SAS,,,,,,,,,,,,,,,,,,,,,,,,,,,,,,,2.60712708924629E+01,2.45658765159868E+01,2.54358612304132E+01,2.59968342503957E+01,2.76257636985936E+01,2.74408421837153E+01,2.81390020366599E+01,2.71794316750630E+01,2.86779507021845E+01,2.95148856945808E+01,2.96480827255773E+01,2.87049291156184E+01,3.04225807173989E+01,2.94952184017378E+01,2.56445936669826E+01,2.33823470709695E+01,2.25783590403803E+01,2.22020791244665E+01,2.29042099279642E+01,2.13528079510160E+01,,
SDN,,,,,,,,,,,,,,,,,,,,,,,,,,,,,,,,,,,,,,,7.63941990340437E+00,9.94686150780472E+00,,,,,,,,,,,,
SEN,,,,,,,,,,,,,,,,,,,,,,,,,,,,,,,,,,,,,,,,1.17306099917196E+01,1.06563161609033E+01,5.82244427363567E+00,,,,,,,,,,
SGP,,,,,,,,,,,,,,,,,,,,,,,,,,,,,,,1.67996674979219E+01,1.87224042159237E+01,1.40955364134691E+01,8.62467596160583E+00,9.24403938481569E+00,8.24575586095392E+00,5.07563331510844E+00,4.89513940291142E+00,4.38888150019949E+00,3.87873177505207E+00,2.03979717271051E+00,1.70703338806787E+00,1.67084065338467E+00,1.40159339038064E+00,1.03991709252046E+00,7.57745427398283E-01,4.57272579860548E-01,1.66012677331724E-01,8.30502076255191E-02,8.33744329991441E-02,,
SLE,,,,,,,,,,,,,,,,,,,,,,,,,,,,,,,,,,,,,,,,2.64445133472212E+01,2.19473492465013E+01,1.76709341360892E+01,1.86384166826831E+01,1.40086159192970E+01,1.88294391557107E+01,1.52606796322962E+01,1.30768080663102E+01,1.35955734552799E+01,1.00861478316884E+01,7.10949001612679E+00,,
SLV,,,,,,,,,,,,,,,,,,,,,,,,,,,,,,,,,,,,,,,,,,,1.12807497071456E+01,1.13186191284663E+01,1.33704735376045E+01,1.24738328626018E+01,1.42341942464005E+01,1.22217135008299E+01,1.05661852747844E+01,1.00953720388520E+01,,
SMR,,,,,,,,,,,,,,,,,,,,,,,,,,,,,,,,,,,,,,,,,,,2.26499628532847E+00,9.70684744567939E-01,7.98414003668756E-01,6.40165869651048E-01,2.39838526340302E+00,,,,,
SRB,,,,,,,,,,,,,,,,,,,,,,,,,,,,,,,,,,,,,,,,,,,,,,,,1.95551141790772E+00,1.45506541790777E+00,1.92962577806902E+00,,
SVK,,,,,,,,,,,,,,,,,,,,,,,,,,,,,,,,,,,,,,,,,,,,6.28983437205459E+00,5.08909300322303E+00,4.04700716085731E+00,4.93683268466294E+00,4.14539910215603E+00,3.77924164868127E+00,3.70920081038432E+00,,
SVN,,,,,,,,,,,,,,,,,,,,,,,,,,,,,,,,,1.28617363344051E+00,3.22285295733382E+00,3.75053274612871E+00,2.95194237808478E+00,3.22614654717976E+00,3.06627101879327E+00,3.28548644338118E+00,3.56588052534953E+00,3.52365659035550E+00,3.68080940457437E+00,3.86309158787537E+00,3.91251342531869E+00,3.60892471607742E+00,3.99115594538331E+00,3.82027074503443E+00,3.51828720671722E+00,2.91142525364438E+00,2.65611009698906E+00,,
SWZ,,,,,,,,,,,,,,,,,,,,,,,,,,,,,,,,,,,,,,,,3.20062451209992E+00,2.34605358745353E+00,4.49631222297613E+00,5.76308714239768E+00,5.17825350519205E+00,,,,,,,,
SYC,,,,,,,,,,,,,,,,,,,,,,,,,,,,,,,,,,1.76287706915385E+01,1.97420464316423E+01,2.15224486195643E+01,1.97652728120628E+01,1.98974575080770E+01,1.95837852494577E+01,2.05396997159475E+01,1.73453897432513E+01,1.73838999148490E+01,1.69621651477492E+01,1.58542805100182E+01,1.51712230215827E+01,1.41995405257991E+01,1.82500786835124E+01,1.64739717621828E+01,1.76718745680233E+01,2.00867060762734E+01,,
TGO,,,,,,,,,,,,,,,,,,,,,,,,,,,,,,,,,,,,,,,,,,,,,1.14434688476453E+01,6.47443471309150E+00,5.25418647504249E+00,5.93731385804327E+00,5.50986079448432E+00,5.46479884017412E+00,,
THA,,,,,,,,,,,,,,,,,,,,,,,,,,,,,,,,,,,,,,,,,,,,7.20468188895096E+00,7.90023186070518E+00,7.78807013020329E+00,8.91049421139181E+00,6.21390880802290E+00,5.42303279183526E+00,5.48574137622280E+00,,
TJK,,,,,,,,,,,,,,,,,,,,,,,,,,,,,,,,,,,,,,,1.20966495509265E+01,4.39815158764357E+00,4.36423861754320E+00,5.68598332298047E+00,,1.11037562879037E+01,5.22606699801615E+00,,,,,,,
TTO,,,,,,,,,,,,,,,,,,,,,,,,,,,,,,,,,,2.17018666985760E+01,2.15871755557989E+01,1.96768155727477E+01,,,,,,1.81530573426108E+01,1.71870095031535E+01,1.64796317372313E+01,1.26648978901526E+01,1.11435085719297E+01,7.17077091706248E+00,8.03716380252783E+00,6.40442890442890E+00,,,
TUN,,,,,,,,,,,,,,,,,,,,,,,,,,,,,,,1.09080959474660E+01,1.14358322744600E+01,1.15364322270881E+01,1.22862556059189E+01,1.24760423008411E+01,1.31262400793651E+01,1.41284609768426E+01,1.36827313417300E+01,1.24486694474084E+01,1.23550473720660E+01,1.20549656464710E+01,1.12259783091267E+01,1.08354844057120E+01,1.00767765012647E+01,9.87933032325089E+00,9.69980912719070E+00,9.55118396469663E+00,9.05628859975787E+00,7.56452189573209E+00,7.38758365103511E+00,,
TUR,,,,,,,,,,,,,,,,,,,,,,,,,,,,,,,,,,,,,,,,,,,,,,,2.86771018289925E+01,2.40955603772449E+01,2.40131596096077E+01,1.99338808791673E+01,,
UGA,,,,,,,,,,,,,,,,,,,,,,,,,,,,,,,,,,,,,,,,5.65899665350200E+00,5.19434387522376E+00,5.23477860014545E+00,5.90741235452385E+00,6.47838004736779E+00,1.05272120928549E+01,8.89271832658127E+00,8.27528565818704E+00,6.77648144883751E+00,8.22924522109891E+00,8.57450683535141E+00,,
UKR,,,,,,,,,,,,,,,,,,,,,,,,,,,,,,,,,,,,,,,,9.16818698203947E+00,9.41876926914552E+00,6.96072554701549E+00,4.20044931442705E+00,3.17200061935914E+00,2.68304381666541E+00,2.05218217570903E+00,1.68677912193787E+00,1.48298995673058E+00,1.24912226743903E+00,2.66454160293672E+00,,
UMC,,,,,,,,,,,,,,,,,,,,,,,,,,,,,,,,,,,,,,,,,,,9.17567006025348E+00,7.90902487757864E+00,8.83480794987854E+00,7.78807013020329E+00,8.25867788663042E+00,6.21390880802290E+00,4.09039607988974E+00,7.20468310062929E+00,,
URY,,,,,,,,,,,,,,,,,,,,,,,,,,,,,,,8.64456567352077E+00,7.47822794396062E+00,6.45062044918470E+00,5.07025761124122E+00,6.06880992667795E+00,6.04372440375813E+00,4.38272419404495E+00,5.04558658092248E+00,4.94122737434196E+00,6.56348643499785E+00,7.23803548778658E+00,8.08727549091954E+00,1.31298558209064E+01,1.87710189038298E+01,1.78489173998850E+01,1.59000081301988E+01,1.57008706336188E+01,1.42444755311196E+01,1.12424015484251E+01,9.36186009078910E+00,,
USA,,,,,,,,,,,,,,,,,,,,,,,,,,,,,,,,,,,,,,,,,,1.28497316100399E+01,1.05616310592164E+01,9.10107046128713E+00,8.92802209085530E+00,9.52575040974011E+00,9.88949254750256E+00,1.04287449284647E+01,8.82784268386310E+00,6.86353966573079E+00,7.61467889908257E+00,
VEN,,,,,,,,,,,,,,,,,,,,,,,,,,,,,,,1.68994076374249E+01,1.71712288653935E+01,1.73934323070828E+01,2.05444511529865E+01,2.55251838183957E+01,2.66000599150155E+01,2.29562022625611E+01,1.21149217802817E+01,1.22440206186647E+01,1.39334292370424E+01,1.17547355410043E+01,1.20492785487653E+01,1.96978748127433E+01,1.86604883163192E+01,1.47987089662304E+01,1.17304408473615E+01,,,,,,
VUT,,,,,,,,,,,,,,,,,,,,,,,,,,,,,,,4.94477266889288E+00,,,,,2.53682487725041E+00,2.48418453942293E+00,2.27272727272727E+00,2.51523199500078E+00,3.58750907770516E+00,,,,,,,,,,,,
WBG,,,,,,,,,,,,,,,,,,,,,,,,,,,,,,,,,,,,,,,,,,,,,,,,1.47453083109920E+00,1.27047489814671E+00,,,
WLD,,,,,,,,,,,,,,,,,,,,,,,,,,,,,,,,,,,,,,,,,,8.22255460361342E+00,8.59315190261706E+00,7.85853332706917E+00,8.31617144755998E+00,6.99120764639802E+00,6.31513283428739E+00,5.71124970207357E+00,4.86448481815587E+00,4.95101241380645E+00,,
YEM,,,,,,,,,,,,,,,,,,,,,,,,,,,,,,,1.26039312667889E+01,1.15234427598093E+01,1.05713134056049E+01,1.22956814586771E+01,1.43642041187399E+01,1.55086936685761E+01,1.06367655925504E+01,8.63302453951922E+00,1.13991022224319E+01,1.06139959235174E+01,,,,,,,,,,,,
ZAF,,,,,,,,,,,,,,,,,,,,,,,,,,,,,,,,,,,,,,,,,1.81060049086277E+01,1.68016772079421E+01,1.45583370058408E+01,1.25691941140716E+01,1.15613262515453E+01,1.08593590528679E+01,9.85031567425652E+00,8.67309675026429E+00,7.77993499889768E+00,7.20468310062929E+00,,
ZAR,,,,,,,,,,,,,,,,,,,,,,,,,,,,,,,7.41148873103585E+00,2.17576003841749E+00,1.29747890743171E+01,6.43937053740855E+00,1.34468063677508E+01,6.45359557467732E-01,3.03257994710267E+00,1.03006502285457E-01,2.55977055484597E+00,5.65209089173191E+00,0.00000000000000E+00,0.00000000000000E+00,,,,,,,,,,
ZMB,,,,,,,,,,,,,,,,,,,,,,,,,,,,,,,,,,,,,,,1.59467409815761E+01,1.98925968546222E+01,,6.55230064089435E+00,1.60569729189254E+01,2.60257717943419E+01,2.57855723246773E+01,1.94148420245442E+01,9.55495781880425E+00,6.93923136551394E+00,,,,
ZWE,,,,,,,,,,,,,,,,,,,,,,,,,,,,,,,1.78131046780741E+01,1.85330713817944E+01,1.82846962337766E+01,2.13098450176347E+01,2.57075395674177E+01,3.13065499358048E+01,2.89840401244509E+01,2.11825099931243E+01,,,,,,,,,,,,,,
