"Country Code",1960,1961,1962,1963,1964,1965,1966,1967,1968,1969,1970,1971,1972,1973,1974,1975,1976,1977,1978,1979,1980,1981,1982,1983,1984,1985,1986,1987,1988,1989,1990,1991,1992,1993,1994,1995,1996,1997,1998,1999,2000,2001,2002,2003,2004,2005,2006,2007,2008,2009,2010,2011AFG,,,,,,,,,,,,,,,,,,,,,,,,,,,,,,,,,,,,,,,,,,,,,,,1.85789897530460E+01,2.42642058080101E+01,4.35380250670362E+01,3.79676084904837E+01,,
ALB,,,,,,,,,,,,,,,,,,,,,,,,,,,,,,,,,,,,2.55520704804614E+01,2.23822778162197E+01,2.63083085701516E+01,2.80318396721294E+01,,,,2.42664896676957E+01,2.27359575476007E+01,2.19396255492242E+01,,,,,,,
ARE,,,,,,,,,,,,,,,,,,,,,,,,,,,,,,,7.65936870382807E+00,7.89176107541427E+00,7.46916308409337E+00,7.33251714005877E+00,6.99787330794776E+00,7.16401831403178E+00,6.09263921800948E+00,6.05387363605581E+00,6.54878847413229E+00,6.20006062052198E+00,,,,,,,,,,,,
ARG,,,,,,,,,,,,,,,,,,,,,,,,,,,,,,,,,,,,,,,,,,,1.96771615068803E+01,1.98373108286790E+01,1.82890430602235E+01,,,,,,,
ARM,,,,,,,,,,,,,,,,,,,,,,,,,,,,,,,,,,,,,,,,,,,,1.64146790885159E+01,1.69559988456693E+01,1.81464405215631E+01,1.71482192993136E+01,1.70424253804612E+01,2.11396851697465E+01,2.38619179943921E+01,,
AUS,,,,,,,,,,,,,,,,,,,,,,,,,,,,,,,,,,,,,,,,2.44670344229518E+01,2.39856778541485E+01,2.62245570180945E+01,2.62727804384592E+01,2.57449080698840E+01,2.55920828251181E+01,2.55488927099444E+01,2.48957070785292E+01,2.43993780049426E+01,2.42612227628517E+01,2.65936798931311E+01,,
AUT,,,,,,,,,,,,,,,,,,,,,,,,,,,,,,,,,,,,4.24727604978744E+01,4.20777039370378E+01,4.13137372483511E+01,4.12573006711252E+01,4.11399514683977E+01,4.04323872349261E+01,4.07386386472294E+01,4.04405813445798E+01,4.07893683138966E+01,4.37167605358543E+01,3.99674545388607E+01,3.92530373476115E+01,3.83270033948900E+01,3.83916597594659E+01,3.95742923557677E+01,,
AZE,,,,,,,,,,,,,,,,,,,,,,,,,,,,,,,,,,,,,,,,,,,,,,,,,1.46323996815921E+01,,,
BDI,,,,,,,,,,,,,,,,,,,,,,,,,,,,,,,,2.30257010448423E+01,2.76919331268890E+01,2.82540590198827E+01,2.51830169238625E+01,2.36275593720020E+01,2.27156974534398E+01,,2.20782858570715E+01,2.06476284584980E+01,,,,,,,,,,,,
BEL,,,,,,,,,,,,,,,,,,,,,,,,,,,,,,,,,,,,4.55970731295042E+01,4.59046133365260E+01,4.47902254979717E+01,4.44593570121413E+01,4.39923195678953E+01,4.29461575774375E+01,4.36000186294929E+01,4.19833102275486E+01,4.32026350049241E+01,4.15848558886424E+01,4.43991476048266E+01,4.11341493644433E+01,4.09843377916775E+01,4.24441272226830E+01,4.51462936283922E+01,,
BEN,,,,,,,,,,,,,,,,,,,,,,,,,,,,,,,,,,,,,,,,,,1.18500713786959E+01,1.17538202074922E+01,1.31944001160598E+01,1.26253858385558E+01,1.35460676542118E+01,1.35450623875111E+01,,1.49211172586714E+01,1.50793808286434E+01,,
BFA,,,,,,,,,,,,,,,,,,,,,,,,,,,,,,,,,,,,,,,,,,,1.09630849565773E+01,1.03569054735910E+01,1.08734151031339E+01,1.16027564668157E+01,1.28321600981741E+01,1.38838008800537E+01,1.26336123501471E+01,1.29832092186941E+01,,
BGD,,,,,,,,,,,,,,,,,,,,,,,,,,,,,,,,,,,,,,,,,,9.02323598363061E+00,9.07305756567509E+00,9.08062310179549E+00,8.75428645737448E+00,9.38073915518186E+00,9.67038384962857E+00,1.00804950887546E+01,1.08601385542257E+01,1.13211281090028E+01,,
BGR,,,,,,,,,,,,,,,,,,,,,,,,,,,,,,,5.35154879997118E+01,3.93728813559322E+01,3.95488047808765E+01,4.36835061893610E+01,4.37151826484018E+01,3.95334566997698E+01,5.17614313638946E+01,3.20044304750160E+01,2.89615462573754E+01,3.03580231443237E+01,3.15534659601089E+01,3.06712982884017E+01,3.17373607791896E+01,3.27015409604281E+01,3.37138315496524E+01,3.16508218506429E+01,3.01968859142598E+01,3.00422704965915E+01,2.97628947243655E+01,3.16606078223274E+01,,
BHR,,,,,,,,,,,,,,,,,,,,,,,,,,,,,,,2.64964788732394E+01,2.47508214507267E+01,2.60579937304075E+01,2.61494404115901E+01,2.52507874194849E+01,2.33836507668244E+01,2.22333618682835E+01,2.27411711208677E+01,2.39430558831114E+01,2.40731079779146E+01,2.26300503278438E+01,2.35945256943513E+01,2.61918185804673E+01,2.37080491132333E+01,2.26701384779264E+01,2.05408128988915E+01,1.90129669702917E+01,1.88277639402796E+01,1.90375695169634E+01,,,
BHS,,,,,,,,,,,,,,,,,,,,,,,,,,,,,,,1.66108654453569E+01,1.74629398680878E+01,1.80829848825989E+01,1.74320827943079E+01,1.71371586376189E+01,1.73694954797317E+01,1.82571349404267E+01,1.69255956141369E+01,1.55236641460702E+01,1.54113870249550E+01,1.49886025442553E+01,1.53210255046529E+01,1.56064209250013E+01,1.68112743660034E+01,1.69321568899637E+01,1.71639980733772E+01,1.72473213363721E+01,1.74197258486362E+01,1.84297302487110E+01,2.01344824284006E+01,,
BIH,,,,,,,,,,,,,,,,,,,,,,,,,,,,,,,,,,,,,,,,,,,,3.56370005530413E+01,3.34835138857444E+01,3.40093681043496E+01,3.56856884123218E+01,3.73481673396428E+01,3.90581016915167E+01,4.11427205096651E+01,,
BLR,,,,,,,,,,,,,,,,,,,,,,,,,,,,,,,,,3.14764737696052E+01,3.63536719035440E+01,2.99406514848369E+01,2.87418061886648E+01,2.77234267031973E+01,2.72143970737407E+01,2.59043401863191E+01,2.70587694502267E+01,2.53401651010532E+01,2.68710548994946E+01,2.46783838275634E+01,2.82128169988623E+01,2.92698762597066E+01,3.02507626742240E+01,3.24134847792902E+01,3.46577822535411E+01,3.39503611411595E+01,3.28486134535099E+01,,
BLZ,,,,,,,,,,,,,,,,,,,,,,,,,,,,,,,1.66238960561248E+01,1.69510876183439E+01,1.82157968762259E+01,1.97379356205223E+01,2.11050098858196E+01,1.86507377926009E+01,1.87072918683031E+01,1.89107849760996E+01,,,,,,,,,,,,,,
BOL,,,,,,,,,,,,,,,,,,,,,,,,,,,,,,,,,,,,,,,,,,,2.87844354467921E+01,2.82076378842585E+01,2.72111987188201E+01,2.59831530661170E+01,2.39380392535006E+01,2.18110433539945E+01,,,,
BRA,,,,,,,,,,,,,,,,,,,,,,,,,,,,,,,3.41872752580131E+01,2.34708498406398E+01,2.84832220585911E+01,3.65103738575564E+01,3.29076736720627E+01,,,2.21162272492643E+01,2.24104312109098E+01,2.21728132871289E+01,2.17233811999520E+01,2.28178299793676E+01,2.27952184537312E+01,2.49498449443049E+01,2.28905554226720E+01,2.56448304907514E+01,2.50189259330485E+01,2.42446079795006E+01,2.38493708053617E+01,2.56055207928245E+01,,
BRB,,,,,,,,,,,,,,,,,,,,,,,,,,,,,,,,,,,,,,,,,,,,,,,,4.01114787780124E+01,4.02836092330755E+01,,,
BTN,,,,,,,,,,,,,,,,,,,,,,,,,,,,,,,2.19091646378857E+01,2.01729096612142E+01,1.91496202416994E+01,1.83566185596109E+01,2.08145983965985E+01,2.13239578165247E+01,2.45365655624272E+01,2.09463812468737E+01,1.82261536247384E+01,1.91117082971483E+01,1.96949626604830E+01,2.11009616559907E+01,1.95756899975218E+01,1.88793260953586E+01,1.72902317404507E+01,1.97556857673744E+01,1.92979229770662E+01,1.83841436413818E+01,2.25770156580989E+01,2.32868588042173E+01,,
BWA,,,,,,,,,,,,,,,,,,,,,,,,,,,,,,,2.66816025863719E+01,2.78405419816203E+01,3.04987482710136E+01,3.26276735050196E+01,2.85359937380181E+01,3.03496300872975E+01,2.92517632039695E+01,,,,,,,,,,,,,,,
CAF,,,,,,,,,,,,,,,,,,,,,,,,,,,,,,,,,,,,,,,,,,,,,9.66511779477754E+00,,,,,,,
CAN,,,,,,,,,,,,,,,,,,,,,,,,,,,,,,,,2.62316393990373E+01,2.63042485153038E+01,2.52015995951506E+01,2.46144306520010E+01,2.38259878138164E+01,2.20888937748547E+01,2.03343479851778E+01,2.04992934217731E+01,1.97211842746791E+01,1.89777414899259E+01,1.88324874012678E+01,1.81919585742104E+01,1.84388072619367E+01,1.83909595276496E+01,1.79828874436345E+01,1.74021738755727E+01,1.73324991223133E+01,1.74504090636378E+01,1.92243220175476E+01,,
CHE,,,,,,,,,,,,,,,,,,,,,,,,,,,,,,,,2.22991208423481E+01,2.41086681446608E+01,2.54999682711106E+01,2.54379695706652E+01,2.56968094258008E+01,2.67407053827196E+01,2.67873570528863E+01,2.69990193148013E+01,2.64909500807141E+01,2.55137414116531E+01,1.85886946191108E+01,1.89922146606770E+01,1.95841390610428E+01,1.93941734889896E+01,1.91426628510648E+01,1.82672509684477E+01,1.73296594224160E+01,1.69934982571795E+01,,,
CHL,,,,,,,,,,,,,,,,,,,,,,,,,,,,,,,,,,,,,,,,,2.09525154934703E+01,2.09196818357052E+01,2.09975536786670E+01,1.99947160734026E+01,1.88605734828691E+01,1.81485555958024E+01,1.69971758855604E+01,1.72386499534060E+01,1.95288334242464E+01,2.29452743157965E+01,,
CHN,,,,,,,,,,,,,,,,,,,,,,,,,,,,,,,,,,,,,,,,,,,1.07335068683540E+01,1.04481755619802E+01,1.11236534120088E+01,,,,,,,
CIV,,,,,,,,,,,,,,,,,,,,,,,,,,,,,,,,,,,,,,,,,,,,1.73642313036605E+01,1.70216126117860E+01,1.68875867148915E+01,1.62280475297125E+01,1.75650419616186E+01,1.79255640818582E+01,1.78144633754776E+01,,
CMR,,,,,,,,,,,,,,,,,,,,,,,,,,,,,,,1.45567883471092E+01,1.58089333568878E+01,1.49294278084944E+01,1.26321710726011E+01,1.11850779065122E+01,1.06183709695937E+01,,,1.16352071087562E+01,1.20020549021896E+01,,,,,,,,,,,,
COG,,,,,,,,,,,,,,,,,,,,,,,,,,,,,,,,,3.48274085522926E+01,3.50480199973688E+01,3.39183191498025E+01,2.98238969892066E+01,2.48365007309379E+01,3.42701187578373E+01,3.81010346926354E+01,2.66611467605051E+01,1.98799045383206E+01,2.36499894002832E+01,2.80415425098104E+01,2.02484185670834E+01,2.02241188617151E+01,1.48194403705111E+01,,,,,,
COL,,,,,,,,,,,,,,,,,,,,,,,,,,,,,,,,,,,,,,,,,,1.96018959873709E+01,1.75822126424652E+01,2.13839613807267E+01,2.22806678536155E+01,2.67319160494009E+01,2.40267921533845E+01,2.55209510091122E+01,2.01270923186782E+01,1.93641540748665E+01,,
CPV,,,,,,,,,,,,,,,,,,,,,,,,,,,,,,,,,,,,,,,,,,,,,,2.94149619650884E+01,2.96098115964010E+01,2.82376903935871E+01,2.64652440920878E+01,2.74925147526773E+01,,
CRI,,,,,,,,,,,,,,,,,,,,,,,,,,,,,,,,,,,,,,,,,,,,,,,,,2.23689116128703E+01,2.60182963121594E+01,,
CYP,,,,,,,,,,,,,,,,,,,,,,,,,,,,,,,,,,,,5.33773644418531E+01,5.73569516662117E+01,5.90646869783794E+01,6.10119770170754E+01,6.18768947678014E+01,6.17147994156647E+01,6.36922809804156E+01,6.66639693375928E+01,7.37517251398272E+01,7.00220502551375E+01,7.23165433659388E+01,7.14856395476146E+01,6.95631806685109E+01,7.06252239225869E+01,4.26554939218695E+01,,
CZE,,,,,,,,,,,,,,,,,,,,,,,,,,,,,,,,,,3.68418637134590E+01,3.54981974730805E+01,3.25787816343703E+01,3.15293045515681E+01,3.17255758121887E+01,3.10583160487718E+01,3.12416828743986E+01,3.33943153772048E+01,3.53890844965637E+01,3.72684253410116E+01,3.73001152453717E+01,3.52878502694011E+01,3.60295482833992E+01,3.55991197780267E+01,3.37608118886934E+01,3.41054498868797E+01,3.73504529264051E+01,,
DEU,,,,,,,,,,,,,,,,,,,,,,,,,,,,,,,,,,,,3.85756018393292E+01,3.27008000000000E+01,3.21609327616857E+01,3.21778843700566E+01,3.22582741725827E+01,3.19843711843712E+01,3.16123507302916E+01,3.21076822061720E+01,3.26821885913853E+01,3.15575898346769E+01,3.15114188095666E+01,3.02938761398505E+01,2.89606753139798E+01,2.89890047699895E+01,3.20286376079175E+01,,
DNK,,,,,,,,,,,,,,,,,,,,,,,,,,,,,,,,,,,,4.14848780583496E+01,4.01424793920081E+01,3.79568619124570E+01,3.73827791986360E+01,3.65869697966086E+01,3.47680460971093E+01,3.44795003934529E+01,3.44149680528754E+01,3.49511561809938E+01,3.44784405734630E+01,3.27120990230104E+01,3.20484243337609E+01,3.58089359533382E+01,3.66028987105672E+01,4.24556248747062E+01,,
DOM,,,,,,,,,,,,,,,,,,,,,,,,,,,,,,,,,,,,,,,,,,,,,1.37269319153191E+01,1.44409840916043E+01,1.45877884700328E+01,1.45244378546385E+01,1.62316828204692E+01,,,
DZA,,,,,,,,,,,,,,,,,,,,,,,,,,,,,,,,,,,,,,,,,,,,,,,1.91667058270677E+01,2.08853253419199E+01,2.32412387938060E+01,2.50369596498635E+01,,
EAP,,,,,,,,,,,,,,,,,,,,,,,,,,,,,,,,,,,,,,,,,,,1.16348834783237E+01,1.20364856328748E+01,1.26535938562978E+01,,,,,,,
ECA,,,,,,,,,,,,,,,,,,,,,,,,,,,,,,,,,,,,,,,,,,,,,,,2.25967688366714E+01,2.49810443022246E+01,2.44718654971773E+01,3.02710778195918E+01,,
ECS,,,,,,,,,,,,,,,,,,,,,,,,,,,,,,,,,,,,4.12000123650319E+01,4.00847601212618E+01,3.89471978593551E+01,3.77750822509382E+01,3.72905370548531E+01,3.66086668122777E+01,3.65072373916169E+01,3.63023085473485E+01,3.68201468627970E+01,3.63501262191658E+01,3.65126998454103E+01,3.56090579227495E+01,3.52028269181006E+01,3.61211726216066E+01,4.03442880142640E+01,,
ECU,,,,,,,,,,,,,,,,,,,,,,,,,,,,,,,1.07332629512609E+01,1.47844491425049E+01,2.51271785832592E+01,2.62619553666312E+01,2.63016196351510E+01,,,,,,,,,,,,,,,,,
EGY,,,,,,,,,,,,,,,,,,,,,,,,,,,,,,,2.40290751302303E+01,2.76211649822760E+01,3.49439252336449E+01,3.14845360824742E+01,3.10000000000000E+01,2.81250000000000E+01,2.69481255448997E+01,2.42320421210982E+01,,,,,2.72483502673346E+01,2.73324551065799E+01,2.68903769444893E+01,2.73888580428828E+01,3.27636717531771E+01,2.93352309344791E+01,3.03182043551089E+01,3.00771253118403E+01,,
EMU,,,,,,,,,,,,,,,,,,,,,,,,,,,,,,,,,,,,4.23505015681698E+01,4.08979921897143E+01,3.99333477959267E+01,3.87290230014632E+01,3.83261825120713E+01,3.75006266533616E+01,3.75657087991064E+01,3.74744796325131E+01,3.78355007479433E+01,3.72669428112835E+01,3.71846023366917E+01,3.66365492660525E+01,3.59128740612305E+01,3.66083089866349E+01,3.99969023400954E+01,,
ESP,,,,,,,,,,,,,,,,,,,,,,,,,,,,,,,,,,,,3.71198890888966E+01,3.62355572907324E+01,3.40160461659665E+01,3.33034904994133E+01,3.20519983032786E+01,3.12771017813199E+01,3.04878371270997E+01,2.67392204671931E+01,2.55504649846921E+01,2.60409111554476E+01,2.49523543341051E+01,2.49390419838177E+01,2.51230853781120E+01,2.64476291305035E+01,3.06102774989231E+01,,
EST,,,,,,,,,,,,,,,,,,,,,,,,,,,,,,,,,,,,3.27786323526490E+01,3.55494901375143E+01,2.97206267644077E+01,3.10757517567068E+01,3.26390426173446E+01,2.94878235692172E+01,2.77344774997575E+01,2.75888397360954E+01,2.75216936733618E+01,2.74376786679249E+01,2.67464070009290E+01,2.65850992745323E+01,2.67331718150616E+01,3.10754518580243E+01,3.64876080691643E+01,,
ETH,,,,,,,,,,,,,,,,,,,,,,,,,,,,,,,1.62085108797019E+01,1.33768672663958E+01,1.14817296221521E+01,1.05473502254078E+01,1.25347696900857E+01,1.19563316349640E+01,1.11806088594827E+01,1.19750415397397E+01,1.55056361868405E+01,1.78664013063891E+01,,1.46240463345436E+01,1.73778408151859E+01,1.58843080524135E+01,1.62910743138727E+01,1.49656126231719E+01,,,,,,
EUU,,,,,,,,,,,,,,,,,,,,,,,,,,,,,,,,,,,,4.18839950613326E+01,4.05771295934285E+01,3.94487858846475E+01,3.82359373917940E+01,3.77927192693995E+01,3.71859706450421E+01,3.72823763124833E+01,3.73523964750057E+01,3.78984039059953E+01,3.74532176213242E+01,3.77011222001308E+01,3.70989777581531E+01,3.65186561361918E+01,3.76331689532583E+01,4.10759471227797E+01,,
FIN,,,,,,,,,,,,,,,,,,,,,,,,,,,,,,,,,,,,4.97012408394404E+01,4.62710958226993E+01,4.17507915813001E+01,3.89064656909398E+01,3.78512275079504E+01,3.48704565225614E+01,3.42046694618345E+01,3.52971889227685E+01,3.61922889281322E+01,3.59252886396175E+01,3.61744024290315E+01,3.55768708714144E+01,3.37724517599956E+01,3.48390259142154E+01,,,
FJI,,,,,,,,,,,,,,,,,,,,,,,,,,,,,,,2.39565656565657E+01,2.35788442703232E+01,2.42101376883986E+01,2.75875470949831E+01,2.69832360425086E+01,2.67635064419503E+01,2.69625167336011E+01,,,,,,,,2.49212464325533E+01,2.44954539124989E+01,2.63034002821576E+01,,,,,
FRA,,,,,,,,,,,,,,,,,,,,,,,,,,,,,,,,,,,,,4.76087831504726E+01,4.78283601365133E+01,4.61742638107419E+01,4.60976266880604E+01,4.48673572179671E+01,4.50620576427544E+01,4.61282823639943E+01,4.64937895427326E+01,4.59685538082362E+01,4.59679534941683E+01,4.52799656920781E+01,4.45832910459497E+01,4.50875879304075E+01,4.80926366336356E+01,,
GBR,,,,,,,,,,,,,,,,,,,,,,,,,,,,,,,,,,,,4.04006186022535E+01,3.92591521837575E+01,3.76550125648421E+01,3.62591599154592E+01,3.56520194243752E+01,3.62037944442226E+01,3.66507866294523E+01,3.76326280909365E+01,3.88086468388571E+01,3.91230435693409E+01,4.11709027812111E+01,4.01876595478796E+01,3.98833323249184E+01,4.27814441262331E+01,4.63939142172447E+01,,
GEO,,,,,,,,,,,,,,,,,,,,,,,,,,,,,,,,,,,,,,1.53789520509480E+01,1.43565362940296E+01,1.44160139745726E+01,1.15570648263788E+01,1.08121097448324E+01,1.12620316037147E+01,1.06911499370043E+01,1.45781445913948E+01,1.73195935755912E+01,2.03054214750337E+01,2.28907298849423E+01,2.91205400261109E+01,3.09423996441677E+01,,
GHA,,,,,,,,,,,,,,,,,,,,,,,,,,,,,,,,,,,,,,,,,,1.87116417612495E+01,2.00290266464737E+01,2.20203756781146E+01,2.34793110246624E+01,2.27457889920708E+01,1.56210261134424E+01,1.78650798105508E+01,2.05460721449624E+01,1.80274739328582E+01,,
GIN,,,,,,,,,,,,,,,,,,,,,,,,,,,,,,,,,,,,,,,1.20586941120431E+01,1.34638630029450E+01,,,,,,,,,,,,
GMB,,,,,,,,,,,,,,,,,,,,,,,,,,,,,,,1.71600695062109E+01,,,,,,,,,,,,,,,,,,,,,
GRC,,,,,,,,,,,,,,,,,,,,,,,,,,,,,,,,,,,,4.47160930878941E+01,4.30026025753723E+01,4.35088699323981E+01,4.28764060914424E+01,4.26190720662696E+01,4.47048624061327E+01,4.40467527927266E+01,4.33254070842908E+01,4.23713898821036E+01,4.30818077009299E+01,4.23393640060553E+01,4.34663024469210E+01,4.51014482959171E+01,4.79249715451219E+01,5.19827977850908E+01,,
GRD,,,,,,,,,,,,,,,,,,,,,,,,,,,,,,,,2.36523365632283E+01,2.27272050959669E+01,2.30279720836098E+01,2.27490096208263E+01,2.14235924932976E+01,,,,,,,,,,,,,,,,
GTM,,,,,,,,,,,,,,,,,,,,,,,,,,,,,,,9.13126507752440E+00,8.15938753149953E+00,9.62235756308900E+00,8.62665141257821E+00,7.94299555788372E+00,7.56205034876119E+00,7.99635028424450E+00,8.26734995663712E+00,9.41325711019580E+00,1.05182043769625E+01,1.09399955148495E+01,1.31859573350533E+01,1.27740439169315E+01,1.43461111293057E+01,1.26700889150972E+01,1.28343721071069E+01,1.30116635289234E+01,1.24573225636757E+01,1.16822674708446E+01,1.24351250635486E+01,,
HIC,,,,,,,,,,,,,,,,,,,,,,,,,,,,,,,,,,,,,,,,,,2.73181706611093E+01,2.77146981858601E+01,2.82703883967898E+01,2.79599408592717E+01,2.81908082996272E+01,2.78099361302535E+01,2.76830631160787E+01,2.89444629073735E+01,3.22981456419217E+01,,
HKG,,,,,,,,,,,,,,,,,,,,,,,,,,,,,,,,,,,,,,,,,,,2.13011835774132E+01,2.16209452679506E+01,1.96343744944552E+01,2.00721833660015E+01,1.66594932616309E+01,1.62836242722401E+01,1.88605202947387E+01,1.92413713183943E+01,,
HND,,,,,,,,,,,,,,,,,,,,,,,,,,,,,,,,,,,,,,,,,,,,2.09025707953712E+01,1.95412960974154E+01,1.98814469223786E+01,1.99082071603314E+01,2.24238559271619E+01,2.20470045043699E+01,2.42934065169870E+01,,
HRV,,,,,,,,,,,,,,,,,,,,,,,,,,,,,,,,3.64730894238920E+01,3.64566149176066E+01,3.49664560443730E+01,3.75688384298174E+01,3.62327091418501E+01,3.58367003371904E+01,3.55386841230798E+01,3.71350799646916E+01,3.89303214035970E+01,3.91443209386626E+01,3.73397009102368E+01,3.61348350789978E+01,3.52573934277183E+01,3.51380922378136E+01,3.46265035820093E+01,3.39299236232900E+01,3.42671412499495E+01,3.44002718840557E+01,3.59659252513882E+01,,
HUN,,,,,,,,,,,,,,,,,,,,,,,,,,,,,,,,,,,,5.21622415752984E+01,4.77209714160282E+01,4.56790742736426E+01,4.60103090156274E+01,4.47501654873192E+01,4.20411142232127E+01,4.16095169604562E+01,4.36256846393408E+01,4.34876610972636E+01,4.23971805879869E+01,4.26825788368693E+01,4.42425931909520E+01,4.37014119044503E+01,4.51034216567845E+01,4.61711816312820E+01,,
IDN,,,,,,,,,,,,,,,,,,,,,,,,,,,,,,,,1.02252840266817E+01,1.07767525048019E+01,1.07096295744032E+01,9.81398894029242E+00,9.50113520451426E+00,9.92361553149261E+00,1.25369252072274E+01,1.31796430451135E+01,1.61808115979959E+01,,,1.53926533567778E+01,1.52921666211968E+01,1.58377863394031E+01,1.65355674417458E+01,1.78033292399694E+01,1.71560872499290E+01,1.84450956448652E+01,1.57557320570028E+01,,
IND,,,,,,,,,,,,,,,,,,,,,,,,,,,,,,,1.56605058775613E+01,1.55154269934584E+01,1.52893138504181E+01,1.53233118311860E+01,1.47730378316223E+01,1.44103143697879E+01,1.42461611890757E+01,1.47708357615911E+01,1.45812097882651E+01,1.50787767637363E+01,1.56858109682949E+01,1.57931803741369E+01,1.63018152736885E+01,1.57919728340124E+01,1.48726686034121E+01,1.49259374107139E+01,1.50513593027134E+01,1.49892929324530E+01,1.71588158469594E+01,1.61890401175768E+01,,
IRL,,,,,,,,,,,,,,,,,,,,,,,,,,,,,,,,,,,,3.75466502449832E+01,3.54392453649604E+01,3.31856111116026E+01,3.09550522153675E+01,3.05432844795155E+01,2.77982825066142E+01,2.93613984519342E+01,2.95725936045047E+01,2.96707000157271E+01,2.99109371635522E+01,3.08065337696592E+01,3.10394067795718E+01,3.24860623992883E+01,3.77456908429003E+01,4.44597314912323E+01,,
IRN,,,,,,,,,,,,,,,,,,,,,,,,,,,,,,,1.57769049310752E+01,1.42693321153735E+01,1.50222236055208E+01,1.57335996539049E+01,1.66293440620726E+01,1.57926744185755E+01,1.69983287443689E+01,1.72247436855775E+01,1.95154548689723E+01,1.80371371721417E+01,1.68690106302310E+01,1.92852408357106E+01,1.93192061484430E+01,1.94758062295849E+01,1.93888578638324E+01,2.29031946546341E+01,2.47538511226106E+01,2.05798423142523E+01,2.22526115738900E+01,2.47026624814995E+01,,
ISL,,,,,,,,,,,,,,,,,,,,,,,,,,,,,,,,,,,,,,,3.00554971009614E+01,3.06996399209705E+01,3.04524424281437E+01,3.07366001915246E+01,3.18480424298115E+01,3.32776703277071E+01,3.18333196867019E+01,3.07649489708680E+01,2.94022867789021E+01,2.96606347014504E+01,4.42727132728101E+01,3.81044734436499E+01,,
ISR,,,,,,,,,,,,,,,,,,,,,,,,,,,,,,,,,,,,,,,,,4.42411486687225E+01,4.67357935922096E+01,4.76951611651190E+01,4.69533899133453E+01,4.46640628672282E+01,4.29987813852398E+01,4.25114088460415E+01,4.16420877175814E+01,4.06737571259642E+01,4.05674540130977E+01,,
ITA,,,,,,,,,,,,,,,,,,,,,,,,,,,,,,,,,,,,4.79985691621561E+01,4.71500851311573E+01,4.49575766957284E+01,4.14937675311470E+01,4.04487273537435E+01,3.91763681034485E+01,3.99131667960337E+01,3.92509963960160E+01,3.95173946336186E+01,3.86604627684218E+01,3.91729362490925E+01,3.96265637740624E+01,3.91255235845722E+01,4.02078413615242E+01,4.39982900500444E+01,,
JAM,,,,,,,,,,,,,,,,,,,,,,,,,,,,,,,,,,,,,,,,,,,,3.44586619505240E+01,3.44299556086252E+01,3.10169666889069E+01,3.23144570749683E+01,3.41199418285253E+01,3.42796666595950E+01,3.98382760120813E+01,,
JOR,,,,,,,,,,,,,,,,,,,,,,,,,,,,,,,3.07221826631188E+01,3.00003502504291E+01,2.46856305981397E+01,2.58985205162162E+01,2.49238134877666E+01,2.61404998301575E+01,2.88038189484526E+01,2.84113258877767E+01,2.85100459692022E+01,2.67653837805413E+01,2.71092669432918E+01,2.69726571702291E+01,2.83309297465933E+01,2.94590894003098E+01,3.21387244322942E+01,3.56489674132102E+01,3.15216339499922E+01,3.26350622891585E+01,3.04153376406900E+01,2.85682840094713E+01,,
KAZ,,,,,,,,,,,,,,,,,,,,,,,,,,,,,,,,,,,,,,1.87424217732639E+01,1.66472091519841E+01,1.41823058600377E+01,1.37215831168380E+01,1.35682160853528E+01,1.26910979763059E+01,1.38872218374630E+01,1.40707427767027E+01,1.82155451387286E+01,1.46220362662178E+01,1.41477212669713E+01,1.46219501966241E+01,1.68613095038955E+01,,
KEN,,,,,,,,,,,,,,,,,,,,,,,,,,,,,,,,1.94889116060225E+01,2.03847764403434E+01,1.67725137831695E+01,1.95765545354469E+01,2.58497170794398E+01,1.72385675539754E+01,1.77159154785133E+01,,,1.67729109607132E+01,1.84682579558743E+01,1.89847898499381E+01,1.89064988663895E+01,2.08590181185549E+01,1.81880790392823E+01,1.97483954398860E+01,1.94820167302959E+01,2.13519476929792E+01,2.08743062397198E+01,,
KGZ,,,,,,,,,,,,,,,,,,,,,,,,,,,,,,,,,,,,2.55668902639191E+01,2.08459227412786E+01,2.08771512463460E+01,2.02677479564910E+01,1.77332518382101E+01,1.58025217539425E+01,1.57591769723334E+01,,,,,1.58141080719613E+01,1.80879279931951E+01,1.67557793713453E+01,1.88119692142395E+01,,
KHM,,,,,,,,,,,,,,,,,,,,,,,,,,,,,,,,,,,,,,,,,,,9.38058758696329E+00,9.29103454791409E+00,8.18001328187827E+00,7.59087660985062E+00,8.58705005236040E+00,8.20115340883350E+00,8.56011655100908E+00,1.10429843955317E+01,,
KNA,,,,,,,,,,,,,,,,,,,,,,,,,,,,,,,2.54559248737263E+01,2.45639141207934E+01,2.38092320240135E+01,2.47609341147919E+01,2.62351748128853E+01,,,,,,,,,3.08204911012864E+01,,,2.50623761445428E+01,,,,,
KOR,,,,,,,,,,,,,,,,,,,,,,,,,,,,,,,1.42444084014852E+01,1.41411236352776E+01,1.44622627515577E+01,1.42247970675203E+01,1.44393932891682E+01,1.42990494629770E+01,1.44981101052082E+01,1.44027668167680E+01,1.69503376142423E+01,1.65829668237710E+01,1.66257539337838E+01,1.77247904255228E+01,1.68152449506890E+01,1.88855416087602E+01,1.88619929768397E+01,1.97184461071024E+01,2.05292404745980E+01,2.01401357725487E+01,2.05972173267171E+01,2.18452248624893E+01,,
KWT,,,,,,,,,,,,,,,,,,,,,,,,,,,,,,,4.65217063611697E+01,2.09853669062124E+02,8.08547141917013E+01,4.61529940134602E+01,4.92411941200197E+01,4.40350012324378E+01,3.84970257524545E+01,3.46711562483028E+01,4.20887553346132E+01,3.04719106673060E+01,,,3.63589301121657E+01,3.03497581832200E+01,2.79100302563224E+01,2.38714873055567E+01,2.08822531387852E+01,2.92501764832264E+01,2.17423920382086E+01,5.46571428571429E+01,,
LAC,,,,,,,,,,,,,,,,,,,,,,,,,,,,,,,2.51190253624163E+01,1.88354816921687E+01,2.12580958766308E+01,2.48580590059400E+01,2.33113072238895E+01,,,1.89835694018484E+01,1.87173676450440E+01,1.89596480389275E+01,1.92028822351511E+01,,2.13483863491610E+01,2.28132472873514E+01,2.12905909802375E+01,,,,,,,
LAO,,,,,,,,,,,,,,,,,,,,,,,,,,,,,,,,,,,,,,,,,,,,,,,9.89843480434337E+00,1.01351311488289E+01,1.07177992557984E+01,1.13714172601727E+01,,
LBN,,,,,,,,,,,,,,,,,,,,,,,,,,,,,,,,,,,,,,,,,3.05107609531130E+01,2.90092832713196E+01,2.83520365752286E+01,3.04722658843931E+01,2.60708740524249E+01,2.63977914246700E+01,3.11247886507420E+01,3.12821142085617E+01,2.95734778922042E+01,2.91766568799402E+01,,
LBR,,,,,,,,,,,,,,,,,,,,,,,,,,,,,,,,,,,,,,,,,,,,,2.60727053486079E-01,2.17529469987492E-01,1.76849861956277E-01,2.34024851335681E-01,3.37939250599025E-01,,,
LCN,,,,,,,,,,,,,,,,,,,,,,,,,,,,,,,2.50904040930183E+01,1.88308657361161E+01,2.12474177518893E+01,2.48449859811646E+01,2.32985669217862E+01,,,1.89765604552917E+01,1.87064844952150E+01,1.89475566671830E+01,1.91892601908950E+01,,2.13465516243828E+01,2.27892659886700E+01,2.12858064473157E+01,,,,,,,
LIC,,,,,,,,,,,,,,,,,,,,,,,,,,,,,,,,,,,,,,,,,,,,,1.10014909026300E+01,1.08267885953810E+01,,,,,,
LKA,,,,,,,,,,,,,,,,,,,,,,,,,,,,,,,2.46360912910524E+01,2.55107494393640E+01,2.39797969822448E+01,2.28388698167406E+01,2.43020010913788E+01,2.59507736173424E+01,2.49761758456924E+01,2.28316482696881E+01,2.17648376303800E+01,2.12193163611112E+01,2.29886921669066E+01,2.38133854160564E+01,2.21487655841524E+01,2.04778355504733E+01,2.07110918525129E+01,2.01959652345785E+01,2.11477261899901E+01,2.00467042670386E+01,1.92117864738862E+01,,,
LMC,,,,,,,,,,,,,,,,,,,,,,,,,,,,,,,,1.66195689209466E+01,1.74467345779398E+01,1.70795874676172E+01,1.65822142663711E+01,1.59003857267838E+01,1.59469611208139E+01,1.62315008078340E+01,,,,,1.87072121563828E+01,1.83699259020300E+01,1.74508083850701E+01,1.77196292278053E+01,1.84079307605278E+01,1.79937364050519E+01,1.95004340706735E+01,1.92029433618475E+01,,
LMY,,,,,,,,,,,,,,,,,,,,,,,,,,,,,,,,,,,,,,,,,,,1.80949216704511E+01,1.84032782283109E+01,1.78759571995943E+01,,,,,,,
LSO,,,,,,,,,,,,,,,,,,,,,,,,,,,,,,,3.35850422104008E+01,3.85087840465247E+01,3.51278125412753E+01,,4.01047094540352E+01,3.93919507891674E+01,3.52418328051740E+01,,,,,4.36603224123450E+01,4.42932776548230E+01,4.23795697599091E+01,4.17973237589969E+01,4.23550685555942E+01,4.85626316918351E+01,4.65283410029623E+01,5.19409493155865E+01,,,
LTU,,,,,,,,,,,,,,,,,,,,,,,,,,,,,,,,,,,,,,,,,2.68774815903168E+01,2.63916902598644E+01,2.83696401581714E+01,2.75347001548471E+01,2.85279547288741E+01,2.81376456417117E+01,2.84197418132978E+01,2.89464482801607E+01,3.16394529846474E+01,3.91940342057642E+01,,
LUX,,,,,,,,,,,,,,,,,,,,,,,,,,,,,,,,,,,,,,,,3.50187664732208E+01,3.38051243052397E+01,3.54441722116589E+01,3.63484453502674E+01,3.70087904425046E+01,3.83373110488860E+01,3.69935034584905E+01,3.47349829879096E+01,3.30826297748144E+01,3.40921983934033E+01,3.93537847283195E+01,,
LVA,,,,,,,,,,,,,,,,,,,,,,,,,,,,,,,,,,,2.66075887392901E+01,2.83206077283826E+01,2.78843340593609E+01,2.82101658761122E+01,3.12844295267622E+01,3.15725377983233E+01,2.81167881490862E+01,2.63066140679982E+01,2.77356696608823E+01,2.71509506508751E+01,2.77639756732640E+01,2.90172312922917E+01,2.89609366582261E+01,2.62148160191214E+01,2.94596716923751E+01,3.51862503387082E+01,,
MAC,,,,,,,,,,,,,,,,,,,,,,,,,,,,,,,,,,,,,1.34894504429057E+01,1.45563794494185E+01,1.65055437302977E+01,2.06833798805911E+01,1.66761237560850E+01,1.61767090271546E+01,1.57661139077884E+01,1.52256077885348E+01,1.23407601473396E+01,1.19653174087304E+01,1.11283611800665E+01,1.03074680424657E+01,1.39015923119851E+01,1.72817620224471E+01,,
MAR,,,,,,,,,,,,,,,,,,,,,,,,,,,,,,,,,,,,,,,,,,,3.04496010932658E+01,2.90120527599833E+01,2.92402734403929E+01,2.99830595636453E+01,2.77323074424923E+01,2.91215030315209E+01,3.04101516224368E+01,2.80165761585263E+01,,
MDA,,,,,,,,,,,,,,,,,,,,,,,,,,,,,,,,,,,,,,3.84134456064516E+01,3.44714394429868E+01,2.90003486566978E+01,2.89254733185496E+01,2.22793008105057E+01,,2.22166559892028E+01,2.72585564016633E+01,2.93183321125440E+01,3.18663874745452E+01,3.24097679915865E+01,3.27793921779893E+01,3.80408737382095E+01,,
MDG,,,,,,,,,,,,,,,,,,,,,,,,,,,,,,,,,,,,,,,,,1.06199652908637E+01,1.02931734928164E+01,9.44682168375117E+00,1.12227209949726E+01,1.25998724757502E+01,1.10449436878340E+01,1.15985584265161E+01,1.12363806294144E+01,1.17813132088488E+01,,,
MDV,,,,,,,,,,,,,,,,,,,,,,,,,,,,,,,1.65912078282459E+01,1.71641791044776E+01,1.79713706865057E+01,1.73861352506581E+01,1.67745533008461E+01,1.86984944954324E+01,1.80230145255612E+01,1.97599655344742E+01,2.04170732521753E+01,2.22843773952732E+01,2.55278387225424E+01,2.04292272458782E+01,2.02334704996499E+01,1.96602185865630E+01,2.05727398837106E+01,3.70332264599384E+01,3.41657781704085E+01,3.39273985425922E+01,3.25778740047493E+01,3.56239711864939E+01,,
MEX,,,,,,,,,,,,,,,,,,,,,,,,,,,,,,,1.68247960384265E+01,1.37152532133400E+01,1.33454566998366E+01,1.35019538285082E+01,1.36589780834035E+01,1.49629639531659E+01,1.44243159766921E+01,1.52287092528090E+01,1.39514434248317E+01,1.49220047098621E+01,1.54384108184834E+01,,,,,,,,,,,
MIC,,,,,,,,,,,,,,,,,,,,,,,,,,,,,,,,,,,,,,,,,,,1.82278763867610E+01,1.85911912917230E+01,1.80606839859657E+01,,,,,,,
MKD,,,,,,,,,,,,,,,,,,,,,,,,,,,,,,,,,,,,,,,,,,,,,,3.02062403135718E+01,3.09266305925876E+01,2.99296854510684E+01,3.03272407013944E+01,,,
MLI,,,,,,,,,,,,,,,,,,,,,,,,,,,,,,,,,,,,,,,,,1.16074797800176E+01,1.45132022617627E+01,1.36011959988218E+01,1.39505335838502E+01,1.52592664395995E+01,1.51066060719130E+01,1.56849754143018E+01,1.48729927007299E+01,1.34355226169180E+01,1.46623434956060E+01,,
MLT,,,,,,,,,,,,,,,,,,,,,,,,,,,,,,,,,,,,,,,,,,,,4.49495976048683E+01,4.37997689978422E+01,4.24751546407029E+01,4.24220861810772E+01,4.11721813452328E+01,4.29406565807280E+01,4.30323543794001E+01,,
MMR,,,,,,,,,,,,,,,,,,,,,,,,,,,,,,,,,,,,,,,,,,,,3.05760970871169E+00,3.64395403907223E+00,2.80606815545019E+00,,,,,,
MNA,,,,,,,,,,,,,,,,,,,,,,,,,,,,,,,,,,,,,,,,,,,,,,,2.71520243890223E+01,2.52697518270694E+01,2.64915859546169E+01,2.71440415199711E+01,,
MNG,,,,,,,,,,,,,,,,,,,,,,,,,,,,,,,,,1.66701510155846E+01,1.46255181170112E+01,1.42335881207919E+01,1.16724736596103E+01,1.33254002206039E+01,1.63278722609356E+01,1.83572845847928E+01,1.89124431342613E+01,2.23891425337469E+01,2.20512835296231E+01,2.16971437189469E+01,2.46004106297786E+01,,,2.33478937554965E+01,2.32066924852304E+01,2.54611680064657E+01,2.64585125885369E+01,,
MUS,,,,,,,,,,,,,,,,,,,,,,,,,,,,,,,,,,,,,,,,,,,,,,,,,,2.10258644152721E+01,,
MYS,,,,,,,,,,,,,,,,,,,,,,,,,,,,,,,,,,,,,1.86889371587420E+01,1.69903651937288E+01,1.68127728128265E+01,1.85840057956484E+01,1.65121871150754E+01,1.87453892602793E+01,1.76745047793264E+01,1.76261853193527E+01,1.88869059673282E+01,1.84021284537128E+01,1.84083735001227E+01,1.87761003514623E+01,2.02921923485905E+01,2.27205193083200E+01,,
NAC,,,,,,,,,,,,,,,,,,,,,,,,,,,,,,,,,,,,,,,,,,1.95045827264714E+01,2.02390996844456E+01,2.08126566318173E+01,2.07004877596842E+01,2.10110018720730E+01,2.08513448267017E+01,2.11523777980146E+01,2.27567870979490E+01,2.59476936565807E+01,2.61538970613414E+01,
NAM,,,,,,,,,,,,,,,,,,,,,,,,,,,,,,,,3.62278407439698E+01,3.57457061658223E+01,,,,,,,3.34258363952814E+01,2.84853235023041E+01,3.01301686589160E+01,2.88315664690940E+01,2.96966705983273E+01,2.64454720119965E+01,2.56320505879550E+01,2.42655049233731E+01,2.40672653468855E+01,,,,
NER,,,,,,,,,,,,,,,,,,,,,,,,,,,,,,,,,,,,,,,,,,,,,,9.11323706207895E+00,9.28285682791186E+00,1.16457166978067E+01,,,,
NGA,,,,,,,,,,,,,,,,,,,,,,,,,,,,,,,,,,,,,,,,,,,,,5.29622198932171E+00,4.95754833229799E+00,6.32753355001584E+00,6.37531338015646E+00,7.21436937343543E+00,,,
NIC,,,,,,,,,,,,,,,,,,,,,,,,,,,,,,,6.52271153473450E+01,2.37308017228247E+01,2.44003792949576E+01,2.51735429554863E+01,1.46757228856952E+01,1.41712409433483E+01,1.40172160792896E+01,1.46553487804649E+01,1.48538666031822E+01,1.64559774468412E+01,1.64692905188981E+01,1.87035516079144E+01,1.58307995528469E+01,1.70654500028245E+01,1.67682794045725E+01,1.77983589912748E+01,1.94983443958886E+01,1.92654275850977E+01,2.02781191728943E+01,2.06970776920582E+01,,
NLD,,,,,,,,,,,,,,,,,,,,,,,,,,,,,,,,,,,,5.07506690995574E+01,4.38348110271927E+01,4.27279925899304E+01,4.13654873311556E+01,4.04598219025202E+01,3.92616518327113E+01,3.96816391985366E+01,4.00787594526390E+01,4.11175292748640E+01,4.03677644222939E+01,3.92682608534749E+01,4.04329009137086E+01,4.00244502626042E+01,4.06995345519874E+01,4.55464024021921E+01,,
NOR,,,,,,,,,,,,,,,,,,,,,,,,,,,,,,,,,,,,,,,,,3.26111010969856E+01,3.33122734462586E+01,3.81588676420587E+01,3.75315122227897E+01,3.56419613766974E+01,3.32538767219882E+01,3.18206423214219E+01,3.18482906594319E+01,3.12331060696877E+01,3.69816920659899E+01,,
NPL,,,,,,,,,,,,,,,,,,,,,,,,,,,,,,,,,,,,,,,,,,,,,1.45963383257351E+01,1.50627235278549E+01,,,,,,
NZL,,,,,,,,,,,,,,,,,,,,,,,,,,,,,,,,,,,,,,,,,,3.21476995218378E+01,3.12720174486575E+01,3.17619537620141E+01,3.09411495861226E+01,3.14417843401745E+01,3.20069559823822E+01,3.20683865321821E+01,,,,
OEC,,,,,,,,,,,,,,,,,,,,,,,,,,,,,,,,,,,,,,,,,,2.73400707921661E+01,2.77877944007368E+01,2.83585925016996E+01,2.80778726661012E+01,2.83281299078969E+01,2.79708861855635E+01,2.78418896137847E+01,2.91046316648142E+01,3.24633721298095E+01,,
OED,,,,,,,,,,,,,,,,,,,,,,,,,,,,,,,,,,,,,,,,,,2.73171299220541E+01,2.77635320030082E+01,2.83287376825154E+01,2.80449715582428E+01,2.82917939633065E+01,2.78754920258884E+01,2.77723527715033E+01,2.90093830405997E+01,3.23773051062620E+01,,
OMN,,,,,,,,,,,,,,,,,,,,,,,,,,,,,,,3.25357786730174E+01,3.17166574867647E+01,3.39000396692078E+01,3.35560829168398E+01,3.37024137590221E+01,3.23585385310635E+01,2.90485674592221E+01,2.74291813462510E+01,3.00803609565021E+01,2.83798567314078E+01,2.61872970648925E+01,2.69265366930198E+01,,,,,,,,,,
PAK,,,,,,,,,,,,,,,,,,,,,,,,,,,,,,,1.98478164927413E+01,1.93687765804682E+01,1.96239806704923E+01,2.10995010656086E+01,1.97517910401869E+01,1.91331148890468E+01,2.07391566631591E+01,1.97528983096077E+01,1.92280113651642E+01,1.89942141568531E+01,1.71871124491684E+01,1.62544570821970E+01,1.69251866414952E+01,1.68290861030165E+01,1.44344198646239E+01,1.46238596925251E+01,1.52471958972637E+01,1.63216171738360E+01,1.86342504002812E+01,1.67983732773090E+01,1.75362834020017E+01,
PAN,,,,,,,,,,,,,,,,,,,,,,,,,,,,,,,2.34152676353233E+01,2.30611231877856E+01,2.33730839883157E+01,2.21062500861748E+01,2.32431244262274E+01,2.20146469182024E+01,2.11411591808713E+01,2.15331217770726E+01,2.14982849302538E+01,2.13201469933574E+01,2.20962953401317E+01,2.31718822782130E+01,,,,,,,,,,
PER,,,,,,,,,,,,,,,,,,,,,,,,,,,,,,,1.95429489942064E+01,1.45846383436887E+01,1.71621947303809E+01,1.53143648410135E+01,1.54305076118630E+01,1.74056043743884E+01,1.68664710317392E+01,1.63480808677483E+01,1.65481108421410E+01,1.73520399573064E+01,1.78713391761675E+01,1.75993448643584E+01,1.69995081490001E+01,1.70141357800248E+01,1.66479610442856E+01,1.72695402366985E+01,1.64121432709818E+01,1.70373415383530E+01,1.68226563913591E+01,1.75887602058004E+01,,
PHL,,,,,,,,,,,,,,,,,,,,,,,,,,,,,,,1.67639061784918E+01,1.59932885206941E+01,1.62038061231511E+01,1.59084327315073E+01,,,,,,,1.63485824289082E+01,,,1.86185371011650E+01,1.76858016039235E+01,1.72039986050253E+01,1.68059564477247E+01,1.66120889671516E+01,1.63915407611816E+01,1.77587038194412E+01,,
PNG,,,,,,,,,,,,,,,,,,,,,,,,,,,,,,,3.11517456602302E+01,3.00016640781007E+01,2.90520956665877E+01,2.99847958743400E+01,2.70156591866626E+01,2.45386378678548E+01,2.57841111454516E+01,2.72795355669812E+01,2.40769644779333E+01,2.93311207267620E+01,3.00470326013271E+01,2.69230976405067E+01,2.20939127450560E+01,,,,,,,,,
POL,,,,,,,,,,,,,,,,,,,,,,,,,,,,,,,,,,,,,,,,,,3.55761682171060E+01,3.53013562080591E+01,3.86869096584736E+01,3.68708479262075E+01,3.62740033072240E+01,3.58539514410428E+01,3.42288888681158E+01,3.52240652578891E+01,3.57475922421738E+01,,
PRT,,,,,,,,,,,,,,,,,,,,,,,,,,,,,,,,,,,,3.71202560137124E+01,3.69514722264894E+01,3.58691996743955E+01,3.66197777925113E+01,3.65601334797668E+01,3.68339428773891E+01,3.77865780608050E+01,3.82052787848905E+01,3.93951958851840E+01,4.00924292787681E+01,4.13707226511172E+01,3.99911089481418E+01,3.89134900235768E+01,3.97789899123809E+01,4.29390058284585E+01,,
PRY,,,,,,,,,,,,,,,,,,,,,,,,,,,,,,,8.41097244532312E+00,1.05434312695480E+01,1.22745237947509E+01,1.16033172944620E+01,1.28372780758152E+01,1.45270552960344E+01,1.50559128094512E+01,1.46196529104589E+01,1.49529399584535E+01,1.74807444070091E+01,1.75174771814178E+01,1.71169079283933E+01,1.70543270050648E+01,1.46220955126011E+01,1.37339658514762E+01,1.55025059300436E+01,1.56410649249113E+01,1.45910766406372E+01,1.35899188447165E+01,1.70525718046897E+01,,
QAT,,,,,,,,,,,,,,,,,,,,,,,,,,,,,,,,,,,,,,,,,,,,,2.35119274731565E+01,2.05183557689607E+01,2.23062059711727E+01,1.58559893526756E+01,1.48502767432685E+01,1.92866686726653E+01,,
ROM,,,,,,,,,,,,,,,,,,,,,,,,,,,,,,,,,,,,,,,,,,,2.59098865825513E+01,2.35104456170442E+01,2.32862474623807E+01,2.40244185666204E+01,2.53087658975723E+01,2.63156463120960E+01,3.37715773702992E+01,,,
RUS,,,,,,,,,,,,,,,,,,,,,,,,,,,,,,,,,,,,,,,,,,,2.25587588348997E+01,2.30463063918778E+01,2.15738426684577E+01,1.99480998631339E+01,1.95005414079032E+01,2.30065326912000E+01,2.15321667594547E+01,3.11019033925764E+01,,
RWA,,,,,,,,,,,,,,,,,,,,,,,,,,,,,,,1.26646089979756E+01,1.24816099509871E+01,1.49651355340971E+01,,,,,,,,,,,,,,,,,,,
SAS,,,,,,,,,,,,,,,,,,,,,,,,,,,,,,,1.64356357230002E+01,1.62818989143972E+01,1.60731707800348E+01,1.62400886975440E+01,1.56595710586237E+01,1.53313858014213E+01,1.53534955807108E+01,1.56161601489392E+01,1.53590487699503E+01,1.57401086079023E+01,1.61005308194603E+01,1.54999770589850E+01,1.59240510041061E+01,1.54702114158438E+01,1.44767274132400E+01,1.45987923857599E+01,1.48329048666688E+01,1.49417929663250E+01,1.70389509191702E+01,1.60091531111505E+01,,
SDN,,,,,,,,,,,,,,,,,,,,,,,,,,,,,,,,,,,,,,,6.77310931833233E+00,7.58958242709683E+00,,,,,,,,,,,,
SEN,,,,,,,,,,,,,,,,,,,,,,,,,,,,,,,,,,,,,,,,1.14391834743839E+01,1.27589928560885E+01,1.45547294717151E+01,,,,,,,,,,
SGP,,,,,,,,,,,,,,,,,,,,,,,,,,,,,,,1.70903501319778E+01,1.79889570709335E+01,1.65795806889844E+01,1.46072279834902E+01,1.09858379327422E+01,1.20291929160339E+01,1.63537683409881E+01,1.37449935734609E+01,1.58541616735112E+01,1.50172484619571E+01,1.60114057893730E+01,1.86029817463969E+01,1.64837229936013E+01,1.62178329166019E+01,1.46904572662720E+01,1.28326907407753E+01,1.33529473919422E+01,1.23964700181663E+01,1.48291540384674E+01,1.51480533954951E+01,,
SLE,,,,,,,,,,,,,,,,,,,,,,,,,,,,,,,,,,,,,,,,2.19922586265061E+01,2.87409016846636E+01,2.75832601958218E+01,2.86243561033221E+01,2.56978847427533E+01,2.32407931123252E+01,2.29786292129014E+01,2.17791205927400E+01,1.66082022283853E+01,2.03272580279851E+01,2.29411244332812E+01,,
SLV,,,,,,,,,,,,,,,,,,,,,,,,,,,,,,,,,,,,,,,,,,,1.79007038660208E+01,1.52664703888560E+01,1.70429729781052E+01,1.76057985936421E+01,1.94316117451093E+01,1.73818322896408E+01,1.90952358732677E+01,2.20250713905426E+01,,
SMR,,,,,,,,,,,,,,,,,,,,,,,,,,,,,,,,,,,,,,,,,,,4.67252575401070E+01,4.09293860603015E+01,4.32439559679548E+01,3.91588972486438E+01,3.90542209043553E+01,,,,,
SRB,,,,,,,,,,,,,,,,,,,,,,,,,,,,,,,,,,,,,,,,,,,,,,,,3.81041836873534E+01,3.92135115502005E+01,4.03612184922963E+01,,
SSA,,,,,,,,,,,,,,,,,,,,,,,,,,,,,,,,,,,,,,,,,,,,,2.30887641628046E+01,2.28191181342780E+01,2.32197676952224E+01,2.36631015926718E+01,2.42765504514755E+01,,,
SSF,,,,,,,,,,,,,,,,,,,,,,,,,,,,,,,,,,,,,,,,,,,,,2.30887641628046E+01,2.28191181342780E+01,2.32197676952224E+01,2.36631015926718E+01,2.42765504514755E+01,,,
SVK,,,,,,,,,,,,,,,,,,,,,,,,,,,,,,,,,,,,,,,,,,,,3.93699707534269E+01,3.79700842612639E+01,3.50708711733881E+01,3.47961315317087E+01,3.19524753066502E+01,3.23360092655882E+01,3.77238135949980E+01,,
SVN,,,,,,,,,,,,,,,,,,,,,,,,,,,,,,,,,3.66616673889667E+01,3.80532310506793E+01,3.79871099471194E+01,3.41228955671161E+01,3.31313020107984E+01,3.41039999588785E+01,3.47090572350001E+01,3.49227057244649E+01,3.88382028737560E+01,3.96957869003871E+01,3.90214125291650E+01,3.93295477662434E+01,3.91841592647901E+01,3.96762758635916E+01,3.85949922665804E+01,3.56620541760781E+01,3.72190170121991E+01,4.21934733946371E+01,,
SWZ,,,,,,,,,,,,,,,,,,,,,,,,,,,,,,,,,,,,,,,,2.30278741223247E+01,2.21187746344414E+01,1.95380748239588E+01,2.24536809720866E+01,2.46439152382854E+01,,,,,,,,
SYC,,,,,,,,,,,,,,,,,,,,,,,,,,,,,,,,,,4.84647336699788E+01,4.72879564121330E+01,4.68432360961904E+01,5.14598832093432E+01,5.03180661577608E+01,4.60812794802112E+01,4.44250818736292E+01,4.31246975777759E+01,4.18859227962358E+01,4.73655295102553E+01,3.60113347151890E+01,4.51427680636026E+01,3.77165192347254E+01,4.16342193934856E+01,3.68760984182777E+01,3.01399978672790E+01,3.16828267760582E+01,,
TGO,,,,,,,,,,,,,,,,,,,,,,,,,,,,,,,,,,,,,,,,,,,,,1.43844478508539E+01,1.60451334532320E+01,1.73406375144601E+01,1.73273282596945E+01,1.38458654699915E+01,1.57083841587672E+01,,
THA,,,,,,,,,,,,,,,,,,,,,,,,,,,,,,,,,,,,,,,,,,,,1.58583206892193E+01,1.66011359850376E+01,1.64410431681403E+01,1.61320349316211E+01,1.76210756368797E+01,1.82358482483168E+01,1.96684730307886E+01,,
TJK,,,,,,,,,,,,,,,,,,,,,,,,,,,,,,,,,,,,,,,1.13598148863044E+01,1.00079327079102E+01,8.95503304411391E+00,9.48154509370097E+00,,1.11769096463328E+01,1.37476656374696E+01,,,,,,,
TTO,,,,,,,,,,,,,,,,,,,,,,,,,,,,,,,,,,2.72515684798883E+01,2.49211057454280E+01,2.52830694219201E+01,,,,,,2.38616266597827E+01,2.49003375377509E+01,2.22360625211224E+01,2.33127322549802E+01,2.26525098826007E+01,2.95059982233875E+01,2.45123674266625E+01,2.71046435100548E+01,,,
TUN,,,,,,,,,,,,,,,,,,,,,,,,,,,,,,,3.04122710504174E+01,2.94418395849960E+01,2.76569043762495E+01,2.84368819477597E+01,2.80444927847829E+01,2.83747170386704E+01,2.80164478687527E+01,2.51235649467821E+01,2.49135031718860E+01,2.49366177000125E+01,2.50212343799901E+01,2.48327369402515E+01,2.56689725602714E+01,2.53696997452881E+01,2.57754547678206E+01,2.61510353227771E+01,2.58520721827254E+01,2.61669837972663E+01,2.73135321648426E+01,2.71817219633881E+01,,
TUR,,,,,,,,,,,,,,,,,,,,,,,,,,,,,,,,,,,,,,,,,,,,,,,2.21508366085276E+01,2.45458317767183E+01,2.28161042633551E+01,2.72725259004839E+01,,
UGA,,,,,,,,,,,,,,,,,,,,,,,,,,,,,,,,,,,,,,,,1.48883206899776E+01,1.55256525928078E+01,2.15576960862041E+01,2.28192510048092E+01,2.15993716069266E+01,1.62266690510809E+01,1.66586852199700E+01,1.65840767679375E+01,1.64617966390911E+01,1.53474011259355E+01,1.38654336410812E+01,,
UKR,,,,,,,,,,,,,,,,,,,,,,,,,,,,,,,,,,,,,,,,2.51706500880466E+01,2.68720526841889E+01,2.76153582447720E+01,2.89949285044949E+01,2.97138259205368E+01,3.29843848246806E+01,3.60454364234390E+01,3.67940450571806E+01,3.49520139969004E+01,3.73134498384062E+01,4.07092938593850E+01,,
UMC,,,,,,,,,,,,,,,,,,,,,,,,,,,,,,,,,,,,,,,,,,,1.80866299423039E+01,1.86602944461273E+01,1.82563352760346E+01,,,,,,,
URY,,,,,,,,,,,,,,,,,,,,,,,,,,,,,,,2.19130325715206E+01,2.33610469711841E+01,2.50321026255110E+01,2.88880460014056E+01,3.01734587562912E+01,2.71039553484046E+01,2.78050541999224E+01,2.63155947182774E+01,2.60815853564046E+01,2.64423797587772E+01,2.65509318736895E+01,2.72702030063478E+01,2.78910991705325E+01,2.79127259957478E+01,2.65917253052696E+01,2.65571821375980E+01,2.65617380694246E+01,2.59754716386581E+01,2.49372183642324E+01,2.94480428361144E+01,,
USA,,,,,,,,,,,,,,,,,,,,,,,,,,,,,,,,,,,,,,,,,,1.95509043473163E+01,2.03801911200922E+01,2.09762651949645E+01,2.08596632323934E+01,2.12197031725717E+01,2.10890658508421E+01,2.14156484458735E+01,2.31225090753940E+01,2.64110765431797E+01,2.61538970613414E+01,
VEN,,,,,,,,,,,,,,,,,,,,,,,,,,,,,,,1.99154552114561E+01,1.96347842958978E+01,1.93178728193910E+01,1.78879842900337E+01,1.83409721218913E+01,1.84755059387046E+01,1.68241907892201E+01,2.03454575933029E+01,2.09902903780933E+01,1.99729394081349E+01,2.16386482462546E+01,2.40826268677766E+01,2.33215256734675E+01,2.51552198790246E+01,2.47070521874765E+01,2.50661729798532E+01,,,,,,
VUT,,,,,,,,,,,,,,,,,,,,,,,,,,,,,,,2.09955776075936E+01,,,,,2.33001563512947E+01,2.36610565514220E+01,2.16661045531197E+01,1.91371681415929E+01,1.99034458834413E+01,,,,,,,,,,,,
WLD,,,,,,,,,,,,,,,,,,,,,,,,,,,,,,,,,,,,,,,,,,2.66769574009662E+01,2.61598193308369E+01,2.65962770193915E+01,2.62308296809777E+01,2.73043818996388E+01,2.69453260976167E+01,2.68662930107158E+01,2.80135961729927E+01,3.11877154157876E+01,,
YEM,,,,,,,,,,,,,,,,,,,,,,,,,,,,,,,1.85415329650294E+01,2.45936712074223E+01,2.45445118132252E+01,2.46685293756764E+01,2.47702380071448E+01,1.91332942397525E+01,2.41176556982297E+01,2.67469709088743E+01,2.96441044261290E+01,2.21498250888315E+01,,,,,,,,,,,,
ZAF,,,,,,,,,,,,,,,,,,,,,,,,,,,,,,,,,,,,,,,,,2.79068865997913E+01,2.78238280437331E+01,2.75141193729581E+01,2.90112428950985E+01,2.98922540032912E+01,2.99350384002872E+01,3.00844393698845E+01,3.03555857999788E+01,3.09156564308514E+01,3.31748031798408E+01,,
ZAR,,,,,,,,,,,,,,,,,,,,,,,,,,,,,,,1.66847748192525E+01,1.91146711431924E+01,1.65892266960094E+01,1.75344825857432E+01,4.57144500664736E+00,8.20842866277139E+00,1.14873641314675E+01,9.70812515533000E+00,1.08545131624974E+01,1.01053566414590E+01,8.56277332937933E+00,8.10844406605696E+00,,,,,,,,,,
ZMB,,,,,,,,,,,,,,,,,,,,,,,,,,,,,,,,,,,,,,,2.14303485491619E+01,1.74318304861588E+01,,1.58781055931260E+01,1.59944341079788E+01,1.76442613872136E+01,1.99538755670520E+01,2.29311670656007E+01,1.69685273710002E+01,2.26808450945950E+01,,,,
ZWE,,,,,,,,,,,,,,,,,,,,,,,,,,,,,,,2.45249841545647E+01,2.42274591789406E+01,2.92137719489013E+01,2.55627218884423E+01,2.20965478824539E+01,3.21044423513727E+01,3.30233086477782E+01,3.32262215880643E+01,,,,,,,,,,,,,,
