"Country Code",1960,1961,1962,1963,1964,1965,1966,1967,1968,1969,1970,1971,1972,1973,1974,1975,1976,1977,1978,1979,1980,1981,1982,1983,1984,1985,1986,1987,1988,1989,1990,1991,1992,1993,1994,1995,1996,1997,1998,1999,2000,2001,2002,2003,2004,2005,2006,2007,2008,2009,2010,2011AFG,,,,,,,,,,,,,,,,,,,,,,,,,,,,,,,,,,,,,,,,,,,,,,,9.56957397708182E-02,1.60773072842435E-02,1.74342003436370E+00,3.16263368047895E-01,,
ALB,,,,,,,,,,,,,,,,,,,,,,,,,,,,,,,,,,,,2.43787765336862E-01,0.00000000000000E+00,1.13735341668262E-01,0.00000000000000E+00,,,,2.78007249345497E+00,3.08031636607972E+00,-7.19575784635553E-03,,,,,,,
ARB,,,,,,,,,,,,,,,,,,,,,,,,,,,,,,,,,,,,,,,,,,,,,,,,,7.48866971725578E+00,,,
ARE,,,,,,,,,,,,,,,,,,,,,,,,,,,,,,,,,,0.00000000000000E+00,0.00000000000000E+00,0.00000000000000E+00,0.00000000000000E+00,0.00000000000000E+00,0.00000000000000E+00,0.00000000000000E+00,,,,,,,,,,,,
ARG,,,,,,,,,,,,,,,,,,,,,,,,,,,,,,,,,,,,,,,,,,,6.92572703225167E+00,1.00919305214027E+01,7.46773039743860E+00,,,,,,,
ARM,,,,,,,,,,,,,,,,,,,,,,,,,,,,,,,,,,,,,,,,,,,,3.82159358564422E+00,6.19530328470854E+00,8.11727998665692E-01,4.74559470708895E+00,5.66493738162624E+00,2.24362289038408E+01,2.29440554181987E+01,,
AUS,,,,,,,,,,,,,,,,,,,,,,,,,,,,,,,,,,,,,,,,5.26270880509337E+00,6.09358612850351E+00,6.66153854429461E+00,6.82128103316889E+00,5.64558966979264E+00,5.10887242500903E+00,5.23318734464041E+00,5.68084670864890E+00,6.01892014706490E+00,5.92521284795976E+00,5.61655809943481E+00,,
AUT,,,,,,,,,,,,,,,,,,,,,,,,,,,,,,,,,,,,6.28661691895453E+00,6.21198693842610E+00,5.10805795097773E+00,5.59919734692037E+00,4.85980893438396E+00,5.08365973293661E+00,5.79421593733118E+00,4.88485061325396E+00,4.74676878952013E+00,1.27834197117419E+01,5.66690352901088E+00,5.28563940011153E+00,4.97138880348478E+00,5.28391847214873E+00,4.57623323848917E+00,,
AZE,,,,,,,,,,,,,,,,,,,,,,,,,,,,,,,,,,,,,,,,,,,,,,,,,6.09441381167195E+01,,,
BDI,,,,,,,,,,,,,,,,,,,,,,,,,,,,,,,,2.64393023303478E+01,2.11291277832023E+01,1.60084483856440E+01,9.63675286282239E+00,,,,1.61563334325517E+01,1.38920527963092E+01,,,,,,,,,,,,
BEL,,,,,,,,,,,,,,,,,,,,,,,,,,,,,,,,,,,,2.41275834972603E+00,2.58490183506727E+00,2.94132174007707E+00,2.91849875600482E+00,2.76274533127156E+00,2.64509627291109E+00,2.28728165813574E+00,2.32701457942069E+00,3.31648882000957E+00,1.81172162260780E+00,7.99425932099320E+00,2.71806415735968E+00,2.67877979784467E+00,2.26577969517786E+00,4.96691435082306E-01,,
BEN,,,,,,,,,,,,,,,,,,,,,,,,,,,,,,,,,,,,,,,,,,2.07870813048775E+01,3.02577971798406E+01,2.46607072828362E+01,2.32223028938049E+01,2.58795429926692E+01,1.97917894977531E+01,,1.88539642112334E+00,2.12508614554101E+00,,
BFA,,,,,,,,,,,,,,,,,,,,,,,,,,,,,,,,,,,,,,,,,,,1.98000252361502E+01,1.75144564251868E+01,1.93220746490890E+01,1.94220434393396E+01,2.20347252645263E+01,2.47063334251226E+01,2.30516308373037E+01,2.06649819321471E+01,,
BGD,,,,,,,,,,,,,,,,,,,,,,,,,,,,,,,,,,,,,,,,,,1.41996687660552E+01,1.42004916635213E+01,9.47525926974568E+00,8.63237102598855E+00,9.87374637407852E+00,1.17712165131728E+01,1.11556391331709E+01,1.25909128749111E+01,1.20019352041542E+01,,
BGR,,,,,,,,,,,,,,,,,,,,,,,,,,,,,,,0.00000000000000E+00,0.00000000000000E+00,8.82715893922986E-01,0.00000000000000E+00,0.00000000000000E+00,0.00000000000000E+00,0.00000000000000E+00,2.35677287854961E+00,1.17934427997526E+00,1.84745981998473E+00,1.56371029033729E+00,1.23263247693321E+00,2.15513832631824E+00,2.35751124114657E+00,2.86092739302786E+00,3.14764238713569E+00,2.63275666245440E+00,5.79827981329174E+00,5.91946638870664E+00,5.79263028397575E+00,,
BHR,,,,,,,,,,,,,,,,,,,,,,,,,,,,,,,,,,,,,,,,,,0.00000000000000E+00,,0.00000000000000E+00,1.43155476662838E+01,2.94069549324227E+00,1.32431049390341E+00,4.56366806349983E+00,1.20996032707836E+00,,,
BHS,,,,,,,,,,,,,,,,,,,,,,,,,,,,,,,6.23692717246625E+00,6.49733112460887E+00,5.62077552472430E+00,1.41001855287570E+00,3.22291853178156E-01,2.51846877098724E-01,1.82121718014873E-01,2.38871067233775E-01,2.45009954810490E-01,2.30691697114779E-01,6.95027757663529E-01,3.69088811995386E-01,5.63563455077490E-01,4.60460460460460E-01,5.42349580973997E-01,6.42966219881378E-01,6.34922107294103E+00,2.69018582121295E+00,3.53907555777615E+00,3.37013914815615E+00,,
BIH,,,,,,,,,,,,,,,,,,,,,,,,,,,,,,,,,,,,,,,,,,,,2.96364171406201E+00,4.71258398690513E+00,4.13073197075474E+00,3.60382674925648E+00,3.70543887922184E+00,3.29933829069956E+00,3.53213084903580E+00,,
BLR,,,,,,,,,,,,,,,,,,,,,,,,,,,,,,,,,0.00000000000000E+00,0.00000000000000E+00,0.00000000000000E+00,0.00000000000000E+00,9.40125299899971E-03,3.69425807317596E-01,4.17834495756231E-03,1.02472766762138E+01,4.13347043879509E+00,2.82146742310309E+00,2.99495698789708E+00,6.27518236884691E+00,5.01576008208555E+00,8.91751146937093E+00,6.28070146839313E+00,5.39565956132152E+00,7.31653371783480E+00,6.03286663196439E+00,,
BLZ,,,,,,,,,,,,,,,,,,,,,,,,,,,,,,,,0.00000000000000E+00,6.63777758942194E-01,7.55758700276056E-01,5.81710784493695E-01,3.93460768502385E-01,3.77611710130914E-01,4.44573774997171E-01,,,,,,,,,,,,,,
BOL,,,,,,,,,,,,,,,,,,,,,,,,,,,,,,,,,,,,,,,,,,,5.79710191672268E+00,4.32296217864278E+00,4.53497025773114E+00,5.43699685599373E+00,4.87488770705489E+00,6.54671527238384E+00,,,,
BRA,,,,,,,,,,,,,,,,,,,,,,,,,,,,,,,0.00000000000000E+00,9.01018978967982E-01,6.12959876762677E-01,0.00000000000000E+00,0.00000000000000E+00,,,0.00000000000000E+00,0.00000000000000E+00,0.00000000000000E+00,0.00000000000000E+00,0.00000000000000E+00,0.00000000000000E+00,1.23772725605763E-01,1.39970881339156E-01,3.16694313534645E-01,3.67367121287051E-01,1.57993787263227E-01,2.20047957456122E+00,2.13932705689491E-01,,
BRB,,,,,,,,,,,,,,,,,,,,,,,,,,,,,,,,,,,,,,,,,,,,,,,,9.54094421882976E-01,1.53710851307065E+00,,,
BTN,,,,,,,,,,,,,,,,,,,,,,,,,,,,,,,9.82300064868872E-01,3.13255168710284E+00,2.58686279482627E+00,2.46069182389937E+00,6.20501965527669E+00,3.75548937458987E+00,2.47744993120318E+01,1.02197338650918E+01,1.76448598130841E+00,2.64350915885560E+00,2.22897134556979E+00,2.24357561599154E+00,7.44133937479491E+00,1.47459682184602E+01,4.80702589213401E+00,8.66947389844934E+00,7.84630457271861E+00,8.54303611663419E+00,1.63485566531256E+01,1.77675995631629E+01,,
BWA,,,,,,,,,,,,,,,,,,,,,,,,,,,,,,,1.14578461800094E+00,0.00000000000000E+00,1.83283358320840E+00,0.00000000000000E+00,0.00000000000000E+00,0.00000000000000E+00,0.00000000000000E+00,,,,,,,,,,,,,,,
CAF,,,,,,,,,,,,,,,,,,,,,,,,,,,,,,,,,,,,,,,,,,,,,1.13153571764961E+01,,,,,,,
CAN,,,,,,,,,,,,,,,,,,,,,,,,,,,,,,,,3.36683668644978E+00,3.38387895102466E+00,2.97824971898157E+00,3.33814678570299E+00,3.01514304062312E+00,2.63721639780584E+00,9.67141695172091E-01,1.81112479540208E+00,1.26452265560080E+00,1.13699769957418E+00,1.94610706703790E+00,2.31624518442232E+00,2.61919130959565E+00,3.42993134240344E+00,3.44050158465455E+00,3.34783401082400E+00,3.31779296609786E+00,2.94028298481432E+00,3.32656317510215E+00,,
CHE,,,,,,,,,,,,,,,,,,,,,,,,,,,,,,,,7.02004801141893E-01,6.68727302643177E-01,6.48037403501142E-01,5.22262641734210E-01,4.82276595523057E-01,4.68602630925788E-01,4.37483594365211E-01,1.18818932316313E+00,1.30042910412802E+00,1.87957356710375E+00,2.98408570964233E+00,5.01507833583400E+00,4.54284734000931E+00,5.61504105765001E+00,5.13542554077698E+00,4.68575183407676E+00,4.27991273211410E+00,3.01650114847321E+00,,,
CHL,,,,,,,,,,,,,,,,,,,,,,,,,,,,,,,,,,,,,,,,,9.56213866883098E+00,1.03525019900634E+01,1.08436743691326E+01,1.12341106976726E+01,1.16760880003492E+01,1.12128527428619E+01,1.13009297754932E+01,1.07722086563038E+01,1.26012762566292E+01,1.92914460124082E+01,,
CHN,,,,,,,,,,,,,,,,,,,,,,,,,,,,,,,,,,,,,,,,,,,1.00418727988675E-02,1.40934395039109E-03,3.82117054827681E+00,,,,,,,
CIV,,,,,,,,,,,,,,,,,,,,,,,,,,,,,,,,,,,,,,,,,,,,0.00000000000000E+00,0.00000000000000E+00,5.24835345773875E+00,5.68636764606094E+00,6.05471445630584E+00,7.12955573290769E+00,7.09930828178682E+00,,
CMR,,,,,,,,,,,,,,,,,,,,,,,,,,,,,,,0.00000000000000E+00,0.00000000000000E+00,0.00000000000000E+00,0.00000000000000E+00,0.00000000000000E+00,0.00000000000000E+00,,,0.00000000000000E+00,0.00000000000000E+00,,,,,,,,,,,,
COG,,,,,,,,,,,,,,,,,,,,,,,,,,,,,,,,,0.00000000000000E+00,0.00000000000000E+00,0.00000000000000E+00,0.00000000000000E+00,0.00000000000000E+00,0.00000000000000E+00,0.00000000000000E+00,0.00000000000000E+00,5.30196745826848E-01,4.04905751308247E+00,4.65770560097980E-01,3.76713553005657E-01,1.94441935018776E+00,2.51162218333894E+00,,,,,,
COL,,,,,,,,,,,,,,,,,,,,,,,,,,,,,,,,,,,,,,,,,,1.30497390726126E+00,1.39121681834762E+00,1.11862734385384E+01,2.37035989144756E+00,1.96792288393389E+01,3.34131488801341E+00,7.41237730765375E+00,2.14112898950580E+01,1.49573405561651E+01,,
CPV,,,,,,,,,,,,,,,,,,,,,,,,,,,,,,,,,,,,,,,,,,,,,,5.58342495310194E+00,3.90697547915415E+00,6.36145132436100E+00,6.90549492887984E+00,4.94588164069719E+00,,
CRI,,,,,,,,,,,,,,,,,,,,,,,,,,,,,,,,,,,,,,,,,,,,,,,,,2.01341860910085E+01,1.40990476325211E+01,,
CYP,,,,,,,,,,,,,,,,,,,,,,,,,,,,,,,,,,,,9.31148715193840E-01,9.03746950853761E-01,9.33367902514908E-01,1.02795370892330E+00,1.14564290067032E+00,1.18213905540927E+00,1.21157049825837E+00,1.16482644319429E+00,1.19565859712018E+00,1.23801993944887E+00,1.23027782165359E+00,1.25341501779949E+00,1.19568748163158E+00,1.13076578593820E+00,1.17591721542803E+00,,
CZE,,,,,,,,,,,,,,,,,,,,,,,,,,,,,,,,,,4.71638331175900E+00,4.92489288274620E+00,5.30940296164513E+00,4.33554601312534E+00,4.25232343624909E+00,3.99403942110135E+00,4.30657338526572E+00,6.57635919448252E+00,6.44236671804254E+00,7.80288636895656E+00,8.65286887590831E+00,8.95316374516873E+00,1.53089281462079E+01,1.32815230988506E+01,1.16521447721180E+01,1.22171636405256E+01,1.06057328006014E+01,,
DEU,,,,,,,,,,,,,,,,,,,,,,,,,,,,,,,,,,,,1.96376232347455E+01,2.79870828848224E+00,2.55889190551283E+00,3.16846128229119E+00,3.62971343551912E+00,4.21909357439531E+00,4.18986846461789E+00,4.17616126205083E+00,3.44660540001425E+00,3.31789121242297E+00,3.25277484520786E+00,3.17845271552278E+00,3.35129601455972E+00,3.70365205750701E+00,4.23000052595593E+00,,
DNK,,,,,,,,,,,,,,,,,,,,,,,,,,,,,,,,,,,,9.52910106701154E+00,9.95553422979183E+00,1.06773893057590E+01,1.12100912200684E+01,1.10470681775694E+01,2.25990584281351E+00,2.22534917656869E+00,2.29262933744261E+00,2.25898107881207E+00,2.31664279666717E+00,2.39353809996716E+00,2.25426020374014E+00,2.31230726654543E+00,2.30618692119730E+00,2.16210527214053E+00,,
DOM,,,,,,,,,,,,,,,,,,,,,,,,,,,,,,,,,,,,,,,,,,,,,1.00023412424744E+01,7.03823953397849E+00,7.64315244874390E+00,7.93918527632043E+00,5.29356869029474E+00,,,
DZA,,,,,,,,,,,,,,,,,,,,,,,,,,,,,,,,,,,,,,,,,,,,,,,7.51224355948930E+00,8.31616064477721E+00,6.14760006701655E+00,8.29949535019708E+00,,
EAP,,,,,,,,,,,,,,,,,,,,,,,,,,,,,,,,,,,,,,,,,,,9.12921665305394E-01,3.94735785727149E-01,2.74505844694388E+00,,4.10958501423625E+00,3.26619605736251E+00,3.87100670330334E+00,2.27934930023459E+00,,
EAS,,,,,,,,,,,,,,,,,,,,,,,,,,,,,,,,,,,,,,,,,,,2.64576043466064E+00,2.60711028116519E+00,5.10887242500903E+00,5.34463706327156E+00,5.35473417989567E+00,6.36286823121107E+00,4.19058530707386E+00,2.74873684937049E+00,,
ECA,,,,,,,,,,,,,,,,,,,,,,,,,,,,,,,,,,,,,,,,,,,,4.66059368718356E+00,6.98214424294425E+00,8.55866754682540E+00,5.87732091770909E+00,5.73160859745899E+00,5.59022171798713E+00,5.53215399164563E+00,,
ECS,,,,,,,,,,,,,,,,,,,,,,,,,,,,,,,,,,,,3.17262124011271E+00,3.03296208205135E+00,3.00692882963671E+00,3.29476106312736E+00,3.82290173177440E+00,3.22664917753383E+00,3.85235911338901E+00,4.74710430083726E+00,5.30345078167162E+00,6.01255558341596E+00,5.43559859726552E+00,5.31311466942377E+00,5.47878210471994E+00,5.29368530502194E+00,4.88273621693335E+00,,
EGY,,,,,,,,,,,,,,,,,,,,,,,,,,,,,,,0.00000000000000E+00,0.00000000000000E+00,0.00000000000000E+00,0.00000000000000E+00,0.00000000000000E+00,0.00000000000000E+00,0.00000000000000E+00,0.00000000000000E+00,,,,,1.82916198520011E+01,1.79944441036516E+01,1.73418953401942E+01,1.59896670260155E+01,9.76474099372867E+00,1.10447766658977E+01,8.82973936749501E+00,8.70154703669132E+00,,
EMU,,,,,,,,,,,,,,,,,,,,,,,,,,,,,,,,,,,,4.89500774588394E+00,3.20998397974724E+00,3.32759141879669E+00,3.33333333333333E+00,3.62971343551912E+00,4.21909357439531E+00,4.27597696814828E+00,4.17616126205083E+00,5.36458957500555E+00,3.64282832358281E+00,3.63846178503884E+00,3.17845271552278E+00,3.35129601455972E+00,3.56841874077441E+00,4.00641441122257E+00,,
ESP,,,,,,,,,,,,,,,,,,,,,,,,,,,,,,,,,,,,2.17166058240262E+00,2.16477193309416E+00,2.23552335281832E+00,2.18901319084989E+00,2.22290365444930E+00,1.99920863601315E+00,1.96603766311366E+00,2.08837648217290E+00,3.04421071574969E+01,9.90343127183070E+00,5.50393579256058E+00,5.65769479897829E+00,5.67400002266880E+00,5.48190824336392E+00,4.88273621693335E+00,,
EST,,,,,,,,,,,,,,,,,,,,,,,,,,,,,,,,,,,,3.88294085722140E+00,3.20998397974724E+00,3.32759141879669E+00,3.00958375053640E+00,3.02939499802669E+00,3.35532450168012E+00,3.61188888631773E+00,3.57601413246505E+00,3.51068306636765E+00,3.57507906540483E+00,3.63846178503884E+00,3.65935322641743E+00,3.69188290257338E+00,3.56841874077441E+00,3.87691530028749E+00,,
ETH,,,,,,,,,,,,,,,,,,,,,,,,,,,,,,,2.39275759145514E-01,1.45953835342451E-01,9.55024323275733E-02,9.11761726268868E-02,3.63162118780096E-01,3.83370849746764E-01,4.17188151856487E-01,7.58813071819850E-01,5.53949064557712E-01,2.32307941313682E-01,,0.00000000000000E+00,1.23637181072272E+00,1.06085286603453E+01,1.61099305850687E+01,2.00799533082721E+01,,,,,,
EUU,,,,,,,,,,,,,,,,,,,,,,,,,,,,,,,,,,,,5.60823879809581E+00,4.09396512016092E+00,3.55227995758218E+00,4.73051604625845E+00,4.85980893438396E+00,4.35658218277770E+00,5.79421593733118E+00,5.47785213350716E+00,6.06426322946974E+00,6.54320028133906E+00,5.58541966078573E+00,5.47166709954491E+00,5.32269441307679E+00,5.29368530502194E+00,4.40311688222255E+00,,
FIN,,,,,,,,,,,,,,,,,,,,,,,,,,,,,,,,,,,,1.06691800188501E+01,8.77934988772373E+00,7.20913633119201E+00,7.43989245653084E+00,8.38660907127430E+00,7.77490943011476E+00,7.76609365489159E+00,7.51829280318719E+00,7.05131856239676E+00,6.95769807319659E+00,7.33112082740698E+00,7.28795740495812E+00,7.47204979171126E+00,7.77841339538335E+00,,,
FJI,,,,,,,,,,,,,,,,,,,,,,,,,,,,,,,0.00000000000000E+00,0.00000000000000E+00,0.00000000000000E+00,0.00000000000000E+00,3.28941894328110E+00,,,,,,,,,,8.07575744713363E+00,8.31031603288798E+00,8.21089013572955E+00,,,,,
FRA,,,,,,,,,,,,,,,,,,,,,,,,,,,,,,,,,,,,,5.52936522750196E+00,6.45371383609332E+00,5.78744610744086E+00,6.38031474695989E+00,5.99431501504849E+00,6.05317786644548E+00,5.91309014986104E+00,6.06426322946974E+00,6.12870248948153E+00,1.91592033438388E+00,1.94058851417244E+00,1.93332334752744E+00,1.95656189373714E+00,1.89966552239151E+00,,
GBR,,,,,,,,,,,,,,,,,,,,,,,,,,,,,,,,,,,,7.64741226826535E+00,7.36724459838579E+00,7.35670501516451E+00,7.58199871374567E+00,8.37453301158826E+00,8.56588467565381E+00,8.98645689811700E+00,9.68813849091938E+00,1.00085910652921E+01,9.62129727409680E+00,1.23722901297096E+01,1.00185824163885E+01,9.79744743431632E+00,1.28762693228122E+01,1.21488280103215E+01,,
GEO,,,,,,,,,,,,,,,,,,,,,,,,,,,,,,,,,,,,,,0.00000000000000E+00,0.00000000000000E+00,0.00000000000000E+00,0.00000000000000E+00,0.00000000000000E+00,0.00000000000000E+00,0.00000000000000E+00,1.13112693757855E+00,3.31892482734635E+00,7.14260204992679E+00,8.95115681233933E+00,9.11120312528129E+00,1.20909923993316E+01,,
GHA,,,,,,,,,,,,,,,,,,,,,,,,,,,,,,,,,,,,,,,,,,0.00000000000000E+00,0.00000000000000E+00,0.00000000000000E+00,6.44906733886272E-02,2.05544645568017E-01,0.00000000000000E+00,0.00000000000000E+00,1.22348921599253E+01,0.00000000000000E+00,,
GIN,,,,,,,,,,,,,,,,,,,,,,,,,,,,,,,,,,,,,,,1.18013942685882E+00,6.26391982182628E-01,,,,,,,,,,,,
GMB,,,,,,,,,,,,,,,,,,,,,,,,,,,,,,,9.44694548762567E+00,,,,,,,,,,,,,,,,,,,,,
GRC,,,,,,,,,,,,,,,,,,,,,,,,,,,,,,,,,,,,8.48747542966584E+00,7.39345083355196E+00,1.00159761422942E+01,1.04723282442748E+01,9.99286760013514E+00,1.03261499726690E+01,1.01140648714619E+01,8.39406288110890E+00,8.82206690792563E+00,1.08103324019168E+01,8.37452285406675E+00,7.87572413489284E+00,6.46442327789555E+00,8.37342220072205E+00,6.83309249755012E+00,,
GRD,,,,,,,,,,,,,,,,,,,,,,,,,,,,,,,,0.00000000000000E+00,3.50717672273820E-01,2.12082262210797E-01,7.27657192611481E-01,1.00112626705043E+00,,,,,,,,,,,,,,,,
GTM,,,,,,,,,,,,,,,,,,,,,,,,,,,,,,,3.49186391240662E+00,2.68526627249597E+00,1.61192145025574E+01,1.45753188356634E+01,8.07743084183531E+00,5.54569295694510E+00,1.22334573269765E+00,3.50180023704149E-01,1.19430625222706E+00,5.67824053251777E-02,2.12780828574010E+01,2.04115182170881E+01,3.50031721654883E+00,1.63884901652318E+01,1.51967783072022E+01,2.75190823946858E+01,1.75051411947635E+01,1.62446371015968E+01,9.80196444328719E+00,1.21537325605247E+01,,
HIC,,,,,,,,,,,,,,,,,,,,,,,,,,,,,,,,,,,,3.17262124011271E+00,3.98228727820659E+00,3.32759141879669E+00,3.99403942110135E+00,4.16133170664770E+00,4.10292634082472E+00,4.02111378900345E+00,5.01507833583400E+00,5.65846982733641E+00,5.61504105765001E+00,5.36726140197047E+00,5.65769479897829E+00,5.74376916580997E+00,5.38294709140533E+00,5.33440047460368E+00,,
HKG,,,,,,,,,,,,,,,,,,,,,,,,,,,,,,,,,,,,,,,,,,,2.56377649467258E+01,2.79322912569718E+01,3.04512715789972E+01,2.78304674325084E+01,3.09096900975235E+01,3.03272083140105E+01,3.75857195701454E+01,3.32550607546843E+01,,
HND,,,,,,,,,,,,,,,,,,,,,,,,,,,,,,,,,,,,,,,,,,,,1.15068704233467E+01,1.53039623708637E+01,1.41900640262346E+01,1.70212025104552E+01,1.63162527240453E+01,1.82972772509286E+01,1.94151854458723E+01,,
HRV,,,,,,,,,,,,,,,,,,,,,,,,,,,,,,,,1.86428038777032E-01,5.28006648221905E-01,4.27481408591570E-01,6.23306158816437E-01,3.17262124011271E+00,6.10241477791461E+00,5.36631601368822E+00,4.78119178435932E+00,4.01609002802968E+00,3.09797385338753E+00,3.07799442896936E+00,4.74710430083726E+00,5.48817882111570E+00,6.01255558341596E+00,6.43134944401784E+00,6.00702777693390E+00,6.15631446252578E+00,7.18366108892372E+00,5.44030512492752E+00,,
HUN,,,,,,,,,,,,,,,,,,,,,,,,,,,,,,,,,,,,1.29444962855165E+01,1.07309259946135E+01,1.17106956288052E+01,1.54371911134059E+01,1.26477978603289E+01,1.32655283477380E+01,1.33999155721894E+01,1.57081069703508E+01,1.06027615562565E+01,9.56551960677450E+00,8.89054669353630E+00,9.67033292250647E+00,1.04860833251692E+01,8.53270142243428E+00,8.18895081983842E+00,,
IDN,,,,,,,,,,,,,,,,,,,,,,,,,,,,,,,,0.00000000000000E+00,0.00000000000000E+00,0.00000000000000E+00,2.11138066167258E+00,1.69275657650982E+00,1.04068117313150E+00,1.00058835713659E+00,2.92144875278748E-01,2.44232082294860E-01,,,7.15333855153809E-02,2.19614558323197E-01,1.68027078387646E-01,9.60926473606328E+00,1.07446229253355E+01,7.43413631109003E+00,9.20995109429036E+00,1.22614565520437E+01,,
IND,,,,,,,,,,,,,,,,,,,,,,,,,,,,,,,1.19722888594938E+00,9.91297842179871E-01,6.60490501103714E-01,4.60541192432351E-01,3.39865866271445E-01,3.47610396869760E-01,3.24847250509165E-01,4.06075168237474E-01,1.09459321861318E+00,,,,7.34871469343077E+00,7.36490509391760E+00,7.63599562839717E+00,7.56253424732100E+00,7.08032111113862E+00,8.50113054065264E+00,7.02956012660871E+00,7.09196115523384E+00,,
IRL,,,,,,,,,,,,,,,,,,,,,,,,,,,,,,,,,,,,7.66707132322695E-01,8.05374933317954E-01,8.05874933778431E-01,7.98193272629421E-01,8.14921094539674E-01,9.10764095725458E-01,8.85915516300421E-01,9.02738827022706E-01,9.07528611825459E-01,9.61624993116219E-01,9.52459614060469E-01,9.93311795046194E-01,1.00889141742523E+00,1.05019019499642E+00,1.13244853409631E+00,,
IRN,,,,,,,,,,,,,,,,,,,,,,,,,,,,,,,,,,,,,,,,6.52807166730913E+00,1.35110218228533E+00,6.53337542909502E+00,7.92187185733122E+00,7.27607856530349E+00,7.16973689928086E+00,1.76118238784056E+01,,1.35566519631137E+01,1.54258035244112E+01,1.44272433991605E+01,,
ISL,,,,,,,,,,,,,,,,,,,,,,,,,,,,,,,,,,,,,,,1.60074933827596E+01,1.56240648054718E+01,1.52171094086187E+01,1.09562699258306E+01,1.02514060373679E+01,1.02550979244554E+01,9.70119802082822E+00,1.00223078142288E+01,9.74722971205544E+00,9.68035127129870E+00,3.66121846623783E+01,9.83016440690240E+00,,
ISR,,,,,,,,,,,,,,,,,,,,,,,,,,,,,,,,,,,,,,,,,7.24623291350277E+00,7.07731155240710E+00,6.87704357370438E+00,6.88560608216614E+00,7.74708190801380E+00,8.02990138663299E+00,8.46028718397922E+00,8.46715361376182E+00,9.17798945746474E+00,9.36409218823361E+00,,
ITA,,,,,,,,,,,,,,,,,,,,,,,,,,,,,,,,,,,,5.90707463454649E+00,4.09396512016092E+00,3.55227995758218E+00,4.73051604625845E+00,5.07135430604483E+00,4.87748948271908E+00,5.95896664158515E+00,5.92577730832099E+00,5.98241036049096E+00,5.12275731822474E+00,5.36726140197047E+00,7.93657535456776E+00,5.81353830895115E+00,5.30345213789515E+00,5.98660271624768E+00,,
JAM,,,,,,,,,,,,,,,,,,,,,,,,,,,,,,,,,,,,,,,,,,,,1.73433985534227E+00,3.01460100998108E+01,2.98541538700294E+01,3.05952295229170E+01,3.50752277939497E+01,3.34057604205321E+01,3.10397972089222E+01,,
JOR,,,,,,,,,,,,,,,,,,,,,,,,,,,,,,,2.33360983702547E+00,1.82828589441240E+00,1.12650771388499E+00,1.47829285508356E+00,3.07220652003793E+00,3.61240486197887E+00,5.73879979928336E+00,4.17528527006479E+00,4.80518587511643E+00,0.00000000000000E+00,2.56085566756823E+00,2.64348474173620E+00,7.38157074589653E+00,7.25818188647002E+00,1.22246408023875E+01,1.12232069897542E+01,1.55080106847262E+01,3.49948912567508E+01,5.21298961076072E+00,1.52467777428482E+00,,
KAZ,,,,,,,,,,,,,,,,,,,,,,,,,,,,,,,,,,,,,,,,,5.27858544406034E-01,5.45697271720082E+00,3.78480608948147E+00,9.80368373053159E+00,7.85818749886210E+00,2.81514883988934E+01,1.55024543596911E+01,2.79726551363279E+00,2.41514662306788E+00,1.76892240224960E+00,,
KEN,,,,,,,,,,,,,,,,,,,,,,,,,,,,,,,,1.04805491990847E+00,1.53954592669536E+00,1.61022250022339E+00,6.57869573532224E-01,1.57899988359137E+00,5.80096289238708E-01,1.69270451680980E-01,,,2.18204075134912E+00,2.17706576293527E+00,2.42233112447189E+00,3.26833981125678E+00,2.00309227725344E+00,,,0.00000000000000E+00,1.79911752641343E-01,9.04263670588545E-01,,
KGZ,,,,,,,,,,,,,,,,,,,,,,,,,,,,,,,,,,,,0.00000000000000E+00,0.00000000000000E+00,0.00000000000000E+00,0.00000000000000E+00,0.00000000000000E+00,0.00000000000000E+00,0.00000000000000E+00,,,,,8.78456402685353E+00,1.12281012817645E+01,3.41938039159215E+00,3.22403794157498E+00,,
KHM,,,,,,,,,,,,,,,,,,,,,,,,,,,,,,,,,,,,,,,,,,,1.05161351932355E+01,3.94735785727149E-01,1.66894634561094E+00,2.11135098382297E+00,5.02862165114244E+00,3.26619605736251E+00,1.88808946144679E+00,2.27934930023459E+00,,
KNA,,,,,,,,,,,,,,,,,,,,,,,,,,,,,,,0.00000000000000E+00,0.00000000000000E+00,0.00000000000000E+00,0.00000000000000E+00,0.00000000000000E+00,,,,,,,,,3.39434276206323E+00,,,4.01776934545207E-01,,,,,
KOR,,,,,,,,,,,,,,,,,,,,,,,,,,,,,,,1.33117737750536E+00,1.65519399249061E+00,1.79357748899152E+00,2.09199961304053E+00,2.54865238987053E+00,3.10362966859548E+00,3.98228727820659E+00,3.01398136760111E+00,1.62171337386099E+01,1.58495800259896E+01,1.50775840909313E+01,1.52270774780328E+01,1.54185550142831E+01,2.04979476692289E+01,2.25315360748969E+01,2.11125705621114E+01,1.99059596415489E+01,1.41290769901892E+01,1.53623616304999E+01,1.71691602699359E+01,,
KWT,,,,,,,,,,,,,,,,,,,,,,,,,,,,,,,6.31834750911300E+00,1.52253349573691E-01,2.29250689874761E+00,5.24423134551993E+00,6.41166758392955E+00,6.68905681500140E+00,5.45454545454545E+00,6.92355889724311E+00,8.47355769230769E+00,8.76879026485326E+00,,,1.05600379686758E+01,1.17090069284065E+01,1.25383514011045E+01,1.29971590909091E+01,2.14494637634059E+01,2.10283315844701E+01,2.40138010350776E+01,1.51942847185921E+01,1.90281429545233E+01,
LAC,,,,,,,,,,,,,,,,,,,,,,,,,,,,,,,,,,,,,,,,,,,2.91620407152520E+00,3.58233600868599E+00,4.53497025773114E+00,5.36844027880265E+00,6.63945407981028E+00,7.41237730765375E+00,9.80196444328719E+00,1.31263900965229E+01,,
LAO,,,,,,,,,,,,,,,,,,,,,,,,,,,,,,,,,,,,,,,,,,,,,,,8.79978960941580E+00,8.49378228318229E+00,8.06090209327120E+00,9.58101699416735E+00,,
LBN,,,,,,,,,,,,,,,,,,,,,,,,,,,,,,,,,,,,,,,,,2.53687538575873E+00,1.92006218824901E+00,2.42126609494490E+00,2.38794543918322E+00,2.30279675366381E+00,2.32583989991051E+00,3.71553003969600E+00,8.14874130779685E+00,3.38942338692740E+00,1.67771203198699E+00,,
LBR,,,,,,,,,,,,,,,,,,,,,,,,,,,,,,,,,,,,,,,,,,,,,,0.00000000000000E+00,0.00000000000000E+00,0.00000000000000E+00,0.00000000000000E+00,,,
LCN,,,,,,,,,,,,,,,,,,,,,,,,,,,,,,,,,,,,,,,,,,,2.33209092650157E+00,2.84170983872919E+00,3.85070219795028E+00,5.29988370161156E+00,7.14130326427709E+00,7.67578129198709E+00,1.12016203499582E+01,1.31263900965229E+01,,
LKA,,,,,,,,,,,,,,,,,,,,,,,,,,,,,,,8.26490066225166E+00,1.05086958352634E+01,1.10529309093762E+01,1.05736447697095E+01,9.00951474109814E+00,1.04211388869654E+01,8.14181986875094E+00,8.32464184508816E+00,9.06559308187739E+00,1.06712175832417E+01,9.19014644742212E+00,7.55604223793000E+00,7.33437832885347E+00,9.17278042454221E+00,8.86115704006133E+00,8.20993897404530E+00,8.67258602268192E+00,1.03351087036823E+01,9.72690828456485E+00,,,
LMC,,,,,,,,,,,,,,,,,,,,,,,,,,,,,,,,,,,,,,,,,,,2.35422284237005E+00,2.10865500675713E+00,3.09221938853296E+00,5.21804859415749E+00,6.01788588607868E+00,7.51171785316921E+00,8.06090209327120E+00,,,
LMY,,,,,,,,,,,,,,,,,,,,,,,,,,,,,,,,,,,,,,,,,,,,4.01202910889189E+00,6.47473794514562E+00,6.13114070898823E+00,6.46007777410170E+00,7.59433200148468E+00,6.77456245539553E+00,,,
LSO,,,,,,,,,,,,,,,,,,,,,,,,,,,,,,,2.91579317023337E+00,2.28453893136962E+00,2.79072127459852E+00,,,,,,,,,,0.00000000000000E+00,0.00000000000000E+00,2.99999708720083E-05,1.00364103992114E-04,6.13528740403759E+00,8.51954711518752E+00,6.48937323534912E+00,,,
LTU,,,,,,,,,,,,,,,,,,,,,,,,,,,,,,,,,,,,,,,,,1.83845959863010E+00,6.48951005367674E+00,5.04261411715328E+00,5.11872274222755E+00,8.55901690670006E+00,8.65205833468961E+00,7.54754669669989E+00,9.04268728204697E+00,6.93798284782763E+00,6.39567136011507E+00,,
LUX,,,,,,,,,,,,,,,,,,,,,,,,,,,,,,,,,,,,,,,,1.25887433348820E+01,1.29182956259522E+01,1.24636901150536E+01,1.19341978116110E+01,1.24694615764140E+01,1.32490638586221E+01,7.20470123364357E+00,7.57600860008490E+00,7.34926509959383E+00,7.02123986364300E+00,6.89145073799125E+00,,
LVA,,,,,,,,,,,,,,,,,,,,,,,,,,,,,,,,,,,5.26257682258124E-01,2.17599562063774E-01,2.02506557854853E+00,2.07840015918814E+00,4.96150696150696E+00,5.85636097640672E+00,4.49407079116009E+00,4.58934735431626E+00,1.98596214412282E+01,1.99976954542836E+01,2.48631364759459E+01,3.06501312435805E+01,2.97366631637510E+01,2.94231513743709E-01,3.77437617949256E+00,4.02203180513301E+00,,
MAC,,,,,,,,,,,,,,,,,,,,,,,,,,,,,,,,,,,,,2.57932914699495E+00,1.75593463576552E+00,7.30556840930822E-01,1.73563308900828E+01,1.45180937127785E+01,1.41620406068589E+01,1.37030629669396E+01,1.45965058881834E+01,1.51083114246885E+01,1.79541822056473E+01,2.06696566656356E+01,2.17543533833460E+01,3.14386831167626E+01,3.27954111670570E+01,,
MAR,,,,,,,,,,,,,,,,,,,,,,,,,,,,,,,,,,,,,,,,,,,3.48344458237272E+00,1.59613928335607E+00,6.24046855486370E-01,5.21804859415749E+00,9.22562431342302E+00,9.50850548450140E+00,9.08781777113628E+00,1.29049920490738E+01,,
MDA,,,,,,,,,,,,,,,,,,,,,,,,,,,,,,,,,,,,,,7.47379791551105E-01,2.06926093116742E+00,2.58304648364257E+00,2.71705116861256E+00,1.55495346919543E-01,,9.79954367666232E+00,9.79797054309733E+00,1.09358722336465E+01,5.87732091770909E+00,6.64399066780624E+00,5.59022171798713E+00,5.69425050352139E+00,,
MDG,,,,,,,,,,,,,,,,,,,,,,,,,,,,,,,,,,,,,,,,,1.85618429078905E+01,8.71150465525099E+00,1.03382663847780E+01,5.11864503918642E+00,1.27171119894106E+01,8.62115367363415E+00,8.36252189141856E+00,1.59623981951962E+01,1.37130684537550E+01,,,
MDV,,,,,,,,,,,,,,,,,,,,,,,,,,,,,,,0.00000000000000E+00,0.00000000000000E+00,0.00000000000000E+00,0.00000000000000E+00,0.00000000000000E+00,0.00000000000000E+00,0.00000000000000E+00,0.00000000000000E+00,0.00000000000000E+00,0.00000000000000E+00,0.00000000000000E+00,0.00000000000000E+00,0.00000000000000E+00,0.00000000000000E+00,0.00000000000000E+00,0.00000000000000E+00,0.00000000000000E+00,0.00000000000000E+00,0.00000000000000E+00,0.00000000000000E+00,,
MEA,,,,,,,,,,,,,,,,,,,,,,,,,,,,,,,,,,,,,,,,,,,,,,,,1.06344950848972E+01,8.95877856931565E+00,1.09546999525501E+01,,
MIC,,,,,,,,,,,,,,,,,,,,,,,,,,,,,,,,,,,,,,,,,,,2.86710411654983E+00,3.08031636607972E+00,4.86417203449535E+00,5.36844027880265E+00,5.90048436811977E+00,7.47292708212962E+00,6.93798284782763E+00,7.00821914733138E+00,,
MKD,,,,,,,,,,,,,,,,,,,,,,,,,,,,,,,,,,,,,,,,,,,,,,2.67734583414944E+00,2.84758343896441E+00,5.00366375390449E+00,3.67441557387662E+00,,,
MLI,,,,,,,,,,,,,,,,,,,,,,,,,,,,,,,,,,,,,,,,,1.74825174825175E+01,2.24866051163273E+01,1.82976722610450E+01,2.77454062652100E+01,,,1.28239926558653E+01,1.24852767962309E+01,1.62841542839317E+01,1.74863088582660E+01,,
MLT,,,,,,,,,,,,,,,,,,,,,,,,,,,,,,,,,,,,,,,,,,,,1.44315030939297E+01,1.00166970683539E+01,9.23177967735796E+00,9.49048722162076E+00,9.51079161466767E+00,8.66995129011256E+00,9.69773354384457E+00,,
MNA,,,,,,,,,,,,,,,,,,,,,,,,,,,,,,,,,,,,,,,,,,,,,8.98903195305674E+00,1.08638021852522E+01,9.37572333188418E+00,1.01584042708749E+01,7.48866971725578E+00,8.70154703669132E+00,,
MNG,,,,,,,,,,,,,,,,,,,,,,,,,,,,,,,,,5.63214705568024E+00,0.00000000000000E+00,0.00000000000000E+00,1.84111203166713E-02,0.00000000000000E+00,0.00000000000000E+00,0.00000000000000E+00,1.02028333047882E+00,1.70694417584663E+00,1.23677617153264E+00,1.75430994509541E+00,2.99867801786681E-02,,,1.18218244534672E+00,8.15460200497165E-01,0.00000000000000E+00,8.93747899095479E-01,,
MUS,,,,,,,,,,,,,,,,,,,,,,,,,,,,,,,,,,,,,,,,,,,,,,,,,,1.00011601217588E+01,,
MYS,,,,,,,,,,,,,,,,,,,,,,,,,,,,,,,,,,,,,9.06790383804302E-01,1.08609382179707E+00,3.77354528464333E+00,3.73743156689448E+00,3.37810282482804E+00,3.01094048677920E-01,2.64576043466064E+00,3.66602089062902E+00,5.67611941965532E+00,3.56767664159932E-01,3.69569831412475E-01,9.93272276962371E-01,5.63620057526416E-01,4.43392450369027E-01,,
NAC,,,,,,,,,,,,,,,,,,,,,,,,,,,,,,,,3.36683668644978E+00,3.38387895102466E+00,2.97824971898157E+00,3.33814678570299E+00,3.01514304062312E+00,2.63721639780584E+00,9.67141695172091E-01,1.81112479540208E+00,1.26452265560080E+00,1.13699769957418E+00,1.75023488916314E+00,2.01372535048931E+00,2.36930933864633E+00,2.76898096174890E+00,3.05337184126195E+00,2.67868859489886E+00,2.82848595560925E+00,3.69884423987963E+00,4.44284346530409E+00,2.73342070773263E+01,
NAM,,,,,,,,,,,,,,,,,,,,,,,,,,,,,,,,3.67800417134606E+00,3.77821563137336E+00,,,,,,,,1.10222885899752E+01,1.08768601538633E+01,1.16664434660163E+01,1.39181133568140E+01,1.38414693519245E+01,1.37735685502131E+01,1.65220397268776E+01,1.38775676570535E+01,,,,
NER,,,,,,,,,,,,,,,,,,,,,,,,,,,,,,,,,,,,,,,,,,,,,,2.17235418784379E+01,1.66800602888679E+01,2.79772908177090E+01,,,,
NGA,,,,,,,,,,,,,,,,,,,,,,,,,,,,,,,,,,,,,,,,,,,,,0.00000000000000E+00,0.00000000000000E+00,0.00000000000000E+00,0.00000000000000E+00,0.00000000000000E+00,,,
NIC,,,,,,,,,,,,,,,,,,,,,,,,,,,,,,,6.76086147092830E-01,1.02245073036364E+00,7.38873014058750E+00,1.19226320476861E+01,1.08201623092458E+01,1.44165626605976E+01,1.13083412293303E+01,1.69361500483469E+01,7.94988095301696E+00,2.03688070417616E+01,1.21019990907699E+01,7.56107018224118E+00,3.97136220289855E+00,2.84170983872919E+00,3.16643413816942E+00,5.27222605099931E+00,6.63945407981028E+00,5.79637108520937E+00,6.61114206296343E+00,5.42706794098307E+00,,
NLD,,,,,,,,,,,,,,,,,,,,,,,,,,,,,,,,,,,,2.62454654600380E+00,2.85594018435547E+00,3.07253591919634E+00,3.29476106312736E+00,3.05658131363878E+00,3.69047764140940E+00,4.27597696814828E+00,3.56821058502993E+00,3.59342811104086E+00,3.64282832358281E+00,3.31636955249348E+00,3.14982259356759E+00,3.13175936971540E+00,3.28785580551434E+00,4.13591352215764E+00,,
NOC,,,,,,,,,,,,,,,,,,,,,,,,,,,,,,,,,,3.28804516409207E-01,0.00000000000000E+00,1.57223548593723E-01,1.87529301453352E-01,2.21517092737832E-01,7.97986618378246E-02,1.04999125007292E-01,,,4.74710430083726E+00,5.48817882111570E+00,3.72294939121751E+00,3.90427909785844E+00,1.25433019776157E+01,8.43781556911913E+00,1.27451830376089E+01,,,
NOR,,,,,,,,,,,,,,,,,,,,,,,,,,,,,,,,,,,,,,,,,3.98675910725413E+00,3.85235911338901E+00,5.24789169350329E+00,4.67780142330074E+00,4.98990750964984E+00,5.04384676968159E+00,5.34058993873601E+00,5.33250952357257E+00,5.46244204491551E+00,5.22849582427985E+00,,
NZL,,,,,,,,,,,,,,,,,,,,,,,,,,,,,,,,,,,,,,,,,,3.50649958261820E+00,4.30355230935247E+00,5.67134998488019E+00,6.38410713322675E+00,6.17007696569857E+00,6.20924718435092E+00,6.70681631535724E+00,,,,
OEC,,,,,,,,,,,,,,,,,,,,,,,,,,,,,,,,,,,,5.30940296164513E+00,4.03812619918375E+00,3.43993568818944E+00,4.36227773367990E+00,4.85980893438396E+00,4.87748948271908E+00,5.03509645273973E+00,5.13148501466864E+00,5.67134998488019E+00,5.61504105765001E+00,5.36726140197047E+00,5.34058993873601E+00,5.33250952357257E+00,5.29368530502194E+00,5.05561602060660E+00,,
OED,,,,,,,,,,,,,,,,,,,,,,,,,,,,,,,,,,,,5.30940296164513E+00,4.03812619918375E+00,3.43993568818944E+00,4.36227773367990E+00,4.85980893438396E+00,4.98057460782785E+00,5.79421593733118E+00,5.24789169350329E+00,5.82688017268558E+00,5.87187177356577E+00,5.43559859726552E+00,5.34058993873601E+00,5.67400002266880E+00,5.29368530502194E+00,5.29927665202486E+00,,
OMN,,,,,,,,,,,,,,,,,,,,,,,,,,,,,,,,2.67515002530547E-01,2.21797794344156E-01,3.28804516409207E-01,5.07735499671465E-01,3.14447097187445E-01,1.87529301453352E-01,2.21517092737832E-01,7.97986618378246E-02,1.04999125007292E-01,3.49912521869533E-02,0.00000000000000E+00,,,,,,,,,,
PAK,,,,,,,,,,,,,,,,,,,,,,,,,,,,,,,0.00000000000000E+00,0.00000000000000E+00,0.00000000000000E+00,0.00000000000000E+00,0.00000000000000E+00,0.00000000000000E+00,0.00000000000000E+00,0.00000000000000E+00,0.00000000000000E+00,0.00000000000000E+00,0.00000000000000E+00,0.00000000000000E+00,0.00000000000000E+00,0.00000000000000E+00,0.00000000000000E+00,0.00000000000000E+00,0.00000000000000E+00,7.51171785316921E+00,2.26039192756837E+01,1.80530947781511E+01,1.72170405073148E+01,
PAN,,,,,,,,,,,,,,,,,,,,,,,,,,,,,,,6.75186882083434E-01,1.73680694722779E+00,1.49455646460091E+00,1.43454125865403E+00,1.95260347129506E+00,5.45820166618788E-01,1.42074284554496E-01,1.65791655153357E-01,7.91388333404246E-01,5.28147389969294E-01,6.23125754566343E-01,0.00000000000000E+00,,,,,,,,,,
PER,,,,,,,,,,,,,,,,,,,,,,,,,,,,,,,3.70401707232234E-01,1.28468653648510E-01,1.58133506156837E+00,5.37380974827944E-01,2.62967589244626E-02,8.34845735027223E+00,8.84661796571903E+00,9.59361021371769E+00,6.25258934606746E+00,4.93958507485371E+00,4.54218884803958E+00,4.00658254304779E+00,2.33209092650157E+00,2.05742408026658E+00,1.92673858679444E+00,3.62499212980570E+00,2.47346123976659E+00,3.12173786046122E+00,6.57719670700762E+00,6.92447713942892E+00,,
PHL,,,,,,,,,,,,,,,,,,,,,,,,,,,,,,,0.00000000000000E+00,0.00000000000000E+00,0.00000000000000E+00,0.00000000000000E+00,,,,,,,,,,1.54819967170137E+00,7.67455471018894E-01,2.09357084357084E+00,1.95838804927851E+00,7.59433200148468E+00,4.19058530707386E+00,1.88853318403552E+00,,
PNG,,,,,,,,,,,,,,,,,,,,,,,,,,,,,,,4.56020620062820E-01,4.63142714515503E-01,3.65156862585278E-01,1.12170153283221E+00,0.00000000000000E+00,0.00000000000000E+00,0.00000000000000E+00,0.00000000000000E+00,0.00000000000000E+00,0.00000000000000E+00,0.00000000000000E+00,0.00000000000000E+00,0.00000000000000E+00,,,,,,,,,
POL,,,,,,,,,,,,,,,,,,,,,,,,,,,,,,,,,,,,,,,,,,7.84094555760279E+00,6.90164973952403E+00,7.45207562440411E+00,8.15524297050325E+00,7.89917097254425E+00,7.64478520666311E+00,7.25500516405816E+00,7.40819883408012E+00,7.03113774699565E+00,,
PRT,,,,,,,,,,,,,,,,,,,,,,,,,,,,,,,,,,,,7.12971673204123E+00,6.95686074765866E+00,8.10756788424023E+00,8.71739672296221E+00,8.10893185473873E+00,7.35041160175940E+00,7.81571650611552E+00,7.87485562649510E+00,7.38717807635647E+00,1.97663825188776E+00,1.93249688868693E+00,1.80274170510561E+00,1.75813475016168E+00,1.43374503786846E+00,1.42856531086522E+00,,
PRY,,,,,,,,,,,,,,,,,,,,,,,,,,,,,,,,,,,2.43747187594772E-01,2.34116315145107E-01,2.44999669852577E-01,1.73451133030109E-01,2.23725857089383E-01,8.62229039744259E+00,6.19626902143101E-01,6.36738624769230E-01,4.34174230648836E-01,1.95792371817508E-01,2.78042137313250E+00,3.85894319166178E+00,5.90048436811977E+00,6.50414284483935E+00,7.51881149099776E+00,8.50983028989348E+00,,
QAT,,,,,,,,,,,,,,,,,,,,,,,,,,,,,,,,,,,,,,,,,,,,,1.55392100336927E+01,1.64251757095879E+01,1.49673332911198E+01,1.66956822332581E+01,1.83067049862940E+01,1.61986991837043E+01,,
ROM,,,,,,,,,,,,,,,,,,,,,,,,,,,,,,,,,,,,,,,,,,,1.16349218823899E+01,9.95383065329071E+00,1.21917630466105E+01,1.15113039965815E+01,1.43033134938762E+01,1.33635605210399E+01,7.97185266634474E+00,,,
RUS,,,,,,,,,,,,,,,,,,,,,,,,,,,,,,,,,,,,,,,,,,,6.93085533539833E-01,6.45003438003457E-01,8.67313440596874E-01,8.55866754682540E+00,3.44065536292627E+00,1.49756180465676E+01,7.17275366232363E+00,9.53221755241103E+00,,
RWA,,,,,,,,,,,,,,,,,,,,,,,,,,,,,,,0.00000000000000E+00,0.00000000000000E+00,0.00000000000000E+00,,,,,,,,,,,,,,,,,,,
SAS,,,,,,,,,,,,,,,,,,,,,,,,,,,,,,,1.19722888594938E+00,9.91297842179871E-01,6.60490501103714E-01,4.60541192432351E-01,3.39865866271445E-01,3.47610396869760E-01,3.24847250509165E-01,4.06075168237474E-01,1.09459321861318E+00,,,7.55604223793000E+00,7.34154651114212E+00,8.26884275922990E+00,8.13418332719286E+00,7.88623661068315E+00,7.08032111113862E+00,8.50113054065264E+00,9.72690828456485E+00,9.54694817969404E+00,,
SDN,,,,,,,,,,,,,,,,,,,,,,,,,,,,,,,,,,,,,,,0.00000000000000E+00,0.00000000000000E+00,,,,,,,,,,,,
SEN,,,,,,,,,,,,,,,,,,,,,,,,,,,,,,,,,,,,,,,,0.00000000000000E+00,0.00000000000000E+00,0.00000000000000E+00,,,,,,,,,,
SGP,,,,,,,,,,,,,,,,,,,,,,,,,,,,,,,0.00000000000000E+00,0.00000000000000E+00,0.00000000000000E+00,0.00000000000000E+00,0.00000000000000E+00,0.00000000000000E+00,0.00000000000000E+00,0.00000000000000E+00,0.00000000000000E+00,0.00000000000000E+00,0.00000000000000E+00,0.00000000000000E+00,0.00000000000000E+00,0.00000000000000E+00,0.00000000000000E+00,0.00000000000000E+00,0.00000000000000E+00,0.00000000000000E+00,0.00000000000000E+00,0.00000000000000E+00,,
SLE,,,,,,,,,,,,,,,,,,,,,,,,,,,,,,,,,,,,,,,,3.11386123467580E+01,3.43139472584175E+01,2.01167884161502E+01,2.38656613684106E+01,1.94415027518036E+01,1.79160106044507E+01,1.21011732254282E+01,1.01298731454743E+01,1.29875782271029E+01,1.63931660188880E+01,1.83482504981952E+01,,
SLV,,,,,,,,,,,,,,,,,,,,,,,,,,,,,,,,,,,,,,,,,,,2.73486919172198E+01,2.19494144791259E+01,2.69526462395543E+01,5.29988370161156E+00,9.89264016423003E+00,1.11171521776455E+01,1.48180729663026E+01,1.80064167362546E+01,,
SMR,,,,,,,,,,,,,,,,,,,,,,,,,,,,,,,,,,,,,,,,,,,1.65273943903985E+01,7.27779171411969E+00,1.23120305019175E+01,6.81768923724975E+00,5.72331887608194E+00,,,,,
SRB,,,,,,,,,,,,,,,,,,,,,,,,,,,,,,,,,,,,,,,,,,,,,,,,1.42149121548236E+00,1.17555840300945E+00,9.20779688987901E-01,,
SVK,,,,,,,,,,,,,,,,,,,,,,,,,,,,,,,,,,,,,,,,,,,,1.24945503464942E+01,1.04269301870905E+01,1.24880284515006E+01,1.13265829985917E+01,9.49537028180390E+00,8.48037620844026E+00,1.35847038563522E+01,,
SVN,,,,,,,,,,,,,,,,,,,,,,,,,,,,,,,,,1.33976420150054E+00,8.78959897454679E-01,2.94075863048729E+00,2.70397921832566E+00,2.61465471797575E+00,2.74255912238108E+00,3.33333333333333E+00,3.50233017935320E+00,2.84998244304063E+00,2.63851323843942E+00,2.76087836935146E+00,3.00535388256523E+00,2.41381123350998E+00,2.60795684112033E+00,2.51006701796899E+00,2.39718366988374E+00,2.80447991172121E+00,2.90794604382623E+00,,
SWZ,,,,,,,,,,,,,,,,,,,,,,,,,,,,,,,,,,,,,,,,,,2.10881365490866E+01,3.45096937916034E+01,1.34907305909017E+00,,,,,,,,
SYC,,,,,,,,,,,,,,,,,,,,,,,,,,,,,,,,,,,,,,,,0.00000000000000E+00,,1.96502259775987E-02,1.65700082850041E-02,1.63934426229508E+00,1.56546762589928E+00,6.89974910003273E-01,3.59696056831977E-02,2.86720957941141E-01,0.00000000000000E+00,6.17956036841950E-02,,
TGO,,,,,,,,,,,,,,,,,,,,,,,,,,,,,,,,,,,,,,,,,,,,,1.86165691797699E+01,1.27365928782128E+01,1.88299159510544E+01,1.17158758949833E+01,1.89277727197923E+01,1.25393486638075E+01,,
THA,,,,,,,,,,,,,,,,,,,,,,,,,,,,,,,,,,,,,,,,,,,,5.87598138878141E+00,6.96559155906377E+00,5.45608678190271E+00,4.10958501423625E+00,2.76286998520264E+00,3.87100670330334E+00,2.74873684937049E+00,,
TJK,,,,,,,,,,,,,,,,,,,,,,,,,,,,,,,,,,,,,,,0.00000000000000E+00,0.00000000000000E+00,2.46867285397331E-01,1.52207627659006E-01,,1.05655587419491E+01,2.96621084489400E+01,,,,,,,
TTO,,,,,,,,,,,,,,,,,,,,,,,,,,,,,,,,,,1.42694746918751E+00,0.00000000000000E+00,0.00000000000000E+00,,,,,,1.30508193343233E+00,1.21215147969521E+00,1.22902612554759E+00,1.43334319901907E+00,1.37720875169904E+00,1.90795761782974E+01,8.43781556911913E+00,2.08473625140292E+01,,,
TUN,,,,,,,,,,,,,,,,,,,,,,,,,,,,,,,5.79150579150579E+00,8.79853169560920E+00,7.41835065688809E+00,7.49454397198839E+00,7.15912421926086E+00,7.21519510582011E+00,7.48450867701294E+00,2.27091356996634E+00,2.81954279432211E+00,5.05105574137652E+00,,,,,1.08083270068326E+01,1.05043973807502E+01,9.52582235034534E+00,9.68231345685256E+00,1.08809936835415E+01,1.25453077168667E+01,,
TUR,,,,,,,,,,,,,,,,,,,,,,,,,,,,,,,,,,,,,,,,,,,,,,,6.29228710219690E-01,7.87769739246535E+00,3.78808875381121E+00,5.37005747976988E+00,,
UGA,,,,,,,,,,,,,,,,,,,,,,,,,,,,,,,,,,,,,,,,0.00000000000000E+00,0.00000000000000E+00,0.00000000000000E+00,0.00000000000000E+00,0.00000000000000E+00,2.43264202860315E+00,3.69775244017289E-01,1.37800537120437E+00,7.57817686499319E-01,4.26689483201589E-01,1.43646849445671E+00,,
UKR,,,,,,,,,,,,,,,,,,,,,,,,,,,,,,,,,,,,,,,,,9.90781443853895E-01,1.47070820283820E+00,2.95413573964469E+00,4.20246463213956E+00,7.76898520117997E+00,4.31175069898626E+00,4.23173184547281E+00,5.47878210471994E+00,3.47683860236708E+00,1.73287185096511E+00,,
UMC,,,,,,,,,,,,,,,,,,,,,,,,,,,,,,,,,,,,,,,,,,,2.88751474067602E+00,5.11872274222755E+00,6.75417260558270E+00,8.55866754682540E+00,5.84650915239064E+00,7.41237730765375E+00,5.60651753950069E+00,6.03286663196439E+00,,
URY,,,,,,,,,,,,,,,,,,,,,,,,,,,,,,,1.25891733109526E+00,1.04127224536161E+00,1.15885550199979E+00,1.14754098360656E+00,0.00000000000000E+00,3.25222837870393E-01,3.18863526410696E-01,5.38979465050288E-01,5.12006922910507E-01,9.87304103569591E-02,1.02289930579234E-01,0.00000000000000E+00,0.00000000000000E+00,0.00000000000000E+00,0.00000000000000E+00,0.00000000000000E+00,0.00000000000000E+00,0.00000000000000E+00,0.00000000000000E+00,6.57669482461333E+00,,
USA,,,,,,,,,,,,,,,,,,,,,,,,,,,,,,,,,,,,,,,,,,1.55436271128837E+00,1.71120551655629E+00,2.11942736769700E+00,2.10803058109436E+00,2.66624209786935E+00,2.00954317897372E+00,2.33917894512065E+00,4.45740549494495E+00,5.55912375550604E+00,2.73342070773263E+01,
VEN,,,,,,,,,,,,,,,,,,,,,,,,,,,,,,,1.18540812005701E+00,1.40348688519477E+00,1.28533805672734E+00,1.64553475907507E+00,9.47263068950490E-01,1.56040606523053E+00,6.21079651180502E-01,1.05542538922363E+00,2.68769836767793E+00,1.24725161292282E+00,2.06360777458654E+00,1.29699974360933E+00,1.92717311971560E+00,1.55930585002155E+00,1.96221457616087E+00,2.76282719687962E+00,,,,,,
VUT,,,,,,,,,,,,,,,,,,,,,,,,,,,,,,,0.00000000000000E+00,,,,,,0.00000000000000E+00,0.00000000000000E+00,0.00000000000000E+00,0.00000000000000E+00,,,,,,,,,,,,
WBG,,,,,,,,,,,,,,,,,,,,,,,,,,,,,,,,,,,,,,,,,,,,,,,,1.06344950848972E+01,1.28562822974544E+00,,,
WLD,,,,,,,,,,,,,,,,,,,,,,,,,,,,,,,,,,,,,,,,,,,4.17616126205083E+00,4.93270691435328E+00,6.01255558341596E+00,5.48001128723164E+00,6.00702777693390E+00,6.70681631535724E+00,6.31848665118284E+00,5.98660271624768E+00,,
YEM,,,,,,,,,,,,,,,,,,,,,,,,,,,,,,,0.00000000000000E+00,1.05027872781623E+00,1.40017396100728E-01,1.70088275815148E-03,0.00000000000000E+00,0.00000000000000E+00,0.00000000000000E+00,0.00000000000000E+00,0.00000000000000E+00,0.00000000000000E+00,,,,,,,,,,,,
ZAF,,,,,,,,,,,,,,,,,,,,,,,,,,,,,,,,,,,,,,,,,2.21673192333339E+00,2.08593928930075E+00,4.35673186143371E+00,6.00178016722520E+00,6.75417260558270E+00,6.13114070898823E+00,5.84650915239064E+00,6.31156875848626E+00,4.47412401413809E+00,4.38115990529126E+00,,
ZAR,,,,,,,,,,,,,,,,,,,,,,,,,,,,,,,,,,,,,,,,0.00000000000000E+00,0.00000000000000E+00,0.00000000000000E+00,,,,,,,,,,
ZMB,,,,,,,,,,,,,,,,,,,,,,,,,,,,,,,,,,,,,,,2.01269546369407E-01,5.90717299578059E-01,,1.61938193300818E+01,7.89928524130680E-01,2.62117073015819E+00,3.09221938853296E+00,6.77224265967215E-01,1.95775767208705E+00,6.80103658138469E+00,,,,
ZWE,,,,,,,,,,,,,,,,,,,,,,,,,,,,,,,,,,0.00000000000000E+00,0.00000000000000E+00,0.00000000000000E+00,0.00000000000000E+00,0.00000000000000E+00,,,,,,,,,,,,,,
