"Country Code",1960,1961,1962,1963,1964,1965,1966,1967,1968,1969,1970,1971,1972,1973,1974,1975,1976,1977,1978,1979,1980,1981,1982,1983,1984,1985,1986,1987,1988,1989,1990,1991,1992,1993,1994,1995,1996,1997,1998,1999,2000,2001,2002,2003,2004,2005,2006,2007,2008,2009,2010,2011ABW,,,,,,,,,,,,,,,,,,,,,,,,,,,,,,,,,,,,,,,,,9.88817598533000E+01,,,,,,,,,9.92673900000000E+01,,
AFG,,,,,,,,,,,,,,,,,,,,4.57960161921035E+01,,,,,,,,,,,,,,,,,,,,,,,,,,,,,,,,
AGO,,,,,,,,,,,,,,,,,,,,,,,,,,,,,,,,,,,,,,,,,,8.37495032277000E+01,,,,,,,,8.08332300000000E+01,,
ALB,,,,,,,,,,,,,,,,,,,,,,,,,,,,,,,,,,,,,,,,,,9.93684555868000E+01,,,,,,,9.85371249833000E+01,,,
ARE,,,,,,,,,,,,,,,,6.55117430554723E+01,,,,,,,,,,8.10138307494899E+01,,,,,,,,,,,,,,,,,,,,9.36251496488000E+01,,,,,,
ARG,,,,,,,,,,,,,,,,,,,,,9.64592191149829E+01,,,,,,,,,,,9.80654903516231E+01,,,,,,,,,,9.87078978340000E+01,,,,,,,,9.89788200000000E+01,,
ARM,,,,,,,,,,,,,,,,,,,,,,,,,,,,,,9.99093670563411E+01,,,,,,,,,,,,9.97523451119000E+01,,,,,,,,9.97042800000000E+01,,
ATG,,,,,,,,,,,,,,,,,,,,,,,,,,,,,,,,,,,,,,,,,,,,,,,,,9.84000000000000E+01,,,
AZE,,,,,,,,,,,,,,,,,,,,,,,,,,,,,,,,,,,,,,,,9.98703356865000E+01,,,,,,,,1.00000000000000E+02,,,,
BDI,,,,,,,,,,,,,,,,,,,,4.09319922702615E+01,,,,,,,,,,,5.94978411441936E+01,,,,,,,,,,7.67800212540000E+01,,,,,,,,,7.68996400000000E+01,,
BEN,,,,,,,,,,,,,,,,,,,,4.57106432960747E+01,,,,,,,,,,,,,5.51302190988012E+01,,,,,,,,,,5.92050798763000E+01,,,,,,,6.48825900000000E+01,,
BFA,,,,,,,,,,,,,,,,2.23771262501068E+01,,,,,,,,,,,,,,,,2.67888010023056E+01,,,,,2.54782620676352E+01,,,,,,,3.83810865973000E+01,,4.03798051638000E+01,,4.67337418289000E+01,,,,
BGD,,,,,,,,,,,,,,,,,,,,,,4.43621591389310E+01,,,,,,,,,,5.17367348835562E+01,,,,,,,,,,6.71638096639000E+01,,,,,,,,7.41215600000000E+01,,
BGR,,,,,,,,,,,,,,,,,,,,,,,,,,,,,,,,,,,,,,,,,,9.83096698812000E+01,,,,,,,,9.75422200000000E+01,,
BHR,,,,,,,,,,,,,,,,,,,,,,8.96903828548626E+01,,,,,,,,,,9.72586659301201E+01,,,,,,,,,,9.68270792375000E+01,,,,,,,,1.00000000000000E+02,,
BIH,,,,,,,,,,,,,,,,,,,,,,,,,,,,,,,,,,,,,,,,,9.97482014388000E+01,,,,,,,,,9.97125100000000E+01,,
BLR,,,,,,,,,,,,,,,,,,,,,,,,,,,,,,9.97319756454825E+01,,,,,,,,,,9.97568742848000E+01,,,,,,,,,,9.97203600000000E+01,,
BLZ,,,,,,,,,,,,,,,,,,,,,,,,,,,,,,,,7.61361605813330E+01,,,,,,,,,,,,,,,,,,,,
BOL,,,,,,,,,,,,,,,,,9.14681441684460E+01,,,,,,,,,,,,,,,,9.63184059398234E+01,,,,,,,,,9.85492912115000E+01,,,,,,9.97536094866000E+01,9.93902301025000E+01,,,
BRA,,,,,,,,,,,,,,,,,,,,,8.25567642680430E+01,,,,,,,,,,,,,,,,,,,,9.26540139687000E+01,,,,9.57838940586000E+01,,9.67970047583000E+01,9.70568754060000E+01,9.71804635948000E+01,,,
BRN,,,,,,,,,,,,,,,,,,,,,,9.40643033800495E+01,,,,,,,,,,9.81069042316258E+01,,,,,,,,,,9.88743028159000E+01,,,,,,,,9.97250100000000E+01,,
BTN,,,,,,,,,,,,,,,,,,,,,,,,,,,,,,,,,,,,,,,,,,,,,,8.00419249466000E+01,,,,,,
BWA,,,,,,,,,,,,,,,,,,,,,,,,,,,,,,,,8.59000678995087E+01,,,,,,,,,,,,9.20833054085000E+01,,,,,,9.37310200000000E+01,,
CAF,,,,,,,,,,,,,,,,5.39904309145661E+01,,,,,,,,,,,,,6.25614481145788E+01,,,,,,,,,,,,7.03309622153000E+01,,,,,,,,,7.21911000000000E+01,,
CHL,,,,,,,,,,,,,,,,,,,,,,,9.61822230393659E+01,,,,,,,,,,9.81564504081787E+01,,,,,,,,,,9.88036364996000E+01,,,,,,9.91145198204000E+01,,,
CHN,,,,,,,,,,,,,,,,,,,,,,,9.52085376229227E+01,,,,,,,,9.69769329466015E+01,,,,,,,,,,9.91984600530000E+01,,,,,,,,,9.94609700000000E+01,,
CIV,,,,,,,,,,,,,,,,,,,,,,,,,,,,,5.99322473326818E+01,,,,,,,,,,5.44031292891158E+01,,7.08285099951000E+01,,,,,,,,,7.21134300000000E+01,,
CMR,,,,,,,,,,,,,,,,,7.95916488193488E+01,,,,,,,,,,,,,,,,,,,,,,,,8.84224480778000E+01,,,,,,,8.94173209657000E+01,,,,
COG,,,,,,,,,,,,,,,,,,,,,,,,,,,,,,,,,,,,,,,,,,,,,,8.68037703513000E+01,,,,,,
COL,,,,,,,,,,,,,,,,,,,,,,,,,,,,,,,,,,8.93774950933854E+01,,,9.63851190077231E+01,,,,,,,,9.75525244040000E+01,9.75170252112000E+01,9.75336598673000E+01,9.74828780264000E+01,9.75466596506000E+01,9.74411289573000E+01,,
COM,,,,,,,,,,,,,,,,,,,,,6.93577267419229E+01,,,,,,,,,,,,,,,,,,,,8.39513325608000E+01,,,,,,,,,8.58040000000000E+01,,
CPV,,,,,,,,,,,,,,,,,,,,,,,,,,,,,,,8.99489749705625E+01,,,,,,,,,,,,,,9.63000000000000E+01,,,,,9.73461600000000E+01,,
CRI,,,,,,,,,,,,,,,,,,,,,,,,,9.67545246554194E+01,,,,,,,,,,,,,,,,9.71974935177000E+01,,,,,,,,,9.77495000000000E+01,,
CUB,,,,,,,,,,,,,,,,,,,,,,,,,,,,,,,,,,,,,,,,,,,9.99574061253000E+01,,,,,,,9.99867300000000E+01,,
CYM,,,,,,,,,,,,,,,,,,,,,,,,,,,,,,,,,,,,,,,,,,,,,,,,9.91423125794000E+01,,,,
CYP,,,,,,,,,,,,,,,,,,,,,,,,,,,,,,,,,9.95799095189733E+01,,,,,,,,,9.97363083164000E+01,,,,,,,,9.98497700000000E+01,,
DOM,,,,,,,,,,,,,,,,,,,,,,8.12573065713862E+01,,,,,,,,,,,,,,,,,,,,,9.29986368478000E+01,,,,,9.46272085860000E+01,,,,
DZA,,,,,,,,,,,,,,,,,,,,,,,,,,,,8.62300899212712E+01,,,,,,,,,,,,,,,9.40575423501000E+01,,,,9.43814797699000E+01,,,,,
EAP,,,,,,,,,,,,,,,,,,,,,,,,,,,,,,,9.65248073045476E+01,,,,,,,,,,9.82125017024000E+01,,,,,,,,,9.88243951518000E+01,,
ECA,,,,,,,,,,,,,,,,,,,,,,,,,,,,,,,9.90857763112423E+01,,,,,,,,,,9.92593522174000E+01,,,,,,,,,9.94170969111000E+01,,
ECU,,,,,,,,,,,,,,,,,,,,,,,9.45548068212326E+01,,,,,,,,9.65757655339041E+01,,,,,,,,,,,9.63793958614000E+01,,,,,,9.52183090430000E+01,,9.68189533239000E+01,,
EGY,,,,,,,,,,,,,,,,,6.30406821839436E+01,,,,,,,,,,7.13806751468622E+01,,,,,,,,,,7.89908726585809E+01,,,,,,,,,9.00791155100000E+01,8.78567963099000E+01,,,,,
ERI,,,,,,,,,,,,,,,,,,,,,,,,,,,,,,,,,,,,,,,,,,,8.62532221380000E+01,,,,,,,9.15906800000000E+01,,
ESP,,,,,,,,,,,,,,,,,,,,,,9.86413335700437E+01,,,,,,,,,,9.95400499871354E+01,,,,,,,,,,,,,,,,9.95800083998000E+01,9.95278203165000E+01,9.96387534819000E+01,,
EST,,,,,,,,,,,,,,,,,,,,,,,,,,,,,,9.98340160094236E+01,,,,,,,,,,,9.97291049260000E+01,,,,,,,,,9.97461500000000E+01,,
ETH,,,,,,,,,,,,,,,,,,,,,,,,,,,,,,,,,,,3.92886737494988E+01,,,,,,,,,,6.22000000000000E+01,,,,5.58847369893000E+01,,,
GAB,,,,,,,,,,,,,,,,,,,,,,,,,,,,,,,,,,9.44075517260304E+01,,,,,,,,,,,9.78000000000000E+01,,,,,9.85623200000000E+01,,
GEO,,,,,,,,,,,,,,,,,,,,,,,,,,,,,,,,,,,,,,,,,,,9.97884809779000E+01,,,,,,,9.97634700000000E+01,,
GHA,,,,,,,,,,,,,,,,,,,,,,,,,,,,,,,,,,,,,,,,,7.59458953157000E+01,,,,,,,,,8.11518800000000E+01,,
GIN,,,,,,,,,,,,,,,,,,,,,,,,,,,,,,,,,,,,,,,,,,,,5.87048832272000E+01,,,,,,6.80573900000000E+01,,
GMB,,,,,,,,,,,,,,,,,,,,,,,,,,,,,,,,,,,,,,,,,6.43404907975000E+01,,,,,,,,,7.09743100000000E+01,,
GNB,,,,,,,,,,,,,,,,,,,,5.96943664864125E+01,,,,,,,,,,,,,,,,,,,,,7.48012443830000E+01,,,,,,,,,7.82161100000000E+01,,
GNQ,,,,,,,,,,,,,,,,,,,,,,,,,,,,,,,,,,,,,,,,,9.47929826366000E+01,,,,,,,,,9.76679900000000E+01,,
GRC,,,,,,,,,,,,,,,,,,,,,,9.90480639830420E+01,,,,,,,,,,9.89884257557979E+01,,,,,,,,,,9.88944585930000E+01,,,,,,,,9.93954200000000E+01,,
GRD,,,,,,,,,,,,,,,,,,,,,,,,,,,,,,,,,,,,,,,,,,,,,9.60000000000000E+01,,,,,,,
GTM,,,,,,,,,,,,,,,,,,,,,,,,,,,,,,,,,,,8.17210602061297E+01,,,,,,,,8.63787806874000E+01,,,,,,,8.87684400000000E+01,,
GUM,,,,,,,,,,,,,,,,,,,,,9.53572632288507E+01,,,,,,,,,,,,,,,,,,,,,,,,,,,,,,,
HIC,,,,,,,,,,,,,,,,,,,,,,,,,,,,,,,9.89317942093177E+01,,,,,,,,,,9.94002963001000E+01,,,,,,,,,9.94802387561000E+01,,
HND,,,,,,,,,,,,,,,,,,,,,,,,,,,,,,,,,,,,,,,,,,8.68909864574000E+01,,,,,,9.26952616284000E+01,,,,
HRV,,,,,,,,,,,,,,,,,,,,,,,,,,,,,,,,9.96661831379999E+01,,,,,,,,,,9.96442597942000E+01,9.96442597900000E+01,9.96442597900000E+01,9.96442597900000E+01,,,,,9.96305200000000E+01,,
HTI,,,,,,,,,,,,,,,,,,,,,,,5.12613536887793E+01,,,,,,,,,,,,,,,,,,,,,,7.52000000000000E+01,,,,,,,
HUN,,,,,,,,,,,,,,,,,,,,,9.94216639330053E+01,,,,,,,,,,,,,,9.90000000000000E+01,,,,,,,,,,9.85000000000000E+01,,,,,9.93233200000000E+01,,
IDN,,,,,,,,,,,,,,,,,,,,,8.95912144680615E+01,,,,,,,,,,9.74022711015005E+01,,,,,,,,,,,,,,9.88670768513000E+01,,9.70274727747000E+01,,9.95374784688000E+01,,,
IND,,,,,,,,,,,,,,,,,,,,,,6.63148719480738E+01,,,,,,,,,,7.35097180715246E+01,,,,,,,,,,8.41922355542000E+01,,,,,8.84118354797000E+01,,,,,
IRN,,,,,,,,,,,,,,,,,7.09001736022726E+01,,,,,,,,,,8.45260831438984E+01,,,,,9.24355041233298E+01,,,,,8.35000000000000E+01,,,,,,,,,9.81099842056000E+01,9.71454820859000E+01,,9.87879166083000E+01,,,
IRQ,,,,,,,,,,,,,,,,,,,,,,,,,,,,,,,,,,,,,,,,,8.89079202176000E+01,,,,,,,,,8.48362300000000E+01,,
ISR,,,,,,,,,,,,,,,,,,,,,,,,9.90545654916404E+01,,,,,,,,,,,,,,,,,,,,,,,,,,,,
ITA,,,,,,,,,,,,,,,,,,,,,,9.96975876594355E+01,,,,,,,,,,,,,,,,,,,,9.98044667782000E+01,,,,,,,,9.98948400000000E+01,,
JAM,,,,,,,,,,,,,,,,,,,,,,,,,,,,,,,,,,,,,,,,8.73113910704000E+01,,,,,,,,,,9.21432600000000E+01,,
JOR,,,,,,,,,,,,,,,,,,,,9.57921446054606E+01,,,,,,,,,,,,,,,,,,,,,,,,9.93287904600000E+01,,9.89309968978000E+01,,9.89520404389000E+01,,,,
KAZ,,,,,,,,,,,,,,,,,,,,,,,,,,,,,,9.96977119084399E+01,,,,,,,,,,9.98160251609000E+01,,,,,,,,,,9.97781200000000E+01,,
KEN,,,,,,,,,,,,,,,,,,,,,,,,,,,,,,,,,,,,,,,,,7.98084717586000E+01,,,,,,,,,9.18805300000000E+01,,
KGZ,,,,,,,,,,,,,,,,,,,,,,,,,,,,,,,,,,,,,,,,9.96507751846000E+01,,,,,,,,,,9.97046278311000E+01,,
KHM,,,,,,,,,,,,,,,,,,,,,,,,,,,,,,,,,,,,,,,8.18462858326184E+01,,,,,,8.79201060052000E+01,,,,8.93836841692000E+01,,,
KWT,,,,,,,,,,,,,,,,7.76922252010724E+01,,,,,8.12881618684782E+01,,,,,9.06923267177818E+01,,,,,,,,,,9.37998850648107E+01,,,,,,,,,,9.96909701477000E+01,9.85221804709000E+01,9.83988402410000E+01,9.85651566702000E+01,,,
LAC,,,,,,,,,,,,,,,,,,,,,,,,,,,,,,,9.13953566677262E+01,,,,,,,,,,9.58335249891000E+01,,,,,,,,,9.68376060559000E+01,,
LAO,,,,,,,,,,,,,,,,,,,,,,,,,,,,,,,,,,,,7.88157944935461E+01,,,,,8.80619684083000E+01,8.25993260320000E+01,,,,8.91874908033000E+01,,,,,,
LBN,,,,,,,,,,,,,,,,,,,,,,,,,,,,,,,,,,,,,,,,,,,,,,,,9.83960577181000E+01,,,,
LBR,,,,,,,,,,,,,,,,,,,,,,,,,6.28272896716995E+01,,,,,,,,,,6.56000000000000E+01,,,,,,,,,,6.88000000000000E+01,,,,,7.03807600000000E+01,,
LBY,,,,,,,,,,,,,,,,,,,,,,,,,9.78520369001318E+01,,,,,,,,,,9.94000000000000E+01,,,,,,,,,,9.98000000000000E+01,,,,,9.99210000000000E+01,,
LIC,,,,,,,,,,,,,,,,,,,,,,,,,,,,,,,6.62316118432758E+01,,,,,,,,,,7.33252849358000E+01,,,,,,,,,7.49651726684000E+01,,
LKA,,,,,,,,,,,,,,,,,,,,,,9.18797654609212E+01,,,,,,,,,,,,,,,,,,,,9.50652884935000E+01,,,,,9.70270818019000E+01,,9.73325060818000E+01,,,
LMC,,,,,,,,,,,,,,,,,,,,,,,,,,,,,,,8.73506086051525E+01,,,,,,,,,,8.54292894638000E+01,,,,,,,,,8.88243653939000E+01,,
LMY,,,,,,,,,,,,,,,,,,,,,,,,,,,,,,,8.58649749805139E+01,,,,,,,,,,8.89573293379000E+01,,,,,,,,,9.08840214540000E+01,,
LSO,,,,,,,,,,,,,,,,,,,,,,,,,,,,,,,,,,,,,,,,,8.48255813953000E+01,,,,,,,,,8.56992700000000E+01,,
LTU,,,,,,,,,,,,,,,,,,,,,,,,,,,,,,9.96411777121878E+01,,,,,,,,,,,,9.96622209565000E+01,,,,,,,,9.97647900000000E+01,,
LVA,,,,,,,,,,,,,,,,,,,,,,,,,,,,,,9.97500511974963E+01,,,,,,,,,,,9.97181818182000E+01,,,,,,,,,9.96649100000000E+01,,
MAC,,,,,,,,,,,,,,,,,,,,,,9.51423856471882E+01,,,,,,,,,,,,,,,,,,,,9.94300861498000E+01,,,,,9.95869935755000E+01,,,,,
MAR,,,,,,,,,,,,,,,,,,,,,,,5.81169225138201E+01,,,,,,,,,,,,7.13849129593810E+01,,,,,,,,,,8.08026685630000E+01,,,,8.58052512789000E+01,8.67286229604000E+01,,
MDA,,,,,,,,,,,,,,,,,,,,,,,,,,,,,,9.97201498511095E+01,,,,,,,,,,,9.94032077583000E+01,,,,,,,,,9.93345000000000E+01,,
MDG,,,,,,,,,,,,,,,,,,,,,,,,,,,,,,,,,,,,,,,,,7.26520394872000E+01,,,,,,,,6.59147839378000E+01,,,
MDV,,,,,,,,,,,,,,,,,,8.41303729006547E+01,,,,,,,,9.48872100446904E+01,,,,,9.80773062363021E+01,,,,,9.80343868290236E+01,,,,,9.80343868290000E+01,,,,,,9.92402185065000E+01,,,,,
MEX,,,,,,,,,,,,,,,,,,,,,9.30871859373289E+01,,,,,,,,,,9.59634567002493E+01,,,,,,,,,,9.67511997213000E+01,,9.79407020371000E+01,,9.75172962756000E+01,9.76442454126000E+01,9.81061221807000E+01,9.81988819122000E+01,9.84097145251000E+01,9.86700263571000E+01,,
MIC,,,,,,,,,,,,,,,,,,,,,,,,,,,,,,,8.87255894230946E+01,,,,,,,,,,9.15368418804000E+01,,,,,,,,,9.36034355081000E+01,,
MKD,,,,,,,,,,,,,,,,,,,,,,,,,,,,,,,,,,,9.91444626846824E+01,,,,,,,,9.89854435790000E+01,,,,,,,9.88672200000000E+01,,
MLI,,,,,,,,,,,,,,,,,2.66656264034039E+01,,,,,,,,,,,,,,,,,,,,,,3.22511811857084E+01,,,,,3.27000000000000E+01,,,4.73799663180000E+01,,,,,
MLT,,,,,,,,,,,,,,,,,,,,,,,,,,9.74337623012869E+01,,,,,,,,,,9.43650655021834E+01,,,,,,,,,,9.74597627768000E+01,,,,,,
MMR,,,,,,,,,,,,,,,,,,,,,,,,8.85658020505083E+01,,,,,,,,,,,,,,,,,9.56981019055000E+01,,,,,,,,,9.60553600000000E+01,,
MNA,,,,,,,,,,,,,,,,,,,,,,,,,,,,,,,8.44593712448493E+01,,,,,,,,,,9.00698295322000E+01,,,,,,,,,9.29399847865000E+01,,
MNG,,,,,,,,,,,,,,,,,,,,,,,,,,,,,,,,,,,,,,,,,9.69986075194000E+01,,,,,,,,,9.45757400000000E+01,,
MOZ,,,,,,,,,,,,,,,,,,,,,6.39541762132889E+01,,,,,,,,,,,,,,,,,5.94527008388967E+01,,,,,,7.43605483937000E+01,,,,,,7.80888600000000E+01,,
MRT,,,,,,,,,,,,,,,,,,,,,,,,,,,,,,,,,,,,,,,,,6.77326544041000E+01,,,,,,,,,7.08747800000000E+01,,
MUS,,,,,,,,,,,,,,,,,,,,,,,,,,,,,,,9.06955682869687E+01,,,,,,,,,,9.37218383899000E+01,,,,,,,,,9.55407500000000E+01,,
MWI,,,,,,,,,,,,,,,,,,,,,,,,,,,,7.04406530341332E+01,,,,,,,,,,,8.20912292069703E+01,,,,,,,,,,,8.68867800000000E+01,,
MYS,,,,,,,,,,,,,,,,,,,,,8.94959149648830E+01,,,,,,,,,,,9.59064384711972E+01,,,,,,,,,9.72081430435000E+01,,,,,,,,,9.84399900000000E+01,,
NAM,,,,,,,,,,,,,,,,,,,,,,,,,,,,,,,,8.57027435761096E+01,,,,,,,,,,9.11527402727000E+01,,,,,,,,9.10814600000000E+01,,
NCL,,,,,,,,,,,,,,,,,9.70024914356898E+01,,,,,,,,,,,,,9.86569274269557E+01,,,,,,,9.90486294103556E+01,,,,,,,,,,,,,9.94410100000000E+01,,
NER,,,,,,,,,,,,,,,,,,,,,,,,,,,,,,,,,,,,,,,,,,1.36877577823000E+01,,,,5.24495210942000E+01,,,,,,
NGA,,,,,,,,,,,,,,,,,,,,,,,,,,,,,,,,8.13560277206222E+01,,,,,,,,,,,,7.81279546171000E+01,,,,,,7.81460900000000E+01,,
NIC,,,,,,,,,,,,,,,,,,,,,,,,,,,,,,,,,,,,,,,,,,8.36300004629000E+01,,,,8.51556163738000E+01,,,,,,
NOC,,,,,,,,,,,,,,,,,,,,,,,,,,,,,,,9.61275323255287E+01,,,,,,,,,,9.67231205590148E+01,,,,,,,,,9.78260314292403E+01,,
NPL,,,,,,,,,,,,,,,,,,,,,,4.50961412197272E+01,,,,,,,,,,6.82296262044316E+01,,,,,,,,,,8.06159670069000E+01,,,,,,,,8.69176300000000E+01,,
OEC,,,,,,,,,,,,,,,,,,,,,,,,,,,,,,,9.91277592333614E+01,,,,,,,,,,9.95957565809000E+01,,,,,,,,,9.96160718373000E+01,,
OMN,,,,,,,,,,,,,,,,,,,,,,,,,,,,,,,,,,,,,,,,,,,,9.78650882438000E+01,,,,,9.76341211495000E+01,,,
PAK,,,,,,,,,,,,,,,,,,,,,,4.45028679444429E+01,,,,,,,,,,,,,,,,,6.71493485098241E+01,,,,,,,7.66517188896000E+01,7.91021760238000E+01,,7.94200497100000E+01,,,
PAN,,,,,,,,,,,,,,,,,,,,,9.59275022438403E+01,,,,,,,,,,9.53938895624195E+01,,,,,,,,,,9.65305401545000E+01,,,,,,,,,9.66143800000000E+01,,
PER,,,,,,,,,,,,,,,,,,,,,,9.65133328637877E+01,,,,,,,,,,,,9.69854774596430E+01,,,,,,,,,,,9.78030308875000E+01,9.79213538119000E+01,9.85127461720000E+01,9.80132591114000E+01,,,,
PHL,,,,,,,,,,,,,,,,,,,,,9.10633126546435E+01,,,,,,,,,,9.62767339877305E+01,,,,,,,,,,9.44582579436000E+01,,,9.35782967033000E+01,,,,,9.70199488612000E+01,,,
PLW,,,,,,,,,,,,,,,,,,,,,9.41935988731513E+01,,,,,,,,,,,,,,,,,,,,,,,,,,,,,,,
PNG,,,,,,,,,,,,,,,,,,,,,,,,,,,,,,,,,,,,,,,,,6.91337353395000E+01,,,,,,,,,6.47433200000000E+01,,
POL,,,,,,,,,,,,,,,,,,,9.97787363600740E+01,,,,,,,,,,,,,,,,9.98000000000000E+01,,,,,,,,,,9.98000000000000E+01,,,,,9.97833600000000E+01,,
PRI,,,,,,,,,,,,,,,,,,,,,9.30182728952054E+01,,,,,,,,,,9.22239000192421E+01,,,,,,,,,,,,,,8.76000000000000E+01,,,,,8.66969700000000E+01,,
PRK,,,,,,,,,,,,,,,,,,,,,,,,,,,,,,,,,,,,,,,,,,,,,,,,,9.99995982181000E+01,,,
PRT,,,,,,,,,,,,,,,,,,,,,,9.76643183751271E+01,,,,,,,,,,9.91424576170266E+01,,,,,,,,,,,,,,,,,,9.96813900000000E+01,,
PRY,,,,,,,,,,,,,,,,,,,,,,,9.01732852452235E+01,,,,,,,,,,9.58567463642144E+01,,,,,,,,,,,,,,,9.88097200273000E+01,,,,
QAT,,,,,,,,,,,,,,,,,,,,,,,,,,,8.85273028130171E+01,,,,,,,,,,,9.41227596250969E+01,,,,,,,9.48858785819000E+01,,,9.90951597541000E+01,9.53186146704000E+01,9.77018332896000E+01,,
ROM,,,,,,,,,,,,,,,,,,,,,,,,,,,,,,,,,9.91800701944274E+01,,,,,,,,,,9.77442287445000E+01,,,,,,,9.72467900000000E+01,,
RUS,,,,,,,,,,,,,,,,,,,,,,,,,,,,,,9.96910052826016E+01,,,,,,,,,,,,,9.96790829692000E+01,,,,,,,9.96283900000000E+01,,
RWA,,,,,,,,,,,,,,,,,,,5.96561987464164E+01,,,,,,,,,,,,,7.48965415900000E+01,,,,,,,,,7.85301540425000E+01,,,,,,,,,7.70242100000000E+01,,
SAS,,,,,,,,,,,,,,,,,,,,,,,,,,,,,,,7.05547315055582E+01,,,,,,,,,,8.02401587710000E+01,,,,,,,,,8.52027566352000E+01,,
SAU,,,,,,,,,,,,,,,,,,,,,,,,,,,,,,,,,9.39633067342233E+01,,,,,,,,9.80742834615000E+01,,,,9.69530481570000E+01,,,,,9.86748700000000E+01,,
SDN,,,,,,,,,,,,,,,,,,,,,,,,,,,,,,,,,,,,,,,,,8.46175762864000E+01,,,,,,,,,8.90632500000000E+01,,
SEN,,,,,,,,,,,,,,,,,,,,,,,,,,,,,4.91273042170233E+01,,,,,,,,,,,,,,5.84850752226000E+01,,,,5.81251673394000E+01,,,7.42033494923000E+01,,
SGP,,,,,,,,,,,,,,,,,,,,,9.64087847263741E+01,,,,,,,,,,9.88551208221143E+01,,,,,,,,,,9.94099947178000E+01,,,,,,,,,9.97262400000000E+01,,
SLB,,,,,,,,,,,,,,,,,,,,,,,,,,,,,,,,,,,,,,,,9.00000000000000E+01,,,,,,,,,,,,
SLE,,,,,,,,,,,,,,,,,,,,,,,,,,,,,,,,,,,,,,,,,,,,,5.96142487673000E+01,,,,,6.76401600000000E+01,,
SLV,,,,,,,,,,,,,,,,,,,,,,,,,,,,,,,,,8.49452558308497E+01,,,,,,,,,,,,,,9.43968683096000E+01,9.32192216724000E+01,9.54050082184000E+01,9.47080481837000E+01,,
SRB,,,,,,,,,,,,,,,,,,,,,,,,,,,,,,,,,,,,,,,,,,,,9.93942691684000E+01,,,,,,,,
SSA,,,,,,,,,,,,,,,,,,,,,,,,,,,,,,,7.27706059344911E+01,,,,,,,,,,7.56228617641000E+01,,,,,,,,,7.66806100567000E+01,,
STP,,,,,,,,,,,,,,,,,,,,,,9.08198866114261E+01,,,,,,,,,,9.58085404270214E+01,,,,,,,,,,9.59739934984000E+01,,,,,,,,9.48578400000000E+01,,
SUR,,,,,,,,,,,,,,,,,,,,,,,,,,,,,,,,,,,,,,,,,,,,,9.56158830902000E+01,,,,9.93758562947000E+01,,,
SVN,,,,,,,,,,,,,,,,,,,,,,,,,,,,,,,,9.97369664837762E+01,,,,,,,,,,,,,9.98000000000000E+01,,,,,9.98010200000000E+01,,
SWZ,,,,,,,,,,,,,,,,,7.60830814539254E+01,,,,,,,,,,8.30864928909953E+01,,,,,,,,,,,,,,8.69812409449000E+01,,,,,,,,,9.19329600000000E+01,,
SYC,,,,,,,,,,,,,,,,,,,,,,,,,,,,9.68068645379097E+01,,,,,,,9.84939759036145E+01,,,,,,,,9.87706025399000E+01,,,,,,9.87706025400000E+01,,,
SYR,,,,,,,,,,,,,,,,,,,,,,8.88319841400958E+01,,,,,,,,,,,,,,,,,,,,,9.71440654446000E+01,,9.46073103476000E+01,,,,,9.58143100000000E+01,,
TCD,,,,,,,,,,,,,,,,,,,,,,,,,,,,,,,,,,2.62462300000000E+01,,,,,,,5.56861958724000E+01,,,,5.37082314588000E+01,,,,,5.35170600000000E+01,,
TGO,,,,,,,,,,,,,,,,,,,,,,,,,,,,,,,,,,,,,,,,,8.36543626362000E+01,,,,,,8.48553178482000E+01,,,,,
THA,,,,,,,,,,,,,,,,,,,,,9.75708150491893E+01,,,,,,,,,,,,,,,,,,,,9.80998908526000E+01,,,,,9.82168055564000E+01,,,,,,
TJK,,,,,,,,,,,,,,,,,,,,,,,,,,,,,,9.97364532270721E+01,,,,,,,,,,,9.98444280413000E+01,,,,,,,,,9.98551200000000E+01,,
TKM,,,,,,,,,,,,,,,,,,,,,,,,,,,,,,,,,,,,9.98079070493917E+01,,,,,,,,,,,,,,9.97780100000000E+01,,
TON,,,,,,,,,,,,,,,,,9.98410535876476E+01,,,,,,,,,,,,,,,,,,,,9.92652239557121E+01,,,,,,,,,,9.93021632938000E+01,,,,,
TTO,,,,,,,,,,,,,,,,,,,,,9.91950360556767E+01,,,,,,,,,,9.93000000000000E+01,,,,,,,,,,,,,,9.95000000000000E+01,,,,,9.95387400000000E+01,,
TUN,,,,,,,,,,,,,,,,,,,,,,,,,8.57445695195417E+01,,,,,,,,,,,,,,,,,,,,9.63950143816000E+01,,,,9.81343050814000E+01,,,
TUR,,,,,,,,,,,,,,,,9.07540529670762E+01,,,,,9.36219799754493E+01,,,,,9.56840391351613E+01,,,,,9.65707659818955E+01,,,,,,,,,,,,,,9.80244433283000E+01,9.83609271523000E+01,9.83659574468000E+01,9.85845588235000E+01,,9.90189566755000E+01,,
TZA,,,,,,,,,,,,,,,,,,,,,,,,,,,,,8.62043178455612E+01,,,,,,,,,,,,,,8.09171801804000E+01,,,,,,,7.84711100000000E+01,,
UGA,,,,,,,,,,,,,,,,,,,,,,,,,,,,,,,,7.72238836086201E+01,,,,,,,,,,,8.59575765008000E+01,,,,,,,,8.96351881401000E+01,
UKR,,,,,,,,,,,,,,,,,,,,,,,,,,,,,,,,,,,,,,,,,,9.97762383628000E+01,,,,,,,,9.97462600000000E+01,,
UMC,,,,,,,,,,,,,,,,,,,,,,,,,,,,,,,9.42387157731855E+01,,,,,,,,,,9.81732395687000E+01,,,,,,,,,9.88512882387000E+01,,
URY,,,,,,,,,,,,,,,,9.77408944213923E+01,,,,,,,,,,9.82630468815092E+01,,,,,,,,,,,9.81531737919853E+01,,,,,,,,,,9.83121060639000E+01,9.84888003982000E+01,9.86277379993000E+01,9.81412639405000E+01,,
UZB,,,,,,,,,,,,,,,,,,,,,,,,,,,,,,,,,,,,,,,,,9.93797883984000E+01,,,,,,,,,9.98827600000000E+01,,
VEN,,,,,,,,,,,,,,,,,,,,,,9.23298198885875E+01,,,,,,,,,9.45207496795703E+01,,,,,,,,,,,9.63262225985000E+01,,,,,,9.79744049144000E+01,,,,
VNM,,,,,,,,,,,,,,,,,,,,9.61088750958838E+01,,,,,,,,,,9.40825984619015E+01,,,,,,,,,,9.41786937565000E+01,9.55878084180000E+01,,,,,,,,,9.73015700000000E+01,,
VUT,,,,,,,,,,,,,,,,,,,,7.57441638462206E+01,,,,,,,,,,,,,,,8.72000000000000E+01,,,,,,,,,,9.22000000000000E+01,,,,,9.38515400000000E+01,,
WBG,,,,,,,,,,,,,,,,,,,,,,,,,,,,,,,,,,,,,,9.69136272590878E+01,,,,,,,9.90248915850000E+01,,9.90392995086000E+01,9.91341607565000E+01,9.92668443091000E+01,9.92329820050000E+01,,
WLD,,,,,,,,,,,,,,,,,,,,,,,,,,,,,,,8.77047435106856E+01,,,,,,,,,,9.03037868297000E+01,,,,,,,,,9.18877068727000E+01,,
WSM,,,,,,,,,,,,,,,,,,,,,,,,,,,,,,,,9.91200000000000E+01,,,,,,,,,,,,,9.93000000000000E+01,,,,,9.94013900000000E+01,,
YEM,,,,,,,,,,,,,,,,,,,,,,,,,,,,,,,,,,,8.28042209250112E+01,,,,,,,,,,9.28000000000000E+01,,,,,9.55975100000000E+01,,
ZAF,,,,,,,,,,,,,,,,,,,,,8.53462018167093E+01,,,,,,,,,,,,,,,,9.34984100702802E+01,,,,,,,,,,,9.70451798211000E+01,,,,
ZAR,,,,,,,,,,,,,,,,,,,,,,,,,,,,,,,,,,,,,,,,,,7.79830910535000E+01,,,,,,,,7.32810200000000E+01,,
ZMB,,,,,,,,,,,,,,,,,,,,,,,,,,,,,,,6.72693467968325E+01,,,,,,,,,7.26155957073000E+01,,,7.77251184834000E+01,,,,,,,8.18104500000000E+01,,
ZWE,,,,,,,,,,,,,,,,,,,,,,,9.38269609427807E+01,,,,,,,,,,9.65406234267688E+01,,,,,,,,,,,,,,,,,9.83949000000000E+01,,
