"Country Code",1960,1961,1962,1963,1964,1965,1966,1967,1968,1969,1970,1971,1972,1973,1974,1975,1976,1977,1978,1979,1980,1981,1982,1983,1984,1985,1986,1987,1988,1989,1990,1991,1992,1993,1994,1995,1996,1997,1998,1999,2000,2001,2002,2003,2004,2005,2006,2007,2008,2009,2010,2011ABW,,,,,,,,,,,,,,,,,,,,,,,,,,,,,,,,,,,,,,,,,1.00287829828956E+02,,,,,,,,,1.00208890351605E+02,,
AFG,,,,,,,,,,,,,,,,,,,,2.43313697212928E+01,,,,,,,,,,,,,,,,,,,,,,,,,,,,,,,,
AGO,,,,,,,,,,,,,,,,,,,,,,,,,,,,,,,,,,,,,,,,,,7.54353585940222E+01,,,,,,,,8.10657819809996E+01,,
ALB,,,,,,,,,,,,,,,,,,,,,,,,,,,,,,,,,,,,,,,,,,1.00130450140530E+02,,,,,,,1.00592869549713E+02,,,
ARE,,,,,,,,,,,,,,,,8.59036381729358E+01,,,,,,,,,,1.04320817021163E+02,,,,,,,,,,,,,,,,,,,,1.03606499664048E+02,,,,,,
ARG,,,,,,,,,,,,,,,,,,,,,1.00874214763687E+02,,,,,,,,,,,1.00484082938999E+02,,,,,,,,,,1.00425269611810E+02,,,,,,,,1.00382051432822E+02,,
ARM,,,,,,,,,,,,,,,,,,,,,,,,,,,,,,1.00001205761935E+02,,,,,,,,,,,,1.00109595724540E+02,,,,,,,,1.00124658640532E+02,,
ATG,,,,,,,,,,,,,,,,,,,,,,,,,,,,,,,,,,,,,,,,,,,,,,,,,1.01036585365854E+02,,,
AZE,,,,,,,,,,,,,,,,,,,,,,,,,,,,,,,,,,,,,,,,1.00031196461377E+02,,,,,,,,1.00000000000000E+02,,,,
BDI,,,,,,,,,,,,,,,,,,,,5.24940499627895E+01,,,,,,,,,,,8.06941240157577E+01,,,,,,,,,,9.16453208197671E+01,,,,,,,,,9.91692548885794E+01,,
BEN,,,,,,,,,,,,,,,,,,,,3.99363968982308E+01,,,,,,,,,,,,,4.84131784612650E+01,,,,,,,,,,5.61404560068957E+01,,,,,,,6.68733322760389E+01,,
BFA,,,,,,,,,,,,,,,,2.97806636579294E+01,,,,,,,,,,,,,,,,5.29092194364124E+01,,,,,5.48912739880604E+01,,,,,,,6.46447853035028E+01,,6.55845107307881E+01,,7.08809600769786E+01,,,,
BGD,,,,,,,,,,,,,,,,,,,,,,6.12030830937161E+01,,,,,,,,,,7.34289585389777E+01,,,,,,,,,,8.97153230338568E+01,,,,,,,,1.03660351994750E+02,,
BGR,,,,,,,,,,,,,,,,,,,,,,,,,,,,,,,,,,,,,,,,,,9.97966621349776E+01,,,,,,,,9.98857417844293E+01,,
BHR,,,,,,,,,,,,,,,,,,,,,,9.15119549331010E+01,,,,,,,,,,9.93009413719491E+01,,,,,,,,,,1.00437410087646E+02,,,,,,,,9.99705605516789E+01,,
BIH,,,,,,,,,,,,,,,,,,,,,,,,,,,,,,,,,,,,,,,,,1.00095667284196E+02,,,,,,,,,1.00023377207133E+02,,
BLR,,,,,,,,,,,,,,,,,,,,,,,,,,,,,,1.00068750978928E+02,,,,,,,,,,1.00071509115869E+02,,,,,,,,,,1.00112905729582E+02,,
BLZ,,,,,,,,,,,,,,,,,,,,,,,,,,,,,,,,1.00743126905195E+02,,,,,,,,,,,,,,,,,,,,
BOL,,,,,,,,,,,,,,,,,8.29142709906619E+01,,,,,,,,,,,,,,,,9.50659220446548E+01,,,,,,,,,9.75294881893302E+01,,,,,,9.93894652376122E+01,9.94860485583627E+01,,,
BRA,,,,,,,,,,,,,,,,,,,,,1.03245991426704E+02,,,,,,,,,,,,,,,,,,,,1.03308006854593E+02,,,,1.02213278159192E+02,,1.01616428259440E+02,1.01548116077013E+02,1.01389832369238E+02,,,
BRN,,,,,,,,,,,,,,,,,,,,,,9.91225275403428E+01,,,,,,,,,,9.99764418649477E+01,,,,,,,,,,1.00038299809332E+02,,,,,,,,9.99243319203478E+01,,
BTN,,,,,,,,,,,,,,,,,,,,,,,,,,,,,,,,,,,,,,,,,,,,,,8.49108277849608E+01,,,,,,
BWA,,,,,,,,,,,,,,,,,,,,,,,,,,,,,,,,1.07394416072136E+02,,,,,,,,,,,,1.03814713157540E+02,,,,,,1.03209908523347E+02,,
CAF,,,,,,,,,,,,,,,,3.32856872604548E+01,,,,,,,,,,,,,5.57080275630782E+01,,,,,,,,,,,,6.66382836958971E+01,,,,,,,,,7.93587298157252E+01,,
CHL,,,,,,,,,,,,,,,,,,,,,,,1.00971395128083E+02,,,,,,,,,,1.00554638457730E+02,,,,,,,,,,1.00384297532829E+02,,,,,,1.00082019199150E+02,,,
CHN,,,,,,,,,,,,,,,,,,,,,,,8.62309433523492E+01,,,,,,,,9.43056246469048E+01,,,,,,,,,,9.93007988025100E+01,,,,,,,,,9.98044660131507E+01,,
CIV,,,,,,,,,,,,,,,,,,,,,,,,,,,,,6.31478764948281E+01,,,,,,,,,,7.32477986221468E+01,,7.35949419050318E+01,,,,,,,,,8.45523781076562E+01,,
CMR,,,,,,,,,,,,,,,,,7.42077605269177E+01,,,,,,,,,,,,,,,,,,,,,,,,8.81704714565551E+01,,,,,,,8.66521757494679E+01,,,,
COG,,,,,,,,,,,,,,,,,,,,,,,,,,,,,,,,,,,,,,,,,,,,,,8.98973633008857E+01,,,,,,
COL,,,,,,,,,,,,,,,,,,,,,,,,,,,,,,,,,,1.02762477313810E+02,,,1.01225937445746E+02,,,,,,,,1.00879681145179E+02,1.00879684577430E+02,1.00677966546428E+02,1.00960291752210E+02,1.00902345104743E+02,1.01019682595921E+02,,
COM,,,,,,,,,,,,,,,,,,,,,7.91534527411795E+01,,,,,,,,,,,,,,,,,,,,9.23840276923524E+01,,,,,,,,,9.87323784438954E+01,,
CPV,,,,,,,,,,,,,,,,,,,,,,,,,,,,,,,9.60712385748738E+01,,,,,,,,,,,,,,1.01765316718588E+02,,,,,1.01707905067853E+02,,
CRI,,,,,,,,,,,,,,,,,,,,,,,,,1.00809889438672E+02,,,,,,,,,,,,,,,,1.00865161583749E+02,,,,,,,,,1.00871359955805E+02,,
CUB,,,,,,,,,,,,,,,,,,,,,,,,,,,,,,,,,,,,,,,,,,,9.99962836889371E+01,,,,,,,9.99974196575886E+01,,
CYM,,,,,,,,,,,,,,,,,,,,,,,,,,,,,,,,,,,,,,,,,,,,,,,,9.94765245977092E+01,,,,
CYP,,,,,,,,,,,,,,,,,,,,,,,,,,,,,,,,,1.00084643827772E+02,,,,,,,,,1.00079142870939E+02,,,,,,,,1.00060490875442E+02,,
DOM,,,,,,,,,,,,,,,,,,,,,,1.03299665690245E+02,,,,,,,,,,,,,,,,,,,,,1.02600477948877E+02,,,,,1.02434311026206E+02,,,,
DZA,,,,,,,,,,,,,,,,,,,,,,,,,,,,7.21459083145343E+01,,,,,,,,,,,,,,,9.15758483155964E+01,,,,9.44446301048530E+01,,,,,
EAP,,,,,,,,,,,,,,,,,,,,,,,,,,,,,,,9.52895609021716E+01,,,,,,,,,,9.93309276329731E+01,,,,,,,,,9.97678227225800E+01,,
ECA,,,,,,,,,,,,,,,,,,,,,,,,,,,,,,,9.84672891867623E+01,,,,,,,,,,9.91296883732045E+01,,,,,,,,,9.95988468560084E+01,,
ECU,,,,,,,,,,,,,,,,,,,,,,,9.75930598988814E+01,,,,,,,,9.92311535033554E+01,,,,,,,,,,,1.00118343563227E+02,,,,,,1.00431246606068E+02,,1.00027377059745E+02,,
EGY,,,,,,,,,,,,,,,,,6.04730830670646E+01,,,,,,,,,,7.56572523628685E+01,,,,,,,,,,8.47332557671169E+01,,,,,,,,,8.76451674540223E+01,9.30507994218900E+01,,,,,
ERI,,,,,,,,,,,,,,,,,,,,,,,,,,,,,,,,,,,,,,,,,,,8.05574516071344E+01,,,,,,,9.36374093958031E+01,,
ESP,,,,,,,,,,,,,,,,,,,,,,1.00001264038720E+02,,,,,,,,,,1.00029766384955E+02,,,,,,,,,,,,,,,,9.99780079406661E+01,1.00075142097731E+02,9.99182714665243E+01,,
EST,,,,,,,,,,,,,,,,,,,,,,,,,,,,,,1.00070600326920E+02,,,,,,,,,,,1.00084487930027E+02,,,,,,,,,1.00097687980940E+02,,
ETH,,,,,,,,,,,,,,,,,,,,,,,,,,,,,,,,,,,7.14714037137141E+01,,,,,,,,,,6.18971061093248E+01,,,,5.95864919990139E+01,,,
GAB,,,,,,,,,,,,,,,,,,,,,,,,,,,,,,,,,,9.75706056151474E+01,,,,,,,,,,,9.77505112474438E+01,,,,,9.80400826603919E+01,,
GEO,,,,,,,,,,,,,,,,,,,,,,,,,,,,,,,,,,,,,,,,,,,1.00074035607096E+02,,,,,,,1.00093571324253E+02,,
GHA,,,,,,,,,,,,,,,,,,,,,,,,,,,,,,,,,,,,,,,,,8.62307391112503E+01,,,,,,,,,9.72503409656067E+01,,
GIN,,,,,,,,,,,,,,,,,,,,,,,,,,,,,,,,,,,,,,,,,,,,5.74492075311505E+01,,,,,,7.90955398083882E+01,,
GMB,,,,,,,,,,,,,,,,,,,,,,,,,,,,,,,,,,,,,,,,,6.43363689006532E+01,,,,,,,,,8.45088877933438E+01,,
GNB,,,,,,,,,,,,,,,,,,,,2.98243638333401E+01,,,,,,,,,,,,,,,,,,,,,6.13674970322239E+01,,,,,,,,,8.12516117203988E+01,,
GNQ,,,,,,,,,,,,,,,,,,,,,,,,,,,,,,,,,,,,,,,,,1.00154260749263E+02,,,,,,,,,1.00522382000490E+02,,
GRC,,,,,,,,,,,,,,,,,,,,,,9.98348094572831E+01,,,,,,,,,,9.99908600964155E+01,,,,,,,,,,1.00097778371928E+02,,,,,,,,9.98853870731669E+01,,
GRD,,,,,,,,,,,,,,,,,,,,,,,,,,,,,,,,,,,,,,,,,,,,,1.00000000000000E+02,,,,,,,
GTM,,,,,,,,,,,,,,,,,,,,,,,,,,,,,,,,,,,8.65401274259421E+01,,,,,,,,9.07522363894737E+01,,,,,,,9.49923531381198E+01,,
GUM,,,,,,,,,,,,,,,,,,,,,1.00574828636448E+02,,,,,,,,,,,,,,,,,,,,,,,,,,,,,,,
HIC,,,,,,,,,,,,,,,,,,,,,,,,,,,,,,,1.00182948166127E+02,,,,,,,,,,9.99750502138892E+01,,,,,,,,,1.00002128309709E+02,,
HND,,,,,,,,,,,,,,,,,,,,,,,,,,,,,,,,,,,,,,,,,,1.04625715694751E+02,,,,,,1.02545188369085E+02,,,,
HRV,,,,,,,,,,,,,,,,,,,,,,,,,,,,,,,,9.99380138662475E+01,,,,,,,,,,1.00008981072169E+02,9.74304971050054E+01,9.74304971050054E+01,9.74304971050054E+01,,,,,1.00036836102030E+02,,
HTI,,,,,,,,,,,,,,,,,,,,,,,9.95935776782409E+01,,,,,,,,,,,,,,,,,,,,,,1.15425531914894E+02,,,,,,,
HUN,,,,,,,,,,,,,,,,,,,,,9.98958573809583E+01,,,,,,,,,,,,,,1.00202020202020E+02,,,,,,,,,,1.00609137055838E+02,,,,,1.00145726099369E+02,,
IDN,,,,,,,,,,,,,,,,,,,,,9.11343828023861E+01,,,,,,,,,,9.76047596975328E+01,,,,,,,,,,,,,,9.96713608219569E+01,,9.92217547244735E+01,,9.98442104085984E+01,,,
IND,,,,,,,,,,,,,,,,,,,,,,6.08031301815743E+01,,,,,,,,,,6.71328782537047E+01,,,,,,,,,,8.04665406566217E+01,,,,,8.41015585183396E+01,,,,,
IRN,,,,,,,,,,,,,,,,,5.97005655498668E+01,,,,,,,,,,7.76005101108619E+01,,,,,8.78461192170059E+01,,,,,8.43113772455090E+01,,,,,,,,,9.86011318767712E+01,9.89568914646595E+01,,9.97249009968332E+01,,,
IRQ,,,,,,,,,,,,,,,,,,,,,,,,,,,,,,,,,,,,,,,,,9.05303108470278E+01,,,,,,,,,9.47322859584873E+01,,
ISR,,,,,,,,,,,,,,,,,,,,,,,,9.89818380223351E+01,,,,,,,,,,,,,,,,,,,,,,,,,,,,
ITA,,,,,,,,,,,,,,,,,,,,,,9.98895678050697E+01,,,,,,,,,,,,,,,,,,,,1.00015669830291E+02,,,,,,,,1.00011432021914E+02,,
JAM,,,,,,,,,,,,,,,,,,,,,,,,,,,,,,,,,,,,,,,,1.10289759727419E+02,,,,,,,,,,1.06628884196196E+02,,
JOR,,,,,,,,,,,,,,,,,,,,8.85592380573063E+01,,,,,,,,,,,,,,,,,,,,,,,,9.95817134868532E+01,,1.00093484307250E+02,,9.99944684155215E+01,,,,
KAZ,,,,,,,,,,,,,,,,,,,,,,,,,,,,,,1.00057452102756E+02,,,,,,,,,,1.00058785292082E+02,,,,,,,,,,1.00081941812494E+02,,
KEN,,,,,,,,,,,,,,,,,,,,,,,,,,,,,,,,,,,,,,,,,1.01124865922157E+02,,,,,,,,,1.01830540159052E+02,,
KGZ,,,,,,,,,,,,,,,,,,,,,,,,,,,,,,,,,,,,,,,,1.00090828455258E+02,,,,,,,,,,1.00095241188898E+02,,
KHM,,,,,,,,,,,,,,,,,,,,,,,,,,,,,,,,,,,,,,,8.68354533541044E+01,,,,,,8.97360137991590E+01,,,,9.56937163226138E+01,,,
KWT,,,,,,,,,,,,,,,,8.49643781658832E+01,,,,,9.35318930781368E+01,,,,,9.27241652597787E+01,,,,,,,,,,9.61459656507373E+01,,,,,,,,,,1.00096922266220E+02,9.99767461215993E+01,1.00110725438220E+02,1.00176746772391E+02,,,
LAC,,,,,,,,,,,,,,,,,,,,,,,,,,,,,,,1.00603867506353E+02,,,,,,,,,,1.00705657810220E+02,,,,,,,,,1.00430940953475E+02,,
LAO,,,,,,,,,,,,,,,,,,,,,,,,,,,,,,,,,,,,8.12709538621582E+01,,,,,8.35327505044710E+01,9.04153029610132E+01,,,,8.82857469837647E+01,,,,,,
LBN,,,,,,,,,,,,,,,,,,,,,,,,,,,,,,,,,,,,,,,,,,,,,,,,1.00697426792562E+02,,,,
LBR,,,,,,,,,,,,,,,,,,,,,,,,,5.36781985243487E+01,,,,,,,,,,8.29268292682927E+01,,,,,,,,,,1.06686046511628E+02,,,,,1.14928980590718E+02,,
LBY,,,,,,,,,,,,,,,,,,,,,,,,,8.20735105049447E+01,,,,,,,,,,9.68812877263581E+01,,,,,,,,,,9.95991983967936E+01,,,,,9.98579277629327E+01,,
LIC,,,,,,,,,,,,,,,,,,,,,,,,,,,,,,,7.91441228047221E+01,,,,,,,,,,8.46752458434872E+01,,,,,,,,,9.10092171349089E+01,,
LKA,,,,,,,,,,,,,,,,,,,,,,9.81633613338766E+01,,,,,,,,,,,,,,,,,,,,1.01110629148893E+02,,,,,1.00940080369786E+02,,1.01287947763971E+02,,,
LMC,,,,,,,,,,,,,,,,,,,,,,,,,,,,,,,8.59975441375671E+01,,,,,,,,,,8.53914258471762E+01,,,,,,,,,8.85121155018594E+01,,
LMY,,,,,,,,,,,,,,,,,,,,,,,,,,,,,,,8.76383436192692E+01,,,,,,,,,,9.15829893801694E+01,,,,,,,,,9.36317952647840E+01,,
LSO,,,,,,,,,,,,,,,,,,,,,,,,,,,,,,,,,,,,,,,,,1.14937128674070E+02,,,,,,,,,1.14418465874914E+02,,
LTU,,,,,,,,,,,,,,,,,,,,,,,,,,,,,,1.00067530156880E+02,,,,,,,,,,,,1.00080433466053E+02,,,,,,,,1.00014393855788E+02,,
LVA,,,,,,,,,,,,,,,,,,,,,,,,,,,,,,1.00071042879137E+02,,,,,,,,,,,1.00065310268329E+02,,,,,,,,,1.00086058373002E+02,,
mac,,,,,,,,,,,,,,,,,,,,,,9.90148845272589E+01,,,,,,,,,,,,,,,,,,,,1.00382251706751E+02,,,,,1.00113128892237E+02,,,,,
MAR,,,,,,,,,,,,,,,,,,,,,,,5.32562800435827E+01,,,,,,,,,,,,6.44342855236967E+01,,,,,,,,,,7.48649675958480E+01,,,,8.14613928567301E+01,8.31850379874108E+01,,
MDA,,,,,,,,,,,,,,,,,,,,,,,,,,,,,,1.00018432066972E+02,,,,,,,,,,,1.00249851279050E+02,,,,,,,,,1.00327439107259E+02,,
MDG,,,,,,,,,,,,,,,,,,,,,,,,,,,,,,,,,,,,,,,,,9.38545199438509E+01,,,,,,,,9.70451236497331E+01,,,
MDV,,,,,,,,,,,,,,,,,,1.03552714345686E+02,,,,,,,,1.01358274272687E+02,,,,,1.00242844445629E+02,,,,,1.00269555690198E+02,,,,,1.00269555690227E+02,,,,,,1.00121352105940E+02,,,,,
MEX,,,,,,,,,,,,,,,,,,,,,9.76084287185284E+01,,,,,,,,,,9.88951549859485E+01,,,,,,,,,,9.97221335453963E+01,,9.93173543548259E+01,,1.00092939591574E+02,9.99832935160235E+01,9.95775964709249E+01,9.99157143990924E+01,9.99458457691520E+01,9.97076854833087E+01,,
MIC,,,,,,,,,,,,,,,,,,,,,,,,,,,,,,,8.87318366301810E+01,,,,,,,,,,9.26314688545675E+01,,,,,,,,,9.41488467423263E+01,,
MKD,,,,,,,,,,,,,,,,,,,,,,,,,,,,,,,,,,,9.94174279976814E+01,,,,,,,,9.94948230449377E+01,,,,,,,9.96395873172119E+01,,
MLI,,,,,,,,,,,,,,,,,5.05319193782402E+01,,,,,,,,,,,,,,,,,,,,,,5.22792413597538E+01,,,,,4.86238532110092E+01,,,6.50031173525931E+01,,,,,
MLT,,,,,,,,,,,,,,,,,,,,,,,,,,1.01653839041774E+02,,,,,,,,,,1.03646967069777E+02,,,,,,,,,,1.01694003636652E+02,,,,,,
MMR,,,,,,,,,,,,,,,,,,,,,,,,9.18460566824542E+01,,,,,,,,,,,,,,,,,9.76237952468087E+01,,,,,,,,,9.92332130138287E+01,,
MNA,,,,,,,,,,,,,,,,,,,,,,,,,,,,,,,7.96876140241918E+01,,,,,,,,,,8.87756654804187E+01,,,,,,,,,9.37546833472753E+01,,
MNG,,,,,,,,,,,,,,,,,,,,,,,,,,,,,,,,,,,,,,,,,1.01477687631565E+02,,,,,,,,,1.03004755765062E+02,,
MOZ,,,,,,,,,,,,,,,,,,,,,3.92709201274908E+01,,,,,,,,,,,,,,,,,6.14826785064198E+01,,,,,,6.72922827853177E+01,,,,,,8.15511457075952E+01,,
MRT,,,,,,,,,,,,,,,,,,,,,,,,,,,,,,,,,,,,,,,,,8.19157487584857E+01,,,,,,,,,9.07520418405532E+01,,
MUS,,,,,,,,,,,,,,,,,,,,,,,,,,,,,,,1.01113981717522E+02,,,,,,,,,,1.01749921338365E+02,,,,,,,,,1.02104369078116E+02,,
MWI,,,,,,,,,,,,,,,,,,,,,,,,,,,,6.97439197431673E+01,,,,,,,,,,,8.61245722663368E+01,,,,,,,,,,,9.90156500217870E+01,,
MYS,,,,,,,,,,,,,,,,,,,,,9.66876342473012E+01,,,,,,,,,,,9.92864982216514E+01,,,,,,,,,1.00061288369713E+02,,,,,,,,,1.00221058535256E+02,,
NAM,,,,,,,,,,,,,,,,,,,,,,,,,,,,,,,,1.05500889174289E+02,,,,,,,,,,1.02553060224715E+02,,,,,,,,1.04162987725493E+02,,
NCL,,,,,,,,,,,,,,,,,1.00988726118725E+02,,,,,,,,,,,,,1.00206842659262E+02,,,,,,,1.00094307844876E+02,,,,,,,,,,,,,1.00272744615124E+02,,
NER,,,,,,,,,,,,,,,,,,,,,,,,,,,,,,,,,,,,,,,,,,1.03987433744731E+02,,,,4.42281060775563E+01,,,,,,
NGA,,,,,,,,,,,,,,,,,,,,,,,,,,,,,,,,7.68078110435101E+01,,,,,,,,,,,,7.74490615786202E+01,,,,,,8.35960442806544E+01,,
NIC,,,,,,,,,,,,,,,,,,,,,,,,,,,,,,,,,,,,,,,,,,1.06203366586119E+02,,,,1.04329562114456E+02,,,,,,
NOC,,,,,,,,,,,,,,,,,,,,,,,,,,,,,,,9.56557066826013E+01,,,,,,,,,,9.93041050344969E+01,,,,,,,,,9.93196580015084E+01,,
NPL,,,,,,,,,,,,,,,,,,,,,,3.31882213792093E+01,,,,,,,,,,4.78772025683201E+01,,,,,,,,,,7.46053100605773E+01,,,,,,,,8.82873359524414E+01,,
OEC,,,,,,,,,,,,,,,,,,,,,,,,,,,,,,,1.00475839361267E+02,,,,,,,,,,1.00010330520323E+02,,,,,,,,,1.00049694916118E+02,,
OMN,,,,,,,,,,,,,,,,,,,,,,,,,,,,,,,,,,,,,,,,,,,,9.87701032783320E+01,,,,,9.99906359219344E+01,,,
PAK,,,,,,,,,,,,,,,,,,,,,,5.35537700394123E+01,,,,,,,,,,,,,,,,,6.42062116924675E+01,,,,,,,6.92594559172184E+01,7.37913498077066E+01,,7.71214803453701E+01,,,
PAN,,,,,,,,,,,,,,,,,,,,,1.00371595754298E+02,,,,,,,,,,9.93541244019836E+01,,,,,,,,,,9.90595607803993E+01,,,,,,,,,9.96249523104118E+01,,
PER,,,,,,,,,,,,,,,,,,,,,,9.30065503335726E+01,,,,,,,,,,,,9.67013333335491E+01,,,,,,,,,,,9.78047599940998E+01,9.83317447866731E+01,9.84214117563234E+01,9.86654618730063E+01,,,,
PHL,,,,,,,,,,,,,,,,,,,,,1.01543669335481E+02,,,,,,,,,,1.00624250858295E+02,,,,,,,,,,1.01336061887001E+02,,,1.03208324273653E+02,,,,,1.01516773018434E+02,,,
PLW,,,,,,,,,,,,,,,,,,,,,1.00174252664243E+02,,,,,,,,,,,,,,,,,,,,,,,,,,,,,,,
PNG,,,,,,,,,,,,,,,,,,,,,,,,,,,,,,,,,,,,,,,,,9.26582814320118E+01,,,,,,,,,1.08648289893073E+02,,
POL,,,,,,,,,,,,,,,,,,,1.00037160792948E+02,,,,,,,,,,,,,,,,1.00100200400802E+02,,,,,,,,,,1.00100200400802E+02,,,,,1.00103373949324E+02,,
PRI,,,,,,,,,,,,,,,,,,,,,1.01482597443412E+02,,,,,,,,,,1.02047438700915E+02,,,,,,,,,,,,,,1.00228310502283E+02,,,,,1.01131619709432E+02,,
PRK,,,,,,,,,,,,,,,,,,,,,,,,,,,,,,,,,,,,,,,,,,,,,,,,,1.00000191545372E+02,,,
PRT,,,,,,,,,,,,,,,,,,,,,,1.00571129281960E+02,,,,,,,,,,1.00116414464554E+02,,,,,,,,,,,,,,,,,,1.00067896324479E+02,,
PRY,,,,,,,,,,,,,,,,,,,,,,,9.87001802001764E+01,,,,,,,,,,9.94832781657778E+01,,,,,,,,,,,,,,,9.99690694918798E+01,,,,
QAT,,,,,,,,,,,,,,,,,,,,,,,,,,,1.03053545557836E+02,,,,,,,,,,,1.01791857646870E+02,,,,,,,1.02797185482359E+02,,,9.98689019681550E+01,1.01643295730343E+02,1.00250132670223E+02,,
ROM,,,,,,,,,,,,,,,,,,,,,,,,,,,,,,,,,9.98507988004900E+01,,,,,,,,,,1.00036106410670E+02,,,,,,,1.00260810665319E+02,,
RUS,,,,,,,,,,,,,,,,,,,,,,,,,,,,,,1.00058640644585E+02,,,,,,,,,,,,,1.00092492152868E+02,,,,,,,1.00124311955658E+02,,
RWA,,,,,,,,,,,,,,,,,,,7.49152419125076E+01,,,,,,,,,,,,,1.00000000000000E+02,,,,,,,,,9.78799406888367E+01,,,,,,,,,1.00506671863301E+02,,
SAS,,,,,,,,,,,,,,,,,,,,,,,,,,,,,,,6.61483733280950E+01,,,,,,,,,,7.97504970318732E+01,,,,,,,,,8.48938657328744E+01,,
SAU,,,,,,,,,,,,,,,,,,,,,,,,,,,,,,,,,8.62824408898067E+01,,,,,,,,9.55531455932619E+01,,,,9.76510888376521E+01,,,,,9.78046487418732E+01,,
SDN,,,,,,,,,,,,,,,,,,,,,,,,,,,,,,,,,,,,,,,,,8.44143920861368E+01,,,,,,,,,9.28326105324025E+01,,
SEN,,,,,,,,,,,,,,,,,,,,,,,,,,,,,5.70655219946462E+01,,,,,,,,,,,,,,7.00492788882636E+01,,,,7.66280091753763E+01,,,7.57262785622960E+01,,
SGP,,,,,,,,,,,,,,,,,,,,,9.97414670112761E+01,,,,,,,,,,1.00231897663512E+02,,,,,,,,,,1.00195672499102E+02,,,,,,,,,1.00115456072544E+02,,
SLB,,,,,,,,,,,,,,,,,,,,,,,,,,,,,,,,,,,,,,,,8.88888888888889E+01,,,,,,,,,,,,
SLE,,,,,,,,,,,,,,,,,,,,,,,,,,,,,,,,,,,,,,,,,,,,,6.26654185579812E+01,,,,,7.10516651646004E+01,,
SLV,,,,,,,,,,,,,,,,,,,,,,,,,,,,,,,,,1.00003105429221E+02,,,,,,,,,,,,,,1.01119182190376E+02,1.00719018736399E+02,1.01130233530490E+02,1.00649907076105E+02,,
SRB,,,,,,,,,,,,,,,,,,,,,,,,,,,,,,,,,,,,,,,,,,,,9.99229879295864E+01,,,,,,,,
SSA,,,,,,,,,,,,,,,,,,,,,,,,,,,,,,,7.99853518864073E+01,,,,,,,,,,8.23595932109497E+01,,,,,,,,,8.76586422876887E+01,,
STP,,,,,,,,,,,,,,,,,,,,,,8.15434552695686E+01,,,,,,,,,,9.58709720095507E+01,,,,,,,,,,9.88315345720259E+01,,,,,,,,1.01000570959659E+02,,
SUR,,,,,,,,,,,,,,,,,,,,,,,,,,,,,,,,,,,,,,,,,,,,,9.84554377770875E+01,,,,1.00084446875138E+02,,,
SVN,,,,,,,,,,,,,,,,,,,,,,,,,,,,,,,,1.00042153795705E+02,,,,,,,,,,,,,1.00100200400802E+02,,,,,1.00089197485156E+02,,
SWZ,,,,,,,,,,,,,,,,,9.85497210802596E+01,,,,,,,,,,1.01457645834899E+02,,,,,,,,,,,,,,1.03196860931943E+02,,,,,,,,,1.03227558429534E+02,,
SYC,,,,,,,,,,,,,,,,,,,,,,,,,,,,1.01712276036014E+02,,,,,,,1.00654312784018E+02,,,,,,,,1.00611290583655E+02,,,,,,1.00611290580874E+02,,,
SYR,,,,,,,,,,,,,,,,,,,,,,6.64365328441762E+01,,,,,,,,,,,,,,,,,,,,,9.56965844638984E+01,,9.53611063209821E+01,,,,,9.70565461463950E+01,,
TCD,,,,,,,,,,,,,,,,,,,,,,,,,,,,,,,,,,3.40842856288313E+01,,,,,,,4.17256058069561E+01,,,,5.73001696633470E+01,,,,,7.28152107010363E+01,,
TGO,,,,,,,,,,,,,,,,,,,,,,,,,,,,,,,,,,,,,,,,,7.59678552244838E+01,,,,,,8.00464853017652E+01,,,,,
THA,,,,,,,,,,,,,,,,,,,,,9.85665678489638E+01,,,,,,,,,,,,,,,,,,,,9.97431638008777E+01,,,,,9.96559899675076E+01,,,,,,
TJK,,,,,,,,,,,,,,,,,,,,,,,,,,,,,,9.99346262515498E+01,,,,,,,,,,,1.00005298067558E+02,,,,,,,,,1.00020279380767E+02,,
TKM,,,,,,,,,,,,,,,,,,,,,,,,,,,,,,,,,,,,1.00005030593623E+02,,,,,,,,,,,,,,1.00103369469886E+02,,
TON,,,,,,,,,,,,,,,,,9.99551603420438E+01,,,,,,,,,,,,,,,,,,,,1.00089934213844E+02,,,,,,,,,,1.00254651366821E+02,,,,,
TTO,,,,,,,,,,,,,,,,,,,,,1.00048915468444E+02,,,,,,,,,,1.00000000000000E+02,,,,,,,,,,,,,,1.00000000000000E+02,,,,,1.00015581872947E+02,,
TUN,,,,,,,,,,,,,,,,,,,,,,,,,7.29180108676114E+01,,,,,,,,,,,,,,,,,,,,9.56903270285886E+01,,,,9.76074933933865E+01,,,
TUR,,,,,,,,,,,,,,,,7.52069435441705E+01,,,,,8.03635857873829E+01,,,,,8.98383612704372E+01,,,,,9.15243700019803E+01,,,,,,,,,,,,,,9.51752603629989E+01,9.55258984261067E+01,9.56830388460309E+01,9.56429134078508E+01,,9.75269750757770E+01,,
TZA,,,,,,,,,,,,,,,,,,,,,,,,,,,,,9.03274631470660E+01,,,,,,,,,,,,,,9.41728503565158E+01,,,,,,,9.73272584012129E+01,,
UGA,,,,,,,,,,,,,,,,,,,,,,,,,,,,,,,,8.17413273373533E+01,,,,,,,,,,,8.86240638027051E+01,,,,,,,,9.53548107165283E+01,
UKR,,,,,,,,,,,,,,,,,,,,,,,,,,,,,,,,,,,,,,,,,,1.00058410295856E+02,,,,,,,,1.00073456388240E+02,,
UMC,,,,,,,,,,,,,,,,,,,,,,,,,,,,,,,9.82951768164601E+01,,,,,,,,,,9.93271265331020E+01,,,,,,,,,9.98485451096493E+01,,
URY,,,,,,,,,,,,,,,,1.01120055936256E+02,,,,,,,,,,1.00744973873271E+02,,,,,,,,,,,1.00880386849438E+02,,,,,,,,,,1.00816330643735E+02,1.00538410886363E+02,1.00702200907090E+02,1.01499001644376E+02,,
UZB,,,,,,,,,,,,,,,,,,,,,,,,,,,,,,,,,,,,,,,,,9.99204173212990E+01,,,,,,,,,1.00120431193531E+02,,
VEN,,,,,,,,,,,,,,,,,,,,,,1.01684709237534E+02,,,,,,,,,1.01945561017353E+02,,,,,,,,,,,1.01806428324856E+02,,,,,,1.00879507090656E+02,,,,
VNM,,,,,,,,,,,,,,,,,,,,9.78296153107062E+01,,,,,,,,,,9.92768331665729E+01,,,,,,,,,,9.93709648544147E+01,9.83969855407747E+01,,,,,,,,,9.91072908689963E+01,,
VUT,,,,,,,,,,,,,,,,,,,,8.93059654403703E+01,,,,,,,,,,,,,,,9.74770642201835E+01,,,,,,,,,,9.96746203904555E+01,,,,,1.00240582093805E+02,,
wbg,,,,,,,,,,,,,,,,,,,,,,,,,,,,,,,,,,,,,,1.00283626740982E+02,,,,,,,9.98282530220759E+01,,1.00107415279455E+02,9.98514539081408E+01,9.97594760568248E+01,1.00000564096902E+02,,
WLD,,,,,,,,,,,,,,,,,,,,,,,,,,,,,,,8.96259420862173E+01,,,,,,,,,,9.27569657987720E+01,,,,,,,,,9.44414549807968E+01,,
WSM,,,,,,,,,,,,,,,,,,,,,,,,,,,,,,,,9.98284907183212E+01,,,,,,,,,,,,,1.00100704934542E+02,,,,,1.00159404209539E+02,,
YEM,,,,,,,,,,,,,,,,,,,,,,,,,,,,,,,,,,,4.27245434039666E+01,,,,,,,,,,6.53017241379310E+01,,,,,7.54883783060877E+01,,
ZAF,,,,,,,,,,,,,,,,,,,,,9.95630205775285E+01,,,,,,,,,,,,,,,,1.00845077165363E+02,,,,,,,,,,,1.01078811139606E+02,,,,
ZAR,,,,,,,,,,,,,,,,,,,,,,,,,,,,,,,,,,,,,,,,,,8.09008521301260E+01,,,,,,,,8.47455725916479E+01,,
ZMB,,,,,,,,,,,,,,,,,,,,,,,,,,,,,,,9.74059803285914E+01,,,,,,,,,9.12019088829884E+01,,,8.53147308150476E+01,,,,,,,8.22910031664659E+01,,
ZWE,,,,,,,,,,,,,,,,,,,,,,,9.03921901533446E+01,,,,,,,,,,9.77344382266579E+01,,,,,,,,,,,,,,,,,1.01106988268701E+02,,
