"Country Code",1960,1961,1962,1963,1964,1965,1966,1967,1968,1969,1970,1971,1972,1973,1974,1975,1976,1977,1978,1979,1980,1981,1982,1983,1984,1985,1986,1987,1988,1989,1990,1991,1992,1993,1994,1995,1996,1997,1998,1999,2000,2001,2002,2003,2004,2005,2006,2007,2008,2009,2010,2011ABW,,,,,,,,,,,,,,,,,,,,,,,,,,,,,,,,,,,,,,,,1.15484000000000E+02,1.51221000000000E+02,1.50634000000000E+02,1.49596000000000E+02,1.42599000000000E+02,1.47458000000000E+02,1.44133000000000E+02,1.46379000000000E+02,1.35055000000000E+02,1.33004000000000E+02,1.35218000000000E+02,1.29916000000000E+02,
ADO,,,,,,,,,,,,,,,,,,,,,,,,,,,,,,,,,,,,,,,,,,,1.03742000000000E+02,9.72320000000000E+01,9.58680000000000E+01,1.04743000000000E+02,1.16023000000000E+02,,1.42861000000000E+02,,,
AFG,,,,,,,,,,,1.89430000000000E+01,,1.69600000000000E+01,2.01170000000000E+01,1.74020000000000E+01,1.74720000000000E+01,1.74760000000000E+01,2.80450000000000E+01,2.49920000000000E+01,1.96240000000000E+01,,,,,,,1.77950000000000E+01,,,,4.83260000000000E+01,,,,,,,,,,,,,2.78010000000000E+01,2.77880000000000E+01,,,,,2.38090000000000E+01,,
AGO,,,,,,,,,,,,6.46400000000000E+01,,,,,,,,,,,1.78780000000000E+01,,,,,,,,1.94410000000000E+01,,,,,,,,6.89470000000000E+01,6.32830000000000E+01,,,6.53730000000000E+01,,,,,,,,8.15010000000000E+01,
ALB,,,,,,,,,,,,4.90440000000000E+01,4.85900000000000E+01,,,,,,8.51970000000000E+01,,,1.11063000000000E+02,,1.03475000000000E+02,9.76620000000000E+01,9.15660000000000E+01,9.24450000000000E+01,9.96910000000000E+01,1.06611000000000E+02,1.09514000000000E+02,1.12957000000000E+02,1.13341000000000E+02,1.13365000000000E+02,1.11453000000000E+02,1.16050000000000E+02,,,1.25838000000000E+02,,1.39579000000000E+02,1.38024000000000E+02,1.45729000000000E+02,1.51223000000000E+02,1.55906000000000E+02,1.56528000000000E+02,,,,,,,
ARB,,,,,,,,,,,,2.79520827180686E+01,2.89089351540626E+01,3.04633878127237E+01,3.22758083395294E+01,3.42197524903082E+01,3.68102680984289E+01,3.67429225124857E+01,3.74463513091357E+01,4.07746931454576E+01,4.31565842544103E+01,4.58789936633482E+01,4.77517241473683E+01,5.00954578907740E+01,,,5.58310299550151E+01,5.45423973760207E+01,5.93314119566572E+01,,,,,,,,,,,,,,,,8.92150196846047E+01,,,,,,,
ARE,,,,,,,,,,,,,,,,,,,1.72052000000000E+02,1.80281000000000E+02,1.91909000000000E+02,1.93221000000000E+02,1.98656000000000E+02,1.76097000000000E+02,1.57903000000000E+02,1.92068000000000E+02,1.79195000000000E+02,1.89010000000000E+02,2.25338000000000E+02,3.00654000000000E+02,3.65264000000000E+02,4.02510000000000E+02,5.15412000000000E+02,3.84607000000000E+02,,,,,,3.51717000000000E+02,3.70679000000000E+02,3.24654000000000E+02,3.26097000000000E+02,3.16315000000000E+02,,,,,,,,
ARG,,,,,,,,,,,7.66630000000000E+01,8.36490000000000E+01,8.72070000000000E+01,8.52180000000000E+01,8.41900000000000E+01,9.26290000000000E+01,9.33310000000000E+01,9.31210000000000E+01,1.02286000000000E+02,1.00632000000000E+02,1.03771000000000E+02,1.16419000000000E+02,1.15767000000000E+02,1.18557000000000E+02,1.16525000000000E+02,1.13259000000000E+02,1.15671000000000E+02,1.17351000000000E+02,,,,,,,,,,,,1.63933000000000E+02,1.55298000000000E+02,1.48383000000000E+02,1.49140000000000E+02,1.51434000000000E+02,1.42408000000000E+02,1.45677000000000E+02,1.52334000000000E+02,1.52270000000000E+02,1.52458000000000E+02,,,
ARM,,,,,,,,,,,,,,,,,,,,,,,,,,,,,,,,,,,,,9.68370000000000E+01,1.19552000000000E+02,,1.09022000000000E+02,1.08114000000000E+02,1.13908000000000E+02,1.10996000000000E+02,1.12213000000000E+02,1.21366000000000E+02,1.22291000000000E+02,1.18513000000000E+02,1.19946000000000E+02,1.32148000000000E+02,1.28266000000000E+02,1.28201000000000E+02,
ATG,,,,,,,,,,,,,,,,,,,,,,,,,,,,,,,,,,,,,,,,,,,,,,,,,,2.20901000000000E+02,2.57640000000000E+02,
AUS,,,,,,,,,,,5.12540000000000E+01,5.45490000000000E+01,5.70610000000000E+01,6.01710000000000E+01,6.61390000000000E+01,7.10280000000000E+01,7.65730000000000E+01,7.77190000000000E+01,8.08460000000000E+01,8.36750000000000E+01,8.57270000000000E+01,8.52470000000000E+01,8.69210000000000E+01,8.92050000000000E+01,9.04240000000000E+01,9.45320000000000E+01,9.89290000000000E+01,1.04636000000000E+02,1.08786000000000E+02,1.13229000000000E+02,1.15975000000000E+02,1.18684000000000E+02,1.19215000000000E+02,9.91240000000000E+01,1.01076000000000E+02,1.04185000000000E+02,1.06089000000000E+02,1.07015000000000E+02,1.22026000000000E+02,1.22028000000000E+02,1.22826000000000E+02,1.22542000000000E+02,1.21754000000000E+02,1.22605000000000E+02,1.22966000000000E+02,1.24642000000000E+02,1.26985000000000E+02,1.28373000000000E+02,1.30099000000000E+02,1.33023000000000E+02,,
AUT,,,,,,,,,,,,4.31530000000000E+01,4.84980000000000E+01,5.31220000000000E+01,5.52510000000000E+01,5.93330000000000E+01,6.21570000000000E+01,6.40240000000000E+01,6.74510000000000E+01,6.97690000000000E+01,7.20130000000000E+01,7.37590000000000E+01,7.63210000000000E+01,7.96640000000000E+01,8.12510000000000E+01,8.35460000000000E+01,8.56340000000000E+01,8.61560000000000E+01,8.75290000000000E+01,8.75240000000000E+01,8.84160000000000E+01,8.74380000000000E+01,8.89820000000000E+01,9.01960000000000E+01,9.17960000000000E+01,9.43240000000000E+01,9.64170000000000E+01,9.76690000000000E+01,9.93920000000000E+01,1.02994000000000E+02,1.07032000000000E+02,1.11169000000000E+02,1.15158000000000E+02,1.16697000000000E+02,1.18396000000000E+02,1.20056000000000E+02,1.20947000000000E+02,1.20369000000000E+02,1.18463000000000E+02,1.18239000000000E+02,,
AZE,,,,,,,,,,,,,,,,,,,,,,7.49700000000000E+01,,,,,8.97110000000000E+01,,,,,6.71360000000000E+01,6.40660000000000E+01,6.98080000000000E+01,7.79410000000000E+01,8.90730000000000E+01,9.80530000000000E+01,9.97560000000000E+01,6.94600000000000E+01,6.23050000000000E+01,7.07420000000000E+01,7.14690000000000E+01,7.87900000000000E+01,7.99320000000000E+01,8.51620000000000E+01,8.68840000000000E+01,9.10340000000000E+01,8.27560000000000E+01,7.85620000000000E+01,9.86810000000000E+01,9.89370000000000E+01,
BDI,,,,,,,,,,,,5.56400000000000E+00,7.26700000000000E+00,1.14670000000000E+01,2.20680000000000E+01,1.19330000000000E+01,1.20780000000000E+01,,,1.97350000000000E+01,2.41840000000000E+01,3.20110000000000E+01,3.20280000000000E+01,3.19000000000000E+01,3.60820000000000E+01,3.48630000000000E+01,3.15840000000000E+01,3.65080000000000E+01,3.27800000000000E+01,3.58340000000000E+01,4.16030000000000E+01,3.59260000000000E+01,3.55350000000000E+01,3.55310000000000E+01,,,,,3.97600000000000E+01,4.06550000000000E+01,3.54380000000000E+01,3.62500000000000E+01,4.25620000000000E+01,4.56120000000000E+01,3.75630000000000E+01,3.75990000000000E+01,4.33210000000000E+01,,,,5.40990000000000E+01,
BEL,,,,,,,,,,,,5.90330000000000E+01,6.05970000000000E+01,6.61460000000000E+01,6.95010000000000E+01,7.25590000000000E+01,7.32480000000000E+01,7.47400000000000E+01,7.64650000000000E+01,7.50160000000000E+01,7.78250000000000E+01,8.29810000000000E+01,8.31120000000000E+01,8.62010000000000E+01,8.80440000000000E+01,8.62820000000000E+01,8.76890000000000E+01,9.23060000000000E+01,9.36920000000000E+01,9.08250000000000E+01,9.63650000000000E+01,9.72860000000000E+01,,9.97870000000000E+01,1.01522000000000E+02,1.01740000000000E+02,1.03660000000000E+02,,,1.15343000000000E+02,1.13368000000000E+02,1.16021000000000E+02,1.17005000000000E+02,1.17970000000000E+02,1.19997000000000E+02,1.22888000000000E+02,1.24417000000000E+02,1.25725000000000E+02,1.26264000000000E+02,1.25140000000000E+02,,
BEN,,,,,,,,,,,,7.03600000000000E+00,1.52480000000000E+01,1.61130000000000E+01,2.06040000000000E+01,1.79190000000000E+01,1.78200000000000E+01,,2.21180000000000E+01,2.19360000000000E+01,,,2.31780000000000E+01,2.01930000000000E+01,2.26550000000000E+01,2.19120000000000E+01,1.89340000000000E+01,1.89380000000000E+01,1.63930000000000E+01,,,1.51840000000000E+01,1.88200000000000E+01,2.00580000000000E+01,2.15420000000000E+01,2.16070000000000E+01,2.30620000000000E+01,2.40200000000000E+01,,2.37530000000000E+01,2.37220000000000E+01,2.37420000000000E+01,,,,,,,,,,
BFA,,,,,,,,,,,,1.76440000000000E+01,1.17610000000000E+01,1.57410000000000E+01,2.08170000000000E+01,2.56360000000000E+01,2.44730000000000E+01,2.64820000000000E+01,2.68490000000000E+01,2.48190000000000E+01,2.83470000000000E+01,2.70450000000000E+01,2.68700000000000E+01,2.82940000000000E+01,2.81970000000000E+01,2.94060000000000E+01,2.98300000000000E+01,3.13290000000000E+01,3.16480000000000E+01,3.16970000000000E+01,2.99160000000000E+01,3.02250000000000E+01,2.93320000000000E+01,2.98580000000000E+01,3.21890000000000E+01,2.86310000000000E+01,3.21320000000000E+01,2.96900000000000E+01,,2.98550000000000E+01,2.98900000000000E+01,3.45510000000000E+01,3.45790000000000E+01,2.93540000000000E+01,2.93880000000000E+01,4.51960000000000E+01,4.58400000000000E+01,4.56340000000000E+01,4.94820000000000E+01,4.83350000000000E+01,4.78690000000000E+01,
BGD,,,,,,,,,,,1.15000000000000E+01,,1.30480000000000E+01,,1.22780000000000E+01,,1.53370000000000E+01,1.69280000000000E+01,1.71380000000000E+01,1.71360000000000E+01,1.71260000000000E+01,1.70770000000000E+01,2.85320000000000E+01,2.36770000000000E+01,2.29530000000000E+01,2.46280000000000E+01,2.46540000000000E+01,2.29790000000000E+01,1.93190000000000E+01,1.94890000000000E+01,1.94590000000000E+01,,,,,,,,,4.90840000000000E+01,4.92590000000000E+01,5.29270000000000E+01,4.88330000000000E+01,4.89840000000000E+01,4.80480000000000E+01,5.25070000000000E+01,5.59340000000000E+01,5.59440000000000E+01,5.59510000000000E+01,6.06110000000000E+01,,
BGR,,,,,,,,,,,,1.06284000000000E+02,1.17278000000000E+02,1.20868000000000E+02,1.27190000000000E+02,1.35542000000000E+02,1.38671000000000E+02,1.43653000000000E+02,1.74160000000000E+02,1.44141000000000E+02,1.40762000000000E+02,1.35054000000000E+02,1.23212000000000E+02,1.19235000000000E+02,1.21416000000000E+02,1.22355000000000E+02,1.25947000000000E+02,1.30031000000000E+02,1.31304000000000E+02,1.22999000000000E+02,1.15430000000000E+02,1.10209000000000E+02,1.19105000000000E+02,1.39196000000000E+02,1.48805000000000E+02,1.59807000000000E+02,1.70417000000000E+02,1.65678000000000E+02,1.63594000000000E+02,1.54436000000000E+02,1.41401000000000E+02,1.36199000000000E+02,1.24012000000000E+02,1.18246000000000E+02,1.16739000000000E+02,1.14909000000000E+02,1.21230000000000E+02,1.22207000000000E+02,1.30128000000000E+02,1.31329000000000E+02,,
BHR,,,,,,,,,,,,1.28731000000000E+02,1.42887000000000E+02,1.81385000000000E+02,1.44297000000000E+02,1.41073000000000E+02,1.57849000000000E+02,1.53279000000000E+02,9.91630000000000E+01,7.85260000000000E+01,9.37660000000000E+01,8.96560000000000E+01,1.08809000000000E+02,,,1.50642000000000E+02,1.69741000000000E+02,1.32696000000000E+02,1.55215000000000E+02,,,1.36226000000000E+02,1.52961000000000E+02,1.49139000000000E+02,1.58821000000000E+02,1.68964000000000E+02,1.80693000000000E+02,,,1.77678000000000E+02,,,,,,,,,,,,
BHS,,,,,,,,,,,,,,,,,,,,,,,,,,,,,2.24116000000000E+02,,,,,,,2.69735000000000E+02,,,,,,,,,,,,,,,,
BIH,,,,,,,,,,,,,,,,,,,,,,,,,,,,,,,,,,,,,,,,,,,,,,,,,1.28919000000000E+02,1.29580000000000E+02,1.29928000000000E+02,
BLR,,,,,,,,,,,,,,,,,,,,,,,,,,,,,,,,,,,,,1.17649000000000E+02,1.27353000000000E+02,1.26837000000000E+02,1.30095000000000E+02,1.31719000000000E+02,1.32004000000000E+02,1.35295000000000E+02,1.36923000000000E+02,1.37164000000000E+02,1.35891000000000E+02,1.36726000000000E+02,1.40793000000000E+02,1.43358000000000E+02,1.43652000000000E+02,,
BLZ,,,,,,,,,,,,2.39888000000000E+02,1.96822000000000E+02,,2.72131000000000E+02,1.44425000000000E+02,,,,,,,,,,,,,,,,,,,,,,,,,,,,,,,,,,1.65656000000000E+02,1.57098000000000E+02,
BMU,,,,,,,,,,,,,,,,,,,,,,,,,,,,,,,,,,,,,,,,1.54318000000000E+02,1.19366000000000E+02,,1.67675000000000E+02,,1.98156000000000E+02,1.90103000000000E+02,2.37765000000000E+02,2.51276000000000E+02,2.65192000000000E+02,2.64675000000000E+02,2.11631000000000E+02,
BOL,,,,,,,,,,,,,,,,,,,,,,,,,,,,,,,,,,,,,,,5.48589694583327E+01,,,,,,,,,8.39470000000000E+01,,,,
BRA,,,,,,,,,,,6.07850000000000E+01,6.74890000000000E+01,8.09180000000000E+01,8.45830000000000E+01,9.04700000000000E+01,,,,,9.52890000000000E+01,9.39540000000000E+01,,,1.00770000000000E+02,,,,,1.05230000000000E+02,1.07757000000000E+02,1.09826000000000E+02,1.05932000000000E+02,1.06748000000000E+02,1.09611000000000E+02,1.11785000000000E+02,,,,1.22660000000000E+02,1.25952000000000E+02,1.29663000000000E+02,1.29775000000000E+02,1.32157000000000E+02,1.32225000000000E+02,1.31901000000000E+02,1.29429000000000E+02,,1.28581000000000E+02,1.28817000000000E+02,1.35228000000000E+02,,
BRB,,,,,,,,,,,,,,,,,,,,,,,,,,,,,,,,,,,,,,,,2.42857000000000E+02,2.84974000000000E+02,2.65720000000000E+02,,,,,,2.34529000000000E+02,,2.40605000000000E+02,2.38457000000000E+02,
BRN,,,,,,,,,,,,,,,,,,1.30887000000000E+02,1.36999000000000E+02,1.62412000000000E+02,1.18246000000000E+02,2.20326000000000E+02,1.43320000000000E+02,9.62530000000000E+01,1.88277000000000E+02,,1.09327000000000E+02,1.09540000000000E+02,,,,,1.37333000000000E+02,1.40501000000000E+02,1.42055000000000E+02,,,,1.88267000000000E+02,1.88828000000000E+02,1.77037000000000E+02,1.64661000000000E+02,1.66107000000000E+02,1.79507000000000E+02,1.93820000000000E+02,2.01122000000000E+02,1.99572000000000E+02,1.87400000000000E+02,1.96841000000000E+02,1.72638000000000E+02,1.78782000000000E+02,
BTN,,,,,,,,,,,,,,,,,,,3.18260000000000E+01,4.09150000000000E+01,2.96040000000000E+01,,,2.14510000000000E+01,,,,,,,,,,,,,,,,5.78190000000000E+01,5.17410000000000E+01,5.46020000000000E+01,,,,6.65100000000000E+01,6.08890000000000E+01,5.61640000000000E+01,5.78040000000000E+01,,,
BWA,,,,,,,,,,,,,4.13770000000000E+01,3.97070000000000E+01,4.91170000000000E+01,4.73820000000000E+01,5.21980000000000E+01,5.42610000000000E+01,5.20910000000000E+01,5.96470000000000E+01,5.26080000000000E+01,5.15020000000000E+01,4.76890000000000E+01,5.27520000000000E+01,4.91000000000000E+01,8.16300000000000E+01,,8.57970000000000E+01,,,,7.28020000000000E+01,,7.97930000000000E+01,7.29990000000000E+01,9.09210000000000E+01,9.06970000000000E+01,,,9.28250000000000E+01,9.59710000000000E+01,9.91660000000000E+01,1.02882000000000E+02,1.03242000000000E+02,1.10387000000000E+02,1.13450000000000E+02,1.15109000000000E+02,,,,,
CAF,,,,,,,,,,,,,,,,,,,,2.22060000000000E+01,1.25460000000000E+01,8.87800000000000E+00,1.15410000000000E+01,6.15300000000000E+00,1.07920000000000E+01,1.12270000000000E+01,1.18570000000000E+01,,1.52190000000000E+01,1.41680000000000E+01,1.90800000000000E+01,1.50990000000000E+01,1.70020000000000E+01,,,,,,,1.88210000000000E+01,1.90250000000000E+01,,,,,,2.83580000000000E+01,,3.51100000000000E+01,4.30020000000000E+01,3.17880000000000E+01,
CAN,,,,,,,,,,,,,,,,,,,,,,,,,,,,,,,1.23266000000000E+02,1.23384000000000E+02,1.23663000000000E+02,1.17166000000000E+02,1.16110000000000E+02,1.17081000000000E+02,1.18958000000000E+02,,1.31650000000000E+02,1.33705000000000E+02,1.33954000000000E+02,,1.35739000000000E+02,,,,,,,,,
CHE,,,,,,,,,,,,,,,,,,3.62020000000000E+01,3.71350000000000E+01,3.82550000000000E+01,4.05000000000000E+01,4.32030000000000E+01,4.54820000000000E+01,4.82230000000000E+01,4.95990000000000E+01,4.78460000000000E+01,4.84400000000000E+01,4.84420000000000E+01,4.75020000000000E+01,4.93220000000000E+01,5.25130000000000E+01,5.37840000000000E+01,5.49470000000000E+01,5.69120000000000E+01,5.88970000000000E+01,6.03030000000000E+01,6.14670000000000E+01,,7.08480000000000E+01,7.21230000000000E+01,7.50720000000000E+01,7.55010000000000E+01,7.75250000000000E+01,8.07240000000000E+01,8.30480000000000E+01,8.66830000000000E+01,8.97700000000000E+01,9.23700000000000E+01,9.90690000000000E+01,1.00861000000000E+02,,
CHL,,,,,,,,,,,6.31180000000000E+01,6.27490000000000E+01,6.41180000000000E+01,,,8.29170000000000E+01,7.47730000000000E+01,7.31940000000000E+01,7.33820000000000E+01,6.63780000000000E+01,7.70390000000000E+01,,,7.45610000000000E+01,7.58810000000000E+01,7.78310000000000E+01,7.97310000000000E+01,8.14300000000000E+01,,,,,,8.52110000000000E+01,8.62490000000000E+01,8.60210000000000E+01,8.52990000000000E+01,8.74010000000000E+01,8.76160000000000E+01,9.14110000000000E+01,9.17080000000000E+01,,9.31380000000000E+01,9.44160000000000E+01,9.50340000000000E+01,9.56720000000000E+01,9.96340000000000E+01,1.00709000000000E+02,1.02788000000000E+02,1.06082000000000E+02,,
CHN,,,,,,,,,,,,,,,4.73360000000000E+01,5.44760000000000E+01,5.18210000000000E+01,5.27020000000000E+01,4.38360000000000E+01,3.36830000000000E+01,3.34610000000000E+01,,,,,,,,,,,,,,,,,,,,,,,8.28870000000000E+01,8.89680000000000E+01,9.10940000000000E+01,9.56790000000000E+01,9.95600000000000E+01,1.03957000000000E+02,1.06614000000000E+02,,
CIV,,,,,,,,,,,,1.81290000000000E+01,1.90550000000000E+01,1.95810000000000E+01,2.07200000000000E+01,,2.19510000000000E+01,2.31110000000000E+01,,2.27680000000000E+01,2.30440000000000E+01,,,,2.26890000000000E+01,,,2.34380000000000E+01,,,,,,,3.13360000000000E+01,3.36030000000000E+01,,,,3.63710000000000E+01,3.87280000000000E+01,,,,,,4.87770000000000E+01,5.00280000000000E+01,,,,
CMR,,,,,,,,,,,,8.31200000000000E+00,1.00230000000000E+01,1.25700000000000E+01,1.26390000000000E+01,1.56840000000000E+01,,,,,,,,,,,,,,,,,,,,,,,,,,,6.37790000000000E+01,6.38120000000000E+01,6.38200000000000E+01,6.57690000000000E+01,7.22490000000000E+01,7.87580000000000E+01,7.94220000000000E+01,7.90350000000000E+01,8.14910000000000E+01,
COG,,,,,,,,,,,,5.08400000000000E+00,7.36100000000000E+00,,,9.14600000000000E+00,1.10230000000000E+01,1.42240000000000E+01,1.54370000000000E+01,1.52710000000000E+01,1.67170000000000E+01,1.75180000000000E+01,1.53780000000000E+01,1.54550000000000E+01,1.76750000000000E+01,1.80890000000000E+01,1.85020000000000E+01,1.83070000000000E+01,2.20610000000000E+01,1.78660000000000E+01,1.96760000000000E+01,2.15340000000000E+01,2.29540000000000E+01,,,,,,,2.68330000000000E+01,3.14570000000000E+01,1.36600000000000E+01,1.89450000000000E+01,1.89530000000000E+01,,,,,,2.11510000000000E+01,3.32830000000000E+01,
COL,,,,,,,,,,,3.72070000000000E+01,,,,5.48780000000000E+01,5.82480000000000E+01,,6.53500000000000E+01,6.91270000000000E+01,7.22780000000000E+01,8.25520000000000E+01,8.21250000000000E+01,8.67110000000000E+01,,9.38430000000000E+01,9.65940000000000E+01,9.72520000000000E+01,9.93320000000000E+01,9.60750000000000E+01,1.09355000000000E+02,,1.06894000000000E+02,,,,1.04636000000000E+02,1.09640000000000E+02,1.13175000000000E+02,1.00573000000000E+02,1.10899000000000E+02,1.08820000000000E+02,1.09820000000000E+02,1.08297000000000E+02,1.08570000000000E+02,1.07834000000000E+02,1.08117000000000E+02,1.08699000000000E+02,1.08932000000000E+02,9.88710000000000E+01,1.04808000000000E+02,1.09494000000000E+02,
COM,,,,,,,,,,,,,,,,,,,,,,,,,,,,,,,1.72580000000000E+01,,3.99560000000000E+01,,,,,,,7.53840000000000E+01,7.30000000000000E+01,,,7.71640000000000E+01,7.72010000000000E+01,,,,,7.08780000000000E+01,7.38910000000000E+01,
CPV,,,,,,,,,,,,,,,,,,,,,,,,,,,,,,,,,,,,,,,,,1.02885000000000E+02,1.03456000000000E+02,1.04758000000000E+02,1.14438000000000E+02,1.14169000000000E+02,1.07756000000000E+02,1.13060000000000E+02,1.25631000000000E+02,1.30585000000000E+02,1.34962000000000E+02,1.29320000000000E+02,
CRI,,,,,,,,,,,7.93520000000000E+01,8.19920000000000E+01,8.10020000000000E+01,,,,,,,,,,,,,,,,,,,,,,,,,,,,,,,,1.25599000000000E+02,1.25729000000000E+02,,,,,,
CUB,,,,,,,,,,,,6.73290000000000E+01,5.42000000000000E+01,4.82010000000000E+01,5.62780000000000E+01,5.72070000000000E+01,,6.96200000000000E+01,,8.23470000000000E+01,8.92800000000000E+01,9.67190000000000E+01,1.10169000000000E+02,1.13188000000000E+02,1.14744000000000E+02,1.19353000000000E+02,1.20794000000000E+02,1.26904000000000E+02,1.29273000000000E+02,1.37293000000000E+02,1.40163000000000E+02,1.39523000000000E+02,1.43907000000000E+02,1.41258000000000E+02,1.36133000000000E+02,1.44626000000000E+02,1.52695000000000E+02,1.56522000000000E+02,1.60531000000000E+02,1.18115000000000E+02,1.19489000000000E+02,1.13206000000000E+02,1.24012000000000E+02,1.33386000000000E+02,1.72452000000000E+02,1.71428000000000E+02,1.62387000000000E+02,1.83305000000000E+02,1.67249000000000E+02,1.67302000000000E+02,1.65179000000000E+02,
CYM,,,,,,,,,,,,,,,,,,,,,,,,,,,,,,,,,,,,,,,,2.78974000000000E+02,2.77415000000000E+02,2.90122000000000E+02,,,,,2.49977000000000E+02,2.33921000000000E+02,2.23960000000000E+02,,,
CYP,,,,,,,,,,,,7.92710000000000E+01,1.04093000000000E+02,8.09900000000000E+01,7.84130000000000E+01,6.42050000000000E+01,6.99050000000000E+01,7.83910000000000E+01,1.25035000000000E+02,9.05010000000000E+01,8.55560000000000E+01,7.53700000000000E+01,6.51040000000000E+01,8.20160000000000E+01,8.63650000000000E+01,8.45620000000000E+01,9.76680000000000E+01,9.38740000000000E+01,1.02312000000000E+02,1.15710000000000E+02,1.25867000000000E+02,1.10687000000000E+02,1.52864000000000E+02,9.95280000000000E+01,1.15805000000000E+02,1.27449000000000E+02,1.42455000000000E+02,1.22252000000000E+02,,1.24830000000000E+02,1.31443000000000E+02,1.36505000000000E+02,1.25867000000000E+02,1.03371000000000E+02,9.80250000000000E+01,1.13234000000000E+02,1.04777000000000E+02,9.93800000000000E+01,9.58240000000000E+01,8.71910000000000E+01,,
CZE,,,,,,,,,,,,5.85590000000000E+01,5.79510000000000E+01,5.98130000000000E+01,6.18300000000000E+01,6.41820000000000E+01,6.54950000000000E+01,6.77810000000000E+01,6.77400000000000E+01,6.77510000000000E+01,6.89180000000000E+01,7.08370000000000E+01,7.22920000000000E+01,7.46550000000000E+01,7.54110000000000E+01,7.44220000000000E+01,7.54740000000000E+01,7.50770000000000E+01,7.64250000000000E+01,8.00310000000000E+01,7.87830000000000E+01,8.10660000000000E+01,8.27660000000000E+01,8.28710000000000E+01,9.68330000000000E+01,9.63270000000000E+01,9.19560000000000E+01,9.80870000000000E+01,9.69890000000000E+01,1.03107000000000E+02,1.03221000000000E+02,1.04534000000000E+02,1.09436000000000E+02,1.07186000000000E+02,1.09834000000000E+02,1.16238000000000E+02,1.22188000000000E+02,1.26870000000000E+02,1.31673000000000E+02,1.38040000000000E+02,,
DEU,,,,,,,,,,,,,,,,,,,,,,,,,,,,,,,,,7.41210000000000E+01,7.59320000000000E+01,7.70910000000000E+01,8.06040000000000E+01,8.46220000000000E+01,8.87430000000000E+01,,,,,,,,,,,,,,
DJI,,,,,,,,,,,,,,,,,,,,,,,,,,,,,,,,,4.35290000000000E+01,1.26866000000000E+02,1.03546000000000E+02,,8.92930000000000E+01,7.97420000000000E+01,,1.05250000000000E+02,8.96810000000000E+01,7.29010000000000E+01,8.16040000000000E+01,7.05030000000000E+01,8.24190000000000E+01,7.27170000000000E+01,6.75810000000000E+01,6.87920000000000E+01,,6.94220000000000E+01,,
DMA,,,,,,,,,,,,,,,,,,,,,,,,,,,,,,,,7.75470000000000E+01,,,,,,,,,,,,,,,,,3.35242000000000E+02,,,
DNK,,,,,,,,,,,,6.13690000000000E+01,7.46020000000000E+01,7.99890000000000E+01,8.15900000000000E+01,,8.37270000000000E+01,9.26330000000000E+01,9.08220000000000E+01,9.18450000000000E+01,9.82710000000000E+01,1.00113000000000E+02,1.03118000000000E+02,1.00440000000000E+02,1.01936000000000E+02,1.02443000000000E+02,1.02338000000000E+02,1.04390000000000E+02,1.07087000000000E+02,1.09354000000000E+02,1.11701000000000E+02,1.14267000000000E+02,1.16363000000000E+02,1.08108000000000E+02,1.09327000000000E+02,1.11831000000000E+02,1.21577000000000E+02,,1.28855000000000E+02,1.33105000000000E+02,1.36168000000000E+02,1.33126000000000E+02,1.38645000000000E+02,1.41186000000000E+02,1.40843000000000E+02,1.38631000000000E+02,1.38811000000000E+02,1.40406000000000E+02,1.43355000000000E+02,1.45217000000000E+02,,
DOM,,,,,,,,,,,,7.28880000000000E+01,7.29320000000000E+01,7.64310000000000E+01,,8.42430000000000E+01,,,,,,,,,,,,,,,,,,,,,,1.34531000000000E+02,,,,,,1.58487000000000E+02,1.58764000000000E+02,,,,,,,
DZA,,,,,,,,,,,,2.53010000000000E+01,2.77820000000000E+01,2.77060000000000E+01,2.98140000000000E+01,,,3.08540000000000E+01,3.00280000000000E+01,3.23170000000000E+01,3.35820000000000E+01,,,,,,,,,,,,,,,,,,,,,,,,1.08073000000000E+02,1.28105000000000E+02,1.25909000000000E+02,1.39849000000000E+02,,1.44183000000000E+02,1.45543000000000E+02,
EAP,,,,,,,,,,,,,,,,,,,,,,,,,,,,,,,,,,,,,,,,8.42380000000000E+01,8.74530000000000E+01,8.98930000000000E+01,9.31470000000000E+01,9.09810000000000E+01,9.34510000000000E+01,9.37200000000000E+01,9.84350000000000E+01,1.03413000000000E+02,1.05318000000000E+02,1.07607000000000E+02,,
EAS,,,,,,,,,,,,,,,,,,,,,,,,,,,,,,,,,,,,,,,,8.20160000000000E+01,8.43970000000000E+01,8.63990000000000E+01,8.93600000000000E+01,8.84430000000000E+01,9.08520000000000E+01,9.14210000000000E+01,9.53940000000000E+01,9.97120000000000E+01,1.01708000000000E+02,1.04039000000000E+02,,
ECA,,,,,,,,,,,,,,,,,,,,,,,,,,,,,,,,,,,,,,,,1.13629000000000E+02,1.14414000000000E+02,1.16923000000000E+02,1.19058000000000E+02,1.19861000000000E+02,1.20666000000000E+02,1.21433000000000E+02,1.21271000000000E+02,1.21269000000000E+02,1.21948000000000E+02,1.22164000000000E+02,,
ECS,,,,,,,,,,,,,,,,,,,,,,,,,,,,,,,,,,,,,,,,1.14825000000000E+02,1.15815000000000E+02,1.17792000000000E+02,1.19894000000000E+02,1.20725000000000E+02,1.21735000000000E+02,1.22495000000000E+02,1.22786000000000E+02,1.22990000000000E+02,1.23625000000000E+02,1.23928000000000E+02,,
ECU,,,,,,,,,,,,4.38450000000000E+01,4.37070000000000E+01,4.75220000000000E+01,,,,,,5.59640000000000E+01,5.72730000000000E+01,6.09360000000000E+01,6.15770000000000E+01,,6.48870000000000E+01,,,,6.78380000000000E+01,,,,,,,,,,,,,,,,,,,,1.15166000000000E+02,,,
EGY,,,,,,,,,,,,3.68950000000000E+01,3.78170000000000E+01,4.05160000000000E+01,4.12420000000000E+01,4.20000000000000E+01,4.37680000000000E+01,4.09370000000000E+01,4.13810000000000E+01,4.34010000000000E+01,4.43810000000000E+01,4.61820000000000E+01,4.67880000000000E+01,4.77600000000000E+01,4.72720000000000E+01,5.05270000000000E+01,4.30770000000000E+01,4.04490000000000E+01,4.91470000000000E+01,5.07330000000000E+01,5.23200000000000E+01,5.74550000000000E+01,,,,,,,,,,,,,7.65680000000000E+01,,,,,,,
EMU,,,,,,,,,,,,,,,,,,,,,,,,,,,,,,,,,,,,,,,,1.12716000000000E+02,1.12888000000000E+02,1.13636000000000E+02,1.15360000000000E+02,1.15555000000000E+02,1.16244000000000E+02,1.16637000000000E+02,1.17354000000000E+02,1.17753000000000E+02,1.18037000000000E+02,1.18282000000000E+02,,
ERI,,,,,,,,,,,,,,,,,,,,,,,,,,,,,,,,,,,,1.60370000000000E+01,1.34130000000000E+01,,1.56070000000000E+01,1.59460000000000E+01,1.69450000000000E+01,1.55690000000000E+01,1.53710000000000E+01,1.51320000000000E+01,1.48150000000000E+01,,,,,3.18630000000000E+01,3.27890000000000E+01,
ESP,,,,,,,,,,,,3.72630000000000E+01,4.02830000000000E+01,4.58000000000000E+01,4.94110000000000E+01,5.30410000000000E+01,5.81630000000000E+01,6.35190000000000E+01,6.77930000000000E+01,6.94060000000000E+01,7.37060000000000E+01,7.94270000000000E+01,8.44130000000000E+01,8.97930000000000E+01,9.51490000000000E+01,9.57170000000000E+01,1.00146000000000E+02,1.01908000000000E+02,1.05036000000000E+02,1.04199000000000E+02,1.07421000000000E+02,1.08967000000000E+02,1.09895000000000E+02,1.11966000000000E+02,1.08860000000000E+02,1.15694000000000E+02,1.17004000000000E+02,1.17300000000000E+02,1.18306000000000E+02,1.18113000000000E+02,1.17724000000000E+02,1.15692000000000E+02,1.19038000000000E+02,1.19003000000000E+02,1.22242000000000E+02,1.21680000000000E+02,1.22352000000000E+02,1.23419000000000E+02,1.23489000000000E+02,1.23813000000000E+02,,
EST,,,,,,,,,,,,,,,,,,,,,,,,,,,,,,,,,,,1.09688000000000E+02,1.10384000000000E+02,1.13591000000000E+02,1.17140000000000E+02,1.39705000000000E+02,1.39981000000000E+02,1.44488000000000E+02,1.55212000000000E+02,1.64642000000000E+02,1.65604000000000E+02,1.67627000000000E+02,1.66105000000000E+02,1.66963000000000E+02,1.63419000000000E+02,1.68142000000000E+02,1.69833000000000E+02,,
ETH,,,,,,,,,,,,8.50600000000000E+00,8.14200000000000E+00,,9.75500000000000E+00,,,,,,1.97890000000000E+01,,1.52910000000000E+01,1.41620000000000E+01,1.22170000000000E+01,1.79080000000000E+01,2.15370000000000E+01,1.96800000000000E+01,2.06000000000000E+01,2.19080000000000E+01,2.20010000000000E+01,2.16480000000000E+01,,,2.75660000000000E+01,2.50340000000000E+01,2.35080000000000E+01,2.52310000000000E+01,2.35630000000000E+01,2.29630000000000E+01,2.76230000000000E+01,2.71290000000000E+01,3.57080000000000E+01,3.34230000000000E+01,3.33490000000000E+01,3.19370000000000E+01,3.17640000000000E+01,3.44100000000000E+01,3.10600000000000E+01,3.97200000000000E+01,3.60840000000000E+01,
FIN,,,,,,,,,,,,9.88410000000000E+01,9.80300000000000E+01,9.87270000000000E+01,1.03247000000000E+02,1.05184000000000E+02,,9.33470000000000E+01,9.37310000000000E+01,9.38030000000000E+01,9.48630000000000E+01,9.76410000000000E+01,9.99360000000000E+01,1.01625000000000E+02,9.55660000000000E+01,9.76170000000000E+01,9.95960000000000E+01,1.03257000000000E+02,1.05810000000000E+02,1.08632000000000E+02,1.10823000000000E+02,1.13330000000000E+02,1.15871000000000E+02,1.17505000000000E+02,1.17812000000000E+02,1.17294000000000E+02,1.16415000000000E+02,1.17152000000000E+02,1.20326000000000E+02,1.22353000000000E+02,1.21038000000000E+02,1.21804000000000E+02,1.23061000000000E+02,1.20200000000000E+02,1.19788000000000E+02,1.20633000000000E+02,1.22294000000000E+02,1.23093000000000E+02,1.24188000000000E+02,1.23147000000000E+02,,
FJI,,,,,,,,,,,5.03140000000000E+01,1.20622000000000E+02,5.74250000000000E+01,6.62570000000000E+01,3.94840000000000E+01,4.03520000000000E+01,,,,,,,,,,6.02290000000000E+01,5.27010000000000E+01,,,,,,,,,,,,,,,,,1.19838000000000E+02,1.19609000000000E+02,1.19372000000000E+02,,,,,,
FRA,,,,,,,,,,,,,,,,,,,,9.62300000000000E+01,8.76230000000000E+01,,9.61310000000000E+01,9.89030000000000E+01,,1.02312000000000E+02,1.04019000000000E+02,1.05498000000000E+02,1.07895000000000E+02,1.14606000000000E+02,1.14251000000000E+02,1.16899000000000E+02,1.19920000000000E+02,1.22176000000000E+02,1.24013000000000E+02,1.25345000000000E+02,1.24876000000000E+02,1.25577000000000E+02,1.24212000000000E+02,1.22883000000000E+02,1.21772000000000E+02,1.21524000000000E+02,1.24984000000000E+02,1.26057000000000E+02,1.25901000000000E+02,1.26636000000000E+02,1.27050000000000E+02,1.27526000000000E+02,1.27487000000000E+02,1.27929000000000E+02,,
FSM,,,,,,,,,,,,,,,,,,,,4.63720000000000E+01,5.59190000000000E+01,3.26330000000000E+01,8.72380000000000E+01,,,,,,,,,,,,,,,,,,,,,,,,,,,,,
GAB,,,,,,,,,,,,1.75260000000000E+01,1.59790000000000E+01,2.13410000000000E+01,,,2.46870000000000E+01,2.09910000000000E+01,2.21960000000000E+01,2.77560000000000E+01,2.69930000000000E+01,,,3.20930000000000E+01,3.45730000000000E+01,,,3.74660000000000E+01,3.96550000000000E+01,4.16020000000000E+01,,,,,,,,,,5.38560000000000E+01,,,,,,,,,,,,
GBR,,,,,,,,,,,,5.09010000000000E+01,5.20390000000000E+01,5.42260000000000E+01,5.67940000000000E+01,5.81200000000000E+01,5.86490000000000E+01,5.84090000000000E+01,5.79370000000000E+01,5.81390000000000E+01,5.98750000000000E+01,6.00260000000000E+01,6.16840000000000E+01,8.15960000000000E+01,8.25350000000000E+01,8.36770000000000E+01,8.59780000000000E+01,8.82520000000000E+01,8.93220000000000E+01,9.03130000000000E+01,9.35780000000000E+01,9.59410000000000E+01,9.79010000000000E+01,1.01164000000000E+02,1.02972000000000E+02,1.06611000000000E+02,1.04447000000000E+02,1.09864000000000E+02,1.13477000000000E+02,1.15133000000000E+02,1.18732000000000E+02,1.22045000000000E+02,1.26296000000000E+02,1.30501000000000E+02,1.37456000000000E+02,1.39061000000000E+02,1.40573000000000E+02,1.40526000000000E+02,1.40819000000000E+02,1.39699000000000E+02,,
GEO,,,,,,,,,,,,,,,,,,,,,,8.79300000000000E+01,,,,,,,,,,9.11310000000000E+01,,,,1.31515000000000E+02,1.12684000000000E+02,1.05099000000000E+02,,1.06427000000000E+02,9.52090000000000E+01,9.47810000000000E+01,9.88740000000000E+01,9.55160000000000E+01,1.03163000000000E+02,1.03208000000000E+02,1.12332000000000E+02,1.10644000000000E+02,1.20066000000000E+02,1.24049000000000E+02,1.25190000000000E+02,
GHA,,,,,,,,,,,,1.73090000000000E+01,1.64870000000000E+01,1.76440000000000E+01,2.00030000000000E+01,2.63520000000000E+01,1.92700000000000E+01,,,,,,2.65960000000000E+01,,,,,,,,,3.01170000000000E+01,3.08370000000000E+01,2.44680000000000E+01,3.06450000000000E+01,,,,,,,,,,,5.61030000000000E+01,5.30610000000000E+01,5.44460000000000E+01,,6.21410000000000E+01,,
GIN,,,,,,,,,,,,8.79100000000000E+00,,,,1.49590000000000E+01,2.27410000000000E+01,2.50150000000000E+01,2.49360000000000E+01,,,2.45690000000000E+01,2.85660000000000E+01,2.91040000000000E+01,3.06680000000000E+01,3.59840000000000E+01,1.75430000000000E+01,1.65280000000000E+01,1.38410000000000E+01,1.18710000000000E+01,9.43300000000000E+00,7.29500000000000E+00,7.15700000000000E+00,7.82100000000000E+00,7.05700000000000E+00,,1.00680000000000E+01,1.26200000000000E+01,1.39260000000000E+01,,,,,1.92140000000000E+01,1.92020000000000E+01,2.37220000000000E+01,2.80880000000000E+01,3.33770000000000E+01,3.33550000000000E+01,,,
GMB,,,,,,,,,,,,,,,,,,,,,,,,,,,,,,,,,,,,5.49000000000000E+01,,,,2.70410000000000E+01,2.69870000000000E+01,,,,2.22150000000000E+01,,,,,,,
GNB,,,,,,,,,,,,,,,,,,,,,,,,,,,,,,6.26700000000000E+00,,,,,,,,,,1.84440000000000E+01,1.83440000000000E+01,1.84890000000000E+01,,,,,,,,,,
GNQ,,,,,,,,,,,,,,,,,,,,,,,1.08490000000000E+01,,,,,,,,,1.41660000000000E+01,,,,,,,,,4.46250000000000E+01,,,,,,,,,,,
GRC,,,,,,,,,,,,4.90030000000000E+01,5.16300000000000E+01,5.67190000000000E+01,5.91070000000000E+01,5.94530000000000E+01,6.35840000000000E+01,6.52820000000000E+01,6.38400000000000E+01,6.71450000000000E+01,6.74810000000000E+01,7.39210000000000E+01,7.86690000000000E+01,8.48910000000000E+01,9.68910000000000E+01,1.02148000000000E+02,1.04852000000000E+02,1.06428000000000E+02,1.04575000000000E+02,1.02376000000000E+02,1.03726000000000E+02,,9.93520000000000E+01,1.02350000000000E+02,9.29000000000000E+01,1.04814000000000E+02,1.01134000000000E+02,1.00145000000000E+02,1.09770000000000E+02,1.09853000000000E+02,1.09106000000000E+02,1.14682000000000E+02,1.15462000000000E+02,1.14118000000000E+02,1.17464000000000E+02,1.14376000000000E+02,1.12968000000000E+02,1.10182000000000E+02,,,,
GRD,,,,,,,,,,,,,,,,,,,,9.65960000000000E+01,1.43719000000000E+02,,1.53489000000000E+02,9.44500000000000E+01,1.20282000000000E+02,,,,,,,,,,,,,,,,,,,,,,,,,1.35743000000000E+02,,
GTM,,,,,,,,,,,2.35280000000000E+01,2.61840000000000E+01,2.81000000000000E+01,2.94190000000000E+01,2.81860000000000E+01,3.06960000000000E+01,3.30350000000000E+01,3.46730000000000E+01,3.81200000000000E+01,,,,,,,,,,,,,,,,,,,,,,,,7.24060000000000E+01,7.23520000000000E+01,,,,9.97250000000000E+01,,,,
GUY,,,,,,,,,,,,2.39050000000000E+01,2.91330000000000E+01,3.34660000000000E+01,,,5.32650000000000E+01,,,7.88870000000000E+01,6.97840000000000E+01,7.44110000000000E+01,7.80220000000000E+01,6.74840000000000E+01,8.88600000000000E+01,9.27700000000000E+01,8.88740000000000E+01,8.10930000000000E+01,7.60590000000000E+01,,7.27330000000000E+01,,,,8.21070000000000E+01,9.13550000000000E+01,8.90650000000000E+01,1.01802000000000E+02,,,,,,,1.84446000000000E+02,2.04326000000000E+02,2.15700000000000E+02,2.12775000000000E+02,1.43665000000000E+02,9.84620000000000E+01,2.52286000000000E+02,
HIC,,,,,,,,,,,,,,,,,,,,,,,,,,,,,,,,,,,,,,,,1.13368000000000E+02,1.13750000000000E+02,1.14696000000000E+02,1.17543000000000E+02,1.19057000000000E+02,1.20773000000000E+02,1.21655000000000E+02,1.22308000000000E+02,1.22532000000000E+02,1.22791000000000E+02,1.23350000000000E+02,,
HKG,,,,,,,,,,,,4.73060000000000E+01,4.23030000000000E+01,4.12240000000000E+01,3.78750000000000E+01,3.83330000000000E+01,3.54390000000000E+01,3.92380000000000E+01,,4.36670000000000E+01,4.49150000000000E+01,4.78170000000000E+01,5.01070000000000E+01,5.38840000000000E+01,5.58050000000000E+01,,,,,,,,7.01610000000000E+01,7.35680000000000E+01,7.47910000000000E+01,,,,,,,,,9.97370000000000E+01,1.00828000000000E+02,9.89110000000000E+01,9.66560000000000E+01,9.86070000000000E+01,1.00950000000000E+02,1.00584000000000E+02,1.04404000000000E+02,
HND,,,,,,,,,,,,,,,4.90130000000000E+01,5.18000000000000E+01,4.84700000000000E+01,5.82560000000000E+01,5.87660000000000E+01,,6.08180000000000E+01,,,,,,,,6.26290000000000E+01,6.44900000000000E+01,7.54250000000000E+01,7.89070000000000E+01,7.51790000000000E+01,8.00300000000000E+01,7.76280000000000E+01,,,,,1.23707000000000E+02,1.25555000000000E+02,1.25597000000000E+02,1.39174000000000E+02,1.40559000000000E+02,1.40599000000000E+02,,,,1.51441000000000E+02,,,
HRV,,,,,,,,,,,,,,,,,,,,,,,,,,,,,,,,,,9.51580000000000E+01,9.33700000000000E+01,9.88380000000000E+01,9.77390000000000E+01,1.06249000000000E+02,1.04541000000000E+02,1.16505000000000E+02,1.15942000000000E+02,1.14996000000000E+02,1.15050000000000E+02,1.18511000000000E+02,,1.21482000000000E+02,1.22755000000000E+02,1.22297000000000E+02,1.24846000000000E+02,1.26865000000000E+02,,
HTI,,,,,,,,,,,,,,,,,3.01830000000000E+01,3.04410000000000E+01,2.54930000000000E+01,2.99140000000000E+01,,4.25590000000000E+01,,,4.96780000000000E+01,,3.38590000000000E+01,,,,,,,,,,,,,,,,,,,,,,,,,
HUN,,,,,,,,,,,,7.74950000000000E+01,8.25540000000000E+01,8.80700000000000E+01,9.00690000000000E+01,9.37670000000000E+01,9.79790000000000E+01,1.04466000000000E+02,1.07118000000000E+02,1.05721000000000E+02,1.04990000000000E+02,1.03411000000000E+02,1.09001000000000E+02,1.11801000000000E+02,1.17784000000000E+02,1.19059000000000E+02,1.21932000000000E+02,1.22051000000000E+02,1.20526000000000E+02,1.19635000000000E+02,1.08550000000000E+02,1.06132000000000E+02,1.05710000000000E+02,1.07282000000000E+02,1.12300000000000E+02,1.13102000000000E+02,1.18982000000000E+02,1.19131000000000E+02,1.23023000000000E+02,1.24152000000000E+02,1.22509000000000E+02,1.27125000000000E+02,1.29389000000000E+02,1.36727000000000E+02,1.39577000000000E+02,1.46024000000000E+02,1.46253000000000E+02,1.45340000000000E+02,1.43104000000000E+02,1.36546000000000E+02,,
IDN,,,,,,,,,,,3.25090000000000E+01,3.72390000000000E+01,3.82990000000000E+01,,,,4.07410000000000E+01,,,,,,4.68050000000000E+01,4.87050000000000E+01,4.67340000000000E+01,4.92380000000000E+01,,,,,,,,6.70080000000000E+01,,6.37270000000000E+01,5.48990000000000E+01,,,,,7.63580000000000E+01,8.64380000000000E+01,7.96810000000000E+01,7.94370000000000E+01,7.90030000000000E+01,9.14310000000000E+01,9.91740000000000E+01,9.19810000000000E+01,9.58870000000000E+01,,
IND,,,,,,,,,,,,2.93820000000000E+01,,2.95020000000000E+01,,,3.34290000000000E+01,3.60690000000000E+01,3.62400000000000E+01,3.82430000000000E+01,3.79480000000000E+01,3.91450000000000E+01,4.21310000000000E+01,4.20330000000000E+01,4.21080000000000E+01,4.52310000000000E+01,4.65810000000000E+01,4.62980000000000E+01,5.01240000000000E+01,5.07740000000000E+01,5.24270000000000E+01,5.39020000000000E+01,,,,5.71200000000000E+01,6.12650000000000E+01,6.18570000000000E+01,,,6.57960000000000E+01,6.83180000000000E+01,6.96340000000000E+01,6.77740000000000E+01,6.70920000000000E+01,7.06240000000000E+01,7.21070000000000E+01,6.97900000000000E+01,,6.84710000000000E+01,,
IRL,,,,,,,,,,,,5.44110000000000E+01,5.54260000000000E+01,5.89550000000000E+01,5.94030000000000E+01,,5.47900000000000E+01,6.45710000000000E+01,6.36320000000000E+01,6.83670000000000E+01,7.06990000000000E+01,7.12160000000000E+01,7.01300000000000E+01,7.30600000000000E+01,7.84140000000000E+01,7.94940000000000E+01,7.98460000000000E+01,8.19700000000000E+01,8.44900000000000E+01,8.41530000000000E+01,8.75900000000000E+01,8.98000000000000E+01,9.39040000000000E+01,9.78090000000000E+01,9.80420000000000E+01,1.01700000000000E+02,1.06872000000000E+02,1.11244000000000E+02,1.16285000000000E+02,1.19106000000000E+02,1.22141000000000E+02,1.25781000000000E+02,1.27564000000000E+02,1.30029000000000E+02,1.26703000000000E+02,1.25164000000000E+02,1.26508000000000E+02,1.27920000000000E+02,1.23862000000000E+02,1.22937000000000E+02,,
IRN,,,,,,,,,,,,3.53670000000000E+01,4.40090000000000E+01,4.42170000000000E+01,4.25220000000000E+01,4.06520000000000E+01,3.98650000000000E+01,4.34490000000000E+01,4.64070000000000E+01,,,,,4.55800000000000E+01,4.61210000000000E+01,,,,,,,3.96260000000000E+01,,,,,5.84990000000000E+01,,,7.98000000000000E+01,8.63290000000000E+01,9.44260000000000E+01,1.00161000000000E+02,1.06360000000000E+02,1.08255000000000E+02,1.05966000000000E+02,1.07989000000000E+02,1.12369000000000E+02,1.15347000000000E+02,1.07004000000000E+02,1.00839000000000E+02,
IRQ,,,,,,,,,,,,3.04290000000000E+01,2.91820000000000E+01,2.77510000000000E+01,3.50350000000000E+01,4.31580000000000E+01,5.09000000000000E+01,4.88960000000000E+01,4.99500000000000E+01,4.96590000000000E+01,4.63240000000000E+01,4.85350000000000E+01,4.69020000000000E+01,4.85680000000000E+01,4.98570000000000E+01,4.30590000000000E+01,5.98650000000000E+01,6.67770000000000E+01,6.85860000000000E+01,6.41660000000000E+01,,,,,,,,,,5.46560000000000E+01,5.43340000000000E+01,,5.43980000000000E+01,,5.98670000000000E+01,,,,,,,
ISL,,,,,,,,,,,,3.59990000000000E+01,3.95810000000000E+01,4.49190000000000E+01,4.75770000000000E+01,5.48580000000000E+01,6.25190000000000E+01,6.75260000000000E+01,7.40700000000000E+01,,,1.05286000000000E+02,,1.08769000000000E+02,1.12952000000000E+02,,1.29877000000000E+02,,,1.31545000000000E+02,1.31992000000000E+02,1.38619000000000E+02,1.45223000000000E+02,1.39730000000000E+02,1.41950000000000E+02,1.40101000000000E+02,1.47644000000000E+02,1.45576000000000E+02,1.54414000000000E+02,1.68698000000000E+02,1.66103000000000E+02,1.71070000000000E+02,1.75034000000000E+02,1.78992000000000E+02,1.86812000000000E+02,1.91151000000000E+02,1.87403000000000E+02,1.86849000000000E+02,1.89233000000000E+02,1.86968000000000E+02,,
ISR,,,,,,,,,,,,8.44380000000000E+01,,8.69030000000000E+01,,8.84610000000000E+01,,8.97760000000000E+01,9.19690000000000E+01,9.27870000000000E+01,9.52860000000000E+01,1.10548000000000E+02,9.00480000000000E+01,9.13610000000000E+01,9.44400000000000E+01,,9.47920000000000E+01,9.18560000000000E+01,9.45500000000000E+01,9.51650000000000E+01,9.79290000000000E+01,1.01253000000000E+02,,1.10237000000000E+02,,,,,1.35037000000000E+02,1.43963000000000E+02,1.42736000000000E+02,1.39646000000000E+02,1.37702000000000E+02,1.32295000000000E+02,1.32320000000000E+02,1.32580000000000E+02,1.27154000000000E+02,1.30671000000000E+02,1.29255000000000E+02,1.29715000000000E+02,,
ITA,,,,,,,,,,,,6.08100000000000E+01,5.94530000000000E+01,6.27230000000000E+01,6.54510000000000E+01,6.55670000000000E+01,6.50640000000000E+01,6.67150000000000E+01,6.94800000000000E+01,7.15620000000000E+01,7.46330000000000E+01,7.56050000000000E+01,,8.05950000000000E+01,8.23080000000000E+01,8.49240000000000E+01,8.79590000000000E+01,9.04470000000000E+01,9.22280000000000E+01,9.41950000000000E+01,9.59230000000000E+01,9.36030000000000E+01,1.01362000000000E+02,1.05561000000000E+02,1.09585000000000E+02,1.13837000000000E+02,1.15970000000000E+02,1.20944000000000E+02,1.32868000000000E+02,1.26522000000000E+02,1.28501000000000E+02,1.31378000000000E+02,1.33148000000000E+02,1.33597000000000E+02,1.33802000000000E+02,1.36167000000000E+02,1.38728000000000E+02,1.40609000000000E+02,1.40984000000000E+02,1.40996000000000E+02,,
JAM,,,,,,,,,,,,6.76860000000000E+01,6.31670000000000E+01,6.15460000000000E+01,6.15190000000000E+01,,,,,,,,,,,,,,,,,,,,,,,,,,1.82312000000000E+02,1.97094000000000E+02,2.14360000000000E+02,2.24174000000000E+02,,,,,2.24034000000000E+02,2.30199000000000E+02,,
JOR,,,,,,,,,,,,4.86220000000000E+01,5.24030000000000E+01,5.21850000000000E+01,5.30010000000000E+01,5.53220000000000E+01,5.46870000000000E+01,5.82200000000000E+01,6.39330000000000E+01,7.47950000000000E+01,8.33120000000000E+01,9.30810000000000E+01,7.50610000000000E+01,8.07970000000000E+01,8.39130000000000E+01,8.97410000000000E+01,9.34100000000000E+01,1.06641000000000E+02,1.18822000000000E+02,1.16807000000000E+02,1.26940000000000E+02,1.12174000000000E+02,1.11444000000000E+02,1.12643000000000E+02,1.06578000000000E+02,,9.63240000000000E+01,9.82900000000000E+01,,,1.15134000000000E+02,,1.03607000000000E+02,1.12471000000000E+02,1.12939000000000E+02,1.08394000000000E+02,1.14005000000000E+02,1.12152000000000E+02,1.12357000000000E+02,1.12314000000000E+02,,
JPN,,,,,,,,,,,,3.92340000000000E+01,3.92360000000000E+01,4.14150000000000E+01,4.34830000000000E+01,4.63820000000000E+01,4.86760000000000E+01,5.08050000000000E+01,4.94150000000000E+01,5.01840000000000E+01,4.98730000000000E+01,5.02360000000000E+01,5.06680000000000E+01,5.17720000000000E+01,5.28020000000000E+01,5.44180000000000E+01,5.57560000000000E+01,5.82960000000000E+01,6.15000000000000E+01,6.32100000000000E+01,6.51360000000000E+01,6.51580000000000E+01,7.07040000000000E+01,,8.10160000000000E+01,8.20370000000000E+01,,,8.42140000000000E+01,8.46940000000000E+01,8.54610000000000E+01,8.54010000000000E+01,8.62780000000000E+01,8.77840000000000E+01,8.87730000000000E+01,8.89310000000000E+01,8.81510000000000E+01,8.79470000000000E+01,8.84470000000000E+01,8.85980000000000E+01,,
KAZ,,,,,,,,,,,,,,,,,,,,,,,,,,,,,,,,,,,1.24358000000000E+02,1.24755000000000E+02,1.23798000000000E+02,,,1.14232000000000E+02,1.17640000000000E+02,1.19594000000000E+02,1.25312000000000E+02,1.33467000000000E+02,1.38530000000000E+02,1.42921000000000E+02,1.42421000000000E+02,1.43331000000000E+02,1.43262000000000E+02,1.44042000000000E+02,1.43534000000000E+02,
KEN,,,,,,,,,,,,,,,,,,,,,,,,,5.10670000000000E+01,3.50220000000000E+01,,3.81090000000000E+01,,,,,,,,,,,,,5.42620000000000E+01,5.36500000000000E+01,5.37260000000000E+01,,6.02480000000000E+01,5.97110000000000E+01,,,,7.03090000000000E+01,,
KGZ,,,,,,,,,,,,,,,,,,,,,,,,,,,,,,,,,,1.34676000000000E+02,1.31259000000000E+02,1.25566000000000E+02,1.20811000000000E+02,1.20839000000000E+02,1.15309000000000E+02,1.04192000000000E+02,1.01411000000000E+02,1.04432000000000E+02,1.13821000000000E+02,1.18603000000000E+02,1.18274000000000E+02,1.24157000000000E+02,1.25850000000000E+02,1.28567000000000E+02,1.34128000000000E+02,1.29844000000000E+02,,
KHM,,,,,,,,,,,,,2.76050000000000E+01,2.55030000000000E+01,,,,,,,,,,,,,,,,,,,,2.07960000000000E+01,2.03600000000000E+01,1.86460000000000E+01,1.86760000000000E+01,1.89190000000000E+01,2.41530000000000E+01,,3.32430000000000E+01,3.76600000000000E+01,4.07360000000000E+01,4.08730000000000E+01,4.60370000000000E+01,4.64790000000000E+01,4.94610000000000E+01,5.48980000000000E+01,5.29390000000000E+01,,,
KNA,,,,,,,,,,,,,,,,,,,,,,,,,,,,,,,,,1.17701000000000E+02,1.22850000000000E+02,,,,,,,,,,,,,,,2.10104000000000E+02,,,
KOR,,,,,,,,,,,,3.31690000000000E+01,3.41440000000000E+01,3.60990000000000E+01,3.75240000000000E+01,3.88150000000000E+01,3.57260000000000E+01,3.50310000000000E+01,3.34410000000000E+01,3.24150000000000E+01,3.13640000000000E+01,,3.64420000000000E+01,3.77140000000000E+01,4.18070000000000E+01,4.81170000000000E+01,4.52810000000000E+01,4.51040000000000E+01,4.51040000000000E+01,4.59890000000000E+01,4.76320000000000E+01,4.94510000000000E+01,5.21370000000000E+01,5.84190000000000E+01,5.67170000000000E+01,5.77510000000000E+01,5.81540000000000E+01,6.31230000000000E+01,5.80360000000000E+01,6.01290000000000E+01,6.14480000000000E+01,6.14840000000000E+01,6.20720000000000E+01,6.27340000000000E+01,6.40420000000000E+01,6.51250000000000E+01,6.61210000000000E+01,6.73490000000000E+01,6.87930000000000E+01,7.02020000000000E+01,,
KWT,,,,,,,,,,,,1.16037000000000E+02,1.14728000000000E+02,1.27654000000000E+02,1.61891000000000E+02,1.73919000000000E+02,1.52377000000000E+02,1.46057000000000E+02,1.43636000000000E+02,1.72543000000000E+02,1.74141000000000E+02,1.74126000000000E+02,1.49149000000000E+02,1.50739000000000E+02,1.29475000000000E+02,1.17822000000000E+02,1.16369000000000E+02,1.17070000000000E+02,1.16175000000000E+02,1.25156000000000E+02,1.70994000000000E+02,,1.88561000000000E+02,1.97880000000000E+02,1.69500000000000E+02,1.94614000000000E+02,1.97574000000000E+02,1.99121000000000E+02,,2.38949000000000E+02,,1.86882000000000E+02,2.02246000000000E+02,2.20780000000000E+02,2.20066000000000E+02,,,,,,,
LAC,,,,,,,,,,,,,,,,,,,,,,,,,,,,,,,,,,,,,,,,1.16651000000000E+02,1.17726000000000E+02,1.16923000000000E+02,1.18131000000000E+02,1.19046000000000E+02,1.19528000000000E+02,1.20136000000000E+02,1.22901000000000E+02,1.25357000000000E+02,1.25280000000000E+02,1.25636000000000E+02,,
LAO,,,,,,,,,,,,2.27300000000000E+01,2.39310000000000E+01,2.44620000000000E+01,2.47890000000000E+01,3.82030000000000E+01,,,,,3.53330000000000E+01,4.64500000000000E+01,4.77970000000000E+01,4.64000000000000E+01,,5.36260000000000E+01,5.66660000000000E+01,,5.94750000000000E+01,,4.91890000000000E+01,,,4.29110000000000E+01,3.79320000000000E+01,4.07200000000000E+01,4.38760000000000E+01,4.42870000000000E+01,4.33950000000000E+01,4.85240000000000E+01,5.25950000000000E+01,5.89640000000000E+01,5.65040000000000E+01,5.66360000000000E+01,6.21320000000000E+01,7.10210000000000E+01,6.78170000000000E+01,7.23550000000000E+01,7.77220000000000E+01,,,
LBN,,,,,,,,,,,,3.22700000000000E+01,3.48030000000000E+01,,,,,,,,5.62620000000000E+01,5.55040000000000E+01,5.85840000000000E+01,5.84360000000000E+01,6.08440000000000E+01,6.34170000000000E+01,,,,,,,9.24410000000000E+01,,,,9.86840000000000E+01,,,9.94350000000000E+01,,,,,,,1.15466000000000E+02,1.19844000000000E+02,1.23480000000000E+02,1.18867000000000E+02,1.19055000000000E+02,
LBR,,,,,,,,,,,2.70600000000000E+01,2.46820000000000E+01,3.10650000000000E+01,3.14470000000000E+01,,2.79030000000000E+01,,,,3.73520000000000E+01,,,,,,,,2.94630000000000E+01,,,,,,,,,,,,2.40770000000000E+01,7.59710000000000E+01,,,,,,,,,,,
LBY,,,,,,,,,,,,1.33030000000000E+01,1.45490000000000E+01,1.67510000000000E+01,1.82670000000000E+01,2.03800000000000E+01,2.31970000000000E+01,2.62670000000000E+01,2.54200000000000E+01,2.84150000000000E+01,3.59300000000000E+01,3.74640000000000E+01,3.80350000000000E+01,3.77470000000000E+01,,,,,,,,,8.65330000000000E+01,,,,,,,9.69830000000000E+01,9.71280000000000E+01,1.03420000000000E+02,1.08695000000000E+02,1.08618000000000E+02,,,,,,,,
LCA,,,,,,,,,,,,,,,,,,1.06619000000000E+02,1.02732000000000E+02,1.69490000000000E+02,2.08855000000000E+02,1.06429000000000E+02,1.46781000000000E+02,8.62880000000000E+01,9.56950000000000E+01,8.29060000000000E+01,9.84840000000000E+01,1.20114000000000E+02,1.16845000000000E+02,,,,,1.48950000000000E+02,,,2.50854000000000E+02,,,,,,,2.03074000000000E+02,3.38466000000000E+02,2.71943000000000E+02,5.30631000000000E+02,2.33295000000000E+02,2.24128000000000E+02,2.56622000000000E+02,2.57309000000000E+02,
LCN,,,,,,,,,,,,,,,,,,,,,,,,,,,,,,,,,,,,,,,,1.17490000000000E+02,1.18509000000000E+02,1.17652000000000E+02,1.18765000000000E+02,1.19636000000000E+02,1.20055000000000E+02,1.20625000000000E+02,1.23355000000000E+02,1.25750000000000E+02,1.25737000000000E+02,1.27927000000000E+02,,
LIC,,,,,,,,,,,,,,,,,,,,,,,,,,,,,,,,,,,,,,,,6.40630000000000E+01,6.62850000000000E+01,6.67180000000000E+01,6.55860000000000E+01,6.48080000000000E+01,6.45360000000000E+01,6.50700000000000E+01,6.55940000000000E+01,6.47610000000000E+01,6.49780000000000E+01,6.44400000000000E+01,,
LIE,,,,,,,,,,,,,,,,,,,,,,,,,,,,,,,,,,,,,,,,,,,,3.80970000000000E+01,3.70900000000000E+01,,4.34440000000000E+01,4.67990000000000E+01,5.16630000000000E+01,4.93380000000000E+01,,
LKA,,,,,,,,,,,7.87660000000000E+01,6.60510000000000E+01,,6.32730000000000E+01,6.10400000000000E+01,5.68270000000000E+01,,,,6.14580000000000E+01,,7.63210000000000E+01,7.85710000000000E+01,6.76740000000000E+01,6.65990000000000E+01,6.95450000000000E+01,7.06640000000000E+01,,7.02230000000000E+01,,,4.76050000000000E+01,,,4.97990000000000E+01,,,,,,,,,,,,,,,,,
LMC,,,,,,,,,,,,,,,,,,,,,,,,,,,,,,,,,,,,,,,,7.65510000000000E+01,7.71670000000000E+01,7.92230000000000E+01,8.11490000000000E+01,7.91160000000000E+01,7.87310000000000E+01,8.11650000000000E+01,8.40750000000000E+01,8.38740000000000E+01,8.35980000000000E+01,8.44070000000000E+01,,
LMY,,,,,,,,,,,,,,,,,,,,,,,,,,,,,,,,,,,,,,,,8.92890000000000E+01,9.08360000000000E+01,9.28090000000000E+01,9.49030000000000E+01,9.41460000000000E+01,9.53060000000000E+01,9.69880000000000E+01,9.93130000000000E+01,1.00691000000000E+02,1.01762000000000E+02,1.02251000000000E+02,,
LSO,,,,,,,,,,,4.43410000000000E+01,5.02920000000000E+01,,7.28530000000000E+01,7.04310000000000E+01,6.58750000000000E+01,,8.40100000000000E+01,9.25490000000000E+01,8.29190000000000E+01,,9.05360000000000E+01,9.46740000000000E+01,9.16660000000000E+01,9.09540000000000E+01,9.98090000000000E+01,1.05718000000000E+02,1.30146000000000E+02,1.44439000000000E+02,1.41659000000000E+02,1.25127000000000E+02,1.29682000000000E+02,1.07918000000000E+02,1.13463000000000E+02,1.10776000000000E+02,1.12387000000000E+02,1.09175000000000E+02,,,1.74580000000000E+02,1.62214000000000E+02,1.74852000000000E+02,1.40248000000000E+02,1.61024000000000E+02,,1.33613000000000E+02,1.24524000000000E+02,,,,,
LTU,,,,,,,,,,,,,,,,,,,,,,1.24112000000000E+02,,,,,1.84110000000000E+02,,,7.98760000000000E+01,7.07130000000000E+01,,1.36641000000000E+02,1.41636000000000E+02,1.45742000000000E+02,1.44075000000000E+02,1.50662000000000E+02,1.48472000000000E+02,1.54580000000000E+02,1.52541000000000E+02,1.52503000000000E+02,1.52288000000000E+02,1.56848000000000E+02,1.54683000000000E+02,1.55063000000000E+02,1.56380000000000E+02,1.55384000000000E+02,1.56327000000000E+02,1.55267000000000E+02,1.50817000000000E+02,,
LUX,,,,,,,,,,,,7.41160000000000E+01,8.78650000000000E+01,8.62450000000000E+01,8.41580000000000E+01,8.60830000000000E+01,7.44000000000000E+01,7.32840000000000E+01,7.44440000000000E+01,7.70790000000000E+01,8.95150000000000E+01,5.46670000000000E+01,5.35970000000000E+01,4.68660000000000E+01,5.53330000000000E+01,5.19060000000000E+01,5.22910000000000E+01,4.39860000000000E+01,,,,,,,,,5.20190000000000E+01,5.53370000000000E+01,,1.09358000000000E+02,,1.16289000000000E+02,1.15839000000000E+02,1.19147000000000E+02,,,1.12681000000000E+02,,9.66960000000000E+01,,,
LVA,,,,,,,,,,,,,,,,,,,,,,1.37883000000000E+02,1.37058000000000E+02,1.38409000000000E+02,1.45152000000000E+02,1.46866000000000E+02,1.62184000000000E+02,1.82458000000000E+02,1.66891000000000E+02,1.69315000000000E+02,1.41163000000000E+02,1.28485000000000E+02,1.18971000000000E+02,,,,,1.53929000000000E+02,1.48831000000000E+02,1.63895000000000E+02,1.76697000000000E+02,1.65506000000000E+02,1.64350000000000E+02,1.66679000000000E+02,1.71553000000000E+02,1.79085000000000E+02,1.80378000000000E+02,1.84881000000000E+02,1.88390000000000E+02,1.81967000000000E+02,,
MAC,,,,,,,,,,,,,,,,,,,,,,,,,,,,,,4.18900000000000E+01,3.90970000000000E+01,4.80330000000000E+01,5.29560000000000E+01,5.55820000000000E+01,6.46370000000000E+01,,,8.56580000000000E+01,,7.30760000000000E+01,9.09660000000000E+01,6.75110000000000E+01,5.10250000000000E+01,5.18190000000000E+01,6.30010000000000E+01,7.04700000000000E+01,8.08940000000000E+01,9.19740000000000E+01,9.58740000000000E+01,9.62540000000000E+01,9.85240000000000E+01,
MAR,,,,,,,,,,,,1.86030000000000E+01,1.89370000000000E+01,1.83360000000000E+01,2.16130000000000E+01,2.34860000000000E+01,2.39180000000000E+01,2.45480000000000E+01,2.68090000000000E+01,3.15260000000000E+01,3.12500000000000E+01,3.05130000000000E+01,3.20030000000000E+01,3.53750000000000E+01,,,4.61480000000000E+01,4.88970000000000E+01,5.00450000000000E+01,5.41860000000000E+01,6.01440000000000E+01,5.81730000000000E+01,6.22580000000000E+01,6.51020000000000E+01,6.74070000000000E+01,6.97380000000000E+01,,6.89590000000000E+01,7.16480000000000E+01,7.09860000000000E+01,7.22970000000000E+01,7.65730000000000E+01,7.65020000000000E+01,7.99460000000000E+01,8.24910000000000E+01,8.04850000000000E+01,8.06090000000000E+01,8.90710000000000E+01,8.83040000000000E+01,8.71410000000000E+01,,
MDA,,,,,,,,,,,,,,,,,,,,,,,,,,,,,,,,,,,,1.15887000000000E+02,1.25492000000000E+02,1.21824000000000E+02,,1.28980000000000E+02,1.32369000000000E+02,1.29040000000000E+02,1.33787000000000E+02,1.32141000000000E+02,1.35126000000000E+02,1.45617000000000E+02,1.38439000000000E+02,1.38740000000000E+02,1.44568000000000E+02,1.38956000000000E+02,1.33620000000000E+02,
MDG,,,,,,,,,,,,4.64320000000000E+01,,3.83190000000000E+01,,,1.09424000000000E+02,5.67200000000000E+01,5.30350000000000E+01,4.97840000000000E+01,,,,,,,6.27400000000000E+01,6.94290000000000E+01,7.17590000000000E+01,7.58060000000000E+01,7.75390000000000E+01,8.17390000000000E+01,,,7.78640000000000E+01,8.35080000000000E+01,8.15170000000000E+01,8.17090000000000E+01,8.33710000000000E+01,8.41410000000000E+01,8.63390000000000E+01,8.36140000000000E+01,8.31330000000000E+01,8.31430000000000E+01,8.98900000000000E+01,8.88280000000000E+01,8.69870000000000E+01,8.84330000000000E+01,8.92030000000000E+01,9.02260000000000E+01,9.11400000000000E+01,
MDV,,,,,,,,,,,,,,,,,,,,,,,,,,,,,,,,,,,,,,,,,,,,2.29289000000000E+02,2.29560000000000E+02,,,,,,,
MEA,,,,,,,,,,,,,,,,,,,,,,,,,,,,,,,,,,,,,,,,7.99600000000000E+01,8.26280000000000E+01,8.58890000000000E+01,9.01210000000000E+01,9.36570000000000E+01,9.58480000000000E+01,9.66470000000000E+01,9.77520000000000E+01,1.00165000000000E+02,1.02269000000000E+02,1.00681000000000E+02,,
MEX,,,,,,,,,,,,2.57040000000000E+01,2.82490000000000E+01,,,,,3.69340000000000E+01,4.00250000000000E+01,,4.65530000000000E+01,4.83570000000000E+01,5.08130000000000E+01,5.36650000000000E+01,5.43420000000000E+01,,,,,,,,,8.05140000000000E+01,8.36620000000000E+01,8.60470000000000E+01,8.86810000000000E+01,9.00150000000000E+01,9.13970000000000E+01,9.17580000000000E+01,9.33540000000000E+01,9.45970000000000E+01,9.56800000000000E+01,9.68190000000000E+01,9.78570000000000E+01,9.86720000000000E+01,9.81570000000000E+01,9.79420000000000E+01,9.76830000000000E+01,9.76000000000000E+01,,
MHL,,,,,,,,,,,,,,,,,,,,,,,,,,,,,,,,,,,,,,,,,,1.28140000000000E+02,1.28559000000000E+02,1.28383000000000E+02,,,,,,,,
MIC,,,,,,,,,,,,,,,,,,,,,,,,,,,,,,,,,,,,,,,,9.09470000000000E+01,9.24860000000000E+01,9.46200000000000E+01,9.68590000000000E+01,9.60580000000000E+01,9.72260000000000E+01,9.89980000000000E+01,1.01504000000000E+02,1.03078000000000E+02,1.04448000000000E+02,1.05448000000000E+02,,
MKD,,,,,,,,,,,,,,,,,,,,,,,,,,,,,,9.82590000000000E+01,9.95620000000000E+01,1.10846000000000E+02,1.06642000000000E+02,1.11463000000000E+02,1.16579000000000E+02,1.22474000000000E+02,1.24306000000000E+02,1.24791000000000E+02,1.25567000000000E+02,1.28638000000000E+02,1.28685000000000E+02,1.33029000000000E+02,1.30212000000000E+02,1.35569000000000E+02,1.40724000000000E+02,1.39030000000000E+02,1.38988000000000E+02,1.27260000000000E+02,1.20700000000000E+02,1.19376000000000E+02,,
MLI,,,,,,,,,,,,1.16870000000000E+01,1.10110000000000E+01,1.10120000000000E+01,,1.01170000000000E+01,1.13980000000000E+01,1.18200000000000E+01,1.34320000000000E+01,1.31230000000000E+01,1.27200000000000E+01,1.46670000000000E+01,1.22590000000000E+01,1.38000000000000E+01,1.37780000000000E+01,1.49130000000000E+01,1.46850000000000E+01,1.49970000000000E+01,,1.56750000000000E+01,1.50050000000000E+01,1.56340000000000E+01,1.58010000000000E+01,1.75060000000000E+01,,1.72460000000000E+01,1.99060000000000E+01,2.37330000000000E+01,2.47810000000000E+01,4.71240000000000E+01,4.82210000000000E+01,5.05610000000000E+01,5.06120000000000E+01,5.26930000000000E+01,5.43840000000000E+01,5.44310000000000E+01,,4.65500000000000E+01,4.65400000000000E+01,4.19640000000000E+01,4.15780000000000E+01,
MLT,,,,,,,,,,,,4.93190000000000E+01,3.60650000000000E+01,2.86900000000000E+01,3.35850000000000E+01,3.49860000000000E+01,3.67340000000000E+01,3.63000000000000E+01,3.38500000000000E+01,2.70430000000000E+01,3.62770000000000E+01,3.46930000000000E+01,2.91820000000000E+01,2.98650000000000E+01,3.63630000000000E+01,4.59850000000000E+01,5.16620000000000E+01,5.57670000000000E+01,6.04620000000000E+01,6.49020000000000E+01,7.73720000000000E+01,8.25320000000000E+01,9.28900000000000E+01,9.82990000000000E+01,1.01267000000000E+02,9.89680000000000E+01,1.05375000000000E+02,1.12762000000000E+02,1.03925000000000E+02,1.12311000000000E+02,1.20612000000000E+02,1.27949000000000E+02,1.39065000000000E+02,1.39239000000000E+02,1.33135000000000E+02,1.35573000000000E+02,,1.42039000000000E+02,1.44842000000000E+02,1.37035000000000E+02,,
MMR,,,,,,,,,,,,,5.84120000000000E+01,6.34450000000000E+01,,,,9.30560000000000E+01,,9.97640000000000E+01,,,,,,,,,,,,,1.23560000000000E+02,1.34998000000000E+02,,1.58982000000000E+02,,,1.57999000000000E+02,,,,,,,,,1.38350000000000E+02,,,,
MNA,,,,,,,,,,,,,,,,,,,,,,,,,,,,,,,,5.54512848167486E+01,,,,,,,,7.37020000000000E+01,7.63710000000000E+01,8.00190000000000E+01,8.35150000000000E+01,8.72650000000000E+01,8.94670000000000E+01,9.06560000000000E+01,9.22070000000000E+01,9.58630000000000E+01,9.85070000000000E+01,9.67980000000000E+01,,
MNE,,,,,,,,,,,,,,,,,,,,,,,,,,,,,,,,,,,,,,,,,,1.34322000000000E+02,1.37248000000000E+02,1.45456000000000E+02,1.60181000000000E+02,1.54542000000000E+02,1.52220000000000E+02,1.37353000000000E+02,1.23676000000000E+02,1.28332000000000E+02,,
MNG,,,,,,,,,,,,,,,,,,,,,,,,,,,,,,,,,,,,,2.34823000000000E+02,2.28637000000000E+02,2.17309000000000E+02,1.83660000000000E+02,1.75891000000000E+02,1.72270000000000E+02,1.74053000000000E+02,1.69077000000000E+02,1.64832000000000E+02,1.62218000000000E+02,1.56935000000000E+02,1.55032000000000E+02,1.56971000000000E+02,1.55154000000000E+02,1.53137000000000E+02,
MOZ,,,,,,,,,,,,,,8.13420000000000E+01,,,,4.96400000000000E+01,,,,,3.31910000000000E+01,,,2.91260000000000E+01,2.82310000000000E+01,2.74250000000000E+01,,,,,3.20710000000000E+01,3.00410000000000E+01,2.93700000000000E+01,2.75430000000000E+01,2.61560000000000E+01,,,,,,,4.67740000000000E+01,4.59500000000000E+01,4.95820000000000E+01,,,,,,
MRT,,,,,,,,,,,,,,,,,,,1.14070000000000E+01,,,,,,,,,,1.55010000000000E+01,1.56220000000000E+01,1.36150000000000E+01,1.71770000000000E+01,1.82520000000000E+01,1.82550000000000E+01,2.17840000000000E+01,2.16080000000000E+01,2.22470000000000E+01,,2.05030000000000E+01,,,2.08710000000000E+01,2.79240000000000E+01,2.82330000000000E+01,3.21240000000000E+01,3.37020000000000E+01,3.57360000000000E+01,,4.07270000000000E+01,4.05830000000000E+01,4.06920000000000E+01,
MUS,,,,,,,,,,,5.02100000000000E+00,2.29450000000000E+01,1.62120000000000E+01,1.89760000000000E+01,1.85770000000000E+01,1.59320000000000E+01,2.05420000000000E+01,3.25390000000000E+01,3.48820000000000E+01,3.66450000000000E+01,4.37560000000000E+01,4.12590000000000E+01,3.41660000000000E+01,4.30680000000000E+01,3.87140000000000E+01,5.95480000000000E+01,5.22850000000000E+01,6.49620000000000E+01,5.26310000000000E+01,5.44730000000000E+01,5.97090000000000E+01,7.30160000000000E+01,,,8.44800000000000E+01,9.97770000000000E+01,,8.48370000000000E+01,,8.11370000000000E+01,8.67250000000000E+01,1.25903000000000E+02,9.86860000000000E+01,9.26890000000000E+01,9.72000000000000E+01,1.03711000000000E+02,1.01216000000000E+02,1.17554000000000E+02,1.23817000000000E+02,,,
MWI,,,,,,,,,,,,,,,,,,,,,3.19430000000000E+01,3.42700000000000E+01,2.89980000000000E+01,2.89170000000000E+01,2.64650000000000E+01,2.69610000000000E+01,2.80200000000000E+01,3.17370000000000E+01,,2.47030000000000E+01,3.44130000000000E+01,3.41790000000000E+01,3.48070000000000E+01,3.03160000000000E+01,3.51470000000000E+01,3.97930000000000E+01,4.12740000000000E+01,,,3.81090000000000E+01,3.82120000000000E+01,4.13860000000000E+01,4.13890000000000E+01,4.13620000000000E+01,5.48040000000000E+01,5.47660000000000E+01,5.07430000000000E+01,5.08280000000000E+01,,,,
MYS,,,,,,,,,,,,,,,,,,,,5.96850000000000E+01,5.95170000000000E+01,5.96570000000000E+01,7.17820000000000E+01,7.92140000000000E+01,7.43340000000000E+01,7.99000000000000E+01,,8.01450000000000E+01,8.16640000000000E+01,,,,,,,,,,1.06615000000000E+02,1.01742000000000E+02,1.05797000000000E+02,1.20997000000000E+02,1.25128000000000E+02,1.36738000000000E+02,1.26979000000000E+02,1.30248000000000E+02,1.24525000000000E+02,1.29844000000000E+02,1.30128000000000E+02,,,
NAC,,,,,,,,,,,,,,,,,,,,,,,,,,,,,,,,,,,,,,,,1.31685000000000E+02,1.32262000000000E+02,1.32923000000000E+02,1.35134000000000E+02,1.36931000000000E+02,1.39161000000000E+02,1.40015000000000E+02,1.40730000000000E+02,1.40630000000000E+02,1.39643000000000E+02,1.39467000000000E+02,,
NAM,,,,,,,,,,,,,,,,,,,,,,,,,,,,,,,,1.75040000000000E+02,,,1.56774000000000E+02,1.53148000000000E+02,,1.11822000000000E+02,1.13036000000000E+02,,,8.46400000000000E+01,1.38473000000000E+02,1.14353000000000E+02,,8.80130000000000E+01,8.80350000000000E+01,,1.32311000000000E+02,,,
NER,,,,,,,,,,,,,,4.79800000000000E+00,4.05400000000000E+00,1.08180000000000E+01,1.02700000000000E+01,1.42070000000000E+01,1.41960000000000E+01,1.47520000000000E+01,1.37760000000000E+01,1.62560000000000E+01,1.40380000000000E+01,1.30130000000000E+01,1.95330000000000E+01,1.67060000000000E+01,,1.64970000000000E+01,,1.45760000000000E+01,1.30150000000000E+01,,,,,,,,,,,,,3.09400000000000E+01,3.09720000000000E+01,3.37420000000000E+01,2.87500000000000E+01,3.27120000000000E+01,3.55250000000000E+01,3.52990000000000E+01,3.69610000000000E+01,
NGA,,,,,,,,,,,,,,,,,,,,,,,,,,3.45800000000000E+01,3.59710000000000E+01,3.92030000000000E+01,,,,,,,,,,,,7.87840000000000E+01,,,,6.91150000000000E+01,7.11790000000000E+01,7.11750000000000E+01,,,,,,
NIC,,,,,,,,,,,4.80020000000000E+01,4.81340000000000E+01,5.01350000000000E+01,5.23870000000000E+01,5.68760000000000E+01,5.19970000000000E+01,4.74510000000000E+01,5.42780000000000E+01,,,,,8.86700000000000E+01,8.32020000000000E+01,9.14430000000000E+01,1.29701000000000E+02,1.32397000000000E+02,1.21445000000000E+02,,,1.06934000000000E+02,9.58520000000000E+01,9.80030000000000E+01,,,1.04246000000000E+02,,1.09692000000000E+02,,,,1.08362000000000E+02,1.08825000000000E+02,1.08969000000000E+02,,,,,,,,
NLD,,,,,,,,,,,,4.02990000000000E+01,4.11530000000000E+01,,5.84860000000000E+01,4.68470000000000E+01,5.04700000000000E+01,5.29030000000000E+01,5.52840000000000E+01,5.77100000000000E+01,6.40960000000000E+01,6.86760000000000E+01,7.28820000000000E+01,7.52270000000000E+01,7.55870000000000E+01,7.31940000000000E+01,7.25220000000000E+01,7.49600000000000E+01,7.81540000000000E+01,8.04900000000000E+01,8.19670000000000E+01,8.29860000000000E+01,8.66000000000000E+01,8.85950000000000E+01,8.91120000000000E+01,9.28320000000000E+01,9.38730000000000E+01,9.65710000000000E+01,9.81970000000000E+01,1.00277000000000E+02,1.02935000000000E+02,1.05409000000000E+02,1.06388000000000E+02,1.07663000000000E+02,1.06978000000000E+02,1.07273000000000E+02,1.07992000000000E+02,1.09812000000000E+02,1.11077000000000E+02,1.12165000000000E+02,,
NOC,,,,,,,,,,,,,,,,,,,,,,,,,,,,,,,,,,,,,,,,1.40638000000000E+02,1.39352000000000E+02,1.36308000000000E+02,1.42817000000000E+02,1.42509000000000E+02,1.45968000000000E+02,1.44144000000000E+02,1.42789000000000E+02,1.33857000000000E+02,1.30126000000000E+02,1.28742000000000E+02,,
NOR,,,,,,,,,,,,4.61390000000000E+01,4.79950000000000E+01,5.14490000000000E+01,5.49500000000000E+01,5.93440000000000E+01,6.36090000000000E+01,7.86510000000000E+01,8.22690000000000E+01,8.43880000000000E+01,9.08570000000000E+01,9.58790000000000E+01,9.89050000000000E+01,9.98300000000000E+01,1.02395000000000E+02,1.05002000000000E+02,1.13808000000000E+02,1.10623000000000E+02,1.20169000000000E+02,1.20268000000000E+02,1.21418000000000E+02,1.18516000000000E+02,1.19731000000000E+02,1.20261000000000E+02,1.20984000000000E+02,1.24927000000000E+02,1.27832000000000E+02,1.32833000000000E+02,1.35544000000000E+02,1.39428000000000E+02,1.45458000000000E+02,1.50609000000000E+02,1.52919000000000E+02,1.53301000000000E+02,1.52252000000000E+02,1.52302000000000E+02,1.53811000000000E+02,1.57712000000000E+02,1.62177000000000E+02,1.64210000000000E+02,,
NPL,,,,,,,,,,,,,,,,,2.74890000000000E+01,2.97870000000000E+01,2.61080000000000E+01,,,,,,,,,,,2.68510000000000E+01,3.19540000000000E+01,3.31720000000000E+01,,,,,,,,,3.96880000000000E+01,2.72820000000000E+01,2.71930000000000E+01,3.35270000000000E+01,4.01380000000000E+01,,,,,,,
NZL,,,,,,,,,,,6.78290000000000E+01,7.15870000000000E+01,5.20660000000000E+01,5.20730000000000E+01,6.13840000000000E+01,6.02100000000000E+01,6.11460000000000E+01,,,6.82630000000000E+01,7.15720000000000E+01,7.43550000000000E+01,7.30200000000000E+01,7.45920000000000E+01,8.38340000000000E+01,8.79450000000000E+01,9.25470000000000E+01,9.51350000000000E+01,9.76950000000000E+01,1.02693000000000E+02,1.08639000000000E+02,1.12642000000000E+02,1.16992000000000E+02,1.19230000000000E+02,1.24816000000000E+02,1.25682000000000E+02,1.28606000000000E+02,1.35955000000000E+02,1.42749000000000E+02,1.46439000000000E+02,1.45640000000000E+02,1.44771000000000E+02,1.45851000000000E+02,1.44417000000000E+02,1.43690000000000E+02,1.45445000000000E+02,1.47556000000000E+02,1.46499000000000E+02,1.46370000000000E+02,1.44725000000000E+02,,
OEC,,,,,,,,,,,,,,,,,,,,,,,,,,,,,,,,1.02310731770349E+02,,,,,,,,1.12539000000000E+02,1.12897000000000E+02,1.13900000000000E+02,1.16653000000000E+02,1.18169000000000E+02,1.19815000000000E+02,1.20758000000000E+02,1.21465000000000E+02,1.21964000000000E+02,1.22364000000000E+02,1.23017000000000E+02,,
OMN,,,,,,,,,,,,,,,,,,,1.12480000000000E+01,1.95810000000000E+01,7.73700000000000E+00,0.00000000000000E+00,8.34500000000000E+00,3.86000000000000E+00,4.54420000000000E+01,7.16950000000000E+01,6.14600000000000E+01,6.45920000000000E+01,6.62690000000000E+01,8.64400000000000E+01,9.31060000000000E+01,9.65740000000000E+01,1.11281000000000E+02,1.10616000000000E+02,1.21068000000000E+02,1.11162000000000E+02,1.02988000000000E+02,9.93310000000000E+01,9.39090000000000E+01,,,,7.25310000000000E+01,7.15230000000000E+01,,,,,,1.35235000000000E+02,1.38953000000000E+02,
PAK,,,,,,,,,,,,2.92400000000000E+01,3.21620000000000E+01,3.21370000000000E+01,3.35180000000000E+01,3.56070000000000E+01,3.33970000000000E+01,3.73940000000000E+01,3.95990000000000E+01,3.81410000000000E+01,3.96190000000000E+01,,,,,3.68270000000000E+01,3.76750000000000E+01,3.71290000000000E+01,3.89990000000000E+01,,5.14560000000000E+01,,,,,,,,,,,,7.91590000000000E+01,7.89990000000000E+01,7.74280000000000E+01,8.53840000000000E+01,8.32220000000000E+01,8.31290000000000E+01,8.30480000000000E+01,,,
PAN,,,,,,,,,,,7.59880000000000E+01,7.58680000000000E+01,7.81770000000000E+01,1.03382000000000E+02,1.06786000000000E+02,1.01352000000000E+02,1.07018000000000E+02,1.08233000000000E+02,1.15628000000000E+02,1.19478000000000E+02,1.23283000000000E+02,1.19194000000000E+02,1.24019000000000E+02,1.44645000000000E+02,1.30316000000000E+02,1.39437000000000E+02,,1.54550000000000E+02,1.39582000000000E+02,,,,,,1.49414000000000E+02,,,,1.54492000000000E+02,1.59485000000000E+02,1.69387000000000E+02,1.71497000000000E+02,1.69727000000000E+02,1.59142000000000E+02,1.66207000000000E+02,1.63077000000000E+02,1.61566000000000E+02,1.59353000000000E+02,1.53660000000000E+02,1.53147000000000E+02,,
PER,,,,,,,,,,,5.39010000000000E+01,5.35650000000000E+01,5.02980000000000E+01,4.99030000000000E+01,5.02880000000000E+01,4.87450000000000E+01,4.55090000000000E+01,,,,5.59330000000000E+01,,,,,,,,,,,,,,,,,,9.50120000000000E+01,,,9.76490000000000E+01,1.07095000000000E+02,1.07186000000000E+02,1.02310000000000E+02,1.02382000000000E+02,1.06140000000000E+02,,,,,
PHL,,,,,,,,,,,,1.30208000000000E+02,,1.26731000000000E+02,,,,,,1.15735000000000E+02,1.15908000000000E+02,1.17976000000000E+02,1.18433000000000E+02,,,,,,,,,,1.48157000000000E+02,,,,1.35644000000000E+02,,1.32239000000000E+02,1.27090000000000E+02,,,1.30335000000000E+02,1.28725000000000E+02,1.28254000000000E+02,1.23328000000000E+02,1.24740000000000E+02,,1.24532000000000E+02,,,
PLW,,,,,,,,,,,,,,,,,,,,,,,,,,,,,,,,,,,,,,,,,,2.02800000000000E+02,2.04176000000000E+02,,,,,,,,,
PNG,,,,,,,,,,,,,,,,,,3.00390000000000E+01,2.93550000000000E+01,2.92520000000000E+01,2.94800000000000E+01,,2.94930000000000E+01,3.11030000000000E+01,2.99180000000000E+01,3.05060000000000E+01,3.25680000000000E+01,,,,,,,,,4.30680000000000E+01,6.24020000000000E+01,,5.54600000000000E+01,5.73380000000000E+01,,,,,,,,,,,,
POL,,,,,,,,,,,,9.24990000000000E+01,9.14930000000000E+01,1.01308000000000E+02,1.09591000000000E+02,1.17309000000000E+02,1.22549000000000E+02,1.28191000000000E+02,1.27880000000000E+02,1.29715000000000E+02,1.30823000000000E+02,1.32436000000000E+02,1.32814000000000E+02,1.29527000000000E+02,1.30128000000000E+02,1.31030000000000E+02,1.32224000000000E+02,1.33426000000000E+02,1.34728000000000E+02,1.33969000000000E+02,1.48362000000000E+02,1.33803000000000E+02,1.36353000000000E+02,1.31313000000000E+02,1.37051000000000E+02,1.41393000000000E+02,1.45253000000000E+02,1.46055000000000E+02,1.36627000000000E+02,1.37868000000000E+02,1.40535000000000E+02,1.43223000000000E+02,1.42470000000000E+02,1.41962000000000E+02,1.40447000000000E+02,1.40230000000000E+02,1.39710000000000E+02,1.39634000000000E+02,1.40850000000000E+02,1.42590000000000E+02,,
PRI,,,,,,,,,,,,,,,,,,,,,,,,,,,,,,,,,,,,,,,,,,,,,,,,1.59940000000000E+02,1.55706000000000E+02,1.55760000000000E+02,1.47770000000000E+02,
PRT,,,,,,,,,,,,7.44600000000000E+01,8.07610000000000E+01,8.79220000000000E+01,9.33350000000000E+01,7.70360000000000E+01,8.19370000000000E+01,7.66140000000000E+01,7.46940000000000E+01,9.03610000000000E+01,9.18030000000000E+01,9.47600000000000E+01,1.00192000000000E+02,1.02395000000000E+02,1.23321000000000E+02,1.14453000000000E+02,1.17890000000000E+02,1.08132000000000E+02,,,,1.28860000000000E+02,1.56903000000000E+02,1.30858000000000E+02,1.34907000000000E+02,1.33645000000000E+02,1.32923000000000E+02,,1.30635000000000E+02,1.30251000000000E+02,1.33745000000000E+02,1.36729000000000E+02,1.36976000000000E+02,1.34894000000000E+02,1.32189000000000E+02,1.30216000000000E+02,1.27973000000000E+02,1.21816000000000E+02,1.19771000000000E+02,1.19021000000000E+02,,
PRY,,,,,,,,,,,7.32080000000000E+01,,,,,,7.58320000000000E+01,7.53210000000000E+01,7.72870000000000E+01,,,,,,,,,8.06390000000000E+01,8.36380000000000E+01,8.66910000000000E+01,8.65830000000000E+01,,,9.83570000000000E+01,,,,,,1.37644000000000E+02,1.36160000000000E+02,1.37727000000000E+02,1.39619000000000E+02,1.37486000000000E+02,1.33752000000000E+02,1.12748000000000E+02,,1.34419000000000E+02,,1.43070000000000E+02,,
QAT,,,,,,,,,,,,,,,,,3.63479000000000E+02,3.40711000000000E+02,,,3.18228000000000E+02,2.68576000000000E+02,2.15487000000000E+02,2.10184000000000E+02,2.47624000000000E+02,2.54856000000000E+02,2.72574000000000E+02,3.28899000000000E+02,3.46606000000000E+02,3.34300000000000E+02,3.54114000000000E+02,3.34049000000000E+02,4.02224000000000E+02,4.28109000000000E+02,4.50400000000000E+02,4.86433000000000E+02,4.99653000000000E+02,4.81734000000000E+02,4.06061000000000E+02,3.04963000000000E+02,,3.28721000000000E+02,3.75848000000000E+02,4.15523000000000E+02,4.09112000000000E+02,3.69440000000000E+02,3.71360000000000E+02,4.43044000000000E+02,4.84141000000000E+02,5.41661000000000E+02,5.37897000000000E+02,
ROM,,,,,,,,,,,,7.85390000000000E+01,7.85210000000000E+01,7.08360000000000E+01,8.28290000000000E+01,8.02480000000000E+01,8.42290000000000E+01,8.24830000000000E+01,8.22850000000000E+01,7.79730000000000E+01,7.83390000000000E+01,7.71160000000000E+01,7.78200000000000E+01,7.69550000000000E+01,7.96230000000000E+01,8.10700000000000E+01,8.51740000000000E+01,9.09240000000000E+01,9.28530000000000E+01,9.62380000000000E+01,9.73110000000000E+01,9.29400000000000E+01,8.84810000000000E+01,,,,,1.16382000000000E+02,1.03812000000000E+02,1.08682000000000E+02,1.12378000000000E+02,1.20367000000000E+02,1.24437000000000E+02,1.24109000000000E+02,1.26451000000000E+02,1.25610000000000E+02,1.29510000000000E+02,1.32954000000000E+02,1.34139000000000E+02,1.33710000000000E+02,,
RUS,,,,,,,,,,,,1.20670000000000E+02,,,,,,,,,,1.31035000000000E+02,,,,,1.40112000000000E+02,,,,,1.23135000000000E+02,1.22950000000000E+02,1.23966000000000E+02,,,,,,,,,,1.35196000000000E+02,1.36093000000000E+02,1.36518000000000E+02,1.36244000000000E+02,1.35866000000000E+02,1.35951000000000E+02,1.35026000000000E+02,,
RWA,,,,,,,,,,,,1.00980000000000E+01,,1.18130000000000E+01,1.80600000000000E+01,1.40100000000000E+01,,9.50000000000000E+00,9.39100000000000E+00,,9.25500000000000E+00,9.85300000000000E+00,,,1.44130000000000E+01,1.59120000000000E+01,1.48720000000000E+01,1.81040000000000E+01,2.11400000000000E+01,2.45330000000000E+01,2.22980000000000E+01,,,,,,,,,,,4.83590000000000E+01,4.98510000000000E+01,5.62530000000000E+01,6.24090000000000E+01,,,,,7.56490000000000E+01,,
SAS,,,,,,,,,,,,,,,,,,,,,,,,,,,,,,,,,,,,,,,,6.29190000000000E+01,6.42250000000000E+01,6.63710000000000E+01,6.71670000000000E+01,6.57360000000000E+01,6.53220000000000E+01,6.92250000000000E+01,7.06520000000000E+01,6.88230000000000E+01,6.89370000000000E+01,,,
SAU,,,,,,,,,,,,9.83700000000000E+00,1.28080000000000E+01,1.52680000000000E+01,1.75040000000000E+01,2.05670000000000E+01,3.04450000000000E+01,3.44690000000000E+01,3.36400000000000E+01,3.92840000000000E+01,4.33990000000000E+01,5.07600000000000E+01,5.48830000000000E+01,5.95430000000000E+01,6.78120000000000E+01,7.15220000000000E+01,7.82470000000000E+01,7.47650000000000E+01,,,,8.80500000000000E+01,7.49370000000000E+01,9.57500000000000E+01,9.08820000000000E+01,9.79490000000000E+01,1.01486000000000E+02,9.56430000000000E+01,1.21190000000000E+02,1.33947000000000E+02,1.26607000000000E+02,1.20530000000000E+02,1.46317000000000E+02,1.46435000000000E+02,1.50250000000000E+02,1.45209000000000E+02,1.41448000000000E+02,1.25347000000000E+02,1.24987000000000E+02,1.23715000000000E+02,1.11790000000000E+02,
SDN,,,,,,,,,,,,1.49760000000000E+01,1.72000000000000E+01,1.85320000000000E+01,1.98310000000000E+01,2.09750000000000E+01,1.93320000000000E+01,2.47340000000000E+01,2.72470000000000E+01,3.16700000000000E+01,3.65800000000000E+01,3.77840000000000E+01,4.47900000000000E+01,5.28190000000000E+01,5.68650000000000E+01,5.92820000000000E+01,5.93640000000000E+01,5.42160000000000E+01,6.33670000000000E+01,,6.87100000000000E+01,,,,,,8.97860000000000E+01,,,9.19730000000000E+01,9.19380000000000E+01,,,,,,,,,,,
SEN,,,,,,,,,,,,2.09590000000000E+01,1.96400000000000E+01,,,,,2.47330000000000E+01,2.35170000000000E+01,,2.29700000000000E+01,2.24840000000000E+01,2.26420000000000E+01,2.11790000000000E+01,2.53200000000000E+01,2.61070000000000E+01,,,,,,,,,,,,,,,,,,,,,4.62830000000000E+01,5.30100000000000E+01,5.46070000000000E+01,5.87230000000000E+01,5.95170000000000E+01,
SLE,,,,,,,,,,,,1.81030000000000E+01,1.56930000000000E+01,1.56910000000000E+01,1.62150000000000E+01,1.90570000000000E+01,1.68640000000000E+01,,,,,,,,2.81310000000000E+01,2.81530000000000E+01,,,,,,,,,,,,,,,7.84760000000000E+01,3.85960000000000E+01,3.86910000000000E+01,,,,,,,,,
SLV,,,,,,,,,,,,,,4.14790000000000E+01,4.15290000000000E+01,4.88150000000000E+01,,,4.58970000000000E+01,,,,5.83930000000000E+01,6.98080000000000E+01,7.19090000000000E+01,7.07830000000000E+01,6.86690000000000E+01,,,,,,,,9.34500000000000E+01,9.79210000000000E+01,9.69320000000000E+01,,1.16370000000000E+02,1.16974000000000E+02,1.13688000000000E+02,1.13300000000000E+02,1.13561000000000E+02,1.12139000000000E+02,1.20843000000000E+02,1.16457000000000E+02,1.16693000000000E+02,1.17649000000000E+02,1.16895000000000E+02,1.16288000000000E+02,,
SOM,,,,,,,,,,,,,1.50980000000000E+01,,,1.26850000000000E+01,1.16960000000000E+01,,,,,,,,,,,2.42660000000000E+01,,,,,,,,,,,,,,,,,,,,,,,,
SRB,,,,,,,,,,,,,,,,,,,,,,,,,,,,,,,,,,,,,,,,,,,,,,,,1.28860000000000E+02,1.29811000000000E+02,1.29282000000000E+02,1.29843000000000E+02,
SSA,,,,,,,,,,,,,,,,,,,,,,,,,,,,,,,,,,,,,,,,6.66410000000000E+01,6.52090000000000E+01,6.27880000000000E+01,6.11330000000000E+01,5.87030000000000E+01,5.87410000000000E+01,6.41840000000000E+01,6.42750000000000E+01,6.39510000000000E+01,6.34670000000000E+01,6.32890000000000E+01,,
SSF,,,,,,,,,,,,,,,,,,,,,,,,,,,,,,,,,,,,,,,,6.66280000000000E+01,6.51990000000000E+01,6.27800000000000E+01,6.11260000000000E+01,5.86970000000000E+01,5.87340000000000E+01,6.41740000000000E+01,6.42650000000000E+01,6.39420000000000E+01,6.34580000000000E+01,6.32800000000000E+01,,
STP,,,,,,,,,,,,,,,,,,,,,,,,,,,,,,,,,,,,,,,,,,,,,,,,,,9.28380000000000E+01,9.75960000000000E+01,
SUR,,,,,,,,,,,,,,,,,,,,,,,,,,1.12915000000000E+02,1.24433000000000E+02,1.12283000000000E+02,1.14044000000000E+02,1.20841000000000E+02,1.21629000000000E+02,,,,,,,,,,,,1.71628000000000E+02,,,,,,,,,
SVK,,,,,,,,,,,,,,,,,,,,,,,,,,,,,,,,,,9.63680000000000E+01,9.86990000000000E+01,1.00013000000000E+02,1.02279000000000E+02,1.04816000000000E+02,1.08182000000000E+02,1.11171000000000E+02,1.05553000000000E+02,1.09481000000000E+02,1.13048000000000E+02,1.17538000000000E+02,1.22415000000000E+02,1.28742000000000E+02,1.41901000000000E+02,1.49093000000000E+02,1.58099000000000E+02,1.59355000000000E+02,,
SVN,,,,,,,,,,,,,,,,,,,,,,1.15933000000000E+02,1.16387000000000E+02,1.10744000000000E+02,1.02603000000000E+02,1.05958000000000E+02,1.13454000000000E+02,1.17533000000000E+02,1.19871000000000E+02,1.23154000000000E+02,1.26734000000000E+02,1.32064000000000E+02,1.18181000000000E+02,1.26101000000000E+02,1.29817000000000E+02,1.36482000000000E+02,1.37016000000000E+02,1.35613000000000E+02,1.31362000000000E+02,1.36642000000000E+02,1.36935000000000E+02,1.36714000000000E+02,1.44436000000000E+02,1.36198000000000E+02,1.39272000000000E+02,1.44429000000000E+02,1.47604000000000E+02,1.47015000000000E+02,1.46142000000000E+02,1.45129000000000E+02,,
SWE,,,,,,,,,,,,7.67210000000000E+01,7.42200000000000E+01,7.49370000000000E+01,8.57490000000000E+01,8.79200000000000E+01,7.03560000000000E+01,7.51550000000000E+01,8.18970000000000E+01,8.68850000000000E+01,8.67280000000000E+01,,,,,1.14031000000000E+02,1.14230000000000E+02,1.12722000000000E+02,1.14555000000000E+02,1.16719000000000E+02,1.18803000000000E+02,1.22272000000000E+02,1.23153000000000E+02,1.24567000000000E+02,1.25172000000000E+02,1.26528000000000E+02,1.28541000000000E+02,1.31215000000000E+02,1.33728000000000E+02,1.41678000000000E+02,1.45719000000000E+02,1.51131000000000E+02,1.53564000000000E+02,1.54136000000000E+02,1.53741000000000E+02,1.54005000000000E+02,1.54018000000000E+02,1.56629000000000E+02,1.59402000000000E+02,1.58569000000000E+02,,
SWZ,,,,,,,,,,,5.52880000000000E+01,,3.68440000000000E+01,,,,4.15340000000000E+01,5.71670000000000E+01,,5.57880000000000E+01,5.89390000000000E+01,6.05840000000000E+01,6.52920000000000E+01,,,,,,,,6.40670000000000E+01,7.55020000000000E+01,6.34540000000000E+01,7.04220000000000E+01,,,9.78660000000000E+01,,,8.77570000000000E+01,9.03810000000000E+01,,1.16216000000000E+02,1.16094000000000E+02,1.07771000000000E+02,1.06460000000000E+02,9.83720000000000E+01,,,,,
SYR,,,,,,,,,,,,2.60860000000000E+01,2.83630000000000E+01,2.70150000000000E+01,2.83990000000000E+01,3.07790000000000E+01,3.46640000000000E+01,3.27690000000000E+01,3.67490000000000E+01,3.73230000000000E+01,4.12810000000000E+01,4.21380000000000E+01,4.92660000000000E+01,4.78800000000000E+01,5.08610000000000E+01,5.16500000000000E+01,5.49840000000000E+01,5.63400000000000E+01,5.60730000000000E+01,5.59030000000000E+01,6.36840000000000E+01,6.47140000000000E+01,6.67510000000000E+01,7.02930000000000E+01,7.10440000000000E+01,7.19000000000000E+01,,,,,,,,,,,,,,,,
TCA,,,,,,,,,,,,,,,,,,,,,,,,,,,,,,,,,,,,,,,,,,,,,,,,,8.98920000000000E+01,,,
TCD,,,,,,,,,,,,,0.00000000000000E+00,2.50600000000000E+00,8.25800000000000E+00,4.36800000000000E+00,5.42300000000000E+00,5.38900000000000E+00,,,,,,,,9.27000000000000E+00,9.01600000000000E+00,8.74500000000000E+00,,,,,,,,,1.48430000000000E+01,1.69650000000000E+01,1.58200000000000E+01,,1.75400000000000E+01,1.75680000000000E+01,,1.13480000000000E+01,1.43010000000000E+01,6.40000000000000E+00,,,1.46210000000000E+01,1.72490000000000E+01,1.73710000000000E+01,
TGO,,,,,,,,,,,,,1.23530000000000E+01,1.15760000000000E+01,1.44030000000000E+01,1.49940000000000E+01,1.56820000000000E+01,1.88220000000000E+01,2.36910000000000E+01,1.94220000000000E+01,1.88040000000000E+01,1.71560000000000E+01,1.69260000000000E+01,1.62600000000000E+01,1.82850000000000E+01,1.74770000000000E+01,1.57860000000000E+01,1.46950000000000E+01,1.39870000000000E+01,1.44490000000000E+01,1.50350000000000E+01,1.60630000000000E+01,1.34070000000000E+01,1.38120000000000E+01,1.36330000000000E+01,1.52210000000000E+01,1.74930000000000E+01,,2.02640000000000E+01,,,,,,,,,,,,,
THA,,,,,,,,,,,,,,,,,6.69610000000000E+01,8.11860000000000E+01,7.56940000000000E+01,,,,,,,,,,,,,,,1.17140000000000E+02,,,,,,1.16754000000000E+02,1.20279000000000E+02,1.13640000000000E+02,1.11284000000000E+02,1.15421000000000E+02,1.19353000000000E+02,1.13792000000000E+02,1.08158000000000E+02,1.24301000000000E+02,1.21862000000000E+02,1.23554000000000E+02,1.31420000000000E+02,
TJK,,,,,,,,,,,,,,,,,,,,,,,,,,,,,,,,,,,,,,,,3.44440000000000E+01,3.39230000000000E+01,3.16180000000000E+01,3.26470000000000E+01,3.34430000000000E+01,3.30690000000000E+01,3.50000000000000E+01,3.66170000000000E+01,3.77470000000000E+01,3.92430000000000E+01,4.09200000000000E+01,4.11060000000000E+01,
TMP,,,,,,,,,,,,,,,,,,,,,,,,,,,,,,,,,,,,,,,,,,,1.23705000000000E+02,,,,,,,7.03240000000000E+01,,
TON,,,,,,,,,,,,,,,,,,,8.68370000000000E+01,7.01010000000000E+01,,8.11370000000000E+01,,,1.33976000000000E+02,1.34442000000000E+02,,,,,,,,,,,,,,1.33620000000000E+02,1.70822000000000E+02,1.69827000000000E+02,1.68093000000000E+02,1.65881000000000E+02,1.59614000000000E+02,,,,,,,
TTO,,,,,,,,,,,,5.35950000000000E+01,5.58270000000000E+01,5.71090000000000E+01,5.92120000000000E+01,6.43650000000000E+01,6.19680000000000E+01,5.97330000000000E+01,5.63330000000000E+01,4.91700000000000E+01,6.68240000000000E+01,7.47520000000000E+01,6.64800000000000E+01,8.24880000000000E+01,5.89250000000000E+01,6.09660000000000E+01,6.27590000000000E+01,6.74550000000000E+01,,6.06930000000000E+01,,7.75190000000000E+01,6.80300000000000E+01,7.03730000000000E+01,,,,,,1.36902000000000E+02,1.48328000000000E+02,1.52980000000000E+02,1.50023000000000E+02,1.60271000000000E+02,1.27127000000000E+02,1.27900000000000E+02,,,,,,
TUN,,,,,,,,,,,,2.51270000000000E+01,2.88540000000000E+01,3.18840000000000E+01,2.57160000000000E+01,3.22760000000000E+01,3.43420000000000E+01,3.56880000000000E+01,3.70620000000000E+01,4.05520000000000E+01,4.36650000000000E+01,4.40470000000000E+01,4.75910000000000E+01,5.11530000000000E+01,5.47310000000000E+01,5.81380000000000E+01,5.70470000000000E+01,5.94690000000000E+01,6.08500000000000E+01,6.23250000000000E+01,6.35170000000000E+01,6.64200000000000E+01,6.95090000000000E+01,7.11970000000000E+01,7.42680000000000E+01,7.69170000000000E+01,7.91290000000000E+01,8.22840000000000E+01,8.74130000000000E+01,9.57390000000000E+01,,9.51380000000000E+01,1.19501000000000E+02,1.24406000000000E+02,1.32398000000000E+02,1.36298000000000E+02,1.37998000000000E+02,1.47037000000000E+02,1.45982000000000E+02,1.50529000000000E+02,,
TUR,,,,,,,,,,,,2.41650000000000E+01,2.47940000000000E+01,2.52110000000000E+01,2.69650000000000E+01,3.24420000000000E+01,3.11860000000000E+01,3.27190000000000E+01,3.48090000000000E+01,3.48900000000000E+01,3.31950000000000E+01,,3.68160000000000E+01,4.51340000000000E+01,5.28260000000000E+01,4.75680000000000E+01,4.94110000000000E+01,5.18680000000000E+01,5.16630000000000E+01,5.23340000000000E+01,5.22800000000000E+01,5.25190000000000E+01,5.36410000000000E+01,5.49740000000000E+01,6.19020000000000E+01,6.44300000000000E+01,,5.64030000000000E+01,6.81120000000000E+01,6.67070000000000E+01,6.68820000000000E+01,7.03370000000000E+01,7.21090000000000E+01,7.48160000000000E+01,7.22860000000000E+01,7.37630000000000E+01,7.52950000000000E+01,7.60400000000000E+01,7.76860000000000E+01,7.92770000000000E+01,,
TZA,,,,,,,,,,,1.90480000000000E+01,2.06130000000000E+01,1.91390000000000E+01,1.91690000000000E+01,1.79020000000000E+01,1.55990000000000E+01,8.09300000000000E+00,1.01850000000000E+01,1.68830000000000E+01,2.03320000000000E+01,,,2.14860000000000E+01,2.05000000000000E+01,1.78920000000000E+01,1.69080000000000E+01,1.58610000000000E+01,1.43570000000000E+01,,,,1.87510000000000E+01,1.93720000000000E+01,1.80260000000000E+01,2.08220000000000E+01,1.92890000000000E+01,2.11920000000000E+01,2.44510000000000E+01,2.52750000000000E+01,2.66980000000000E+01,,3.14840000000000E+01,3.87560000000000E+01,4.44090000000000E+01,4.12660000000000E+01,4.83480000000000E+01,,,,,,
UGA,,,,,,,,,,,2.14090000000000E+01,2.54640000000000E+01,2.63120000000000E+01,,2.31960000000000E+01,2.17900000000000E+01,2.43570000000000E+01,3.37500000000000E+01,,3.20030000000000E+01,2.89570000000000E+01,2.94580000000000E+01,3.65190000000000E+01,,,3.01880000000000E+01,3.89250000000000E+01,,3.92140000000000E+01,3.77710000000000E+01,3.92920000000000E+01,3.81060000000000E+01,4.01140000000000E+01,4.27930000000000E+01,4.65000000000000E+01,4.86180000000000E+01,4.99950000000000E+01,,,5.27870000000000E+01,5.11780000000000E+01,5.25340000000000E+01,5.24700000000000E+01,5.24360000000000E+01,6.20400000000000E+01,,7.58620000000000E+01,,7.88900000000000E+01,7.87770000000000E+01,,
UKR,,,,,,,,,,,,,,,,,,,,,,,,,,,,,,,,,,,1.31995000000000E+02,,,,1.12649000000000E+02,1.14647000000000E+02,1.14268000000000E+02,1.16905000000000E+02,1.18734000000000E+02,1.21029000000000E+02,1.21879000000000E+02,1.22782000000000E+02,1.23374000000000E+02,1.23933000000000E+02,1.24575000000000E+02,1.26472000000000E+02,1.24975000000000E+02,
UMC,,,,,,,,,,,,,,,,,,,,,,,,,,,,,,,,,,,,,,,,1.02701000000000E+02,1.04809000000000E+02,1.05934000000000E+02,1.07621000000000E+02,1.07198000000000E+02,1.09172000000000E+02,1.09796000000000E+02,1.11678000000000E+02,1.14861000000000E+02,1.17068000000000E+02,1.17655000000000E+02,,
URY,,,,,,,,,,,,,,,8.53040000000000E+01,8.05760000000000E+01,,9.16410000000000E+01,,1.06559000000000E+02,1.11252000000000E+02,,9.92580000000000E+01,9.73490000000000E+01,,,,,,,,,,,,,,,1.84240000000000E+02,1.75717000000000E+02,,,,,,,1.67952000000000E+02,1.75121000000000E+02,1.74423000000000E+02,1.73684000000000E+02,,
USA,,,,,,,,,,,,6.91620000000000E+01,7.11280000000000E+01,7.61490000000000E+01,7.95250000000000E+01,8.33990000000000E+01,8.40180000000000E+01,9.21530000000000E+01,9.78720000000000E+01,1.02629000000000E+02,1.06666000000000E+02,1.09075000000000E+02,1.10337000000000E+02,1.09426000000000E+02,1.10560000000000E+02,1.12675000000000E+02,1.14610000000000E+02,1.16806000000000E+02,1.19734000000000E+02,1.22213000000000E+02,1.23582000000000E+02,1.24753000000000E+02,,1.27419000000000E+02,1.28084000000000E+02,1.29814000000000E+02,1.30719000000000E+02,,1.31461000000000E+02,1.31880000000000E+02,1.32569000000000E+02,1.33381000000000E+02,1.36160000000000E+02,1.38523000000000E+02,1.41251000000000E+02,1.42301000000000E+02,1.42922000000000E+02,1.42350000000000E+02,1.41094000000000E+02,1.40884000000000E+02,,
UZB,,,,,,,,,,,,,,,,,,,,,,,,,,,,,,,,,,,,,,,,8.18070000000000E+01,8.33840000000000E+01,8.08850000000000E+01,7.99760000000000E+01,7.70510000000000E+01,7.82300000000000E+01,6.97920000000000E+01,7.03900000000000E+01,7.08480000000000E+01,6.79610000000000E+01,6.98360000000000E+01,,
VCT,,,,,,,,,,,,,,,,,,,,6.84509000000000E+02,3.36964000000000E+02,,,,,,2.21375000000000E+02,1.73211000000000E+02,,,2.15734000000000E+02,,,,,,,,,,,,,,,,,,,,,
VEN,,,,,,,,,,,,,,,,,,,,,,,,,,,7.21420000000000E+01,1.07888000000000E+02,9.32620000000000E+01,9.17850000000000E+01,,,,,,,,,,,1.46240000000000E+02,,1.08908000000000E+02,1.07453000000000E+02,,,,,1.69414000000000E+02,,,
VNM,,,,,,,,,,,,,,,,,6.56620000000000E+01,4.85690000000000E+01,4.24590000000000E+01,4.18650000000000E+01,,2.87670000000000E+01,,,,,,,,,,,,,,,,,6.56080000000000E+01,7.57160000000000E+01,7.21260000000000E+01,7.35650000000000E+01,7.59520000000000E+01,7.66500000000000E+01,7.05760000000000E+01,7.06690000000000E+01,9.53310000000000E+01,9.98840000000000E+01,9.80050000000000E+01,9.91510000000000E+01,1.00183000000000E+02,
VUT,,,,,,,,,,,,,,,,,,,,,,,,,,,,,,,,,,,,,,,,,,,5.73230000000000E+01,5.96060000000000E+01,5.96130000000000E+01,,,,,,,
WBG,,,,,,,,,,,,,,,,,,,,,,,,,,,,,,,,,,,,,8.29380000000000E+01,8.47640000000000E+01,8.47810000000000E+01,8.63370000000000E+01,8.97870000000000E+01,9.31930000000000E+01,9.51470000000000E+01,1.01398000000000E+02,1.01460000000000E+02,1.01524000000000E+02,1.15503000000000E+02,1.20534000000000E+02,1.21469000000000E+02,1.30191000000000E+02,1.33658000000000E+02,
WLD,,,,,,,,,,,,,,,,,,,,,,,,,,,,,,,,,,,,,,,,9.83870000000000E+01,9.90810000000000E+01,1.00373000000000E+02,1.02624000000000E+02,1.02310000000000E+02,1.03306000000000E+02,1.04538000000000E+02,1.06121000000000E+02,1.06921000000000E+02,1.07687000000000E+02,1.08194000000000E+02,,
WSM,,,,,,,,,,,9.20000000000000E-01,5.03000000000000E+00,,,,5.60600000000000E+00,,2.22360000000000E+01,,,,7.93200000000000E+00,,,,,,,,,,,,,,,,,9.41910000000000E+01,1.03718000000000E+02,9.25620000000000E+01,9.22770000000000E+01,,,,,,,,,,
YEM,,,,,,,,,,,,,,,,,,,,,,,,,,,,,,,,,2.18110000000000E+01,,,,,1.53190000000000E+01,,2.73620000000000E+01,2.73490000000000E+01,,,,3.68210000000000E+01,3.65120000000000E+01,3.86420000000000E+01,4.15350000000000E+01,,,,
ZAF,,,,,,,,,,,,,,,,,,,,,,,,,,,,,8.41190000000000E+01,8.44740000000000E+01,7.90510000000000E+01,8.28890000000000E+01,8.55880000000000E+01,8.47750000000000E+01,9.12820000000000E+01,,,,,,,,,,,,,,,,,
ZAR,,,,,,,,,,,,5.63100000000000E+00,6.79900000000000E+00,,1.02400000000000E+01,,,,,,,,,,,,,,,,,,,,,,,,,,,,,,,,,3.50620000000000E+01,3.55240000000000E+01,3.10360000000000E+01,,
ZMB,,,,,,,,,,,1.79680000000000E+01,,,,3.06320000000000E+01,1.60020000000000E+01,,,,3.01780000000000E+01,,2.61020000000000E+01,2.77990000000000E+01,,,,,,3.73030000000000E+01,3.89080000000000E+01,,,,,,,,,4.63380000000000E+01,4.64520000000000E+01,4.64010000000000E+01,,,,,,,,,,,
ZWE,,,,,,,,,,,,,,,,,,,,,,,,5.17280000000000E+01,5.29050000000000E+01,,4.95120000000000E+01,,,,,,4.79480000000000E+01,,5.61260000000000E+01,5.33080000000000E+01,5.72120000000000E+01,,,,,,,,,,,,,,7.96860000000000E+01,
