"Country Code",1960,1961,1962,1963,1964,1965,1966,1967,1968,1969,1970,1971,1972,1973,1974,1975,1976,1977,1978,1979,1980,1981,1982,1983,1984,1985,1986,1987,1988,1989,1990,1991,1992,1993,1994,1995,1996,1997,1998,1999,2000,2001,2002,2003,2004,2005,2006,2007,2008,2009,2010,2011ABW,,,,,,,,,,,,,,,,,,,,,,,,,,,,,,,,,,,,,,,,9.45830000000000E+00,9.43079000000000E+00,9.51300000000000E+00,9.30689000000000E+00,1.02758400000000E+01,9.62698000000000E+00,1.05949000000000E+01,9.83268000000000E+00,9.28746000000000E+00,8.40287000000000E+00,8.26317000000000E+00,8.29859000000000E+00,
ADO,,,,,,,,,,,,,,,,,,,,,,,,,,,,,,,,,,,,,,,,,,,0.00000000000000E+00,0.00000000000000E+00,0.00000000000000E+00,0.00000000000000E+00,0.00000000000000E+00,3.29482000000000E+00,3.41484000000000E+00,2.94118000000000E+00,2.51767000000000E+00,
AFG,,,,,,,,,,,,,,,2.70781700000000E+01,,,3.11176800000000E+01,2.98720200000000E+01,,1.48786000000000E+01,4.22975000000000E+00,9.78714000000000E+00,,5.13298000000000E+00,5.12461000000000E+00,,,,,,,,8.94355000000000E+00,,,,,,,,,,,,1.75970000000000E+01,,,,,,
AGO,,,,,,,,,,,,,,,,,,,,,,,,,,,,,,,,,,,,,,,2.92768507921210E+01,,,,,,,,,,9.39781000000000E+00,1.06004700000000E+01,1.01626200000000E+01,
ALB,,,,,,,,,,,,,,,,,,,,,,,,,,,,,,,,,,,,,5.01883000000000E+00,,,4.55764000000000E+00,4.56711000000000E+00,4.62233000000000E+00,,3.20619000000000E+00,2.55705000000000E+00,,,,1.70267000000000E+00,1.62405000000000E+00,1.10975000000000E+00,
ARB,,,,,,,,,,,,,9.19041444162800E+00,1.26227156950706E+01,1.22624292179655E+01,1.28622829993890E+01,,1.32485898713733E+01,1.29796753637280E+01,1.37421886776673E+01,1.22851587764380E+01,1.22191575505285E+01,1.04941014536676E+01,1.17607716680565E+01,,,9.92790779220472E+00,,,,,,,,,,,,,1.06121422012027E+01,1.09636347686342E+01,1.07942725303179E+01,8.99967803533642E+00,8.60884081592756E+00,8.72120704504868E+00,7.24586325940068E+00,,,,7.01636148639354E+00,,
ARE,,,,,,,,,,,,,,,2.05932700000000E+01,1.91849900000000E+01,1.36604400000000E+01,1.20569600000000E+01,9.58217000000000E+00,9.88927000000000E+00,8.52722000000000E+00,7.66737000000000E+00,7.04893000000000E+00,6.08582000000000E+00,6.00297000000000E+00,6.90840000000000E+00,6.10909000000000E+00,6.65315000000000E+00,5.95952000000000E+00,5.26064000000000E+00,4.84386000000000E+00,4.59286000000000E+00,4.53133000000000E+00,4.32777000000000E+00,5.58187000000000E+00,5.62830000000000E+00,5.36346000000000E+00,5.12250000000000E+00,5.28314000000000E+00,4.43041000000000E+00,4.14590000000000E+00,3.61547000000000E+00,3.17730000000000E+00,3.16448000000000E+00,2.64673000000000E+00,2.18159000000000E+00,2.25377000000000E+00,2.04393000000000E+00,,2.13525000000000E+00,2.09410000000000E+00,
ARG,,,,,,,,,,,1.27217600000000E+01,1.16599300000000E+01,,,,9.62205000000000E+00,9.07729000000000E+00,,,,,,,,,,,,,,,,,,,,6.36244000000000E+00,6.17873000000000E+00,6.37853000000000E+00,6.94892000000000E+00,7.19379000000000E+00,7.46800000000000E+00,7.15628000000000E+00,7.50224000000000E+00,7.68233000000000E+00,7.59459000000000E+00,7.72974000000000E+00,7.31172000000000E+00,6.83124000000000E+00,,,
ARM,,,,,,,,,,,,,,,,,,,,,,,,,,,,,,,,,,,,,,,,,,1.44960000000000E-01,1.45600000000000E-01,1.17460000000000E-01,1.35140000000000E-01,1.61940000000000E-01,1.43530000000000E-01,1.70820000000000E-01,,2.36470000000000E-01,1.80510000000000E-01,
ATG,,,,,,,,,,,,,,,,1.45239000000000E+00,2.04012000000000E+00,,,,,,,,,,,,,,,,3.23467000000000E+00,,,,,,,,,,,,,,,2.41922000000000E+00,7.00786000000000E+00,5.38963000000000E+00,8.21664000000000E+00,
AUT,,,,,,,,,,,,6.91467000000000E+00,6.44866000000000E+00,5.90827000000000E+00,,,,,,,,,,,,,,,,,,,,,,,,,1.63906000000000E+00,1.76714000000000E+00,,,1.39561000000000E+00,0.00000000000000E+00,1.40704000000000E+00,0.00000000000000E+00,0.00000000000000E+00,0.00000000000000E+00,0.00000000000000E+00,0.00000000000000E+00,,
AZE,,,,,,,,,,,,,,,,,,,,,,,,,,,,,,,,,,1.83620000000000E-01,2.78980000000000E-01,,4.46210000000000E-01,4.45150000000000E-01,4.24960000000000E-01,4.31490000000000E-01,4.48250000000000E-01,3.96440000000000E-01,2.93450000000000E-01,3.81140000000000E-01,2.76260000000000E-01,2.88000000000000E-01,2.92310000000000E-01,3.22370000000000E-01,3.23580000000000E-01,2.86750000000000E-01,2.88470000000000E-01,
BDI,,,,,,,,,,,,2.24508900000000E+01,,2.22269300000000E+01,2.59934500000000E+01,2.56196600000000E+01,2.65084500000000E+01,2.45662200000000E+01,2.63105800000000E+01,2.74826600000000E+01,2.88755400000000E+01,3.00467600000000E+01,2.87682700000000E+01,1.83598100000000E+01,1.40192700000000E+01,1.54069500000000E+01,1.77918000000000E+01,1.83108200000000E+01,1.89805500000000E+01,2.54862700000000E+01,2.26347500000000E+01,2.23210700000000E+01,2.34327100000000E+01,2.40437800000000E+01,,,,,,2.55465200000000E+01,2.45333100000000E+01,2.41423400000000E+01,2.56323300000000E+01,2.61743900000000E+01,2.78136100000000E+01,3.04066600000000E+01,2.92037300000000E+01,3.15021600000000E+01,3.34895400000000E+01,3.22850300000000E+01,3.35185400000000E+01,
BEL,,,,,,,,,,,,,,,2.43311400000000E+01,2.43575500000000E+01,2.49368900000000E+01,2.43033800000000E+01,2.39003800000000E+01,2.41589300000000E+01,2.36683000000000E+01,2.08492300000000E+01,2.05313900000000E+01,2.18934900000000E+01,1.97147600000000E+01,1.91062000000000E+01,1.79744200000000E+01,1.74450300000000E+01,1.76337000000000E+01,,,1.73618600000000E+01,,,,,,,,,,,,,3.29644000000000E+00,,3.29904000000000E+00,3.26155000000000E+00,3.50014000000000E+00,3.39187000000000E+00,,
BEN,,,,,,,,,,,,1.84461100000000E+01,1.69043600000000E+01,1.83371800000000E+01,2.00909500000000E+01,1.67835000000000E+01,2.02847600000000E+01,2.09528200000000E+01,2.00244700000000E+01,1.81110500000000E+01,2.30498700000000E+01,1.86256900000000E+01,1.71368000000000E+01,2.12491200000000E+01,2.77880800000000E+01,2.52253500000000E+01,2.63460900000000E+01,2.58315500000000E+01,2.59594500000000E+01,2.59318500000000E+01,2.45484600000000E+01,2.11690700000000E+01,2.27481600000000E+01,2.35813900000000E+01,2.45207500000000E+01,2.42799300000000E+01,2.49101700000000E+01,2.51391500000000E+01,2.37591500000000E+01,,1.99692700000000E+01,1.99007400000000E+01,2.09219600000000E+01,1.98945200000000E+01,2.30091400000000E+01,1.66886900000000E+01,,,1.42793900000000E+01,1.42789400000000E+01,1.34499600000000E+01,
BFA,,,,,,,,,,,,1.56141400000000E+01,1.67510600000000E+01,1.72011200000000E+01,1.66730400000000E+01,1.64633900000000E+01,1.67420300000000E+01,1.79258000000000E+01,1.83101200000000E+01,1.74443100000000E+01,1.74297600000000E+01,1.65285900000000E+01,1.59630800000000E+01,1.61426700000000E+01,1.70488300000000E+01,1.37037000000000E+01,,1.52785700000000E+01,1.62483500000000E+01,1.66062200000000E+01,1.70407000000000E+01,1.75874100000000E+01,1.64118300000000E+01,1.64611000000000E+01,1.57905200000000E+01,1.59194900000000E+01,1.56279800000000E+01,,,1.75293400000000E+01,1.69163400000000E+01,1.75152100000000E+01,1.74777100000000E+01,1.50094000000000E+01,1.31907800000000E+01,1.20754500000000E+01,1.20855500000000E+01,1.17838500000000E+01,1.05674500000000E+01,1.05443400000000E+01,1.01186200000000E+01,
BGD,,,,,,,,,,,,,,,,,1.84651100000000E+01,,,,,1.76143300000000E+01,,,,,,,,,,,,,,,,,,,,,,,,1.04032800000000E+01,1.11755100000000E+01,,1.33755500000000E+01,1.38179100000000E+01,,
BGR,,,,,,,,,,,,,,,,,,,,,,,,,,,2.97130000000000E+00,2.65877000000000E+00,2.94698000000000E+00,3.77765000000000E+00,4.59080000000000E+00,6.73991000000000E+00,6.26934000000000E+00,6.57498000000000E+00,5.92945000000000E+00,4.71888000000000E+00,4.21611000000000E+00,3.99462000000000E+00,3.81751000000000E+00,3.74982000000000E+00,3.72814000000000E+00,2.75379000000000E+00,2.98036000000000E+00,2.61798000000000E+00,2.65830000000000E+00,2.66912000000000E+00,2.64880000000000E+00,2.51309000000000E+00,2.14353000000000E+00,1.92679000000000E+00,,
BHR,,,,,,,,,,,,,,,,,,,,,,,1.20938600000000E+01,1.27329200000000E+01,1.17663900000000E+01,7.85765000000000E+00,8.39823000000000E+00,8.05753000000000E+00,8.83712000000000E+00,8.51896000000000E+00,,5.24743000000000E+00,4.48778000000000E+00,4.62168000000000E+00,5.18091000000000E+00,5.81298000000000E+00,6.32635000000000E+00,,5.63659000000000E+00,4.57740000000000E+00,4.96274000000000E+00,4.58698000000000E+00,4.39299000000000E+00,3.23645000000000E+00,3.59189000000000E+00,3.29838000000000E+00,3.00933000000000E+00,,2.05189000000000E+00,1.85271000000000E+00,,
BHS,,,,,,,,,,,,,,,,,,,,,,,,,,,,,,,,,,,0.00000000000000E+00,,,,,,,,,,,0.00000000000000E+00,0.00000000000000E+00,0.00000000000000E+00,0.00000000000000E+00,0.00000000000000E+00,,
BIH,,,,,,,,,,,,,,,,,,,,,,,,,,,,,,,,,,,,,,,,,,,,,,,,,8.38700000000000E-02,7.89100000000000E-02,9.70600000000000E-02,
BLR,,,,,,,,,,,,,,,,,,,,,,,,,,,,,,,,,,1.23457000000000E+00,1.16887000000000E+00,1.18074000000000E+00,1.06383000000000E+00,9.48880000000000E-01,1.05787000000000E+00,5.22050000000000E-01,5.58280000000000E-01,3.70430000000000E-01,3.17960000000000E-01,2.47820000000000E-01,1.02430000000000E-01,6.80800000000000E-02,5.44600000000000E-02,5.02400000000000E-02,,,,
BLZ,,,,,,,,,,,,,,,,,,,,,,,,,,,,,,,,,7.62045000000000E+00,,,1.18974200000000E+01,1.13483500000000E+01,,,1.08021400000000E+01,1.06101100000000E+01,1.14457300000000E+01,1.18153400000000E+01,,,1.29466500000000E+01,1.17240100000000E+01,1.08893700000000E+01,9.42471000000000E+00,9.53369000000000E+00,8.79654000000000E+00,
BMU,,,,,,,,,,,,,,,,8.75486000000000E+00,,,,,,,,,,,,,,,,,,,,,,,,,,,,,,,,,,,,
BOL,,,,,,,,,,,,,,,,,,,,,,,,,,,,,,,2.85642000000000E+00,,,,,,,,,2.56084000000000E+00,3.44602000000000E+00,2.93664000000000E+00,2.26430000000000E+00,1.74275000000000E+00,1.74305000000000E+00,,9.43680000000000E-01,2.74362000000000E+00,8.40510000000000E-01,,,
BRA,,,,,,,,,,,,1.69133600000000E+01,1.89550400000000E+01,1.92454500000000E+01,1.88389800000000E+01,,,,,,,,,,,,,,,,,,,,,,,,,2.40441200000000E+01,2.50112700000000E+01,2.18449600000000E+01,,,2.01339500000000E+01,,,,,,,
BRN,,,,,,,,,,,,,8.75350000000000E+00,9.96898000000000E+00,1.05518300000000E+01,9.02122000000000E+00,9.02148000000000E+00,1.04503500000000E+01,1.15964800000000E+01,1.80303600000000E+01,1.48656300000000E+01,1.58835600000000E+01,1.53100800000000E+01,1.11000800000000E+01,1.17172700000000E+01,,1.06138800000000E+01,,,,,,,,,,,,,,,,,,3.63478000000000E+00,3.04382000000000E+00,2.22351000000000E+00,2.82270000000000E+00,1.13970000000000E+00,7.67570000000000E-01,1.92480000000000E-01,
BTN,,,,,,,,,,,,,,,,,,,3.06497000000000E+00,1.33038400000000E+01,,,,,,,,,,,,,,1.92777700000000E+01,1.95316800000000E+01,,,,1.38359800000000E+01,1.24761900000000E+01,1.37341300000000E+01,1.35215700000000E+01,1.35391500000000E+01,,,1.04060900000000E+01,7.58696000000000E+00,,7.23526000000000E+00,7.44722000000000E+00,,
BWA,,,,,,,,,,,2.97830000000000E-01,7.65550000000000E-01,8.15700000000000E-01,,,,,,,2.55195000000000E+00,,4.54423000000000E+00,5.51322000000000E+00,6.36873000000000E+00,5.82193000000000E+00,5.70835000000000E+00,4.62474000000000E+00,5.26973000000000E+00,4.99260000000000E+00,4.94132000000000E+00,5.09339000000000E+00,4.76849000000000E+00,3.65366000000000E+00,3.00628000000000E+00,3.15497000000000E+00,4.10514000000000E+00,3.89588000000000E+00,,3.68324000000000E+00,3.87975000000000E+00,4.13562000000000E+00,3.96548000000000E+00,3.93074000000000E+00,5.81471000000000E+00,5.66986000000000E+00,5.78060000000000E+00,5.72458000000000E+00,5.93802000000000E+00,,,,
CAF,,,,,,,,,,,,2.74464500000000E+01,2.72136700000000E+01,2.59349300000000E+01,3.15312800000000E+01,3.03713500000000E+01,3.58498100000000E+01,,2.86443700000000E+01,,,3.42074200000000E+01,3.43741800000000E+01,3.43871300000000E+01,,,2.99054500000000E+01,3.51077200000000E+01,3.51467900000000E+01,3.39511400000000E+01,3.06972300000000E+01,3.18010100000000E+01,3.76662600000000E+01,,,,,,,,,,,3.03081400000000E+01,3.03150000000000E+01,2.94344000000000E+01,2.81749800000000E+01,2.65630100000000E+01,2.53269900000000E+01,2.38423000000000E+01,2.05555200000000E+01,
CAN,,,,,,,,,,,,,,,,,,,,,,,,,,,,,,,,,,,,,,,0.00000000000000E+00,0.00000000000000E+00,0.00000000000000E+00,,0.00000000000000E+00,,0.00000000000000E+00,,0.00000000000000E+00,,0.00000000000000E+00,,,
CHE,,,,,,,,,,,,,,,,,,2.75628000000000E+00,2.54199000000000E+00,2.47736000000000E+00,2.27257000000000E+00,2.17609000000000E+00,2.59911000000000E+00,2.52545000000000E+00,2.48732000000000E+00,2.33605000000000E+00,2.27580000000000E+00,2.25105000000000E+00,2.20995000000000E+00,2.07531000000000E+00,2.04018000000000E+00,1.88658000000000E+00,1.95730000000000E+00,1.79622000000000E+00,1.82664000000000E+00,,1.71807000000000E+00,,,1.93142000000000E+00,1.80995000000000E+00,1.81926000000000E+00,1.82852000000000E+00,1.75523000000000E+00,1.67299000000000E+00,1.78327000000000E+00,1.54644000000000E+00,1.57653000000000E+00,1.58050000000000E+00,1.53831000000000E+00,,
CHL,,,,,,,,,,,1.26115600000000E+01,9.82356000000000E+00,9.71533000000000E+00,1.35863500000000E+01,1.43575500000000E+01,1.48052000000000E+01,1.48617400000000E+01,1.37922900000000E+01,,,,,,9.20862000000000E+00,,,,,,,,,,,,,,,3.83617000000000E+00,2.93107000000000E+00,2.42525000000000E+00,,2.75984000000000E+00,2.40862000000000E+00,2.98231000000000E+00,2.72000000000000E+00,2.84025000000000E+00,2.93173000000000E+00,2.95434000000000E+00,1.24732000000000E+00,,
CHN,,,,,,,,,,,,,,,,,,,,,,,,,,,,,,,,,,,,,2.38424000000000E+00,1.79433000000000E+00,,,,,3.51090000000000E-01,3.61150000000000E-01,,,2.96610000000000E-01,2.71340000000000E-01,3.12320000000000E-01,3.07610000000000E-01,,
CIV,,,,,,,,,,,,,,2.56283600000000E+01,2.65939900000000E+01,,2.10774800000000E+01,1.92710800000000E+01,1.80090300000000E+01,1.84281000000000E+01,1.90490800000000E+01,1.97097600000000E+01,,2.45614200000000E+01,2.59504100000000E+01,2.91831800000000E+01,2.86015500000000E+01,2.74734100000000E+01,2.61158800000000E+01,2.66362300000000E+01,2.66032700000000E+01,2.44245400000000E+01,2.67792100000000E+01,2.68524400000000E+01,2.57535500000000E+01,2.67452400000000E+01,2.34954700000000E+01,2.40183500000000E+01,,2.27640000000000E+01,2.34200100000000E+01,2.35687000000000E+01,2.42273600000000E+01,1.74810500000000E+01,,,2.33954100000000E+01,2.23122100000000E+01,,1.88730900000000E+01,,
CMR,,,,,,,,,,,,,,2.63580700000000E+01,2.74779900000000E+01,2.68343000000000E+01,2.55385300000000E+01,2.64404100000000E+01,1.89071800000000E+01,2.77661300000000E+01,2.97389100000000E+01,3.03871500000000E+01,3.06842700000000E+01,3.03265000000000E+01,3.00261200000000E+01,2.95235800000000E+01,2.99685500000000E+01,3.00957500000000E+01,2.97514800000000E+01,,2.97047800000000E+01,3.02463200000000E+01,,,,,,,,2.67958800000000E+01,2.68011200000000E+01,,2.58525400000000E+01,2.64005400000000E+01,2.55996900000000E+01,2.61274300000000E+01,2.67565200000000E+01,2.07679400000000E+01,1.74501400000000E+01,1.51630200000000E+01,1.35356600000000E+01,
COG,,,,,,,,,,,,3.22392400000000E+01,3.24516200000000E+01,3.07703900000000E+01,3.09221600000000E+01,2.96863600000000E+01,2.66606500000000E+01,2.50351800000000E+01,2.48636000000000E+01,2.48664200000000E+01,2.51324200000000E+01,2.61613400000000E+01,2.84565400000000E+01,3.17128700000000E+01,3.23573900000000E+01,3.43191300000000E+01,3.06014900000000E+01,3.17390800000000E+01,3.19870400000000E+01,3.53359100000000E+01,3.89070900000000E+01,,3.37738700000000E+01,3.41097800000000E+01,3.65556700000000E+01,,3.47191300000000E+01,,,3.99566500000000E+01,2.76810400000000E+01,2.57313900000000E+01,2.50996400000000E+01,2.84135600000000E+01,2.51326300000000E+01,2.47108400000000E+01,2.14705700000000E+01,2.14783400000000E+01,2.32166000000000E+01,2.05125700000000E+01,1.97011000000000E+01,
COL,,,,,,,,,,,1.72600100000000E+01,1.67814300000000E+01,1.66849200000000E+01,1.65334900000000E+01,1.65483200000000E+01,,,,,,,,1.39225700000000E+01,1.34310700000000E+01,1.30680200000000E+01,1.71554400000000E+01,1.71559100000000E+01,1.30679400000000E+01,1.30679400000000E+01,1.30679400000000E+01,1.46501000000000E+01,1.20568700000000E+01,1.65326300000000E+01,7.74761000000000E+00,9.59353000000000E+00,9.69414000000000E+00,7.81641000000000E+00,,5.03046000000000E+00,5.75149000000000E+00,5.93476000000000E+00,7.31691000000000E+00,7.32182000000000E+00,,4.73487000000000E+00,4.59686000000000E+00,4.36857000000000E+00,4.18241000000000E+00,3.96393000000000E+00,2.26489000000000E+00,2.22350000000000E+00,
COM,,,,,,,,,,,,,,,,,,,,,,,,,,,3.22173200000000E+01,3.68806100000000E+01,,,,,3.92329100000000E+01,,,,,,,2.64082600000000E+01,2.65795500000000E+01,2.89319700000000E+01,2.93407300000000E+01,2.93441700000000E+01,2.81836600000000E+01,2.81822800000000E+01,,2.69507200000000E+01,2.44576800000000E+01,,,
CPV,,,,,,,,,,,,,,,,,,,,2.72657300000000E+01,2.64083600000000E+01,2.87784600000000E+01,2.95707500000000E+01,2.91132300000000E+01,3.04214400000000E+01,2.94093200000000E+01,2.92719600000000E+01,2.85005500000000E+01,2.56304600000000E+01,,2.00561900000000E+01,,,,1.81841000000000E+01,,,,1.02686600000000E+01,1.27961200000000E+01,1.28100900000000E+01,1.34724800000000E+01,1.50658600000000E+01,1.55110100000000E+01,1.49909700000000E+01,1.79744800000000E+01,1.64461700000000E+01,1.52589800000000E+01,1.39300700000000E+01,1.23068900000000E+01,1.16071200000000E+01,
CRI,,,,,,,,,,,1.15062200000000E+01,1.23322000000000E+01,6.57897000000000E+00,2.43342000000000E+00,3.17094000000000E+00,7.56920000000000E+00,8.74715000000000E+00,8.46408000000000E+00,8.67231000000000E+00,8.77929000000000E+00,8.61099000000000E+00,8.51451000000000E+00,8.20586000000000E+00,,,1.18216900000000E+01,1.09949400000000E+01,1.15570600000000E+01,1.20370800000000E+01,1.22412900000000E+01,,1.17714500000000E+01,1.07140600000000E+01,9.21772000000000E+00,9.85691000000000E+00,1.06327600000000E+01,1.28324100000000E+01,,,1.01156200000000E+01,9.04070000000000E+00,9.47334000000000E+00,8.52665000000000E+00,8.52672000000000E+00,8.00119000000000E+00,8.31364000000000E+00,8.40554000000000E+00,8.82985000000000E+00,8.17905000000000E+00,5.88355000000000E+00,6.55926000000000E+00,
CUB,,,,,,,,,,,,2.39178700000000E+01,3.10748000000000E+01,,,,,,,,,,,,,,,,,,,,,,,,,,,2.59233000000000E+00,1.98797000000000E+00,1.96760000000000E+00,1.74962000000000E+00,1.10431000000000E+00,9.13120000000000E-01,7.16950000000000E-01,6.65690000000000E-01,7.32340000000000E-01,6.97670000000000E-01,6.08930000000000E-01,5.82650000000000E-01,
CYM,,,,,,,,,,,,,,,,,,,,,,,,,,,,,,,,,,,,,,,,1.74620000000000E-01,1.74520000000000E-01,2.76400000000000E-01,5.51900000000000E-02,,0.00000000000000E+00,3.58850000000000E-01,0.00000000000000E+00,0.00000000000000E+00,0.00000000000000E+00,,,
CYP,,,,,,,,,,,,2.51905000000000E+00,2.41881000000000E+00,1.80137000000000E+00,1.64755000000000E+00,1.01237000000000E+00,1.11933000000000E+00,1.06361000000000E+00,9.89260000000000E-01,7.91220000000000E-01,9.53490000000000E-01,6.82400000000000E-01,6.24390000000000E-01,5.39200000000000E-01,7.02150000000000E-01,6.09680000000000E-01,4.32740000000000E-01,4.51860000000000E-01,4.38920000000000E-01,4.91270000000000E-01,3.65390000000000E-01,4.57290000000000E-01,3.64270000000000E-01,3.63310000000000E-01,3.87630000000000E-01,3.69970000000000E-01,4.17490000000000E-01,3.92090000000000E-01,,5.09740000000000E-01,4.09910000000000E-01,3.45100000000000E-01,3.29920000000000E-01,3.37530000000000E-01,3.09760000000000E-01,2.57630000000000E-01,2.74520000000000E-01,2.52520000000000E-01,4.74100000000000E-01,2.33280000000000E-01,,
CZE,,,,,,,,,,,,,,,,,,,,,,,,,,,,,,,,,,1.46994000000000E+00,1.25352000000000E+00,,1.45983000000000E+00,,,1.49860000000000E+00,1.38926000000000E+00,1.29938000000000E+00,1.27651000000000E+00,1.27397000000000E+00,1.24933000000000E+00,1.27246000000000E+00,8.02790000000000E-01,7.24780000000000E-01,7.27590000000000E-01,7.27870000000000E-01,,
DEU,,,,,,,,,,,,,,,,,,,,,,,,,,,,,,,,,,2.09824000000000E+00,2.11321000000000E+00,2.00014000000000E+00,1.95791000000000E+00,1.92826000000000E+00,,1.93025000000000E+00,1.91742000000000E+00,1.97292000000000E+00,1.88721000000000E+00,1.71438000000000E+00,1.55465000000000E+00,1.46235000000000E+00,1.21115000000000E+00,1.23068000000000E+00,1.33651000000000E+00,5.91470000000000E-01,,
DJI,,,,,,,,,,,,,1.00655500000000E+01,1.74572700000000E+01,2.09230800000000E+01,2.17228500000000E+01,2.05396800000000E+01,,,,,,,,,,,,,,,,,,,,,,,1.68595300000000E+01,1.45246400000000E+01,1.44365800000000E+01,1.13948100000000E+01,1.13954300000000E+01,9.31489000000000E+00,9.31989000000000E+00,7.64544000000000E+00,9.32170000000000E+00,1.06414700000000E+01,1.00679300000000E+01,,
DMA,,,,,,,,,,,,,,,,,,,,,,,,,,,,,5.88691000000000E+00,,,,,,,,,,,3.78934000000000E+00,3.00690000000000E+00,2.42045000000000E+00,5.86793000000000E+00,5.01202000000000E+00,5.68627000000000E+00,4.58204000000000E+00,4.59016000000000E+00,6.21913000000000E+00,5.28768000000000E+00,7.47154000000000E+00,6.03946000000000E+00,
DNK,,,,,,,,,,,,0.00000000000000E+00,0.00000000000000E+00,0.00000000000000E+00,0.00000000000000E+00,,,,,,0.00000000000000E+00,0.00000000000000E+00,0.00000000000000E+00,0.00000000000000E+00,0.00000000000000E+00,0.00000000000000E+00,0.00000000000000E+00,0.00000000000000E+00,0.00000000000000E+00,0.00000000000000E+00,0.00000000000000E+00,0.00000000000000E+00,0.00000000000000E+00,0.00000000000000E+00,,,,,0.00000000000000E+00,0.00000000000000E+00,0.00000000000000E+00,0.00000000000000E+00,0.00000000000000E+00,0.00000000000000E+00,0.00000000000000E+00,0.00000000000000E+00,0.00000000000000E+00,0.00000000000000E+00,,2.33620000000000E-01,,
DOM,,,,,,,,,,,,2.37927700000000E+01,,,,,,,,,,,,,,,,,,,,,,,,,,,,4.47763000000000E+00,6.20159000000000E+00,7.07489000000000E+00,7.07467000000000E+00,7.07474000000000E+00,8.83751000000000E+00,9.91801000000000E+00,9.93118000000000E+00,6.87286000000000E+00,,8.59504000000000E+00,9.25126000000000E+00,
DZA,,,,,,,,,,,,,1.24068700000000E+01,1.26540100000000E+01,1.26946200000000E+01,1.27963800000000E+01,1.28616800000000E+01,1.25519700000000E+01,1.35578900000000E+01,1.35416900000000E+01,1.35536400000000E+01,1.24129000000000E+01,1.11080600000000E+01,7.39907000000000E+00,7.58470000000000E+00,7.64675000000000E+00,8.71616000000000E+00,7.78987000000000E+00,7.63207000000000E+00,7.70249000000000E+00,8.13669000000000E+00,1.11139300000000E+01,1.04999700000000E+01,1.10391200000000E+01,1.10787000000000E+01,1.09532600000000E+01,1.07428000000000E+01,1.29521300000000E+01,,1.46291100000000E+01,1.71722200000000E+01,1.51855400000000E+01,1.41511400000000E+01,1.40506000000000E+01,1.43418900000000E+01,1.36239200000000E+01,1.44153500000000E+01,1.35941800000000E+01,9.53357000000000E+00,1.30872600000000E+01,9.15963000000000E+00,
EAP,,,,,,,,,,,,,,,,,,,,,,,,,,,,,,,,,,,,,3.29473268230569E+00,2.88432927998776E+00,,,,,1.69798302935985E+00,1.45453375874974E+00,,,1.63093346213503E+00,1.86141651005485E+00,1.42307257294492E+00,1.50792609816157E+00,,
EAS,,,,,,,,,,,,,,,,,,,,,,,,,,,,,,,,,,,,,3.29473268230569E+00,2.88432927998776E+00,,,,,1.66184768603315E+00,1.42195068081555E+00,,,1.59172613437510E+00,1.81511935803395E+00,1.33248044428969E+00,1.41192371509268E+00,,
ECA,,,,,,,,,,,,,,,,,,,,,,,,,,,,,,,,,,,2.77838975462102E+00,,,,,,,,,,,,,,,,,
ECS,,,,,,,,,,,,,,,,,,,,,,,,,,,,,,,,,,,,,,,,,,,,,1.42028432005594E+00,,1.13582034011155E+00,1.06383431741941E+00,1.17792777560261E+00,9.88344276275501E-01,,
ECU,,,,,,,,,,,,1.27918700000000E+01,1.41653300000000E+01,1.19657600000000E+01,1.31722400000000E+01,1.13392000000000E+01,1.17711900000000E+01,1.16014100000000E+01,1.32443600000000E+01,1.37504700000000E+01,1.15326000000000E+01,,,,,,,7.05257000000000E+00,6.61903000000000E+00,,,,,,5.15048000000000E+00,4.76946000000000E+00,4.33625000000000E+00,3.81430000000000E+00,,2.98536000000000E+00,2.61986000000000E+00,2.48316000000000E+00,2.29040000000000E+00,2.25750000000000E+00,2.25717000000000E+00,1.85952000000000E+00,1.71499000000000E+00,1.58464000000000E+00,,,,
EGY,,,,,,,,,,,,3.72787000000000E+00,5.33363000000000E+00,5.05745000000000E+00,4.84661000000000E+00,7.07138000000000E+00,6.58725000000000E+00,5.13046000000000E+00,5.91964000000000E+00,6.65384000000000E+00,6.80756000000000E+00,7.21599000000000E+00,2.79999000000000E+00,2.31210000000000E+00,,,1.62615000000000E+00,,,,,,,,,,,7.47749000000000E+00,,7.13639000000000E+00,6.67656000000000E+00,6.38525000000000E+00,6.31636000000000E+00,5.60021000000000E+00,5.01107000000000E+00,2.70062000000000E+00,,,,4.15670000000000E+00,,
EMU,,,,,,,,,,,,,,,,,,,,,,,,,,,,,,,,,,,,,,,,2.17349471755201E+00,2.18466529862843E+00,,,,2.21907634289442E+00,,1.49533500153946E+00,1.41550438610449E+00,1.56812414480405E+00,1.37166143945231E+00,,
ERI,,,,,,,,,,,,,,,,,,,,,,,,,,,,,,,,,2.90437300000000E+01,2.20216200000000E+01,1.78784000000000E+01,1.70036300000000E+01,1.51171400000000E+01,1.89081300000000E+01,,1.82256300000000E+01,1.88937200000000E+01,1.36902700000000E+01,1.71080100000000E+01,2.01124500000000E+01,2.06396100000000E+01,1.30376400000000E+01,1.38669300000000E+01,1.49439900000000E+01,1.60313300000000E+01,1.43885000000000E+01,1.58160200000000E+01,
ESP,,,,,,,,,,,,,,,,,,,,,,7.24869000000000E+00,7.84216000000000E+00,6.80273000000000E+00,5.82368000000000E+00,5.51617000000000E+00,5.65342000000000E+00,6.97929000000000E+00,3.56386000000000E+00,3.17672000000000E+00,4.29508000000000E+00,,,4.90341000000000E+00,3.23570000000000E+00,,,,,,,,,,2.62385000000000E+00,,3.23003000000000E+00,2.88628000000000E+00,3.02911000000000E+00,3.07006000000000E+00,,
EST,,,,,,,,,,,,,,,,,,,,,,,,,,,,,,,,,,4.08108000000000E+00,3.79380000000000E+00,4.69794000000000E+00,4.04126000000000E+00,,,3.52872000000000E+00,3.36864000000000E+00,3.16550000000000E+00,2.89988000000000E+00,3.29368000000000E+00,2.98977000000000E+00,2.26308000000000E+00,2.93485000000000E+00,0.00000000000000E+00,1.29400000000000E+00,9.29210000000000E-01,,
ETH,,,,,,,,,,,,,,,,,,,,,,,1.11663800000000E+01,,,,,8.49241000000000E+00,9.87125000000000E+00,8.06502000000000E+00,,,,,7.53176000000000E+00,7.46555000000000E+00,8.59371000000000E+00,7.18692000000000E+00,9.37342000000000E+00,9.78891000000000E+00,1.26278600000000E+01,1.32597600000000E+01,1.35887200000000E+01,1.42758600000000E+01,1.15221500000000E+01,7.93153000000000E+00,6.94367000000000E+00,6.57392000000000E+00,5.05276000000000E+00,6.07246000000000E+00,3.66593000000000E+00,
EUU,,,,,,,,,,,,,,,,,,,,,,,,,,,,,,,,,,,,,,,,1.71998165792175E+00,1.69405687894252E+00,,,,1.54061713666665E+00,8.51362112098390E-01,1.12789128760626E+00,1.06133996932686E+00,1.21179784796757E+00,1.06132445217410E+00,,
FIN,,,,,,,,,,,,,,,,,,,,,,,,,,,,5.11600000000000E-01,5.27320000000000E-01,5.17180000000000E-01,5.11260000000000E-01,4.97360000000000E-01,5.20660000000000E-01,5.02470000000000E-01,5.07580000000000E-01,5.15100000000000E-01,5.17190000000000E-01,,5.01240000000000E-01,5.74670000000000E-01,6.14810000000000E-01,6.54510000000000E-01,6.13970000000000E-01,5.69720000000000E-01,5.40100000000000E-01,6.12640000000000E-01,5.46820000000000E-01,5.64600000000000E-01,5.30230000000000E-01,5.28170000000000E-01,,
FJI,,,,,,,,,,,,,,,,,,,,,5.38188000000000E+00,4.75391000000000E+00,,4.36308000000000E+00,3.73173000000000E+00,3.57232000000000E+00,3.43862000000000E+00,,,,,,,,,,,,,,,,,2.71815000000000E+00,2.71937000000000E+00,2.71884000000000E+00,2.70266000000000E+00,2.68636000000000E+00,2.01752000000000E+00,1.33351000000000E+00,,
FRA,,,,,,,,,,,,1.42780900000000E+01,1.33069200000000E+01,,,,,,,,,,,,,,,,,,,,,,,,,,,4.17234000000000E+00,4.16500000000000E+00,,,,,,,,,,,
GAB,,,,,,,,,,,,,3.38070600000000E+01,3.76798400000000E+01,,3.51599100000000E+01,3.36939300000000E+01,3.38065300000000E+01,3.48775500000000E+01,3.47835100000000E+01,3.59964500000000E+01,3.52786800000000E+01,3.40267600000000E+01,3.23460800000000E+01,3.34995400000000E+01,,,3.65392400000000E+01,3.13332600000000E+01,3.42375300000000E+01,,,3.31944200000000E+01,,,4.01808400000000E+01,3.55256600000000E+01,3.51850700000000E+01,,,3.72792100000000E+01,3.73979400000000E+01,3.51317400000000E+01,3.51327500000000E+01,,,,,,,,
GBR,,,,,,,,,,,,,,,,,,,,,,,,,,,,,,,,0.00000000000000E+00,,,,,,,0.00000000000000E+00,0.00000000000000E+00,0.00000000000000E+00,0.00000000000000E+00,0.00000000000000E+00,0.00000000000000E+00,0.00000000000000E+00,0.00000000000000E+00,0.00000000000000E+00,0.00000000000000E+00,0.00000000000000E+00,0.00000000000000E+00,,
GEO,,,,,,,,,,,,,,,,,,,,,,,,,,,,,,,,,,,,,,,,4.31400000000000E-01,3.30720000000000E-01,4.52230000000000E-01,4.58390000000000E-01,2.28090000000000E-01,3.60460000000000E-01,3.59050000000000E-01,3.54300000000000E-01,4.82170000000000E-01,3.70580000000000E-01,1.08400000000000E-01,1.03890000000000E-01,
GHA,,,,,,,,,,,,3.16648000000000E+00,3.56906000000000E+00,,3.17450000000000E+00,2.60977000000000E+00,2.17174000000000E+00,2.19788000000000E+00,2.09286000000000E+00,1.89958000000000E+00,2.18948000000000E+00,1.97311000000000E+00,,,,,,,,,,2.84786000000000E+00,3.07165000000000E+00,,,,,,,4.28870000000000E+00,5.12735000000000E+00,5.36213000000000E+00,7.00835000000000E+00,6.13778000000000E+00,5.82896000000000E+00,5.97058000000000E+00,6.73694000000000E+00,7.02635000000000E+00,7.01759000000000E+00,3.55963000000000E+00,,
GIN,,,,,,,,,,,,,,,,,,,,,,,,,1.75485800000000E+01,2.32327300000000E+01,2.54020800000000E+01,2.37717500000000E+01,2.30703300000000E+01,1.86200600000000E+01,1.73755500000000E+01,1.84063600000000E+01,1.84565900000000E+01,1.93361800000000E+01,2.06359700000000E+01,2.09507100000000E+01,,,2.70397300000000E+01,2.54669900000000E+01,2.28557200000000E+01,1.95839600000000E+01,1.97589000000000E+01,1.98353100000000E+01,1.00792600000000E+01,8.44913000000000E+00,8.26236000000000E+00,8.71157000000000E+00,1.50591800000000E+01,1.46773700000000E+01,1.56005700000000E+01,
GMB,,,,,,,,,,,,1.45933200000000E+01,1.29018900000000E+01,1.40364000000000E+01,1.39042400000000E+01,1.12533300000000E+01,1.07611900000000E+01,2.33128800000000E+01,1.85248800000000E+01,1.59207000000000E+01,1.38593300000000E+01,1.25279600000000E+01,1.22231900000000E+01,1.25395500000000E+01,1.39476100000000E+01,1.39369300000000E+01,1.73659100000000E+01,1.70201100000000E+01,,1.88110700000000E+01,,,1.66415600000000E+01,1.49030700000000E+01,1.34159300000000E+01,1.36632300000000E+01,1.29713600000000E+01,,,9.23633000000000E+00,8.59677000000000E+00,8.48517000000000E+00,8.43963000000000E+00,5.71603000000000E+00,5.10781000000000E+00,6.12215000000000E+00,5.46261000000000E+00,5.95725000000000E+00,5.53110000000000E+00,5.60458000000000E+00,5.56156000000000E+00,
GNB,,,,,,,,,,,,,,,,,,,,2.84420900000000E+01,3.04974600000000E+01,2.82820200000000E+01,2.79577100000000E+01,3.03826800000000E+01,2.93872100000000E+01,,,4.03327100000000E+01,4.15806000000000E+01,,,,,,,,,,,2.36090500000000E+01,2.35794800000000E+01,,,,,,,,,,1.39253900000000E+01,
GNQ,,,,,,,,,,,,,,,,,,,,,,,,,,,,,,,,,,,2.47902900000000E+01,,,,,9.34216000000000E+00,,3.80434200000000E+01,3.75045600000000E+01,,,2.55399600000000E+01,,,,2.29723000000000E+01,2.13609300000000E+01,
GRC,,,,,,,,,,,,6.04821000000000E+00,6.11174000000000E+00,5.30419000000000E+00,4.61069000000000E+00,3.95326000000000E+00,3.35268000000000E+00,2.69841000000000E+00,2.14391000000000E+00,1.67165000000000E+00,1.56535000000000E+00,1.26471000000000E+00,1.72850000000000E-01,2.31630000000000E-01,2.35050000000000E-01,2.04180000000000E-01,1.86750000000000E-01,1.59020000000000E-01,4.67400000000000E-02,4.78000000000000E-03,,,1.09130000000000E-01,,,,,,0.00000000000000E+00,0.00000000000000E+00,0.00000000000000E+00,0.00000000000000E+00,0.00000000000000E+00,0.00000000000000E+00,0.00000000000000E+00,6.65590000000000E-01,6.73350000000000E-01,7.62240000000000E-01,,,,
GRD,,,,,,,,,,,,,,,,,,,1.27246100000000E+01,1.18388200000000E+01,,,,6.48619000000000E+00,8.34723000000000E+00,,,,,,,,,,,,,,,,7.77858000000000E+00,4.28138000000000E+00,4.28922000000000E+00,3.29986000000000E+00,4.60138000000000E+00,4.07421000000000E+00,,2.98253000000000E+00,3.70728000000000E+00,3.59539000000000E+00,,
GTM,,,,,,,,,,,,,,,,,1.42376900000000E+01,1.53785500000000E+01,1.54384400000000E+01,,,,,,,,,,,,,,,1.67160900000000E+01,,,1.59531300000000E+01,,,1.58026300000000E+01,1.51497100000000E+01,1.48014200000000E+01,1.47781200000000E+01,1.47815500000000E+01,1.39750400000000E+01,1.33243100000000E+01,1.29581000000000E+01,1.31980900000000E+01,1.34800600000000E+01,,1.16215500000000E+01,
GUY,,,,,,,,,,,,9.91287000000000E+00,1.12197500000000E+01,1.04124000000000E+01,1.06098500000000E+01,,8.92563000000000E+00,7.64167000000000E+00,8.38812000000000E+00,6.88758000000000E+00,8.38976000000000E+00,,3.80847000000000E+00,,,,,6.76531000000000E+00,,,,,6.77297000000000E+00,5.17196000000000E+00,,4.74058000000000E+00,4.90396000000000E+00,4.61226000000000E+00,,3.59245000000000E+00,2.56745000000000E+00,1.91537000000000E+00,1.85258000000000E+00,1.73981000000000E+00,1.67134000000000E+00,1.08475000000000E+00,1.50003000000000E+00,1.65715000000000E+00,8.37660000000000E-01,9.76600000000000E-01,6.49110000000000E-01,
HIC,,,,,,,,,,,,,,,,,,,,,,,,,,,,,,,,,,,,,,,,7.36470650439065E-01,7.00483241409392E-01,,,,6.81633963375154E-01,,4.85003264198478E-01,6.61291661780935E-01,6.04062864849703E-01,4.62041844685487E-01,,
HKG,,,,,,,,,,,,,,,,,,,,,4.94498000000000E+00,4.30542000000000E+00,4.37249000000000E+00,3.58609000000000E+00,2.78795000000000E+00,2.41798000000000E+00,,,,,,,,,,,,,,,,,,9.96340000000000E-01,1.01142000000000E+00,1.03480000000000E+00,1.02307000000000E+00,1.04771000000000E+00,1.07975000000000E+00,9.80210000000000E-01,9.40400000000000E-01,
HND,,,,,,,,,,,,,,,,,,,,,1.69500000000000E+01,,1.69584400000000E+01,,1.63747600000000E+01,,,,,,,1.10040300000000E+01,,1.28340500000000E+01,,,,,,,,,,,9.44550000000000E+00,1.00127300000000E+01,8.27194000000000E+00,6.76139000000000E+00,6.02935000000000E+00,1.37224000000000E+00,9.03770000000000E-01,
HPC,,,,,,,,,,,,,,,,,,,,,,,1.40059331748523E+01,,,,,,,,,,,,,,,,,1.52499935812398E+01,,1.47824545526024E+01,1.49069736979749E+01,,1.45253466597868E+01,1.29075264857447E+01,,1.20769191426580E+01,1.15330802218992E+01,1.10039423801781E+01,,
HRV,,,,,,,,,,,,,,,,,,,,,,,,,,,,,,,,,,,,7.02530000000000E-01,7.34120000000000E-01,5.75330000000000E-01,5.98690000000000E-01,5.35820000000000E-01,5.20320000000000E-01,5.31490000000000E-01,4.81240000000000E-01,4.21800000000000E-01,,2.99080000000000E-01,3.53930000000000E-01,3.35220000000000E-01,3.07090000000000E-01,2.19100000000000E-01,,
HTI,,,,,,,,,,,,,,,,,,,,2.47024400000000E+01,2.10794600000000E+01,,1.58297100000000E+01,1.33199100000000E+01,,1.22669200000000E+01,9.43248000000000E+00,,1.27418200000000E+01,1.27415100000000E+01,1.27418900000000E+01,1.27417100000000E+01,,,,,,1.71442100000000E+01,,,,,,,,,,,,,,
HUN,,,,,,,,,,,,,,,,,3.69139000000000E+00,3.11370000000000E+00,2.95258000000000E+00,2.83363000000000E+00,3.13306000000000E+00,2.93593000000000E+00,3.08601000000000E+00,3.28912000000000E+00,3.47805000000000E+00,3.83131000000000E+00,4.13906000000000E+00,4.20543000000000E+00,4.35701000000000E+00,4.14876000000000E+00,3.96887000000000E+00,,,,,,,2.16558000000000E+00,2.18887000000000E+00,2.14405000000000E+00,2.09525000000000E+00,3.00910000000000E+00,2.99258000000000E+00,2.91427000000000E+00,2.58929000000000E+00,2.53877000000000E+00,2.20739000000000E+00,2.25555000000000E+00,2.01420000000000E+00,2.37950000000000E+00,,
IDN,,,,,,,,,,,,,,,,,,,,,,,,,,,,,,,,,,,,7.82847000000000E+00,6.85512000000000E+00,5.70389000000000E+00,,,,6.17471000000000E+00,5.50376000000000E+00,3.77519000000000E+00,2.88632000000000E+00,5.50875000000000E+00,4.45581000000000E+00,3.95185000000000E+00,3.58357000000000E+00,4.33093000000000E+00,,
IND,,,,,,,,,,,,2.05137900000000E+01,,,1.74111500000000E+01,,,,,,,,,,,,,3.93331000000000E+00,4.15211000000000E+00,,,,,,,3.49888000000000E+00,,,,3.96397000000000E+00,4.23840000000000E+00,3.66802000000000E+00,3.63730000000000E+00,3.57742000000000E+00,3.27704000000000E+00,3.44479000000000E+00,3.44112000000000E+00,3.47722000000000E+00,,,,
IRL,,,,,,,,,,,,,,,,,,,,,,,,,,,,,,,,,2.06468000000000E+00,2.08585000000000E+00,2.02649000000000E+00,1.90274000000000E+00,,,2.22778000000000E+00,2.05363000000000E+00,1.80749000000000E+00,1.74706000000000E+00,1.35607000000000E+00,1.20204000000000E+00,1.06441000000000E+00,9.00220000000000E-01,8.09550000000000E-01,7.51430000000000E-01,7.58500000000000E-01,7.04200000000000E-01,,
IRN,,,,,,,,,,,,1.04939500000000E+01,,,,,,,,,,,,,,,,1.33496600000000E+01,1.20127200000000E+01,1.21696200000000E+01,1.17476100000000E+01,1.07021200000000E+01,1.10111600000000E+01,8.40864000000000E+00,8.48528000000000E+00,8.68087000000000E+00,,7.28560000000000E+00,,,6.59828000000000E+00,5.88498000000000E+00,5.23384000000000E+00,3.76698000000000E+00,3.05377000000000E+00,2.94573000000000E+00,2.97144000000000E+00,2.82108000000000E+00,,2.41493000000000E+00,,
IRQ,,,,,,,,,,,,2.02141100000000E+01,2.12601200000000E+01,1.98285000000000E+01,1.95879200000000E+01,1.72990700000000E+01,1.59419900000000E+01,1.46471100000000E+01,1.18715800000000E+01,,1.11407100000000E+01,,,2.49470600000000E+01,,2.37227200000000E+01,2.22263300000000E+01,2.32917300000000E+01,2.28495600000000E+01,2.17395900000000E+01,,,,1.88923600000000E+01,,,,,,1.06810700000000E+01,1.41388100000000E+01,1.41449100000000E+01,,9.13102000000000E+00,9.12324000000000E+00,,,1.88070300000000E+01,,,,
ISL,,,,,,,,,,,,,,,,,,,,,,,,,,,,,,,,,,,,,,,0.00000000000000E+00,0.00000000000000E+00,0.00000000000000E+00,0.00000000000000E+00,0.00000000000000E+00,0.00000000000000E+00,0.00000000000000E+00,0.00000000000000E+00,0.00000000000000E+00,0.00000000000000E+00,0.00000000000000E+00,0.00000000000000E+00,,
ISR,,,,,,,,,,,,,,,,,,,,,,,,,,,,,,,,,,,,,,,,,,,2.10781000000000E+00,2.24711000000000E+00,2.04240000000000E+00,2.20624000000000E+00,1.74877000000000E+00,1.87873000000000E+00,1.93597000000000E+00,1.80882000000000E+00,,
ITA,,,,,,,,,,,,8.12390000000000E+00,6.67935000000000E+00,6.07590000000000E+00,5.13440000000000E+00,4.46989000000000E+00,3.51628000000000E+00,2.95169000000000E+00,2.64188000000000E+00,1.54746000000000E+00,1.58353000000000E+00,1.47716000000000E+00,1.61240000000000E+00,1.51352000000000E+00,1.45417000000000E+00,1.27800000000000E+00,1.26259000000000E+00,1.19410000000000E+00,1.16727000000000E+00,1.17875000000000E+00,1.17632000000000E+00,,8.46010000000000E-01,,7.51250000000000E-01,6.77590000000000E-01,5.41510000000000E-01,5.46740000000000E-01,,4.84060000000000E-01,5.45640000000000E-01,3.98640000000000E-01,3.53630000000000E-01,3.46730000000000E-01,3.65880000000000E-01,2.93180000000000E-01,2.68560000000000E-01,3.03330000000000E-01,3.35390000000000E-01,3.80450000000000E-01,,
JAM,,,,,,,,,,,,,,,,,4.03740000000000E+00,4.88002000000000E+00,,4.48522000000000E+00,3.99697000000000E+00,4.20867000000000E+00,,,5.13948000000000E+00,,,4.29190000000000E+00,3.52798000000000E+00,3.49934000000000E+00,3.81583000000000E+00,4.36196000000000E+00,,3.71680000000000E+00,,,,,,,6.57524000000000E+00,6.21699000000000E+00,4.32505000000000E+00,,3.29779000000000E+00,3.29456000000000E+00,,3.48806000000000E+00,3.44410000000000E+00,4.06910000000000E+00,,
JOR,,,,,,,,,,,,,6.57726000000000E+00,5.96044000000000E+00,3.88065000000000E+00,4.10422000000000E+00,3.95851000000000E+00,4.65769000000000E+00,3.70663000000000E+00,2.63583000000000E+00,2.94215000000000E+00,3.20714000000000E+00,3.90229000000000E+00,4.29639000000000E+00,4.74773000000000E+00,4.89657000000000E+00,,6.22111000000000E+00,6.84358000000000E+00,5.85054000000000E+00,5.35724000000000E+00,4.80651000000000E+00,5.02961000000000E+00,4.31976000000000E+00,1.55291000000000E+00,,1.08399000000000E+00,,,6.89990000000000E-01,6.40040000000000E-01,,4.95180000000000E-01,4.76220000000000E-01,9.66780000000000E-01,8.55160000000000E-01,1.10618000000000E+00,1.06849000000000E+00,5.70800000000000E-01,,,
JPN,,,,,,,,,,,,0.00000000000000E+00,0.00000000000000E+00,0.00000000000000E+00,0.00000000000000E+00,0.00000000000000E+00,0.00000000000000E+00,0.00000000000000E+00,0.00000000000000E+00,0.00000000000000E+00,0.00000000000000E+00,0.00000000000000E+00,0.00000000000000E+00,0.00000000000000E+00,0.00000000000000E+00,0.00000000000000E+00,0.00000000000000E+00,0.00000000000000E+00,0.00000000000000E+00,0.00000000000000E+00,0.00000000000000E+00,0.00000000000000E+00,0.00000000000000E+00,,0.00000000000000E+00,,,,0.00000000000000E+00,,,,,,,,,,0.00000000000000E+00,0.00000000000000E+00,,
KAZ,,,,,,,,,,,,,,,,,,,,,,,,,,,,,,,,,,,9.56020000000000E-01,,,,,,3.93720000000000E-01,3.22130000000000E-01,2.27900000000000E-01,1.92720000000000E-01,1.58310000000000E-01,1.51410000000000E-01,1.24770000000000E-01,1.10880000000000E-01,9.35600000000000E-02,9.26500000000000E-02,7.43400000000000E-02,
KEN,,,,,,,,,,,3.66090000000000E+00,3.55697000000000E+00,3.76597000000000E+00,3.98701000000000E+00,,,,5.55648000000000E+00,6.10367000000000E+00,,1.29354500000000E+01,1.32574900000000E+01,,,,,,,,,,,,,,,,,,,,,,,6.03032000000000E+00,6.01792000000000E+00,,,,,,
KGZ,,,,,,,,,,,,,,,,,,,,,,,,,,,,,,,,,,,,,,,,4.36450000000000E-01,3.58900000000000E-01,3.13690000000000E-01,2.20170000000000E-01,1.90250000000000E-01,1.24810000000000E-01,1.24470000000000E-01,1.39540000000000E-01,9.62700000000000E-02,1.22110000000000E-01,9.62300000000000E-02,7.19400000000000E-02,
KHM,,,,,,,,,,,,,,,,,,,,,,,,,,,,,,,,,,,,3.09028600000000E+01,,2.74758700000000E+01,2.70324800000000E+01,2.51113200000000E+01,,1.72967500000000E+01,1.01660900000000E+01,1.08207400000000E+01,1.15919600000000E+01,1.51284000000000E+01,1.38268500000000E+01,1.27957100000000E+01,1.22546100000000E+01,1.12343400000000E+01,9.84425000000000E+00,
KIR,,,,,,,,,,,,,,,,,,5.19555000000000E+00,5.50896000000000E+00,6.48479000000000E+00,4.76542000000000E+00,4.19364000000000E+00,3.42173000000000E+00,2.75243000000000E+00,2.85629000000000E+00,2.74395000000000E+00,1.69265000000000E+00,1.69466000000000E+00,1.87910000000000E+00,1.23336000000000E+00,5.66730000000000E-01,5.83020000000000E-01,1.47860000000000E-01,5.57640000000000E-01,2.34690000000000E-01,4.05420000000000E-01,2.40050000000000E-01,3.00870000000000E-01,,,,,,,,,,,,,,
KNA,,,,,,,,,,,,,,,,,,,,,,,,,,,,,,,,,0.00000000000000E+00,,,,,,,,,,,,,,,2.62821000000000E+00,2.15451000000000E+00,3.24103000000000E+00,2.18009000000000E+00,
KOR,,,,,,,,,,,,8.39800000000000E-02,1.18860000000000E-01,0.00000000000000E+00,0.00000000000000E+00,0.00000000000000E+00,0.00000000000000E+00,0.00000000000000E+00,0.00000000000000E+00,0.00000000000000E+00,0.00000000000000E+00,0.00000000000000E+00,0.00000000000000E+00,0.00000000000000E+00,0.00000000000000E+00,0.00000000000000E+00,0.00000000000000E+00,0.00000000000000E+00,0.00000000000000E+00,0.00000000000000E+00,0.00000000000000E+00,0.00000000000000E+00,0.00000000000000E+00,0.00000000000000E+00,,,,,0.00000000000000E+00,0.00000000000000E+00,0.00000000000000E+00,0.00000000000000E+00,0.00000000000000E+00,0.00000000000000E+00,4.03000000000000E-03,1.93000000000000E-03,2.47000000000000E-03,2.93000000000000E-03,2.55000000000000E-03,2.09000000000000E-03,,
KWT,,,,,,,,,,,,1.16502000000000E+01,1.40795500000000E+01,1.17851000000000E+01,1.17733000000000E+01,1.15910200000000E+01,1.06602300000000E+01,8.85152000000000E+00,8.16231000000000E+00,1.03842900000000E+01,6.19549000000000E+00,6.03854000000000E+00,4.88984000000000E+00,4.96805000000000E+00,5.91300000000000E+00,5.52807000000000E+00,5.24099000000000E+00,5.34848000000000E+00,,,,,2.52750000000000E+00,,4.21673000000000E+00,3.98347000000000E+00,3.42057000000000E+00,3.30938000000000E+00,,3.37619000000000E+00,3.35196000000000E+00,3.32315000000000E+00,2.85569000000000E+00,2.75809000000000E+00,2.28482000000000E+00,2.19311000000000E+00,2.46329000000000E+00,1.10827000000000E+00,,,7.81910000000000E-01,
LAC,,,,,,,,,,,,,,,,,,,,,,,,,,,,,,,,,,,,,,,,1.26174865522092E+01,1.26711029481031E+01,1.18596308800679E+01,,,1.04952072803937E+01,,,,,,,
LAO,,,,,,,,,,,,,,,,,,,,,,,,,,,,,,,,,3.17472200000000E+01,2.86226900000000E+01,2.73436000000000E+01,,2.54184700000000E+01,2.46996500000000E+01,2.29792000000000E+01,2.24060400000000E+01,2.12127100000000E+01,2.11688700000000E+01,2.12283100000000E+01,2.09698800000000E+01,2.10632500000000E+01,2.02989000000000E+01,1.93409200000000E+01,1.79805800000000E+01,1.78775500000000E+01,,,
LBN,,,,,,,,,,,,,,,,,,,,,,,,,,,,,,,,,,,,,,,1.35259600000000E+01,1.03873900000000E+01,,,,,,,1.11171500000000E+01,1.05671900000000E+01,1.02022800000000E+01,1.05595400000000E+01,9.36331000000000E+00,
LBR,,,,,,,,,,,,,,,,,,,1.03738400000000E+01,,,,,,,,,,,,,,,,,,,,,,,,,,,,,5.57450000000000E+00,6.47698000000000E+00,,,
LBY,,,,,,,,,,,,,5.83024000000000E+00,8.98198000000000E+00,6.88830000000000E+00,9.56357000000000E+00,1.69164700000000E+01,1.54327900000000E+01,1.57509500000000E+01,1.50535700000000E+01,1.49916200000000E+01,1.02884800000000E+01,,1.07692000000000E+01,,,,,,,,,,,,,,,,,,,,,,,,,,,,
LCA,,,,,,,,,,,,,,,,,,,,,,,,3.20816000000000E+00,7.39016000000000E+00,,,,,,0.00000000000000E+00,0.00000000000000E+00,,0.00000000000000E+00,,,,,,2.75714000000000E+00,3.72821000000000E+00,3.57444000000000E+00,2.82508000000000E+00,3.44339000000000E+00,2.57493000000000E+00,2.92953000000000E+00,2.60350000000000E+00,3.33274000000000E+00,3.13468000000000E+00,3.19759000000000E+00,2.97924000000000E+00,
LCN,,,,,,,,,,,,,,,,,,,,,,,,,,,,,,,,,,,,,,,,1.25969019949817E+01,1.26592748493982E+01,1.18479465975366E+01,,,1.04855355543141E+01,,,,,,,
LDC,,,,,,,,,,,,,,,,,,,,,,,,,,,,,,,,,,,,,,,,,,,1.38912716917631E+01,,,1.20089909515554E+01,1.12525673920309E+01,,1.15107679646655E+01,1.10107378504277E+01,,
LIC,,,,,,,,,,,,,,,,,,,,,,,,,,,,,,,,,,,,,,,,,,,,,,1.18300276588481E+01,1.10673245949435E+01,,1.22659904075675E+01,1.13952079982927E+01,,
LIE,,,,,,,,,,,,,,,,,,,,,,,,,,,,,,,,,,,,,,,,,,,,0.00000000000000E+00,0.00000000000000E+00,0.00000000000000E+00,0.00000000000000E+00,0.00000000000000E+00,0.00000000000000E+00,0.00000000000000E+00,,
LKA,,,,,,,,,,,2.44631500000000E+01,,,,,,,,,,,,,1.16420100000000E+01,,7.63788000000000E+00,9.09482000000000E+00,1.00073400000000E+01,,8.10272000000000E+00,9.15652000000000E+00,9.02285000000000E+00,8.25505000000000E+00,,,,2.54065000000000E+00,,6.01247000000000E+00,,,1.64496000000000E+00,,,,8.64400000000000E-01,1.07083000000000E+00,9.64790000000000E-01,9.86110000000000E-01,1.00689000000000E+00,,
LMC,,,,,,,,,,,,,,,,,,,,,,,,,,,,,,,,,,,,,,,,5.26974010054427E+00,5.89241639187243E+00,5.13252446597263E+00,5.14797441342692E+00,4.64077768210847E+00,4.40539186249673E+00,4.54442986489674E+00,4.59119054906693E+00,4.96706534385408E+00,,,,
LMY,,,,,,,,,,,,,,,,,,,,,,,,,,,,,,,,,,,,,,,,,,,5.30788515462205E+00,4.81659287473429E+00,,,4.68349509517253E+00,5.10686476915331E+00,,,,
LSO,,,,,,,,,,,,,2.13208100000000E+01,1.85076000000000E+01,5.05809000000000E+00,5.89057000000000E+00,7.91676000000000E+00,1.48746500000000E+01,1.63182200000000E+01,1.70005400000000E+01,2.19866600000000E+01,2.31953700000000E+01,2.46929900000000E+01,2.63852300000000E+01,2.53024300000000E+01,2.45215400000000E+01,2.59840300000000E+01,2.55218500000000E+01,2.46366400000000E+01,2.52500200000000E+01,2.47162400000000E+01,2.51829600000000E+01,2.36367800000000E+01,2.23370400000000E+01,2.12052100000000E+01,,2.26752400000000E+01,,2.33424600000000E+01,2.29443000000000E+01,2.02253900000000E+01,2.19843100000000E+01,2.37978300000000E+01,2.46117700000000E+01,2.07033700000000E+01,2.40324800000000E+01,2.42711000000000E+01,2.42533700000000E+01,2.43213800000000E+01,2.28617700000000E+01,2.33708400000000E+01,
LTU,,,,,,,,,,,,,,,,,,,,,,,,,,,,,,,,,,,,2.66438000000000E+00,1.84534000000000E+00,1.86329000000000E+00,,1.27871000000000E+00,1.00749000000000E+00,8.52130000000000E-01,8.48530000000000E-01,7.87650000000000E-01,8.05130000000000E-01,9.25210000000000E-01,7.65380000000000E-01,7.64270000000000E-01,8.17130000000000E-01,7.73990000000000E-01,,
LUX,,,,,,,,,,,,,,,,6.95279000000000E+00,6.79722000000000E+00,6.55403000000000E+00,6.28896000000000E+00,7.03804000000000E+00,,,,6.93888000000000E+00,,,,,,,,,,,,,,,,,,5.36468000000000E+00,,,4.81636000000000E+00,4.91136000000000E+00,4.78004000000000E+00,4.64290000000000E+00,4.01913000000000E+00,,,
LVA,,,,,,,,,,,,,,,,,,,,,,,,,,,,,,,,,,,,,,,,2.73326000000000E+00,2.72462000000000E+00,2.68146000000000E+00,2.67924000000000E+00,2.46754000000000E+00,3.72931000000000E+00,4.09573000000000E+00,3.83004000000000E+00,4.42376000000000E+00,4.59152000000000E+00,3.47177000000000E+00,,
MAC,,,,,,,,,,,,,,,,,,,,,,,,,,,,,,,8.21546000000000E+00,,8.00794000000000E+00,5.18736000000000E+00,,,,,,7.31076000000000E+00,9.37751000000000E+00,8.36412000000000E+00,8.14077000000000E+00,8.90285000000000E+00,7.50906000000000E+00,7.84727000000000E+00,6.97624000000000E+00,7.38919000000000E+00,7.71138000000000E+00,7.94067000000000E+00,6.86770000000000E+00,
MAR,,,,,,,,,,,,,,2.97954500000000E+01,3.01446200000000E+01,2.95893200000000E+01,,2.92333600000000E+01,2.84237500000000E+01,2.88783900000000E+01,2.94956100000000E+01,3.04247900000000E+01,2.99902600000000E+01,3.07701800000000E+01,3.22509700000000E+01,2.27460900000000E+01,2.08867900000000E+01,2.11794300000000E+01,1.77854700000000E+01,1.65786300000000E+01,1.48701200000000E+01,1.19580400000000E+01,1.35903000000000E+01,1.37342300000000E+01,1.36534000000000E+01,1.29962700000000E+01,1.34123600000000E+01,1.38162800000000E+01,1.41517900000000E+01,1.41240700000000E+01,1.38620000000000E+01,1.42249200000000E+01,1.41139100000000E+01,1.55794300000000E+01,1.51723100000000E+01,1.47459900000000E+01,1.45644700000000E+01,1.37319000000000E+01,1.38951100000000E+01,1.34252200000000E+01,1.25676700000000E+01,
MCO,,,,,,,,,,,,,,,,,,,,,,,,,,,,,,,,6.39269000000000E+00,6.05381000000000E+00,,,,,,,0.00000000000000E+00,,0.00000000000000E+00,,,0.00000000000000E+00,,,,,0.00000000000000E+00,,
MDA,,,,,,,,,,,,,,,,,,,,,,,,,,,,,,,,,,,,1.39973000000000E+00,,,,9.16940000000000E-01,,1.15899000000000E+00,8.93810000000000E-01,4.21480000000000E-01,3.86240000000000E-01,3.38300000000000E-01,2.40940000000000E-01,1.85090000000000E-01,8.03100000000000E-02,1.05030000000000E-01,,
MDG,,,,,,,,,,,,2.97243100000000E+01,2.96016900000000E+01,3.21961400000000E+01,,2.50137900000000E+01,,,,,,,,,,,,,3.51079500000000E+01,3.56667800000000E+01,3.60445100000000E+01,3.72853600000000E+01,3.38641000000000E+01,3.38604900000000E+01,3.35338900000000E+01,3.33043600000000E+01,3.48137400000000E+01,,3.43175000000000E+01,2.76970500000000E+01,2.87883700000000E+01,3.11772200000000E+01,3.14939700000000E+01,3.02997900000000E+01,3.09088600000000E+01,1.87890000000000E+01,2.03907900000000E+01,1.98380700000000E+01,2.05716400000000E+01,2.12628300000000E+01,2.09970000000000E+01,
MDV,,,,,,,,,,,,,,,,,,,,,,,,,,,,,,,,,,,,,,,,,,,,5.84115000000000E+00,5.86602000000000E+00,5.84321000000000E+00,5.50497000000000E+00,,5.36150000000000E+00,3.91692000000000E+00,,
MEA,,,,,,,,,,,,,,,,,,,,,,,,,,,,,,,,,,,,,,9.43394889279233E+00,,1.05323776291833E+01,9.93394053872755E+00,9.65149884144967E+00,8.22870475673647E+00,7.84564964264983E+00,7.52039019537158E+00,6.33024910945574E+00,,9.51552194501150E+00,,6.51632654036307E+00,,
MEX,,,,,,,,,,,,,,,,1.22186100000000E+01,1.15864500000000E+01,1.04465500000000E+01,,,,,,,,,,,,,,,,9.90815000000000E+00,8.39043000000000E+00,8.14304000000000E+00,7.81806000000000E+00,7.90829000000000E+00,,7.64013000000000E+00,7.22982000000000E+00,6.51642000000000E+00,6.68290000000000E+00,6.08350000000000E+00,5.79681000000000E+00,5.60952000000000E+00,5.12984000000000E+00,4.66595000000000E+00,4.40039000000000E+00,4.42757000000000E+00,,
MIC,,,,,,,,,,,,,,,,,,,,,,,,,,,,,,,,,,,,,,,,,,,4.01812710544121E+00,3.67612298613251E+00,,,3.58343665501097E+00,3.86957780821156E+00,,,,
MKD,,,,,,,,,,,,,,,,,,,,,,,,,,,,,,,,,,,,1.24110000000000E+00,1.15455000000000E+00,1.13010000000000E-01,,5.20500000000000E-02,6.11800000000000E-02,6.90900000000000E-02,1.28930000000000E-01,2.34480000000000E-01,1.98220000000000E-01,1.98410000000000E-01,1.30420000000000E-01,1.26360000000000E-01,3.20100000000000E-02,2.39050000000000E-01,,
MLI,,,,,,,,,,,,,,,,,,,,2.61415600000000E+01,,2.85602200000000E+01,,,2.75941100000000E+01,3.03184700000000E+01,,2.81089400000000E+01,2.92557200000000E+01,,,,,,,,,,,1.72079900000000E+01,1.73382200000000E+01,1.73660200000000E+01,1.89592500000000E+01,1.95935200000000E+01,1.86616100000000E+01,1.83571700000000E+01,1.66960700000000E+01,1.66917300000000E+01,1.40574500000000E+01,1.31698200000000E+01,1.28371000000000E+01,
MLT,,,,,,,,,,,,1.87886000000000E+00,1.05193000000000E+00,3.18150000000000E-01,7.27580000000000E-01,1.12085000000000E+00,9.17430000000000E-01,1.00499000000000E+00,4.22675000000000E+00,4.43421000000000E+00,3.29447000000000E+00,2.37748000000000E+00,2.09811000000000E+00,1.81346000000000E+00,1.41190000000000E+00,1.47678000000000E+00,3.44972000000000E+00,3.07861000000000E+00,2.98873000000000E+00,1.82286000000000E+00,1.24578000000000E+00,1.41212000000000E+00,1.59606000000000E+00,1.81462000000000E+00,2.00568000000000E+00,2.38395000000000E+00,1.87301000000000E+00,2.40443000000000E+00,2.23180000000000E+00,2.41400000000000E+00,2.31184000000000E+00,2.78484000000000E+00,2.58468000000000E+00,2.64373000000000E+00,2.41855000000000E+00,2.92189000000000E+00,,8.03180000000000E-01,1.93849000000000E+00,1.36540000000000E+00,,
MMR,,,,,,,,,,,,1.84968700000000E+01,2.31332300000000E+01,1.84831800000000E+01,2.00801800000000E+01,,,,,,,,,,,,,,,,,,,,,,,,,1.69935000000000E+00,5.18080000000000E-01,6.98820000000000E-01,6.91560000000000E-01,6.96630000000000E-01,5.50550000000000E-01,5.84870000000000E-01,6.13060000000000E-01,,4.47160000000000E-01,3.53880000000000E-01,2.54880000000000E-01,
MNA,,,,,,,,,,,,,,1.26160263924112E+01,1.22346961828674E+01,1.28641243221574E+01,,1.32813832904231E+01,1.30156598564049E+01,,1.34725230851844E+01,,,1.29219022311429E+01,,,,,,,,,,,,,,9.49185645450661E+00,,1.06728158617590E+01,1.00275962623134E+01,9.75993968007794E+00,8.47804005217363E+00,8.09048787519778E+00,7.70531892950346E+00,6.63357486458928E+00,,1.07470850510205E+01,,6.80327675491344E+00,,
MNG,,,,,,,,,,,,,,,,,,,,,,,,,,,,,,,,,,,,1.18972000000000E+00,8.25810000000000E-01,7.90820000000000E-01,8.22410000000000E-01,1.01036000000000E+00,8.50100000000000E-01,6.28310000000000E-01,6.66970000000000E-01,6.95030000000000E-01,6.55160000000000E-01,4.61140000000000E-01,3.46020000000000E-01,5.30550000000000E-01,2.04710000000000E-01,1.09790000000000E-01,6.00900000000000E-02,
MOZ,,,,,,,,,,,,,,2.84021900000000E+01,,,,,,,,,2.71171000000000E+01,2.72796000000000E+01,2.62659000000000E+01,2.28722500000000E+01,2.46527200000000E+01,2.37689100000000E+01,2.72562300000000E+01,2.66241900000000E+01,2.51109000000000E+01,2.37264400000000E+01,2.46743800000000E+01,2.52534600000000E+01,2.48778800000000E+01,2.49669900000000E+01,,,,2.31954900000000E+01,2.31273300000000E+01,2.22733300000000E+01,2.26310200000000E+01,,2.06316300000000E+01,1.05612800000000E+01,5.50504000000000E+00,6.14491000000000E+00,5.73523000000000E+00,7.27104000000000E+00,7.72764000000000E+00,
MRT,,,,,,,,,,,,,,,,,1.32420700000000E+01,1.23899700000000E+01,1.32160400000000E+01,1.23442600000000E+01,,1.25186000000000E+01,,,,1.68978200000000E+01,1.69899100000000E+01,1.84085600000000E+01,1.76716500000000E+01,1.84109200000000E+01,1.82065800000000E+01,1.72080200000000E+01,1.67394800000000E+01,1.54802800000000E+01,1.59216000000000E+01,1.55053400000000E+01,1.49018800000000E+01,1.49677700000000E+01,1.50073600000000E+01,,1.49808600000000E+01,1.49829600000000E+01,1.38184200000000E+01,,,9.94194000000000E+00,1.00887100000000E+01,3.43623000000000E+00,2.06184000000000E+00,,3.36125000000000E+00,
MUS,,,,,,,,,,,,,,,,,,,,,,,,4.75018000000000E+00,6.58466000000000E+00,6.23578000000000E+00,7.06732000000000E+00,9.69144000000000E+00,8.49244000000000E+00,8.24540000000000E+00,4.63231000000000E+00,7.55039000000000E+00,8.22268000000000E+00,7.67984000000000E+00,6.85822000000000E+00,5.94543000000000E+00,4.83468000000000E+00,4.24782000000000E+00,3.94797000000000E+00,4.07940000000000E+00,4.63827000000000E+00,4.93722000000000E+00,5.28428000000000E+00,5.02560000000000E+00,5.60146000000000E+00,5.43289000000000E+00,5.21342000000000E+00,4.38812000000000E+00,4.63315000000000E+00,4.27871000000000E+00,4.10578000000000E+00,
MWI,,,,,,,,,,,,,,,1.59512800000000E+01,1.53822800000000E+01,1.46309300000000E+01,1.57979900000000E+01,1.38759300000000E+01,1.39493400000000E+01,1.49579500000000E+01,1.45858200000000E+01,1.20249900000000E+01,1.09953100000000E+01,1.28728300000000E+01,1.28230300000000E+01,1.50608000000000E+01,1.74012000000000E+01,1.81088700000000E+01,1.80183500000000E+01,1.78872700000000E+01,1.69428800000000E+01,1.40031800000000E+01,1.75775500000000E+01,1.66159700000000E+01,1.74254100000000E+01,1.49166400000000E+01,,1.46173100000000E+01,1.44099200000000E+01,1.55344400000000E+01,1.73604500000000E+01,1.56727000000000E+01,1.83882900000000E+01,1.83994300000000E+01,2.05739300000000E+01,2.11428000000000E+01,2.10979900000000E+01,2.05150500000000E+01,1.90443600000000E+01,1.92127600000000E+01,
MYS,,,,,,,,,,,,,,,0.00000000000000E+00,,,,,,0.00000000000000E+00,0.00000000000000E+00,0.00000000000000E+00,0.00000000000000E+00,0.00000000000000E+00,0.00000000000000E+00,,0.00000000000000E+00,0.00000000000000E+00,0.00000000000000E+00,,0.00000000000000E+00,0.00000000000000E+00,,,,,,,,,,,,,,,,,,,
NAC,,,,,,,,,,,,,,,,,,,,,,,,,,,,,,,,,,,,,,,,0.00000000000000E+00,0.00000000000000E+00,0.00000000000000E+00,0.00000000000000E+00,0.00000000000000E+00,0.00000000000000E+00,0.00000000000000E+00,0.00000000000000E+00,0.00000000000000E+00,0.00000000000000E+00,0.00000000000000E+00,,
NAM,,,,,,,,,,,,,,,,,,,,,,,,,,,,,,,,,2.60619500000000E+01,,2.42874900000000E+01,,1.41577900000000E+01,,1.35658900000000E+01,1.39415600000000E+01,1.49502100000000E+01,1.47842100000000E+01,1.46122300000000E+01,1.45526700000000E+01,1.75259700000000E+01,1.73621500000000E+01,1.86443400000000E+01,2.02182200000000E+01,2.17863400000000E+01,1.80830100000000E+01,,
NCL,,,,,,,,,,,9.87383000000000E+00,9.96837000000000E+00,,,,,,,,,,,1.70587400000000E+01,1.79765400000000E+01,1.78426900000000E+01,1.89742300000000E+01,1.84252100000000E+01,1.81826200000000E+01,1.82199400000000E+01,1.83177900000000E+01,1.48650900000000E+01,,,,,,,,,,,,,,,,,,,,,
NER,,,,,,,,,,,,1.89243700000000E+01,1.82336100000000E+01,1.82506300000000E+01,1.78495200000000E+01,1.59286800000000E+01,1.29588800000000E+01,1.24797700000000E+01,1.19531200000000E+01,1.42741100000000E+01,1.35533500000000E+01,1.45308700000000E+01,1.50000000000000E+01,1.47014900000000E+01,1.42552800000000E+01,1.49984500000000E+01,1.49999200000000E+01,1.49611900000000E+01,,1.25797300000000E+01,1.31997000000000E+01,1.36100700000000E+01,1.51981700000000E+01,1.83282100000000E+01,,1.75340400000000E+01,1.90392100000000E+01,1.31159600000000E+01,,1.24007400000000E+01,1.20761700000000E+01,1.00614100000000E+01,8.51204000000000E+00,7.22005000000000E+00,5.11935000000000E+00,5.21259000000000E+00,4.74281000000000E+00,4.77629000000000E+00,6.51498000000000E+00,4.97856000000000E+00,4.46749000000000E+00,
NGA,,,,,,,,,,,,,,,,,,,,,,,,,,,,,,,,,,,,,,,,3.04703000000000E+00,,,,3.04623000000000E+00,,,,,,,,
NIC,,,,,,,,,,,1.31981600000000E+01,1.15755000000000E+01,1.36601200000000E+01,1.16155300000000E+01,,,,1.43087200000000E+01,1.51462600000000E+01,1.24791400000000E+01,1.78622600000000E+01,,1.63023200000000E+01,1.87517000000000E+01,9.14824000000000E+00,1.62683200000000E+01,1.44433300000000E+01,1.49814300000000E+01,1.57798800000000E+01,,,,,1.83317600000000E+01,1.64312500000000E+01,1.61335200000000E+01,,,,5.31833000000000E+00,5.84274000000000E+00,7.73653000000000E+00,1.01270800000000E+01,1.17993200000000E+01,1.17921000000000E+01,1.10715500000000E+01,1.07542200000000E+01,1.02392200000000E+01,1.25837400000000E+01,,9.21171000000000E+00,
NLD,,,,,,,,,,,,3.59749000000000E+00,3.12434000000000E+00,3.28765000000000E+00,3.19149000000000E+00,3.03575000000000E+00,2.85726000000000E+00,3.31748000000000E+00,3.34903000000000E+00,3.45172000000000E+00,3.04551000000000E+00,3.10151000000000E+00,2.91821000000000E+00,2.80245000000000E+00,2.59227000000000E+00,2.57673000000000E+00,,,,,,,,,,,,,,,,,,,,,,,,,,
NOR,,,,,,,,,,,,0.00000000000000E+00,,0.00000000000000E+00,0.00000000000000E+00,0.00000000000000E+00,0.00000000000000E+00,0.00000000000000E+00,0.00000000000000E+00,0.00000000000000E+00,0.00000000000000E+00,0.00000000000000E+00,0.00000000000000E+00,,0.00000000000000E+00,0.00000000000000E+00,0.00000000000000E+00,0.00000000000000E+00,0.00000000000000E+00,0.00000000000000E+00,0.00000000000000E+00,0.00000000000000E+00,0.00000000000000E+00,0.00000000000000E+00,,,,,,,,,,,,,,,,,,
NPL,,,,,,,,,,,,,,,,,,,,,,,,,,,,,,,,,2.81317700000000E+01,,,,,,,2.22260500000000E+01,2.50018300000000E+01,2.43012900000000E+01,2.17801800000000E+01,2.15838900000000E+01,2.15838600000000E+01,2.28986800000000E+01,2.07511600000000E+01,2.07579700000000E+01,1.67723900000000E+01,,1.41441400000000E+01,
NZL,,,,,,,,,,,0.00000000000000E+00,0.00000000000000E+00,0.00000000000000E+00,0.00000000000000E+00,0.00000000000000E+00,0.00000000000000E+00,0.00000000000000E+00,0.00000000000000E+00,0.00000000000000E+00,0.00000000000000E+00,3.83958000000000E+00,3.84795000000000E+00,3.58600000000000E+00,3.68093000000000E+00,3.48038000000000E+00,3.39600000000000E+00,3.64888000000000E+00,3.53842000000000E+00,3.56262000000000E+00,3.35751000000000E+00,3.25206000000000E+00,3.55874000000000E+00,4.03653000000000E+00,,,,,,,,,,,,,,,,,,,
OEC,,,,,,,,,,,,,,,,,,,,,,,,,,,,,,,,,,,,,,,,6.11485625539862E-01,5.83897593196707E-01,,,,6.36763265543648E-01,3.17960680892609E-01,4.50661849910766E-01,4.57450054262841E-01,4.21771603716027E-01,3.90282948232883E-01,,
OED,,,,,,,,,,,,,,,,,,,,,,,,,,,,,,,,,,,,,,,,2.19170982508033E+00,2.07062334004023E+00,,,,1.83111995188865E+00,1.66766209602609E+00,1.57952050391261E+00,1.50588972472606E+00,1.32707995454175E+00,1.26948129083519E+00,,
OMN,,,,,,,,,,,,,,,1.04628700000000E+01,8.15216000000000E+00,9.43087000000000E+00,,1.55441100000000E+01,1.27040600000000E+01,,,,1.42821800000000E+01,1.19938000000000E+01,1.29181800000000E+01,1.34844400000000E+01,1.33124900000000E+01,1.45732900000000E+01,1.29457200000000E+01,1.29605800000000E+01,,9.89174000000000E+00,,9.70764000000000E+00,8.78753000000000E+00,9.57679000000000E+00,1.08304800000000E+01,1.04486000000000E+01,9.45115000000000E+00,8.69219000000000E+00,7.04236000000000E+00,5.16613000000000E+00,6.64360000000000E-01,,,,,,1.28082000000000E+00,1.16852000000000E+00,
PAK,,,,,,,,,,,,,,,,,,,,,,,,,,,,,,,,,,,,,,,,,,,,,,3.34600000000000E+00,2.38913000000000E+00,5.53807000000000E+00,4.79829000000000E+00,3.29641000000000E+00,4.51783000000000E+00,
PAN,,,,,,,,,,,1.69378500000000E+01,1.61270000000000E+01,1.51596700000000E+01,1.45216900000000E+01,1.53583400000000E+01,1.43053300000000E+01,1.26099000000000E+01,1.29042500000000E+01,1.32239800000000E+01,1.45195700000000E+01,1.46978500000000E+01,1.42205100000000E+01,1.41608800000000E+01,1.33551800000000E+01,1.41710600000000E+01,1.53108500000000E+01,1.33062800000000E+01,1.31404600000000E+01,1.28804100000000E+01,1.15215900000000E+01,,,,,,,,,,7.43302000000000E+00,7.04235000000000E+00,6.55417000000000E+00,6.36956000000000E+00,6.36918000000000E+00,6.41234000000000E+00,6.61443000000000E+00,6.60433000000000E+00,6.51921000000000E+00,6.21128000000000E+00,6.01194000000000E+00,6.51117000000000E+00,
PER,,,,,,,,,,,1.75570400000000E+01,,,,,,,9.47101000000000E+00,1.54269900000000E+01,1.60322400000000E+01,1.93171500000000E+01,1.84331100000000E+01,,,,,,,,,,,,,,1.55834300000000E+01,,,9.96667000000000E+00,1.04814100000000E+01,1.09003800000000E+01,1.08990600000000E+01,1.01537500000000E+01,7.82394000000000E+00,7.82639000000000E+00,9.17958000000000E+00,8.96174000000000E+00,8.10521000000000E+00,7.42799000000000E+00,7.00533000000000E+00,,
PHL,,,,,,,,,,,,,,,,,,,,,,2.75212000000000E+00,,2.61138000000000E+00,2.58723000000000E+00,1.39949000000000E+00,1.82055000000000E+00,1.79653000000000E+00,1.77353000000000E+00,1.62289000000000E+00,,,,,,,,,2.39499000000000E+00,2.39871000000000E+00,,2.45667000000000E+00,2.91386000000000E+00,2.66146000000000E+00,2.77057000000000E+00,2.86836000000000E+00,3.49244000000000E+00,2.96243000000000E+00,2.86046000000000E+00,3.22282000000000E+00,,
PLW,,,,,,,,,,,,,,,,,,,,,,,,,,,,,,,,,,,,,,,,0.00000000000000E+00,0.00000000000000E+00,,,,,,,,,,,
PNG,,,,,,,,,,,,,,,,,,,,,,,,,,,,0.00000000000000E+00,0.00000000000000E+00,0.00000000000000E+00,0.00000000000000E+00,0.00000000000000E+00,0.00000000000000E+00,0.00000000000000E+00,,,,,0.00000000000000E+00,,0.00000000000000E+00,,,,,,,,,,,
POL,,,,,,,,,,,,,,,,,,,,,,,,,,,,,,,,,,,,,,,,,,,,,9.36860000000000E-01,1.07466000000000E+00,1.01302000000000E+00,1.07325000000000E+00,1.52305000000000E+00,1.31823000000000E+00,,
PRT,,,,,,,,,,,,,2.45235500000000E+01,2.39879700000000E+01,2.37207100000000E+01,2.22046400000000E+01,1.28080600000000E+01,1.46100600000000E+01,1.83741000000000E+01,,,,,,,1.94331700000000E+01,,,,,1.61883900000000E+01,1.63395500000000E+01,,,,,,,,,,,,,1.30833600000000E+01,,,,,,,
PRY,,,,,,,,,,,1.97357400000000E+01,,1.91706800000000E+01,1.87766700000000E+01,1.83375300000000E+01,1.67357800000000E+01,1.61148600000000E+01,1.54516200000000E+01,1.53973300000000E+01,,1.49769200000000E+01,1.44882700000000E+01,1.41497900000000E+01,1.12513000000000E+01,1.24552400000000E+01,1.17791900000000E+01,1.07276000000000E+01,1.04945600000000E+01,1.00826600000000E+01,1.02187500000000E+01,9.72829000000000E+00,1.00157700000000E+01,1.01405000000000E+01,9.42359000000000E+00,9.22612000000000E+00,9.03552000000000E+00,1.03624600000000E+01,,9.76525000000000E+00,8.80803000000000E+00,8.71119000000000E+00,9.22314000000000E+00,8.78837000000000E+00,8.53118000000000E+00,7.94070000000000E+00,6.09911000000000E+00,3.26036000000000E+00,4.82976000000000E+00,5.36102000000000E+00,6.00132000000000E+00,,
PYF,,,,,,,,,,,,,,,,2.03233300000000E+01,,,,,,,,1.00071300000000E+01,,,,,,,,,,,,,,,,,,,,,,,,,,,,
QAT,,,,,,,,,,,,2.28006700000000E+01,2.04528500000000E+01,2.13685200000000E+01,2.16382300000000E+01,2.02357400000000E+01,2.04301100000000E+01,2.02874600000000E+01,1.45742700000000E+01,1.41851100000000E+01,1.36144800000000E+01,1.03421800000000E+01,8.30327000000000E+00,,9.67452000000000E+00,1.06199600000000E+01,1.02317100000000E+01,1.15069600000000E+01,9.35641000000000E+00,8.43635000000000E+00,7.91191000000000E+00,7.10029000000000E+00,6.36630000000000E+00,5.04096000000000E+00,4.20704000000000E+00,4.24155000000000E+00,3.93755000000000E+00,,3.34360000000000E+00,3.45900000000000E+00,,,,,,3.67225000000000E+00,2.02632000000000E+00,9.46370000000000E-01,6.80490000000000E-01,4.62310000000000E-01,,
ROM,,,,,,,,,,,,,,,,,,,,,,,,,,,,,,,2.09736000000000E+00,,,5.07308000000000E+00,,,3.26162000000000E+00,,,4.05401000000000E+00,4.07176000000000E+00,3.76336000000000E+00,3.72461000000000E+00,3.26467000000000E+00,2.89449000000000E+00,2.66036000000000E+00,2.56901000000000E+00,1.53166000000000E+00,2.01940000000000E+00,1.95265000000000E+00,,
RUS,,,,,,,,,,,,,,,,,,,,,,,,,,,,,,,,,,,1.98020000000000E+00,1.84217000000000E+00,,,,,,,,,,,,,,,,
RWA,,,,,,,,,,,,3.01154700000000E+01,2.82080300000000E+01,2.46339000000000E+01,2.40090600000000E+01,2.14989400000000E+01,,1.73211300000000E+01,,,7.28934000000000E+00,6.69596000000000E+00,1.43642600000000E+01,1.48210500000000E+01,1.32346600000000E+01,1.28661300000000E+01,1.33720200000000E+01,1.41236800000000E+01,1.09204600000000E+01,1.10453500000000E+01,1.14494600000000E+01,1.32784100000000E+01,1.49384900000000E+01,,,,,,,2.92338400000000E+01,3.10106900000000E+01,3.59585200000000E+01,3.59572000000000E+01,1.66715400000000E+01,1.87493900000000E+01,1.44128500000000E+01,1.45702600000000E+01,1.45709400000000E+01,1.75965200000000E+01,1.51114700000000E+01,1.40785100000000E+01,
SAS,,,,,,,,,,,,2.05137900000000E+01,,,1.75470823206933E+01,,,,,,,,,,,,,4.05485909542863E+00,4.15211000000000E+00,,,,,,,3.49888000000000E+00,,,,4.55671813501011E+00,4.92404660615625E+00,4.27153082627515E+00,4.22518397100110E+00,4.13877874816419E+00,3.81720378243186E+00,4.82359935612380E+00,4.40774772559745E+00,4.15156214608607E+00,,,,
SAU,,,,,,,,,,,,,,,,,,,,1.61516400000000E+01,,,,,,,,,,,,,,,,,,,,,,,,,,4.91054000000000E+00,,3.44947000000000E+00,3.46702000000000E+00,,,
SDN,,,,,,,,,,,,2.49029000000000E+00,2.65733000000000E+00,,,,,,,,0.00000000000000E+00,0.00000000000000E+00,0.00000000000000E+00,0.00000000000000E+00,0.00000000000000E+00,0.00000000000000E+00,0.00000000000000E+00,,,,,,0.00000000000000E+00,,,,,,,1.09003500000000E+01,1.09005400000000E+01,1.08743600000000E+01,5.38848000000000E+00,4.72222000000000E+00,,,,2.92324000000000E+00,4.98304000000000E+00,3.80291000000000E+00,,
SEN,,,,,,,,,,,,1.96161100000000E+01,1.90387100000000E+01,,,,,,1.47294200000000E+01,1.51617200000000E+01,1.59144100000000E+01,1.53447900000000E+01,1.54823600000000E+01,1.56178600000000E+01,1.51582300000000E+01,1.58087600000000E+01,1.61493600000000E+01,,1.47534800000000E+01,1.58444500000000E+01,1.62211600000000E+01,,1.61294100000000E+01,,1.48724400000000E+01,,1.39408200000000E+01,1.34563200000000E+01,1.34054400000000E+01,1.42380800000000E+01,1.37200300000000E+01,1.41149400000000E+01,1.37044100000000E+01,1.38909000000000E+01,1.30738200000000E+01,1.19022000000000E+01,1.07862600000000E+01,1.07887800000000E+01,7.77892000000000E+00,7.61615000000000E+00,6.31353000000000E+00,
SGP,,,,,,,,,,,,,1.02086800000000E+01,9.18732000000000E+00,9.40424000000000E+00,9.87567000000000E+00,1.20189800000000E+01,2.49018000000000E+01,1.52524000000000E+01,1.00865900000000E+01,7.56793000000000E+00,,1.92014000000000E+00,1.22098000000000E+00,1.00675000000000E+00,,,,,,,,,,,,,,,,,,,,,,,3.96890000000000E-01,3.36140000000000E-01,4.23170000000000E-01,,
SLB,,,,,,,,,,,,,,,,5.36736000000000E+00,,,,,5.05033000000000E+00,4.25395000000000E+00,4.34488000000000E+00,4.23970000000000E+00,,,7.63516000000000E+00,,,,,,,,,,,,,,,,,,,,,,,,,
SLE,,,,,,,,,,,,,,,,,,,1.43185700000000E+01,,,,,,,,,,,,,,,,,,,,,,,,,,,,,9.72597000000000E+00,,,,
SLV,,,,,,,,,,,,1.77706400000000E+01,9.68012000000000E+00,7.88535000000000E+00,8.64592000000000E+00,,9.13855000000000E+00,9.06522000000000E+00,,,,1.08790000000000E+01,9.81888000000000E+00,9.48637000000000E+00,1.01327700000000E+01,,,9.28629000000000E+00,8.65013000000000E+00,9.89403000000000E+00,,1.01703100000000E+01,8.66009000000000E+00,9.93480000000000E+00,,8.04152000000000E+00,5.51564000000000E+00,,8.25608000000000E+00,7.71814000000000E+00,7.34279000000000E+00,7.23539000000000E+00,7.78320000000000E+00,7.62805000000000E+00,7.62950000000000E+00,7.42611000000000E+00,8.69186000000000E+00,7.85012000000000E+00,7.11722000000000E+00,6.08148000000000E+00,,
SMR,,,,,,,,,,,,,,,,,,,,,,,,,,,,,,,,,3.22060000000000E-01,6.49350000000000E-01,,,,,,,0.00000000000000E+00,,,,,,,,0.00000000000000E+00,0.00000000000000E+00,0.00000000000000E+00,
SOM,,,,,,,,,,,,,,,,0.00000000000000E+00,,,,,,,,,,,,,,,,,,,,,,,,,,,,,,,,,,,,
SRB,,,,,,,,,,,,,,,,,,,,,,,,,,,,,,,,,,,,,,,,,,,,,,,0.00000000000000E+00,7.14490000000000E-01,7.33620000000000E-01,7.56200000000000E-01,6.39450000000000E-01,
SSA,,,,,,,,,,,,,,,,,,,,,,,,,,,,,,,,,,,,,,,,1.19483942973489E+01,,,1.47519327405395E+01,1.18548766580461E+01,,,,,,,,
SSF,,,,,,,,,,,,,,,,,,,,,,,,,,,,,,,,,,,,,,,,1.19454115548266E+01,,,1.47774695142585E+01,1.18548766580461E+01,,,,,,,,
STP,,,,,,,,,,,,,,,,,,5.25627500000000E+01,,,,,,,1.99556500000000E+01,,,,3.49935700000000E+01,,,,,,,,,,,3.25522300000000E+01,,,2.70075900000000E+01,2.93394200000000E+01,2.53926700000000E+01,2.44538100000000E+01,2.44501500000000E+01,2.73972600000000E+01,2.56209800000000E+01,1.56016700000000E+01,1.38289800000000E+01,
SUR,,,,,,,,,,,,,,,,,2.61884900000000E+01,2.48433200000000E+01,2.79924600000000E+01,2.79626900000000E+01,,,,,,2.37353200000000E+01,,2.55431900000000E+01,2.57478900000000E+01,2.55060100000000E+01,,,,,,,,,,,,9.12111000000000E+00,,,,2.22950600000000E+01,1.57870100000000E+01,1.78055100000000E+01,1.98628400000000E+01,1.95192200000000E+01,,
SVK,,,,,,,,,,,,,,,,,,,,,,,,,,,,,,,,,,2.41862000000000E+00,2.30422000000000E+00,2.41917000000000E+00,2.32355000000000E+00,,2.55802000000000E+00,2.58854000000000E+00,2.71709000000000E+00,2.64466000000000E+00,2.71892000000000E+00,2.68217000000000E+00,2.80940000000000E+00,2.85236000000000E+00,3.02276000000000E+00,2.94264000000000E+00,3.22374000000000E+00,3.48708000000000E+00,,
SVN,,,,,,,,,,,,,,,,,,,,,,,,,,,,,,,,,,,,,,1.39157000000000E+00,1.09263000000000E+00,1.31244000000000E+00,1.21971000000000E+00,9.44950000000000E-01,9.18220000000000E-01,7.06990000000000E-01,6.16490000000000E-01,5.59180000000000E-01,6.00130000000000E-01,5.29560000000000E-01,6.95210000000000E-01,8.04850000000000E-01,,
SWE,,,,,,,,,,,,0.00000000000000E+00,0.00000000000000E+00,0.00000000000000E+00,0.00000000000000E+00,0.00000000000000E+00,0.00000000000000E+00,0.00000000000000E+00,0.00000000000000E+00,0.00000000000000E+00,0.00000000000000E+00,0.00000000000000E+00,0.00000000000000E+00,0.00000000000000E+00,0.00000000000000E+00,,,0.00000000000000E+00,0.00000000000000E+00,0.00000000000000E+00,0.00000000000000E+00,0.00000000000000E+00,0.00000000000000E+00,,,,,,,0.00000000000000E+00,0.00000000000000E+00,0.00000000000000E+00,0.00000000000000E+00,0.00000000000000E+00,0.00000000000000E+00,0.00000000000000E+00,0.00000000000000E+00,0.00000000000000E+00,0.00000000000000E+00,0.00000000000000E+00,,
SWZ,,,,,,,,,,,1.12535500000000E+01,1.63203700000000E+01,1.66306800000000E+01,1.43565300000000E+01,1.09538500000000E+01,1.11606400000000E+01,9.18897000000000E+00,1.17469000000000E+01,1.20739100000000E+01,1.22284400000000E+01,1.23747400000000E+01,1.33645400000000E+01,1.45415900000000E+01,1.45483400000000E+01,1.43622000000000E+01,1.57987600000000E+01,1.66337900000000E+01,1.72471900000000E+01,1.71255600000000E+01,1.70317800000000E+01,1.69735900000000E+01,1.76204900000000E+01,1.74194400000000E+01,1.79869200000000E+01,1.68239500000000E+01,1.79153700000000E+01,1.75957000000000E+01,1.80685400000000E+01,1.72335000000000E+01,1.94999500000000E+01,1.88113400000000E+01,1.89299400000000E+01,1.75463500000000E+01,1.88645300000000E+01,1.84860100000000E+01,1.94720700000000E+01,1.88856700000000E+01,2.05462600000000E+01,,1.91156000000000E+01,1.70924600000000E+01,
SYC,,,,,,,,,,,4.35260000000000E-01,2.68100000000000E-01,4.18990000000000E-01,,1.78923000000000E+00,9.46820000000000E-01,4.23900000000000E-01,8.08570000000000E-01,7.74270000000000E-01,,0.00000000000000E+00,0.00000000000000E+00,0.00000000000000E+00,0.00000000000000E+00,0.00000000000000E+00,0.00000000000000E+00,0.00000000000000E+00,0.00000000000000E+00,0.00000000000000E+00,0.00000000000000E+00,,0.00000000000000E+00,0.00000000000000E+00,0.00000000000000E+00,0.00000000000000E+00,,,,,,,,,,,,,,,,,
SYR,,,,,,,,,,,,1.15291400000000E+01,9.50390000000000E+00,9.19622000000000E+00,9.31751000000000E+00,9.96405000000000E+00,1.02952500000000E+01,1.02396700000000E+01,9.23233000000000E+00,9.40629000000000E+00,9.42517000000000E+00,8.86762000000000E+00,8.81791000000000E+00,8.76149000000000E+00,8.27874000000000E+00,8.40462000000000E+00,8.17349000000000E+00,7.84397000000000E+00,7.72032000000000E+00,7.66294000000000E+00,8.03880000000000E+00,7.70857000000000E+00,7.60036000000000E+00,7.98436000000000E+00,7.93056000000000E+00,8.61249000000000E+00,8.19448000000000E+00,8.24105000000000E+00,7.74227000000000E+00,7.24978000000000E+00,8.02462000000000E+00,8.21665000000000E+00,7.70175000000000E+00,9.03809000000000E+00,8.30819000000000E+00,8.11013000000000E+00,7.34484000000000E+00,7.95672000000000E+00,8.48352000000000E+00,8.75942000000000E+00,8.62107000000000E+00,
TCA,,,,,,,,,,,,,,,,,,,,,,,,,,,,,,,,,,,0.00000000000000E+00,,,1.22500000000000E+01,,,8.72038000000000E+00,9.50226000000000E+00,8.79927000000000E+00,1.09071300000000E+01,6.73077000000000E+00,3.22284000000000E+00,,,,2.62450000000000E+00,,
TCD,,,,,,,,,,,,,,,,,3.53553700000000E+01,3.65179200000000E+01,,,,,,,,,,,3.14161600000000E+01,3.25323100000000E+01,3.27768700000000E+01,3.16857500000000E+01,,,2.86853000000000E+01,3.44660200000000E+01,3.29601900000000E+01,3.19532700000000E+01,3.07278900000000E+01,2.57116700000000E+01,2.43265900000000E+01,2.52545100000000E+01,2.48408300000000E+01,2.34354800000000E+01,1.96206200000000E+01,2.17532800000000E+01,2.11645700000000E+01,2.11472500000000E+01,2.22945000000000E+01,2.22924300000000E+01,2.28229000000000E+01,
TGO,,,,,,,,,,,,3.35492100000000E+01,3.15556200000000E+01,,,,2.82004900000000E+01,,2.72488200000000E+01,2.90550900000000E+01,3.01514800000000E+01,3.47267900000000E+01,3.59607000000000E+01,3.39824900000000E+01,3.50051500000000E+01,3.55676800000000E+01,3.41338400000000E+01,3.39942200000000E+01,3.01692600000000E+01,3.64335800000000E+01,3.29259100000000E+01,3.51962600000000E+01,3.65792300000000E+01,,4.57712700000000E+01,3.26784200000000E+01,2.35987700000000E+01,,,3.08612300000000E+01,2.68308800000000E+01,2.37941100000000E+01,2.19211000000000E+01,2.31939200000000E+01,2.36170500000000E+01,2.26399100000000E+01,2.37202400000000E+01,2.34871900000000E+01,2.26766400000000E+01,2.20763700000000E+01,2.20171300000000E+01,
THA,,,,,,,,,,,,,,,,1.10380700000000E+01,1.11252700000000E+01,1.09484800000000E+01,1.09626700000000E+01,,,9.12150000000000E+00,,,,,,,,,,,,,,,,,,3.43693000000000E+00,,,,,,,,1.17658200000000E+01,,,,
TJK,,,,,,,,,,,,,,,,,,,,,,,,,,,,,,,,,,,,,,,,5.24890000000000E-01,3.44020000000000E-01,4.53940000000000E-01,3.76150000000000E-01,2.99580000000000E-01,2.33670000000000E-01,,1.93830000000000E-01,1.84280000000000E-01,,2.83370000000000E-01,3.04730000000000E-01,
TKM,,,,,,,,,,,,,,,,,,,,,,,,,,,,,,,,,,,,,,,,,,,,,0.00000000000000E+00,0.00000000000000E+00,0.00000000000000E+00,,,,,
TMP,,,,,,,,,,,,,,,,,,,,,,,,,,,,,,,,,,,,,,,,,,,,,,,,,1.36768700000000E+01,1.98612700000000E+01,1.85766600000000E+01,
TON,,,,,,,,,,,,,,,,,,5.73980000000000E+00,6.31120000000000E+00,5.12622000000000E+00,,9.62825000000000E+00,8.05719000000000E+00,8.57342000000000E+00,6.75386000000000E+00,8.03884000000000E+00,6.29521000000000E+00,,,,4.07808000000000E+00,7.99497000000000E+00,,8.30871000000000E+00,,,,,7.91464000000000E+00,8.46496000000000E+00,,6.93950000000000E+00,6.87901000000000E+00,,,5.15820000000000E+00,5.88301000000000E+00,,,,,
TTO,,,,,,,,,,,,,,,,,,,,,,,3.88472000000000E+00,,,4.18183000000000E+00,,,3.64899000000000E+00,,,3.46717000000000E+00,3.22882000000000E+00,3.50225000000000E+00,,,6.42428000000000E+00,5.96207000000000E+00,,4.91388000000000E+00,8.38828000000000E+00,7.37707000000000E+00,,5.87042000000000E+00,6.10882000000000E+00,5.99214000000000E+00,,4.41584000000000E+00,7.65491000000000E+00,6.79619000000000E+00,,
TUN,,,,,,,,,,,,,,1.73274500000000E+01,,,2.01183300000000E+01,2.54298400000000E+01,2.26290300000000E+01,2.31513300000000E+01,2.32934700000000E+01,2.17124800000000E+01,2.06062600000000E+01,2.13156200000000E+01,2.09457200000000E+01,2.21726300000000E+01,2.14802300000000E+01,2.35374000000000E+01,2.43065200000000E+01,2.24680000000000E+01,2.18852000000000E+01,2.10488900000000E+01,,1.99067000000000E+01,1.92937600000000E+01,1.77754900000000E+01,1.88604600000000E+01,1.74107500000000E+01,,1.99763700000000E+01,1.77870100000000E+01,1.57713000000000E+01,1.15024300000000E+01,1.08398100000000E+01,8.68612000000000E+00,1.02299800000000E+01,7.25832000000000E+00,8.96574000000000E+00,1.02790400000000E+01,8.36005000000000E+00,,
TUR,,,,,,,,,,,,,,,,,,,,,,,,,9.00859000000000E+00,9.35174000000000E+00,8.48755000000000E+00,8.08291000000000E+00,7.51760000000000E+00,7.53792000000000E+00,6.86934000000000E+00,6.60754000000000E+00,6.53098000000000E+00,5.52135000000000E+00,4.93093000000000E+00,4.39394000000000E+00,,,,,,,,,2.53831000000000E+00,2.37577000000000E+00,2.37593000000000E+00,2.10462000000000E+00,2.07247000000000E+00,1.65279000000000E+00,,
TUV,,,,,,,,,,,,,,,,,,,,,,,,,,,,,,,0.00000000000000E+00,0.00000000000000E+00,,0.00000000000000E+00,0.00000000000000E+00,,,,,,,,,,,,,,,,,
TZA,,,,,,,,,,,,,,,,5.30250000000000E-01,4.63130000000000E-01,,,,,1.20927000000000E+00,1.25234000000000E+00,1.15697000000000E+00,1.04440000000000E+00,,1.23477000000000E+00,4.49957000000000E+00,5.12480000000000E+00,4.22900000000000E+00,4.11855000000000E+00,,3.32847000000000E+00,2.97461000000000E+00,,,,2.10318000000000E+00,2.89458000000000E+00,3.14961000000000E+00,,2.50127000000000E+00,2.36801000000000E+00,,5.18937000000000E+00,5.72504000000000E+00,4.79456000000000E+00,4.25871000000000E+00,,2.43899000000000E+00,2.51359000000000E+00,
UGA,,,,,,,,,,,,,,,,,,,,,,,9.92895000000000E+00,,,,1.42137600000000E+01,,,,,,,,,,,,,,,1.07796500000000E+01,1.07959300000000E+01,1.37899700000000E+01,1.37901900000000E+01,1.29514900000000E+01,,1.50147700000000E+01,1.11204000000000E+01,1.18818600000000E+01,1.09861200000000E+01,
UKR,,,,,,,,,,,,,,,,,,,,,,,,,,,,,,,,,,1.03796000000000E+00,9.27290000000000E-01,,,,,7.98920000000000E-01,7.02700000000000E-01,4.75400000000000E-01,1.97550000000000E-01,1.56780000000000E-01,1.23620000000000E-01,1.07090000000000E-01,1.18930000000000E-01,1.19200000000000E-01,1.16650000000000E-01,9.27200000000000E-02,7.11300000000000E-02,
UMC,,,,,,,,,,,,,,,,,,,,,,,,,,,,,,,,,,,,,3.77914033400607E+00,3.36391339641441E+00,,,,,2.72839697753230E+00,2.36692326453036E+00,,,2.19676496019187E+00,2.34730122935404E+00,1.79811570571344E+00,1.67017587082021E+00,,
URY,,,,,,,,,,,,,,,1.61372100000000E+01,,1.50310500000000E+01,1.47795700000000E+01,1.52938000000000E+01,1.45202400000000E+01,1.41308800000000E+01,,,,,1.33074100000000E+01,1.20019800000000E+01,1.14526000000000E+01,1.06223600000000E+01,1.00524900000000E+01,1.07277400000000E+01,1.21441200000000E+01,1.20467700000000E+01,1.14743000000000E+01,1.15316400000000E+01,1.12141400000000E+01,1.10795600000000E+01,,9.86006000000000E+00,9.29371000000000E+00,1.03940400000000E+01,1.04901400000000E+01,9.72879000000000E+00,9.72435000000000E+00,8.78417000000000E+00,8.80762000000000E+00,8.22873000000000E+00,8.23317000000000E+00,7.99862000000000E+00,6.51979000000000E+00,,
USA,,,,,,,,,,,,,,,,,,,,,,,,,,,,,,,,,,,,,,,0.00000000000000E+00,0.00000000000000E+00,0.00000000000000E+00,0.00000000000000E+00,0.00000000000000E+00,0.00000000000000E+00,0.00000000000000E+00,0.00000000000000E+00,0.00000000000000E+00,0.00000000000000E+00,0.00000000000000E+00,0.00000000000000E+00,,
UZB,,,,,,,,,,,,,,,,,,,,,,,,,,,,,,,,,,,,,,,,,,6.69800000000000E-02,4.44700000000000E-02,3.34400000000000E-02,2.85500000000000E-02,1.92800000000000E-02,1.67600000000000E-02,1.11300000000000E-02,7.23000000000000E-03,5.07000000000000E-03,,
VCT,,,,,,,,,,,,,,,,,,,,,,,,,,,,,,,,,,,,,,,,,,1.19780600000000E+01,1.26108800000000E+01,1.20347100000000E+01,7.38900000000000E+00,4.98943000000000E+00,,,5.16397000000000E+00,,,
VEN,,,,,,,,,,,,,,,,,,,,,,,,,,,,,1.11550400000000E+01,1.18268500000000E+01,,1.25238400000000E+01,1.27358900000000E+01,1.31545700000000E+01,,,1.21519100000000E+01,1.17528800000000E+01,,8.48411000000000E+00,8.09335000000000E+00,8.09219000000000E+00,9.27965000000000E+00,9.12711000000000E+00,8.91011000000000E+00,8.33241000000000E+00,7.54708000000000E+00,6.07450000000000E+00,4.13969000000000E+00,4.36728000000000E+00,4.66459000000000E+00,
VNM,,,,,,,,,,,,,,,,,,,,,,,,,,,,,,,,,,,,,,,,4.22806000000000E+00,3.79703000000000E+00,3.30427000000000E+00,2.82713000000000E+00,2.82671000000000E+00,,,,,,,,
VUT,,,,,,,,,,,,,,,,,,,,,,,,,,,,,,,,,1.36919700000000E+01,,,,,,,1.11339700000000E+01,1.11289400000000E+01,7.49211000000000E+00,9.07737000000000E+00,,1.15386500000000E+01,,,1.46840100000000E+01,1.43641200000000E+01,1.52112300000000E+01,1.46631600000000E+01,
WBG,,,,,,,,,,,,,,,,,,,,,,,,,,,,,,,,,,,,4.62795000000000E+00,3.97353000000000E+00,3.55915000000000E+00,,2.18185000000000E+00,2.15975000000000E+00,2.06655000000000E+00,1.68486000000000E+00,1.19940000000000E+00,1.89870000000000E-01,7.13410000000000E-01,,5.86440000000000E-01,4.73010000000000E-01,0.00000000000000E+00,0.00000000000000E+00,
WLD,,,,,,,,,,,,,,,,,,,,,,,,,,,,,,,,,,,,,,,,,,,4.85457310391112E+00,4.42144212876818E+00,,,4.26797854416048E+00,4.66770213255238E+00,,,,
WSM,,,,,,,,,,,,,,,,,,,,,,,,,,,,,,,,,,,,,,,,1.05668000000000E+00,1.03794000000000E+00,1.12864000000000E+00,2.18332000000000E+00,2.06186000000000E+00,1.12810000000000E+00,,,1.52065000000000E+00,,1.08549000000000E+00,1.13629000000000E+00,
YEM,,,,,,,,,,,,,,,,,,,,,,,,,,,,,,,,,,,,,,,,1.16654200000000E+01,7.81411000000000E+00,7.81201000000000E+00,7.81513000000000E+00,4.75745000000000E+00,4.76367000000000E+00,5.30976000000000E+00,,,6.26967000000000E+00,,7.12973000000000E+00,
ZAF,,,,,,,,,,,,,,,,,,,,,,,,,,,,,,,,1.39352700000000E+01,,,,,,,9.01755000000000E+00,1.15790100000000E+01,1.01556100000000E+01,6.16915000000000E+00,8.46659000000000E+00,5.86158000000000E+00,8.39075000000000E+00,,,,,,,
ZAR,,,,,,,,,,,,2.26014400000000E+01,2.28368400000000E+01,,,,2.07174800000000E+01,2.03452100000000E+01,1.96080200000000E+01,,1.84542600000000E+01,1.85848800000000E+01,1.86767700000000E+01,1.88171600000000E+01,1.89645800000000E+01,,,,2.05519100000000E+01,,,1.73638700000000E+01,1.18608200000000E+01,7.73079000000000E+00,2.10327800000000E+01,,,,,1.87989900000000E+01,,,1.59882900000000E+01,,,,,1.55578600000000E+01,1.51596300000000E+01,1.51561200000000E+01,,
ZMB,,,,,,,,,,,,,2.24916000000000E+00,2.17703000000000E+00,2.29375000000000E+00,2.30395000000000E+00,1.94543000000000E+00,1.49583000000000E+00,1.27644000000000E+00,1.74780000000000E+00,2.07032000000000E+00,1.63176000000000E+00,1.45070000000000E+00,1.60103000000000E+00,1.92529000000000E+00,,2.41332000000000E+00,,,,,,,,2.55810000000000E+00,3.01535000000000E+00,,,6.06036000000000E+00,6.35306000000000E+00,6.47512000000000E+00,,8.02431000000000E+00,,7.05219000000000E+00,6.62248000000000E+00,7.22481000000000E+00,6.83178000000000E+00,6.10226000000000E+00,6.45928000000000E+00,6.37655000000000E+00,
ZWE,,,,,,,,,,,,,,,,,,,,,,0.00000000000000E+00,0.00000000000000E+00,0.00000000000000E+00,8.50650000000000E-01,,,,0.00000000000000E+00,0.00000000000000E+00,0.00000000000000E+00,0.00000000000000E+00,0.00000000000000E+00,,,,,,,,,,,,,,,,,,,
