"Country Code",1960,1961,1962,1963,1964,1965,1966,1967,1968,1969,1970,1971,1972,1973,1974,1975,1976,1977,1978,1979,1980,1981,1982,1983,1984,1985,1986,1987,1988,1989,1990,1991,1992,1993,1994,1995,1996,1997,1998,1999,2000,2001,2002,2003,2004,2005,2006,2007,2008,2009,2010,2011ABW,,,,,,,,,,,,,,,,,,,,,,,,,,,,,,,,,,,,,,,,1.01223240000000E+02,9.77443600000000E+01,8.89534900000000E+01,9.01823300000000E+01,9.24221900000000E+01,9.29319400000000E+01,8.74365500000000E+01,9.34673400000000E+01,9.14893600000000E+01,8.98496200000000E+01,9.47236200000000E+01,8.79441600000000E+01,
ADO,,,,,,,,,,,,,,,,,,,,,,,,,,,,,,,,,,,,,,,,,,,1.05830900000000E+02,1.05915490000000E+02,9.81627300000000E+01,,,,,,,
AFG,,,,,,,,,,,,,,,2.65967200000000E+01,,,2.70492400000000E+01,2.95023200000000E+01,,4.08751000000000E+01,4.90790800000000E+01,1.75164200000000E+01,,2.39003200000000E+01,2.53709700000000E+01,,,,,,,,4.14875800000000E+01,,,,,,,,,,,,4.83607000000000E+01,,,,,,
AGO,,,,,,,,,,,,,,,,,,,,,,,,,,,,,,,,,,,,,,,,,,,,,,,,,5.10494200000000E+01,5.03441700000000E+01,5.32040100000000E+01,
ALB,,,,,,,,,,,,,,,,,,,,,,,,,,,,,,,,,,,,,9.32126300000000E+01,,,1.02141600000000E+02,1.01198810000000E+02,1.03351540000000E+02,,1.01908530000000E+02,9.91066600000000E+01,,,,8.94489700000000E+01,8.61523000000000E+01,8.77908000000000E+01,
ARB,,,,,,,,,,,,,5.81121993423075E+01,6.07991909412591E+01,6.18042233681181E+01,6.71812553696297E+01,,7.35268925801763E+01,7.27195934618219E+01,6.03650625432365E+01,6.87111952392831E+01,,,,,,7.85134272073009E+01,,,,,,,,,,,,,7.60910614347136E+01,7.49855773663631E+01,7.54092639189900E+01,7.71261886421756E+01,8.14108240268071E+01,8.92341839315382E+01,9.23440579425010E+01,,8.63237079491831E+01,,,,
ARE,,,,,,,,,,,,,,,4.59137700000000E+01,4.38173600000000E+01,5.63143400000000E+01,6.12354500000000E+01,6.44863600000000E+01,6.68164700000000E+01,6.56210000000000E+01,6.78890000000000E+01,7.77957500000000E+01,7.42266900000000E+01,6.88921300000000E+01,6.71202600000000E+01,6.84574800000000E+01,7.26742800000000E+01,7.56191100000000E+01,8.67242000000000E+01,9.75331100000000E+01,1.04162630000000E+02,1.02176020000000E+02,9.87238600000000E+01,9.74736600000000E+01,9.55708100000000E+01,8.85181000000000E+01,8.44389900000000E+01,7.96151500000000E+01,8.74723600000000E+01,8.52947000000000E+01,8.21906600000000E+01,8.76758900000000E+01,9.07043600000000E+01,9.58355100000000E+01,9.83446600000000E+01,9.80366100000000E+01,,,,,
ARG,,,,,,,,,,,6.74817900000000E+01,6.85077100000000E+01,,,,7.58204000000000E+01,7.55919200000000E+01,,,,,,,,,,,,,,,,,,,,9.39681200000000E+01,9.26377000000000E+01,1.00910780000000E+02,9.75209900000000E+01,9.73034000000000E+01,9.70289000000000E+01,1.00355180000000E+02,9.84580400000000E+01,9.76087200000000E+01,9.58185700000000E+01,9.79114300000000E+01,1.00664760000000E+02,1.03555360000000E+02,,,
ARM,,,,,,,,,,,,,,,,,,,,,,,,,,,,,,,,,,,,,,,,,,,9.28171400000000E+01,8.77394500000000E+01,9.93184100000000E+01,9.08234100000000E+01,9.15312700000000E+01,9.97926000000000E+01,,,,
ATG,,,,,,,,,,,,,,,,,,,,,,,,,,,,,,,,,,,,,,,,,,,,,,,,,1.02882210000000E+02,9.47955400000000E+01,1.02469140000000E+02,
AUT,,,,,,,,,,,,9.51299200000000E+01,9.69716100000000E+01,9.72607900000000E+01,,,,,,,,,,,,,,,,,,,,,,,,,9.82849000000000E+01,1.00601360000000E+02,,,1.00785010000000E+02,1.01704560000000E+02,9.96014800000000E+01,9.89266400000000E+01,1.00638020000000E+02,1.03220960000000E+02,1.01644510000000E+02,9.92171300000000E+01,,
AZE,,,,,,,,,,,,,,,,,,,,,,,,,,,,,,,,,,9.56584200000000E+01,9.20291100000000E+01,,7.73815500000000E+01,1.00516020000000E+02,9.60091300000000E+01,9.25534900000000E+01,9.37652400000000E+01,9.63216100000000E+01,9.45982100000000E+01,9.50953500000000E+01,9.62864200000000E+01,9.72518900000000E+01,9.16885600000000E+01,9.71725800000000E+01,9.16603800000000E+01,9.20753300000000E+01,8.99870800000000E+01,
BDI,,,,,,,,,,,,8.24259000000000E+00,,1.45846500000000E+01,1.41861800000000E+01,1.49735900000000E+01,1.37508000000000E+01,1.40108400000000E+01,1.36302700000000E+01,1.34845600000000E+01,1.37047500000000E+01,1.41020500000000E+01,1.64800800000000E+01,2.21857500000000E+01,3.03138600000000E+01,3.19709700000000E+01,3.27061800000000E+01,3.31392300000000E+01,4.61349500000000E+01,3.87128300000000E+01,4.82486600000000E+01,4.92201700000000E+01,5.58473900000000E+01,5.94604100000000E+01,,,,,,2.54682300000000E+01,2.86690300000000E+01,2.96329100000000E+01,3.03979700000000E+01,3.67201900000000E+01,4.09065900000000E+01,4.14761300000000E+01,,4.53940100000000E+01,4.82750900000000E+01,5.41922800000000E+01,5.73834600000000E+01,
BEL,,,,,,,,,,,,,,,6.68660300000000E+01,6.91229800000000E+01,6.97192700000000E+01,7.03306600000000E+01,7.39249300000000E+01,6.63059400000000E+01,6.60072200000000E+01,7.25179800000000E+01,7.37730300000000E+01,6.92806300000000E+01,7.25040000000000E+01,7.06982400000000E+01,6.93292100000000E+01,6.84642000000000E+01,7.01062600000000E+01,,,7.60410900000000E+01,,,,,,,,,,,,,,,8.88492800000000E+01,8.77634700000000E+01,8.76997700000000E+01,8.86260400000000E+01,,
BEN,,,,,,,,,,,,2.77796900000000E+01,3.20132800000000E+01,3.24809200000000E+01,3.10980400000000E+01,3.88316000000000E+01,3.70806100000000E+01,3.65079000000000E+01,3.90331800000000E+01,4.03609200000000E+01,4.15916400000000E+01,4.51124400000000E+01,4.66637900000000E+01,5.36082700000000E+01,4.22089900000000E+01,4.84932100000000E+01,4.41668300000000E+01,4.25505600000000E+01,3.87497300000000E+01,3.82354500000000E+01,2.68081900000000E+01,2.98454600000000E+01,3.03944200000000E+01,3.34500100000000E+01,3.61204400000000E+01,4.22260200000000E+01,4.56690800000000E+01,4.87935100000000E+01,5.24364700000000E+01,,5.30678200000000E+01,5.80276500000000E+01,6.07283300000000E+01,6.50942700000000E+01,6.73906900000000E+01,,,,7.83197700000000E+01,7.36802200000000E+01,,
BFA,,,,,,,,,,,,9.34324000000000E+00,8.56902000000000E+00,8.63595000000000E+00,8.07000000000000E+00,9.13745000000000E+00,9.35129000000000E+00,1.03381400000000E+01,1.06377500000000E+01,1.17154800000000E+01,1.14688100000000E+01,1.28549700000000E+01,1.29772600000000E+01,1.36825400000000E+01,1.43839000000000E+01,1.68741700000000E+01,,1.92127800000000E+01,2.06168000000000E+01,2.03888800000000E+01,2.42880300000000E+01,2.45204100000000E+01,3.12994900000000E+01,3.25273300000000E+01,3.32958000000000E+01,2.17644600000000E+01,2.70069700000000E+01,,,2.58157000000000E+01,2.78671000000000E+01,2.94777500000000E+01,2.98986000000000E+01,3.11902300000000E+01,3.24347300000000E+01,3.37148800000000E+01,3.44830000000000E+01,3.70069200000000E+01,4.11150700000000E+01,4.50478900000000E+01,4.78241000000000E+01,
BGD,,,,,,,,,,,,,,,,,5.39513400000000E+01,,,,,3.07845500000000E+01,,,,,,,,,,,,,,,,,,,6.11220500000000E+01,,,,,6.22791000000000E+01,,,5.55694700000000E+01,6.20683200000000E+01,,
BGR,,,,,,,,,,,,,,,,,,,,,,,,,,,9.92702100000000E+01,1.04567420000000E+02,1.04118540000000E+02,1.03106980000000E+02,1.00962430000000E+02,8.76947600000000E+01,8.71428800000000E+01,8.47225600000000E+01,8.62746400000000E+01,8.67657800000000E+01,9.06974700000000E+01,9.63286700000000E+01,9.71586100000000E+01,9.78887100000000E+01,9.74950200000000E+01,1.04115240000000E+02,9.84498600000000E+01,1.00221160000000E+02,1.00389130000000E+02,9.87689600000000E+01,9.79510800000000E+01,9.87050200000000E+01,9.16576100000000E+01,9.52966600000000E+01,,
BHR,,,,,,,,,,,,,,,,,,,,,,,9.86730400000000E+01,9.00964300000000E+01,8.90724300000000E+01,9.41932300000000E+01,8.86221800000000E+01,8.62502900000000E+01,9.27650900000000E+01,9.67558100000000E+01,,9.64381300000000E+01,9.51934600000000E+01,9.53430000000000E+01,9.01537900000000E+01,9.08443000000000E+01,8.98854300000000E+01,,8.91627300000000E+01,9.53571400000000E+01,9.15511300000000E+01,9.25140600000000E+01,1.06178830000000E+02,1.10929240000000E+02,1.11027690000000E+02,1.07450610000000E+02,,,,,,
BHS,,,,,,,,,,,,,,,,,,,,,,,,,,,,,,,,,,,,,,,,8.01488800000000E+01,,,,9.29784500000000E+01,1.00645370000000E+02,1.00614490000000E+02,9.97695900000000E+01,1.03813980000000E+02,9.96594000000000E+01,1.00209350000000E+02,,
BIH,,,,,,,,,,,,,,,,,,,,,,,,,,,,,,,,,,,,,,,,,,,,,,,,,,,6.86084600000000E+01,
BLR,,,,,,,,,,,,,,,,,,,,,,,,,,,,,,,,,,9.49557000000000E+01,9.74905600000000E+01,9.56488000000000E+01,9.48837100000000E+01,9.68943500000000E+01,,9.68315400000000E+01,9.97021700000000E+01,1.03826670000000E+02,1.28951230000000E+02,9.98473100000000E+01,1.01099330000000E+02,9.78433400000000E+01,9.59614700000000E+01,9.35561100000000E+01,,,,
BLZ,,,,,,,,,,,,,,,,,,,,,,,,,,,,,,,,,9.57347800000000E+01,,,8.74058900000000E+01,9.23790600000000E+01,,,9.40403700000000E+01,9.73924000000000E+01,9.59264900000000E+01,9.35851300000000E+01,,,1.00172020000000E+02,1.02691100000000E+02,1.02457140000000E+02,1.01540220000000E+02,1.06864140000000E+02,1.13136200000000E+02,
BMU,,,,,,,,,,,,,,,,,,,,,,,,,,,,,,,,,,,,,,,,,,9.86014000000000E+01,1.00473930000000E+02,9.83091800000000E+01,,,,,,,,
BOL,,,,,,,,,,,,,,,,,,,,,,,,,,,,,,,7.83559200000000E+01,,,,,,,,,1.01152730000000E+02,1.01745730000000E+02,1.01626790000000E+02,1.05361630000000E+02,1.03075190000000E+02,1.02116850000000E+02,,1.02678340000000E+02,9.87395300000000E+01,9.99974000000000E+01,,,
BRA,,,,,,,,,,,,7.81134400000000E+01,6.15119900000000E+01,6.33711000000000E+01,6.51866000000000E+01,,,,,,,,,,,,,,,,,,,,,,,,,,1.08055410000000E+02,1.10383990000000E+02,,,,,,,,,,
BRB,,,,,,,,,,,,,,,,,,,,,,,,,,,,,,,,,,,,,,,,9.48522400000000E+01,9.78551000000000E+01,1.03796870000000E+02,9.99526700000000E+01,1.02412490000000E+02,9.61137400000000E+01,8.67906500000000E+01,9.26193900000000E+01,8.81173600000000E+01,8.98809500000000E+01,9.19674600000000E+01,9.56937800000000E+01,
BRN,,,,,,,,,,,,,1.07793630000000E+02,1.07712770000000E+02,1.11122610000000E+02,1.01615350000000E+02,1.12314540000000E+02,1.04613890000000E+02,9.55608600000000E+01,1.00420360000000E+02,9.16325600000000E+01,9.13368500000000E+01,8.64945000000000E+01,8.30480800000000E+01,6.30023600000000E+01,,1.18778280000000E+02,,,,,,,,,,,1.11497240000000E+02,1.20864900000000E+02,1.24147470000000E+02,1.23223470000000E+02,1.33153320000000E+02,1.26851030000000E+02,1.30044180000000E+02,1.17681500000000E+02,1.10108730000000E+02,1.13773700000000E+02,1.15389200000000E+02,1.15729320000000E+02,1.14126170000000E+02,1.18043090000000E+02,
BTN,,,,,,,,,,,,,,,,,,,1.33022400000000E+01,1.45306500000000E+01,,,,,,,,,,,,,,2.80626300000000E+01,3.24681400000000E+01,,,,5.23829400000000E+01,5.51581500000000E+01,5.51422300000000E+01,5.60718900000000E+01,,,,6.48483300000000E+01,7.27007900000000E+01,,8.00938300000000E+01,8.30941200000000E+01,,
BWA,,,,,,,,,,,3.56907200000000E+01,3.93721900000000E+01,4.55979100000000E+01,,,,,,,5.00950300000000E+01,,6.55042500000000E+01,6.94315000000000E+01,6.31634300000000E+01,6.84145500000000E+01,7.20394700000000E+01,8.15844400000000E+01,8.38009000000000E+01,8.21295600000000E+01,7.79890300000000E+01,8.12474900000000E+01,8.25104900000000E+01,8.39878500000000E+01,8.39296800000000E+01,8.76364500000000E+01,8.60500700000000E+01,8.83013700000000E+01,,9.04288100000000E+01,8.60727700000000E+01,8.67674000000000E+01,8.87403600000000E+01,9.08601200000000E+01,9.08657300000000E+01,9.09590900000000E+01,8.97531400000000E+01,9.41128800000000E+01,9.22238800000000E+01,,,,
CAF,,,,,,,,,,,,4.39299400000000E+01,3.85969900000000E+01,4.85124900000000E+01,4.22314500000000E+01,5.49028100000000E+01,4.31517000000000E+01,,6.10137500000000E+01,,,4.22426500000000E+01,4.19342100000000E+01,3.78082000000000E+01,,,4.84422700000000E+01,3.62998900000000E+01,3.74169200000000E+01,3.80593200000000E+01,4.20190600000000E+01,3.70187500000000E+01,3.00378400000000E+01,,,,,,,,,,,3.44344100000000E+01,3.09207800000000E+01,3.37409100000000E+01,3.31441200000000E+01,4.18855700000000E+01,4.57061600000000E+01,4.84222800000000E+01,5.23322100000000E+01,
CAN,,,,,,,,,,,,,,,,,,,,,,,,,,,,,,,,,,,,,,,9.38731600000000E+01,9.55362600000000E+01,9.73318200000000E+01,,,,,,9.59820200000000E+01,,,,,
CHE,,,,,,,,,,,,,,,,,,5.23896000000000E+01,5.98044100000000E+01,5.76151800000000E+01,5.70048600000000E+01,5.19024100000000E+01,5.20610800000000E+01,5.23042800000000E+01,5.13578100000000E+01,5.17508100000000E+01,5.06045700000000E+01,5.01075600000000E+01,4.93996500000000E+01,5.04452300000000E+01,5.15127400000000E+01,5.30451200000000E+01,5.44024800000000E+01,6.17799200000000E+01,6.25159500000000E+01,,7.23853000000000E+01,,,9.38194300000000E+01,9.47379500000000E+01,9.67543200000000E+01,9.66111800000000E+01,9.64803300000000E+01,9.75294200000000E+01,9.52747200000000E+01,9.24255500000000E+01,9.15449500000000E+01,9.24937600000000E+01,9.35867000000000E+01,,
CHL,,,,,,,,,,,7.65327300000000E+01,8.25264200000000E+01,8.58950100000000E+01,8.60035600000000E+01,8.44031400000000E+01,8.50652300000000E+01,8.77649300000000E+01,8.72615500000000E+01,,,,,,9.80521300000000E+01,,,,,,,,,,,,,,,9.07665900000000E+01,9.84934500000000E+01,9.85904800000000E+01,,1.01143080000000E+02,9.74532200000000E+01,9.57480600000000E+01,,,1.02062930000000E+02,,,,
CHN,,,,,,,,,,,,,,,,,,,,,,,,,,,,,,,,,,,,,9.62238000000000E+01,9.66971700000000E+01,,,,,,,,,,,,,,
CIV,,,,,,,,,,,,,,5.51300100000000E+01,5.53513200000000E+01,,6.29352400000000E+01,6.66541700000000E+01,6.62659900000000E+01,6.82975200000000E+01,7.02043800000000E+01,7.32921500000000E+01,,7.01024000000000E+01,6.78247800000000E+01,5.57935000000000E+01,5.77206700000000E+01,5.61339700000000E+01,5.72036600000000E+01,5.20030400000000E+01,4.98256400000000E+01,5.33412500000000E+01,4.92357700000000E+01,5.05047500000000E+01,4.95922500000000E+01,4.79852500000000E+01,4.95038800000000E+01,5.09943700000000E+01,,,5.23421700000000E+01,5.59841500000000E+01,,,,,5.64355700000000E+01,5.62342900000000E+01,,5.81815800000000E+01,,
CMR,,,,,,,,,,,,,,5.48348700000000E+01,5.39020300000000E+01,5.59925400000000E+01,5.70974900000000E+01,5.73220500000000E+01,6.81176700000000E+01,5.74078500000000E+01,5.48737800000000E+01,5.46967400000000E+01,5.31015400000000E+01,5.29201400000000E+01,5.46313900000000E+01,5.60218000000000E+01,5.61979300000000E+01,5.75381900000000E+01,5.80478400000000E+01,,5.61113000000000E+01,5.69604200000000E+01,,,,,,,,5.38907400000000E+01,5.44527900000000E+01,,5.34768700000000E+01,6.25246000000000E+01,6.53800000000000E+01,5.71574100000000E+01,5.71479700000000E+01,6.24202800000000E+01,8.11517400000000E+01,8.19259100000000E+01,8.49339000000000E+01,
COG,,,,,,,,,,,,,7.12407400000000E+01,8.16834800000000E+01,6.87121300000000E+01,7.80444700000000E+01,7.82792800000000E+01,8.06193100000000E+01,7.93990600000000E+01,8.65725500000000E+01,8.62449200000000E+01,8.20496300000000E+01,8.17490000000000E+01,7.22215500000000E+01,7.72723700000000E+01,7.31623200000000E+01,7.30030400000000E+01,7.23200800000000E+01,7.37018500000000E+01,6.82736700000000E+01,5.92945400000000E+01,5.86475000000000E+01,6.05199100000000E+01,6.29672000000000E+01,5.39205300000000E+01,,4.77556900000000E+01,,,,,5.69467500000000E+01,6.03613900000000E+01,5.80814800000000E+01,8.49467900000000E+01,7.36886100000000E+01,8.11242600000000E+01,7.84281800000000E+01,7.28853100000000E+01,7.28188400000000E+01,7.28440300000000E+01,
COL,,,,,,,,,,,6.08070000000000E+01,4.97114200000000E+01,5.00296500000000E+01,5.27739800000000E+01,5.28836500000000E+01,,,,,,,,6.58059100000000E+01,6.80927200000000E+01,6.94923900000000E+01,6.48642400000000E+01,7.29149300000000E+01,6.84111300000000E+01,6.77241400000000E+01,6.71066100000000E+01,6.25258400000000E+01,6.96734400000000E+01,7.54104200000000E+01,7.93450900000000E+01,8.05084800000000E+01,8.42784800000000E+01,8.56118600000000E+01,,9.11319300000000E+01,9.28327900000000E+01,9.28698900000000E+01,9.03099200000000E+01,9.07239300000000E+01,,9.83935300000000E+01,1.02110200000000E+02,1.07915350000000E+02,1.09102870000000E+02,1.09282690000000E+02,1.13232160000000E+02,1.12590150000000E+02,
COM,,,,,,,,,,,,,,,,,,,,,,,,,,,7.26257000000000E+01,5.46887000000000E+01,,,,,4.27406200000000E+01,,,,,,,5.32463800000000E+01,,,6.73913000000000E+01,6.65464500000000E+01,6.95986300000000E+01,7.00920200000000E+01,,6.97402600000000E+01,8.39172200000000E+01,,,
CPV,,,,,,,,,,,,,,,6.91643000000000E+00,1.05022800000000E+01,,1.26600300000000E+01,1.34485200000000E+01,1.15685400000000E+01,1.85058300000000E+01,2.94671600000000E+01,2.57149600000000E+01,2.49031900000000E+01,3.31493100000000E+01,3.58544100000000E+01,3.72262800000000E+01,4.17053100000000E+01,4.67867000000000E+01,,5.65714300000000E+01,,,,6.97426100000000E+01,,,,9.42069200000000E+01,1.09350210000000E+02,1.05966940000000E+02,1.00408830000000E+02,1.02984100000000E+02,1.02266750000000E+02,1.02093290000000E+02,8.51458900000000E+01,9.63475700000000E+01,9.06695800000000E+01,9.66286400000000E+01,9.52273100000000E+01,1.00125310000000E+02,
CRI,,,,,,,,,,,7.46802700000000E+01,7.41078200000000E+01,8.32611300000000E+01,8.79037100000000E+01,8.66395800000000E+01,8.17147400000000E+01,7.72686700000000E+01,8.35562300000000E+01,8.04045800000000E+01,7.90944100000000E+01,7.97550700000000E+01,8.27629600000000E+01,8.35103600000000E+01,,,7.57241700000000E+01,7.85223600000000E+01,7.58967400000000E+01,7.54479200000000E+01,7.41702300000000E+01,,7.74175200000000E+01,7.96174300000000E+01,8.21721600000000E+01,8.04841800000000E+01,7.94095300000000E+01,7.96923400000000E+01,,,7.92239700000000E+01,8.51471400000000E+01,8.87171200000000E+01,9.25628100000000E+01,9.29347100000000E+01,9.38411900000000E+01,9.32895200000000E+01,8.89222100000000E+01,9.09427300000000E+01,9.15222700000000E+01,9.54837900000000E+01,9.52641700000000E+01,
CUB,,,,,,,,,,,,5.95566100000000E+01,5.66577000000000E+01,,,,,,,,,,,,,,,,,,,,,,,,,,,,9.57825400000000E+01,9.54274700000000E+01,1.00014650000000E+02,9.50351700000000E+01,9.16341400000000E+01,9.19513400000000E+01,9.04751700000000E+01,9.17197900000000E+01,8.86181000000000E+01,9.76238800000000E+01,9.76944300000000E+01,
CYM,,,,,,,,,,,,,,,,,,,,,,,,,,,,,,,,,,,,,,,,9.95283000000000E+01,1.06086960000000E+02,1.12400000000000E+02,1.02205880000000E+02,,9.19871800000000E+01,7.95665600000000E+01,9.14893600000000E+01,7.61061900000000E+01,9.21965300000000E+01,,,
CYP,,,,,,,,,,,,8.66798900000000E+01,8.51517800000000E+01,8.14467700000000E+01,8.45036300000000E+01,7.97446400000000E+01,8.30335000000000E+01,7.87726000000000E+01,8.85756400000000E+01,9.96482300000000E+01,8.94801700000000E+01,1.09649310000000E+02,9.41252400000000E+01,9.42796200000000E+01,8.87938200000000E+01,6.60783100000000E+01,6.86932500000000E+01,7.38544500000000E+01,8.54699200000000E+01,8.47199300000000E+01,8.37038400000000E+01,8.93568700000000E+01,9.10854000000000E+01,1.00960610000000E+02,1.03970860000000E+02,9.95756000000000E+01,9.81246700000000E+01,9.85389900000000E+01,,1.01568770000000E+02,9.80264300000000E+01,9.75549300000000E+01,1.00017960000000E+02,9.93648600000000E+01,8.80907700000000E+01,1.00301790000000E+02,1.00892860000000E+02,9.99441300000000E+01,1.00786950000000E+02,1.03002260000000E+02,,
CZE,,,,,,,,,,,,,,,,,,,,,,,,,,,,,,,,,,9.08511800000000E+01,9.75568900000000E+01,,1.09604010000000E+02,,,9.94819600000000E+01,9.88975300000000E+01,9.87458000000000E+01,1.02575880000000E+02,9.84541700000000E+01,9.75480400000000E+01,9.70386800000000E+01,9.26311100000000E+01,9.38171300000000E+01,9.59835800000000E+01,1.00656040000000E+02,,
DEU,,,,,,,,,,,,,,,,,,,,,,,,,,,,,,,,,,9.93020800000000E+01,9.59823400000000E+01,9.52761000000000E+01,9.60573700000000E+01,9.91338300000000E+01,,9.75856700000000E+01,1.01956580000000E+02,1.05562010000000E+02,1.03044420000000E+02,1.03635760000000E+02,1.03112290000000E+02,9.88171000000000E+01,9.87008300000000E+01,1.02385850000000E+02,1.00004090000000E+02,1.00231480000000E+02,,
DJI,,,,,,,,,,,,,2.71689500000000E+01,2.67009000000000E+01,2.69415500000000E+01,2.59561800000000E+01,2.55029000000000E+01,,,,,,,,,,,,,,,,,,,,,,,2.87301900000000E+01,3.28842700000000E+01,3.21100900000000E+01,,3.76460100000000E+01,3.77559000000000E+01,3.51244500000000E+01,3.90968700000000E+01,,4.60775700000000E+01,3.70885100000000E+01,,
DMA,,,,,,,,,,,,,,,,,,,,,,,,,,,,,,,,,,,,,,,,1.09251100000000E+02,1.13716810000000E+02,1.19515670000000E+02,1.02739730000000E+02,1.01597870000000E+02,1.01692710000000E+02,9.84575800000000E+01,9.08015800000000E+01,9.21052600000000E+01,8.74635600000000E+01,8.69230800000000E+01,8.50162900000000E+01,
DNK,,,,,,,,,,,,9.45736400000000E+01,9.16757600000000E+01,9.26636700000000E+01,9.15716900000000E+01,,,,,,,9.36085300000000E+01,9.16956400000000E+01,9.21516100000000E+01,9.84154900000000E+01,9.95900200000000E+01,9.71276200000000E+01,9.81164100000000E+01,1.01118210000000E+02,9.73678200000000E+01,9.46388300000000E+01,9.75580500000000E+01,9.70123900000000E+01,9.96745000000000E+01,9.76881500000000E+01,,,,1.03614410000000E+02,1.01396830000000E+02,1.00415010000000E+02,1.01336420000000E+02,1.04979050000000E+02,,1.00361340000000E+02,1.00200400000000E+02,1.01645990000000E+02,1.01205120000000E+02,,9.71988300000000E+01,,
DOM,,,,,,,,,,,,3.26699300000000E+01,,,,,,,,,,,,,,,,,,,,,,,,,,,,6.87661400000000E+01,7.40556900000000E+01,8.77837700000000E+01,8.65875100000000E+01,8.33870400000000E+01,8.41960600000000E+01,,8.05864800000000E+01,8.89669100000000E+01,,9.32807900000000E+01,9.26742900000000E+01,
DZA,,,,,,,,,,,,,5.47259400000000E+01,5.65061200000000E+01,6.00096000000000E+01,6.60044200000000E+01,7.25807900000000E+01,7.48552500000000E+01,7.72726900000000E+01,7.61717600000000E+01,7.43229300000000E+01,7.98129300000000E+01,7.92785100000000E+01,8.22208100000000E+01,8.80644400000000E+01,1.05115480000000E+02,8.53033300000000E+01,8.68601700000000E+01,8.77745100000000E+01,9.07498800000000E+01,8.88105700000000E+01,8.55887900000000E+01,8.82270700000000E+01,8.69040200000000E+01,8.46730900000000E+01,8.47235900000000E+01,8.69977500000000E+01,8.59683200000000E+01,,8.59526800000000E+01,8.25995300000000E+01,8.89309000000000E+01,9.03443900000000E+01,9.20400600000000E+01,9.26813100000000E+01,9.46657200000000E+01,,9.54762200000000E+01,1.21334720000000E+02,9.31644000000000E+01,9.60908200000000E+01,
EAS,,,,,,,,,,,,,,,,,,,,,,,,,,,,,,,,1.04603740853800E+02,,,,,,,,9.57787028847858E+01,9.64637065997561E+01,9.72553989839907E+01,9.74355912945675E+01,9.70731954204175E+01,9.64980238349335E+01,9.58497362094720E+01,9.50938497758953E+01,9.60334309221088E+01,,,,
ECA,,,,,,,,,,,,,,,,,,,,,,,,,,,,,,,,9.32630480286000E+01,,,,,,,,9.60712258000000E+01,9.51545323500000E+01,9.56237369000000E+01,9.61310336800000E+01,9.56197233100000E+01,9.67733839500000E+01,9.89312253900000E+01,9.70691278300000E+01,9.67063370600000E+01,9.60562500100000E+01,9.56454603500000E+01,,
ECS,,,,,,,,,,,,,,,,,,,,,,,,,,,,,,,,9.50829946287000E+01,,,,,,,,9.68361316578673E+01,9.64566209780053E+01,9.71778151394402E+01,9.72114942252910E+01,9.70026390652735E+01,9.73263752384575E+01,9.78363534033876E+01,9.67836576556336E+01,9.71714487704752E+01,9.69212223344716E+01,9.69206810834461E+01,,
ECU,,,,,,,,,,,,5.91540000000000E+01,5.73608400000000E+01,6.08056300000000E+01,6.41244000000000E+01,6.77627500000000E+01,7.19904300000000E+01,7.34416300000000E+01,7.21481000000000E+01,7.70424000000000E+01,8.00214000000000E+01,,,,,,,9.33074700000000E+01,9.19726200000000E+01,,,,,,9.05015400000000E+01,8.88211600000000E+01,8.91555200000000E+01,9.34254300000000E+01,,9.68629100000000E+01,9.83837900000000E+01,9.91679300000000E+01,1.00220000000000E+02,1.00222500000000E+02,1.00654310000000E+02,1.05538860000000E+02,1.05774170000000E+02,1.04847610000000E+02,,,,
EGY,,,,,,,,,,,,6.61971100000000E+01,6.17406200000000E+01,6.57012200000000E+01,6.77578800000000E+01,7.17423800000000E+01,7.29677900000000E+01,7.33711400000000E+01,6.80664400000000E+01,4.64367200000000E+01,5.41624400000000E+01,6.41617100000000E+01,,,,,8.14513700000000E+01,,,,,,,,,,,8.93728300000000E+01,,9.96279900000000E+01,9.79188200000000E+01,9.58376500000000E+01,9.30039700000000E+01,9.51508000000000E+01,9.68321700000000E+01,1.00977220000000E+02,9.37919200000000E+01,9.81759500000000E+01,,1.00191940000000E+02,,
EMU,,,,,,,,,,,,,,,,,,,,,,,,,,,,,,,,9.99455212335000E+01,,,,,,,,9.93142583229876E+01,9.98525812155248E+01,1.00595122315656E+02,9.93247490967368E+01,9.92845413332887E+01,9.87378158874271E+01,9.75236673037567E+01,9.78726584635121E+01,9.94831038668285E+01,9.98577873363839E+01,1.00206526299986E+02,,
ERI,,,,,,,,,,,,,,,,,,,,,,,,,,,,,,,,,,,2.06036200000000E+01,2.70165300000000E+01,3.96759000000000E+01,4.39196400000000E+01,,3.83673600000000E+01,3.99847300000000E+01,3.97489000000000E+01,4.03640100000000E+01,4.50281200000000E+01,5.20437000000000E+01,5.85964000000000E+01,5.63366400000000E+01,5.27259500000000E+01,5.16746600000000E+01,5.21467300000000E+01,4.32308800000000E+01,
ESP,,,,,,,,,,,,,,,,,,,,,,9.70056700000000E+01,9.70193500000000E+01,9.82734300000000E+01,1.02325360000000E+02,1.04068760000000E+02,1.04817540000000E+02,1.02627100000000E+02,1.08948780000000E+02,1.09041530000000E+02,1.04322900000000E+02,,,1.00843440000000E+02,1.01681900000000E+02,,,,,,,,,,1.03531190000000E+02,,9.79453200000000E+01,9.87757600000000E+01,9.99628000000000E+01,1.02381990000000E+02,,
EST,,,,,,,,,,,,,,,,,,,,,,,,,,,,,,,,,,,,7.94599600000000E+01,9.09410900000000E+01,,,9.12071400000000E+01,9.26945400000000E+01,9.72234200000000E+01,9.97809400000000E+01,1.07220290000000E+02,1.04159900000000E+02,1.07276630000000E+02,1.02082790000000E+02,9.95690900000000E+01,9.63463800000000E+01,9.74282300000000E+01,,
ETH,,,,,,,,,,,,,,,,,,,,,,,2.28759300000000E+01,,,,,3.04834300000000E+01,3.01039000000000E+01,2.83483000000000E+01,,,,,1.70532400000000E+01,1.79082800000000E+01,1.98013800000000E+01,,2.30192600000000E+01,2.68275600000000E+01,2.97737500000000E+01,3.65412500000000E+01,4.08555500000000E+01,4.41605600000000E+01,4.59874200000000E+01,5.06989500000000E+01,5.28414000000000E+01,5.35593000000000E+01,5.60566000000000E+01,5.71582800000000E+01,7.53058000000000E+01,
EUU,,,,,,,,,,,,,,,,,,,,,,,,,,,,,,,,9.82070447708000E+01,,,,,,,,,,,,,,,,,,,,
FIN,,,,,,,,,,,,,,,,,,,,,,,,,,,,1.04207390000000E+02,1.07576100000000E+02,1.06223120000000E+02,1.01771200000000E+02,9.77997800000000E+01,9.55209000000000E+01,9.44242400000000E+01,9.58137100000000E+01,1.00405610000000E+02,1.00370340000000E+02,,9.84966300000000E+01,9.62420400000000E+01,9.61705200000000E+01,1.02004440000000E+02,1.01154660000000E+02,1.02440430000000E+02,1.00218750000000E+02,1.01144210000000E+02,9.70590000000000E+01,9.82157700000000E+01,9.94870900000000E+01,9.78820100000000E+01,,
FJI,,,,,,,,,,,,,,,,,,,,,9.60000000000000E+01,9.41812800000000E+01,,9.44021900000000E+01,9.24547000000000E+01,9.50079700000000E+01,9.77029500000000E+01,,,,,,,,,,,,1.04119810000000E+02,9.97818000000000E+01,9.62999100000000E+01,9.53097700000000E+01,9.94906400000000E+01,1.03295340000000E+02,1.08129330000000E+02,1.11777330000000E+02,1.10929810000000E+02,1.02244210000000E+02,1.05862320000000E+02,1.04875350000000E+02,,
FRA,,,,,,,,,,,,9.05906300000000E+01,9.04348800000000E+01,,,,,,,,,,,,,,,,,,,,,,,,,,,9.73723800000000E+01,9.85980700000000E+01,,,,,,,,,,,
GAB,,,,,,,,,,,,,7.95302000000000E+01,7.86659000000000E+01,,1.02142860000000E+02,1.11835750000000E+02,1.01770210000000E+02,1.05273370000000E+02,1.02786040000000E+02,1.03366040000000E+02,1.09567990000000E+02,1.08968670000000E+02,1.04876440000000E+02,8.98842500000000E+01,,,7.63376300000000E+01,7.42424200000000E+01,7.00971100000000E+01,,,5.88453400000000E+01,,,6.78865300000000E+01,6.68278300000000E+01,6.99861300000000E+01,,,,,7.01872200000000E+01,6.73672300000000E+01,,,,,,,,
GEO,,,,,,,,,,,,,,,,,,,,,,,,,,,,,,,,,,,,,,,,8.46262100000000E+01,9.82790500000000E+01,9.99363100000000E+01,9.69564800000000E+01,9.17164900000000E+01,9.66631600000000E+01,8.74414300000000E+01,8.44244100000000E+01,9.62041800000000E+01,1.03821140000000E+02,1.11771720000000E+02,1.16205480000000E+02,
GHA,,,,,,,,,,,,7.25097700000000E+01,6.57823400000000E+01,,6.04881800000000E+01,6.31403700000000E+01,6.64376700000000E+01,6.85349700000000E+01,7.04213000000000E+01,7.01704400000000E+01,7.06850100000000E+01,7.52046200000000E+01,,,,,,,,,,7.13373200000000E+01,7.32867600000000E+01,,,,,,,7.21317700000000E+01,7.52271200000000E+01,7.07674500000000E+01,7.20052400000000E+01,6.86334400000000E+01,7.35962500000000E+01,7.72212000000000E+01,7.30493800000000E+01,8.02225400000000E+01,8.64466100000000E+01,9.01721000000000E+01,,
GIN,,,,,,,,,,,,,,,,,,,,,,,,,2.79022700000000E+01,2.21715300000000E+01,2.11094300000000E+01,2.07007400000000E+01,1.68757300000000E+01,1.86873100000000E+01,2.84614400000000E+01,2.43329000000000E+01,2.39355100000000E+01,2.72257600000000E+01,2.83787200000000E+01,2.88293900000000E+01,,,3.56325500000000E+01,4.09768700000000E+01,4.38990200000000E+01,4.57706500000000E+01,5.04599500000000E+01,4.87822900000000E+01,6.07807400000000E+01,6.82855900000000E+01,7.28747800000000E+01,7.26147800000000E+01,6.43240000000000E+01,7.26628700000000E+01,7.49108100000000E+01,
GMB,,,,,,,,,,,,3.51363600000000E+01,3.82537300000000E+01,3.68074200000000E+01,3.88001700000000E+01,3.94693500000000E+01,3.90186500000000E+01,2.99324800000000E+01,3.57078800000000E+01,3.78006900000000E+01,4.22481900000000E+01,4.19675200000000E+01,4.87237600000000E+01,5.46165000000000E+01,6.21846400000000E+01,6.31516100000000E+01,6.44061400000000E+01,6.98681500000000E+01,,5.97051100000000E+01,,,5.61843700000000E+01,5.18395800000000E+01,5.18649600000000E+01,5.30828200000000E+01,6.01270400000000E+01,,,7.42386500000000E+01,7.39168600000000E+01,7.50554200000000E+01,7.33349300000000E+01,7.46055800000000E+01,7.26435900000000E+01,6.82680700000000E+01,6.59939300000000E+01,7.15999800000000E+01,7.44690400000000E+01,7.49001900000000E+01,6.94611300000000E+01,
GNB,,,,,,,,,,,,,,,,,,,,3.05503700000000E+01,2.53861000000000E+01,3.30190100000000E+01,3.16389400000000E+01,2.08234300000000E+01,1.57961100000000E+01,,,1.00042600000000E+01,6.85219000000000E+00,,,,,,,,,,,3.72602900000000E+01,3.80508700000000E+01,,,,,,,,,,7.52714800000000E+01,
GNQ,,,,,,,,,,,,,,,,,,,,,,,,,,,,,,,,,,,5.38805600000000E+01,,,,,6.48648600000000E+01,,4.71007900000000E+01,4.62803800000000E+01,4.49068100000000E+01,,4.83192700000000E+01,,,,5.00786200000000E+01,5.21957500000000E+01,
GRC,,,,,,,,,,,,1.04645900000000E+02,1.01215270000000E+02,9.98510200000000E+01,9.85686600000000E+01,9.94393500000000E+01,1.00865430000000E+02,1.02120610000000E+02,1.04309670000000E+02,1.03667170000000E+02,9.99253300000000E+01,9.75326400000000E+01,9.52882200000000E+01,9.60555100000000E+01,9.98283500000000E+01,1.03449540000000E+02,1.10968360000000E+02,1.02334950000000E+02,1.03192070000000E+02,9.93445600000000E+01,,,9.88575400000000E+01,,,,,,,,,,,,1.02770990000000E+02,9.98360400000000E+01,1.03619860000000E+02,1.01360300000000E+02,,,,
GRD,,,,,,,,,,,,,,,,,,,8.38180500000000E+01,8.60610800000000E+01,,,,9.74874400000000E+01,8.63973600000000E+01,,,,,,,,,,,,,,,,7.67920500000000E+01,8.29694300000000E+01,9.47972500000000E+01,1.00881410000000E+02,,1.15492960000000E+02,,9.70669100000000E+01,1.14953270000000E+02,1.28992400000000E+02,,
GTM,,,,,,,,,,,,,,,,,3.27272700000000E+01,3.23762600000000E+01,3.38227900000000E+01,,,,,,,,,,,,,,,,,,5.25310200000000E+01,,,5.82912000000000E+01,6.29971600000000E+01,6.55074600000000E+01,6.88416400000000E+01,7.00161800000000E+01,7.47004800000000E+01,7.82596500000000E+01,8.06190000000000E+01,8.06298200000000E+01,8.32625300000000E+01,,8.67947800000000E+01,
GUY,,,,,,,,,,,,9.53709000000000E+01,8.93119000000000E+01,8.96487100000000E+01,8.89940100000000E+01,,8.33786200000000E+01,9.20100900000000E+01,8.78920400000000E+01,9.41040100000000E+01,8.60040800000000E+01,,8.92850400000000E+01,,,,,8.57026400000000E+01,,,,,8.57235400000000E+01,8.32758600000000E+01,,7.54631100000000E+01,7.67380300000000E+01,8.18814900000000E+01,,1.01681400000000E+02,1.00333830000000E+02,9.29714800000000E+01,,8.20799800000000E+01,8.36130100000000E+01,,,9.52538000000000E+01,9.29009800000000E+01,9.05875400000000E+01,8.19517300000000E+01,
HIC,,,,,,,,,,,,,,,,,,,,,,,,,,,,,,,,,,,,,,,,9.64210783800000E+01,9.74730806800000E+01,9.86730130600000E+01,9.77088184200000E+01,9.77508616500000E+01,9.82082462200000E+01,9.76848074000000E+01,9.57706036000000E+01,9.65995153100000E+01,9.64389333700000E+01,9.77142969500000E+01,,
HKG,,,,,,,,,,,,,,,,,,,,,1.00783990000000E+02,9.84048400000000E+01,9.69640000000000E+01,9.68960700000000E+01,1.01295180000000E+02,1.01420990000000E+02,,,,,,,,,,,,,,,,,,9.88742000000000E+01,9.96008300000000E+01,9.95271900000000E+01,1.01141400000000E+02,1.01591610000000E+02,9.75691400000000E+01,9.53959600000000E+01,,
HND,,,,,,,,,,,,,,,,,,,,,4.16792800000000E+01,,4.71510800000000E+01,,5.21107900000000E+01,,,,,,,6.70493100000000E+01,,6.49234000000000E+01,,,,,,,,,,,7.89853500000000E+01,7.92342100000000E+01,8.64190500000000E+01,,8.73059200000000E+01,9.09294600000000E+01,9.55719600000000E+01,
HPC,,,,,,,,,,,,,,,,,,,,,,,,,,,,,,,,4.39924913670000E+01,,,,,,,,,,,,,,,,,,,,
HRV,,,,,,,,,,,,,,,,,,,,,,,,,,,,,,,,,,,,8.15725700000000E+01,8.59855100000000E+01,8.66679600000000E+01,9.18301900000000E+01,9.22503900000000E+01,9.35106500000000E+01,9.48717000000000E+01,9.63521900000000E+01,9.21626400000000E+01,,9.46432000000000E+01,9.70699900000000E+01,1.01307290000000E+02,9.77863900000000E+01,9.47889500000000E+01,,
HTI,,,,,,,,,,,,,,,,,,,,2.75704800000000E+01,2.87900600000000E+01,,2.99838500000000E+01,3.30676800000000E+01,,3.61053300000000E+01,3.89141100000000E+01,4.04169500000000E+01,3.21599800000000E+01,3.10293300000000E+01,2.98188600000000E+01,2.85853800000000E+01,,,,,,4.84263800000000E+01,,,,,,,,,,,,,,
HUN,,,,,,,,,,,,,,,,,9.68182700000000E+01,1.00403700000000E+02,1.06289170000000E+02,1.02013810000000E+02,9.85448000000000E+01,9.22210400000000E+01,8.95605700000000E+01,9.00137900000000E+01,9.68371300000000E+01,1.09679830000000E+02,1.04044490000000E+02,1.00464510000000E+02,9.58199800000000E+01,9.20046200000000E+01,8.85185500000000E+01,,,,,,,9.92398600000000E+01,1.00058750000000E+02,9.74303700000000E+01,9.79016700000000E+01,9.91069700000000E+01,1.00590710000000E+02,9.74645900000000E+01,9.51592000000000E+01,9.48844900000000E+01,9.92868200000000E+01,9.64545900000000E+01,9.86988400000000E+01,9.78634600000000E+01,,
IDN,,,,,,,,,,,,,,,,,,,,,,,,,,,,,,,,,,,,9.83377900000000E+01,9.80515100000000E+01,1.00857410000000E+02,,,,9.23409300000000E+01,9.43556000000000E+01,9.60912300000000E+01,9.62970600000000E+01,9.59020500000000E+01,9.57389400000000E+01,1.03405630000000E+02,1.01991950000000E+02,1.04124470000000E+02,,
IND,,,,,,,,,,,,5.03488700000000E+01,,,5.33489900000000E+01,,,,,,,,,,,,,7.49619500000000E+01,7.59863200000000E+01,,,,,,,8.33382800000000E+01,,,,7.65384700000000E+01,7.89839800000000E+01,7.83568600000000E+01,8.14897800000000E+01,8.23506100000000E+01,8.70190800000000E+01,8.79520500000000E+01,8.92589400000000E+01,9.60865700000000E+01,9.62264400000000E+01,,,
IRL,,,,,,,,,,,,,,,,,,,,,,,,,,,,,,,,,1.03319950000000E+02,1.03632880000000E+02,1.01764550000000E+02,1.00755210000000E+02,,,9.54660700000000E+01,9.82567500000000E+01,9.71645200000000E+01,9.30203200000000E+01,9.54393400000000E+01,9.88789500000000E+01,9.77674800000000E+01,9.55269200000000E+01,,,,,,
IRN,,,,,,,,,,,,6.66639200000000E+01,,,,,,,,,,,,,,,,8.93155200000000E+01,8.78325500000000E+01,8.73906600000000E+01,8.93225700000000E+01,9.29910900000000E+01,9.57151500000000E+01,1.01150760000000E+02,9.90523300000000E+01,1.03421630000000E+02,,1.03163860000000E+02,,,9.48814400000000E+01,9.84705900000000E+01,9.85847700000000E+01,9.65703200000000E+01,1.01033250000000E+02,1.01637730000000E+02,1.00141150000000E+02,9.60860300000000E+01,9.94020100000000E+01,1.03541540000000E+02,,
IRQ,,,,,,,,,,,,5.61568500000000E+01,5.61192900000000E+01,6.06104300000000E+01,6.10776500000000E+01,7.16463500000000E+01,7.12756100000000E+01,8.92360400000000E+01,8.79094900000000E+01,,9.16307500000000E+01,,,6.25069400000000E+01,,6.96343000000000E+01,6.89834700000000E+01,6.13182100000000E+01,6.21234200000000E+01,6.28766000000000E+01,,,,6.26948100000000E+01,,,,,,6.22286300000000E+01,6.08598500000000E+01,6.58484500000000E+01,,9.01962100000000E+01,8.93934300000000E+01,,,7.44742000000000E+01,,,,
ISL,,,,,,,,,,,,,,,,,,,,,,,,,,,,,,,,,,,,,,,8.63153000000000E+01,8.99310300000000E+01,1.00736990000000E+02,1.09977010000000E+02,1.02664860000000E+02,1.07508830000000E+02,9.90897300000000E+01,1.02038220000000E+02,9.75272400000000E+01,9.68933700000000E+01,9.58956800000000E+01,1.00043570000000E+02,,
ISR,,,,,,,,,,,,,,,,,,,,,,,,,,,,,,,,,,,,,,,,,,,1.04540190000000E+02,1.04488460000000E+02,1.07599650000000E+02,1.04036540000000E+02,1.02197480000000E+02,1.02185420000000E+02,9.97949000000000E+01,1.02400130000000E+02,,
ITA,,,,,,,,,,,,9.75412000000000E+01,9.97038500000000E+01,9.98532200000000E+01,1.01526800000000E+02,1.08832500000000E+02,1.05609240000000E+02,1.04160000000000E+02,1.00911120000000E+02,1.00590630000000E+02,1.01886410000000E+02,9.93738100000000E+01,9.99001900000000E+01,9.95225100000000E+01,9.94047300000000E+01,1.01361580000000E+02,9.97720500000000E+01,9.87191800000000E+01,9.75888000000000E+01,9.79941100000000E+01,9.92095500000000E+01,9.78895700000000E+01,9.87088500000000E+01,,9.85609400000000E+01,1.00198100000000E+02,1.00870210000000E+02,9.74815100000000E+01,,1.01847390000000E+02,1.01799490000000E+02,1.04571650000000E+02,1.02639150000000E+02,1.02383440000000E+02,1.00161840000000E+02,9.85055600000000E+01,9.93279400000000E+01,1.01565010000000E+02,1.04419380000000E+02,1.02626470000000E+02,,
JAM,,,,,,,,,,,,,,,,,7.39477400000000E+01,7.41351600000000E+01,,7.99197800000000E+01,7.97397400000000E+01,8.03336300000000E+01,,,8.53578600000000E+01,,,8.61380900000000E+01,8.75760400000000E+01,9.05899000000000E+01,9.24103100000000E+01,9.04954100000000E+01,,8.95004000000000E+01,,,,,,,8.55164400000000E+01,7.90064800000000E+01,8.53029400000000E+01,,8.68802600000000E+01,8.54404800000000E+01,,8.33231900000000E+01,,7.48541600000000E+01,,
JOR,,,,,,,,,,,,,8.06657800000000E+01,8.78863000000000E+01,1.02208620000000E+02,1.11596950000000E+02,1.10092830000000E+02,1.09621970000000E+02,1.08973780000000E+02,1.06919580000000E+02,1.05403060000000E+02,1.01849560000000E+02,1.00210160000000E+02,9.54959800000000E+01,9.88173500000000E+01,9.93331000000000E+01,,8.92518000000000E+01,9.25358700000000E+01,9.42640200000000E+01,9.71123600000000E+01,1.00810260000000E+02,1.03156240000000E+02,1.01540050000000E+02,1.05558290000000E+02,,9.72853200000000E+01,,,9.13049800000000E+01,9.27927400000000E+01,,9.31513900000000E+01,9.74465500000000E+01,1.00051610000000E+02,1.04310880000000E+02,1.01464180000000E+02,1.03605430000000E+02,1.01329140000000E+02,,,
JPN,,,,,,,,,,,,1.04479680000000E+02,1.01246240000000E+02,9.90180400000000E+01,9.83682200000000E+01,9.79542400000000E+01,9.79006300000000E+01,1.01336710000000E+02,9.72869700000000E+01,8.92473900000000E+01,1.04055600000000E+02,1.03591680000000E+02,1.00416120000000E+02,9.96065900000000E+01,1.00146390000000E+02,1.00182480000000E+02,1.00316340000000E+02,9.90850400000000E+01,9.67737300000000E+01,9.73706000000000E+01,1.00448080000000E+02,1.02241530000000E+02,1.02365850000000E+02,,9.99602600000000E+01,,,,1.02098990000000E+02,,,,,,,,,,,1.02528590000000E+02,,
KAZ,,,,,,,,,,,,,,,,,,,,,,,,,,,,,,,,,,,1.02813940000000E+02,,,,,,9.22018500000000E+01,9.51547600000000E+01,9.62001800000000E+01,9.77361300000000E+01,1.04555230000000E+02,1.06251600000000E+02,1.03077840000000E+02,1.00826000000000E+02,1.05506230000000E+02,1.07593740000000E+02,1.09956390000000E+02,
KEN,,,,,,,,,,,5.95535100000000E+01,6.12250100000000E+01,6.43888700000000E+01,6.51675000000000E+01,,,,7.44760000000000E+01,7.48727400000000E+01,,9.08835400000000E+01,8.82421900000000E+01,,,,,,,,,,,,,,,,,,,,,,,8.99992000000000E+01,9.16782400000000E+01,,,,,,
KGZ,,,,,,,,,,,,,,,,,,,,,,,,,,,,,,,,,,,,,,,,9.37392000000000E+01,9.39775000000000E+01,9.42404100000000E+01,9.48438600000000E+01,9.13283700000000E+01,9.33830400000000E+01,9.84393700000000E+01,1.01989380000000E+02,9.76657200000000E+01,9.53143800000000E+01,9.68113900000000E+01,9.64973500000000E+01,
KHM,,,,,,,,,,,,,,,,,,,,,,,,,,,,,,,,,,,,4.98850200000000E+01,,1.98435000000000E+01,3.61306700000000E+01,4.63010200000000E+01,,5.71503900000000E+01,6.35160400000000E+01,6.90354400000000E+01,7.96973100000000E+01,8.80375100000000E+01,9.03028900000000E+01,9.12208400000000E+01,8.66037700000000E+01,8.46363100000000E+01,8.72677100000000E+01,
KIR,,,,,,,,,,,,,,,,,,,,,,,,,,,,,,,1.00367200000000E+02,,,,,1.07157890000000E+02,,,,1.08003680000000E+02,1.03426510000000E+02,1.17008010000000E+02,1.08699470000000E+02,1.18434780000000E+02,1.14900950000000E+02,1.17887560000000E+02,,,,,,
KNA,,,,,,,,,,,,,,,,,,,,,,,,,,,,,,,,,1.31991530000000E+02,,,,,,,,9.77131000000000E+01,1.01063830000000E+02,1.12061400000000E+02,1.09009010000000E+02,1.07638890000000E+02,1.08490570000000E+02,,9.17226000000000E+01,8.39479400000000E+01,9.20000000000000E+01,8.87063700000000E+01,
KOR,,,,,,,,,,,,9.47127300000000E+01,9.64467300000000E+01,1.05286140000000E+02,1.03241020000000E+02,1.03538490000000E+02,1.06974430000000E+02,9.99800800000000E+01,9.90338700000000E+01,1.01135520000000E+02,9.76396500000000E+01,1.03364960000000E+02,1.00463270000000E+02,1.02467780000000E+02,1.08327480000000E+02,1.04752180000000E+02,1.02157800000000E+02,1.01637280000000E+02,9.72636300000000E+01,9.36393000000000E+01,9.85314100000000E+01,9.89530300000000E+01,1.10981700000000E+02,1.11101660000000E+02,1.13017450000000E+02,1.10804310000000E+02,,,9.59448100000000E+01,1.03325650000000E+02,1.03610100000000E+02,1.00705070000000E+02,9.56472400000000E+01,1.01797190000000E+02,1.01676700000000E+02,1.00425760000000E+02,1.01428520000000E+02,1.02258230000000E+02,1.00304970000000E+02,1.00416270000000E+02,,
KWT,,,,,,,,,,,,6.62032300000000E+01,6.06540500000000E+01,6.01685300000000E+01,5.55068200000000E+01,6.35107300000000E+01,8.58521800000000E+01,7.06187000000000E+01,7.66177500000000E+01,8.11395100000000E+01,8.60778200000000E+01,9.89803500000000E+01,9.76657800000000E+01,9.84939900000000E+01,9.69013300000000E+01,9.70115200000000E+01,9.59627200000000E+01,9.62411700000000E+01,,,,,5.79055400000000E+01,,8.07748800000000E+01,6.66591600000000E+01,1.02090400000000E+02,1.00259950000000E+02,,1.03114580000000E+02,1.01326170000000E+02,8.93464700000000E+01,9.76251300000000E+01,1.01471580000000E+02,1.04237380000000E+02,1.18082150000000E+02,1.02790570000000E+02,1.10158040000000E+02,,,,
LAC,,,,,,,,,,,,,,,,,,,,,,,,,,,,,,,,8.38964272350000E+01,,,,,,,9.64641300000000E+01,9.56900202500000E+01,9.71394053800000E+01,9.75574851900000E+01,9.86440249400000E+01,9.78257394000000E+01,9.72062134700000E+01,9.81126510700000E+01,9.93038796300000E+01,1.00295485600000E+02,1.00557240400000E+02,1.01028519800000E+02,,
LAO,,,,,,,,,,,,,,,,,,,,,,,,,,,,,,,,,4.61056600000000E+01,4.88548000000000E+01,5.54097400000000E+01,,6.39144800000000E+01,6.76463100000000E+01,7.11605300000000E+01,7.73977600000000E+01,7.51397500000000E+01,7.43284300000000E+01,7.38440900000000E+01,7.31944200000000E+01,7.36219900000000E+01,7.58139800000000E+01,8.03574600000000E+01,8.18835500000000E+01,8.33442700000000E+01,,,
LBN,,,,,,,,,,,,,,,,,,,,,,,,,,,,,,,,,,,,,,,8.63114200000000E+01,1.00051830000000E+02,,,,,,,8.29449000000000E+01,8.34910800000000E+01,8.48616900000000E+01,8.29345900000000E+01,8.51905600000000E+01,
LBR,,,,,,,,,,,,,,,,,,,3.63272900000000E+01,,,,,,,,,,,,,,,,,,,,,,,,,,,,,7.48520300000000E+01,6.74111800000000E+01,,,
LBY,,,,,,,,,,,,6.62384500000000E+01,1.14624090000000E+02,9.53883600000000E+01,1.15235390000000E+02,1.34378550000000E+02,1.26495280000000E+02,1.23113150000000E+02,1.18137720000000E+02,1.10364400000000E+02,9.97111600000000E+01,9.92879100000000E+01,,1.04009670000000E+02,,,,,,,,,,,,,,,,,,,,,,,,,,,,
LCA,,,,,,,,,,,,,,,,,,,,,,,,9.67141300000000E+01,9.29120900000000E+01,,,,,,1.24235010000000E+02,1.20595530000000E+02,,1.26116630000000E+02,,,,,,1.02555170000000E+02,9.75848200000000E+01,1.06157350000000E+02,1.03287980000000E+02,1.06451610000000E+02,1.06285390000000E+02,1.01880340000000E+02,1.07879490000000E+02,1.13507110000000E+02,9.71445900000000E+01,9.96266300000000E+01,9.21606100000000E+01,
LCN,,,,,,,,,,,,,,,,,,,,,,,,,,,,,,,,8.39406192345000E+01,,,,,,,,9.47810392588961E+01,9.61558997901688E+01,9.68064058683217E+01,9.78588383204704E+01,9.70229173465921E+01,9.63933742888483E+01,9.72519453302619E+01,9.84071146551013E+01,9.93975037733080E+01,9.96534236464938E+01,1.00126788973667E+02,,
LIC,,,,,,,,,,,,,,,,,,,,,,,,,,,,,,,,,,,,,,,,5.25767253500000E+01,5.41937571200000E+01,5.54469858000000E+01,5.71290522000000E+01,5.83288647100000E+01,5.95710176400000E+01,6.16252487000000E+01,6.25806958700000E+01,6.33341367100000E+01,6.50576165400000E+01,6.81146130000000E+01,,
LIE,,,,,,,,,,,,,,,,,,,,,,,,,,,,,,,,,,,,,,,,,,,,8.41880300000000E+01,1.14917130000000E+02,,9.51690800000000E+01,1.03004290000000E+02,1.05882350000000E+02,9.23766800000000E+01,,
LKA,,,,,,,,,,,6.53020800000000E+01,,,,,,,,,,,,,8.04633100000000E+01,,8.35479100000000E+01,8.34644000000000E+01,8.92780600000000E+01,,9.56834900000000E+01,9.75466000000000E+01,1.01387970000000E+02,1.02411800000000E+02,,,,,,9.54053400000000E+01,,,1.07707930000000E+02,,,,1.04960670000000E+02,1.03216310000000E+02,1.01699810000000E+02,9.61259600000000E+01,9.51695900000000E+01,,
LMC,,,,,,,,,,,,,,,,,,,,,,,,,,,,,,,,7.64221846936000E+01,,,,,,,,7.79331252300000E+01,7.91321598100000E+01,7.92646743900000E+01,8.08903516900000E+01,8.18993809300000E+01,8.50915367800000E+01,8.63886437900000E+01,8.67483887100000E+01,8.97792823600000E+01,8.98250465400000E+01,8.99898331700000E+01,,
LSO,,,,,,,,,,,,,2.69625100000000E+01,2.82555800000000E+01,3.42655400000000E+01,3.57625800000000E+01,3.36736100000000E+01,3.00814600000000E+01,2.92938900000000E+01,2.96098700000000E+01,2.89372000000000E+01,3.06039800000000E+01,3.11146600000000E+01,3.34458000000000E+01,3.54145400000000E+01,3.60238400000000E+01,3.57947300000000E+01,3.68942200000000E+01,3.90790600000000E+01,4.01644000000000E+01,4.14319500000000E+01,4.17534600000000E+01,4.47454500000000E+01,4.52140500000000E+01,4.78806000000000E+01,,5.18972400000000E+01,,5.14902900000000E+01,5.21439500000000E+01,5.03359900000000E+01,5.24947000000000E+01,5.25891100000000E+01,5.43997000000000E+01,5.51956200000000E+01,4.96034900000000E+01,6.24948600000000E+01,6.01601900000000E+01,5.84175200000000E+01,5.77351700000000E+01,6.03869500000000E+01,
LTU,,,,,,,,,,,,,,,,,,,,,,,,,,,,,,,,,,,,9.31563300000000E+01,9.70051900000000E+01,1.00981940000000E+02,,9.77509700000000E+01,9.77264700000000E+01,1.03833020000000E+02,1.05145010000000E+02,1.06570760000000E+02,1.00678440000000E+02,9.21360500000000E+01,9.29761500000000E+01,9.53848400000000E+01,9.19800000000000E+01,9.74948500000000E+01,,
LUX,,,,,,,,,,,,,,,,8.34707600000000E+01,8.38891000000000E+01,8.56661700000000E+01,8.19133000000000E+01,8.20733500000000E+01,,,,7.93959500000000E+01,,,,,,,,,,,,,,,,,,8.16226415094340E+01,8.36083608360836E+01,8.28052687789249E+01,8.17710134901418E+01,7.74443695212407E+01,8.24520819563781E+01,8.00065125366330E+01,8.25330325491460E+01,,,
LVA,,,,,,,,,,,,,,,,,,,,,,,,,,,,,,,,,,,,,,,,9.14545900000000E+01,9.35432700000000E+01,9.80646600000000E+01,9.81503000000000E+01,1.04140700000000E+02,9.93051400000000E+01,9.55335600000000E+01,9.30069300000000E+01,9.57674900000000E+01,9.34279600000000E+01,9.21188600000000E+01,,
MAC,,,,,,,,,,,,,,,,,,,,,,,,,,,,,,,9.72675200000000E+01,,8.98298500000000E+01,9.26408500000000E+01,,,,,,9.94391600000000E+01,9.34671000000000E+01,9.56138300000000E+01,9.76496200000000E+01,9.79056300000000E+01,1.02235670000000E+02,9.42652300000000E+01,1.00376050000000E+02,9.90560300000000E+01,9.66462400000000E+01,9.72250800000000E+01,9.54115100000000E+01,
MAR,,,,,,,,,,,,,,3.58299800000000E+01,3.65403600000000E+01,3.89062800000000E+01,,4.46446900000000E+01,4.91836600000000E+01,5.31148600000000E+01,5.67168500000000E+01,5.79015800000000E+01,6.06063100000000E+01,6.15162800000000E+01,6.24294100000000E+01,7.13549000000000E+01,6.81938900000000E+01,6.69490800000000E+01,6.33303100000000E+01,5.42115800000000E+01,6.07041200000000E+01,5.67522000000000E+01,5.44778900000000E+01,5.42233500000000E+01,5.36180900000000E+01,5.53809300000000E+01,5.57731500000000E+01,5.66212100000000E+01,5.89166700000000E+01,6.09605700000000E+01,6.37393000000000E+01,6.46150200000000E+01,6.73012500000000E+01,7.06542100000000E+01,7.82268000000000E+01,8.33849000000000E+01,8.74782900000000E+01,8.73027300000000E+01,8.50438000000000E+01,8.38469900000000E+01,8.73634400000000E+01,
MCO,,,,,,,,,,,,,,,,,,,,,,,,,,,,,,,,,,,,,,,,,,,,,,,,,,1.32876710000000E+02,,
MDA,,,,,,,,,,,,,,,,,,,,,,,,,,,,,,,,,,,,9.41938100000000E+01,,,,9.43082400000000E+01,,9.69942800000000E+01,9.78561300000000E+01,9.55825600000000E+01,9.59529200000000E+01,9.95629100000000E+01,9.83962100000000E+01,9.29544400000000E+01,9.22370300000000E+01,9.41035700000000E+01,,
MDG,,,,,,,,,,,,3.04898800000000E+01,3.37142500000000E+01,3.18987100000000E+01,,3.44343600000000E+01,,,,,,,,,,,,,3.67455400000000E+01,3.61141700000000E+01,3.62918600000000E+01,3.49748200000000E+01,3.30671300000000E+01,3.39649500000000E+01,3.07560800000000E+01,3.17533400000000E+01,3.11235800000000E+01,,3.16707600000000E+01,3.37810400000000E+01,3.69407600000000E+01,3.61432200000000E+01,3.63403700000000E+01,4.02202300000000E+01,4.59608600000000E+01,5.93120300000000E+01,5.82924100000000E+01,6.28098600000000E+01,6.91078000000000E+01,7.56531400000000E+01,7.16864000000000E+01,
MDV,,,,,,,,,,,,,,,,,,,,,,,,,,,,,,,,,,,,,,,,,,,,1.43247160000000E+02,1.50036760000000E+02,1.41460370000000E+02,1.33177330000000E+02,,1.16614150000000E+02,1.25899060000000E+02,,
MEA,,,,,,,,,,,,,,,,,,,,,,,,,,,,,,,,8.19437954330000E+01,,,,,,,,8.73089499134318E+01,8.66429946486872E+01,8.81244138496341E+01,8.88253941740412E+01,9.11564999641544E+01,9.28417577336222E+01,9.42010505491008E+01,9.21580565761809E+01,9.19996399976310E+01,9.41559850148785E+01,9.08564611031560E+01,,
MEX,,,,,,,,,,,,,,,,7.08482800000000E+01,7.27873600000000E+01,7.75624000000000E+01,,,,,,,,,,,,,,,,9.13073800000000E+01,9.32181600000000E+01,9.63784800000000E+01,9.89000100000000E+01,9.96130100000000E+01,,9.83622200000000E+01,9.83738900000000E+01,9.81764700000000E+01,9.87447800000000E+01,9.81592900000000E+01,9.86548000000000E+01,9.86659200000000E+01,1.00072840000000E+02,1.03083450000000E+02,1.03879180000000E+02,1.03719400000000E+02,,
MHL,,,,,,,,,,,,,,,,,,,,,,,,,,,,,,,,,,,,,,,,1.00364960000000E+02,,,1.10917030000000E+02,1.09120520000000E+02,,1.16184970000000E+02,1.13127410000000E+02,1.13396230000000E+02,1.14337570000000E+02,1.06518010000000E+02,,
MKD,,,,,,,,,,,,,,,,,,,,,,,,,,,,,,,,,,,,9.58044800000000E+01,9.91799400000000E+01,9.89202300000000E+01,,1.05506590000000E+02,1.00924230000000E+02,9.96565700000000E+01,9.80771600000000E+01,9.56867100000000E+01,9.34437500000000E+01,9.42257200000000E+01,9.42838300000000E+01,9.28124600000000E+01,9.15171100000000E+01,9.16172400000000E+01,,
MLI,,,,,,,,,,,,,,,,,,,,1.71552500000000E+01,,1.47924800000000E+01,,,1.43726400000000E+01,1.38450300000000E+01,,1.25340700000000E+01,1.22204700000000E+01,,,,,,,,,,,,3.57297100000000E+01,4.12901800000000E+01,4.11684500000000E+01,4.45516200000000E+01,4.65359200000000E+01,4.80890000000000E+01,5.34970800000000E+01,5.63619300000000E+01,5.77381700000000E+01,5.82775200000000E+01,6.07674500000000E+01,
MLT,,,,,,,,,,,,1.09655390000000E+02,1.18032790000000E+02,1.16079730000000E+02,1.22050750000000E+02,1.07975900000000E+02,8.31369700000000E+01,9.75403500000000E+01,9.25463300000000E+01,1.00378790000000E+02,1.07572480000000E+02,1.26096400000000E+02,1.12658760000000E+02,1.07390950000000E+02,9.67569600000000E+01,1.10105030000000E+02,1.09790940000000E+02,1.13172230000000E+02,1.00538180000000E+02,1.04626220000000E+02,1.02648340000000E+02,9.88941000000000E+01,1.02577840000000E+02,1.02947090000000E+02,1.04559170000000E+02,1.02722690000000E+02,1.00641240000000E+02,1.03531410000000E+02,1.01094770000000E+02,9.62784700000000E+01,9.84080600000000E+01,9.87760500000000E+01,1.00269910000000E+02,9.93791000000000E+01,9.74902800000000E+01,9.52139200000000E+01,,9.66348000000000E+01,1.00551400000000E+02,9.29967400000000E+01,,
MMR,,,,,,,,,,,,4.31983300000000E+01,4.12575500000000E+01,5.10192700000000E+01,4.73229000000000E+01,,,,,,,,,,,,,,,,,,,,,,,,,7.59116500000000E+01,8.26288200000000E+01,8.10614800000000E+01,8.21303300000000E+01,8.50889300000000E+01,8.83106900000000E+01,,,9.33526200000000E+01,9.76713100000000E+01,9.87002300000000E+01,1.01058240000000E+02,
MNA,,,,,,,,,,,,,,,,,,,,,,,,,,,,,,,,,,,,,,,,8.74813275400000E+01,8.66635519200000E+01,8.82737328300000E+01,8.88665656600000E+01,9.12800646600000E+01,9.29602984900000E+01,9.43309049200000E+01,9.18889131300000E+01,9.14125427100000E+01,9.37067990600000E+01,9.09254903200000E+01,,
MNG,,,,,,,,,,,,,,,,,,,,,,,,,,,,,,,,,,,,7.14218100000000E+01,7.78884100000000E+01,7.53544500000000E+01,8.89098100000000E+01,8.38576500000000E+01,8.35243600000000E+01,8.85927100000000E+01,9.70106000000000E+01,9.88512200000000E+01,9.77000500000000E+01,9.46230800000000E+01,1.09774740000000E+02,1.06964800000000E+02,,,1.05255610000000E+02,
MOZ,,,,,,,,,,,,,,1.15237200000000E+01,,,,,,,,,4.82211800000000E+01,3.70593700000000E+01,4.29950700000000E+01,4.18332700000000E+01,5.22763500000000E+01,3.93843300000000E+01,3.19574000000000E+01,3.09522200000000E+01,3.21941100000000E+01,3.16936600000000E+01,2.93115500000000E+01,2.95164600000000E+01,3.08205600000000E+01,3.15169800000000E+01,,,,1.69961500000000E+01,1.97962800000000E+01,2.34384800000000E+01,2.73698900000000E+01,,3.53288800000000E+01,4.90172800000000E+01,4.84519500000000E+01,5.25146800000000E+01,6.61194400000000E+01,6.24318400000000E+01,6.56573600000000E+01,
MRT,,,,,,,,,,,,,,,,,1.45462000000000E+01,1.51508300000000E+01,1.74704400000000E+01,2.20559900000000E+01,,3.43141600000000E+01,,,,3.79469200000000E+01,3.99078700000000E+01,4.30360300000000E+01,4.78760300000000E+01,4.26858400000000E+01,3.59681200000000E+01,3.89503800000000E+01,3.72849400000000E+01,3.77837500000000E+01,3.75997200000000E+01,3.89190600000000E+01,3.89937700000000E+01,4.36728000000000E+01,4.82683900000000E+01,,,4.86177900000000E+01,4.52446000000000E+01,,,4.41906700000000E+01,4.53720600000000E+01,5.66718500000000E+01,6.15705600000000E+01,,7.36421600000000E+01,
MUS,,,,,,,,,,,,,,,,,,,,,,,,8.81135400000000E+01,7.93893800000000E+01,9.32663900000000E+01,1.23667240000000E+02,1.00284850000000E+02,1.01755850000000E+02,6.63849000000000E+01,1.13797360000000E+02,1.14558720000000E+02,1.09497910000000E+02,1.03414440000000E+02,9.84472400000000E+01,9.57472200000000E+01,9.18905500000000E+01,9.13752000000000E+01,9.12192200000000E+01,9.19375300000000E+01,9.62425700000000E+01,9.63550500000000E+01,9.54417200000000E+01,9.77358500000000E+01,9.36149500000000E+01,9.50394500000000E+01,9.06609700000000E+01,9.24445700000000E+01,9.31296200000000E+01,9.09269600000000E+01,9.57211400000000E+01,
MWI,,,,,,,,,,,,,,,2.73752100000000E+01,2.95186500000000E+01,3.26132600000000E+01,3.80498300000000E+01,3.77266400000000E+01,4.01722900000000E+01,4.03431900000000E+01,4.31894300000000E+01,4.57191600000000E+01,4.17050200000000E+01,3.93551600000000E+01,3.98003300000000E+01,3.73887600000000E+01,3.63307300000000E+01,2.90979900000000E+01,2.97867000000000E+01,3.18953200000000E+01,3.46730700000000E+01,3.76860600000000E+01,4.12466100000000E+01,4.40874100000000E+01,5.87265000000000E+01,6.95906600000000E+01,,,7.14903600000000E+01,6.90850300000000E+01,6.73255400000000E+01,7.09743100000000E+01,,5.97854600000000E+01,5.90730700000000E+01,5.82096900000000E+01,5.87666500000000E+01,6.38111700000000E+01,6.45114900000000E+01,6.54483400000000E+01,
MYS,,,,,,,,,,,,,,,9.21341500000000E+01,,,,,,9.39172700000000E+01,9.06205000000000E+01,9.06366900000000E+01,9.41268800000000E+01,9.32627900000000E+01,9.21203900000000E+01,,9.32408500000000E+01,9.43592000000000E+01,9.22925200000000E+01,8.99447600000000E+01,9.12105200000000E+01,9.13432500000000E+01,9.23070200000000E+01,,,,,9.51734700000000E+01,9.56382000000000E+01,,,9.26072700000000E+01,9.26812100000000E+01,,,,,,,,
NAC,,,,,,,,,,,,,,,,,,,,,,,,,,,,,,,,,,,,,,,,9.57912758025728E+01,9.81343239819034E+01,9.98039023944059E+01,9.80690545098685E+01,9.73414664744419E+01,9.92246327434499E+01,9.94519646495970E+01,9.42586843846789E+01,9.48096494898986E+01,9.42031366975099E+01,9.84750756760379E+01,,
NAM,,,,,,,,,,,,,,,,,,,,,,,,,,,,,,,,,6.74121100000000E+01,,6.79818600000000E+01,,,,9.14361600000000E+01,8.98592500000000E+01,8.54331200000000E+01,9.00937300000000E+01,8.69326600000000E+01,8.81460500000000E+01,8.04184900000000E+01,8.12909800000000E+01,7.79109900000000E+01,7.71267300000000E+01,7.33805100000000E+01,7.97426700000000E+01,,
NER,,,,,,,,,,,,7.80385000000000E+00,9.14360000000000E+00,9.08293000000000E+00,8.72204000000000E+00,9.26873000000000E+00,1.01395800000000E+01,1.06922100000000E+01,1.27869000000000E+01,1.13944600000000E+01,1.63649000000000E+01,1.82828200000000E+01,2.19208300000000E+01,2.33708900000000E+01,2.53300500000000E+01,2.45581900000000E+01,2.71268500000000E+01,2.75629800000000E+01,,1.75535300000000E+01,2.04234700000000E+01,2.12586100000000E+01,2.22286400000000E+01,1.87083200000000E+01,,1.68364600000000E+01,1.39977700000000E+01,2.15065000000000E+01,,2.46231000000000E+01,2.23081700000000E+01,2.34677200000000E+01,2.52090800000000E+01,2.40296500000000E+01,3.20039600000000E+01,3.53897200000000E+01,3.84807500000000E+01,4.70350500000000E+01,4.46491400000000E+01,4.76055800000000E+01,4.65574900000000E+01,
NGA,,,,,,,,,,,,,,,,,,,,,,,,,,,,,,,,,,,,,,,,,,,,8.39943900000000E+01,8.70479500000000E+01,9.04244000000000E+01,9.89090900000000E+01,8.98668200000000E+01,7.52633200000000E+01,7.61678900000000E+01,7.88420800000000E+01,
NIC,,,,,,,,,,,2.41251400000000E+01,2.74062000000000E+01,2.76394800000000E+01,2.97748700000000E+01,,,,3.18076400000000E+01,3.16177600000000E+01,2.77754600000000E+01,3.02010400000000E+01,,2.73445100000000E+01,2.73812800000000E+01,2.53172400000000E+01,2.64772800000000E+01,3.27237500000000E+01,4.04979700000000E+01,4.05364100000000E+01,,,,,4.33950100000000E+01,4.88564200000000E+01,4.51286900000000E+01,,,,6.46133900000000E+01,6.23945200000000E+01,6.22059900000000E+01,6.93735400000000E+01,6.86467100000000E+01,6.86652500000000E+01,7.13974500000000E+01,7.21200100000000E+01,7.28305900000000E+01,7.22569700000000E+01,,7.79988200000000E+01,
NLD,,,,,,,,,,,,9.58025800000000E+01,9.41911600000000E+01,9.38517100000000E+01,9.31746500000000E+01,9.34565900000000E+01,9.35325400000000E+01,9.26642300000000E+01,9.07884300000000E+01,9.05777000000000E+01,9.11428900000000E+01,9.50377300000000E+01,9.66424100000000E+01,9.63804300000000E+01,9.46160500000000E+01,9.06169300000000E+01,,,,,,,,,,,,,,1.00602370000000E+02,9.91787200000000E+01,9.95018400000000E+01,1.02102400000000E+02,,,,,,,,,
NOC,,,,,,,,,,,,,,,,,,,,,,,,,,,,,,,,,,,,,,,,8.11189256554228E+01,8.17397773077552E+01,8.22985500074284E+01,8.36525863703969E+01,8.46540041953908E+01,8.55205334084296E+01,8.65310011671380E+01,8.77635940067232E+01,8.98494987747445E+01,9.04564573525444E+01,8.42636053652723E+01,,
NOR,,,,,,,,,,,,9.45491900000000E+01,,9.72894400000000E+01,9.85293200000000E+01,9.93030300000000E+01,9.87765800000000E+01,1.02211760000000E+02,1.02248590000000E+02,1.01092670000000E+02,9.85993600000000E+01,9.95114200000000E+01,9.99537700000000E+01,,9.86427500000000E+01,9.90329300000000E+01,9.83011500000000E+01,9.76031200000000E+01,9.63091300000000E+01,9.55948800000000E+01,9.52034700000000E+01,9.99141600000000E+01,1.01911650000000E+02,1.01848790000000E+02,,,,,9.79454000000000E+01,9.82346900000000E+01,9.72391200000000E+01,1.01374670000000E+02,1.02987840000000E+02,1.03393240000000E+02,1.02741120000000E+02,1.00744910000000E+02,9.67469400000000E+01,9.72087600000000E+01,9.84596200000000E+01,1.00604610000000E+02,,
NPL,,,,,,,,,,,,,,,,,,,,,,,,,,,,,,,,,7.01859600000000E+01,,,,,,,7.13643500000000E+01,7.40874500000000E+01,7.15901400000000E+01,7.64506200000000E+01,,,,,,,,,
NZL,,,,,,,,,,,1.03225390000000E+02,1.03452250000000E+02,1.05653040000000E+02,1.05335210000000E+02,1.03037380000000E+02,1.00562930000000E+02,9.89179600000000E+01,9.85779300000000E+01,9.90330700000000E+01,1.02251660000000E+02,,,,,,,,,,,,,,,,,,,,,,,,,,,,,,,,
OEC,,,,,,,,,,,,,,,,,,,,,,,,,,,,,,,,,,,,,,,,9.76299453779637E+01,9.87345366270258E+01,1.00002091691966E+02,9.88613936641183E+01,9.88329466556860E+01,9.92658039932165E+01,9.86216249523588E+01,9.64490130184549E+01,9.71767550436080E+01,9.69558406020139E+01,9.88873668646157E+01,,
OMN,,,,,,,,,,,,,,,2.14658000000000E+00,7.12241000000000E+00,1.15568200000000E+01,,2.67715300000000E+01,3.29961000000000E+01,,,,4.52562100000000E+01,5.09047300000000E+01,4.89305900000000E+01,5.07812500000000E+01,5.33051200000000E+01,5.94971500000000E+01,6.69052000000000E+01,6.72226900000000E+01,,7.80226500000000E+01,,7.45090700000000E+01,7.74508000000000E+01,7.78464800000000E+01,7.87047700000000E+01,8.07672200000000E+01,7.85770900000000E+01,7.83397700000000E+01,7.95077600000000E+01,8.71666200000000E+01,9.23819600000000E+01,,,,,,1.02134550000000E+02,1.00320730000000E+02,
PAK,,,,,,,,,,,,,,,,,,,,,,,,,,,,,,,,,,,,,,,,,,,,,,7.15935700000000E+01,6.91466800000000E+01,6.75320800000000E+01,6.78685200000000E+01,7.01297300000000E+01,7.45439200000000E+01,
PAN,,,,,,,,,,,6.57851700000000E+01,7.02832500000000E+01,7.36508500000000E+01,7.93932600000000E+01,8.25980700000000E+01,8.64994300000000E+01,9.64978900000000E+01,9.38460900000000E+01,8.96540600000000E+01,8.85164600000000E+01,8.30771600000000E+01,8.23315700000000E+01,7.96985700000000E+01,8.20458900000000E+01,8.00908000000000E+01,8.15433400000000E+01,8.26404100000000E+01,8.40895800000000E+01,8.35287600000000E+01,8.56979700000000E+01,,,,,,,,,,9.18487100000000E+01,9.44603700000000E+01,9.46455000000000E+01,9.51764700000000E+01,9.59955100000000E+01,9.66493400000000E+01,9.65545500000000E+01,9.36688100000000E+01,9.75073800000000E+01,1.00935000000000E+02,1.01158430000000E+02,9.66387800000000E+01,
PER,,,,,,,,,,,6.50237500000000E+01,,,,,,,8.93396400000000E+01,8.82841500000000E+01,8.83795800000000E+01,8.49264400000000E+01,8.36310600000000E+01,,,,,,,,,,,,,,8.97489800000000E+01,,,1.00471760000000E+02,1.06091380000000E+02,1.04789700000000E+02,9.97069600000000E+01,9.86388100000000E+01,1.02743160000000E+02,1.02160860000000E+02,1.01393100000000E+02,1.01992610000000E+02,1.03608420000000E+02,1.01749890000000E+02,9.82263500000000E+01,,
PHL,,,,,,,,,,,,,,,,,,,,,,8.30492300000000E+01,,8.64865100000000E+01,8.72815300000000E+01,8.54973800000000E+01,8.31168200000000E+01,8.36566500000000E+01,8.38837600000000E+01,8.53290100000000E+01,,,,,,,,,8.25593100000000E+01,8.43311600000000E+01,,9.65374400000000E+01,9.16138800000000E+01,9.23115300000000E+01,9.12992800000000E+01,9.06903300000000E+01,8.84214400000000E+01,8.89446300000000E+01,8.94703200000000E+01,8.90214300000000E+01,,
PLW,,,,,,,,,,,,,,,,,,,,,,,,,,,,,,,,,,,,,,,,1.09195400000000E+02,1.06741570000000E+02,,,,,,,,,,,
PNG,,,,,,,,,,,,,,,,,,,,,,,,,,,,5.06090800000000E+01,5.45679700000000E+01,5.43220800000000E+01,5.37936100000000E+01,5.08588500000000E+01,5.18896000000000E+01,5.27113200000000E+01,5.72120400000000E+01,5.58453900000000E+01,,,5.52422700000000E+01,,5.94668800000000E+01,,,,,,,,,,,
POL,,,,,,,,,,,,,,,,,,,,,,,,,,,,,,,,,,,,,,,,,,,,,,,,,,9.49402700000000E+01,,
PRT,,,,,,,,,,,,,5.36194100000000E+01,5.77480000000000E+01,6.32889500000000E+01,7.17416800000000E+01,6.45901300000000E+01,,,,,,,,,,,,,,,,,,,,,,,,,,,,1.00651240000000E+02,,,,,,,
PRY,,,,,,,,,,,4.50986100000000E+01,,4.63328100000000E+01,4.82197400000000E+01,4.91784800000000E+01,4.89831300000000E+01,4.97903300000000E+01,5.11721100000000E+01,5.15611000000000E+01,,5.47818900000000E+01,5.74264100000000E+01,6.03617700000000E+01,6.31288300000000E+01,6.48424500000000E+01,6.67969000000000E+01,6.52210400000000E+01,6.58340700000000E+01,6.52607300000000E+01,6.43754800000000E+01,6.52243600000000E+01,6.75648500000000E+01,7.07131700000000E+01,7.31806900000000E+01,7.39528300000000E+01,7.54573200000000E+01,7.97785500000000E+01,,8.99175300000000E+01,8.75463700000000E+01,9.14196400000000E+01,9.29469500000000E+01,9.30739200000000E+01,9.54234000000000E+01,9.37246100000000E+01,9.39345700000000E+01,9.35192800000000E+01,9.38499200000000E+01,9.35216500000000E+01,9.23278200000000E+01,,
PYF,,,,,,,,,,,,,,,,,,,,,,,,9.25567900000000E+01,,,,,,,,,,,,,,,,,,,,,,,,,,,,
QAT,,,,,,,,,,,,6.86131400000000E+01,6.85690700000000E+01,6.58885500000000E+01,6.03163700000000E+01,5.99874000000000E+01,6.65315600000000E+01,6.56366500000000E+01,7.37334000000000E+01,6.59049400000000E+01,6.22422700000000E+01,6.06953000000000E+01,6.81279600000000E+01,,7.42458500000000E+01,7.64447700000000E+01,7.20042000000000E+01,6.38347100000000E+01,7.02627500000000E+01,6.88401600000000E+01,6.74626900000000E+01,7.06794100000000E+01,6.20638100000000E+01,6.37512100000000E+01,6.60637800000000E+01,5.93582900000000E+01,5.02030700000000E+01,,8.37536200000000E+01,8.77530600000000E+01,,,,1.07946730000000E+02,,9.74568200000000E+01,8.99771800000000E+01,1.06143650000000E+02,1.07118060000000E+02,9.91867400000000E+01,,
ROM,,,,,,,,,,,,,,,,,,,,,,,,,,,,,,,9.62796200000000E+01,,,7.71675400000000E+01,,,,,,9.43624000000000E+01,9.51958200000000E+01,9.51880200000000E+01,9.23214200000000E+01,9.76352800000000E+01,1.03077430000000E+02,1.06479720000000E+02,1.00249160000000E+02,1.14854520000000E+02,9.12175700000000E+01,9.10728800000000E+01,,
RUS,,,,,,,,,,,,,,,,,,,,,,,,,,,,,,,,,,,9.21592000000000E+01,9.10342100000000E+01,,,,,,,,,,,,,,,,
RWA,,,,,,,,,,,,2.85105400000000E+01,3.03715600000000E+01,3.18550700000000E+01,3.28958600000000E+01,3.33198100000000E+01,,3.34940800000000E+01,,,3.87025100000000E+01,5.01563600000000E+01,5.01176200000000E+01,4.83816100000000E+01,5.07532900000000E+01,5.25193400000000E+01,4.95169600000000E+01,4.87033500000000E+01,5.02050400000000E+01,5.10453600000000E+01,5.04197900000000E+01,5.05603400000000E+01,5.48456600000000E+01,,,,,,,3.07423500000000E+01,2.47256400000000E+01,2.56946000000000E+01,3.06914000000000E+01,4.04106500000000E+01,4.05585800000000E+01,,,,4.91062300000000E+01,6.46281200000000E+01,6.54270500000000E+01,
SAS,,,,,,,,,,,,,,,,,,,,,,,,,,,,,,,,7.48156617180000E+01,,,,,,,,7.24378269600000E+01,7.44184294700000E+01,7.38768188200000E+01,7.62384000100000E+01,7.68790327200000E+01,8.09575452100000E+01,8.22031714000000E+01,8.22283877800000E+01,8.66161623200000E+01,8.63932356000000E+01,8.70496134800000E+01,,
SAU,,,,,,,,,,,,,,,,,,,,4.73446700000000E+01,,,,,,,,,,,,,,,,,,,,,,,,,,9.03179800000000E+01,,9.45500500000000E+01,9.86871100000000E+01,8.99302100000000E+01,9.44242800000000E+01,
SDN,,,,,,,,,,,,1.23269800000000E+01,3.31171300000000E+01,,,,,,,,,,,,,,,,,,,,,,,,,,,3.85834600000000E+01,3.85732400000000E+01,4.09391500000000E+01,4.31279400000000E+01,4.66777200000000E+01,,,,5.22264900000000E+01,5.42665200000000E+01,,,
SEN,,,,,,,,,,,,3.66501400000000E+01,3.58862600000000E+01,,,,,,3.84010000000000E+01,4.00600500000000E+01,3.71038600000000E+01,3.92704200000000E+01,3.98085100000000E+01,4.09950400000000E+01,4.18742600000000E+01,4.32755200000000E+01,4.61821200000000E+01,,5.19565700000000E+01,5.31233300000000E+01,5.14743200000000E+01,,4.77109700000000E+01,,4.70799200000000E+01,,4.87484600000000E+01,4.84410100000000E+01,5.02669800000000E+01,,4.63983300000000E+01,5.09428000000000E+01,5.24896200000000E+01,5.17386000000000E+01,5.30034500000000E+01,5.78972400000000E+01,5.27125400000000E+01,5.37033800000000E+01,5.98657100000000E+01,5.92994800000000E+01,5.79250900000000E+01,
SLB,,,,,,,,,,,,,,,,6.17115100000000E+01,,,,,7.31731100000000E+01,6.46609700000000E+01,5.91549300000000E+01,5.63977200000000E+01,,,5.79919500000000E+01,,,,,,,,,,,,,,,,,,,,,,,,,
SLE,,,,,,,,,,,,,,,,,,,3.22881400000000E+01,,,,,,,,,,,,,,,,,,,,,,,,,,,,,1.01269270000000E+02,,,,
SLV,,,,,,,,,,,,4.20403300000000E+01,4.51319300000000E+01,5.09241200000000E+01,5.22135700000000E+01,,5.11397500000000E+01,5.21373500000000E+01,,,,4.45286600000000E+01,4.70746400000000E+01,4.75672800000000E+01,4.50811600000000E+01,,,5.76550000000000E+01,6.13084400000000E+01,5.98450900000000E+01,,6.38902400000000E+01,6.49090000000000E+01,6.77737900000000E+01,,6.95579600000000E+01,7.57694700000000E+01,,7.92509900000000E+01,8.39864300000000E+01,8.42358800000000E+01,8.19484000000000E+01,8.12459200000000E+01,8.13101700000000E+01,8.24713000000000E+01,8.37517000000000E+01,8.39519900000000E+01,8.70089500000000E+01,8.89924000000000E+01,9.20804700000000E+01,,
SMR,,,,,,,,,,,,,,,,,,,,,,,,,,,,,,,,,,,,,,,,,,,,,,,,,,9.03954800000000E+01,,
SRB,,,,,,,,,,,,,,,,,,,,,,,,,,,,,,,,,,,,,,,,,,,,,,,,1.00358780000000E+02,1.03986540000000E+02,9.69298500000000E+01,9.63017500000000E+01,
SSA,,,,,,,,,,,,,,,,,,,,,,,,,,,,,,,,5.69119179991000E+01,,,,,,,,5.45035178500000E+01,5.53082264200000E+01,5.67290822400000E+01,5.82066539400000E+01,5.95781785200000E+01,6.16420780100000E+01,6.35599640100000E+01,6.58412246200000E+01,6.54747471400000E+01,6.84798147000000E+01,7.06754195600000E+01,,
SSF,,,,,,,,,,,,,,,,,,,,,,,,,,,,,,,,5.69303717671000E+01,,,,,,,,5.45087439627838E+01,5.53060379627291E+01,5.67190809432587E+01,5.81943216422799E+01,5.95637082173144E+01,6.16277758617953E+01,6.35454641024187E+01,6.58248367290137E+01,6.54588549937374E+01,6.84614669629778E+01,7.06574756664088E+01,,
STP,,,,,,,,,,,,,,,,,,5.05696800000000E+01,,,,,,,1.09450550000000E+02,,,,7.62437800000000E+01,,,,,,,,,,,4.32052000000000E+01,,,5.67415700000000E+01,5.79495600000000E+01,7.13290500000000E+01,7.23526300000000E+01,7.07000000000000E+01,7.00744400000000E+01,7.36015700000000E+01,8.19632500000000E+01,8.15413900000000E+01,
SUR,,,,,,,,,,,,,,,,,7.21839500000000E+01,7.92482500000000E+01,7.45084000000000E+01,7.81450900000000E+01,,,,,,8.27392500000000E+01,,7.72030200000000E+01,7.55676400000000E+01,7.85401500000000E+01,,,,,,,,,,,,9.52752600000000E+01,,,,7.66346800000000E+01,8.35595400000000E+01,7.20495600000000E+01,7.96551700000000E+01,8.12205700000000E+01,,
SVK,,,,,,,,,,,,,,,,,,,,,,,,,,,,,,,,,,9.51793300000000E+01,9.71445000000000E+01,9.78184400000000E+01,9.73140500000000E+01,9.57098100000000E+01,9.84668500000000E+01,9.57228700000000E+01,9.46096800000000E+01,9.75864100000000E+01,9.51597400000000E+01,9.65037300000000E+01,9.44078900000000E+01,9.04805500000000E+01,9.15331600000000E+01,9.28164800000000E+01,9.57793600000000E+01,9.77385200000000E+01,,
SVN,,,,,,,,,,,,,,,,,,,,,,,,,,,,,,,,,,,,,,9.63095400000000E+01,1.00476450000000E+02,9.90160600000000E+01,9.72170200000000E+01,9.50671900000000E+01,9.65967700000000E+01,1.01177890000000E+02,1.12000000000000E+02,,,,9.54166700000000E+01,9.45842800000000E+01,,
SWE,,,,,,,,,,,,9.32400100000000E+01,9.31247300000000E+01,8.94955500000000E+01,9.03104400000000E+01,9.18495300000000E+01,9.63359200000000E+01,1.02856950000000E+02,1.03760690000000E+02,1.04620060000000E+02,1.03223660000000E+02,9.62607800000000E+01,9.21553000000000E+01,9.24782700000000E+01,9.78645600000000E+01,,,1.01101150000000E+02,9.85357800000000E+01,9.65518500000000E+01,9.71313100000000E+01,9.61833400000000E+01,1.00644940000000E+02,1.06236080000000E+02,1.04636710000000E+02,,,,,1.00469260000000E+02,9.91226400000000E+01,1.02714940000000E+02,1.02690850000000E+02,1.06260070000000E+02,1.04958600000000E+02,1.00553140000000E+02,9.59850700000000E+01,9.54455700000000E+01,9.52509500000000E+01,9.33073500000000E+01,,
SWZ,,,,,,,,,,,4.42031500000000E+01,4.22566400000000E+01,4.34264900000000E+01,5.06664500000000E+01,5.50778800000000E+01,5.61924900000000E+01,5.60402700000000E+01,5.61989300000000E+01,5.39099700000000E+01,5.35057800000000E+01,5.24099400000000E+01,5.73899200000000E+01,5.72733700000000E+01,5.94697000000000E+01,5.88881500000000E+01,5.95028900000000E+01,6.09441200000000E+01,6.10409000000000E+01,6.20161000000000E+01,5.86156000000000E+01,5.93719400000000E+01,5.73686000000000E+01,5.62769800000000E+01,5.84624000000000E+01,5.96299700000000E+01,6.06879600000000E+01,5.84951500000000E+01,5.82627100000000E+01,6.06468100000000E+01,5.70211100000000E+01,5.88797800000000E+01,5.70321700000000E+01,5.89790100000000E+01,5.62177800000000E+01,5.96848400000000E+01,6.25568500000000E+01,6.43176300000000E+01,7.56992400000000E+01,,7.22086300000000E+01,7.56619400000000E+01,
SYC,,,,,,,,,,,,,,,,,,,,,,,,,,,,,,,,,,,,,,,1.02513230000000E+02,1.13182420000000E+02,1.06100800000000E+02,1.13014610000000E+02,1.13125850000000E+02,1.16526610000000E+02,1.15283840000000E+02,1.27299700000000E+02,,1.18768330000000E+02,1.23556940000000E+02,1.23986490000000E+02,,
SYR,,,,,,,,,,,,7.55320700000000E+01,8.00422600000000E+01,7.90326100000000E+01,8.26546300000000E+01,8.79586800000000E+01,9.16617600000000E+01,9.41680600000000E+01,9.54022300000000E+01,9.09398100000000E+01,8.77678200000000E+01,8.81947200000000E+01,9.28297400000000E+01,9.42622000000000E+01,9.38524900000000E+01,9.53031300000000E+01,9.55576600000000E+01,9.50855000000000E+01,9.39929100000000E+01,9.41216700000000E+01,9.40254200000000E+01,9.44668600000000E+01,9.74855500000000E+01,8.85570700000000E+01,8.94069500000000E+01,8.71913200000000E+01,8.78587300000000E+01,8.82819000000000E+01,8.81285200000000E+01,9.74513300000000E+01,9.64816900000000E+01,9.73414700000000E+01,9.89521300000000E+01,1.08443600000000E+02,1.09657170000000E+02,1.09202100000000E+02,1.07021000000000E+02,1.04070500000000E+02,1.03511360000000E+02,1.03752850000000E+02,1.04105750000000E+02,
TCA,,,,,,,,,,,,,,,,,,,,,,,,,,,,,,,,,,,,,,,,,,,,8.90109900000000E+01,1.00520830000000E+02,9.28571400000000E+01,,,,,,
TCD,,,,,,,,,,,,,,,,,1.84424400000000E+01,1.73048100000000E+01,,,,,,,,,,,1.90801000000000E+01,2.08482400000000E+01,2.63950300000000E+01,2.87474400000000E+01,,,2.75336500000000E+01,2.18380400000000E+01,2.24738100000000E+01,2.31376900000000E+01,0.00000000000000E+00,2.96986400000000E+01,3.27485900000000E+01,3.58816000000000E+01,3.97355000000000E+01,4.62496000000000E+01,4.73971100000000E+01,4.29125400000000E+01,4.20802700000000E+01,,,4.38300900000000E+01,4.13709700000000E+01,
TGO,,,,,,,,,,,,3.74768300000000E+01,4.46152700000000E+01,,,,6.22978400000000E+01,,7.28248000000000E+01,7.07161200000000E+01,7.25020500000000E+01,6.77084500000000E+01,6.33472000000000E+01,6.17838700000000E+01,5.40171700000000E+01,4.68196900000000E+01,4.56696900000000E+01,4.38232600000000E+01,4.93615400000000E+01,4.05542400000000E+01,4.79084700000000E+01,4.75550500000000E+01,4.83316700000000E+01,,3.73721400000000E+01,5.37966300000000E+01,6.29696100000000E+01,,,7.76035400000000E+01,8.70479500000000E+01,9.31138600000000E+01,,8.87912800000000E+01,8.94893700000000E+01,8.82672800000000E+01,8.76672900000000E+01,,7.97425100000000E+01,7.87938500000000E+01,8.36455200000000E+01,
THA,,,,,,,,,,,,,,,,4.05354900000000E+01,4.19752900000000E+01,4.19427500000000E+01,4.28295400000000E+01,,,7.32439200000000E+01,,,,,,,,,,,,,,,,,,8.81787800000000E+01,,,,,,,,,,,,
TJK,,,,,,,,,,,,,,,,,,,,,,,,,,,,,,,,,,,,,,,,9.47933800000000E+01,9.81163700000000E+01,1.01842110000000E+02,1.00979330000000E+02,9.89156600000000E+01,9.51952700000000E+01,,1.08500360000000E+02,9.69551000000000E+01,,1.03280840000000E+02,1.05680410000000E+02,
TMP,,,,,,,,,,,,,,,,,,,,,,,,,,,,,,,,,,,,,,,,,,,,,,,,,7.94068100000000E+01,6.78864200000000E+01,6.40711900000000E+01,
TON,,,,,,,,,,,,,,,,,,7.72551500000000E+01,8.37164800000000E+01,1.05814700000000E+02,,1.18103450000000E+02,1.12258950000000E+02,,1.09181330000000E+02,9.24110700000000E+01,9.85401500000000E+01,,,,1.35802470000000E+02,1.02021020000000E+02,,1.09216590000000E+02,,,,,9.73763100000000E+01,1.06119030000000E+02,,1.07917660000000E+02,1.09561130000000E+02,,,1.09126370000000E+02,1.01720090000000E+02,,,,,
TTO,,,,,,,,,,,,,,,,,,,,,,,1.10140220000000E+02,,,9.72999900000000E+01,,,9.38818400000000E+01,,,9.86317200000000E+01,1.00199700000000E+02,9.92582100000000E+01,,,8.51714000000000E+01,8.34222200000000E+01,,9.26026800000000E+01,8.56370300000000E+01,7.96622600000000E+01,,8.45956700000000E+01,9.08633500000000E+01,8.84908300000000E+01,,9.28159500000000E+01,9.03719900000000E+01,9.18505000000000E+01,,
TUN,,,,,,,,,,,,,,7.69331600000000E+01,,,8.15205900000000E+01,8.20672000000000E+01,8.56606000000000E+01,7.07188300000000E+01,7.27836200000000E+01,9.62228200000000E+01,7.25236600000000E+01,7.16455200000000E+01,7.49221200000000E+01,7.46388100000000E+01,7.75173100000000E+01,7.92476100000000E+01,7.75966800000000E+01,8.18966900000000E+01,8.52275700000000E+01,7.87077600000000E+01,,7.71373100000000E+01,8.39769500000000E+01,9.45472400000000E+01,9.08997800000000E+01,9.32503400000000E+01,,9.04782100000000E+01,8.95970000000000E+01,8.99528500000000E+01,9.46165800000000E+01,9.76293400000000E+01,9.99184600000000E+01,1.01991580000000E+02,,1.04557510000000E+02,9.45257500000000E+01,9.03657100000000E+01,,
TUR,,,,,,,,,,,,,,,,,,,,,,,,,8.76792400000000E+01,8.84825000000000E+01,9.08612600000000E+01,9.13147900000000E+01,1.02931510000000E+02,9.03137200000000E+01,9.13230600000000E+01,9.34759900000000E+01,9.95757800000000E+01,9.41284000000000E+01,9.45719400000000E+01,9.24982700000000E+01,,,,,,,,,9.78810200000000E+01,1.02313230000000E+02,9.93479000000000E+01,9.84428600000000E+01,1.00028810000000E+02,1.00103490000000E+02,,
TUV,,,,,,,,,,,,,,,,,,,,,,,,,,,,,,,,,,,,,,,,,1.07936510000000E+02,9.60937500000000E+01,8.34710700000000E+01,8.85245900000000E+01,9.42623000000000E+01,1.02459020000000E+02,8.93442600000000E+01,,,,,
TZA,,,,,,,,,,,,,,,,4.46487300000000E+01,4.93369100000000E+01,,,,,8.69910700000000E+01,9.70712900000000E+01,1.02103520000000E+02,1.29801540000000E+02,,7.15840900000000E+01,6.78581400000000E+01,6.12031800000000E+01,4.78325900000000E+01,,,5.58546800000000E+01,5.87567500000000E+01,,,,5.76512500000000E+01,4.81810300000000E+01,5.61988000000000E+01,,5.39770100000000E+01,5.82510700000000E+01,,5.85262900000000E+01,5.64808800000000E+01,7.38413300000000E+01,8.51121000000000E+01,,1.02848460000000E+02,8.76696900000000E+01,
UGA,,,,,,,,,,,,,,,,,,,,,,,5.57220100000000E+01,,,,4.64415900000000E+01,,,,,,,,,,,,,,,6.66013300000000E+01,6.79041600000000E+01,6.79067200000000E+01,6.32552600000000E+01,6.13256000000000E+01,,5.58828600000000E+01,5.99060200000000E+01,5.91937300000000E+01,5.79151700000000E+01,
UKR,,,,,,,,,,,,,,,,,,,,,,,,,,,,,,,,,,9.94333600000000E+01,9.51540300000000E+01,,,,,9.44793500000000E+01,9.14302200000000E+01,9.57970100000000E+01,9.76046200000000E+01,,,1.17370350000000E+02,1.05243230000000E+02,1.01938060000000E+02,9.97569900000000E+01,9.67748400000000E+01,9.74823400000000E+01,
UMC,,,,,,,,,,,,,,,,,,,,,,,,,,,,,,,,1.00682207730400E+02,,,,,,,,9.70280716800000E+01,9.74120234300000E+01,9.79296656000000E+01,9.84022286000000E+01,9.75188477600000E+01,9.70400007800000E+01,9.66293883800000E+01,9.57957261600000E+01,9.60511436400000E+01,,,,
URY,,,,,,,,,,,,,,,6.70349400000000E+01,,6.86038900000000E+01,6.74354100000000E+01,6.63361200000000E+01,6.87535500000000E+01,7.08399600000000E+01,,,,,8.51470100000000E+01,8.45751500000000E+01,8.86354800000000E+01,8.98806000000000E+01,9.16728000000000E+01,9.20039500000000E+01,9.14898200000000E+01,8.95019500000000E+01,9.10318300000000E+01,9.11177200000000E+01,9.27834300000000E+01,9.35028500000000E+01,,9.78838200000000E+01,9.49777900000000E+01,9.51033900000000E+01,9.39995700000000E+01,9.25888600000000E+01,9.02887900000000E+01,9.17810700000000E+01,9.35614100000000E+01,9.85229200000000E+01,1.02867460000000E+02,1.04969270000000E+02,1.05414770000000E+02,,
USA,,,,,,,,,,,,,,,,,,,,,,,,,,,,,,,,,,,,,,,9.74707400000000E+01,9.66680500000000E+01,9.94666200000000E+01,1.01318560000000E+02,9.97070700000000E+01,9.93290600000000E+01,1.00482010000000E+02,1.02245780000000E+02,9.73215000000000E+01,9.89966800000000E+01,9.91324600000000E+01,1.05320420000000E+02,,
UZB,,,,,,,,,,,,,,,,,,,,,,,,,,,,,,,,,,,,,,,,,,1.00911780000000E+02,1.03338560000000E+02,9.70341900000000E+01,9.58746900000000E+01,9.81319100000000E+01,1.00155480000000E+02,9.83921200000000E+01,9.66386500000000E+01,9.41586800000000E+01,,
VCT,,,,,,,,,,,,,,,,,,,,,,,,,,,,,,,,,,,,,,,,,,8.67241400000000E+01,8.91797600000000E+01,8.64436600000000E+01,9.04085300000000E+01,8.90583000000000E+01,,,1.13821890000000E+02,,,
VEN,,,,,,,,,,,,,,,,,,,,,,,,,,,,,7.59069500000000E+01,7.48170400000000E+01,,7.56539700000000E+01,7.86830700000000E+01,7.82665100000000E+01,,,7.62968100000000E+01,7.73708300000000E+01,,7.82301000000000E+01,8.04715800000000E+01,8.19346300000000E+01,8.92786300000000E+01,8.76394300000000E+01,8.75914600000000E+01,8.91256300000000E+01,9.30327300000000E+01,9.56911600000000E+01,9.42263400000000E+01,9.39997600000000E+01,9.28131000000000E+01,
VNM,,,,,,,,,,,,,,,,,,,,,,,,,,,,,,,,,,,,,,,,1.00949540000000E+02,1.00803230000000E+02,1.06255570000000E+02,1.04125440000000E+02,1.02362860000000E+02,,,,,,,,
VUT,,,,,,,,,,,,,,,,,,,,,,,,,,,,,,,,,8.49074100000000E+01,,,,,,,9.12148000000000E+01,8.99834400000000E+01,1.06042170000000E+02,1.03177120000000E+02,,9.15621400000000E+01,,,8.02079600000000E+01,7.85563400000000E+01,8.48096900000000E+01,8.37304300000000E+01,
WBG,,,,,,,,,,,,,,,,,,,,,,,,,,,,,,,,,,,,8.77362300000000E+01,8.85860400000000E+01,8.85999700000000E+01,,9.96241200000000E+01,9.76187400000000E+01,9.71431500000000E+01,9.30847300000000E+01,9.72797100000000E+01,8.97148700000000E+01,9.30848400000000E+01,,8.66319500000000E+01,8.92826100000000E+01,9.09218800000000E+01,9.72555800000000E+01,
WSM,,,,,,,,,,,,,,,,,,,,,,,,,,,,,,,,,,,,,,,,9.89205500000000E+01,9.31876600000000E+01,9.13918600000000E+01,1.02543450000000E+02,1.04387800000000E+02,9.76043000000000E+01,,,1.07436320000000E+02,,1.02710360000000E+02,1.00160450000000E+02,
YEM,,,,,,,,,,,,,,,,,,,,,,,,,,,,,,,,,,,,,,,,7.39686800000000E+01,7.44800400000000E+01,7.77438200000000E+01,7.56434500000000E+01,7.85798300000000E+01,7.65004400000000E+01,7.43910100000000E+01,,,7.39706300000000E+01,,7.30105800000000E+01,
ZAF,,,,,,,,,,,,,,,,,,,,,,,,,,,,,,,,7.15782600000000E+01,,,,,,,8.71099600000000E+01,8.25290600000000E+01,8.53167600000000E+01,,8.93786000000000E+01,9.34905600000000E+01,9.96555800000000E+01,,,,,,,
ZAR,,,,,,,,,,,,6.04070800000000E+01,6.23899000000000E+01,,,,7.13729800000000E+01,7.32258800000000E+01,7.67045200000000E+01,,7.47004500000000E+01,7.54380000000000E+01,7.78722500000000E+01,7.86129400000000E+01,7.92566400000000E+01,,,,6.01340700000000E+01,,,6.08711900000000E+01,5.61829600000000E+01,6.12520800000000E+01,5.24131900000000E+01,,,,,3.41260200000000E+01,,,4.62889300000000E+01,,,,,6.01487200000000E+01,6.50774200000000E+01,6.81880000000000E+01,,
ZMB,,,,,,,,,,,,,8.99269700000000E+01,9.10749000000000E+01,9.55097600000000E+01,9.71373800000000E+01,9.69641200000000E+01,9.73225100000000E+01,1.00551940000000E+02,9.83183600000000E+01,9.88126100000000E+01,9.79375700000000E+01,1.00257090000000E+02,1.03468530000000E+02,1.12076820000000E+02,,1.06398820000000E+02,,,,,,,,,,,,7.31188700000000E+01,7.18342600000000E+01,6.80261400000000E+01,,6.81712800000000E+01,,7.98827900000000E+01,1.00213870000000E+02,9.40439800000000E+01,9.84084800000000E+01,1.02248990000000E+02,9.51055100000000E+01,9.82768100000000E+01,
ZWE,,,,,,,,,,,,,,,,,,,,,,7.65998900000000E+01,8.56829900000000E+01,9.18815800000000E+01,9.37233800000000E+01,,,,1.27307690000000E+02,1.11909070000000E+02,9.64959800000000E+01,9.87468500000000E+01,9.17402400000000E+01,,,,,,,9.33833568669553E+01,,9.23467242620590E+01,8.51056275519261E+01,8.29657981199233E+01,,,,,,,,
