"Country Code",1960,1961,1962,1963,1964,1965,1966,1967,1968,1969,1970,1971,1972,1973,1974,1975,1976,1977,1978,1979,1980,1981,1982,1983,1984,1985,1986,1987,1988,1989,1990,1991,1992,1993,1994,1995,1996,1997,1998,1999,2000,2001,2002,2003,2004,2005,2006,2007,2008,2009,2010,2011ABW,,,,,,,,,,,,,,,,,,,,,,,,,,,,,,,,,,,,,,,,1.02012380000000E+02,9.77307100000000E+01,9.47483600000000E+01,9.51544900000000E+01,9.03989200000000E+01,9.06188900000000E+01,8.77525300000000E+01,9.21972500000000E+01,9.33208500000000E+01,9.18546400000000E+01,9.20554900000000E+01,9.06649600000000E+01,
ADO,,,,,,,,,,,,,,,,,,,,,,,,,,,,,,,,,,,,,,,,,,,1.01978690000000E+02,1.04845810000000E+02,1.00685870000000E+02,,,,,,,
AFG,,,,,,,,,,,,,,,1.58605700000000E+01,,,1.65408200000000E+01,1.81994700000000E+01,,2.55065400000000E+01,3.15243200000000E+01,1.27605200000000E+01,,1.75129800000000E+01,1.83773600000000E+01,,,,,,,,2.84960600000000E+01,,,,,,,,,,,,3.40585300000000E+01,,,,,,
AGO,,,,,,,,,,,,,,,,,,,,,,4.89724900000000E+01,4.34618700000000E+01,,,,,,,,,3.30090300000000E+01,,,,,,,,,,,,,,,,,4.59382000000000E+01,4.54320400000000E+01,4.66262800000000E+01,
ALB,,,,,,,,,,,,,,,,,,,,,,,,,,,,,,,,,,,,,9.34317800000000E+01,,,1.02654370000000E+02,1.01719710000000E+02,1.03304190000000E+02,,1.01111350000000E+02,9.84250900000000E+01,,,,8.99098600000000E+01,8.63166600000000E+01,8.85070400000000E+01,
ARB,,,,,,,,,,,,4.03858061072240E+01,4.26347610197037E+01,4.75237822257543E+01,4.94235922236566E+01,5.38476845812406E+01,5.56799223336084E+01,5.86471373019359E+01,5.77863089648998E+01,4.90209053121045E+01,5.67815572835308E+01,,,,,,6.87562182341626E+01,6.90639378776592E+01,,,,,,,,,,,,7.16908061597494E+01,7.08497170341198E+01,7.12672893332112E+01,7.38697308430358E+01,7.72550630768604E+01,8.51686642470950E+01,8.88463375487032E+01,,8.36092419129729E+01,,8.59265639442996E+01,,
ARE,,,,,,,,,,,,,,,4.09339200000000E+01,4.40546400000000E+01,5.33946000000000E+01,6.00317100000000E+01,6.28487400000000E+01,6.60083700000000E+01,6.64998300000000E+01,6.93132600000000E+01,7.79872100000000E+01,7.57660700000000E+01,7.16746900000000E+01,6.82512200000000E+01,7.13095200000000E+01,7.60348900000000E+01,7.75985100000000E+01,8.71120200000000E+01,9.67782500000000E+01,1.03411570000000E+02,1.02010610000000E+02,9.93031900000000E+01,9.84112100000000E+01,9.59985200000000E+01,8.91984700000000E+01,8.59850000000000E+01,8.13178400000000E+01,8.87066700000000E+01,8.60632200000000E+01,8.29344600000000E+01,8.72642500000000E+01,9.09521300000000E+01,9.60140700000000E+01,9.95123400000000E+01,9.96292000000000E+01,,,,,
ARG,,,,,,,,,,,7.05578700000000E+01,7.14553300000000E+01,,,7.54668100000000E+01,7.89218000000000E+01,7.86251900000000E+01,,,,,,,,,,,,,,,,,,1.00216590000000E+02,,9.56679400000000E+01,9.47722000000000E+01,1.02798470000000E+02,9.90810100000000E+01,9.90327300000000E+01,9.87546500000000E+01,1.02866190000000E+02,1.00966520000000E+02,9.97797600000000E+01,9.78406100000000E+01,9.99756000000000E+01,1.02612470000000E+02,1.05759820000000E+02,,,
ARM,,,,,,,,,,,,,,,,,,,,,,,,,,,,,,,,,,,1.05491390000000E+02,,,9.61770300000000E+01,,,,,9.32331600000000E+01,8.85468900000000E+01,9.90891500000000E+01,9.18322900000000E+01,9.29823800000000E+01,1.01315530000000E+02,,,,
ATG,,,,,,,,,,,,,,,,,,,,,,,,,,,,,,,,,,,,,,,,,,,,,,,,,1.01176470000000E+02,9.37807900000000E+01,1.00369690000000E+02,
AUT,,,,,,,,,,,,9.58954200000000E+01,9.78124400000000E+01,9.81252600000000E+01,,,,,,,,,,,,,,,,,,,,,,,,,9.79995600000000E+01,1.00697820000000E+02,,,1.00302390000000E+02,1.01214510000000E+02,9.90797800000000E+01,9.89966000000000E+01,1.00876850000000E+02,1.03449560000000E+02,1.01163520000000E+02,9.93956600000000E+01,,
AZE,,,,,,,,,,,,,,,,,,,,,,,,,,,,,,,,,,9.48617800000000E+01,9.03542400000000E+01,,8.13124400000000E+01,9.91508700000000E+01,9.57119200000000E+01,9.21731000000000E+01,8.95135100000000E+01,9.51685800000000E+01,9.75860100000000E+01,9.26961500000000E+01,9.55954300000000E+01,9.34306200000000E+01,9.12001800000000E+01,9.76303000000000E+01,9.07368300000000E+01,9.17717200000000E+01,8.95144500000000E+01,
BDI,,,,,,,,,,,,5.55992000000000E+00,,1.05217900000000E+01,1.06856200000000E+01,1.14190900000000E+01,1.07187600000000E+01,1.08173200000000E+01,1.07151100000000E+01,1.07708000000000E+01,1.09429500000000E+01,1.11803200000000E+01,1.31932100000000E+01,1.77841300000000E+01,2.42715900000000E+01,2.52649800000000E+01,2.62777900000000E+01,2.63851800000000E+01,3.73802200000000E+01,3.24900200000000E+01,4.09234800000000E+01,4.58637800000000E+01,4.92412500000000E+01,5.26772600000000E+01,,,,,,2.38434900000000E+01,2.62994500000000E+01,2.68189300000000E+01,2.72720800000000E+01,3.19871700000000E+01,3.43839000000000E+01,3.68027700000000E+01,,4.19026900000000E+01,4.50687000000000E+01,5.24270000000000E+01,5.61386800000000E+01,
BEL,,,,,,,,,,,,,,,6.78979800000000E+01,6.96346100000000E+01,7.02451500000000E+01,7.16542200000000E+01,7.37123300000000E+01,6.74582300000000E+01,6.77482200000000E+01,7.42932100000000E+01,7.71734600000000E+01,7.19465800000000E+01,7.50945100000000E+01,7.30160400000000E+01,7.15108200000000E+01,7.05712000000000E+01,7.22544700000000E+01,,,7.88451900000000E+01,,,,,,,,,,,,,,,8.97904300000000E+01,8.96161000000000E+01,8.95835800000000E+01,9.02679400000000E+01,,
BEN,,,,,,,,,,,,1.93295400000000E+01,2.24198600000000E+01,2.28116400000000E+01,2.16843600000000E+01,2.64986600000000E+01,2.62213300000000E+01,2.55065500000000E+01,2.77868200000000E+01,2.92616500000000E+01,3.12067300000000E+01,3.22455900000000E+01,3.45624400000000E+01,3.74575400000000E+01,3.07212500000000E+01,3.49235500000000E+01,3.18358500000000E+01,3.06532200000000E+01,2.82196000000000E+01,2.79258300000000E+01,1.94526300000000E+01,2.21357700000000E+01,2.23614100000000E+01,2.45958600000000E+01,2.67002000000000E+01,3.14599800000000E+01,3.36380700000000E+01,3.61260700000000E+01,3.89850400000000E+01,,3.98211100000000E+01,4.38400200000000E+01,4.60050800000000E+01,5.04838200000000E+01,5.43379700000000E+01,,,,6.66265700000000E+01,6.34326800000000E+01,,
BFA,,,,,,,,,,,,7.02058000000000E+00,6.52988000000000E+00,6.69080000000000E+00,6.44014000000000E+00,7.23193000000000E+00,7.36230000000000E+00,8.27737000000000E+00,8.41693000000000E+00,9.20745000000000E+00,9.03464000000000E+00,1.00247300000000E+01,1.01650800000000E+01,1.08194800000000E+01,1.17741700000000E+01,1.33458200000000E+01,,1.52660100000000E+01,1.64137300000000E+01,1.62301500000000E+01,1.92789000000000E+01,1.98896500000000E+01,2.65428900000000E+01,2.60477100000000E+01,2.69479100000000E+01,1.85705600000000E+01,2.26108900000000E+01,,,2.19710500000000E+01,2.37670300000000E+01,2.49220800000000E+01,2.57182500000000E+01,2.73056100000000E+01,2.85914500000000E+01,2.98584000000000E+01,3.09207500000000E+01,3.31074700000000E+01,3.69505000000000E+01,4.18673100000000E+01,4.51009500000000E+01,
BGD,,,,,,,,,,,,,,,,,4.08576000000000E+01,2.97178700000000E+01,,,,2.51166400000000E+01,,,,,,,,4.05243100000000E+01,,,,,,,,,,,6.35037300000000E+01,,,,,6.49850200000000E+01,,,5.87184100000000E+01,6.53534600000000E+01,,
BGR,,,,,,,,,,,,9.73968600000000E+01,9.78510100000000E+01,9.74829400000000E+01,1.03274740000000E+02,9.46082200000000E+01,9.55138100000000E+01,9.28894900000000E+01,9.32849500000000E+01,1.03076950000000E+02,1.03607370000000E+02,1.00392720000000E+02,9.66871000000000E+01,9.38338200000000E+01,9.97638300000000E+01,1.10830020000000E+02,1.00443690000000E+02,1.04194290000000E+02,1.04632590000000E+02,1.03948920000000E+02,1.01066880000000E+02,8.96186800000000E+01,8.68399400000000E+01,8.45118900000000E+01,8.62374200000000E+01,8.65423800000000E+01,9.07342800000000E+01,9.62179000000000E+01,9.67645700000000E+01,9.67874800000000E+01,9.71221700000000E+01,1.03025100000000E+02,9.77372900000000E+01,9.90446800000000E+01,9.98151400000000E+01,9.90306700000000E+01,9.80235000000000E+01,9.82873500000000E+01,9.06896000000000E+01,9.54827000000000E+01,,
BHR,,,,,,,,,,,,,,,,,,,,,,,8.86713500000000E+01,8.56532800000000E+01,8.81820600000000E+01,9.19425200000000E+01,8.89569000000000E+01,8.89198400000000E+01,9.44113200000000E+01,9.93237900000000E+01,,9.72882100000000E+01,9.43680600000000E+01,9.39885300000000E+01,9.15671900000000E+01,9.36000000000000E+01,9.26035500000000E+01,,9.26355900000000E+01,9.58052400000000E+01,9.31153600000000E+01,9.41658400000000E+01,1.04690290000000E+02,1.07824000000000E+02,1.10497700000000E+02,1.07252660000000E+02,,,,,,
BHS,,,,,,,,,,,,,,,,,,,,,,,,,,,,,,,,,,,9.08208300000000E+01,,,,,8.21581200000000E+01,,,,9.21536400000000E+01,1.00178830000000E+02,1.01582900000000E+02,9.83211400000000E+01,1.02366460000000E+02,1.00912850000000E+02,1.02048750000000E+02,,
BIH,,,,,,,,,,,,,,,,,,,,,,,,,,,,,,,,,,,,,,,,,,,,,,,,,,,6.96124300000000E+01,
BLR,,,,,,,,,,,,1.01030140000000E+02,9.76306400000000E+01,9.94430800000000E+01,9.51680400000000E+01,9.47615300000000E+01,9.40430200000000E+01,9.22918800000000E+01,9.50154500000000E+01,9.51387300000000E+01,9.65657200000000E+01,9.81053100000000E+01,1.00727520000000E+02,1.01588790000000E+02,1.01008690000000E+02,9.91792500000000E+01,9.83666900000000E+01,,,,9.35466300000000E+01,9.35726500000000E+01,8.90110000000000E+01,9.51298600000000E+01,9.66303000000000E+01,9.41643300000000E+01,9.39913000000000E+01,9.52206000000000E+01,,9.63840100000000E+01,9.95930200000000E+01,1.03534510000000E+02,1.28546260000000E+02,1.00018190000000E+02,9.95639800000000E+01,9.56918200000000E+01,9.44389100000000E+01,9.28564100000000E+01,9.77067700000000E+01,,,
BLZ,,,,,,,,,,,,,,,,,,,,,,,,,,,,,,,,,9.55634100000000E+01,,,8.81718600000000E+01,9.23025100000000E+01,,,9.26515500000000E+01,9.38116900000000E+01,9.50113400000000E+01,9.18851600000000E+01,,,9.43523000000000E+01,9.56444600000000E+01,9.90619900000000E+01,9.64755300000000E+01,1.02737500000000E+02,1.05320450000000E+02,
BMU,,,,,,,,,,,,,,,,,,,,,,,,,,,,,,,,,,,,,,,,,,9.66942100000000E+01,1.02524040000000E+02,1.00489600000000E+02,9.53980100000000E+01,9.52440600000000E+01,9.36409000000000E+01,,,,,
BOL,,,,,,,,,,,,,,,,,,,,,,,,,,,,,,,7.14182200000000E+01,,,,,,,,,9.74390200000000E+01,9.87398300000000E+01,9.85675400000000E+01,1.01988390000000E+02,1.00756120000000E+02,1.00387370000000E+02,,1.01681990000000E+02,9.84889500000000E+01,9.94177300000000E+01,,,
BRA,,,,,,,,,,,7.61022900000000E+01,8.05445400000000E+01,6.33637800000000E+01,6.57454200000000E+01,6.79157500000000E+01,6.78081900000000E+01,6.51986400000000E+01,6.54465900000000E+01,6.73289800000000E+01,6.94329600000000E+01,7.20391100000000E+01,7.29353000000000E+01,7.43702200000000E+01,,7.68243400000000E+01,7.58687100000000E+01,,8.05268000000000E+01,,,,,9.25724300000000E+01,9.20511100000000E+01,8.97073700000000E+01,,,,,,1.07953820000000E+02,1.11061560000000E+02,1.12118130000000E+02,1.10279160000000E+02,1.06210650000000E+02,1.05987840000000E+02,,,,,,
BRB,,,,,,,,,,,,,,,,,,,,,,,,,,,,,,,,,,,,,,,,9.53020100000000E+01,9.91022400000000E+01,1.07288560000000E+02,1.04042660000000E+02,1.06663360000000E+02,9.73214300000000E+01,9.09840200000000E+01,9.30580200000000E+01,9.15873400000000E+01,9.44270000000000E+01,9.72110500000000E+01,1.01201790000000E+02,
BRN,,,,,,,,,,,,,1.07450420000000E+02,1.07185960000000E+02,1.12426820000000E+02,9.79544300000000E+01,1.09148340000000E+02,1.02718060000000E+02,1.00411120000000E+02,9.96458100000000E+01,8.95656200000000E+01,9.21996900000000E+01,8.27370700000000E+01,8.54670600000000E+01,5.95300800000000E+01,,1.26525040000000E+02,,,,,9.99813200000000E+01,1.02326870000000E+02,1.01130360000000E+02,1.03825430000000E+02,1.01713180000000E+02,,1.13283510000000E+02,1.21080630000000E+02,1.21116230000000E+02,1.19987470000000E+02,1.26455520000000E+02,1.22277000000000E+02,1.25554710000000E+02,1.17429790000000E+02,1.14250610000000E+02,1.15820430000000E+02,1.17246220000000E+02,1.17188730000000E+02,1.14995250000000E+02,1.17839790000000E+02,
BTN,,,,,,,,,,,,,,,,,5.68360000000000E+00,6.10126000000000E+00,8.95674000000000E+00,9.88151000000000E+00,,,,,,,,,1.92648200000000E+01,,,,,2.43195000000000E+01,2.90254200000000E+01,,,,4.73087400000000E+01,5.07337700000000E+01,5.14758400000000E+01,5.22283600000000E+01,,,,6.46620800000000E+01,7.27418600000000E+01,,8.29471500000000E+01,8.68815900000000E+01,,
BWA,,,,,,,,,,,3.69316900000000E+01,4.18535000000000E+01,4.84604900000000E+01,5.31910700000000E+01,5.62518100000000E+01,5.33242600000000E+01,4.78045000000000E+01,4.42486900000000E+01,5.11610000000000E+01,6.35404200000000E+01,6.81767200000000E+01,7.82565000000000E+01,8.17577000000000E+01,7.41478700000000E+01,7.66902000000000E+01,8.17521800000000E+01,9.10409500000000E+01,9.30987600000000E+01,9.01514900000000E+01,8.75351100000000E+01,8.97938600000000E+01,9.04772500000000E+01,9.11732500000000E+01,9.04312300000000E+01,9.49967300000000E+01,9.17538100000000E+01,9.34526100000000E+01,,9.34166400000000E+01,8.91610800000000E+01,8.91266200000000E+01,9.15804300000000E+01,9.29998900000000E+01,9.32093200000000E+01,9.33088900000000E+01,9.35891900000000E+01,9.73365100000000E+01,9.41604700000000E+01,,,,
CAF,,,,,,,,,,,,2.73100400000000E+01,2.55932900000000E+01,3.17549100000000E+01,2.81610000000000E+01,3.57820900000000E+01,3.07220400000000E+01,3.23272000000000E+01,3.99172000000000E+01,,,3.01380400000000E+01,2.97455400000000E+01,2.65855100000000E+01,,,3.74293600000000E+01,2.77829600000000E+01,2.88692100000000E+01,2.84964600000000E+01,3.03560400000000E+01,2.82044900000000E+01,2.26468100000000E+01,,,,,,,,,,,2.69921600000000E+01,2.42763500000000E+01,2.67423100000000E+01,2.68433800000000E+01,3.31834500000000E+01,3.61589600000000E+01,3.88718100000000E+01,4.11323000000000E+01,
CAN,,,,,,,,,,,,,,,,,,,,,,,,,,,,,,,,,,,,,,,9.42648300000000E+01,9.59919600000000E+01,9.75303600000000E+01,,,,,,9.57529900000000E+01,,,,,
CHE,,,,,,,,,,,,,,,,,,5.23248200000000E+01,5.93459300000000E+01,5.73428700000000E+01,5.64673300000000E+01,5.27270300000000E+01,5.25300700000000E+01,5.28739500000000E+01,5.22431100000000E+01,5.18553100000000E+01,5.09728100000000E+01,5.07560700000000E+01,4.99581300000000E+01,5.11997600000000E+01,5.18148900000000E+01,5.33381400000000E+01,5.49412500000000E+01,6.10833500000000E+01,6.18677000000000E+01,,7.23960400000000E+01,,,9.53787200000000E+01,9.64184800000000E+01,9.77565600000000E+01,9.79313100000000E+01,9.80805300000000E+01,9.90164300000000E+01,9.65999600000000E+01,9.37210700000000E+01,9.26298500000000E+01,9.34538500000000E+01,9.51896100000000E+01,,
CHL,,,,,,,,,,,7.72764300000000E+01,8.35578100000000E+01,8.69905000000000E+01,8.76378700000000E+01,8.59097100000000E+01,8.65126200000000E+01,8.91944700000000E+01,8.79573100000000E+01,,,,,,9.85522600000000E+01,,,,,,,,,,,,,,,9.07948100000000E+01,9.74336600000000E+01,9.80639700000000E+01,,1.00256030000000E+02,9.69487400000000E+01,9.49542900000000E+01,,,9.57207700000000E+01,,,,
CHN,,,,,,,,,,,,,,,,,,,,,,,,,,,,,,1.03165510000000E+02,1.04403260000000E+02,1.07017620000000E+02,1.04185800000000E+02,1.05138160000000E+02,1.04615680000000E+02,9.78201200000000E+01,9.38801600000000E+01,9.49973300000000E+01,,,,,,,,,,,,,,
CIV,,,,,,,,,,,,,,3.89903000000000E+01,3.93366500000000E+01,4.31546700000000E+01,4.65375300000000E+01,4.97455300000000E+01,5.02358400000000E+01,5.17689500000000E+01,5.39266500000000E+01,5.72082400000000E+01,,5.46265000000000E+01,5.28416100000000E+01,4.50353000000000E+01,4.55434900000000E+01,4.50660900000000E+01,4.52996700000000E+01,4.22274500000000E+01,4.00560000000000E+01,4.24602900000000E+01,3.93744000000000E+01,4.05458800000000E+01,4.05123000000000E+01,3.91516200000000E+01,4.04018000000000E+01,4.13255100000000E+01,,4.19532700000000E+01,4.26901700000000E+01,4.61206500000000E+01,,,,,4.55696900000000E+01,4.75702600000000E+01,,4.98323700000000E+01,,
CMR,,,,,,,,,,,,,,4.58233600000000E+01,4.54141700000000E+01,4.74844600000000E+01,4.88775600000000E+01,4.96542900000000E+01,5.97242400000000E+01,5.06105400000000E+01,4.90969200000000E+01,4.92278000000000E+01,4.82173300000000E+01,4.84182900000000E+01,5.00908400000000E+01,5.15336900000000E+01,5.17735500000000E+01,5.32016600000000E+01,5.29063100000000E+01,,5.41898500000000E+01,5.31061900000000E+01,,,,,,,,4.96137600000000E+01,5.09677900000000E+01,,5.22000800000000E+01,5.80708200000000E+01,6.00974400000000E+01,5.28936500000000E+01,5.28852700000000E+01,5.71145300000000E+01,7.48323100000000E+01,7.55746500000000E+01,7.87003600000000E+01,
COG,,,,,,,,,,,,5.69865700000000E+01,6.05027100000000E+01,7.01481300000000E+01,5.81032100000000E+01,6.77297100000000E+01,6.99077200000000E+01,7.24014700000000E+01,7.25629600000000E+01,7.93673300000000E+01,8.02184000000000E+01,7.84351100000000E+01,7.76354800000000E+01,7.13406400000000E+01,7.45651000000000E+01,7.19418000000000E+01,7.28894200000000E+01,7.32364900000000E+01,7.35596600000000E+01,6.77811100000000E+01,5.88001300000000E+01,5.40683200000000E+01,6.08250400000000E+01,6.20054600000000E+01,5.26919300000000E+01,,4.80212900000000E+01,,,,,5.71104000000000E+01,5.99141900000000E+01,5.65984400000000E+01,8.16338800000000E+01,7.13789200000000E+01,7.76274900000000E+01,7.61120000000000E+01,7.10240700000000E+01,7.04713700000000E+01,7.08422900000000E+01,
COL,,,,,,,,,,,4.92008900000000E+01,5.27502800000000E+01,5.34961000000000E+01,5.66171700000000E+01,5.71073100000000E+01,,,,,,,,6.90825300000000E+01,7.16589900000000E+01,7.25362500000000E+01,6.81363300000000E+01,7.16408300000000E+01,7.14517400000000E+01,7.07556400000000E+01,7.01317400000000E+01,7.37563800000000E+01,7.28512900000000E+01,8.16810000000000E+01,8.29180400000000E+01,8.27808800000000E+01,8.66813300000000E+01,8.77952800000000E+01,,9.33756900000000E+01,9.52389700000000E+01,9.52293500000000E+01,9.25306600000000E+01,9.29508700000000E+01,,1.00425690000000E+02,1.04006480000000E+02,1.09798890000000E+02,1.11271980000000E+02,1.10879660000000E+02,1.15097310000000E+02,1.13861740000000E+02,
COM,,,,,,,,,,,,,,,,,,,,,,5.62893500000000E+01,,,,,6.11724600000000E+01,4.89316400000000E+01,,,,,3.96398600000000E+01,3.42260100000000E+01,4.06247700000000E+01,,,,,5.02819900000000E+01,,,6.33933800000000E+01,6.26424200000000E+01,6.78226400000000E+01,6.83225000000000E+01,,6.70224000000000E+01,7.48260200000000E+01,,,
CPV,,,,,,,,,,,,,,,9.69589000000000E+00,1.24225100000000E+01,1.95466400000000E+01,1.43560900000000E+01,1.35608900000000E+01,1.31026700000000E+01,1.63513500000000E+01,2.65405500000000E+01,2.41339400000000E+01,2.19313000000000E+01,3.15657800000000E+01,3.35052200000000E+01,3.68010400000000E+01,4.07052500000000E+01,4.51819100000000E+01,,5.35710300000000E+01,,,,6.71585300000000E+01,,,,9.62993400000000E+01,1.10095300000000E+02,1.07217090000000E+02,1.00995840000000E+02,1.02949850000000E+02,1.03952670000000E+02,1.01996860000000E+02,8.73048800000000E+01,9.93398000000000E+01,9.30553200000000E+01,9.90359200000000E+01,9.50414700000000E+01,9.88962700000000E+01,
CRI,,,,,,,,,,,7.57179600000000E+01,7.59715100000000E+01,8.52306300000000E+01,8.88768000000000E+01,8.72491200000000E+01,8.44624700000000E+01,7.95276500000000E+01,8.65267200000000E+01,8.38080400000000E+01,8.16747400000000E+01,8.22437600000000E+01,8.53646200000000E+01,8.60842900000000E+01,7.99047300000000E+01,7.33009600000000E+01,7.73170800000000E+01,7.91400400000000E+01,7.64032000000000E+01,7.63393900000000E+01,7.53067000000000E+01,7.43669000000000E+01,7.89254300000000E+01,8.11189000000000E+01,8.33010700000000E+01,8.20562100000000E+01,8.08761500000000E+01,8.22283000000000E+01,,,8.14626800000000E+01,8.69286500000000E+01,9.05462800000000E+01,9.33332600000000E+01,9.37315800000000E+01,9.48663400000000E+01,9.41720900000000E+01,9.04716800000000E+01,9.23866700000000E+01,9.36734900000000E+01,9.63297400000000E+01,9.62800000000000E+01,
CUB,,,,,,,,,,,,6.49129000000000E+01,6.12784600000000E+01,6.88200000000000E+01,7.84879400000000E+01,8.18168200000000E+01,9.36933600000000E+01,1.07503220000000E+02,1.14854350000000E+02,1.10854020000000E+02,1.03850360000000E+02,9.69403800000000E+01,8.91721700000000E+01,9.88409300000000E+01,1.04424920000000E+02,1.01857650000000E+02,9.74748000000000E+01,9.80267600000000E+01,9.62323700000000E+01,9.76648500000000E+01,9.59083500000000E+01,9.89648000000000E+01,9.37079300000000E+01,8.93460700000000E+01,9.90600800000000E+01,9.63123500000000E+01,9.59011600000000E+01,,,,9.60699700000000E+01,9.57509600000000E+01,1.00335770000000E+02,9.53281100000000E+01,9.16502900000000E+01,9.15937000000000E+01,9.03101800000000E+01,9.17326800000000E+01,8.86550200000000E+01,9.75519500000000E+01,9.82895300000000E+01,
CYM,,,,,,,,,,,,,,,,,,,,,,,,,,,,,,,,,,,,,,,,1.06763290000000E+02,1.08724830000000E+02,1.09445590000000E+02,1.06967980000000E+02,,9.01315800000000E+01,8.71428600000000E+01,8.50234000000000E+01,8.56495500000000E+01,8.60740700000000E+01,,,
CYP,,,,,,,,,,,,8.76590100000000E+01,8.52425000000000E+01,8.22588000000000E+01,8.54295800000000E+01,8.01765700000000E+01,8.23640100000000E+01,7.83003600000000E+01,8.78468300000000E+01,9.90363400000000E+01,8.95533400000000E+01,1.10053080000000E+02,9.45416800000000E+01,9.32488100000000E+01,8.81686300000000E+01,6.58561700000000E+01,6.78739800000000E+01,7.34541900000000E+01,8.33988300000000E+01,8.24230500000000E+01,8.33991400000000E+01,8.97093100000000E+01,8.98529200000000E+01,1.00767010000000E+02,1.04238880000000E+02,9.96909700000000E+01,9.71577200000000E+01,9.88619700000000E+01,,1.00718550000000E+02,9.76595000000000E+01,9.80424900000000E+01,1.00450120000000E+02,1.01184640000000E+02,8.75518300000000E+01,1.00081800000000E+02,1.01146210000000E+02,9.99516300000000E+01,1.00246210000000E+02,1.03160410000000E+02,,
CZE,,,,,,,,,,,,,,,,,,,,,,,,,,,,,,,,,,9.16567100000000E+01,9.76609500000000E+01,1.00998530000000E+02,1.08340570000000E+02,,,9.93686600000000E+01,9.91858800000000E+01,9.87997100000000E+01,1.02865880000000E+02,9.76246700000000E+01,9.77938600000000E+01,9.67741900000000E+01,9.19374200000000E+01,9.31485700000000E+01,9.56581800000000E+01,1.00667170000000E+02,,
DEU,,,,,,,,,,,,,,,,,,,,,,,,,,,,,,,,,,9.96057600000000E+01,9.60430000000000E+01,9.55174200000000E+01,9.63552700000000E+01,9.92354900000000E+01,,9.75277900000000E+01,1.01948150000000E+02,1.05553300000000E+02,1.03053830000000E+02,1.03611450000000E+02,1.02741300000000E+02,9.88601000000000E+01,9.89638600000000E+01,1.02744250000000E+02,1.00164980000000E+02,1.00274470000000E+02,,
DJI,,,,,,,,,,,,,1.90107100000000E+01,1.92817400000000E+01,1.93277300000000E+01,1.97920500000000E+01,1.86050500000000E+01,,,,,,,,,,2.74971300000000E+01,3.14136100000000E+01,3.01735800000000E+01,3.41005500000000E+01,3.20059100000000E+01,2.70062700000000E+01,2.91129700000000E+01,2.53085200000000E+01,2.76556700000000E+01,2.92474100000000E+01,2.69990600000000E+01,2.50893900000000E+01,,2.42449400000000E+01,2.77623400000000E+01,2.74714400000000E+01,,3.27250100000000E+01,3.24429200000000E+01,3.09113000000000E+01,3.52875400000000E+01,,4.17264400000000E+01,3.55748700000000E+01,,
DMA,,,,,,,,,,,,,,,,,,,,,,,,,,,,,,,,,,,,,,,,1.22870300000000E+02,1.18783680000000E+02,1.19896450000000E+02,1.04626330000000E+02,1.00346980000000E+02,1.02851320000000E+02,1.02347420000000E+02,9.28278700000000E+01,9.47105100000000E+01,9.02165800000000E+01,8.62500000000000E+01,8.38126500000000E+01,
DNK,,,,,,,,,,,,9.56534100000000E+01,9.28679700000000E+01,9.42483400000000E+01,9.31506300000000E+01,9.46715100000000E+01,1.01324020000000E+02,1.00269780000000E+02,1.07551160000000E+02,1.09058220000000E+02,1.02087910000000E+02,9.33371700000000E+01,9.14373600000000E+01,9.23541900000000E+01,9.78628900000000E+01,1.00030860000000E+02,9.69791000000000E+01,9.81537100000000E+01,1.01602130000000E+02,9.67224200000000E+01,9.47261500000000E+01,9.75298600000000E+01,9.70948000000000E+01,9.99348400000000E+01,9.82570000000000E+01,,,,1.03861080000000E+02,1.01257610000000E+02,9.99744400000000E+01,1.01199870000000E+02,1.05257700000000E+02,,1.00544620000000E+02,1.00257810000000E+02,1.01932890000000E+02,1.01465190000000E+02,,9.74061100000000E+01,,
DOM,,,,,,,,,,,,3.44300700000000E+01,,,,,,,,,,5.06712700000000E+01,,,,,,,,,,,,,6.10454000000000E+01,,,,,7.25956500000000E+01,7.78698200000000E+01,9.17425400000000E+01,9.05278400000000E+01,8.76776600000000E+01,8.63707200000000E+01,,8.38812400000000E+01,9.12865100000000E+01,,9.31484400000000E+01,9.20785300000000E+01,
DZA,,,,,,,,,,,,,4.28975600000000E+01,4.48017500000000E+01,4.72802100000000E+01,5.31065100000000E+01,5.91485100000000E+01,6.17010100000000E+01,6.40460400000000E+01,6.38260200000000E+01,6.34329200000000E+01,6.76420300000000E+01,6.93580800000000E+01,7.22302600000000E+01,7.70381000000000E+01,9.13910500000000E+01,7.54484200000000E+01,7.77926600000000E+01,7.90517200000000E+01,8.21086700000000E+01,8.07873500000000E+01,7.95101700000000E+01,8.22401000000000E+01,8.12061900000000E+01,7.97081500000000E+01,8.06904000000000E+01,8.36273900000000E+01,8.40160700000000E+01,,8.47342700000000E+01,8.24213500000000E+01,8.87330000000000E+01,9.02209200000000E+01,9.16667000000000E+01,9.29878900000000E+01,9.44450200000000E+01,,9.63950900000000E+01,1.15661310000000E+02,9.41266200000000E+01,9.59850800000000E+01,
EAS,,,,,,,,,,,,,,,,,,,,,,,,,,,,,,,,1.00925054699600E+02,,,,,,,,9.53211204858845E+01,9.62734481609416E+01,9.73440800183941E+01,9.76161173852634E+01,9.74718069824966E+01,9.71663837887053E+01,9.67846649687101E+01,9.62124053268673E+01,9.70358762650155E+01,,,,
ECA,,,,,,,,,,,,,,,,,,,,,,,,,,,,,,,,9.24715859878000E+01,,,,,,,,9.52370162400000E+01,9.41500874000000E+01,9.46238565400000E+01,9.52268051100000E+01,9.45671291000000E+01,9.56975053000000E+01,9.77041921500000E+01,9.61248693800000E+01,9.58717636100000E+01,9.53637231300000E+01,9.48990734200000E+01,,
ECS,,,,,,,,,,,,,,,,,,,,,,,,,,,,,,,,9.52908089533000E+01,,,,,,,,9.67134750392512E+01,9.62882388883960E+01,9.70188990090140E+01,9.71124186471187E+01,9.68376395246798E+01,9.71670911527028E+01,9.76235059695940E+01,9.67578477850575E+01,9.72225301604653E+01,9.70415538355764E+01,9.70249426261800E+01,,
ECU,,,,,,,,,,,,5.70332400000000E+01,5.63150900000000E+01,5.98892300000000E+01,6.25300900000000E+01,6.63030500000000E+01,7.06014900000000E+01,7.22975800000000E+01,7.13454100000000E+01,7.52936200000000E+01,7.82938400000000E+01,8.18882800000000E+01,8.43434500000000E+01,8.78237200000000E+01,8.99614300000000E+01,9.01407100000000E+01,,9.14353800000000E+01,9.20544000000000E+01,,,,,,9.11009200000000E+01,8.94746400000000E+01,8.96627900000000E+01,9.36979900000000E+01,,9.75908500000000E+01,9.87627400000000E+01,9.99909500000000E+01,1.00643570000000E+02,1.00808310000000E+02,1.01192660000000E+02,1.06166380000000E+02,1.05920470000000E+02,1.05501390000000E+02,,,,
EGY,,,,,,,,,,,,5.20720500000000E+01,4.87089700000000E+01,5.19583600000000E+01,5.42172300000000E+01,5.72070600000000E+01,5.85878700000000E+01,5.88922500000000E+01,5.16014900000000E+01,3.45769900000000E+01,4.45974000000000E+01,5.30717400000000E+01,,,,,7.03932300000000E+01,7.05441900000000E+01,,,,,,,,,,8.40859700000000E+01,,9.56064600000000E+01,9.43402200000000E+01,9.27721900000000E+01,9.20574500000000E+01,9.29628800000000E+01,9.49075600000000E+01,9.67529500000000E+01,9.19972400000000E+01,9.57748300000000E+01,,9.84948400000000E+01,,
EMU,,,,,,,,,,,,,,,,,,,,,,,,,,,,,,,,1.00740930580700E+02,,,,,,,,9.97368716330000E+01,1.00382167499500E+02,1.01133414993800E+02,9.98156012231000E+01,9.97470633811000E+01,9.91850156448000E+01,9.80290827816000E+01,9.83556109645000E+01,1.00080930564300E+02,1.00472803663700E+02,1.00819416445300E+02,,
ERI,,,,,,,,,,,,,,,,,,,,,,,,,,,,,,,,,,,1.79971900000000E+01,2.34383400000000E+01,3.28645100000000E+01,3.64115500000000E+01,,3.41351400000000E+01,3.62388500000000E+01,3.65756300000000E+01,3.53163700000000E+01,3.87020300000000E+01,4.35249100000000E+01,5.14344500000000E+01,4.91260000000000E+01,4.69672700000000E+01,4.65277500000000E+01,4.76236200000000E+01,3.98249100000000E+01,
ESP,,,,,,,,,,,,,,,,,,,,,,9.83081200000000E+01,9.80145400000000E+01,9.89033000000000E+01,1.02478560000000E+02,1.04155310000000E+02,1.04846400000000E+02,1.03469170000000E+02,1.08360860000000E+02,1.06654060000000E+02,1.03648740000000E+02,,,1.00767960000000E+02,1.01342590000000E+02,,,,,,,,,,1.03683270000000E+02,,9.77445900000000E+01,9.87100000000000E+01,1.00135450000000E+02,1.02437510000000E+02,,
EST,,,,,,,,,,,,,,,,,,,,,,,,,,,,,,,,,,,,8.06191200000000E+01,9.14099100000000E+01,,,9.14009100000000E+01,9.23459000000000E+01,9.68596100000000E+01,9.96021500000000E+01,1.04939030000000E+02,1.02924820000000E+02,1.05938590000000E+02,1.00121240000000E+02,9.88846800000000E+01,9.67670300000000E+01,9.75467200000000E+01,,
ETH,,,,,,,,,,,,,,,,,,,,,,,1.70038000000000E+01,,,,,2.47299200000000E+01,2.42108700000000E+01,2.31270900000000E+01,,,,,1.48653000000000E+01,1.49774100000000E+01,1.62163500000000E+01,,1.81743100000000E+01,2.07143300000000E+01,2.29988700000000E+01,2.82357400000000E+01,3.16584400000000E+01,3.47087400000000E+01,3.74078700000000E+01,4.32393400000000E+01,4.74029800000000E+01,4.83348100000000E+01,5.20677900000000E+01,5.51622900000000E+01,7.21925400000000E+01,
EUU,,,,,,,,,,,,,,,,,,,,,,,,,,,,,,,,9.90458563845000E+01,,,,,,,,,,,,,,,,,,,,
FIN,,,,,,,,,,,,,,,,,,,,,,,,,,,,1.04746070000000E+02,1.07309100000000E+02,1.06201640000000E+02,1.01887790000000E+02,9.73771700000000E+01,9.60888800000000E+01,9.46290800000000E+01,9.57481300000000E+01,9.99015000000000E+01,1.01391040000000E+02,1.00782460000000E+02,9.88091700000000E+01,9.60206300000000E+01,9.63727400000000E+01,1.02333800000000E+02,1.01070900000000E+02,1.02150990000000E+02,1.00424620000000E+02,1.00429380000000E+02,9.69600900000000E+01,9.83168400000000E+01,9.87586300000000E+01,9.76394800000000E+01,,
FJI,,,,,,,,,,,,,8.91350700000000E+01,9.55764200000000E+01,9.51263300000000E+01,,1.03038430000000E+02,1.02679820000000E+02,1.07162360000000E+02,1.00583240000000E+02,9.66981400000000E+01,9.55503400000000E+01,,9.51191500000000E+01,9.30824400000000E+01,9.60587400000000E+01,9.78574100000000E+01,,,,,,,,,,,,1.06935350000000E+02,1.00044960000000E+02,9.52814900000000E+01,9.70903800000000E+01,1.01807810000000E+02,1.05595300000000E+02,1.08660950000000E+02,1.12532330000000E+02,1.10998820000000E+02,1.02849660000000E+02,1.05745180000000E+02,1.05006660000000E+02,,
FRA,,,,,,,,,,,,9.25900000000000E+01,9.25347700000000E+01,,,9.46193000000000E+01,9.43126500000000E+01,9.36867900000000E+01,9.43791600000000E+01,9.41824500000000E+01,9.51041900000000E+01,,,,,,9.52268100000000E+01,9.27244900000000E+01,9.49238900000000E+01,9.66563000000000E+01,1.00920520000000E+02,1.05890890000000E+02,1.08605390000000E+02,,,,,,,9.69795100000000E+01,9.74462500000000E+01,,,,,,,,,,,
GAB,,,,,,,,,,,,,6.92292600000000E+01,6.79965700000000E+01,,9.40603700000000E+01,9.90595100000000E+01,9.17694800000000E+01,9.32161200000000E+01,9.59315400000000E+01,9.53200100000000E+01,9.93067100000000E+01,1.00006910000000E+02,9.82864300000000E+01,8.43657800000000E+01,1.01985050000000E+02,,7.38653700000000E+01,7.21792700000000E+01,7.00185300000000E+01,,,6.19747000000000E+01,,,6.76745800000000E+01,6.80939000000000E+01,7.00656300000000E+01,,,,,7.16429900000000E+01,6.88006200000000E+01,,,,,,,,
GEO,,,,,,,,,,,,,,,,,,,,,,,,,,,,,,,,,,,,8.35006300000000E+01,8.58238100000000E+01,8.63405700000000E+01,,8.41750600000000E+01,9.79687200000000E+01,1.00556370000000E+02,9.75006400000000E+01,8.90291300000000E+01,9.52022500000000E+01,8.50931400000000E+01,8.38396400000000E+01,9.41642300000000E+01,1.01862000000000E+02,1.09945220000000E+02,1.16242320000000E+02,
GHA,,,,,,,,,,,,6.50306500000000E+01,5.89736700000000E+01,,5.39015300000000E+01,5.55426800000000E+01,5.79835500000000E+01,5.99054800000000E+01,6.11484700000000E+01,6.12484600000000E+01,6.24587900000000E+01,6.58078100000000E+01,,,,,,,,,,6.37331200000000E+01,6.57175900000000E+01,,,,,,,6.80079800000000E+01,7.11097100000000E+01,6.74540600000000E+01,6.88077800000000E+01,6.97416200000000E+01,6.86496600000000E+01,7.45516500000000E+01,7.14191800000000E+01,7.79076300000000E+01,8.44201000000000E+01,8.66591800000000E+01,,
GIN,,,,,,,,,,,,,,,,,,1.95485200000000E+01,2.10490000000000E+01,,2.24366000000000E+01,1.83367600000000E+01,1.97074800000000E+01,1.92330500000000E+01,1.96686400000000E+01,1.60362500000000E+01,1.52537900000000E+01,1.45830100000000E+01,1.17124700000000E+01,1.26554600000000E+01,1.87958600000000E+01,1.68448200000000E+01,1.66145000000000E+01,1.87461200000000E+01,1.97475700000000E+01,1.95953300000000E+01,3.00583200000000E+01,,2.51449400000000E+01,2.91677800000000E+01,3.22918700000000E+01,3.45695100000000E+01,3.90872400000000E+01,3.97270500000000E+01,5.05082200000000E+01,5.76299500000000E+01,6.30375900000000E+01,6.37269400000000E+01,5.62587300000000E+01,6.34909600000000E+01,6.41162800000000E+01,
GMB,,,,,,,,,,,,2.40165400000000E+01,2.60767800000000E+01,2.51597200000000E+01,2.68259000000000E+01,2.84441700000000E+01,2.73149000000000E+01,2.09500000000000E+01,2.61923700000000E+01,2.69266600000000E+01,2.98602100000000E+01,3.00171400000000E+01,3.41847800000000E+01,3.79932700000000E+01,4.40516200000000E+01,4.59834300000000E+01,4.83213900000000E+01,5.26448500000000E+01,,4.59602900000000E+01,,,4.50720500000000E+01,4.29700800000000E+01,4.19981900000000E+01,4.48730800000000E+01,5.26979800000000E+01,,,6.60253100000000E+01,6.65552400000000E+01,6.85860800000000E+01,6.71097500000000E+01,7.05227400000000E+01,6.96600000000000E+01,6.70978900000000E+01,6.54959700000000E+01,7.24324000000000E+01,7.78135200000000E+01,7.64694500000000E+01,7.05097700000000E+01,
GNB,,,,,,,,,,,,,,,,,7.55844000000000E+00,1.70678300000000E+01,,1.98993000000000E+01,1.53852300000000E+01,2.14117800000000E+01,2.04639000000000E+01,1.39946100000000E+01,1.14356300000000E+01,,,7.34121000000000E+00,5.11673000000000E+00,,,,,,,,,,,2.91151400000000E+01,2.97369000000000E+01,,,,,,,,,,6.76219700000000E+01,
GNQ,,,,,,,,,,,,,,,,,,,,,,,,,,,,,,,,,,,5.08491600000000E+01,,,,,5.46195200000000E+01,,4.45254900000000E+01,4.34359900000000E+01,3.82989500000000E+01,,4.70853300000000E+01,,,,4.91161200000000E+01,5.23581900000000E+01,
GRC,,,,,,,,,,,,1.03849400000000E+02,1.00605350000000E+02,9.86256000000000E+01,9.75708600000000E+01,9.85089400000000E+01,1.00168820000000E+02,1.02013070000000E+02,1.03885220000000E+02,1.03417470000000E+02,9.97706500000000E+01,9.72325100000000E+01,9.50086800000000E+01,9.63941400000000E+01,9.97629400000000E+01,1.03215720000000E+02,1.10109080000000E+02,1.02283360000000E+02,1.03091620000000E+02,9.94769200000000E+01,,,9.85849200000000E+01,,,,,,,,,,,,1.01630090000000E+02,1.00000920000000E+02,1.03119350000000E+02,1.00939030000000E+02,,,,
GRD,,,,,,,,,,,,,,,,,9.62737100000000E+01,9.35115900000000E+01,8.40721300000000E+01,8.62327400000000E+01,,,,9.73237000000000E+01,8.74266600000000E+01,8.45609700000000E+01,,,,,,,,,,,,,,,7.14899700000000E+01,8.00219900000000E+01,9.14516800000000E+01,1.00362320000000E+02,,1.14569540000000E+02,,9.76410700000000E+01,1.10591020000000E+02,1.21245770000000E+02,,
GTM,,,,,,,,,,,2.39632900000000E+01,2.40829600000000E+01,2.60529200000000E+01,,,2.95000600000000E+01,3.05237600000000E+01,3.03797100000000E+01,3.15842900000000E+01,3.21599800000000E+01,3.42093200000000E+01,3.42882500000000E+01,3.42535000000000E+01,3.55697300000000E+01,3.70820600000000E+01,3.86622600000000E+01,4.16796700000000E+01,,,,,,,,,,4.79487700000000E+01,,,5.29813900000000E+01,5.77102900000000E+01,6.03112400000000E+01,6.40460300000000E+01,6.53027400000000E+01,6.99531000000000E+01,7.37340300000000E+01,7.67277500000000E+01,7.73508300000000E+01,8.01550300000000E+01,,8.36755700000000E+01,
GUY,,,,,,,,,,,,9.48874700000000E+01,9.13292400000000E+01,8.85535100000000E+01,8.71530400000000E+01,,8.27389600000000E+01,9.11457400000000E+01,8.82742400000000E+01,9.08750200000000E+01,8.46135800000000E+01,8.87400100000000E+01,8.95876800000000E+01,8.48163800000000E+01,8.96070400000000E+01,,,8.69890900000000E+01,,,,,8.75859500000000E+01,8.61766100000000E+01,,7.50383500000000E+01,7.94532000000000E+01,8.25487800000000E+01,,1.01894110000000E+02,1.02747700000000E+02,8.66277700000000E+01,,7.86861100000000E+01,8.16439300000000E+01,,,9.85053200000000E+01,9.44972600000000E+01,9.23536600000000E+01,8.32100800000000E+01,
HIC,,,,,,,,,,,,,,,,,,,,,,,,,,,,,,,,,,,,,,,,9.73073989700000E+01,9.74973143100000E+01,9.87569988100000E+01,9.82862356100000E+01,9.86067411000000E+01,9.79732146800000E+01,9.68972569300000E+01,9.62268408800000E+01,9.72126151400000E+01,9.70938554400000E+01,9.73307183500000E+01,,
HKG,,,,,,,,,,,,,,,,,,,,,1.00484420000000E+02,9.83431500000000E+01,9.79146700000000E+01,9.76418800000000E+01,1.01688560000000E+02,1.02036540000000E+02,1.04529190000000E+02,,,1.01562770000000E+02,1.01608120000000E+02,1.02233040000000E+02,1.02166690000000E+02,1.02932370000000E+02,1.01056200000000E+02,9.89067600000000E+01,9.39018500000000E+01,,,,,9.66634100000000E+01,9.71980600000000E+01,9.83291000000000E+01,9.91193200000000E+01,9.88720000000000E+01,1.00361140000000E+02,1.01400620000000E+02,9.75159800000000E+01,9.57444800000000E+01,,
HND,,,,,,,,,,,,,,,,,,,,,4.45750000000000E+01,,4.97387000000000E+01,,5.49749900000000E+01,,,,,,,6.40471100000000E+01,,6.89760100000000E+01,7.05752800000000E+01,,,,,,,,,,8.08978100000000E+01,8.18251000000000E+01,8.90375400000000E+01,,9.01803800000000E+01,9.34280900000000E+01,9.85288400000000E+01,
HPC,,,,,,,,,,,,,,,,,,,,,,,,,,,,,,,,3.80389500454000E+01,,,,,,,,,,,,,,,,,,,,
HRV,,,,,,,,,,,,,,,,,,,,,,,,,,,,,,,,,,,8.52671100000000E+01,8.15608300000000E+01,8.54577200000000E+01,8.62436400000000E+01,9.16216900000000E+01,9.16495700000000E+01,9.26045000000000E+01,9.46855900000000E+01,9.51399700000000E+01,9.16402600000000E+01,,9.52433500000000E+01,9.63665600000000E+01,1.01074790000000E+02,9.83343100000000E+01,9.50573600000000E+01,,
HTI,,,,,,,,,,,,,,,,,,,,2.61721400000000E+01,2.70902400000000E+01,,2.82395900000000E+01,3.07533600000000E+01,,3.37245900000000E+01,3.60340900000000E+01,3.79158100000000E+01,3.07030000000000E+01,2.96355100000000E+01,2.85041200000000E+01,2.73546000000000E+01,,,,,,4.70754100000000E+01,,,,,,,,,,,,,,
HUN,,,,,,,,,,,,9.01444100000000E+01,8.76549500000000E+01,8.93487200000000E+01,9.35300000000000E+01,9.51690900000000E+01,9.70037500000000E+01,1.01153310000000E+02,1.07211360000000E+02,1.02274050000000E+02,9.93005300000000E+01,9.26514200000000E+01,9.03314200000000E+01,9.05169700000000E+01,9.79507500000000E+01,1.10512940000000E+02,1.04830490000000E+02,1.01281790000000E+02,9.66270600000000E+01,9.23840700000000E+01,8.92916900000000E+01,8.16912800000000E+01,8.34623000000000E+01,8.46406600000000E+01,,,,9.85980400000000E+01,1.00034870000000E+02,9.63911000000000E+01,9.71878000000000E+01,9.87873600000000E+01,1.00237270000000E+02,9.70660100000000E+01,9.54884100000000E+01,9.44859400000000E+01,9.90398300000000E+01,9.57498200000000E+01,9.74406000000000E+01,9.75293700000000E+01,,
IDN,,,,,,,,,,,,,5.17772800000000E+01,5.31306000000000E+01,5.12978100000000E+01,4.99532000000000E+01,4.95886800000000E+01,5.43465900000000E+01,5.73015600000000E+01,,,6.70466000000000E+01,7.16307700000000E+01,7.68353300000000E+01,8.64962800000000E+01,9.62515900000000E+01,9.88148300000000E+01,9.82175100000000E+01,9.86879100000000E+01,9.92391000000000E+01,9.64989600000000E+01,9.34653200000000E+01,9.20927900000000E+01,9.58677400000000E+01,9.85674600000000E+01,9.89328900000000E+01,9.83202700000000E+01,9.88819800000000E+01,,,,9.27356000000000E+01,9.46716000000000E+01,9.60700100000000E+01,9.69241600000000E+01,9.64540800000000E+01,9.58387200000000E+01,1.02292080000000E+02,1.01303060000000E+02,1.04518020000000E+02,,
IND,,,,,,,,,,,,3.94041600000000E+01,,,4.19387000000000E+01,,,,,,,,,,,,,6.31188600000000E+01,6.43283900000000E+01,,,,,,,7.39325600000000E+01,,,,6.88457800000000E+01,7.14789300000000E+01,7.19712300000000E+01,7.51583000000000E+01,7.94343100000000E+01,8.41332500000000E+01,8.55125300000000E+01,8.66742200000000E+01,9.43530800000000E+01,9.56872900000000E+01,,,
IRL,,,,,,,,,,,,,,,,,,,,,,,,,,,,,,,,,1.03126510000000E+02,1.03793680000000E+02,1.02085860000000E+02,1.01256890000000E+02,,,9.63107000000000E+01,9.89534100000000E+01,9.74721400000000E+01,9.37911800000000E+01,9.58904800000000E+01,9.89046900000000E+01,9.92005400000000E+01,9.59606500000000E+01,,,,,,
IRN,,,,,,,,,,,,5.24261700000000E+01,,,,,,,,,,,,,7.56478400000000E+01,7.92580700000000E+01,8.03026200000000E+01,8.03782000000000E+01,8.05782700000000E+01,8.09609900000000E+01,8.38700000000000E+01,8.76199600000000E+01,9.08468800000000E+01,9.65991100000000E+01,9.54568900000000E+01,1.00104780000000E+02,,1.00211550000000E+02,,,9.28474600000000E+01,9.64871000000000E+01,9.64458900000000E+01,9.28350900000000E+01,1.03269370000000E+02,1.06388940000000E+02,9.91522200000000E+01,9.57368100000000E+01,9.92676100000000E+01,1.03565430000000E+02,,
IRQ,,,,,,,,,,,,3.84896800000000E+01,3.89350400000000E+01,4.22328900000000E+01,4.25778200000000E+01,4.97525500000000E+01,5.01250300000000E+01,6.35490700000000E+01,6.50410000000000E+01,,7.26524500000000E+01,,,5.50138800000000E+01,,6.34894100000000E+01,6.25206500000000E+01,5.68912400000000E+01,5.94757900000000E+01,5.76905100000000E+01,,,,5.76311200000000E+01,,,,,,5.67092700000000E+01,5.56212500000000E+01,6.02679900000000E+01,,7.95125300000000E+01,7.85922900000000E+01,,,6.51988100000000E+01,,,,
ISL,,,,,,,,,,,,,,,,,,,,,,,,,,,,,,,,,,,,,,,9.01635500000000E+01,8.99646600000000E+01,9.75661600000000E+01,1.07886660000000E+02,1.03036620000000E+02,1.07971010000000E+02,9.85562000000000E+01,1.00152310000000E+02,9.95490700000000E+01,9.69240700000000E+01,9.57558500000000E+01,9.93768100000000E+01,,
ISR,,,,,,,,,,,,,,,,,,,,,,,,,,,,,,,,,,,,,,,,,,,1.04462410000000E+02,1.04531340000000E+02,1.08124040000000E+02,1.04133440000000E+02,1.02745870000000E+02,1.03546340000000E+02,1.00332060000000E+02,1.03466930000000E+02,,
ITA,,,,,,,,,,,,9.76544700000000E+01,1.00021960000000E+02,1.00225940000000E+02,1.01669800000000E+02,1.08885310000000E+02,1.05613490000000E+02,1.04248320000000E+02,1.00899730000000E+02,1.00210030000000E+02,1.01791430000000E+02,9.91564800000000E+01,9.99547000000000E+01,9.93680800000000E+01,9.95643200000000E+01,1.01315140000000E+02,9.98939500000000E+01,9.81256100000000E+01,9.74454900000000E+01,9.79373600000000E+01,9.91187600000000E+01,9.75924800000000E+01,9.88115700000000E+01,,1.00494620000000E+02,9.93897900000000E+01,1.00555990000000E+02,9.73379600000000E+01,,1.01390700000000E+02,1.01885720000000E+02,1.04411910000000E+02,1.02366710000000E+02,1.02056300000000E+02,9.99471800000000E+01,9.81433300000000E+01,9.88727800000000E+01,1.01281310000000E+02,1.04907240000000E+02,1.02882440000000E+02,,
JAM,,,,,,,,,,,,,,,,,7.83245300000000E+01,7.87331700000000E+01,,8.51843900000000E+01,8.36491300000000E+01,8.55682100000000E+01,,,8.94274000000000E+01,8.61988500000000E+01,8.69142100000000E+01,8.91385500000000E+01,9.11060400000000E+01,9.40779100000000E+01,9.53782500000000E+01,9.40986100000000E+01,,9.18843500000000E+01,,,,,,,8.79369100000000E+01,8.20241400000000E+01,8.79908900000000E+01,,8.80659300000000E+01,8.63059500000000E+01,,8.43303400000000E+01,,7.45701000000000E+01,,
JOR,,,,,,,,,,,,,7.04664300000000E+01,7.70192000000000E+01,8.97558300000000E+01,9.96909500000000E+01,1.00861640000000E+02,1.01012730000000E+02,1.02416550000000E+02,1.00626760000000E+02,1.00726300000000E+02,9.86088200000000E+01,9.86401300000000E+01,9.60159600000000E+01,1.00857700000000E+02,1.02535150000000E+02,,9.20616500000000E+01,9.38438500000000E+01,9.47864700000000E+01,9.75832200000000E+01,1.00960840000000E+02,1.02461960000000E+02,1.01612640000000E+02,1.04718580000000E+02,,9.77466800000000E+01,,,9.18864200000000E+01,9.38616300000000E+01,,9.30226800000000E+01,9.75099200000000E+01,9.97931000000000E+01,1.04782500000000E+02,1.02614080000000E+02,1.03928390000000E+02,1.01375830000000E+02,,,
JPN,,,,,,,,,,,,1.04476130000000E+02,1.01257460000000E+02,9.90897500000000E+01,9.83228500000000E+01,9.80486300000000E+01,9.78940900000000E+01,1.01521760000000E+02,9.75466800000000E+01,8.92678000000000E+01,1.04250880000000E+02,1.03617970000000E+02,1.00454870000000E+02,9.96773000000000E+01,1.00189970000000E+02,1.00261810000000E+02,1.00410580000000E+02,9.91249600000000E+01,9.68827500000000E+01,9.74155000000000E+01,1.00567720000000E+02,1.02309890000000E+02,1.02394320000000E+02,,9.98886800000000E+01,,,,1.01958620000000E+02,,,,,,,,,,,1.02433530000000E+02,,
KAZ,,,,,,,,,,,,,,,,,,,,,,,,,,,,,,,,,,,1.02847350000000E+02,,,1.00940010000000E+02,9.78662700000000E+01,,9.26290900000000E+01,9.49918100000000E+01,9.64616600000000E+01,9.78519000000000E+01,1.04936910000000E+02,1.06463840000000E+02,1.03652690000000E+02,1.01407730000000E+02,1.06157260000000E+02,1.07681160000000E+02,1.10424550000000E+02,
KEN,,,,,,,,,,,4.84197000000000E+01,5.06519600000000E+01,5.39078900000000E+01,5.56709100000000E+01,,6.06436900000000E+01,6.26071500000000E+01,6.70135600000000E+01,6.83726100000000E+01,8.93650000000000E+01,8.60492200000000E+01,8.45831900000000E+01,,,,,,,,,,,,,,,,,,,,,,,8.85788200000000E+01,9.06541500000000E+01,,,,,,
KGZ,,,,,,,,,,,,,,,,,,,,,,,,,,,,,,,,,,,,1.02728860000000E+02,9.90819800000000E+01,,,9.35754700000000E+01,9.33859200000000E+01,9.32653100000000E+01,9.34754600000000E+01,9.07743100000000E+01,9.34435100000000E+01,9.84089300000000E+01,1.01977430000000E+02,9.68745400000000E+01,9.48587600000000E+01,9.71592200000000E+01,9.65716400000000E+01,
KHM,,,,,,,,,,,,,,,,,,,,,,,,,,,,,,,,,,,4.54055700000000E+01,4.25102300000000E+01,,1.59217900000000E+01,3.08266700000000E+01,4.08885300000000E+01,,5.16330300000000E+01,5.89538300000000E+01,6.50940400000000E+01,7.62694500000000E+01,8.64026200000000E+01,8.98519800000000E+01,9.09678900000000E+01,8.63165300000000E+01,8.43444900000000E+01,8.70961100000000E+01,
KIR,,,,,,,,,,,,,,,,,,,,,,,,,,,,,,,1.01048090000000E+02,,,,,1.10080860000000E+02,,,,1.07153010000000E+02,9.92085700000000E+01,1.17003680000000E+02,1.09791480000000E+02,1.15015690000000E+02,1.15801150000000E+02,1.18141980000000E+02,,,,,,
KNA,,,,,,,,,,,,,,,,,,,,,,,,,,,,,,,,,1.18376070000000E+02,,,,,,,,1.00736070000000E+02,1.02906350000000E+02,1.09534370000000E+02,9.96583100000000E+01,1.10409360000000E+02,1.09058400000000E+02,,9.32126700000000E+01,8.47420400000000E+01,9.37167200000000E+01,8.86812000000000E+01,
KOR,,,,,,,,,,,,9.34741300000000E+01,9.49056000000000E+01,1.04321060000000E+02,1.03132380000000E+02,1.03367000000000E+02,1.06782490000000E+02,1.00471640000000E+02,9.86215200000000E+01,1.01256370000000E+02,9.83489100000000E+01,1.03467120000000E+02,1.00946060000000E+02,1.02624100000000E+02,1.08524950000000E+02,1.05127360000000E+02,1.02703910000000E+02,1.02016580000000E+02,9.76827000000000E+01,9.34904800000000E+01,9.92464100000000E+01,9.93828500000000E+01,1.11605000000000E+02,1.11544990000000E+02,1.13872730000000E+02,1.11413670000000E+02,,,9.65563000000000E+01,1.04481000000000E+02,1.04080520000000E+02,1.00650880000000E+02,9.59481000000000E+01,1.02474030000000E+02,1.01561450000000E+02,9.94161700000000E+01,1.00021400000000E+02,1.01408650000000E+02,9.96706000000000E+01,1.00761140000000E+02,,
KWT,,,,,,,,,,,,6.07681800000000E+01,5.58733400000000E+01,5.30005800000000E+01,4.96943700000000E+01,5.79512400000000E+01,8.00336100000000E+01,6.64961500000000E+01,7.26195600000000E+01,7.45577500000000E+01,8.18659700000000E+01,9.45299600000000E+01,9.32701500000000E+01,9.63771500000000E+01,9.66473500000000E+01,9.61778400000000E+01,9.48883900000000E+01,9.46186200000000E+01,,,,,5.69140700000000E+01,,8.05904800000000E+01,7.34061500000000E+01,1.02906380000000E+02,1.01957810000000E+02,,1.03613980000000E+02,1.02944360000000E+02,9.05246700000000E+01,9.70309700000000E+01,1.02305450000000E+02,1.04920380000000E+02,1.15127570000000E+02,1.04566330000000E+02,1.12117360000000E+02,,,,
LAC,,,,,,,,,,,,,,,,,,,,,,,,,,,,,,,,8.43370662913000E+01,,,,,,,9.67927800000000E+01,9.60383571300000E+01,9.74909152100000E+01,9.82629779700000E+01,9.94482388200000E+01,9.86387509900000E+01,9.80034266100000E+01,9.89128201700000E+01,1.00015287200000E+02,1.01005548800000E+02,1.01161611200000E+02,1.01571028700000E+02,,
LAO,,,,,,,,,,,,,,,,,,,,,,,,,,,,,4.29316000000000E+01,,4.45758400000000E+01,,4.13340300000000E+01,4.42465500000000E+01,4.92329800000000E+01,,5.75550800000000E+01,6.06623000000000E+01,6.50728900000000E+01,7.10198800000000E+01,6.93592600000000E+01,6.94583100000000E+01,6.98269300000000E+01,6.92457100000000E+01,6.95324000000000E+01,7.17386300000000E+01,7.52819800000000E+01,7.73906700000000E+01,7.94773000000000E+01,,,
LBN,,,,,,,,,,,,,,,,,,,,,,,,,,,,,,,,,,,,,,8.29829300000000E+01,8.67654900000000E+01,1.02144560000000E+02,,,,,,,8.49740600000000E+01,8.55638400000000E+01,8.70758400000000E+01,8.49934500000000E+01,8.72568200000000E+01,
LBR,,,,,,,,,,,,,,,,,,,2.61053300000000E+01,,,,,,,,,,,,,,,,,,,,,,,,,,,,,6.90530400000000E+01,6.23387100000000E+01,,,
LBY,,,,,,,,,,,,4.43220700000000E+01,8.07705300000000E+01,7.27276200000000E+01,9.07427200000000E+01,1.12799590000000E+02,1.07424490000000E+02,1.11899830000000E+02,1.09490480000000E+02,1.02841950000000E+02,9.41891000000000E+01,9.52991300000000E+01,,9.86781400000000E+01,,,,,,,,,,,,,,,,,,,,,,,,,,,,
LCA,,,,,,,,,,,,,,,,,,,,,,,,1.03252940000000E+02,9.84238700000000E+01,,,,,,1.23799190000000E+02,1.16233970000000E+02,,1.19962800000000E+02,,,,,,1.02425800000000E+02,9.53606800000000E+01,1.02929580000000E+02,1.04453210000000E+02,1.03818950000000E+02,1.02960430000000E+02,9.87920600000000E+01,1.06403510000000E+02,1.07309070000000E+02,9.75609800000000E+01,9.62939900000000E+01,8.96529800000000E+01,
LCN,,,,,,,,,,,,,,,,,,,,,,,,,,,,,,,,8.43918974370000E+01,,,,,,,,9.53907845156338E+01,9.67764375265176E+01,9.74919623312162E+01,9.86362535017239E+01,9.78003866591357E+01,9.71495974997192E+01,9.80067135688738E+01,9.90616137904551E+01,1.00050683421031E+02,1.00200981042006E+02,1.00612107881282E+02,,
LDC,,,,,,,,,,,,,,,,,,,,,,,,,,,,,,,,3.91623473401000E+01,,,,,,,,,,,,,,,,,,,,
LIC,,,,,,,,,,,,,,,,,,,,,,,,,,,,,,,,4.39191590860000E+01,,,,,,,,4.90806151600000E+01,5.06707669800000E+01,5.18712956100000E+01,5.35124675700000E+01,5.46133627300000E+01,5.57990462600000E+01,5.79394699900000E+01,5.91619824500000E+01,5.99991041300000E+01,6.19296506600000E+01,6.53484120200000E+01,,
LIE,,,,,,,,,,,,,,,,,,,,,,,,,,,,,,,,,,,,,,,,,,,,9.03890200000000E+01,1.09020620000000E+02,,1.01781170000000E+02,1.02869760000000E+02,1.03649640000000E+02,9.45945900000000E+01,,
LKA,,,,,,,,,,,6.47363000000000E+01,,8.04811000000000E+01,,7.41150600000000E+01,7.26269600000000E+01,4.36702400000000E+01,5.99879300000000E+01,6.61805700000000E+01,7.11792100000000E+01,7.59510800000000E+01,7.95841200000000E+01,8.56991200000000E+01,8.08880500000000E+01,7.98449900000000E+01,8.29932100000000E+01,8.36718500000000E+01,8.89625100000000E+01,,9.51077600000000E+01,9.76411700000000E+01,1.01171160000000E+02,1.02169950000000E+02,,,,,,9.48810800000000E+01,,,1.07061630000000E+02,,,,1.04998270000000E+02,1.03577070000000E+02,1.01613940000000E+02,9.64354700000000E+01,9.53782400000000E+01,,
LMC,,,,,,,,,,,,,,,,,,,,,,,,,,,,,,,,6.80959774040000E+01,,,,,,,,7.24584622900000E+01,7.38449653100000E+01,7.45825057800000E+01,7.61723275900000E+01,7.87194043900000E+01,8.17633149800000E+01,8.31569470900000E+01,8.34923451200000E+01,8.72465520000000E+01,8.79233933100000E+01,8.81568831000000E+01,,
LMY,,,,,,,,,,,,,,,,,,,,,,,,,,,,,,,,7.75229415957000E+01,,,,,,,,7.90011829700000E+01,8.00101812900000E+01,8.07034756900000E+01,8.17282429100000E+01,8.24883172100000E+01,8.37747012700000E+01,8.44490441900000E+01,8.42690111900000E+01,8.61442634000000E+01,8.68648006000000E+01,8.74176608200000E+01,,
LSO,,,,,,,,,,,,3.26320500000000E+01,3.61394700000000E+01,4.00708300000000E+01,4.94263700000000E+01,5.21862500000000E+01,4.85702800000000E+01,4.46413400000000E+01,4.52066100000000E+01,4.60764200000000E+01,4.61964200000000E+01,4.73405700000000E+01,4.77804100000000E+01,4.89969500000000E+01,4.96554300000000E+01,4.98624800000000E+01,4.99016800000000E+01,5.24949500000000E+01,5.52414100000000E+01,5.58745100000000E+01,5.83981000000000E+01,5.88319500000000E+01,6.11889700000000E+01,6.09318100000000E+01,6.32063100000000E+01,,6.41036100000000E+01,,6.28358700000000E+01,6.12323900000000E+01,5.97782000000000E+01,6.13964200000000E+01,6.21208000000000E+01,6.35506700000000E+01,6.52653000000000E+01,6.01565200000000E+01,7.56930900000000E+01,7.07930100000000E+01,6.79701100000000E+01,6.77762000000000E+01,6.95645800000000E+01,
LTU,,,,,,,,,,,,,,,,,,,,,,,,,,,,,,,,,,,,9.30171700000000E+01,9.70963700000000E+01,9.92666300000000E+01,,9.66534500000000E+01,9.71877400000000E+01,1.03625730000000E+02,1.04659760000000E+02,1.06456250000000E+02,9.97272400000000E+01,9.16620500000000E+01,9.31637900000000E+01,9.56718100000000E+01,9.19196200000000E+01,9.58715100000000E+01,,
LUX,,,,,,,,,,,,,,,,8.47166600000000E+01,8.42095200000000E+01,8.69342000000000E+01,8.50817200000000E+01,8.46549800000000E+01,,,,8.15035000000000E+01,,,,,,,,,,,,,,,,8.24042165011000E+01,,8.39622641509000E+01,8.51498127341000E+01,8.36095428884000E+01,8.26773049645000E+01,7.94356932664000E+01,8.43776532518000E+01,8.21924686192000E+01,8.36727935089000E+01,,,
LVA,,,,,,,,,,,,,,,,,,,,,,,,,,,,,,,,,,,,7.33284100000000E+01,7.35703600000000E+01,8.81862000000000E+01,,9.06548600000000E+01,9.23743200000000E+01,9.81354800000000E+01,9.79701000000000E+01,1.02809510000000E+02,9.85636400000000E+01,9.46950100000000E+01,9.20527500000000E+01,9.39443700000000E+01,9.15771000000000E+01,8.92174900000000E+01,,
MAC,,,,,,,,,,,,,,,,,,,,,,,,,,,,,,,9.71917800000000E+01,,9.38897800000000E+01,9.33224800000000E+01,,,,,,1.00331670000000E+02,9.94566600000000E+01,1.00209880000000E+02,1.00787600000000E+02,9.83204300000000E+01,1.02865330000000E+02,9.57355500000000E+01,1.01461280000000E+02,9.79880500000000E+01,9.70896400000000E+01,9.52100100000000E+01,9.72957300000000E+01,
MAR,,,,,,,,,,,,2.83973200000000E+01,2.76949900000000E+01,2.83424400000000E+01,2.89660400000000E+01,3.05328100000000E+01,3.31670500000000E+01,3.56127600000000E+01,3.94106400000000E+01,4.30401300000000E+01,4.59489900000000E+01,4.75277600000000E+01,4.97945100000000E+01,5.03645000000000E+01,5.08527400000000E+01,5.85931600000000E+01,5.64079100000000E+01,5.57251000000000E+01,5.19941700000000E+01,4.48010400000000E+01,5.14097000000000E+01,4.80925800000000E+01,4.64820000000000E+01,4.65473200000000E+01,4.62561400000000E+01,4.78047300000000E+01,4.85909100000000E+01,4.97395200000000E+01,5.19574800000000E+01,5.46130100000000E+01,5.73788100000000E+01,5.91535000000000E+01,6.19614100000000E+01,6.67948800000000E+01,7.49869700000000E+01,8.02076800000000E+01,8.39512200000000E+01,8.36309700000000E+01,8.17612300000000E+01,8.09392300000000E+01,8.46891500000000E+01,
MCO,,,,,,,,,,,,,,,,,,,,,,,,,,,,,,,,,,,,,,,,,,,,,,,,,,1.32167830000000E+02,,
MDA,,,,,,,,,,,,,,,,,,,,,,,,,,,,,,,,,,,,9.42910200000000E+01,,,,9.43563100000000E+01,9.77865300000000E+01,9.72611500000000E+01,9.71417000000000E+01,9.53809000000000E+01,9.62239400000000E+01,9.94899500000000E+01,9.80302600000000E+01,9.29134700000000E+01,9.13765500000000E+01,9.28158400000000E+01,,
MDG,,,,,,,,,,,,2.71348500000000E+01,2.98716500000000E+01,2.95116500000000E+01,,3.21364100000000E+01,,,,,,,,,,,,,3.86594100000000E+01,3.69777900000000E+01,3.69883500000000E+01,3.57937900000000E+01,3.30880600000000E+01,3.43493700000000E+01,3.15929300000000E+01,3.13981200000000E+01,3.18662800000000E+01,,3.18304800000000E+01,3.41369900000000E+01,3.71093200000000E+01,3.66707900000000E+01,3.67531200000000E+01,4.06425400000000E+01,4.66509700000000E+01,5.92460000000000E+01,5.81613300000000E+01,6.25626900000000E+01,6.91014100000000E+01,7.59730100000000E+01,7.24563300000000E+01,
MDV,,,,,,,,,,,,,,,,,,,,,,,,,,,,,,,,,,,,,,,,,,,,1.47290390000000E+02,1.51718450000000E+02,1.40168830000000E+02,1.31786290000000E+02,,1.14663710000000E+02,1.20317110000000E+02,,
MEA,,,,,,,,,,,,,,,,,,,,,,,,,,,,,,,,,,,,,,,,8.30998157995999E+01,8.27635284368770E+01,8.43767072888229E+01,8.54109672349008E+01,8.71864431152732E+01,9.02584842411535E+01,9.16706903173793E+01,8.91866790384114E+01,8.90489654579913E+01,9.07019262297358E+01,8.84234525835759E+01,,
MEX,,,,,,,,,,,,,,,,6.84100900000000E+01,7.02742800000000E+01,7.54755600000000E+01,7.55198700000000E+01,7.92618200000000E+01,8.19997000000000E+01,8.42377700000000E+01,8.56501600000000E+01,8.73506100000000E+01,9.14319100000000E+01,9.04156700000000E+01,9.16855700000000E+01,9.10359800000000E+01,9.03434800000000E+01,9.00543600000000E+01,8.83797800000000E+01,8.84486100000000E+01,9.02763900000000E+01,9.15796800000000E+01,9.34235900000000E+01,9.66265500000000E+01,9.87501800000000E+01,9.92072500000000E+01,,9.81697300000000E+01,9.86124600000000E+01,9.87221900000000E+01,9.93482400000000E+01,9.85898700000000E+01,9.94169700000000E+01,9.95781700000000E+01,1.00698870000000E+02,1.03602540000000E+02,1.04287240000000E+02,1.03924520000000E+02,,
MHL,,,,,,,,,,,,,,,,,,,,,,,,,,,,,,,,,,,,,,,,9.25298200000000E+01,,,1.14467770000000E+02,1.03839730000000E+02,,1.10392160000000E+02,1.14581280000000E+02,1.16182170000000E+02,1.12933460000000E+02,1.07569010000000E+02,,
MKD,,,,,,,,,,,,,,,,,,,,,,,,,,,,,,,,,,9.81389400000000E+01,9.84369400000000E+01,9.68437100000000E+01,9.90672800000000E+01,9.94604300000000E+01,1.03143060000000E+02,1.03907300000000E+02,1.00415470000000E+02,9.86896900000000E+01,9.96982300000000E+01,9.56837800000000E+01,9.43656000000000E+01,9.53690800000000E+01,9.34130900000000E+01,9.28342200000000E+01,9.25684500000000E+01,9.22900400000000E+01,,
MLI,,,,,,,,,,,,9.67697000000000E+00,8.71763000000000E+00,9.00818000000000E+00,9.75279000000000E+00,,1.09724100000000E+01,1.30498400000000E+01,1.21273200000000E+01,1.27789600000000E+01,1.13727200000000E+01,1.10279800000000E+01,,1.12328300000000E+01,1.08451900000000E+01,1.04028500000000E+01,9.69092000000000E+00,9.67066000000000E+00,9.42700000000000E+00,,,,,,,,,,,,2.93622500000000E+01,3.31963100000000E+01,3.41880300000000E+01,3.72491300000000E+01,3.91145500000000E+01,4.06309200000000E+01,4.56115200000000E+01,4.84309400000000E+01,5.07834700000000E+01,5.21043500000000E+01,5.48324200000000E+01,
MLT,,,,,,,,,,,,1.12430100000000E+02,1.18625830000000E+02,1.17323240000000E+02,1.22659750000000E+02,1.08774220000000E+02,8.19786600000000E+01,1.03412760000000E+02,9.54831900000000E+01,1.02756670000000E+02,1.07600530000000E+02,1.25507050000000E+02,1.11373900000000E+02,1.06569190000000E+02,1.00900370000000E+02,1.05528580000000E+02,1.04578230000000E+02,1.08597600000000E+02,1.00226240000000E+02,1.02719090000000E+02,1.02039760000000E+02,9.96721300000000E+01,1.02118130000000E+02,1.04852870000000E+02,1.04010330000000E+02,9.96895500000000E+01,1.00606270000000E+02,9.93899300000000E+01,1.01300300000000E+02,9.68130800000000E+01,1.00050170000000E+02,9.91316200000000E+01,1.00243010000000E+02,9.91484800000000E+01,9.73473800000000E+01,9.46535000000000E+01,,9.58619300000000E+01,9.84658900000000E+01,9.20300400000000E+01,,
MMR,,,,,,,,,,,,3.73297700000000E+01,3.55706600000000E+01,4.39680600000000E+01,4.16622300000000E+01,,,,,,,,,,,,,,,,,,,,,,,,,7.41357000000000E+01,8.08420100000000E+01,8.07378300000000E+01,8.22105800000000E+01,8.53094200000000E+01,8.82790400000000E+01,,9.51492800000000E+01,9.65040700000000E+01,9.89647300000000E+01,9.99852800000000E+01,1.03596160000000E+02,
MNA,,,,,,,,,,,,,,,,,,,,,,,,,,,,,,,,,,,,,,,,8.31212354500000E+01,8.26423184200000E+01,8.43594407100000E+01,8.53046165900000E+01,8.70519346500000E+01,9.02345183600000E+01,9.16404959200000E+01,8.87009643000000E+01,8.82590990600000E+01,9.00815158700000E+01,8.80733081400000E+01,,
MNG,,,,,,,,,,,,,,,,,,,1.00889810000000E+02,1.04194810000000E+02,1.03267390000000E+02,,,1.02716670000000E+02,,,,,,,,,,,,7.43648900000000E+01,8.14953700000000E+01,8.02206300000000E+01,9.20822100000000E+01,8.58116300000000E+01,8.57966300000000E+01,9.07813300000000E+01,9.85089300000000E+01,1.00358260000000E+02,9.74436400000000E+01,9.58766200000000E+01,1.09654370000000E+02,1.08135630000000E+02,,,1.05234230000000E+02,
MOZ,,,,,,,,,,,,,,8.20241000000000E+00,,,,,,,,,3.52348600000000E+01,2.75368100000000E+01,3.25248300000000E+01,3.25025100000000E+01,4.32705500000000E+01,3.21352900000000E+01,2.52519700000000E+01,2.50165400000000E+01,2.64457100000000E+01,2.63553100000000E+01,2.46531600000000E+01,2.47767800000000E+01,2.54241900000000E+01,2.59277000000000E+01,,,,1.40266000000000E+01,1.61767700000000E+01,1.89246200000000E+01,2.23401500000000E+01,,2.95574200000000E+01,4.16258300000000E+01,4.13259800000000E+01,4.57776500000000E+01,5.88859900000000E+01,5.63981900000000E+01,6.05569200000000E+01,
MRT,,,,,,,,,,,,,,,,,1.02939000000000E+01,1.04426700000000E+01,1.20304800000000E+01,1.59673100000000E+01,1.92276700000000E+01,2.56714500000000E+01,,2.93872000000000E+01,,3.03761200000000E+01,3.26737900000000E+01,3.33411500000000E+01,3.87891700000000E+01,3.45425200000000E+01,2.90992500000000E+01,3.27455400000000E+01,3.15508000000000E+01,3.30750100000000E+01,3.27634600000000E+01,3.38368300000000E+01,3.47588700000000E+01,3.91731900000000E+01,4.47962100000000E+01,,,4.59488300000000E+01,4.35435300000000E+01,,,4.35976700000000E+01,4.48162300000000E+01,5.66981400000000E+01,6.22192800000000E+01,,7.47993000000000E+01,
MUS,,,,,,,,,,,,,,,,,,,,,,,,8.66815900000000E+01,8.09248600000000E+01,9.34201600000000E+01,1.24836660000000E+02,9.92547300000000E+01,1.01664240000000E+02,6.74705700000000E+01,1.13660830000000E+02,1.14904600000000E+02,1.11280310000000E+02,1.04006380000000E+02,9.90100000000000E+01,9.58499500000000E+01,9.24196500000000E+01,9.10855600000000E+01,9.38292600000000E+01,9.23677100000000E+01,9.55485700000000E+01,9.70018000000000E+01,9.55949300000000E+01,9.80306700000000E+01,9.52866200000000E+01,9.56675700000000E+01,9.21888300000000E+01,9.39994200000000E+01,9.34582700000000E+01,9.13825900000000E+01,9.60241100000000E+01,
MWI,,,,,,,,,,,,,,,2.01915600000000E+01,2.13767800000000E+01,2.33423400000000E+01,2.75278700000000E+01,2.85202100000000E+01,3.04771000000000E+01,3.09597100000000E+01,3.33572700000000E+01,3.32031900000000E+01,3.33181900000000E+01,3.19574800000000E+01,3.29760400000000E+01,3.18026400000000E+01,3.12771000000000E+01,2.51065300000000E+01,2.59158500000000E+01,2.80684200000000E+01,3.09326000000000E+01,3.44539100000000E+01,3.68896400000000E+01,3.97037400000000E+01,5.24796100000000E+01,6.27374600000000E+01,,,6.72479800000000E+01,6.54770900000000E+01,6.57642200000000E+01,6.82178100000000E+01,,5.86541000000000E+01,5.84129500000000E+01,5.82671800000000E+01,5.93015500000000E+01,6.41219300000000E+01,6.58882900000000E+01,6.67796000000000E+01,
MYS,,,,,,,,,,,,,,,8.62200700000000E+01,,,,,,9.28431800000000E+01,9.02079600000000E+01,9.01600000000000E+01,9.34499700000000E+01,9.25785800000000E+01,9.15426500000000E+01,,9.27464900000000E+01,9.38060600000000E+01,9.17564700000000E+01,8.98592400000000E+01,9.10071500000000E+01,9.10622700000000E+01,9.19392800000000E+01,,,,,9.55639000000000E+01,9.49709200000000E+01,,,9.24421300000000E+01,9.26063000000000E+01,,,,,,,,
NAC,,,,,,,,,,,,,,,,,,,,,,,,,,,,,,,,,,,,,,,,9.80968369599420E+01,9.77737330567391E+01,9.96950482749655E+01,9.93308304390580E+01,9.92420471070765E+01,9.80282230576551E+01,9.67752780783258E+01,9.50174640830171E+01,9.58807059339138E+01,9.54976454874329E+01,9.61560401108693E+01,,
NAM,,,,,,,,,,,,,,,,,,,,,,,,,,,,,,,,,7.44113500000000E+01,,7.22601700000000E+01,6.93429200000000E+01,7.75051900000000E+01,,9.68800500000000E+01,9.48371100000000E+01,9.14102000000000E+01,9.40271800000000E+01,9.26258000000000E+01,9.29291100000000E+01,8.53501900000000E+01,8.53212300000000E+01,8.21862400000000E+01,8.15699300000000E+01,7.83682000000000E+01,8.39198300000000E+01,,
NER,,,,,,,,,,,,5.71042000000000E+00,6.79836000000000E+00,6.79731000000000E+00,6.69722000000000E+00,7.12521000000000E+00,7.80837000000000E+00,8.45118000000000E+00,1.00626300000000E+01,1.04326600000000E+01,1.36109200000000E+01,1.47258500000000E+01,1.68411900000000E+01,1.80107100000000E+01,1.96047500000000E+01,1.93468800000000E+01,2.13901700000000E+01,2.18602100000000E+01,,1.41245800000000E+01,1.57793700000000E+01,1.71107500000000E+01,1.78058200000000E+01,1.56947100000000E+01,,1.34027600000000E+01,1.39411400000000E+01,1.75963000000000E+01,,1.99143500000000E+01,1.87083500000000E+01,1.95884300000000E+01,2.12173700000000E+01,2.05462200000000E+01,2.67130400000000E+01,2.94929000000000E+01,3.23617500000000E+01,3.95029100000000E+01,3.83987300000000E+01,4.09933200000000E+01,4.11898900000000E+01,
NGA,,,,,,,,,,,,,,,,,,,,,,,,,,,,,,,,,,,,,,,,,,,,7.72272200000000E+01,7.95605400000000E+01,8.29025400000000E+01,8.86639000000000E+01,8.10961300000000E+01,6.99901100000000E+01,7.13175400000000E+01,7.43604100000000E+01,
NIC,,,,,,,,,,,2.52503200000000E+01,2.87518200000000E+01,2.91667900000000E+01,3.18394000000000E+01,3.01222200000000E+01,,,3.50503200000000E+01,3.46568600000000E+01,3.05988200000000E+01,3.42699900000000E+01,,3.10125800000000E+01,3.05582400000000E+01,2.90404200000000E+01,3.12286900000000E+01,3.81351800000000E+01,4.71103900000000E+01,4.78578800000000E+01,4.16419600000000E+01,3.91588200000000E+01,4.20759900000000E+01,4.41291300000000E+01,4.81973000000000E+01,5.34218700000000E+01,4.92282600000000E+01,,,,6.73763400000000E+01,6.62285900000000E+01,6.66709600000000E+01,7.33184200000000E+01,7.20814800000000E+01,7.19400900000000E+01,7.45525100000000E+01,7.52253600000000E+01,7.62522400000000E+01,7.58981300000000E+01,,8.09447300000000E+01,
NLD,,,,,,,,,,,,9.73356800000000E+01,9.55755500000000E+01,9.57038600000000E+01,9.49967600000000E+01,9.50736400000000E+01,9.52405000000000E+01,9.40177400000000E+01,9.26333500000000E+01,9.21246500000000E+01,9.28906800000000E+01,9.73307400000000E+01,9.88387600000000E+01,9.82273900000000E+01,9.67694400000000E+01,9.26924700000000E+01,,,,,,,,,,,,,,9.96294700000000E+01,9.84469300000000E+01,9.88560500000000E+01,1.01178730000000E+02,,,,,,,,,
NOC,,,,,,,,,,,,,,,,,,,,,,,,,,,,,,,,,,,,,,,,7.86993489888476E+01,7.95400334179389E+01,8.03881919653117E+01,8.18133362597231E+01,8.30369983415227E+01,8.42851711178792E+01,8.56603301495094E+01,8.66928616640687E+01,8.86148295430540E+01,8.87454169460451E+01,8.48302537435676E+01,,
NOR,,,,,,,,,,,,9.90340700000000E+01,9.92388400000000E+01,9.75981800000000E+01,9.84115600000000E+01,9.98505000000000E+01,9.99354200000000E+01,1.01842920000000E+02,1.02241700000000E+02,1.01007800000000E+02,9.88475400000000E+01,9.97265600000000E+01,1.00252210000000E+02,,9.91285400000000E+01,9.92500800000000E+01,9.74051400000000E+01,9.82172900000000E+01,9.64363500000000E+01,9.55617200000000E+01,9.55289700000000E+01,9.99866100000000E+01,1.01862810000000E+02,1.01442930000000E+02,,,,,9.79538700000000E+01,9.76826800000000E+01,9.79921400000000E+01,1.01635370000000E+02,1.02811580000000E+02,1.03625950000000E+02,1.02749320000000E+02,1.00189670000000E+02,9.76519800000000E+01,9.73587000000000E+01,9.84086300000000E+01,1.00468740000000E+02,,
NPL,,,,,,,,,,,,,,,,,,,,,,,,,,,,,4.52341800000000E+01,,,5.10745600000000E+01,5.62007900000000E+01,,,,,,,6.32380600000000E+01,6.57888900000000E+01,6.54137200000000E+01,7.00065300000000E+01,,,,,,,,,
NZL,,,,,,,,,,,1.01952020000000E+02,1.03586930000000E+02,1.05857220000000E+02,1.05442320000000E+02,1.02470020000000E+02,9.95575400000000E+01,9.80694900000000E+01,9.87511000000000E+01,9.93676600000000E+01,1.01822730000000E+02,,,,,,,,,,,,,,,,,,,,,,,,,,,,,,,,
OEC,,,,,,,,,,,,,,,,,,,,,,,,,,,,,,,,,,,,,,,,9.87920485600296E+01,9.89549582914080E+01,1.00268559156034E+02,9.96568680226281E+01,9.99120386609136E+01,9.91305219607003E+01,9.78533929089918E+01,9.70443118861832E+01,9.79557220410628E+01,9.78220668828973E+01,9.84301036979783E+01,,
OMN,,,,,,,,,,,,,,,1.42284000000000E+00,3.97675000000000E+00,7.17838000000000E+00,1.57996100000000E+01,1.71571900000000E+01,2.23987800000000E+01,,,,3.35693600000000E+01,3.91378400000000E+01,3.83720300000000E+01,4.22425400000000E+01,4.53392400000000E+01,5.24748000000000E+01,6.04478700000000E+01,6.48088900000000E+01,,7.41084400000000E+01,,7.29760800000000E+01,7.60273100000000E+01,7.80421700000000E+01,7.96981300000000E+01,8.12332800000000E+01,7.95127600000000E+01,7.82683000000000E+01,8.04612800000000E+01,8.61338000000000E+01,9.06372100000000E+01,,,,,,1.00923550000000E+02,1.01349790000000E+02,
PAK,,,,,,,,,,,,,,,,,,,,,,,,,,,,,,,,,,,,,,,,,,,,,,6.13063400000000E+01,6.04796800000000E+01,6.06625700000000E+01,6.08178800000000E+01,6.26425400000000E+01,6.70581700000000E+01,
PAN,,,,,,,,,,,6.61254200000000E+01,7.03224200000000E+01,7.43629200000000E+01,8.02358100000000E+01,8.28109900000000E+01,8.60817400000000E+01,9.86977000000000E+01,9.44870400000000E+01,9.12529700000000E+01,8.97149800000000E+01,8.52204300000000E+01,8.34326100000000E+01,8.19944900000000E+01,8.36741200000000E+01,8.03628600000000E+01,8.24293200000000E+01,8.31796900000000E+01,8.44736500000000E+01,8.37472000000000E+01,8.59481400000000E+01,,,,,,,,,,9.15366800000000E+01,9.39216300000000E+01,9.46842100000000E+01,9.55257400000000E+01,9.63531500000000E+01,9.69265100000000E+01,9.64808800000000E+01,9.37285900000000E+01,9.79753600000000E+01,1.01152310000000E+02,1.01033850000000E+02,9.68547800000000E+01,
PER,,,,,,,,,,,6.45351600000000E+01,,,6.55822800000000E+01,6.87993900000000E+01,7.00098900000000E+01,7.59567100000000E+01,8.26339600000000E+01,8.18588600000000E+01,8.21767500000000E+01,8.07494400000000E+01,7.91116700000000E+01,,,,8.30783400000000E+01,,,,,,,,,,8.93981800000000E+01,,,9.86949500000000E+01,1.04545890000000E+02,1.03060290000000E+02,9.82055500000000E+01,9.75868700000000E+01,1.02151320000000E+02,1.01551720000000E+02,1.01050480000000E+02,1.01721800000000E+02,1.03480510000000E+02,1.01866340000000E+02,9.84367400000000E+01,,
PHL,,,,,,,,,,,,,,,,,,,,,,8.47053200000000E+01,,8.87874500000000E+01,8.96223900000000E+01,8.80453400000000E+01,8.57821600000000E+01,8.50209700000000E+01,8.43149200000000E+01,8.56543700000000E+01,8.77344800000000E+01,,,,,,,,8.54641500000000E+01,8.70355400000000E+01,,1.01402150000000E+02,9.53153700000000E+01,9.58701200000000E+01,9.45828700000000E+01,9.44162000000000E+01,9.20094100000000E+01,9.17466400000000E+01,9.23059400000000E+01,9.15654200000000E+01,,
PLW,,,,,,,,,,,,,,,,,,,,,,,,,,,,,,,,,,,,,,,,,,,,,1.04450260000000E+02,,,,,,,
PNG,,,,,,,,,,,,,,,,,,,,,,,,,,,,4.48282200000000E+01,4.85455000000000E+01,4.93131800000000E+01,4.84932100000000E+01,4.64986200000000E+01,4.70360400000000E+01,4.85712700000000E+01,5.23037800000000E+01,5.17168300000000E+01,,,5.06764800000000E+01,,5.51130800000000E+01,,,,,,,,,,,
POL,,,,,,,,,,,,9.72118400000000E+01,9.53980200000000E+01,9.34954600000000E+01,9.65324900000000E+01,9.75227600000000E+01,1.00111180000000E+02,1.00838820000000E+02,1.00664120000000E+02,9.94421600000000E+01,9.79239600000000E+01,9.53830500000000E+01,9.48163800000000E+01,9.55260500000000E+01,9.39482400000000E+01,9.56507800000000E+01,9.69913600000000E+01,9.84106500000000E+01,9.96591400000000E+01,1.00614860000000E+02,9.75376800000000E+01,9.56711300000000E+01,9.65324100000000E+01,9.81839900000000E+01,9.43157300000000E+01,,,9.85145600000000E+01,9.63966200000000E+01,9.65755500000000E+01,9.54375100000000E+01,9.71098000000000E+01,9.71925600000000E+01,9.87949400000000E+01,9.96019600000000E+01,9.69529200000000E+01,9.62447500000000E+01,9.57609100000000E+01,,9.47603000000000E+01,,
PRT,,,,,,,,,,,,,5.57257500000000E+01,5.93670000000000E+01,6.57049500000000E+01,7.23321000000000E+01,6.61697000000000E+01,,,,,,,,,,,,,,,,,,,,,,,,,,,,1.03123280000000E+02,,,,,,,
PRY,,,,,,,,,,,4.35990600000000E+01,4.54276600000000E+01,4.55435800000000E+01,4.73395900000000E+01,4.84182700000000E+01,4.86317200000000E+01,4.95582600000000E+01,5.07472200000000E+01,5.12148600000000E+01,,5.41367300000000E+01,5.69567400000000E+01,5.92476300000000E+01,6.21117600000000E+01,6.39383400000000E+01,6.57841900000000E+01,6.46450000000000E+01,6.53420000000000E+01,6.47887000000000E+01,6.43213000000000E+01,6.51560500000000E+01,6.83080300000000E+01,7.15911600000000E+01,7.45963400000000E+01,7.49521400000000E+01,7.66114300000000E+01,8.05713000000000E+01,,9.13069100000000E+01,8.91163800000000E+01,9.20665700000000E+01,9.35963200000000E+01,9.36081300000000E+01,9.59518300000000E+01,9.45578200000000E+01,9.49265700000000E+01,9.40963800000000E+01,9.46813600000000E+01,9.43174500000000E+01,9.35284600000000E+01,,
PYF,,,,,,,,,,,,,,,,,,,,,,,,7.75110200000000E+01,,,,,,,,,,,,,,,,,,,,,,,,,,,,
QAT,,,,,,,,,,,,5.85516900000000E+01,6.30762600000000E+01,6.32565400000000E+01,5.89907600000000E+01,6.07352000000000E+01,6.40695200000000E+01,6.31140700000000E+01,7.42252100000000E+01,7.05029000000000E+01,6.80987200000000E+01,6.55834200000000E+01,7.30696400000000E+01,,7.64635600000000E+01,7.83093200000000E+01,7.59011900000000E+01,6.72621100000000E+01,7.27577900000000E+01,7.13308600000000E+01,6.97083900000000E+01,7.11877900000000E+01,6.58808500000000E+01,6.61996500000000E+01,6.77264900000000E+01,6.34922500000000E+01,5.32572000000000E+01,,8.61533600000000E+01,9.25116300000000E+01,,,,1.00536880000000E+02,,9.23013700000000E+01,8.85606400000000E+01,1.01944940000000E+02,1.03630820000000E+02,9.96961200000000E+01,,
ROM,,,,,,,,,,,,,,,,,,,,,,,,,,,,,,,9.61641000000000E+01,,,7.77424300000000E+01,,8.58813300000000E+01,9.12342800000000E+01,9.93460800000000E+01,,9.42148600000000E+01,9.51607800000000E+01,9.49332200000000E+01,9.18922500000000E+01,9.72039100000000E+01,1.02706480000000E+02,1.06144800000000E+02,1.00273130000000E+02,1.15419410000000E+02,9.08085000000000E+01,9.11887700000000E+01,,
RUS,,,,,,,,,,,,,,,,,,,,,,,,,,,,,,,,,,,9.23872200000000E+01,9.09854800000000E+01,,,,9.06202300000000E+01,9.07725500000000E+01,9.25402200000000E+01,,,,,,9.25787900000000E+01,9.43769400000000E+01,9.79258300000000E+01,,
RWA,,,,,,,,,,,,2.28828400000000E+01,2.42872200000000E+01,2.62749900000000E+01,2.69979100000000E+01,2.83212200000000E+01,,2.93492100000000E+01,2.66554400000000E+01,,3.58541500000000E+01,4.67365500000000E+01,4.64488000000000E+01,4.56575800000000E+01,4.78474000000000E+01,5.02227900000000E+01,4.74983900000000E+01,4.75961900000000E+01,4.89083300000000E+01,4.97115300000000E+01,4.91542500000000E+01,5.00533600000000E+01,5.33369500000000E+01,,,,,,,2.98591400000000E+01,2.28536000000000E+01,2.40127600000000E+01,2.96270800000000E+01,3.97808200000000E+01,4.00008800000000E+01,,,,5.11653900000000E+01,6.80494700000000E+01,6.96339700000000E+01,
SAU,,,,,,,,,,,,,,,,,,,,3.95738900000000E+01,,,,,,,,,,,,,,,,,,,,,,,,,,9.04200900000000E+01,,9.34144300000000E+01,9.65030500000000E+01,9.22444300000000E+01,9.33054200000000E+01,
SDN,,,,,,,,,,,,1.05995800000000E+01,2.55272500000000E+01,,,,,,,,,,,,,,,,,,,,,,,,,,,3.67015400000000E+01,3.66888900000000E+01,3.85123000000000E+01,4.04351000000000E+01,4.34161500000000E+01,,,,4.86846600000000E+01,5.10451400000000E+01,5.78718200000000E+01,,
SEN,,,,,,,,,,,,2.81987100000000E+01,2.78349800000000E+01,2.78513400000000E+01,,,,,3.09261500000000E+01,3.21590300000000E+01,2.98565100000000E+01,3.12616300000000E+01,3.14364300000000E+01,3.26958800000000E+01,3.37475100000000E+01,3.40713700000000E+01,3.67189200000000E+01,,4.15059700000000E+01,4.23574700000000E+01,4.19487600000000E+01,,3.93684700000000E+01,,3.88543000000000E+01,,4.07274000000000E+01,4.08882500000000E+01,4.30713600000000E+01,4.39688800000000E+01,4.02587400000000E+01,4.46977800000000E+01,4.72202100000000E+01,4.71974900000000E+01,4.91727500000000E+01,5.40306400000000E+01,5.07250700000000E+01,5.21408600000000E+01,5.93738600000000E+01,5.98999800000000E+01,5.92409300000000E+01,
SLB,,,,,,,,,,,,,,,,4.73044300000000E+01,,,,,6.11750800000000E+01,5.65848200000000E+01,5.14118400000000E+01,4.97301100000000E+01,4.68292700000000E+01,,5.21081300000000E+01,,,,6.12290400000000E+01,7.20684500000000E+01,6.82694500000000E+01,6.84653200000000E+01,6.99317800000000E+01,,,,,,,,,,,,,,,,,
SLE,,,,,,,,,,,,,,,,,,,2.40102800000000E+01,,,,2.75720600000000E+01,2.74800600000000E+01,,,,,,,,,,,,,,,,,,,,,,,,,,,,
SLV,,,,,,,,,,,,3.92824400000000E+01,4.28055500000000E+01,4.82261200000000E+01,4.98676200000000E+01,4.99753300000000E+01,4.91045700000000E+01,5.03150200000000E+01,,,,4.49495500000000E+01,4.73179600000000E+01,4.80861000000000E+01,4.60929200000000E+01,,,5.89090400000000E+01,6.28616400000000E+01,6.14458500000000E+01,,6.50240100000000E+01,6.61784100000000E+01,6.87375100000000E+01,,7.04299500000000E+01,7.54296400000000E+01,,7.91972800000000E+01,8.33226700000000E+01,8.31256800000000E+01,8.23646700000000E+01,8.18669900000000E+01,8.19589000000000E+01,8.32955100000000E+01,8.47540000000000E+01,8.46646500000000E+01,8.87350100000000E+01,9.03990000000000E+01,9.33585900000000E+01,,
SMR,,,,,,,,,,,,,,,,,,,,,,,,,,,,,,,,,,,,,,,,,,,,,,,,,,9.16167700000000E+01,,
SRB,,,,,,,,,,,,,,,,,,,,,,,,,,,,,,,,,,,,,,,,,,,,,,,,1.00519790000000E+02,1.04383200000000E+02,9.64152400000000E+01,9.64489300000000E+01,
SSF,,,,,,,,,,,,,,,,,,,,,,,,,,,,,,,,5.12724750005000E+01,,,,,,,,5.07305295109627E+01,5.12493745403743E+01,5.23530394533030E+01,5.36234812410415E+01,5.48808965925914E+01,5.64802998729327E+01,5.83678229152657E+01,6.04098585085049E+01,6.10532519921882E+01,6.43677467320928E+01,6.68900078181678E+01,,
STP,,,,,,,,,,,,,,,,,,5.43260500000000E+01,,,6.17184200000000E+01,8.95824700000000E+01,1.12855430000000E+02,1.12088340000000E+02,1.08747660000000E+02,1.00035920000000E+02,,5.73781300000000E+01,7.26100600000000E+01,,7.78743100000000E+01,,,,,,,,,4.62886900000000E+01,,,6.15799900000000E+01,5.97503500000000E+01,7.31092400000000E+01,7.43400200000000E+01,7.26283800000000E+01,7.16294300000000E+01,7.51984100000000E+01,8.40420300000000E+01,8.53054400000000E+01,
SUR,,,,,,,,,,,,,,,,,7.26956800000000E+01,8.31287000000000E+01,7.67067500000000E+01,8.06937600000000E+01,,8.09260000000000E+01,8.79229500000000E+01,9.32404100000000E+01,9.17330500000000E+01,8.87082500000000E+01,,8.27586200000000E+01,8.05205800000000E+01,8.61743100000000E+01,,,,,,,,,,,,9.75187200000000E+01,,,,8.38947500000000E+01,9.16268200000000E+01,7.64217300000000E+01,8.64103600000000E+01,8.59926400000000E+01,,
SVK,,,,,,,,,,,,,,,,,,,,,,,,,,,,,,,,,,9.54112900000000E+01,9.73499500000000E+01,9.79983400000000E+01,9.71365600000000E+01,9.62963000000000E+01,9.86935700000000E+01,9.53028700000000E+01,9.39812800000000E+01,9.76753900000000E+01,9.50978200000000E+01,9.59936900000000E+01,9.45751500000000E+01,9.03707500000000E+01,9.07964600000000E+01,9.29779400000000E+01,9.59105900000000E+01,9.82074000000000E+01,,
SVN,,,,,,,,,,,,,,,,,,,,,,,,,,,,,,,,,,9.50109700000000E+01,9.38974600000000E+01,9.52764900000000E+01,9.51882600000000E+01,9.66550000000000E+01,1.00926520000000E+02,9.91121900000000E+01,9.57597800000000E+01,9.58529600000000E+01,9.59407700000000E+01,1.00727810000000E+02,1.12200000000000E+02,,,,9.49461700000000E+01,9.46184100000000E+01,,
SWE,,,,,,,,,,,,9.47500500000000E+01,9.43441100000000E+01,9.09909100000000E+01,9.13676400000000E+01,9.28563100000000E+01,9.68190300000000E+01,1.03953780000000E+02,1.04091150000000E+02,1.04555670000000E+02,1.03092750000000E+02,9.65077400000000E+01,9.19770600000000E+01,9.31658400000000E+01,9.77258100000000E+01,,,1.01043690000000E+02,9.84493100000000E+01,9.64628400000000E+01,9.66509800000000E+01,9.63309000000000E+01,1.00945800000000E+02,1.07264660000000E+02,1.05587940000000E+02,,,,,1.00476250000000E+02,9.97279700000000E+01,1.02486990000000E+02,1.02579430000000E+02,1.06343710000000E+02,1.04010560000000E+02,1.00268380000000E+02,9.59617600000000E+01,9.56725200000000E+01,9.48790800000000E+01,9.37101000000000E+01,,
SWZ,,,,,,,,,,,4.22645400000000E+01,4.02891700000000E+01,4.11556800000000E+01,4.91494300000000E+01,5.41269500000000E+01,5.64607000000000E+01,5.73638300000000E+01,5.69645100000000E+01,5.58467100000000E+01,5.51909000000000E+01,5.54453600000000E+01,5.83063500000000E+01,5.93827600000000E+01,6.13562200000000E+01,6.13131800000000E+01,6.20464500000000E+01,6.33393600000000E+01,6.27195600000000E+01,6.50811200000000E+01,6.22092200000000E+01,6.26689900000000E+01,6.05302900000000E+01,6.04184900000000E+01,6.07527700000000E+01,6.18188200000000E+01,6.33636100000000E+01,6.07173400000000E+01,6.11787200000000E+01,6.24540200000000E+01,5.97205800000000E+01,6.06691700000000E+01,5.81752900000000E+01,6.12708000000000E+01,5.94921400000000E+01,6.22460000000000E+01,6.54472300000000E+01,6.62540300000000E+01,7.32588100000000E+01,,7.23263300000000E+01,7.69243700000000E+01,
SYC,,,,,,,,,,,,,,,,,,,,,,,,,,,,,,,,,,,,,,,1.06684670000000E+02,1.13544470000000E+02,1.06599330000000E+02,1.12745760000000E+02,1.13831260000000E+02,1.17322830000000E+02,1.16121840000000E+02,1.27479180000000E+02,,1.19650990000000E+02,1.24777330000000E+02,1.25065730000000E+02,,
SYR,,,,,,,,,,,,5.61993400000000E+01,6.01899400000000E+01,6.02756700000000E+01,6.45413100000000E+01,6.83452800000000E+01,7.20546800000000E+01,7.49708400000000E+01,7.69625700000000E+01,7.38305400000000E+01,7.22243200000000E+01,7.39443300000000E+01,7.87820000000000E+01,8.11797100000000E+01,8.28091200000000E+01,8.55800600000000E+01,8.72775800000000E+01,8.74033000000000E+01,8.69473700000000E+01,8.92394700000000E+01,8.87581200000000E+01,8.94464200000000E+01,9.25465700000000E+01,8.38567900000000E+01,8.49052500000000E+01,8.35946800000000E+01,8.47007300000000E+01,8.45828300000000E+01,8.47944100000000E+01,9.39329500000000E+01,9.32435400000000E+01,9.41845500000000E+01,9.52639600000000E+01,1.07037400000000E+02,1.07816130000000E+02,1.07856100000000E+02,1.06398250000000E+02,1.03559120000000E+02,1.03206790000000E+02,1.03493310000000E+02,1.03616540000000E+02,
TCA,,,,,,,,,,,,,,,,,,,,,,,,,,,,,,,,,,,,,,,,,,,,8.43575400000000E+01,9.62864700000000E+01,9.17475700000000E+01,,,,,,
TCD,,,,,,,,,,,,1.52264300000000E+01,,,1.28185300000000E+01,,1.15771600000000E+01,1.08364300000000E+01,,,,,,,,,,,1.14122400000000E+01,1.27257600000000E+01,1.62525600000000E+01,1.77920200000000E+01,,,1.78352700000000E+01,1.41390600000000E+01,1.47590600000000E+01,1.53684800000000E+01,0.00000000000000E+00,2.06216700000000E+01,2.29355400000000E+01,2.54626000000000E+01,2.85583200000000E+01,3.39002500000000E+01,3.58126000000000E+01,3.24280600000000E+01,3.21308900000000E+01,,,3.45275600000000E+01,3.29275100000000E+01,
TGO,,,,,,,,,,,,2.51262800000000E+01,3.03055600000000E+01,,,,4.23909800000000E+01,,5.14427300000000E+01,5.09395800000000E+01,5.25150400000000E+01,4.90952600000000E+01,4.66251200000000E+01,4.56089100000000E+01,3.94044200000000E+01,3.31828700000000E+01,3.28470800000000E+01,3.13548400000000E+01,3.62748500000000E+01,2.92551400000000E+01,3.49974100000000E+01,3.49677400000000E+01,3.57367700000000E+01,,2.77870200000000E+01,3.97604700000000E+01,4.63263500000000E+01,,,5.98912900000000E+01,6.89598300000000E+01,7.54567000000000E+01,,7.47834700000000E+01,7.63929300000000E+01,7.55990900000000E+01,7.54659800000000E+01,,6.84765600000000E+01,6.81903800000000E+01,7.36712200000000E+01,
THA,,,,,,,,,,,,,,,,3.62887200000000E+01,3.80368500000000E+01,3.82756400000000E+01,3.94169500000000E+01,,,7.13001800000000E+01,,,,,,,,,,,,,,,,,,8.76217800000000E+01,,,,,,,,,,,,
TJK,,,,,,,,,,,,,,,,,,,,,,,,,,,,,,,,,,,,9.94164300000000E+01,,7.60393000000000E+01,,9.24923200000000E+01,9.31256400000000E+01,9.77736300000000E+01,9.84612000000000E+01,9.63290000000000E+01,9.30452700000000E+01,1.02668850000000E+02,1.06287120000000E+02,9.49152500000000E+01,9.77571000000000E+01,1.01266250000000E+02,1.04019980000000E+02,
TMP,,,,,,,,,,,,,,,,,,,,,,,,,,,,,,,,,,,,,,,,,,,,,,,,,7.90086400000000E+01,6.79760900000000E+01,6.54738700000000E+01,
TON,,,,,,,,,,,,,,,,,,7.59383400000000E+01,8.63349900000000E+01,1.04406890000000E+02,,1.16660920000000E+02,1.05863310000000E+02,,1.09178740000000E+02,9.35940100000000E+01,9.94893600000000E+01,,,,1.27770700000000E+02,9.88735900000000E+01,,1.14217440000000E+02,,,,,9.68750000000000E+01,1.09655790000000E+02,,1.06545150000000E+02,1.06682970000000E+02,,,1.09105630000000E+02,1.04017860000000E+02,,,,,
TTO,,,,,,,,,,,,,,,,,,,,,,,1.10846990000000E+02,,,9.50306400000000E+01,,,9.66775900000000E+01,,,1.01617560000000E+02,1.02224140000000E+02,9.97814700000000E+01,,,8.68580400000000E+01,8.55481700000000E+01,,9.38852300000000E+01,8.66334700000000E+01,8.07257600000000E+01,,8.51431700000000E+01,9.19404600000000E+01,9.02056900000000E+01,,9.30979700000000E+01,9.02131500000000E+01,9.19644300000000E+01,,
TUN,,,,,,,,,,,,5.52558400000000E+01,5.32059000000000E+01,6.00207000000000E+01,6.15802700000000E+01,6.79720300000000E+01,6.63460500000000E+01,6.78936300000000E+01,7.05712900000000E+01,5.87684000000000E+01,6.04459000000000E+01,8.02022000000000E+01,6.15320200000000E+01,6.21450400000000E+01,6.58080000000000E+01,6.64823100000000E+01,6.97627800000000E+01,7.14147700000000E+01,7.10661500000000E+01,7.55789700000000E+01,8.02625400000000E+01,7.42998300000000E+01,6.91248900000000E+01,7.39838600000000E+01,8.11327000000000E+01,9.16335900000000E+01,8.90526000000000E+01,9.15173700000000E+01,,8.92154300000000E+01,8.81826900000000E+01,8.90440100000000E+01,9.37064200000000E+01,9.68765100000000E+01,9.95612500000000E+01,1.01862870000000E+02,,1.03066400000000E+02,9.36600800000000E+01,9.11534700000000E+01,,
TUR,,,,,,,,,,,,,,,,,,,,,,,,,8.19522800000000E+01,8.35752500000000E+01,8.80625400000000E+01,8.77469300000000E+01,9.94874000000000E+01,8.65723500000000E+01,8.76975500000000E+01,9.00654000000000E+01,9.60079000000000E+01,9.04505300000000E+01,9.09842800000000E+01,8.94120100000000E+01,,,,,,,,,9.41943200000000E+01,9.87763500000000E+01,9.64370100000000E+01,9.58912200000000E+01,9.81220200000000E+01,9.91592600000000E+01,,
TUV,,,,,,,,,,,,,,,,,,,,,,,,,,,,,,,,,,,,,,,,,1.09871240000000E+02,1.01687760000000E+02,9.20000000000000E+01,9.60869600000000E+01,1.00000000000000E+02,1.06302520000000E+02,9.91701200000000E+01,,,,,
TZA,,,,,,,,,,,,1.99040200000000E+01,2.45881400000000E+01,2.77933800000000E+01,3.14515900000000E+01,3.53343200000000E+01,3.88197600000000E+01,,,,,7.66752300000000E+01,8.73824200000000E+01,9.35628100000000E+01,1.22644990000000E+02,7.98693800000000E+01,7.12926700000000E+01,6.84188000000000E+01,6.25040200000000E+01,4.74109300000000E+01,,,5.52616600000000E+01,5.81402900000000E+01,,,,5.83093700000000E+01,4.83330800000000E+01,5.74209000000000E+01,,5.49884600000000E+01,5.91769600000000E+01,,5.82449600000000E+01,5.53424600000000E+01,7.26642100000000E+01,8.32430400000000E+01,,1.02990390000000E+02,8.98901200000000E+01,
UGA,,,,,,,,,,,,,,,,4.00996200000000E+01,4.00860600000000E+01,,,4.18394900000000E+01,,,4.17677400000000E+01,,,,3.72717000000000E+01,,,,,,,,,,,,,,,5.98331000000000E+01,6.22496300000000E+01,6.27953000000000E+01,5.86334500000000E+01,5.74971700000000E+01,,5.35643300000000E+01,5.83934500000000E+01,5.85111800000000E+01,5.71829700000000E+01,
UKR,,,,,,,,,,,,1.01743400000000E+02,1.00660360000000E+02,9.85307100000000E+01,9.47131200000000E+01,,9.28542500000000E+01,8.90158600000000E+01,9.37783500000000E+01,9.55238500000000E+01,9.74755800000000E+01,,1.02325750000000E+02,1.02108780000000E+02,1.02098860000000E+02,9.75311800000000E+01,,,9.74871000000000E+01,,9.42548300000000E+01,9.22288400000000E+01,9.46194400000000E+01,9.92301800000000E+01,9.50644000000000E+01,,,,9.83140200000000E+01,9.41654600000000E+01,9.11992800000000E+01,9.52014000000000E+01,9.75170500000000E+01,,,1.16968450000000E+02,1.04906190000000E+02,1.02054820000000E+02,1.00181840000000E+02,9.70427600000000E+01,9.76226500000000E+01,
URY,,,,,,,,,,,6.63285600000000E+01,6.92334400000000E+01,6.84345600000000E+01,7.13141600000000E+01,6.82999900000000E+01,,6.83081000000000E+01,6.90656500000000E+01,6.80902700000000E+01,6.94974900000000E+01,7.26469600000000E+01,,,,,8.70043300000000E+01,8.77516100000000E+01,9.14431600000000E+01,9.22561900000000E+01,9.34485000000000E+01,9.45705300000000E+01,9.38022300000000E+01,9.15629700000000E+01,9.33005600000000E+01,9.37397900000000E+01,9.43141800000000E+01,9.57046100000000E+01,,9.68443400000000E+01,9.63367800000000E+01,9.74420900000000E+01,9.55407400000000E+01,9.50766300000000E+01,9.19951700000000E+01,9.24408600000000E+01,9.55968600000000E+01,9.97229500000000E+01,1.04271710000000E+02,1.06517370000000E+02,1.05903220000000E+02,,
USA,,,,,,,,,,,,,,,,,,,,,,,,,,,,,,,,,,,,,,,9.97139600000000E+01,9.92954300000000E+01,9.90657800000000E+01,1.01184040000000E+02,1.01127870000000E+02,1.01486710000000E+02,1.00375800000000E+02,9.92689400000000E+01,9.81855200000000E+01,1.00191210000000E+02,1.00555810000000E+02,1.02495530000000E+02,,
UZB,,,,,,,,,,,,,,,,,,,,,,,,,,,,,,,,,,,7.98789300000000E+01,9.82283300000000E+01,,,,9.55881800000000E+01,9.51190700000000E+01,1.00452330000000E+02,1.02179610000000E+02,9.68151400000000E+01,9.53190500000000E+01,9.72990200000000E+01,9.93052600000000E+01,9.74241500000000E+01,9.61479300000000E+01,9.32211100000000E+01,,
VCT,,,,,,,,,,,,,,,,,,,,,,,,,,,,,,,,,,,,,,,,,,8.96656500000000E+01,9.26153800000000E+01,9.30253200000000E+01,1.02106680000000E+02,1.02128620000000E+02,,,1.09372070000000E+02,,,
VEN,,,,,,,,,,,,6.69310900000000E+01,6.91511300000000E+01,7.10152800000000E+01,7.05001900000000E+01,7.11152800000000E+01,6.95924100000000E+01,6.92530300000000E+01,6.93061800000000E+01,6.92082800000000E+01,7.30911400000000E+01,7.58264700000000E+01,7.99577100000000E+01,8.06999900000000E+01,8.02239800000000E+01,8.14770800000000E+01,8.17107600000000E+01,8.08571700000000E+01,8.02332400000000E+01,7.96957100000000E+01,7.88499100000000E+01,8.07614700000000E+01,8.37414900000000E+01,8.30115700000000E+01,,,8.05938900000000E+01,8.09975100000000E+01,,8.14294700000000E+01,8.32952400000000E+01,8.48639700000000E+01,9.17748800000000E+01,8.97546700000000E+01,9.00191500000000E+01,9.19351200000000E+01,9.58463300000000E+01,9.77503800000000E+01,9.53427200000000E+01,9.52049900000000E+01,9.38484000000000E+01,
VNM,,,,,,,,,,,,,,,,,,,,7.95221700000000E+01,,,,,,,,,,,,,,,,,,,,9.81766900000000E+01,9.83775000000000E+01,1.03686270000000E+02,1.01166850000000E+02,9.95516700000000E+01,,9.31055600000000E+01,9.76615500000000E+01,,,,,
VUT,,,,,,,,,,,,,,,,,,,,,,,,,,,,,,,,,8.33937600000000E+01,,,,,,,9.12040100000000E+01,9.21148500000000E+01,1.05815660000000E+02,1.03309350000000E+02,9.70056300000000E+01,9.06428200000000E+01,,,8.17409000000000E+01,8.01703800000000E+01,8.46236000000000E+01,8.34062700000000E+01,
WBG,,,,,,,,,,,,,,,,,,,,,,,,,,,,,,,,,,,,8.79093100000000E+01,8.87076100000000E+01,8.90866300000000E+01,,9.95699900000000E+01,9.78521400000000E+01,9.78383800000000E+01,9.37294100000000E+01,9.73422400000000E+01,9.00620300000000E+01,9.29101900000000E+01,,8.67182500000000E+01,8.85580900000000E+01,9.04408200000000E+01,9.49576000000000E+01,
WSM,,,,,,,,,,,,,,,,,,,,,,,,,,,,,,,,,,,,1.01398090000000E+02,9.81742900000000E+01,1.02177550000000E+02,9.87599400000000E+01,9.39018900000000E+01,9.44456800000000E+01,9.37318800000000E+01,9.86981500000000E+01,1.01846620000000E+02,9.96777000000000E+01,,,1.08067990000000E+02,,1.00552370000000E+02,1.01327150000000E+02,
YEM,,,,,,,,,,,,,,,,,,,,,,,,,,,,,,,,,,,,,,,,5.40508500000000E+01,5.57700200000000E+01,5.81986900000000E+01,5.78514600000000E+01,6.13593900000000E+01,6.07436800000000E+01,6.06405100000000E+01,,,6.26059100000000E+01,,6.32232800000000E+01,
ZAF,,,,,,,,,,,,,,,,,,,,,,,,,,,,,,,,7.59458900000000E+01,,,,,,,9.00280200000000E+01,8.49590500000000E+01,8.63797100000000E+01,,9.14644500000000E+01,9.50124900000000E+01,9.93541700000000E+01,,,,,,,
ZAR,,,,,,,,,,,,4.03874100000000E+01,4.22856000000000E+01,,,,5.23802700000000E+01,5.50083500000000E+01,5.84372700000000E+01,,5.82212000000000E+01,6.00867100000000E+01,6.20439500000000E+01,6.40764300000000E+01,6.61625000000000E+01,,,,4.71733800000000E+01,,,4.84336000000000E+01,4.46872500000000E+01,5.12498900000000E+01,4.30759200000000E+01,,,,,3.17476300000000E+01,,,3.87029300000000E+01,,,,,5.04732000000000E+01,5.52215000000000E+01,5.78311700000000E+01,,
ZMB,,,,,,,,,,,,,7.10286700000000E+01,7.29534900000000E+01,7.70671800000000E+01,7.89534200000000E+01,7.91067200000000E+01,8.06368800000000E+01,8.47212100000000E+01,8.32402200000000E+01,8.35209100000000E+01,8.40628400000000E+01,8.63452100000000E+01,8.90698900000000E+01,9.49436900000000E+01,,9.33492500000000E+01,,,,,,,,,,,,6.66803100000000E+01,6.52047800000000E+01,6.26451500000000E+01,,6.24762500000000E+01,,7.45943600000000E+01,8.70466500000000E+01,8.87000800000000E+01,9.26694100000000E+01,9.65792800000000E+01,9.01518400000000E+01,1.03254360000000E+02,
ZWE,,,,,,,,,,,,,,,,,,,,,,7.43657900000000E+01,7.58678000000000E+01,8.28005300000000E+01,8.47077200000000E+01,,,,1.22490470000000E+02,1.08659090000000E+02,9.35547200000000E+01,9.74014000000000E+01,9.00898800000000E+01,,,,,,,9.08475774116000E+01,,8.96619235039000E+01,8.32390428537000E+01,8.13853370356000E+01,,,,,,,,
