"Country Code",1960,1961,1962,1963,1964,1965,1966,1967,1968,1969,1970,1971,1972,1973,1974,1975,1976,1977,1978,1979,1980,1981,1982,1983,1984,1985,1986,1987,1988,1989,1990,1991,1992,1993,1994,1995,1996,1997,1998,1999,2000,2001,2002,2003,2004,2005,2006,2007,2008,2009,2010,2011ABW,,,,,,,,,,,,,,,,,,,,,,,,,,,,,,,,,,,,,,,,9.88202800000000E+01,9.82746100000000E+01,9.41981900000000E+01,9.49098400000000E+01,9.29333300000000E+01,9.29350200000000E+01,9.60606100000000E+01,9.74347800000000E+01,9.76984600000000E+01,9.66822500000000E+01,9.58172300000000E+01,9.98844700000000E+01,
ADO,,,,,,,,,,,,,,,,,,,,,,,,,,,,,,,,,,,,,,,,,,,8.70822900000000E+01,8.39922900000000E+01,8.09391000000000E+01,8.01437600000000E+01,8.32458400000000E+01,8.25676300000000E+01,8.38422400000000E+01,8.29124600000000E+01,,
AFG,,,,,,,,,,,,,,,8.35690000000000E+00,,,,,,,,,,,,,,,,,,,1.42033100000000E+01,,,,,,,,,,,,,,,,,,
AGO,,,,,,,,,,,,,,,,,,,,,,,6.11992100000000E+01,5.55474600000000E+01,,,,,,,,,,,,,,,4.75573700000000E+01,,,,,,,,,,8.07418800000000E+01,8.06693700000000E+01,7.82051200000000E+01,
ALB,,,,,,,,,,,,,,,,,,,,,,,,,,,,,,,,,,,,,,,,,,,,9.53729400000000E+01,9.32636400000000E+01,,,,8.33457300000000E+01,7.97597700000000E+01,7.90507700000000E+01,
ARB,,,,,,,,,,,,,,,,,,,5.37643601084428E+01,,,,,,,,,,,,,,,,,,,,,7.74581293711513E+01,7.23820457849431E+01,8.46708723713937E+01,,8.41384194527779E+01,8.47703130889717E+01,,,8.83575962492502E+01,,,,
ARE,,,,,,,,,,,,,,,,,,,7.73019500000000E+01,,7.50190900000000E+01,7.50067800000000E+01,8.10161700000000E+01,7.64757200000000E+01,7.72912000000000E+01,7.82761200000000E+01,8.07745500000000E+01,9.20110100000000E+01,9.61485000000000E+01,9.77466400000000E+01,9.70780700000000E+01,9.56058100000000E+01,9.32283200000000E+01,9.36256800000000E+01,9.05031900000000E+01,8.90229200000000E+01,8.42536400000000E+01,8.04549000000000E+01,7.85430500000000E+01,8.25230000000000E+01,7.89816700000000E+01,7.74247400000000E+01,8.17379300000000E+01,8.60766200000000E+01,8.91455400000000E+01,9.10975400000000E+01,9.01265400000000E+01,,,,,
ARG,,,,,,,,,,,9.55181300000000E+01,,,,9.71644600000000E+01,9.68385200000000E+01,,,,,,,,,,,,,,,,,,,,,,,,9.85334800000000E+01,,,,9.83781000000000E+01,,,,,,,,
ARM,,,,,,,,,,,,,,,,,,,,,,,,,,,,,,,,,,,,,,,,,,9.09766700000000E+01,8.50800500000000E+01,8.31601100000000E+01,8.22228100000000E+01,8.22025500000000E+01,8.47220800000000E+01,8.84999300000000E+01,,,7.20834100000000E+01,
AUS,,,,,,,,,,,,9.74232800000000E+01,,9.68911100000000E+01,9.62192900000000E+01,9.80560700000000E+01,9.78536600000000E+01,9.94210500000000E+01,9.97924200000000E+01,9.98152400000000E+01,9.97230400000000E+01,9.94832500000000E+01,9.96158500000000E+01,9.91691300000000E+01,9.69036100000000E+01,9.56078800000000E+01,9.49451100000000E+01,9.49014500000000E+01,9.57672500000000E+01,9.68785500000000E+01,9.78948600000000E+01,9.83935700000000E+01,9.86531200000000E+01,9.81709200000000E+01,9.73944000000000E+01,9.51959800000000E+01,9.51710600000000E+01,9.45381100000000E+01,9.44258200000000E+01,9.47493900000000E+01,9.47971100000000E+01,9.46867800000000E+01,9.51298800000000E+01,9.50860800000000E+01,9.52745400000000E+01,9.53974400000000E+01,9.55224100000000E+01,9.70067300000000E+01,9.72507500000000E+01,9.73651500000000E+01,,
AUT,,,,,,,,,,,,,,,,,,8.92190800000000E+01,8.79027600000000E+01,8.74002000000000E+01,8.63478200000000E+01,8.72746400000000E+01,,,,8.65064800000000E+01,,,,9.08241600000000E+01,,,,9.04575300000000E+01,9.05259300000000E+01,9.03072600000000E+01,9.03169200000000E+01,8.97974500000000E+01,9.00222400000000E+01,9.06031000000000E+01,,,,,,,,,,,,
AZE,,,,,,,,,,,,,,,,,,,,,,,,,,,,,,,,8.85524100000000E+01,,,,,,,,8.92552000000000E+01,8.80104400000000E+01,8.47239800000000E+01,8.38037900000000E+01,8.08117400000000E+01,8.26131300000000E+01,8.14326100000000E+01,8.02688200000000E+01,8.30517900000000E+01,8.35624300000000E+01,8.43551900000000E+01,8.38475800000000E+01,
BDI,,,,,,,,,,,,,,1.38852500000000E+01,,,,,1.33297900000000E+01,,1.45282000000000E+01,1.58573000000000E+01,1.78223600000000E+01,2.29138700000000E+01,2.74042100000000E+01,3.18754400000000E+01,3.51817900000000E+01,4.10446100000000E+01,4.51310700000000E+01,,,,,4.61051100000000E+01,,,,,,3.40854200000000E+01,4.06400500000000E+01,4.90894900000000E+01,4.79995100000000E+01,5.21843200000000E+01,5.57780800000000E+01,5.98004200000000E+01,7.99262700000000E+01,8.87142400000000E+01,9.88566900000000E+01,9.95863300000000E+01,,
BEL,,,,,,,,,,,,,,,,,,9.52521500000000E+01,,9.69458500000000E+01,9.79113900000000E+01,9.74112200000000E+01,9.74272100000000E+01,9.46334200000000E+01,9.37397300000000E+01,9.29597300000000E+01,9.38496600000000E+01,9.50584400000000E+01,9.62158400000000E+01,,,9.73831600000000E+01,9.63602000000000E+01,9.84306300000000E+01,9.80533700000000E+01,9.82063000000000E+01,9.88101500000000E+01,,,9.92260900000000E+01,9.92173500000000E+01,9.92465700000000E+01,9.89481700000000E+01,9.87592400000000E+01,9.90509300000000E+01,9.90710200000000E+01,9.89267200000000E+01,9.90650000000000E+01,9.89789700000000E+01,9.89556100000000E+01,,
BEN,,,,,,,,,,,,,,,,,,,,,,,,,3.50163300000000E+01,3.56542900000000E+01,3.44951500000000E+01,,3.44064900000000E+01,3.49105100000000E+01,2.84329500000000E+01,,3.46153100000000E+01,3.81795700000000E+01,4.07734900000000E+01,4.35086800000000E+01,4.61709500000000E+01,5.00653000000000E+01,,,,,,7.06924200000000E+01,7.38567200000000E+01,7.48420600000000E+01,7.76340900000000E+01,,8.14880600000000E+01,,,
BFA,,,,,,,,,,,,6.83189000000000E+00,7.19655000000000E+00,,,,,9.12122000000000E+00,9.45470000000000E+00,9.86150000000000E+00,1.05449600000000E+01,1.11456200000000E+01,1.20947400000000E+01,1.32300900000000E+01,1.41390800000000E+01,1.56998400000000E+01,1.73876800000000E+01,1.85993100000000E+01,1.92220100000000E+01,1.97846300000000E+01,,2.14579200000000E+01,2.19457600000000E+01,2.28429700000000E+01,2.38299700000000E+01,2.50580600000000E+01,,,2.81020100000000E+01,2.72574800000000E+01,2.82168000000000E+01,2.93189100000000E+01,2.93295500000000E+01,3.12311700000000E+01,3.40118000000000E+01,3.84980800000000E+01,4.17401100000000E+01,4.70161500000000E+01,5.33223500000000E+01,5.67283600000000E+01,,
BGD,,,,,,,,,,,3.28499300000000E+01,,,4.77198700000000E+01,,,4.85637600000000E+01,4.87433300000000E+01,4.75099200000000E+01,,,4.75612000000000E+01,,4.20430400000000E+01,4.51495700000000E+01,4.38663900000000E+01,4.35264700000000E+01,4.29244800000000E+01,5.52258100000000E+01,5.55011700000000E+01,5.90884800000000E+01,,,,,,,,,,,,,,,9.63484700000000E+01,9.65568600000000E+01,,9.40726500000000E+01,9.65684700000000E+01,,
BGR,,,,,,,,,,,,,,,,,,,,,,,,,,,,,,,,,,,,,9.30676700000000E+01,9.60768000000000E+01,9.51505100000000E+01,9.54308000000000E+01,9.53784100000000E+01,9.57563100000000E+01,9.44637800000000E+01,9.46281900000000E+01,9.50416200000000E+01,9.24185700000000E+01,9.16435800000000E+01,9.49627000000000E+01,9.71291700000000E+01,9.80352100000000E+01,,
BHR,,,,,,,,,,,,6.29559300000000E+01,6.37880400000000E+01,6.34332300000000E+01,6.23208400000000E+01,6.51395000000000E+01,6.44367000000000E+01,6.56305200000000E+01,6.63037900000000E+01,6.97586000000000E+01,7.42061400000000E+01,7.60884700000000E+01,7.59231100000000E+01,8.12283900000000E+01,8.74871500000000E+01,9.40787300000000E+01,9.62381400000000E+01,9.64454000000000E+01,9.83290800000000E+01,9.80990500000000E+01,,9.89524700000000E+01,9.71430500000000E+01,9.73613100000000E+01,9.74627900000000E+01,9.74530800000000E+01,,9.73691900000000E+01,9.71978200000000E+01,9.72109300000000E+01,9.78481600000000E+01,9.79114500000000E+01,9.65464500000000E+01,9.68815100000000E+01,,9.50493500000000E+01,9.80437300000000E+01,,,,,
BHS,,,,,,,,,,,,,,,,,9.88816400000000E+01,9.93642000000000E+01,,,9.78014600000000E+01,,,,,,,,,,,,9.04915300000000E+01,9.25284300000000E+01,,,,,,8.99080400000000E+01,8.60497900000000E+01,,,8.63712400000000E+01,9.18906700000000E+01,9.61952700000000E+01,9.55709000000000E+01,9.95924800000000E+01,9.96180900000000E+01,9.96708200000000E+01,,
BIH,,,,,,,,,,,,,,,,,,,,,,,,,,,,,,,,,,,,,,,,,,,,,,,,,,8.24938700000000E+01,8.60798300000000E+01,
BLR,,,,,,,,,,,,,,,,,,,,,,,,,,,,,,,,,,,,8.45455300000000E+01,,,,,,,9.11762000000000E+01,,,8.80540700000000E+01,8.86534300000000E+01,,9.69016100000000E+01,,,
BLZ,,,,,,,,,,,,,,,,,,,,,,,,,,,,,,,,,,,,,,,,8.47296900000000E+01,8.47328200000000E+01,8.32930200000000E+01,8.34571700000000E+01,,,8.79840900000000E+01,8.79328600000000E+01,8.91836800000000E+01,8.80510700000000E+01,,,
BMU,,,,,,,,,,,,,,,,,,,,,,,,,,,,,,,,,,,,,,,,,,,,,,9.94603600000000E+01,,,,,,
BOL,,,,,,,,,,,,,,,,,,,,,,,,,,,,,,,,,,,,,,,9.42846800000000E+01,9.45428400000000E+01,9.48933400000000E+01,9.38553700000000E+01,9.45084100000000E+01,9.46324000000000E+01,9.48652800000000E+01,,9.55674000000000E+01,9.45015300000000E+01,,,,
BRA,,,,,,,,,,,,,,,,,,,,,,,,,,,,,,,,,,,,,,,,,,,,,9.06419200000000E+01,9.53671500000000E+01,,,9.31122800000000E+01,,,
BRB,,,,,,,,,,,,,,,,,,,,,,,,,,,,,,,,,,,,,,,,9.79022700000000E+01,9.79330400000000E+01,9.73173900000000E+01,9.61434000000000E+01,9.54295800000000E+01,9.38112800000000E+01,9.45705100000000E+01,9.69046100000000E+01,9.74528100000000E+01,,,,
BRN,,,,,,,,,,,,,,,,,,8.98505300000000E+01,9.09516000000000E+01,8.18792500000000E+01,8.19230500000000E+01,7.88011300000000E+01,7.67969000000000E+01,7.77631500000000E+01,7.84370200000000E+01,,8.03091200000000E+01,,,,,9.11718800000000E+01,9.43820200000000E+01,9.78512900000000E+01,9.76549400000000E+01,9.86449000000000E+01,,,,,,,,,,9.38534100000000E+01,9.38887900000000E+01,9.27710300000000E+01,9.32501900000000E+01,9.33937500000000E+01,,
BTN,,,,,,,,,,,,,,,,,,,1.38869900000000E+01,1.62866700000000E+01,,,,,,,,,,,,,,,,,,,5.11250800000000E+01,5.20232100000000E+01,5.51271000000000E+01,5.82875500000000E+01,,,,7.30472900000000E+01,7.82378000000000E+01,,8.49339900000000E+01,8.90271600000000E+01,,
BWA,,,,,,,,,,,4.74127500000000E+01,4.45843100000000E+01,4.65565400000000E+01,5.03965900000000E+01,5.49985000000000E+01,6.23492500000000E+01,6.74111800000000E+01,7.21674800000000E+01,7.33348800000000E+01,7.51230700000000E+01,7.94222900000000E+01,8.36999600000000E+01,,8.71011200000000E+01,8.70805500000000E+01,8.87066900000000E+01,8.89519500000000E+01,8.97423200000000E+01,9.04334500000000E+01,9.06428100000000E+01,9.05026100000000E+01,9.29223700000000E+01,9.19055200000000E+01,9.08212800000000E+01,9.02126100000000E+01,8.03565600000000E+01,8.07438100000000E+01,,8.20491900000000E+01,8.11424700000000E+01,8.25904100000000E+01,8.43385900000000E+01,8.46339900000000E+01,8.51965300000000E+01,8.48703900000000E+01,8.58960500000000E+01,8.67976400000000E+01,8.64132500000000E+01,,,,
CAF,,,,,,,,,,,,3.39509000000000E+01,3.60679400000000E+01,3.86601900000000E+01,,,,3.74330700000000E+01,3.71651100000000E+01,,,4.12224800000000E+01,4.20859600000000E+01,4.15194900000000E+01,,,4.87037900000000E+01,3.98297100000000E+01,3.83978200000000E+01,3.87920400000000E+01,4.59008300000000E+01,4.29298000000000E+01,,,,,,,,,,,,,,4.12794700000000E+01,4.13911700000000E+01,4.84368000000000E+01,5.73255000000000E+01,5.77502000000000E+01,6.04001300000000E+01,
CAN,,,,,,,,,,,,,,,,,,,,,,,9.62412100000000E+01,9.58569800000000E+01,9.49949400000000E+01,9.46695700000000E+01,9.47911300000000E+01,9.47393600000000E+01,9.47021600000000E+01,9.43078700000000E+01,9.54699100000000E+01,9.75506900000000E+01,9.76396800000000E+01,9.59852000000000E+01,9.50437300000000E+01,9.40052900000000E+01,9.45133100000000E+01,,9.77718000000000E+01,9.99179300000000E+01,,,,,,,,,,,,
CHE,,,,,,,,,,,,,,,,,,7.75269000000000E+01,7.85473800000000E+01,,,7.91256300000000E+01,7.86909600000000E+01,7.83113800000000E+01,7.78780200000000E+01,7.77169600000000E+01,7.80021600000000E+01,7.90415100000000E+01,8.04013800000000E+01,8.18585900000000E+01,8.33692200000000E+01,8.44086100000000E+01,8.49700300000000E+01,8.46344000000000E+01,8.37291500000000E+01,8.86608100000000E+01,9.03175300000000E+01,,,9.55364800000000E+01,9.55982200000000E+01,9.54598600000000E+01,9.53585600000000E+01,9.51787600000000E+01,9.44089300000000E+01,9.33273600000000E+01,9.30280400000000E+01,9.26930700000000E+01,9.32465600000000E+01,9.35052700000000E+01,,
CHL,,,,,,,,,,,,,,,,,,,,,,,,,,,,,,,,,,,,,,,,,,,,,,,,9.46684300000000E+01,9.50624200000000E+01,9.34471700000000E+01,,
CHN,,,,,,,,,,,,,,,,,,,,,,,,,,,,9.10870100000000E+01,,,,,9.39680400000000E+01,9.22031500000000E+01,9.10288200000000E+01,9.14763000000000E+01,9.37140800000000E+01,9.72188700000000E+01,,,,,,,,,,,,,,
CIV,,,,,,,,,,,,,,,,,,3.78078900000000E+01,,,,,,,,,,,,,,,,,,,4.49537300000000E+01,4.61373500000000E+01,,4.84879600000000E+01,4.76682000000000E+01,5.20602500000000E+01,5.17151100000000E+01,5.16996100000000E+01,,,,,,5.58173200000000E+01,,
CMR,,,,,,,,,,,,5.33140300000000E+01,5.36496500000000E+01,5.23504200000000E+01,5.16659800000000E+01,5.72281600000000E+01,5.87037900000000E+01,5.79149000000000E+01,5.90786600000000E+01,6.02663000000000E+01,6.05711200000000E+01,,,,,,,,6.65960400000000E+01,,6.62566100000000E+01,6.48351800000000E+01,,,,,,,,,,,,,,,,,8.45040900000000E+01,8.61838600000000E+01,,
COG,,,,,,,,,,,,,7.77628600000000E+01,,8.42758900000000E+01,,8.85148500000000E+01,,9.33867000000000E+01,9.39009100000000E+01,8.71459300000000E+01,8.60009400000000E+01,8.66721100000000E+01,8.75020800000000E+01,8.82161400000000E+01,,,,,,,,,,,,,,,,,,,,,,,,,,8.93222900000000E+01,
COL,,,,,,,,,,,,,,,,,,,,,,,,,,,6.82775300000000E+01,,,,,7.58576600000000E+01,,,,,,,9.09632700000000E+01,9.36440400000000E+01,9.37568800000000E+01,9.17403800000000E+01,9.24637100000000E+01,,,9.30205700000000E+01,9.16334600000000E+01,9.04688600000000E+01,8.98344600000000E+01,8.92701000000000E+01,8.75269300000000E+01,
COM,,,,,,,,,,,,,,,,,,,,,,,,,,,,5.88803100000000E+01,,,,,,,5.61192000000000E+01,,,,,6.01964400000000E+01,6.73775400000000E+01,,,,,,,7.47761700000000E+01,,,,
CPV,,,,,,,,,,,,,,,,,,,,,,8.79144700000000E+01,8.51256000000000E+01,8.12236200000000E+01,8.83534500000000E+01,9.01683300000000E+01,9.04582300000000E+01,9.02050600000000E+01,9.31287100000000E+01,,9.00681100000000E+01,8.94740200000000E+01,,,9.18516200000000E+01,,,,,9.69893600000000E+01,9.81456400000000E+01,,9.74861300000000E+01,9.70510600000000E+01,9.72270700000000E+01,9.56769400000000E+01,9.46094800000000E+01,9.30920700000000E+01,9.19882700000000E+01,9.15017700000000E+01,9.20726100000000E+01,
CRI,,,,,,,,,,,8.50316100000000E+01,,8.85844300000000E+01,8.98474000000000E+01,,9.08845800000000E+01,9.31042100000000E+01,,9.18129500000000E+01,9.01668300000000E+01,8.96342400000000E+01,8.91269600000000E+01,8.70390400000000E+01,,,8.56461800000000E+01,8.74472900000000E+01,8.78585000000000E+01,,8.78892800000000E+01,8.77436500000000E+01,8.81248300000000E+01,,,,,,,,9.03727600000000E+01,,,,,,,,,,,,
CUB,,,,,,,,,,,,,9.67123300000000E+01,9.92550200000000E+01,9.93886900000000E+01,,,,,9.51660300000000E+01,9.51630500000000E+01,9.51959700000000E+01,9.67643000000000E+01,9.73672600000000E+01,9.70060700000000E+01,9.67167400000000E+01,9.51032600000000E+01,9.41521400000000E+01,9.22480000000000E+01,9.21491500000000E+01,9.31919300000000E+01,9.44350100000000E+01,9.66755200000000E+01,9.61201700000000E+01,9.69957900000000E+01,9.65933600000000E+01,9.82343500000000E+01,,9.78995900000000E+01,9.43849800000000E+01,9.59384100000000E+01,9.54259900000000E+01,9.49450600000000E+01,9.30043300000000E+01,9.33312000000000E+01,9.41227700000000E+01,9.57320800000000E+01,9.75898700000000E+01,9.84033800000000E+01,9.89039800000000E+01,9.90721100000000E+01,
CYM,,,,,,,,,,,,,,,,,,,,,,,,,,,,,,,,,,,,,,,,,9.65965300000000E+01,9.76534300000000E+01,9.32243000000000E+01,,8.26860800000000E+01,7.49605500000000E+01,7.84243000000000E+01,8.38434500000000E+01,8.11881200000000E+01,,,
CYP,,,,,,,,,,,,7.85740200000000E+01,7.71590300000000E+01,7.83030100000000E+01,7.97730400000000E+01,7.63972700000000E+01,7.72339700000000E+01,7.92350600000000E+01,8.29142000000000E+01,8.60802600000000E+01,8.57886600000000E+01,8.76172200000000E+01,8.31983800000000E+01,8.12908100000000E+01,7.92926200000000E+01,7.79615600000000E+01,8.05872900000000E+01,8.30323800000000E+01,8.36781000000000E+01,8.41594000000000E+01,8.49792900000000E+01,8.67959700000000E+01,8.53243800000000E+01,9.76688100000000E+01,9.67790600000000E+01,9.61314700000000E+01,9.58571700000000E+01,9.63760300000000E+01,,9.53652300000000E+01,9.55114400000000E+01,9.52858300000000E+01,9.61310100000000E+01,9.63186800000000E+01,9.59534800000000E+01,9.94353900000000E+01,9.92220500000000E+01,9.89375300000000E+01,9.84131100000000E+01,9.84457900000000E+01,,
CZE,,,,,,,,,,,,,,,,,,,,,,,,,,,,,,,,,,,9.14708600000000E+01,9.13073200000000E+01,8.69796400000000E+01,8.95868900000000E+01,,9.60433200000000E+01,,,,,,,,,,,,
DEU,,,,,,,,,,,,,,,,,,,,,,,,,,,,,,,,,,8.42851900000000E+01,8.34510600000000E+01,8.41669900000000E+01,8.56854100000000E+01,8.72484600000000E+01,8.87694100000000E+01,9.92152200000000E+01,9.91655900000000E+01,9.91242100000000E+01,9.89519500000000E+01,9.85966900000000E+01,9.84514600000000E+01,9.84698600000000E+01,9.83138700000000E+01,9.81477200000000E+01,9.75020600000000E+01,9.71411800000000E+01,,
DJI,,,,,,,,,,,,,,,,,,,,,,,,,,2.35728000000000E+01,2.49518400000000E+01,2.51374600000000E+01,2.52117500000000E+01,2.51115800000000E+01,2.53225400000000E+01,2.38869300000000E+01,2.48827200000000E+01,2.33009900000000E+01,2.41868400000000E+01,2.55439500000000E+01,2.54140600000000E+01,2.46397300000000E+01,,2.28549500000000E+01,2.29402100000000E+01,2.50008300000000E+01,2.54460800000000E+01,2.70914000000000E+01,2.85828100000000E+01,3.04802200000000E+01,3.37540700000000E+01,3.68898800000000E+01,4.27268800000000E+01,4.21412200000000E+01,,
DMA,,,,,,,,,,,,,,,,,,,,,,,,,,,,,,,,,,,,,,,,,9.61530800000000E+01,9.60598100000000E+01,9.62426100000000E+01,9.49535700000000E+01,9.35565400000000E+01,9.23896500000000E+01,9.02516400000000E+01,8.59004700000000E+01,9.10585300000000E+01,9.46711700000000E+01,,
DNK,,,,,,,,,,,,,,,,,,,,,,9.53880800000000E+01,9.65121800000000E+01,9.84233800000000E+01,9.91511700000000E+01,9.83984200000000E+01,9.82616700000000E+01,9.84874700000000E+01,9.86345400000000E+01,9.83281600000000E+01,9.82158200000000E+01,9.83190700000000E+01,9.67944000000000E+01,9.60161000000000E+01,9.78665300000000E+01,9.81696900000000E+01,9.85130100000000E+01,,9.90341100000000E+01,9.78996200000000E+01,9.76096500000000E+01,9.99865100000000E+01,9.99980200000000E+01,,9.80829500000000E+01,9.61148000000000E+01,9.65131400000000E+01,9.69310200000000E+01,9.66152800000000E+01,9.65748900000000E+01,,
DOM,,,,,,,,,,,,,,,,,,,,,,,,,,,,,,,,,,,,,,,7.91232600000000E+01,8.28424100000000E+01,8.37001400000000E+01,8.77061500000000E+01,8.69333700000000E+01,8.51276600000000E+01,8.16631700000000E+01,8.32099000000000E+01,8.17046800000000E+01,8.70708800000000E+01,8.34706300000000E+01,8.45196100000000E+01,8.69697900000000E+01,
DZA,,,,,,,,,,,,,,5.64859300000000E+01,5.97662800000000E+01,6.20351800000000E+01,6.39106400000000E+01,6.60705100000000E+01,6.80332300000000E+01,6.91857100000000E+01,7.10163700000000E+01,7.19216200000000E+01,7.22518500000000E+01,7.24855700000000E+01,7.41422000000000E+01,7.52460600000000E+01,7.69947100000000E+01,7.85745000000000E+01,7.96370700000000E+01,8.06109600000000E+01,8.10232200000000E+01,8.28576100000000E+01,8.44672200000000E+01,8.47282500000000E+01,8.54997300000000E+01,8.62869400000000E+01,8.63985200000000E+01,8.62966700000000E+01,,8.90199000000000E+01,8.99678500000000E+01,9.16809800000000E+01,9.25513100000000E+01,9.27845200000000E+01,9.33379300000000E+01,9.36067900000000E+01,9.36650500000000E+01,9.59875600000000E+01,9.63236500000000E+01,9.50832200000000E+01,9.46021300000000E+01,
EAP,,,,,,,,,,,,,,,,,,,,,,,,,,,,,,,,9.31139392185807E+01,,,,,,,,9.33550400000000E+01,9.28586500000000E+01,9.24317500000000E+01,9.15482100000000E+01,9.20939000000000E+01,9.27754700000000E+01,9.33658900000000E+01,9.36101000000000E+01,9.39766100000000E+01,,,,
EAS,,,,,,,,,,,,,,,,,,,,,,,,,,,,,,,,,,,,,,,,9.37006600000000E+01,9.32533700000000E+01,9.28433000000000E+01,9.20309200000000E+01,9.25379500000000E+01,9.31682600000000E+01,9.37235200000000E+01,9.39719000000000E+01,9.43458800000000E+01,9.48845400000000E+01,9.46346000000000E+01,,
ECA,,,,,,,,,,,,,,,,,,,,,,,,,,,,,,,,8.87719480331388E+01,,,,,,,,9.11745000000000E+01,9.12265800000000E+01,9.21459700000000E+01,9.28451500000000E+01,9.15831000000000E+01,9.21705400000000E+01,8.99109200000000E+01,9.07873500000000E+01,9.11757700000000E+01,9.12387700000000E+01,9.10781700000000E+01,,
ECS,,,,,,,,,,,,,,,,,,,,,,,,,,,,,,,,,,,,,,,,9.48652700000000E+01,9.50038500000000E+01,9.55811700000000E+01,9.58708500000000E+01,9.52499500000000E+01,9.52994900000000E+01,9.41832200000000E+01,9.45116600000000E+01,9.46104100000000E+01,9.48194200000000E+01,9.48283800000000E+01,,
ECU,,,,,,,,,,,,8.05418300000000E+01,,8.07226700000000E+01,8.18485900000000E+01,8.15213100000000E+01,8.18145000000000E+01,8.47375800000000E+01,8.64798600000000E+01,8.91778000000000E+01,8.75577700000000E+01,,,,,,,,,,,,,,9.02734600000000E+01,9.15537800000000E+01,9.36369800000000E+01,9.71414700000000E+01,9.72246200000000E+01,9.82124800000000E+01,9.83542900000000E+01,9.83036000000000E+01,9.81379200000000E+01,9.77227000000000E+01,9.81964000000000E+01,9.78846500000000E+01,9.72036300000000E+01,9.74054600000000E+01,,9.84145700000000E+01,,
EGY,,,,,,,,,,,,4.65533200000000E+01,4.67740200000000E+01,4.68335200000000E+01,,,,,5.11850600000000E+01,,,,,,,,,,,,,,,,7.44706400000000E+01,,,7.91644800000000E+01,,8.69774100000000E+01,8.74181700000000E+01,8.88552000000000E+01,9.05919800000000E+01,9.23750600000000E+01,9.41854100000000E+01,9.11694400000000E+01,9.06547500000000E+01,9.36911000000000E+01,,9.41384900000000E+01,,
EMU,,,,,,,,,,,,,,,,,,,,,,,,,,,,,,,,,,,,,,,,9.85266800000000E+01,9.86492700000000E+01,9.86724000000000E+01,9.83920200000000E+01,9.82687900000000E+01,9.83695900000000E+01,9.82864800000000E+01,9.81796700000000E+01,9.82936200000000E+01,9.81879300000000E+01,9.82148300000000E+01,,
ERI,,,,,,,,,,,,,,,,,,,,,,,,,,,,,,,,,1.92582000000000E+01,,2.30508000000000E+01,2.45828400000000E+01,2.66479300000000E+01,2.68001200000000E+01,,3.05909900000000E+01,3.49434900000000E+01,3.60616800000000E+01,3.96305500000000E+01,4.30748900000000E+01,4.44250900000000E+01,4.51885700000000E+01,4.42002800000000E+01,3.97788100000000E+01,3.62187600000000E+01,3.33235500000000E+01,3.10293400000000E+01,
ESP,,,,,,,,,,,,9.48559200000000E+01,9.64080800000000E+01,9.73198700000000E+01,,9.76597600000000E+01,9.59813700000000E+01,9.63922400000000E+01,9.54634800000000E+01,9.55152000000000E+01,9.84202700000000E+01,9.84213200000000E+01,,,,,,,,,,,,,,,9.94458700000000E+01,,,9.95194700000000E+01,9.99114100000000E+01,9.99010100000000E+01,9.98867500000000E+01,9.97712400000000E+01,9.98014000000000E+01,9.94831000000000E+01,9.94525300000000E+01,9.95970900000000E+01,9.96477600000000E+01,9.98249900000000E+01,,
EST,,,,,,,,,,,,,,,,,,,,,,,,,,,,,,,,,,,,8.47228700000000E+01,8.89435000000000E+01,,,9.33760500000000E+01,9.51876500000000E+01,9.60599000000000E+01,9.62392900000000E+01,9.45702700000000E+01,9.48423200000000E+01,9.48466300000000E+01,9.39590700000000E+01,9.36273700000000E+01,9.39188400000000E+01,9.32717100000000E+01,,
ETH,,,,,,,,,,,,,,,,,,,,,,,,,,,,2.48404700000000E+01,2.52819200000000E+01,2.48718800000000E+01,,,,,1.63355600000000E+01,1.81298300000000E+01,2.11757000000000E+01,,2.72582600000000E+01,2.95165600000000E+01,3.41285400000000E+01,3.81874100000000E+01,4.04754200000000E+01,4.17598200000000E+01,4.59809000000000E+01,5.82908500000000E+01,6.49066500000000E+01,7.14725800000000E+01,7.87594500000000E+01,7.99810600000000E+01,7.86314000000000E+01,
FIN,,,,,,,,,,,,,,,,,,,,,,,,,,,,,,,,,,9.87699900000000E+01,9.90700500000000E+01,9.88328900000000E+01,9.88032300000000E+01,9.81123700000000E+01,9.80071700000000E+01,9.95979300000000E+01,9.94119200000000E+01,9.96004300000000E+01,9.94151300000000E+01,9.85951300000000E+01,9.76172800000000E+01,9.73830100000000E+01,9.69895900000000E+01,9.74627400000000E+01,9.75597600000000E+01,9.75468200000000E+01,,
FJI,,,,,,,,,,,,,,,,,,,,,,,,,,,,,,,,,,,,,,,9.85613500000000E+01,9.45710100000000E+01,9.23606800000000E+01,9.52092500000000E+01,9.73546700000000E+01,9.93178600000000E+01,9.67244000000000E+01,,9.60744100000000E+01,9.58727300000000E+01,9.73117700000000E+01,9.66686700000000E+01,,
FRA,,,,,,,,,,,,9.74041000000000E+01,9.81209600000000E+01,,,,,9.45084000000000E+01,,9.87886500000000E+01,9.91093600000000E+01,,9.87296600000000E+01,9.75343600000000E+01,,9.61883000000000E+01,9.72547200000000E+01,9.92769800000000E+01,9.92809000000000E+01,9.92908100000000E+01,9.92786200000000E+01,9.99688500000000E+01,9.92670200000000E+01,9.89010500000000E+01,9.87259400000000E+01,9.92507900000000E+01,9.92242800000000E+01,9.92276500000000E+01,,9.90930500000000E+01,9.91209800000000E+01,9.91280700000000E+01,9.91153200000000E+01,9.91263000000000E+01,9.91084300000000E+01,9.88074700000000E+01,9.86442300000000E+01,,,,,
GAB,,,,,,,,,,,,,,,,,,,,,,,,,,,,,,,,,,,,,,9.15094100000000E+01,,,,7.97957500000000E+01,,,,,,,,,,
GBR,,,,,,,,,,,,9.91596200000000E+01,9.90337500000000E+01,9.84646700000000E+01,9.78848600000000E+01,9.73244800000000E+01,9.69388400000000E+01,9.73097900000000E+01,9.73931200000000E+01,9.73179000000000E+01,9.81590500000000E+01,9.74618700000000E+01,9.63343600000000E+01,9.46521500000000E+01,9.41211800000000E+01,9.32410300000000E+01,9.45868100000000E+01,9.69898800000000E+01,9.81943800000000E+01,9.87747700000000E+01,9.87017400000000E+01,9.77246900000000E+01,9.66763300000000E+01,9.66448200000000E+01,9.71111300000000E+01,9.73418900000000E+01,9.78975700000000E+01,9.81815500000000E+01,9.98048800000000E+01,9.99774200000000E+01,9.99832300000000E+01,,9.99997300000000E+01,9.99996300000000E+01,9.82433700000000E+01,9.87528600000000E+01,9.87867700000000E+01,9.74411200000000E+01,9.95403300000000E+01,9.95367200000000E+01,,
GEO,,,,,,,,,,,,,,,,,,,,,,,,,,,,,,,,,,,,8.23307000000000E+01,8.41623600000000E+01,8.50176300000000E+01,,,,,,,8.73574800000000E+01,8.84464400000000E+01,9.40836900000000E+01,9.34689900000000E+01,,,,
GHA,,,,,,,,,,,,,,,,,,,,,,,,,,,,,,,,,,,,,,,,5.97075100000000E+01,6.34655500000000E+01,5.86480700000000E+01,6.13513400000000E+01,6.41797600000000E+01,5.98280300000000E+01,6.63270600000000E+01,6.66667500000000E+01,7.26335300000000E+01,7.84684600000000E+01,7.70936300000000E+01,,
GIN,,,,,,,,,,,,,,,,,,,,,,,,,1.72297500000000E+01,1.86356700000000E+01,1.74065800000000E+01,1.59344900000000E+01,1.68020000000000E+01,1.69640400000000E+01,1.65266700000000E+01,1.81011300000000E+01,,,,,,,3.23826700000000E+01,3.51866500000000E+01,3.95062200000000E+01,4.36575100000000E+01,5.11915800000000E+01,5.54820100000000E+01,5.93551000000000E+01,6.23111600000000E+01,6.54770600000000E+01,6.80143500000000E+01,6.76344000000000E+01,6.93517500000000E+01,7.04618600000000E+01,
GMB,,,,,,,,,,,,1.47091400000000E+01,1.48309300000000E+01,1.58878800000000E+01,1.29646900000000E+01,1.36559900000000E+01,1.43590200000000E+01,1.83116300000000E+01,2.22562400000000E+01,2.48670200000000E+01,2.86972000000000E+01,3.56095500000000E+01,3.88288800000000E+01,4.19578100000000E+01,4.49794200000000E+01,4.74050200000000E+01,4.79822800000000E+01,,,,,,4.17472400000000E+01,4.55516300000000E+01,,,5.63857800000000E+01,,,6.42545500000000E+01,6.34451200000000E+01,6.56212300000000E+01,6.39355800000000E+01,6.93050200000000E+01,7.12444700000000E+01,6.94029300000000E+01,7.36680700000000E+01,7.26276700000000E+01,6.94097000000000E+01,7.38681100000000E+01,6.66067000000000E+01,
GNB,,,,,,,,,,,,,,,,,,,,,,2.83216200000000E+01,3.13080600000000E+01,,2.89852000000000E+01,2.90185400000000E+01,,2.57716500000000E+01,2.60021400000000E+01,,,,,,,,,,,4.19112500000000E+01,4.24958600000000E+01,,,,,,,,,,7.23620100000000E+01,
GNQ,,,,,,,,,,,,,,,,,,,,,,,,,,,,,,,,,,,7.61229500000000E+01,,,,,,,7.02845100000000E+01,6.80201600000000E+01,6.70524700000000E+01,,,,,,5.53551000000000E+01,5.60225700000000E+01,
GRC,,,,,,,,,,,,9.71739000000000E+01,9.62109400000000E+01,9.58408800000000E+01,9.61943700000000E+01,9.61173100000000E+01,9.68253500000000E+01,9.70316800000000E+01,9.65028400000000E+01,9.63602600000000E+01,9.52841600000000E+01,9.60816700000000E+01,9.60882600000000E+01,9.62050600000000E+01,9.60099500000000E+01,9.61615300000000E+01,9.58722400000000E+01,9.57117200000000E+01,9.57337000000000E+01,9.57026500000000E+01,9.50599600000000E+01,9.43150500000000E+01,9.29351600000000E+01,9.11716300000000E+01,9.05320900000000E+01,9.22759300000000E+01,8.96162200000000E+01,8.92489300000000E+01,9.18849100000000E+01,9.32831800000000E+01,9.41997200000000E+01,9.37560300000000E+01,9.57882700000000E+01,9.76297100000000E+01,9.89379700000000E+01,9.90066400000000E+01,9.85941000000000E+01,9.85418700000000E+01,,,,
GRD,,,,,,,,,,,,,8.37472200000000E+01,,,,,9.63393000000000E+01,9.56837100000000E+01,9.53022600000000E+01,9.27731300000000E+01,9.08428500000000E+01,8.79946300000000E+01,8.87330900000000E+01,9.19960400000000E+01,,,,,,,,,,,,,,,,7.75971800000000E+01,7.95033300000000E+01,,,9.52235600000000E+01,9.56753900000000E+01,,9.02613200000000E+01,9.03036500000000E+01,8.66721900000000E+01,,
GTM,,,,,,,,,,,4.49080300000000E+01,4.57400000000000E+01,4.63463900000000E+01,,4.76798500000000E+01,4.84300700000000E+01,,,5.10305100000000E+01,,,5.64386800000000E+01,5.43462100000000E+01,5.76404200000000E+01,,,,,,,,,,,,,,6.93683600000000E+01,,7.88030000000000E+01,8.21092800000000E+01,8.27008000000000E+01,8.51406900000000E+01,8.75148100000000E+01,8.98367700000000E+01,9.13663100000000E+01,9.27106000000000E+01,9.36461000000000E+01,9.38357000000000E+01,,9.58226400000000E+01,
GUY,,,,,,,,,,,,8.57194500000000E+01,8.51997800000000E+01,,8.76275000000000E+01,,8.75335600000000E+01,9.50308700000000E+01,,9.50378500000000E+01,,,9.37392200000000E+01,,,,,,,,,8.68425200000000E+01,8.58202500000000E+01,8.64618500000000E+01,,9.26016500000000E+01,9.30123800000000E+01,,,,,,,9.36021200000000E+01,,,,,8.67769300000000E+01,7.99605900000000E+01,8.21871800000000E+01,
HIC,,,,,,,,,,,,,,,,,,,,,,,,,,,,,,,,9.51480812071814E+01,,,,,,,,9.54179900000000E+01,9.56338500000000E+01,9.60547500000000E+01,9.55332900000000E+01,9.54959900000000E+01,9.40828600000000E+01,9.47912900000000E+01,9.48717300000000E+01,9.50111900000000E+01,9.52788600000000E+01,9.51851400000000E+01,,
HKG,,,,,,,,,,,,8.64059400000000E+01,8.93447800000000E+01,9.05763500000000E+01,9.21773200000000E+01,9.25751500000000E+01,9.13129100000000E+01,8.98583700000000E+01,8.83299000000000E+01,8.90114000000000E+01,9.41132500000000E+01,9.55876600000000E+01,9.61211500000000E+01,9.65727000000000E+01,9.64081000000000E+01,9.56382000000000E+01,,,,,,,,,,9.34767000000000E+01,9.16657100000000E+01,,,,,8.82287500000000E+01,8.91444000000000E+01,9.03487700000000E+01,9.13885200000000E+01,9.11050500000000E+01,9.09751000000000E+01,9.10183200000000E+01,9.11782800000000E+01,9.25521300000000E+01,9.50846600000000E+01,
HND,,,,,,,,,,,,,,,,,,,,7.68899400000000E+01,7.72243100000000E+01,,8.74639300000000E+01,8.99648200000000E+01,9.15881700000000E+01,,9.29376900000000E+01,,,,,8.87766200000000E+01,,8.99670800000000E+01,,,,,,,8.91569900000000E+01,8.92304100000000E+01,,,9.32835800000000E+01,9.26628400000000E+01,9.71802000000000E+01,9.39389400000000E+01,9.75476500000000E+01,9.75697400000000E+01,9.72846200000000E+01,
HRV,,,,,,,,,,,,,,,,,,,,,,,,,,,,,,,,,,,,,,,8.35557200000000E+01,8.51873700000000E+01,8.55643700000000E+01,8.60508200000000E+01,8.64177600000000E+01,8.71362600000000E+01,,9.01773800000000E+01,8.97977200000000E+01,8.95286300000000E+01,8.91654200000000E+01,8.73215700000000E+01,,
HTI,,,,,,,,,,,,,,,,,,,,,,3.65351300000000E+01,4.08735100000000E+01,4.57637000000000E+01,4.25574700000000E+01,4.71179500000000E+01,5.00536000000000E+01,4.23855400000000E+01,2.45508600000000E+01,2.35618200000000E+01,2.26944600000000E+01,2.19874500000000E+01,,,,,,5.63176200000000E+01,,,,,,,,,,,,,,
HUN,,,,,,,,,,,,,,,,,,,,,,,,,,,,,,,,,,,,,7.63013800000000E+01,8.67831100000000E+01,8.74446900000000E+01,8.74786800000000E+01,8.83619100000000E+01,8.88870600000000E+01,8.91907000000000E+01,8.87111600000000E+01,8.84972800000000E+01,8.86099500000000E+01,8.95582400000000E+01,8.88736200000000E+01,9.05629900000000E+01,9.17058000000000E+01,,
IDN,,,,,,,,,,,,6.54534500000000E+01,6.66715300000000E+01,,6.46918100000000E+01,7.00466700000000E+01,7.35735000000000E+01,,8.32469800000000E+01,,,8.78848000000000E+01,9.22137700000000E+01,,,,,9.72561000000000E+01,,,,9.31910400000000E+01,9.32125200000000E+01,9.34596700000000E+01,,9.24864800000000E+01,9.57467400000000E+01,9.54136600000000E+01,,,8.85196900000000E+01,9.03926000000000E+01,9.07226000000000E+01,9.05979700000000E+01,9.08114700000000E+01,9.07390100000000E+01,9.37171400000000E+01,9.27343800000000E+01,9.44087300000000E+01,9.36875800000000E+01,,
IND,,,,,,,,,,,,4.82549300000000E+01,,,,,,,,,,,,,,,,,,,,,,,,,,,,,7.20862400000000E+01,7.22728300000000E+01,7.25407900000000E+01,8.15404100000000E+01,8.86335200000000E+01,8.71744500000000E+01,8.73260500000000E+01,8.85105500000000E+01,,,,
IRL,,,,,,,,,,,,9.39438200000000E+01,9.37142100000000E+01,9.45935600000000E+01,9.38347700000000E+01,9.35959200000000E+01,9.27561300000000E+01,9.16878800000000E+01,9.14225500000000E+01,9.10035500000000E+01,9.08830400000000E+01,9.06204900000000E+01,8.99166300000000E+01,8.96089700000000E+01,,,8.97704900000000E+01,9.00805300000000E+01,9.06841700000000E+01,9.10576100000000E+01,9.15281900000000E+01,9.10754700000000E+01,9.04083400000000E+01,9.02306100000000E+01,9.02001400000000E+01,8.98667700000000E+01,8.95849300000000E+01,8.98955800000000E+01,9.41427100000000E+01,9.44273700000000E+01,9.40701800000000E+01,9.35611700000000E+01,9.47943600000000E+01,9.47174100000000E+01,9.41293100000000E+01,9.38293200000000E+01,9.41916000000000E+01,9.60224800000000E+01,9.79362200000000E+01,9.88652700000000E+01,,
IRN,,,,,,,,,,,,,,,,,,,,,,,,,7.33516100000000E+01,7.55826900000000E+01,7.79481600000000E+01,7.87504100000000E+01,8.06000300000000E+01,8.19419400000000E+01,8.77345200000000E+01,,9.37695600000000E+01,,,,,,,8.46338700000000E+01,8.41213200000000E+01,,9.18940500000000E+01,9.17158900000000E+01,9.51072800000000E+01,9.56859200000000E+01,9.82159300000000E+01,9.99011000000000E+01,,,,
IRQ,,,,,,,,,,,,3.35685200000000E+01,3.52492500000000E+01,3.74286200000000E+01,3.98749300000000E+01,4.30088800000000E+01,5.00487300000000E+01,5.45804700000000E+01,5.85055100000000E+01,8.07832500000000E+01,8.70700500000000E+01,8.69167900000000E+01,,8.20770600000000E+01,,7.97289400000000E+01,8.05162400000000E+01,8.21926300000000E+01,8.42404000000000E+01,8.16367300000000E+01,,,,7.16266100000000E+01,,,6.93859400000000E+01,,,8.21218300000000E+01,8.09772300000000E+01,8.05722700000000E+01,,8.65114400000000E+01,8.47787400000000E+01,,,8.36598900000000E+01,,,,
ISL,,,,,,,,,,,,,,,,,,,,,,,,,,,,,,,,,,,9.79533800000000E+01,,9.84477400000000E+01,9.80559900000000E+01,9.74940700000000E+01,9.78942300000000E+01,9.82051100000000E+01,9.89348400000000E+01,9.89350300000000E+01,9.83106700000000E+01,9.67543800000000E+01,9.66612400000000E+01,9.72615400000000E+01,9.81154700000000E+01,9.89092400000000E+01,9.94300800000000E+01,,
ISR,,,,,,,,,,,,,,,,,,,,,,,,,,,,,,,,,,,,,,,,9.72819500000000E+01,9.75706400000000E+01,9.83497600000000E+01,9.80389000000000E+01,9.81494200000000E+01,9.78948700000000E+01,9.78146600000000E+01,9.74798200000000E+01,9.77010800000000E+01,9.76231400000000E+01,9.72389800000000E+01,,
ITA,,,,,,,,,,,,,,,,,9.84444100000000E+01,,,9.78885900000000E+01,,,,,,9.82435700000000E+01,,,,,,,,,,,,,,9.86731500000000E+01,9.84844400000000E+01,9.86755700000000E+01,9.84019300000000E+01,9.81127800000000E+01,9.80715800000000E+01,9.80451300000000E+01,9.82692000000000E+01,9.85456700000000E+01,9.84207300000000E+01,9.74687600000000E+01,,
JAM,,,,,,,,,,,,,,,,9.43011500000000E+01,9.17416000000000E+01,9.15550600000000E+01,,9.55310900000000E+01,9.67505800000000E+01,9.70351300000000E+01,,9.85087000000000E+01,9.84158100000000E+01,9.84450300000000E+01,9.74402400000000E+01,9.69226600000000E+01,9.40078800000000E+01,9.79691400000000E+01,9.77168200000000E+01,9.72967200000000E+01,,9.39943500000000E+01,,,,,,8.95132500000000E+01,9.21760100000000E+01,9.17457900000000E+01,9.15432100000000E+01,8.99280100000000E+01,9.07066600000000E+01,8.75196800000000E+01,,8.05630100000000E+01,7.41472200000000E+01,8.14519500000000E+01,,
JOR,,,,,,,,,,,,,8.28185100000000E+01,,,,,,,,9.59588200000000E+01,9.53044000000000E+01,9.55944400000000E+01,9.45540200000000E+01,9.51549400000000E+01,9.75679400000000E+01,,,,,,,,,,,,,,8.93837300000000E+01,9.14785700000000E+01,,9.60214000000000E+01,9.62438500000000E+01,9.59630800000000E+01,9.60697200000000E+01,9.57348200000000E+01,9.28693300000000E+01,9.05739900000000E+01,,,
JPN,,,,,,,,,,,,9.95377200000000E+01,9.96815800000000E+01,9.96862800000000E+01,9.83176500000000E+01,9.93292400000000E+01,9.97264400000000E+01,9.92346500000000E+01,9.80292800000000E+01,9.79629700000000E+01,9.98615100000000E+01,,,,,,,9.96751000000000E+01,9.86954200000000E+01,9.86140900000000E+01,9.93680100000000E+01,,,,,,,,,,,,,,,,,,,,,
KAZ,,,,,,,,,,,,,,,,,,,,,,,,,,,,,,,,,,,,,,,,,8.70819900000000E+01,8.92418400000000E+01,9.12291900000000E+01,9.19249900000000E+01,9.24715200000000E+01,9.08918300000000E+01,9.01320700000000E+01,9.00587000000000E+01,9.01594300000000E+01,8.89999300000000E+01,8.91887700000000E+01,
KEN,,,,,,,,,,,,,,,,,,,,,,,,,,,,,,,,,,,,,,,5.67034691181387E+01,6.23047400000000E+01,6.59619900000000E+01,,6.19489500000000E+01,7.42082500000000E+01,7.36072000000000E+01,7.55478800000000E+01,7.57652500000000E+01,8.62866800000000E+01,8.25355700000000E+01,8.32465700000000E+01,,
KGZ,,,,,,,,,,,,,,,,,,,,,,,,,,,,,,,,,,,,,8.99162700000000E+01,,,8.61146800000000E+01,8.51247700000000E+01,8.53145300000000E+01,8.53018200000000E+01,8.46700600000000E+01,8.98419400000000E+01,8.71936600000000E+01,8.78690300000000E+01,8.63811200000000E+01,8.62334200000000E+01,8.60157800000000E+01,8.68143600000000E+01,
KHM,,,,,,,,,,,,,,,,,,,,,,,,,,,,,,,,,,,,,,7.41557800000000E+01,7.56572400000000E+01,8.25273800000000E+01,8.63358500000000E+01,8.30497400000000E+01,8.45488000000000E+01,,,,9.44510000000000E+01,9.47485200000000E+01,9.40025400000000E+01,,9.53951300000000E+01,
KIR,,,,,,,,,,,,,,,,,,,,,,,,,,,,,,,,,,,,,,,,,,,9.74351800000000E+01,,,,,,,,,
KNA,,,,,,,,,,,,,,,,,,,,,,,,,,,,,,,,,9.75174500000000E+01,,,,,,,,,9.51076900000000E+01,9.67586600000000E+01,9.65103900000000E+01,9.79328200000000E+01,9.56131900000000E+01,,8.74006100000000E+01,8.04052000000000E+01,9.04431700000000E+01,8.32627100000000E+01,
KOR,,,,,,,,,,,,9.49066400000000E+01,9.67444100000000E+01,9.61210700000000E+01,9.58863700000000E+01,9.63687000000000E+01,9.66693000000000E+01,9.54491200000000E+01,9.58357000000000E+01,9.79847300000000E+01,9.91272200000000E+01,9.89863500000000E+01,9.90454400000000E+01,9.91930500000000E+01,9.93593100000000E+01,9.88417900000000E+01,9.71647900000000E+01,9.75358900000000E+01,9.83077200000000E+01,9.95060300000000E+01,,,,,,9.97413400000000E+01,9.92812100000000E+01,9.64548600000000E+01,9.69962000000000E+01,9.98501800000000E+01,9.98531500000000E+01,9.94485900000000E+01,9.90473100000000E+01,9.92697500000000E+01,9.87355400000000E+01,9.84465500000000E+01,9.85170300000000E+01,9.86434200000000E+01,9.87727000000000E+01,9.88268600000000E+01,,
KWT,,,,,,,,,,,,5.35897800000000E+01,5.87254200000000E+01,6.14323700000000E+01,6.10499200000000E+01,6.20704300000000E+01,6.49415000000000E+01,7.09223300000000E+01,7.72546600000000E+01,7.61200900000000E+01,7.83417600000000E+01,8.01791200000000E+01,8.10584900000000E+01,8.41076100000000E+01,8.54016100000000E+01,8.52984900000000E+01,8.51644500000000E+01,8.05912800000000E+01,7.92976700000000E+01,,,,4.62290400000000E+01,,6.64285000000000E+01,,8.88590100000000E+01,8.93393600000000E+01,9.29116000000000E+01,9.21923500000000E+01,9.00065300000000E+01,9.03839600000000E+01,9.48151200000000E+01,9.41374400000000E+01,9.34827600000000E+01,9.99885500000000E+01,,9.27524100000000E+01,9.35396200000000E+01,,,
LAC,,,,,,,,,,,,,,,,,,,,,,,,,,,,,,,,,,,,,,,,9.13593700000000E+01,9.18478500000000E+01,9.27286400000000E+01,9.24509800000000E+01,9.18353000000000E+01,9.28039200000000E+01,9.41149000000000E+01,9.39985300000000E+01,9.37685600000000E+01,9.32751000000000E+01,9.37354200000000E+01,,
LAO,,,,,,,,,,,,,,,,,,,,,,,,,,,,,,,,,5.47017200000000E+01,5.90898500000000E+01,6.26768900000000E+01,,6.58513300000000E+01,6.88643500000000E+01,7.26255500000000E+01,7.37759000000000E+01,7.46917100000000E+01,7.42642100000000E+01,7.53495200000000E+01,7.79083300000000E+01,7.89566800000000E+01,8.02020000000000E+01,8.14368600000000E+01,8.41489000000000E+01,8.70407400000000E+01,,,
LBN,,,,,,,,,,,,,,,8.93315400000000E+01,,,,,,,,,,,,,,,,,,,,,,,6.97520300000000E+01,8.60193700000000E+01,9.03712400000000E+01,,,,,,,8.63252600000000E+01,8.67123400000000E+01,8.69603800000000E+01,8.80594500000000E+01,9.12034000000000E+01,
LBR,,,,,,,,,,,,,,,,,,,,,,,,,,,,,,,,,,,,,,,,4.01708300000000E+01,,,,,,,,,,,,
LBY,,,,,,,,,,,,7.00424400000000E+01,,,,,,,,,,,,,,,,,,,,,,,,,,,,,,,,,,,,,,,,
LCA,,,,,,,,,,,,,,,,,,,,,,9.70885800000000E+01,9.64985600000000E+01,9.88475200000000E+01,9.89851400000000E+01,,,,,,9.44979700000000E+01,9.47221300000000E+01,,,,,,,,8.94470300000000E+01,9.46669900000000E+01,9.51063800000000E+01,9.48075600000000E+01,9.37057600000000E+01,9.18538800000000E+01,8.97579300000000E+01,9.21362300000000E+01,9.13656600000000E+01,9.02752000000000E+01,8.90399200000000E+01,8.72850900000000E+01,
LCN,,,,,,,,,,,,,,,,,,,,,,,,,,,,,,,,,,,,,,,,9.14777500000000E+01,9.20008300000000E+01,9.28636500000000E+01,9.25870800000000E+01,9.19692300000000E+01,9.29396300000000E+01,9.42321600000000E+01,9.41921000000000E+01,9.40633900000000E+01,9.34123800000000E+01,9.38784600000000E+01,,
LIC,,,,,,,,,,,,,,,,,,,,,,,,,,,,,,,,,,,,,,,,5.59868200000000E+01,5.81027200000000E+01,5.96449100000000E+01,6.28324300000000E+01,6.63196200000000E+01,6.85906100000000E+01,7.10809600000000E+01,7.34697600000000E+01,7.52920000000000E+01,7.71771800000000E+01,7.81959500000000E+01,,
LIE,,,,,,,,,,,,,,,,,,,,,,,,,,,,,,,,,,,,,,,,,,,,9.49855400000000E+01,9.55365600000000E+01,,9.54067000000000E+01,9.42218100000000E+01,9.26386200000000E+01,9.21259800000000E+01,,
LKA,,,,,,,,,,,,,,,,,,,,,,,,,,,,,,,,,,,,,,,,,,9.98276100000000E+01,,9.99429100000000E+01,,,9.97142500000000E+01,9.89626500000000E+01,9.73552200000000E+01,9.37533200000000E+01,,
LMC,,,,,,,,,,,,,,,,,,,,,,,,,,,,,,,,,,,,,,,,7.10487100000000E+01,7.21765300000000E+01,7.25675400000000E+01,7.30929300000000E+01,7.75203700000000E+01,8.12913500000000E+01,8.10788300000000E+01,8.11403000000000E+01,8.18612300000000E+01,8.29114900000000E+01,8.29407000000000E+01,,
LMY,,,,,,,,,,,,,,,,,,,,,,,,,,,,,,,,,,,,,,,,7.70781700000000E+01,7.76581500000000E+01,7.79190800000000E+01,7.82749400000000E+01,8.08805700000000E+01,8.32218200000000E+01,8.35846100000000E+01,8.40449100000000E+01,8.47782300000000E+01,8.55693200000000E+01,8.56816400000000E+01,,
LSO,,,,,,,,,,,7.31110900000000E+01,,6.89754700000000E+01,6.89140600000000E+01,7.79579000000000E+01,,7.88675300000000E+01,8.02724200000000E+01,7.25914200000000E+01,7.42888200000000E+01,7.38064200000000E+01,7.33924400000000E+01,7.76083000000000E+01,7.67185400000000E+01,7.75515000000000E+01,7.95511300000000E+01,7.90036600000000E+01,8.05152300000000E+01,8.13590200000000E+01,8.01851700000000E+01,7.85202800000000E+01,7.97039400000000E+01,7.92500800000000E+01,7.59510500000000E+01,7.60967500000000E+01,7.36988800000000E+01,7.39411000000000E+01,,6.50051900000000E+01,5.94750600000000E+01,7.88723300000000E+01,7.87650400000000E+01,7.85392800000000E+01,7.87047500000000E+01,7.60630000000000E+01,7.52299100000000E+01,7.19234200000000E+01,7.24084900000000E+01,7.32583400000000E+01,7.38086500000000E+01,7.47478300000000E+01,
LTU,,,,,,,,,,,,,,,,,,,,,,,,,,,,,,,,,,,,,,,9.57766000000000E+01,9.32443300000000E+01,9.54897600000000E+01,9.52056000000000E+01,9.46587000000000E+01,9.18539400000000E+01,8.85662400000000E+01,8.80928100000000E+01,8.92613900000000E+01,9.09435100000000E+01,9.13202300000000E+01,9.27249500000000E+01,,
LUX,,,,,,,,,,,,,9.27234500000000E+01,9.21261900000000E+01,9.37973800000000E+01,9.28031300000000E+01,9.24659800000000E+01,9.30835100000000E+01,9.26805600000000E+01,,,7.89555800000000E+01,8.38638300000000E+01,8.15719200000000E+01,8.06628500000000E+01,,8.23887800000000E+01,8.01205800000000E+01,8.70473700000000E+01,,,,,,,,,,,9.66232800000000E+01,9.65843200000000E+01,9.64001200000000E+01,9.65567500000000E+01,9.56025500000000E+01,9.63499700000000E+01,9.70077600000000E+01,9.69971200000000E+01,9.66600700000000E+01,9.58748600000000E+01,,,
LVA,,,,,,,,,,,,,,,,,,,,,,,,,,,,,,,,,,,,8.06334000000000E+01,8.24756500000000E+01,8.71376100000000E+01,9.08263700000000E+01,9.08655100000000E+01,,,,,,,,,9.15184400000000E+01,9.39983900000000E+01,,
MAC,,,,,,,,,,,,,,,,,,,,,,,,,,,,,,,7.97458000000000E+01,8.03869500000000E+01,8.13336200000000E+01,,,,,,,8.73594700000000E+01,8.74373700000000E+01,8.57170000000000E+01,8.65161400000000E+01,8.74974200000000E+01,8.80773400000000E+01,8.86458300000000E+01,8.90556800000000E+01,8.87992700000000E+01,8.79434600000000E+01,8.60429100000000E+01,8.41514400000000E+01,
MAR,,,,,,,,,,,,,,,,3.20810100000000E+01,3.49551900000000E+01,3.71647500000000E+01,3.99386000000000E+01,4.22757100000000E+01,4.46930400000000E+01,4.70958100000000E+01,4.75678800000000E+01,4.96468500000000E+01,5.14645600000000E+01,5.03144700000000E+01,4.87675600000000E+01,4.70691000000000E+01,4.58632700000000E+01,4.45042300000000E+01,4.58699000000000E+01,4.60599400000000E+01,4.70926100000000E+01,4.92744800000000E+01,5.19184400000000E+01,5.45089000000000E+01,5.64780000000000E+01,5.77643300000000E+01,5.85796900000000E+01,6.54161300000000E+01,7.14797300000000E+01,7.70702700000000E+01,8.23013600000000E+01,8.43139200000000E+01,8.43805100000000E+01,8.51389300000000E+01,8.60453700000000E+01,8.72154200000000E+01,8.81184100000000E+01,,9.28057800000000E+01,
MDA,,,,,,,,,,,,,,,,,,,,,,,,,,,,,,,,,,,,,,,,,8.85168200000000E+01,9.12483600000000E+01,9.09319200000000E+01,9.22345900000000E+01,9.20762200000000E+01,9.06214600000000E+01,8.77471400000000E+01,8.70310700000000E+01,8.69463700000000E+01,8.68153500000000E+01,8.74003000000000E+01,
MDG,,,,,,,,,,,,,6.44102400000000E+01,,,,,,,,,,,,,,,,,6.99746100000000E+01,6.97567400000000E+01,7.18115300000000E+01,,,,6.07291700000000E+01,5.93357200000000E+01,,,6.55656100000000E+01,6.72893700000000E+01,6.86950200000000E+01,6.95168400000000E+01,7.93170800000000E+01,,,,,,,,
MDV,,,,,,,,,,,,,,,,,,,,,,,,,,,,,,,,,,,,,,,9.80864567381856E+01,9.76974900000000E+01,9.86872300000000E+01,9.72597200000000E+01,9.76452900000000E+01,,9.88085800000000E+01,9.77276500000000E+01,9.73913700000000E+01,9.69214200000000E+01,9.72471700000000E+01,,,
MEA,,,,,,,,,,,,,,,,,,,,,,,,,,,,,,,,,,,,,,,,8.02259700000000E+01,8.14932400000000E+01,8.34107000000000E+01,8.53787300000000E+01,8.68214800000000E+01,8.72348400000000E+01,8.69533700000000E+01,8.69118100000000E+01,8.82557100000000E+01,8.83045600000000E+01,8.82265600000000E+01,,
MEX,,,,,,,,,,,,7.89868900000000E+01,,,,,,,,,,,,,,,,,,,,,,,,,,9.75761000000000E+01,,9.74600400000000E+01,9.75224000000000E+01,9.78680600000000E+01,9.75880300000000E+01,9.76168900000000E+01,9.77956100000000E+01,9.79248500000000E+01,9.80229000000000E+01,9.79287100000000E+01,9.80671400000000E+01,9.81569400000000E+01,,
MHL,,,,,,,,,,,,,,,,,,,,,,,,,,,,,,,,,,,,,,,,,,8.48973200000000E+01,9.48927800000000E+01,,,,,,,,,
MIC,,,,,,,,,,,,,,,,,,,,,,,,,,,,,,,,,,,,,,,,8.13366700000000E+01,8.16884200000000E+01,8.17700400000000E+01,8.16083700000000E+01,8.41109900000000E+01,8.65423500000000E+01,8.64870400000000E+01,8.65699900000000E+01,8.71018300000000E+01,8.76474300000000E+01,8.75711900000000E+01,,
MKD,,,,,,,,,,,,,,,,,,,,,,,,,,,,,,,,,,,,,,,9.32172800000000E+01,9.39123500000000E+01,9.17281100000000E+01,9.23775300000000E+01,9.19575900000000E+01,9.01658800000000E+01,8.96728600000000E+01,8.93157700000000E+01,8.82994000000000E+01,8.71895900000000E+01,8.70757500000000E+01,8.75219100000000E+01,,
MLI,,,,,,,,,,,,1.21990800000000E+01,,,,,,,,,,,,,,,,,,,,,,,,,,,,3.52939300000000E+01,,,4.33655900000000E+01,4.34238100000000E+01,4.56567800000000E+01,4.85206800000000E+01,5.01559400000000E+01,5.23132400000000E+01,,5.62577400000000E+01,5.74147200000000E+01,
MLT,,,,,,,,,,,,9.11722100000000E+01,9.15934500000000E+01,9.15106200000000E+01,9.22259800000000E+01,9.24081300000000E+01,9.43259800000000E+01,9.74894800000000E+01,9.82449400000000E+01,9.84467500000000E+01,9.74894100000000E+01,9.68966700000000E+01,9.86369500000000E+01,9.46037000000000E+01,9.52045600000000E+01,9.74458000000000E+01,9.65410000000000E+01,9.49085200000000E+01,9.53192300000000E+01,9.63838200000000E+01,9.70809500000000E+01,9.64819000000000E+01,9.56740000000000E+01,9.54311700000000E+01,9.40855700000000E+01,9.43672100000000E+01,9.73441700000000E+01,9.87434100000000E+01,,9.42454600000000E+01,9.43926900000000E+01,9.31217900000000E+01,9.22033500000000E+01,9.15940700000000E+01,9.20392400000000E+01,8.92822800000000E+01,,9.15179900000000E+01,9.23714000000000E+01,8.92661600000000E+01,,
MMR,,,,,,,,,,,,6.14814200000000E+01,,6.83018900000000E+01,6.08605600000000E+01,,,,6.53019900000000E+01,,,,,,,,,,,,,,,,,,,,,,,,,,,,,,,,,
MNA,,,,,,,,,,,,,,,,,,,,,,,,,,,,,,,,,,,,,,,,8.05401100000000E+01,8.18263500000000E+01,8.38098900000000E+01,8.58630800000000E+01,8.73319300000000E+01,8.76457300000000E+01,8.71295500000000E+01,8.70373600000000E+01,8.84753000000000E+01,8.85712400000000E+01,8.84203600000000E+01,,
MNG,,,,,,,,,,,,,,,,,,,,,,,,,,,,,,,,,,,,8.24131000000000E+01,8.78429800000000E+01,9.08252700000000E+01,9.31397800000000E+01,8.76303000000000E+01,8.95268900000000E+01,9.10683100000000E+01,8.94299600000000E+01,8.23706200000000E+01,8.62054300000000E+01,8.64781600000000E+01,8.91160100000000E+01,8.52197100000000E+01,8.54689200000000E+01,8.79790300000000E+01,9.43483200000000E+01,
MOZ,,,,,,,,,,,,,,2.30065200000000E+01,,,,,,3.34084900000000E+01,3.30579300000000E+01,3.21566200000000E+01,3.21527800000000E+01,4.28736400000000E+01,,4.52422100000000E+01,4.44740500000000E+01,4.11871600000000E+01,,3.77711700000000E+01,,3.70226100000000E+01,3.59124800000000E+01,3.50253400000000E+01,3.60592900000000E+01,3.80636700000000E+01,,,4.25891300000000E+01,4.60040000000000E+01,5.01713300000000E+01,5.50242400000000E+01,5.25812500000000E+01,,6.65037700000000E+01,7.22338600000000E+01,7.68437500000000E+01,8.22408500000000E+01,8.60563400000000E+01,8.77519700000000E+01,8.92220800000000E+01,
MRT,,,,,,,,,,,,,,,,,,,,,,,,,,,,,,,,,,,4.47449100000000E+01,5.12040500000000E+01,5.56993300000000E+01,,6.16510600000000E+01,5.99316700000000E+01,6.01659700000000E+01,6.33363300000000E+01,6.52502600000000E+01,6.70767500000000E+01,7.49731800000000E+01,7.41718900000000E+01,7.70363700000000E+01,7.84336900000000E+01,7.56361600000000E+01,7.49490000000000E+01,7.56707300000000E+01,
MUS,,,,,,,,,,,,,8.03249600000000E+01,8.10340200000000E+01,8.04772400000000E+01,7.94625700000000E+01,7.77467300000000E+01,8.03648900000000E+01,7.84077300000000E+01,7.65970600000000E+01,7.85793900000000E+01,8.21099500000000E+01,8.79207500000000E+01,9.11827500000000E+01,9.49092300000000E+01,9.98271100000000E+01,9.84148100000000E+01,9.99019900000000E+01,9.97976400000000E+01,9.97783700000000E+01,9.78017100000000E+01,9.37334400000000E+01,,9.44350500000000E+01,9.48575100000000E+01,9.50244500000000E+01,9.59204800000000E+01,9.60128000000000E+01,9.59326900000000E+01,9.22697800000000E+01,9.27943900000000E+01,9.26850100000000E+01,9.41807600000000E+01,9.34201300000000E+01,9.30004500000000E+01,9.35372100000000E+01,9.41103600000000E+01,9.43173700000000E+01,9.40428600000000E+01,9.40018500000000E+01,9.44492400000000E+01,
MWI,,,,,,,,,,,,,,,,,,,,,,,,,,,,,,,,,,,,,,,,9.76836500000000E+01,,,,9.95846300000000E+01,9.92590100000000E+01,9.92995100000000E+01,9.92588600000000E+01,9.69699900000000E+01,9.93647800000000E+01,9.93971300000000E+01,,
MYS,,,,,,,,,,,8.29683600000000E+01,8.46856300000000E+01,8.60804300000000E+01,,,,,,,,,,,,,,,,,,,,,,9.55130600000000E+01,,,,,9.65962000000000E+01,9.78352800000000E+01,9.67725800000000E+01,9.49631400000000E+01,9.48372500000000E+01,,,,,,,,
NAC,,,,,,,,,,,,,,,,,,,,,,,,,,,,,,,,,,,,,,,,9.44363900000000E+01,9.46887500000000E+01,9.55753400000000E+01,9.40964800000000E+01,9.39288700000000E+01,9.01884900000000E+01,9.21023600000000E+01,9.23903200000000E+01,9.26824700000000E+01,9.31404000000000E+01,9.26734700000000E+01,,
NAM,,,,,,,,,,,,,,,,,,,,,,,,,,,,,,8.26455700000000E+01,8.23601000000000E+01,,8.49229700000000E+01,,,,,,9.00136100000000E+01,9.01320500000000E+01,9.07699300000000E+01,9.11652500000000E+01,9.26928100000000E+01,9.24252800000000E+01,8.99012600000000E+01,8.99874900000000E+01,8.83055000000000E+01,8.93413300000000E+01,8.79995100000000E+01,8.76197500000000E+01,,
NER,,,,,,,,,,,,,,8.00335000000000E+00,8.60214000000000E+00,,,,,,,,,,,,1.63549900000000E+01,,,1.64529200000000E+01,1.69155600000000E+01,1.73805800000000E+01,1.60448700000000E+01,,,,,1.84766400000000E+01,,2.10808900000000E+01,2.22409300000000E+01,2.48334600000000E+01,2.76311000000000E+01,3.10927200000000E+01,3.41880700000000E+01,3.52453800000000E+01,3.64615500000000E+01,3.82276100000000E+01,4.31361100000000E+01,4.74428000000000E+01,5.12401700000000E+01,
NGA,,,,,,,,,,,,,,,,,,,,,,,,,,,,,,,,,,,,,,,,5.58012800000000E+01,5.88564400000000E+01,,,6.07202900000000E+01,6.18288400000000E+01,6.26105500000000E+01,6.39119600000000E+01,5.93438500000000E+01,,,,
NIC,,,,,,,,,,,,5.61104400000000E+01,,5.66418000000000E+01,,,,,,,6.50318300000000E+01,,6.36159000000000E+01,6.42623500000000E+01,6.23351300000000E+01,6.77172700000000E+01,6.62404600000000E+01,6.75366200000000E+01,6.80520900000000E+01,6.62206800000000E+01,6.82433800000000E+01,7.07560600000000E+01,7.48295400000000E+01,7.54939400000000E+01,7.62053900000000E+01,7.42707900000000E+01,,,,7.78146500000000E+01,7.96102100000000E+01,8.14072500000000E+01,8.59599600000000E+01,8.55875300000000E+01,8.69673400000000E+01,8.72684300000000E+01,9.13421900000000E+01,9.16624000000000E+01,9.29177900000000E+01,,9.29403800000000E+01,
NLD,,,,,,,,,,,,9.40088800000000E+01,9.35379300000000E+01,9.31261100000000E+01,9.22685800000000E+01,9.19799100000000E+01,9.27722200000000E+01,9.34103300000000E+01,9.40876300000000E+01,9.48125600000000E+01,9.48486900000000E+01,9.40961100000000E+01,9.20426900000000E+01,9.02143900000000E+01,8.90114600000000E+01,8.84225500000000E+01,9.33820200000000E+01,9.49710100000000E+01,9.63564300000000E+01,9.69939800000000E+01,9.73252200000000E+01,9.72183900000000E+01,9.61298600000000E+01,9.58878700000000E+01,9.90038500000000E+01,9.90037200000000E+01,9.89779500000000E+01,9.93894100000000E+01,,9.86152800000000E+01,9.88299300000000E+01,9.87118000000000E+01,9.86305900000000E+01,9.76794900000000E+01,9.69092600000000E+01,9.70427100000000E+01,9.77291000000000E+01,9.87345600000000E+01,9.90053600000000E+01,9.93416500000000E+01,,
NOC,,,,,,,,,,,,,,,,,,,,,,,,,,,,,,,,7.07466204297505E+01,,,,,,,,7.91121900000000E+01,8.01122500000000E+01,8.10180400000000E+01,8.20785100000000E+01,8.31026900000000E+01,8.42266800000000E+01,8.52328800000000E+01,8.54485600000000E+01,8.59892100000000E+01,8.56872300000000E+01,8.61438900000000E+01,,
NOR,,,,,,,,,,,,,,,,,,,,9.97141500000000E+01,,9.85837900000000E+01,9.85286900000000E+01,,9.82268900000000E+01,9.70744300000000E+01,9.64521500000000E+01,9.66045600000000E+01,9.65838500000000E+01,9.76872400000000E+01,9.91982500000000E+01,9.97435700000000E+01,9.97604000000000E+01,9.92818700000000E+01,9.86627800000000E+01,9.81562000000000E+01,9.83537500000000E+01,9.93485000000000E+01,9.98318000000000E+01,9.96776800000000E+01,9.98365500000000E+01,9.98490200000000E+01,9.98567300000000E+01,9.98679600000000E+01,9.95473100000000E+01,9.87763200000000E+01,9.90141400000000E+01,9.90280700000000E+01,9.91941000000000E+01,9.91486900000000E+01,,
NPL,,,,,,,,,,,,,,,,,,,,,,,,3.36185900000000E+01,3.57230200000000E+01,,,,4.27220600000000E+01,,,,,,,,,,,5.70464000000000E+01,6.39586600000000E+01,,,,,,,,,,,
NZL,,,,,,,,,,,,,,,,,,9.91365000000000E+01,,9.90471100000000E+01,9.93028300000000E+01,9.89944000000000E+01,9.86827500000000E+01,9.84953000000000E+01,9.88700400000000E+01,9.87815400000000E+01,9.90356000000000E+01,9.92817600000000E+01,9.97023600000000E+01,9.93526800000000E+01,9.87429100000000E+01,9.92750800000000E+01,9.72090100000000E+01,,9.66202600000000E+01,9.82155900000000E+01,9.86171900000000E+01,9.96501700000000E+01,9.94477200000000E+01,9.92831300000000E+01,9.89626700000000E+01,9.68742900000000E+01,9.85541900000000E+01,9.76820400000000E+01,9.78523900000000E+01,9.85186900000000E+01,9.86216400000000E+01,9.91855700000000E+01,9.93005800000000E+01,9.94380700000000E+01,,
OEC,,,,,,,,,,,,,,,,,,,,,,,,,,,,,,,,9.73204874877683E+01,,,,,,,,9.68222000000000E+01,9.69834800000000E+01,9.73720500000000E+01,9.67190100000000E+01,9.65840800000000E+01,9.49521300000000E+01,9.56431400000000E+01,9.57149900000000E+01,9.58235000000000E+01,9.61455100000000E+01,9.60041800000000E+01,,
OMN,,,,,,,,,,,,,,4.61874000000000E+00,8.87049000000000E+00,1.37311900000000E+01,1.56705600000000E+01,,2.11180100000000E+01,2.42163900000000E+01,,2.92259400000000E+01,3.22196900000000E+01,3.72812300000000E+01,4.43068200000000E+01,4.96805000000000E+01,5.92702500000000E+01,6.13435300000000E+01,6.20465800000000E+01,6.38342700000000E+01,6.57471900000000E+01,6.75080000000000E+01,6.92378400000000E+01,7.37561900000000E+01,7.56962400000000E+01,7.68319800000000E+01,7.85613700000000E+01,7.90990800000000E+01,7.95572100000000E+01,7.94610600000000E+01,8.13537600000000E+01,8.43836400000000E+01,8.54937100000000E+01,8.46613000000000E+01,,,,,,9.23348100000000E+01,9.54869800000000E+01,
PAK,,,,,,,,,,,,,,,,,,,,,,,,,,,,,,,,,,,,,,,,,,4.63099700000000E+01,,4.82228900000000E+01,5.27606800000000E+01,5.58058200000000E+01,5.46999700000000E+01,6.05930000000000E+01,6.20839100000000E+01,6.44716300000000E+01,6.65091900000000E+01,
PAN,,,,,,,,,,,7.62254700000000E+01,8.43845400000000E+01,8.67131900000000E+01,8.84152400000000E+01,,8.92260000000000E+01,8.89558900000000E+01,,9.08183400000000E+01,8.99086300000000E+01,8.90193400000000E+01,8.84279600000000E+01,8.82260700000000E+01,8.76967700000000E+01,8.79522400000000E+01,8.90922700000000E+01,8.89387500000000E+01,9.03471700000000E+01,8.98488800000000E+01,9.15384400000000E+01,9.13753200000000E+01,,,,,,,,,9.51953200000000E+01,9.75334800000000E+01,9.79483200000000E+01,9.78876800000000E+01,9.78855500000000E+01,9.80025100000000E+01,9.81228900000000E+01,9.81873300000000E+01,9.80128900000000E+01,9.78396600000000E+01,9.62155100000000E+01,9.74927500000000E+01,
PER,,,,,,,,,,,7.39876100000000E+01,,,,,,,,,,,8.90851500000000E+01,,,,,,,,,,,,,,8.88811900000000E+01,,,9.73139800000000E+01,9.74556500000000E+01,9.74958700000000E+01,9.80448300000000E+01,9.79284400000000E+01,,9.72469800000000E+01,9.71361400000000E+01,9.70527000000000E+01,9.68717600000000E+01,9.56032100000000E+01,9.46824000000000E+01,,
PHL,,,,,,,,,,,,,,,,,9.99239900000000E+01,,,,,9.10752400000000E+01,9.24980400000000E+01,9.07619400000000E+01,8.66947800000000E+01,,9.23158300000000E+01,9.19261300000000E+01,9.55588800000000E+01,9.71535500000000E+01,9.65807000000000E+01,9.50882100000000E+01,,,,,,,9.10569400000000E+01,9.01095000000000E+01,,9.11872800000000E+01,9.16576500000000E+01,9.16974600000000E+01,9.12996200000000E+01,9.05409700000000E+01,8.87049600000000E+01,8.85621700000000E+01,8.87203900000000E+01,8.90253900000000E+01,,
PLW,,,,,,,,,,,,,,,,,,,,,,,,,,,,,,,,,,,,,,,,9.39431400000000E+01,9.44711500000000E+01,,,,,,,,,,,
PNG,,,,,,,,,,,,,,,,,,,,,,,,,,,,,,6.02075300000000E+01,5.91924800000000E+01,,,,,,,,,,,,,,,,,,,,,
POL,,,,,,,,,,,,,,,,,,,,,,,,,,,,,,,,,,,,,,,,9.70290500000000E+01,9.69783100000000E+01,9.73680200000000E+01,9.71336300000000E+01,9.67722800000000E+01,9.62420000000000E+01,9.56347400000000E+01,9.53226000000000E+01,9.51082200000000E+01,9.50207600000000E+01,9.57408400000000E+01,,
PRI,,,,,,,,,,,,,,,,,,,,,,,,,,,,,,,,,,,,,,,,,,,,,,,,,,,8.80882900000000E+01,
PRT,,,,,,,,,,,,,,8.83911900000000E+01,8.84606600000000E+01,,9.17507800000000E+01,9.21145900000000E+01,9.44107500000000E+01,,9.47225200000000E+01,9.59666900000000E+01,,,,9.88013300000000E+01,,,,,9.98687000000000E+01,9.86146800000000E+01,,,,,,,,,,,9.85006500000000E+01,,9.71423500000000E+01,9.73467700000000E+01,9.72009400000000E+01,,,9.93024300000000E+01,,
PRY,,,,,,,,,,,7.85177400000000E+01,,7.94622000000000E+01,,,7.77783000000000E+01,7.89960600000000E+01,8.01902100000000E+01,8.18481800000000E+01,8.28788700000000E+01,8.44996300000000E+01,8.57622700000000E+01,8.97880800000000E+01,8.58836400000000E+01,8.59940500000000E+01,8.64714800000000E+01,8.55586100000000E+01,8.63351000000000E+01,8.76074900000000E+01,8.93936200000000E+01,9.07659800000000E+01,9.28732300000000E+01,9.36624400000000E+01,9.40983900000000E+01,9.07544700000000E+01,,9.42379800000000E+01,,,9.65312900000000E+01,9.76524400000000E+01,9.73727700000000E+01,9.53202300000000E+01,9.45994200000000E+01,9.41301200000000E+01,9.46752800000000E+01,9.27404400000000E+01,9.01599400000000E+01,8.73680700000000E+01,8.50033000000000E+01,,
PYF,,,,,,,,,,,,,,,,,,,,,,,,9.46716500000000E+01,9.32513400000000E+01,9.31200900000000E+01,,,,9.71808400000000E+01,1.00000000000000E+02,,,,,9.73571300000000E+01,9.62741800000000E+01,,,,,,,,,,,,,,,
QAT,,,,,,,,,,,,6.55922400000000E+01,7.34163300000000E+01,7.53879800000000E+01,7.47305400000000E+01,,8.20440600000000E+01,7.96650300000000E+01,8.21851300000000E+01,8.19558500000000E+01,8.12336300000000E+01,8.22756200000000E+01,8.35446400000000E+01,8.37874100000000E+01,8.67867000000000E+01,8.84796400000000E+01,9.38983400000000E+01,9.00020800000000E+01,9.14877000000000E+01,9.20350700000000E+01,9.12240000000000E+01,8.85013600000000E+01,8.53464000000000E+01,8.44687000000000E+01,8.76439100000000E+01,,,,8.88444500000000E+01,9.52615900000000E+01,9.50815700000000E+01,9.31501800000000E+01,8.83611600000000E+01,,,,9.10959800000000E+01,,,9.30602400000000E+01,9.23187700000000E+01,
ROM,,,,,,,,,,,,,,,,,,,,,,,,,,,,,,,,,,7.26276100000000E+01,7.99189200000000E+01,8.66168000000000E+01,9.16228000000000E+01,9.51922900000000E+01,9.49881600000000E+01,8.81574900000000E+01,8.84626600000000E+01,9.30868200000000E+01,9.28373000000000E+01,9.60340500000000E+01,9.55398000000000E+01,9.51180600000000E+01,9.23161400000000E+01,9.12113100000000E+01,8.65188500000000E+01,8.70085900000000E+01,,
RUS,,,,,,,,,,,,,,,,,,,,,,,,,,,,,,,,,,,9.52420900000000E+01,9.23526900000000E+01,,,,,,,,,,,9.12669200000000E+01,9.10481700000000E+01,9.23091000000000E+01,9.32507700000000E+01,,
RWA,,,,,,,,,,,,,,4.97389000000000E+01,4.69913300000000E+01,4.49205400000000E+01,,4.84883800000000E+01,5.12052500000000E+01,,,,,,,,,,,,,,,,,,,,,,,7.68747800000000E+01,8.12763200000000E+01,8.73873300000000E+01,8.17345600000000E+01,8.46757000000000E+01,,9.33300100000000E+01,9.21996700000000E+01,,,
SAS,,,,,,,,,,,,,,,,,,,,,,,,,,,,,,,,,,,,,,,,6.71923100000000E+01,6.84605700000000E+01,6.83889600000000E+01,6.94804800000000E+01,7.67025400000000E+01,8.27063500000000E+01,8.19864200000000E+01,8.19117500000000E+01,8.30740000000000E+01,8.41608800000000E+01,,,
SAU,,,,,,,,,,,,,,,,,,,,3.22926900000000E+01,,,,,,,,,,,,,,,,,,,,,,,,,,8.26912900000000E+01,,8.42261700000000E+01,8.61109100000000E+01,8.93497000000000E+01,,
SDN,,,,,,,,,,,,,,,,,,,,,,,,,,,,,,,,,,,,,,,,,3.64120900000000E+01,,,,,,,,,,,
SEN,,,,,,,,,,,,,,,,,,,2.46524400000000E+01,2.67224700000000E+01,2.76590600000000E+01,2.84702600000000E+01,2.98637400000000E+01,3.15754800000000E+01,3.25006600000000E+01,3.33730400000000E+01,3.68467100000000E+01,,3.82984100000000E+01,,3.83549100000000E+01,,3.87630300000000E+01,,,,4.45519600000000E+01,4.88082900000000E+01,5.16813600000000E+01,5.19761800000000E+01,5.58779600000000E+01,5.79758600000000E+01,,6.33959900000000E+01,6.85633700000000E+01,7.09480100000000E+01,7.27531700000000E+01,7.45870800000000E+01,7.70676600000000E+01,7.73371400000000E+01,7.77284700000000E+01,
SLB,,,,,,,,,,,,,,,,,,,,,,,,,,,,,,,,,,,,,,,,,,,,,,7.60267900000000E+01,8.08676900000000E+01,8.10569800000000E+01,,,,
SLE,,,,,,,,,,,,,,,,,,,,,,,,3.89919500000000E+01,,,,,,,,,,,,,,,,,,,,,,,,,,,,
SLV,,,,,,,,,,,6.17181300000000E+01,,,,,,,,,,,,,,,,,,,,,,,,,,,,8.49313100000000E+01,,,8.46138700000000E+01,8.67350800000000E+01,8.91113000000000E+01,9.16670000000000E+01,9.33734400000000E+01,9.36621100000000E+01,9.34678400000000E+01,9.34337700000000E+01,9.32296700000000E+01,,
SMR,,,,,,,,,,,,,,,,,,,,,,,,,,,,,,,,,,,,,,,,,,,,,,,,,,9.29736500000000E+01,,
SOM,,,,,,,,,,,,,,,,,1.39812700000000E+01,1.29218200000000E+01,1.08831600000000E+01,1.09526800000000E+01,1.02887300000000E+01,,,,,,,,,,,,,,,,,,,,,,,,,,,,,,,
SRB,,,,,,,,,,,,,,,,,,,,,,,,,,,,,,,,,,,,,,,,,,,,,9.79839000000000E+01,9.79832400000000E+01,9.79374700000000E+01,9.82893700000000E+01,9.68579900000000E+01,9.36677900000000E+01,9.24898100000000E+01,
SSA,,,,,,,,,,,,,,,,,,,,,,,,,,,,,,,,,,,,,,,,5.28977700000000E+01,5.51343300000000E+01,5.69301900000000E+01,5.88274800000000E+01,6.16098500000000E+01,6.35331900000000E+01,6.61053700000000E+01,6.85945300000000E+01,7.02009500000000E+01,7.22375200000000E+01,7.29814800000000E+01,,
SSF,,,,,,,,,,,,,,,,,,,,,,,,,,,,,,,,,,,,,,,,5.28986700000000E+01,5.51330600000000E+01,5.69362700000000E+01,5.88298300000000E+01,6.16108000000000E+01,6.35325700000000E+01,6.61027800000000E+01,6.85882100000000E+01,7.01899700000000E+01,7.22228800000000E+01,7.29666600000000E+01,,
STP,,,,,,,,,,,,,,,,,,,,,,,,9.77924500000000E+01,,,,,9.91137100000000E+01,,9.28558200000000E+01,,,,,,,,,8.72236800000000E+01,,,9.47544600000000E+01,9.80344100000000E+01,9.70528200000000E+01,9.52868600000000E+01,9.21314200000000E+01,9.56493500000000E+01,9.75668300000000E+01,9.95376400000000E+01,9.96920500000000E+01,
SUR,,,,,,,,,,,,,,,,,,9.22102400000000E+01,9.27874700000000E+01,,,,,,,,,9.81872700000000E+01,9.61625600000000E+01,,,,,,,,,,,,,9.25850400000000E+01,9.14804700000000E+01,9.20475700000000E+01,,8.98046200000000E+01,8.85842300000000E+01,8.35598700000000E+01,8.82911100000000E+01,9.09563500000000E+01,,
SVN,,,,,,,,,,,,,,,,,,,,,,,,,,,,,,,,,,,,9.46617100000000E+01,9.61749600000000E+01,9.65487800000000E+01,9.66432100000000E+01,9.38523800000000E+01,9.42829700000000E+01,9.35099400000000E+01,9.38090600000000E+01,9.46334000000000E+01,9.64047000000000E+01,9.55478300000000E+01,9.44386000000000E+01,9.54018600000000E+01,9.60473300000000E+01,9.65722500000000E+01,,
SWE,,,,,,,,,,,,,,,,,,,,,,,9.66887100000000E+01,,,,,9.79447300000000E+01,9.81753700000000E+01,9.86171800000000E+01,9.95330900000000E+01,9.98753400000000E+01,,,9.94577000000000E+01,,,,,,9.90780500000000E+01,,9.92823400000000E+01,9.86709700000000E+01,9.66473800000000E+01,9.54092100000000E+01,9.52362700000000E+01,9.63617200000000E+01,9.82787100000000E+01,9.89875400000000E+01,,
SWZ,,,,,,,,,,,5.60893600000000E+01,5.60161700000000E+01,5.80361700000000E+01,6.09464300000000E+01,6.24765500000000E+01,6.49965700000000E+01,6.59299200000000E+01,6.70603000000000E+01,6.77942400000000E+01,6.91075100000000E+01,,7.44131400000000E+01,7.41944200000000E+01,7.40485800000000E+01,7.40972300000000E+01,7.59220500000000E+01,7.46816400000000E+01,7.56482900000000E+01,7.49234200000000E+01,7.47280200000000E+01,7.61375700000000E+01,7.60123900000000E+01,7.62123100000000E+01,7.42395400000000E+01,7.46886600000000E+01,7.51988200000000E+01,7.28184000000000E+01,,7.07237000000000E+01,7.12206700000000E+01,7.25137600000000E+01,7.31473100000000E+01,7.28994400000000E+01,7.31709300000000E+01,7.59719200000000E+01,7.68468000000000E+01,8.25809500000000E+01,8.59453100000000E+01,,8.16513000000000E+01,8.49951200000000E+01,
SYC,,,,,,,,,,,,,,,,,,,,,,,,,,,,,,,,,,,,9.99772000000000E+01,,,9.23712700000000E+01,,,9.23958800000000E+01,9.39932000000000E+01,,9.95312600000000E+01,9.39878800000000E+01,,,,,,
SYR,,,,,,,,,,,,5.53160600000000E+01,,6.54245800000000E+01,6.66188000000000E+01,6.69195700000000E+01,6.81639200000000E+01,6.97415700000000E+01,7.01583900000000E+01,7.12855700000000E+01,7.44874400000000E+01,7.59482000000000E+01,7.78061100000000E+01,7.91261000000000E+01,8.17451000000000E+01,8.37754400000000E+01,8.55654500000000E+01,8.87931600000000E+01,8.79018600000000E+01,8.75172900000000E+01,8.62489300000000E+01,8.67901900000000E+01,8.83105900000000E+01,8.67660500000000E+01,8.72425300000000E+01,8.68801200000000E+01,8.65615500000000E+01,8.68147500000000E+01,8.67169400000000E+01,9.01496200000000E+01,9.08210900000000E+01,9.21824000000000E+01,9.22763600000000E+01,,9.06219700000000E+01,9.09482500000000E+01,8.83702400000000E+01,8.95806100000000E+01,9.05880800000000E+01,9.20757500000000E+01,9.27677400000000E+01,
TCA,,,,,,,,,,,,,,,,,,,,,,,,,,,,,,,,,,,,,,,,,,,,7.14818300000000E+01,8.47173100000000E+01,8.06946700000000E+01,,,,,,
TCD,,,,,,,,,,,,,,,,1.33783900000000E+01,,1.35945600000000E+01,,,,,,,,,,,2.04465700000000E+01,,,,,,,,,3.11613000000000E+01,3.62244400000000E+01,4.01232900000000E+01,4.30532700000000E+01,4.52899000000000E+01,4.87533500000000E+01,5.11250700000000E+01,,,,,,,,
TGO,,,,,,,,,,,,3.21104300000000E+01,3.44100100000000E+01,,,,,,5.32341600000000E+01,5.53313500000000E+01,5.61353300000000E+01,,5.39687300000000E+01,5.36635500000000E+01,4.67853700000000E+01,4.52486100000000E+01,4.16620600000000E+01,4.81159400000000E+01,4.89479300000000E+01,4.92561100000000E+01,5.09934700000000E+01,5.36160700000000E+01,,,5.16761300000000E+01,5.99279400000000E+01,6.60956400000000E+01,6.41328000000000E+01,,7.50422400000000E+01,7.77949700000000E+01,7.91128300000000E+01,7.99525200000000E+01,8.06552300000000E+01,8.17081700000000E+01,8.27613800000000E+01,8.39862200000000E+01,8.57436700000000E+01,8.65222300000000E+01,,,
THA,,,,,,,,,,,,,,6.98008300000000E+01,7.08672800000000E+01,,,,,,,,,,,,,,,,,,,,,,,,,,,,,,,,9.28512400000000E+01,9.14345100000000E+01,8.99335700000000E+01,8.93703200000000E+01,,
TJK,,,,,,,,,,,,,,,,,,,,,,,,,,,,,,,,,,,,,,,,,9.16819600000000E+01,9.14843700000000E+01,9.50548900000000E+01,9.43406500000000E+01,9.48282700000000E+01,9.58062800000000E+01,9.51263700000000E+01,9.52718300000000E+01,9.53162000000000E+01,9.49844000000000E+01,9.54669700000000E+01,
TMP,,,,,,,,,,,,,,,,,,,,,,,,,,,,,,,,,,,,,,,,,,,,,,6.53382200000000E+01,,,7.16593400000000E+01,7.81938800000000E+01,8.49044600000000E+01,
TON,,,,,,,,,,,7.77752400000000E+01,7.83744400000000E+01,8.52090700000000E+01,,8.15563200000000E+01,8.88751300000000E+01,,,9.73963200000000E+01,,,,9.17408000000000E+01,8.72416600000000E+01,9.62647400000000E+01,9.79583000000000E+01,9.60166800000000E+01,,,,9.40422600000000E+01,,,9.35461800000000E+01,,,,,8.76878900000000E+01,9.34423900000000E+01,,9.76270200000000E+01,,,9.32766900000000E+01,9.50846600000000E+01,,,,,,
TTO,,,,,,,,,,,,8.88282400000000E+01,8.89396800000000E+01,8.95440700000000E+01,9.04536800000000E+01,9.16403400000000E+01,9.43259100000000E+01,9.27818500000000E+01,9.05143700000000E+01,8.60600600000000E+01,8.35770700000000E+01,9.05008800000000E+01,9.26330200000000E+01,9.48982900000000E+01,9.42163500000000E+01,9.38383900000000E+01,9.24840400000000E+01,9.32920900000000E+01,9.36209200000000E+01,9.17651100000000E+01,9.15630100000000E+01,8.98342600000000E+01,8.97357200000000E+01,8.86581600000000E+01,,,8.46246400000000E+01,8.37215900000000E+01,,8.83961300000000E+01,8.91347900000000E+01,8.95497700000000E+01,8.77410400000000E+01,8.83737600000000E+01,8.92335400000000E+01,8.60922600000000E+01,,9.27821000000000E+01,9.11730900000000E+01,9.25316400000000E+01,,
TUN,,,,,,,,,,,,6.19390500000000E+01,,,,6.13076300000000E+01,,,6.49303000000000E+01,6.69622300000000E+01,6.89629600000000E+01,7.13097500000000E+01,7.43612800000000E+01,7.79274700000000E+01,8.16309500000000E+01,8.35145900000000E+01,8.55393900000000E+01,8.71195400000000E+01,8.74877800000000E+01,8.84127200000000E+01,8.83898900000000E+01,8.99001000000000E+01,9.09258300000000E+01,9.26601800000000E+01,9.35276300000000E+01,9.47760600000000E+01,9.43636600000000E+01,9.41837000000000E+01,,9.23387900000000E+01,9.38436600000000E+01,9.56229000000000E+01,9.69860200000000E+01,9.73015500000000E+01,9.76374300000000E+01,9.76150000000000E+01,9.78224200000000E+01,9.71744700000000E+01,9.69257300000000E+01,9.77959400000000E+01,,
TUR,,,,,,,,,,,,,,,7.39044800000000E+01,,,,,,,,,,,,,,,,,,,,8.66224100000000E+01,8.64258400000000E+01,,8.59274900000000E+01,,9.02663700000000E+01,9.19029300000000E+01,,,9.21330900000000E+01,9.33940700000000E+01,9.44467100000000E+01,9.59989800000000E+01,,,9.67256200000000E+01,,
TZA,,,,,,,,,,,,,,,,,,,,,,6.81137700000000E+01,6.41359600000000E+01,6.36123900000000E+01,,5.77493700000000E+01,5.65490800000000E+01,5.47840700000000E+01,5.29799100000000E+01,5.27342400000000E+01,5.18575200000000E+01,5.10806300000000E+01,5.10889800000000E+01,5.05429900000000E+01,4.95672600000000E+01,4.93551700000000E+01,4.94731300000000E+01,5.00054400000000E+01,4.96387500000000E+01,5.01327600000000E+01,5.37509900000000E+01,5.79415800000000E+01,7.24149400000000E+01,8.06880200000000E+01,8.53648900000000E+01,8.99780700000000E+01,9.57260200000000E+01,,9.77157400000000E+01,9.77597900000000E+01,9.24263700000000E+01,
UGA,,,,,,,,,,,,,,,,,,,,3.27997600000000E+01,,3.59880300000000E+01,3.89081600000000E+01,,,,5.26626800000000E+01,,,,,,,,,,,,,,,,,,,,,,,9.51812300000000E+01,9.21356700000000E+01,
UKR,,,,,,,,,,,,,,,,,,,,,,,,,,,,,,,,,,,,,,,,,,,9.09811000000000E+01,8.75038000000000E+01,8.77037200000000E+01,9.03070300000000E+01,9.00383700000000E+01,9.00279100000000E+01,8.99458700000000E+01,8.95903400000000E+01,9.10960900000000E+01,
UMC,,,,,,,,,,,,,,,,,,,,,,,,,,,,,,,,,,,,,,,,9.38122000000000E+01,9.34572900000000E+01,9.34207300000000E+01,9.26699600000000E+01,9.29079100000000E+01,9.37102100000000E+01,9.41444800000000E+01,9.44530200000000E+01,9.48963600000000E+01,9.48879800000000E+01,9.48036000000000E+01,,
URY,,,,,,,,,,,,,,,,,,,,,,,,,8.61017800000000E+01,,,,,,,9.15677200000000E+01,9.28681100000000E+01,9.36531900000000E+01,9.25822000000000E+01,9.29382700000000E+01,9.30079800000000E+01,,,,,,,,,9.72648500000000E+01,9.96187500000000E+01,,9.87126000000000E+01,9.87857600000000E+01,,
USA,,,,,,,,,,,,,,,,,,,,,,,,,,,9.41076000000000E+01,9.58260700000000E+01,,,9.80559100000000E+01,9.74383700000000E+01,,9.56453600000000E+01,9.54109400000000E+01,9.59821200000000E+01,9.47246700000000E+01,,9.70119600000000E+01,9.59792900000000E+01,9.60991400000000E+01,9.69413800000000E+01,9.53111700000000E+01,9.52701500000000E+01,9.40330200000000E+01,9.42992900000000E+01,9.54623200000000E+01,9.64390000000000E+01,9.69327700000000E+01,9.65460400000000E+01,,
UZB,,,,,,,,,,,,,,,,,,,,,,,,,,,,,,,,,,,,,,,,,,,,,,,,8.95590200000000E+01,8.82966400000000E+01,8.75726200000000E+01,,
VCT,,,,,,,,,,,,,,,,,,,,,,,,,9.49404500000000E+01,,9.72393000000000E+01,,,,,,,,9.74492000000000E+01,,,,,,,,9.73350800000000E+01,9.73336900000000E+01,9.59176500000000E+01,9.43025300000000E+01,,9.27662500000000E+01,9.17578400000000E+01,9.23952000000000E+01,,
VEN,,,,,,,,,,,,,,,,,,,,,,,,,,,,,,,,,,,,,,,,8.55982300000000E+01,8.79710900000000E+01,9.06331100000000E+01,9.36808200000000E+01,9.23396800000000E+01,9.24914800000000E+01,9.16759900000000E+01,9.15170400000000E+01,9.25275000000000E+01,,9.21727100000000E+01,9.24817100000000E+01,
VNM,,,,,,,,,,,,,,,,,,,,,,,,,,,,,,,,,,,,,,,,,,9.14392300000000E+01,,,,,,,,,,
VUT,,,,,,,,,,,,,,,,,,,,,,8.11347800000000E+01,,,,,,,,7.35559000000000E+01,,,,,,,,,9.19959300000000E+01,9.65920400000000E+01,9.77347100000000E+01,9.92330500000000E+01,9.91519300000000E+01,9.87413600000000E+01,9.56753600000000E+01,9.74280800000000E+01,,,,,,
WBG,,,,,,,,,,,,,,,,,,,,,,,,,,,,,,,,,,,,,,,,9.15441900000000E+01,8.97053900000000E+01,8.64569600000000E+01,8.52417900000000E+01,8.39651300000000E+01,8.18139200000000E+01,7.94209700000000E+01,8.07171000000000E+01,8.03471500000000E+01,8.42659500000000E+01,8.53337500000000E+01,8.56262200000000E+01,
WLD,,,,,,,,,,,,,,,,,,,,,,,,,,,,,,,,,,,,,,,,7.92190200000000E+01,7.97498100000000E+01,8.00236000000000E+01,8.02731600000000E+01,8.25694600000000E+01,8.44711800000000E+01,8.48678300000000E+01,8.52801000000000E+01,8.59384400000000E+01,8.66634300000000E+01,8.67467900000000E+01,,
WSM,,,,,,,,,,,,,,,,,,,,,,,,,,,,,,,,,,,,,,,9.66578000000000E+01,9.12956200000000E+01,9.06542700000000E+01,8.76492700000000E+01,9.07059900000000E+01,,,,,9.34215900000000E+01,,8.94376200000000E+01,9.84462400000000E+01,
YEM,,,,,,,,,,,,,,,,,,,,,,,,,,,,,,,,,,,,,,,,4.13278700000000E+01,,,,5.93441200000000E+01,6.24995700000000E+01,6.58131800000000E+01,,,6.69904500000000E+01,,7.00207600000000E+01,
ZAF,,,,,,,,,,,6.68818200000000E+01,,,,,,,,,,,,,,,,,,,,,9.13694500000000E+01,,,9.50956900000000E+01,9.58991400000000E+01,,,9.18590800000000E+01,9.21501400000000E+01,8.97122100000000E+01,9.02332800000000E+01,9.00850400000000E+01,9.04578900000000E+01,8.91106100000000E+01,8.77627500000000E+01,8.69831100000000E+01,8.77286000000000E+01,8.65385800000000E+01,8.49313200000000E+01,,
ZAR,,,,,,,,,,,,5.28961500000000E+01,5.21170700000000E+01,,,5.62743500000000E+01,,,,5.82226300000000E+01,,,,6.11777100000000E+01,6.21245600000000E+01,,,,5.23747100000000E+01,,,4.90587500000000E+01,4.79703700000000E+01,4.71439900000000E+01,4.70309100000000E+01,4.96624300000000E+01,,,,3.22289400000000E+01,,,,,,,,,,,,
ZMB,,,,,,,,,,,,,7.54371300000000E+01,,,,7.77972900000000E+01,7.78860600000000E+01,7.71651100000000E+01,7.72026400000000E+01,7.75087900000000E+01,7.79752100000000E+01,7.82143800000000E+01,8.00506500000000E+01,8.12228600000000E+01,,8.34298200000000E+01,,8.22832700000000E+01,,,,,,7.54085900000000E+01,7.34796000000000E+01,,,7.02764300000000E+01,6.92055400000000E+01,6.94325100000000E+01,6.97657000000000E+01,7.17767000000000E+01,,8.65722300000000E+01,9.59403300000000E+01,9.58247500000000E+01,9.57619800000000E+01,9.81703100000000E+01,9.41574600000000E+01,9.24774600000000E+01,
ZWE,,,,,,,,,,,,,,,,,,,,,,,,,9.67817500000000E+01,,9.52439100000000E+01,,,,,,,,,,,,,,,,,,,,,,,,,
