"Country Code",1960,1961,1962,1963,1964,1965,1966,1967,1968,1969,1970,1971,1972,1973,1974,1975,1976,1977,1978,1979,1980,1981,1982,1983,1984,1985,1986,1987,1988,1989,1990,1991,1992,1993,1994,1995,1996,1997,1998,1999,2000,2001,2002,2003,2004,2005,2006,2007,2008,2009,2010,2011EAP,,,,,,,,,,,,,,,,,,,,,,,,,,,,,,,,9.66694620220000E+01,,,,,,,,9.44682678700000E+01,9.57563338600000E+01,9.71645449300000E+01,9.76270672400000E+01,9.76429812000000E+01,9.76925363900000E+01,9.76997939900000E+01,9.73219274000000E+01,9.80077726800000E+01,,,,
ECA,,,,,,,,,,,,,,,,,,,,,,,,,,,,,,,,9.16619826468000E+01,,,,,,,,9.43666204600000E+01,9.31056745200000E+01,9.35800241500000E+01,9.42808514400000E+01,9.34697117500000E+01,9.45758928200000E+01,9.64272404800000E+01,9.51388086700000E+01,9.49998834000000E+01,9.46392757200000E+01,9.41170238400000E+01,,
LMC,,,,,,,,,,,,,,,,,,,,,,,,,,,,,,,,6.00103489583000E+01,,,,,,,,6.63760775300000E+01,6.79877003300000E+01,6.93949619000000E+01,7.09766455100000E+01,7.51900305700000E+01,7.81089542900000E+01,7.96398587200000E+01,7.99859308700000E+01,8.45498596500000E+01,8.58995146200000E+01,8.62065754000000E+01,,
LMY,,,,,,,,,,,,,,,,,,,,,,,,,,,,,,,,7.30776716770000E+01,,,,,,,,7.55537345000000E+01,7.66855125100000E+01,7.77318714900000E+01,7.87761290300000E+01,8.02810239300000E+01,8.16074452700000E+01,8.24130870600000E+01,8.22209892600000E+01,8.44934287100000E+01,8.55235668000000E+01,8.62042081800000E+01,,
SSA,,,,,,,,,,,,,,,,,,,,,,,,,,,,,,,,4.72387890323000E+01,,,,,,,,4.61094215700000E+01,4.64466861700000E+01,4.73390817900000E+01,4.85045874600000E+01,4.97565642400000E+01,5.09788303800000E+01,5.29295239000000E+01,5.48319459500000E+01,5.66006765600000E+01,6.02346043400000E+01,6.30870274700000E+01,,
UMC,,,,,,,,,,,,,,,,,,,,,,,,,,,,,,,,9.39943750370000E+01,,,,,,,,9.65966686100000E+01,9.71807348800000E+01,9.81524773800000E+01,9.89934320700000E+01,9.83526764300000E+01,9.86719717700000E+01,9.88088437800000E+01,9.78913208700000E+01,9.83087804500000E+01,,,,
