"Country Code",1960,1961,1962,1963,1964,1965,1966,1967,1968,1969,1970,1971,1972,1973,1974,1975,1976,1977,1978,1979,1980,1981,1982,1983,1984,1985,1986,1987,1988,1989,1990,1991,1992,1993,1994,1995,1996,1997,1998,1999,2000,2001,2002,2003,2004,2005,2006,2007,2008,2009,2010,2011ABW,,,,,,,,,,,,,,,,,,,,,,,,,,,,,,,,,,,,,,,,9.67097800000000E+01,9.59051800000000E+01,9.53323200000000E+01,9.48461300000000E+01,9.49200900000000E+01,9.39965800000000E+01,,9.43853000000000E+01,8.81978900000000E+01,9.30412300000000E+01,,,
ADO,,,,,,,,,,,,,,,,,,,,,,,,,,,,,,,,,,,,,,,,,,,,,,,9.77819600000000E+01,9.58364300000000E+01,9.47837100000000E+01,9.43299300000000E+01,,
AFG,,,,,,,,,,,,,,,,,,,,,,,,,,,,,,,,,,8.93111029965896E+01,,,,,,,,,,,,,,,,,,
AGO,,,,,,,,,,,,,,,,,,,,,,,,,,,,,,,,,,,,,,,,,,,,,,,,,4.01021500000000E+01,4.47980900000000E+01,,
ALB,,,,,,,,,,,,,,,,,,,,,,,,,,,,,,,,,,,,,,,,,,,,,,,,,9.21564900000000E+01,9.52287100000000E+01,,
ARE,,,,,,,,,,,,,,,,,,,,,,,,,,,,,,,7.22708162180450E+01,7.90285973672268E+01,7.89596128792113E+01,8.13932214243246E+01,8.43803361193497E+01,8.03640955487745E+01,8.60179903466438E+01,8.88390956552916E+01,,9.21134900000000E+01,9.51208400000000E+01,9.56329000000000E+01,9.25069000000000E+01,9.40512600000000E+01,9.52197500000000E+01,9.79388700000000E+01,9.66817200000000E+01,,,,,
ARG,,,,,,,,,,,,,,,,,,,,,,,,,,,,,,,,,,,8.57882412538258E+01,,8.49564346039492E+01,8.72923801342789E+01,9.46904127528707E+01,9.02838300000000E+01,9.30530900000000E+01,9.22098400000000E+01,8.43266900000000E+01,9.66449400000000E+01,8.97197600000000E+01,9.60297300000000E+01,9.63451700000000E+01,9.68112700000000E+01,,,,
ATG,,,,,,,,,,,,,,,,,,,,,,,,,,,,,,,,,7.43436754176614E+01,,,,,,,,,,,,,,,9.35380000000000E+01,,,,
AUS,,,,,,,,,,,,,,,,,,,,,,,,,,,,,,,,9.87963737592967E+01,,,,,,,,,,,,,,,,,,,,
BDI,,,,,,,,,,,,,,,,,,,,,,,,,,,,,,,5.71904738901503E+01,6.35094285303012E+01,7.60030372057710E+01,,,,,,,,5.88123800000000E+01,6.47607900000000E+01,6.83241400000000E+01,6.42331200000000E+01,6.85536400000000E+01,,6.89919000000000E+01,6.46818600000000E+01,7.25826100000000E+01,6.23465700000000E+01,,
BEL,,,,,,,,,,,,,,,,,,,,,,,,,,,,,,,,8.83297663795121E+01,,,,,,,,,,,,,,9.64186800000000E+01,9.62592100000000E+01,9.12393700000000E+01,9.65216500000000E+01,,,
BEN,,,,,,,,,,,,,,,,,,,,,,,,,,,,,,,2.73224447564853E+01,3.02075307771750E+01,3.39298398760774E+01,3.53962711230282E+01,4.49944678932921E+01,4.60017453438853E+01,4.59847615517845E+01,4.32754649911135E+01,,,8.41647700000000E+01,7.20334200000000E+01,6.84756400000000E+01,6.98001700000000E+01,,,,,,6.04158600000000E+01,,
BFA,,,,,,,,,,,,,,,,,,,,,,,,,,,,,,,5.55971875811170E+01,5.99883849618132E+01,6.78067172361329E+01,4.52755717840428E+01,4.96493525389206E+01,5.59891721182047E+01,4.94525390736821E+01,,,6.83004100000000E+01,6.91350700000000E+01,6.53875000000000E+01,7.31596200000000E+01,7.58537400000000E+01,7.55116700000000E+01,7.24899600000000E+01,8.05784800000000E+01,7.96104500000000E+01,8.22269800000000E+01,7.50886900000000E+01,,
BGD,,,,,,,,,,,,,,,,,,,,,,,,,,,,,,,,,,,,,,,,,,,,,,,,,6.66008600000000E+01,,,
BHR,,,,,,,,,,,,,,,,,,,,,,,,,,,,,,,,8.77763328998703E+01,8.85107494124819E+01,8.84132468189096E+01,8.93246367239108E+01,9.15755102040820E+01,,,,9.64062700000000E+01,9.81133300000000E+01,9.86776500000000E+01,9.89927400000000E+01,9.91484200000000E+01,9.83633500000000E+01,,,,9.80915900000000E+01,,,
BHS,,,,,,,,,,,,,,,,,,,,,,,,,,,,,,,,,,,8.32206321748706E+01,,,,,,,,,,,8.50488300000000E+01,9.38678300000000E+01,9.23151300000000E+01,8.27701500000000E+01,,,
BIH,,,,,,,,,,,,,,,,,,,,,,,,,,,,,,,,,,,,,,,,,,,,,,,,,,7.32280100000000E+01,,
BLZ,,,,,,,,,,,,,,,,,,,,,,,,,,,,,,,,,6.43364485981310E+01,,,6.60241248817412E+01,6.25617461229182E+01,,,7.60945200000000E+01,,,,,,9.16234900000000E+01,8.73378700000000E+01,9.26937100000000E+01,9.55822100000000E+01,9.11053200000000E+01,,
BMU,,,,,,,,,,,,,,,,,,,,,,,,,,,,,,,,,,,,,,,,,,,9.64424700000000E+01,,9.28708300000000E+01,8.74952300000000E+01,,,,,,
BOL,,,,,,,,,,,,,,,,,,,,,,,,,,,,,,,5.40767645037796E+01,,,,,,,,7.94069888206821E+01,8.22381600000000E+01,7.80179000000000E+01,8.44450900000000E+01,8.11904800000000E+01,8.47924700000000E+01,,,8.33096300000000E+01,8.50891200000000E+01,,,,
BRB,,,,,,,,,,,,,,,,,,,,,,,,,,,,,,,,,,,,,,,,9.18206300000000E+01,,9.44944700000000E+01,9.60822300000000E+01,9.62938900000000E+01,9.74918800000000E+01,9.33095600000000E+01,,,9.21787100000000E+01,,,
BRN,,,,,,,,,,,,,,,,,,,,,,,,,,,,,,,,9.09133055169221E+01,9.17524189832594E+01,8.60318853298232E+01,8.66251062623979E+01,8.98095508811829E+01,,,9.81304028459383E+01,,,,,9.76829900000000E+01,9.82617100000000E+01,9.80251500000000E+01,9.80348700000000E+01,9.76185200000000E+01,9.83414200000000E+01,9.80682900000000E+01,,
BTN,,,,,,,,,,,,,,,,,,,,,,,,,,,,,,,,,,4.66323805756109E+01,6.60909809233550E+01,,,,8.74531406397735E+01,9.04521600000000E+01,9.10735000000000E+01,,,,,9.31153800000000E+01,,,9.55038600000000E+01,,,
BWA,,,,,,,,,,,,,,,,,,,,,,,,,,,,,,,7.56736883083180E+01,7.67841454694046E+01,8.16042149802682E+01,8.74912618891270E+01,8.69363270917084E+01,8.58369356388093E+01,8.52784436476022E+01,,8.75555678297647E+01,8.66023700000000E+01,8.90275200000000E+01,8.82512500000000E+01,8.93514700000000E+01,9.01663200000000E+01,8.96709000000000E+01,8.90558700000000E+01,,,,,,
CAF,,,,,,,,,,,,,,,,,,,,,,,,,,,,,,,4.26996388269655E+01,4.65588235294120E+01,4.17966506119926E+01,,,,,,,,,,,,,,,,5.35921900000000E+01,5.62672100000000E+01,,
CAN,,,,,,,,,,,,,,,,,,,,,,,,,,,,,,,,,,,,,,,9.78247904264737E+01,9.88963400000000E+01,,,,,,,,,,,,
CHE,,,,,,,,,,,,,,,,,,,,,,,,,,,,,,,6.74629949265132E+01,7.18198507242690E+01,7.32833776700823E+01,7.85317380857030E+01,8.08579001325237E+01,,8.82982240695263E+01,,,,9.68408000000000E+01,,,,,,,,,,,
CHL,,,,,,,,,,,,,,,,,,,,,,,,,,,,,,,,,,,,,,,9.98086274240125E+01,9.81828700000000E+01,,,9.75602600000000E+01,9.79061600000000E+01,,,9.64481700000000E+01,,,,,
CHN,,,,,,,,,,,,,,,,,,,,,,,,,,,,,,,8.74680081193187E+01,9.16044013233712E+01,8.82876221724166E+01,8.72613842380303E+01,8.38328558891231E+01,7.65951232146685E+01,7.74308486518132E+01,8.26893098959481E+01,,,,,,,,,,,,,,
CIV,,,,,,,,,,,,,,,,,,,,,,,,,,,,,,,6.08148072834013E+01,6.50334961587798E+01,6.76618950238586E+01,5.86693191865607E+01,5.92338114142611E+01,5.79059543435967E+01,5.81948446272960E+01,6.01159059276734E+01,,6.93764500000000E+01,8.79952600000000E+01,,,,,,7.85929100000000E+01,,6.60550200000000E+01,,,
CMR,,,,,,,,,,,,,,,,,,,,,,,,,,,,,,,6.65871023498914E+01,6.66169421072044E+01,,,,,,,,,,5.20500300000000E+01,6.46377700000000E+01,,,,8.17702900000000E+01,6.29556000000000E+01,7.79723300000000E+01,7.62907500000000E+01,,
COG,,,,,,,,,,,,,,,,,,,,,,,,,,,,,,,7.05608834641098E+01,6.66150573957655E+01,6.64098376673230E+01,6.55536205184305E+01,6.57222748254236E+01,,6.60842384258596E+01,,,,,,6.77386200000000E+01,,,,,7.69257800000000E+01,,,,
COL,,,,,,,,,,,,,,,,,,,,,,,,,,,,,,,5.49680728973009E+01,5.63100001550896E+01,6.35031172075850E+01,5.56074487945029E+01,6.02678001821979E+01,5.94007025556192E+01,5.81217638082838E+01,,6.34345103007561E+01,6.65694300000000E+01,6.09313500000000E+01,6.94060400000000E+01,,,8.08726300000000E+01,8.08321100000000E+01,8.52229100000000E+01,8.47212200000000E+01,,8.45323900000000E+01,,
COM,,,,,,,,,,,,,,,,,,,,,,,,,,,,,,,,,4.52541136418902E+01,5.06650316007929E+01,5.50239234449764E+01,,,,,,,,,,8.20469500000000E+01,,,,,,,
CPV,,,,,,,,,,,,,,,,,,,,,,,,,,,,,,,5.29701686121921E+01,,,,6.13151829443966E+01,,,,,,8.91455900000000E+01,9.09915300000000E+01,8.71672700000000E+01,9.09568500000000E+01,,9.04645800000000E+01,,8.96685000000000E+01,,,,
CRI,,,,,,,,,,,,,,,,,,,,,,,,,,,,,,,7.59338712851805E+01,7.14562624841919E+01,7.15704165485977E+01,7.55456703620903E+01,7.81125913394895E+01,8.30176332425771E+01,8.24893164834664E+01,,,9.14986800000000E+01,9.36892600000000E+01,9.15964900000000E+01,9.02467100000000E+01,9.08117500000000E+01,8.66028600000000E+01,9.37664600000000E+01,8.76257600000000E+01,9.57417900000000E+01,9.56619900000000E+01,9.11766300000000E+01,,
CUB,,,,,,,,,,,,,,,,,,,,,,,,,,,,,,,,8.10112541595525E+01,6.98279276503984E+01,9.06979336309768E+01,8.47669223301522E+01,8.30726806516505E+01,,,,7.20974700000000E+01,9.66699200000000E+01,9.73898000000000E+01,9.72356100000000E+01,9.69423700000000E+01,9.69366800000000E+01,9.70006300000000E+01,9.68172300000000E+01,9.64706100000000E+01,9.59206000000000E+01,9.65976600000000E+01,,
CYM,,,,,,,,,,,,,,,,,,,,,,,,,,,,,,,,,,,,,,,,,9.32469000000000E+01,,,,7.78424700000000E+01,,,,,,,
CYP,,,,,,,,,,,,,,,,,,,,,,,,,,,,,,,9.32419748451290E+01,9.67171479635032E+01,9.57221798780490E+01,9.96490965382999E+01,9.99893733675143E+01,9.92657490690099E+01,9.94902209772909E+01,9.90791896869250E+01,,9.50104400000000E+01,9.90717200000000E+01,9.82016800000000E+01,9.80032400000000E+01,9.91590500000000E+01,9.86382400000000E+01,9.87373500000000E+01,9.88828800000000E+01,9.53712900000000E+01,,,,
CZE,,,,,,,,,,,,,,,,,,,,,,,,,,,,,,,,,,,,,,,,9.83124700000000E+01,9.85490400000000E+01,9.87488400000000E+01,9.76841900000000E+01,9.84122300000000E+01,9.84152900000000E+01,9.93717700000000E+01,9.82241300000000E+01,9.88297200000000E+01,9.95840300000000E+01,,,
DJI,,,,,,,,,,,,,,,,,,,,,,,,,,,,,,,7.38577745025797E+01,7.48978834014114E+01,7.38154172560116E+01,7.83600000000004E+01,7.42658836091833E+01,6.95491737526074E+01,6.93499920923614E+01,7.53279945476235E+01,,,,,,,,,,,6.42745000000000E+01,,,
DMA,,,,,,,,,,,,,,,,,,,,,,,,,,,,,,,,,,,,,,,,,8.62389100000000E+01,8.54195200000000E+01,8.36509600000000E+01,8.35593000000000E+01,9.22760300000000E+01,,8.93319900000000E+01,9.22759100000000E+01,8.97429200000000E+01,8.98678000000000E+01,,
DNK,,,,,,,,,,,,,,,,,,,,,,,,,,,,,,,,,,9.85226291321368E+01,,9.14542078133954E+01,,,,9.98934500000000E+01,9.99323600000000E+01,,,,9.24764300000000E+01,9.97546600000000E+01,9.94041400000000E+01,,9.96617300000000E+01,,,
DOM,,,,,,,,,,,,,,,,,,,,,,,,,,,,,,,,,,,4.70466568553361E+01,,,,,7.50903600000000E+01,6.97791400000000E+01,,,,,6.84517300000000E+01,,,,,,
DZA,,,,,,,,,,,,,,,,,,,,,,,,,,,,,,,8.37856445326569E+01,8.06478916170897E+01,7.99272803643861E+01,8.46438779676839E+01,8.74255540640496E+01,9.53258967690676E+01,9.21961489457352E+01,9.15060218097426E+01,,9.50019100000000E+01,9.70923100000000E+01,9.59850500000000E+01,9.69697200000000E+01,9.61852500000000E+01,9.56074800000000E+01,9.51732400000000E+01,9.59814900000000E+01,9.59086300000000E+01,9.45141600000000E+01,9.50389700000000E+01,,
EAP,,,,,,,,,,,,,,,,,,,,,,,,,,,,,,,8.51001220297550E+01,9.02156555030249E+01,8.78736701567677E+01,8.73702833662646E+01,8.39332483289898E+01,7.86071898684877E+01,8.00953769964675E+01,8.32838565978559E+01,,,,,,,,,,,,,,
EAS,,,,,,,,,,,,,,,,,,,,,,,,,,,,,,,8.53475638324210E+01,9.07739977067504E+01,8.78811364586628E+01,8.73655909924880E+01,8.39338364238325E+01,7.86097100291253E+01,8.04655477194805E+01,8.32838565978559E+01,,,,,,,,,,,,,,
ECU,,,,,,,,,,,,,,,,,,,,,,,,,,,,,,,,,,,7.05477347475280E+01,6.98925814877342E+01,7.10374723371104E+01,7.21573997063601E+01,7.76038908950125E+01,7.70131400000000E+01,7.78499400000000E+01,7.80232300000000E+01,7.44096900000000E+01,7.62689400000000E+01,7.63288400000000E+01,7.72888900000000E+01,8.17009000000000E+01,,,,,
ERI,,,,,,,,,,,,,,,,,,,,,,,,,,,,,,,,,,,3.60878753191864E+01,4.73794738624818E+01,6.30191195130870E+01,7.99688723523264E+01,,9.38747100000000E+01,6.05433100000000E+01,,8.61698200000000E+01,8.08531800000000E+01,7.92180000000000E+01,7.37034000000000E+01,5.99699600000000E+01,7.33388500000000E+01,7.31326200000000E+01,6.90192200000000E+01,,
ESP,,,,,,,,,,,,,,,,,,,,,,,,,,,,,,,,,,,,,,,,,,,,9.97199600000000E+01,,9.94472500000000E+01,9.96581700000000E+01,9.97350000000000E+01,9.96852800000000E+01,,,
EST,,,,,,,,,,,,,,,,,,,,,,,,,,,,,,,,,,,,9.08067980203570E+01,8.60410059409485E+01,,,9.90121300000000E+01,9.89138500000000E+01,9.85364900000000E+01,9.80050400000000E+01,9.85748200000000E+01,9.87400900000000E+01,9.68584100000000E+01,9.81196700000000E+01,9.83649500000000E+01,9.88285000000000E+01,,,
ETH,,,,,,,,,,,,,,,,,,,,,,,,,,,,,,,,,,,2.46593871185507E+01,2.23550891120583E+01,2.11158263419403E+01,2.10126782002436E+01,,5.64968100000000E+01,6.46218600000000E+01,6.04447200000000E+01,5.60096000000000E+01,5.36401000000000E+01,6.87515300000000E+01,,6.43769900000000E+01,5.09168000000000E+01,4.58604900000000E+01,5.05426800000000E+01,,
FIN,,,,,,,,,,,,,,,,,,,,,,,,,,,,,,,9.72216781425626E+01,9.63271170712731E+01,9.69917375492631E+01,,,,,,9.99160684874442E+01,9.94876500000000E+01,9.93630300000000E+01,9.95252500000000E+01,9.98627600000000E+01,9.97970800000000E+01,9.94775800000000E+01,9.94289200000000E+01,9.97178100000000E+01,9.96904900000000E+01,9.96887200000000E+01,,,
FJI,,,,,,,,,,,,,,,,,,,,,,,,,,,,,,,,,,,,,,,,8.74327000000000E+01,8.98139500000000E+01,8.73818500000000E+01,9.53889000000000E+01,9.59973500000000E+01,,,,9.18505600000000E+01,9.42862200000000E+01,,,
FRA,,,,,,,,,,,,,,,,,,,,,,,,,,,,,,,9.91981400831728E+01,,1.00000000000000E+02,,,,,,,9.79584800000000E+01,,,,,,,,,,,,
GAB,,,,,,,,,,,,,,,,,,,,,,,,,,,,,,,,,4.66629526462398E+01,,,5.78079012904691E+01,5.46658609054746E+01,5.95627009646308E+01,,,,,,,,,,,,,,
GEO,,,,,,,,,,,,,,,,,,,,,,,,,,,,,,,,,,,,,,,,,,,,9.26209200000000E+01,8.81262600000000E+01,9.50873600000000E+01,,9.50371800000000E+01,9.55448700000000E+01,9.64482100000000E+01,,
GHA,,,,,,,,,,,,,,,,,,,,,,,,,,,,,,,,6.85570420650196E+01,7.15018327973467E+01,,,,,,,,6.62479300000000E+01,9.05160300000000E+01,6.32863200000000E+01,,,,,,7.84208800000000E+01,,,
GIN,,,,,,,,,,,,,,,,,,,,,,,,,,,,,,,5.05939657287031E+01,4.07404901416837E+01,5.08546146307722E+01,4.02827364110586E+01,4.26175136693089E+01,4.33991471741837E+01,5.50798107909470E+01,,,,,,,8.12943400000000E+01,7.59347000000000E+01,7.92178900000000E+01,8.18537600000000E+01,6.97023100000000E+01,6.85702700000000E+01,6.85786500000000E+01,,
GMB,,,,,,,,,,,,,,,,,,,,,,,,,,,,,,,,,5.64483570707639E+01,5.07490453343782E+01,5.11796892098932E+01,6.33212622866013E+01,4.94419166785158E+01,,,6.57956200000000E+01,7.29972000000000E+01,6.20715200000000E+01,,7.84145200000000E+01,6.84128100000000E+01,6.77398700000000E+01,,7.15396600000000E+01,9.23553700000000E+01,6.51341100000000E+01,,
GNQ,,,,,,,,,,,,,,,,,,,,,,,,,,,,,,,,,,,1.56660929432014E+01,,,,,,,3.59618700000000E+01,,,,,,,,6.96267300000000E+01,,
GRC,,,,,,,,,,,,,,,,,,,,,,,,,,,,,,,,,,,,,,,,,,,,,9.79496700000000E+01,9.77508200000000E+01,9.76005300000000E+01,,,,,
GTM,,,,,,,,,,,,,,,,,,,,,,,,,,,,,,,,,,,,,4.35019459804030E+01,,6.03873541365534E+01,5.60650300000000E+01,5.58761600000000E+01,6.52710900000000E+01,6.59141800000000E+01,6.94530500000000E+01,6.80774800000000E+01,6.89824100000000E+01,6.83567800000000E+01,7.05942500000000E+01,,,,
GUY,,,,,,,,,,,,,,,,,,,,,,,,,,,,,,,,,,,,8.75636114128885E+01,9.05586489628590E+01,8.94213980372094E+01,,,7.71733900000000E+01,,,,,,,,8.66612100000000E+01,,,
HKG,,,,,,,,,,,,,,,,,,,,,,,,,,,,,,,1.00000000000000E+02,,,,,,,,,,,9.93833600000000E+01,9.95638500000000E+01,9.96220800000000E+01,9.95038500000000E+01,9.97611900000000E+01,,9.96594000000000E+01,9.96791200000000E+01,,,
HND,,,,,,,,,,,,,,,,,,,,,,,,,,,,,,,,4.65700972060427E+01,,5.36258335249486E+01,5.56076056679184E+01,,,,,,,,,,6.01763200000000E+01,8.34184100000000E+01,,7.78252000000000E+01,7.39511100000000E+01,8.25378400000000E+01,,
HPC,,,,,,,,,,,,,,,,,,,,,,,,,,,,,,,,,,,,,,,,,,6.70058042727875E+01,,,,,,,6.62752493674392E+01,,,
HTI,,,,,,,,,,,,,,,,,,,,,,,,,,,,,,,4.62364137996838E+01,4.62363544046713E+01,,,,,,3.37324137012973E+01,,,,,,,,,,,,,,
IDN,,,,,,,,,,,,,,,,,,,,,,,,,,,,,,,8.27397733296315E+01,8.48764565346696E+01,8.84076214477149E+01,9.04143690882218E+01,9.07512549913667E+01,9.35249197929045E+01,9.62462397955541E+01,9.15914511085686E+01,,,9.43249900000000E+01,8.92478900000000E+01,8.90713400000000E+01,,8.73528400000000E+01,,,8.60865500000000E+01,,,,
IND,,,,,,,,,,,,,,,,,,,,,,,,,,,,,,,,,,,,5.73327975130174E+01,,,5.96689083801785E+01,6.20466700000000E+01,5.90063400000000E+01,6.13731100000000E+01,,,,6.57911800000000E+01,6.85447700000000E+01,,,,,
IRL,,,,,,,,,,,,,,,,,,,,,,,,,,,,,,,,,,,,,,,9.85673983045473E+01,9.48346600000000E+01,9.58179100000000E+01,9.76610700000000E+01,9.78173000000000E+01,9.95126700000000E+01,9.97360100000000E+01,9.93739300000000E+01,9.96795100000000E+01,9.89620900000000E+01,9.94751100000000E+01,,,
IRN,,,,,,,,,,,,,,,,,,,,,,,,,,,,,,,6.87822862889496E+01,7.10208892784017E+01,7.63144553412026E+01,8.71921343311934E+01,9.31021544161675E+01,,,9.87861821902507E+01,,,9.74440900000000E+01,9.37291600000000E+01,8.75167400000000E+01,,,,,,9.43491200000000E+01,,,
IRQ,,,,,,,,,,,,,,,,,,,,,,,,,,,,,,,,,,7.30237463059220E+01,,,,,,6.55614500000000E+01,,,,7.74089000000000E+01,,,,,,,,
ISL,,,,,,,,,,,,,,,,,,,,,,,,,,,,,,,,,,,,,,,9.94436564579390E+01,9.85719800000000E+01,9.90226600000000E+01,9.83211400000000E+01,9.84427900000000E+01,9.83023300000000E+01,9.85062600000000E+01,9.77860200000000E+01,9.44785700000000E+01,9.96700100000000E+01,9.89691100000000E+01,,,
ISR,,,,,,,,,,,,,,,,,,,,,,,,,,,,,,,,,,,,,,,,,,9.91832900000000E+01,9.91036200000000E+01,9.92717600000000E+01,9.95188200000000E+01,9.93248800000000E+01,,9.91369100000000E+01,9.89600700000000E+01,,,
ITA,,,,,,,,,,,,,,,,,,,,,,,,,,,,,,,,,,,,,,9.90116378649794E+01,,,9.69356500000000E+01,9.58191500000000E+01,,,9.97116200000000E+01,9.94008600000000E+01,9.94986500000000E+01,9.95748200000000E+01,9.96605600000000E+01,,,
JAM,,,,,,,,,,,,,,,,,,,,,,,,,,,,,,,9.32290747343526E+01,9.71916371754385E+01,,,,,,,,,8.71151400000000E+01,8.88835900000000E+01,,,8.90252700000000E+01,,,,8.76234500000000E+01,,,
JOR,,,,,,,,,,,,,,,,,,,,,,,,,,,,,,,9.22324325413622E+01,9.07934003687583E+01,9.31934848358725E+01,9.34050019990231E+01,9.80169222633533E+01,,9.52720540336687E+01,,,9.73062000000000E+01,,,9.68801600000000E+01,9.81844000000000E+01,9.62260000000000E+01,,9.42455700000000E+01,,,,,
JPN,,,,,,,,,,,,,,,,,,,,,,,,,,,,,,,,9.99725307420489E+01,,,,,,,,,,,,,,,,,9.99884800000000E+01,,,
KEN,,,,,,,,,,,,,,,,,,,,,,,,,,,,,,,,,,,,,,,,,,,,7.53311000000000E+01,8.06108800000000E+01,,,,,,,
KHM,,,,,,,,,,,,,,,,,,,,,,,,,,,,,,,,,,,3.44049968769520E+01,3.98917638515473E+01,,3.59897486879872E+01,5.60840992249372E+01,,6.29919400000000E+01,7.03734700000000E+01,6.09162800000000E+01,5.96997600000000E+01,6.31412600000000E+01,6.21972900000000E+01,6.21823500000000E+01,6.21018500000000E+01,,,,
KIR,,,,,,,,,,,,,,,,,,,,,,,,,,,,,,,,7.80815777678174E+01,7.95694385816805E+01,8.78027300748572E+01,7.82970297029706E+01,8.29318089015929E+01,,8.78863826232251E+01,,,,7.18572400000000E+01,,7.97339300000000E+01,,,,,,,,
KNA,,,,,,,,,,,,,,,,,,,,,,,,,,,,,,,,,9.59024390243906E+01,,,,,,,,8.28464600000000E+01,,,,,,,8.12528800000000E+01,,8.38108800000000E+01,,
KOR,,,,,,,,,,,,,,,,,,,,,,,,,,,,,,,9.22314695548216E+01,,,,,,9.84157732820228E+01,,9.98815605940236E+01,9.94516600000000E+01,9.91650500000000E+01,9.87673900000000E+01,9.96079700000000E+01,9.79753800000000E+01,9.89305900000000E+01,9.90413400000000E+01,9.80300200000000E+01,9.86882300000000E+01,9.90857400000000E+01,,,
KWT,,,,,,,,,,,,,,,,,,,,,,,,,,,,,,,,,,,,,,,,,,,,,,9.40844100000000E+01,9.86911700000000E+01,,,9.60324300000000E+01,,
LAO,,,,,,,,,,,,,,,,,,,,,,,,,,,,,,,3.26709200571769E+01,,3.31241242831762E+01,3.16829207301827E+01,3.56929065902792E+01,,4.32516156598838E+01,4.52303954280241E+01,,5.45664800000000E+01,5.34781800000000E+01,6.26553700000000E+01,6.44685400000000E+01,6.28996400000000E+01,6.33260400000000E+01,6.22340200000000E+01,6.16126900000000E+01,6.69750600000000E+01,,,,
LBN,,,,,,,,,,,,,,,,,,,,,,,,,,,,,,,,,,,,,,8.52372288313510E+01,,,,,,,,,9.68178800000000E+01,9.25949500000000E+01,9.52516300000000E+01,9.03220500000000E+01,,
LBR,,,,,,,,,,,,,,,,,,,,,,,,,,,,,,,,,,,,,,,,,,,,,,,,5.97804300000000E+01,,,,
LCA,,,,,,,,,,,,,,,,,,,,,,,,,,,,,,,9.24465920651073E+01,,,,,,,,,,,,,8.94191000000000E+01,9.58298800000000E+01,,,9.56748200000000E+01,9.42266800000000E+01,9.46661900000000E+01,,
LDC,,,,,,,,,,,,,,,,,,,,,,,,,,,,,,,,,,,,,,,,,,,,,,,,,6.46166378009163E+01,,,
LIE,,,,,,,,,,,,,,,,,,,,,,,,,,,,,,,,,,,,,,,,,,,,,,,,8.18287000000000E+01,,,,
LKA,,,,,,,,,,,,,,,,,,,,,,,,,,,,,,,9.46718474864377E+01,9.73565364767017E+01,,,,,,,,,,,,,,9.34021100000000E+01,9.86329000000000E+01,,,,,
LMC,,,,,,,,,,,,,,,,,,,,,,,,,,,,,,,,,,,,,,,,,6.65277273255225E+01,6.87496313305908E+01,,,,,,,,,,
LSO,,,,,,,,,,,,,,,,,,,,,,,,,,,,,,,6.63094630606116E+01,6.48708526964231E+01,6.69002257336346E+01,7.25832074082686E+01,6.72896710606088E+01,,7.16509664237805E+01,,6.89291925172881E+01,7.45619500000000E+01,6.71598200000000E+01,7.29366400000000E+01,7.67735100000000E+01,6.36314400000000E+01,7.33733200000000E+01,7.43095000000000E+01,6.21836500000000E+01,8.01271900000000E+01,7.13502600000000E+01,8.04174000000000E+01,,
LUX,,,,,,,,,,,,,,,,,,,,,,,,,,,,,,,,,,,,,,,,,9.55334900000000E+01,,,9.19549600000000E+01,9.43177800000000E+01,9.78392800000000E+01,9.79664600000000E+01,9.64013100000000E+01,,,,
LVA,,,,,,,,,,,,,,,,,,,,,,,,,,,,,,,,,,,,,,,,,,,,,,,9.60760800000000E+01,9.59609000000000E+01,9.61654700000000E+01,,,
MAC,,,,,,,,,,,,,,,,,,,,,,,,,,,,,,,7.33322769767077E+01,,6.78334011667350E+01,7.02527457985974E+01,,,,,,,,,9.92284300000000E+01,,,9.93540900000000E+01,,,9.88611200000000E+01,9.85858200000000E+01,,
MAR,,,,,,,,,,,,,,,,,,,,,,,,,,,,,,,6.88661985484028E+01,6.72912059874131E+01,6.62074411354500E+01,6.00374192147855E+01,6.06139715623069E+01,6.46332904433269E+01,6.78677564469002E+01,7.12284419643576E+01,,8.18915900000000E+01,8.01171400000000E+01,8.37594700000000E+01,8.12947800000000E+01,7.56811500000000E+01,7.92712100000000E+01,8.03210400000000E+01,8.39274700000000E+01,8.27995400000000E+01,8.41982200000000E+01,9.39125000000000E+01,9.30289100000000E+01,
MCO,,,,,,,,,,,,,,,,,,,,,,,,,,,,,,,,8.56733524355304E+01,8.79656160458456E+01,,,,,,,,,,,,,,,,,,,
MDG,,,,,,,,,,,,,,,,,,,,,,,,,,,,,,,3.40033405458758E+01,3.13427123632310E+01,2.87174602806988E+01,3.08844015252577E+01,2.69507229173880E+01,2.69671867872635E+01,2.62085023283762E+01,,,5.24225300000000E+01,3.61403400000000E+01,3.46823900000000E+01,5.54096100000000E+01,5.98624200000000E+01,4.28822000000000E+01,3.59786500000000E+01,4.24667000000000E+01,4.26606200000000E+01,4.93871900000000E+01,3.45846900000000E+01,,
MEX,,,,,,,,,,,,,,,,,,,,,,,,,,,,,,,7.78095428641101E+01,,8.05710832755736E+01,8.14850514838957E+01,8.52984766871336E+01,8.41099659863677E+01,8.66068903780001E+01,8.80181613113162E+01,8.89420451659127E+01,8.90037200000000E+01,8.82877600000000E+01,9.04751800000000E+01,9.28448000000000E+01,9.26436500000000E+01,9.38374800000000E+01,9.43530300000000E+01,9.46208100000000E+01,9.39351200000000E+01,9.59585200000000E+01,,,
MHL,,,,,,,,,,,,,,,,,,,,,,,,,,,,,,,,,,,,,,,,,,,5.17578300000000E+01,,,,7.27954200000000E+01,,8.68535200000000E+01,,,
MLI,,,,,,,,,,,,,,,,,,,,,,,,,,,,,,,,,4.58527014392753E+01,,4.22205618935411E+01,4.39290523713776E+01,5.38860687191785E+01,5.35024657257812E+01,,7.68500700000000E+01,,8.43148500000000E+01,7.48132100000000E+01,8.62878000000000E+01,8.69762800000000E+01,8.12658800000000E+01,,8.45281400000000E+01,8.68671200000000E+01,8.40383500000000E+01,,
MLT,,,,,,,,,,,,,,,,,,,,,,,,,,,,,,,,,,,9.66657237840208E+01,9.80012119406314E+01,9.56595419173137E+01,9.84633977900557E+01,,9.86088300000000E+01,9.79591800000000E+01,9.93371800000000E+01,9.76765800000000E+01,,,,,9.24444800000000E+01,8.34642200000000E+01,,,
MMR,,,,,,,,,,,,,,,,,,,,,,,,,,,,,,,,,,,,,,,,,5.52170800000000E+01,5.92135500000000E+01,6.54034000000000E+01,6.89642800000000E+01,,7.15097100000000E+01,,,6.96463000000000E+01,7.47923300000000E+01,,
MNG,,,,,,,,,,,,,,,,,,,,,,,,,,,,,,,,,,,,,,,,,,,,,,,8.40549500000000E+01,,,9.40948500000000E+01,,
MOZ,,,,,,,,,,,,,,,,,,,,,,,,,,,,,,,3.37772639126756E+01,3.82572924457743E+01,3.60843984125740E+01,3.26159172788099E+01,3.17320435915959E+01,2.99201864892652E+01,,,4.61939144410275E+01,4.30846500000000E+01,5.24561000000000E+01,4.96235000000000E+01,,,6.24389200000000E+01,5.73964300000000E+01,6.42395800000000E+01,6.04367500000000E+01,5.47606300000000E+01,5.36733400000000E+01,,
MRT,,,,,,,,,,,,,,,,,,,,,,,,,,,,,,,6.37775330396480E+01,4.99161425576523E+01,4.00340909090911E+01,3.57511283043200E+01,3.55714285714287E+01,3.97170366778653E+01,4.25870075159178E+01,4.85501755254166E+01,,,,5.47136700000000E+01,,,5.28773300000000E+01,5.74172900000000E+01,6.37351700000000E+01,4.93766500000000E+01,,7.43029500000000E+01,,
MUS,,,,,,,,,,,,,,,,,,,,,,,,,,,,,,,,,,9.85204711337483E+01,,8.72809523809529E+01,8.38588105524408E+01,8.73523440383906E+01,9.94233697145765E+01,9.90752500000000E+01,9.83762100000000E+01,9.75615100000000E+01,9.85567600000000E+01,9.90090500000000E+01,9.70172400000000E+01,9.88574500000000E+01,9.86085200000000E+01,9.79900400000000E+01,9.72470400000000E+01,9.79550600000000E+01,,
MWI,,,,,,,,,,,,,,,,,,,,,,,,,,,,,,,3.22916137337604E+01,3.49259896272589E+01,2.68947870489873E+01,2.77808604132920E+01,2.52430519636413E+01,2.14216419492168E+01,2.96102220561008E+01,,4.41356102397281E+01,4.84827300000000E+01,,4.38588200000000E+01,,,4.22400200000000E+01,4.44457700000000E+01,4.35875200000000E+01,6.82262100000000E+01,5.06875700000000E+01,6.08601700000000E+01,,
MYS,,,,,,,,,,,,,,,,,,,,,,,,,,,,,,,8.84565271461468E+01,8.64865039654911E+01,8.65903190255463E+01,8.85970418896441E+01,,,,,,,,8.70790900000000E+01,9.78143600000000E+01,9.93588800000000E+01,9.92926100000000E+01,9.17477500000000E+01,9.37159700000000E+01,9.65933800000000E+01,,,,
NAC,,,,,,,,,,,,,,,,,,,,,,,,,,,,,,,,,,,,,,,9.06500459180376E+01,,,9.07819400000000E+01,,9.18251800000000E+01,9.35230300000000E+01,9.36967200000000E+01,,,,,,
NAM,,,,,,,,,,,,,,,,,,,,,,,,,,,,,,,,,5.40964279429881E+01,,6.51319144114375E+01,8.14108595203750E+01,8.60927152317887E+01,,8.33982617224444E+01,9.27644800000000E+01,9.09353700000000E+01,9.16174100000000E+01,8.76627100000000E+01,8.20246900000000E+01,8.61242900000000E+01,8.68991800000000E+01,,,9.14852400000000E+01,,,
NER,,,,,,,,,,,,,,,,,,,,,,,,,,,,,,,5.70183749864093E+01,6.69778278378674E+01,6.77111969111970E+01,7.00974331802666E+01,,6.10917206212455E+01,5.42040390524897E+01,5.71754948243755E+01,,,7.39837100000000E+01,7.10480500000000E+01,6.91330100000000E+01,7.35691300000000E+01,,,7.19759100000000E+01,7.47531900000000E+01,6.93525200000000E+01,6.42608000000000E+01,,
NGA,,,,,,,,,,,,,,,,,,,,,,,,,,,,,,,,,,,,,,,,,,,7.81128000000000E+01,8.12269900000000E+01,8.08107300000000E+01,,,6.16299900000000E+01,7.63422500000000E+01,8.63264800000000E+01,,
NIC,,,,,,,,,,,,,,,,,,,,,,,,,,,,,,,3.10469314079423E+01,3.42013919686839E+01,3.66444456048134E+01,4.34963343662613E+01,4.52090490618453E+01,4.68147562902640E+01,,,5.75550293635205E+01,4.84468700000000E+01,5.42357800000000E+01,6.48380200000000E+01,5.51324700000000E+01,5.87966300000000E+01,5.35514300000000E+01,5.36641900000000E+01,4.70242600000000E+01,5.13750900000000E+01,,,,
NLD,,,,,,,,,,,,,,,,,,,,,,,,,,,,,,,,,,,,,,,,9.98225700000000E+01,9.99656700000000E+01,9.97700800000000E+01,9.98456500000000E+01,9.95529200000000E+01,9.93406400000000E+01,9.89380100000000E+01,9.91943300000000E+01,9.95188600000000E+01,9.93798400000000E+01,,,
NOR,,,,,,,,,,,,,,,,,,,,,,,,,,,,,,,9.96681570314537E+01,9.92412243147544E+01,9.93190982504185E+01,9.89105243171818E+01,,,,,9.98682207261944E+01,9.98216700000000E+01,9.93499000000000E+01,9.91941000000000E+01,9.93267700000000E+01,9.94434800000000E+01,9.98517500000000E+01,9.95898900000000E+01,9.96664800000000E+01,9.91702700000000E+01,9.95484400000000E+01,,,
NPL,,,,,,,,,,,,,,,,,,,,,,,,,,,,,,,,3.57465134776346E+01,3.89302746045186E+01,,,,,,,5.90416500000000E+01,4.61719000000000E+01,7.77691800000000E+01,6.53422800000000E+01,6.76876400000000E+01,6.15584700000000E+01,,,6.16867000000000E+01,,,,
NZL,,,,,,,,,,,,,,,,,,,,,,,,,,,,,,,9.78099157950385E+01,9.52035484719772E+01,9.40884577934242E+01,,,,,,,,,,,,,,,,,,,
OMN,,,,,,,,,,,,,,,,,,,,,,,,,,,,,,,7.71384208940699E+01,,8.19938461538466E+01,,8.29434954007888E+01,9.43397026700317E+01,9.70902340327900E+01,9.29704896984778E+01,,9.37393900000000E+01,9.59228700000000E+01,9.62432700000000E+01,9.79573900000000E+01,,,,,,,8.40158300000000E+01,,
PAK,,,,,,,,,,,,,,,,,,,,,,,,,,,,,,,,,,,,,,,,,,,,,6.96764500000000E+01,,,,6.01608400000000E+01,6.15074300000000E+01,,
PAN,,,,,,,,,,,,,,,,,,,,,,,,,,,,,,,,,,,,,,,8.58982591254601E+01,9.19491900000000E+01,8.86287600000000E+01,8.98248000000000E+01,8.26874100000000E+01,8.42803100000000E+01,8.53160200000000E+01,8.79931600000000E+01,9.00107600000000E+01,8.74026600000000E+01,8.93234400000000E+01,9.45850600000000E+01,,
PER,,,,,,,,,,,,,,,,,,,,,,,,,,,,,,,,,,,,7.51483873891614E+01,,,8.78637617569206E+01,8.74623000000000E+01,8.61014700000000E+01,8.36525200000000E+01,,8.97171300000000E+01,9.02791700000000E+01,8.94717200000000E+01,9.31769400000000E+01,8.72315800000000E+01,9.10385800000000E+01,,,
PHL,,,,,,,,,,,,,,,,,,,,,,,,,,,,,,,6.70122400181473E+01,,,,,,,,7.36789272959275E+01,,,7.92645400000000E+01,7.59771400000000E+01,7.53076500000000E+01,7.49109100000000E+01,7.39647600000000E+01,7.68400000000000E+01,7.84102500000000E+01,7.86771400000000E+01,,,
PNG,,,,,,,,,,,,,,,,,,,,,,,,,,,,,,,5.34558646193427E+01,5.37214334410294E+01,5.58535729601187E+01,5.57797327433320E+01,5.71160286977821E+01,5.76896123743026E+01,,,,,,,,,,,,,,,,
POL,,,,,,,,,,,,,,,,,,,,,,,,,,,,,,,9.33401513356589E+01,9.31868916345085E+01,9.70769597604707E+01,9.93989118311335E+01,,,,,9.88581684187113E+01,9.85718800000000E+01,9.92730100000000E+01,9.85368800000000E+01,9.92747700000000E+01,9.97670100000000E+01,9.92743400000000E+01,9.86418300000000E+01,9.77131600000000E+01,,9.79679900000000E+01,,,
PRY,,,,,,,,,,,,,,,,,,,,,,,,,,,,,,,5.46341127449295E+01,5.89466507584799E+01,6.52930274353434E+01,5.88285455417580E+01,5.98038876989339E+01,6.44682156948710E+01,6.59424600253250E+01,,7.93590307776986E+01,7.81169600000000E+01,7.72008900000000E+01,6.96975700000000E+01,8.14559400000000E+01,8.12474400000000E+01,8.77129500000000E+01,8.09920500000000E+01,8.35863300000000E+01,8.36718900000000E+01,8.22742900000000E+01,,,
QAT,,,,,,,,,,,,,,,,,,,,,,,,,,,,,,,8.94261335117956E+01,,9.84164117329498E+01,9.63769378157119E+01,,7.82809295967193E+01,9.20539730134934E+01,,,,,,,,,8.54145400000000E+01,,9.55011500000000E+01,,,,
RWA,,,,,,,,,,,,,,,,,,,,,,,,,,,,,,,5.14731887252297E+01,5.03360287849747E+01,4.76668856567310E+01,,,,,,,,4.17322900000000E+01,4.12480300000000E+01,4.66470200000000E+01,4.59160600000000E+01,,,,,4.85136500000000E+01,4.71933300000000E+01,,
SAS,,,,,,,,,,,,,,,,,,,,,,,,,,,,,,,,,,,,5.73327975130174E+01,,,5.96867744956407E+01,6.19844749947747E+01,5.86797486258381E+01,6.18224841743605E+01,,,,6.61504186776908E+01,6.89251385883756E+01,,,,,
SAU,,,,,,,,,,,,,,,,,,,,,,,,,,,,,,,7.27798765604840E+01,7.79678571104111E+01,8.03148185281736E+01,7.40817761926391E+01,7.86498712429912E+01,,8.38786149683101E+01,9.56521367253321E+01,,,,,,,,,,9.38825500000000E+01,,,,
SDN,,,,,,,,,,,,,,,,,,,,,,,,,,,,,,,,,,,,,,,,8.41208600000000E+01,,7.81940500000000E+01,8.42523300000000E+01,,,,7.04835200000000E+01,9.36743700000000E+01,8.59785700000000E+01,,,
SEN,,,,,,,,,,,,,,,,,,,,,,,,,,,,,,,7.28027205027768E+01,,7.37045845977204E+01,,6.77853763472121E+01,,5.41750331097538E+01,5.43166838879250E+01,,,7.23397100000000E+01,6.75143200000000E+01,8.00444000000000E+01,7.82025600000000E+01,7.30222200000000E+01,6.50515300000000E+01,,7.09370600000000E+01,6.98311000000000E+01,7.36738500000000E+01,,
SGP,,,,,,,,,,,,,,,,,,,,,,,,,,,,,,,,,,,,,,,,,,,,,,,,9.91745900000000E+01,9.93373600000000E+01,,,
SLB,,,,,,,,,,,,,,,,,,,,,,,,,,,,,,,7.62440552140127E+01,6.91791954490048E+01,6.30629853321833E+01,6.04725415070245E+01,6.07205404053041E+01,,,,,,,,,,,,,,,,,
SLV,,,,,,,,,,,,,,,,,,,,,,,,,,,,,,,,5.58423037997979E+01,5.21370969854803E+01,5.81803815329046E+01,,6.39655919372495E+01,5.32500593683212E+01,,6.12999389730269E+01,6.50637700000000E+01,6.70335000000000E+01,6.88801500000000E+01,7.44727200000000E+01,7.28168800000000E+01,6.94014400000000E+01,7.20872200000000E+01,7.36630700000000E+01,7.97853600000000E+01,8.02476000000000E+01,,,
SMR,,,,,,,,,,,,,,,,,,,,,,,,,,,,,,,1.00000000000000E+02,,,,,,,8.05243445692887E+01,,,,,,,,,,,,,,
SSA,,,,,,,,,,,,,,,,,,,,,,,,,,,,,,,,,,,,,,,,,,,,,,,,,6.79375080436093E+01,,,
SSF,,,,,,,,,,,,,,,,,,,,,,,,,,,,,,,,,,,,,,,,,,,,,,,,,6.79375080436093E+01,,,
STP,,,,,,,,,,,,,,,,,,,,,,,,,,,,,,,,,,,,,,,,,,6.22792000000000E+01,6.58746600000000E+01,6.72315800000000E+01,7.70101900000000E+01,,,7.91854700000000E+01,7.73472100000000E+01,,,
SUR,,,,,,,,,,,,,,,,,,,,,,,,,,,,,,,,,,,,,,,,,,,,,,8.09356500000000E+01,7.98105300000000E+01,,9.40604900000000E+01,,,
SVN,,,,,,,,,,,,,,,,,,,,,,,,,,,,,,,,,,,,,,,,,,,,,,,,,9.95653400000000E+01,,,
SWE,,,,,,,,,,,,,,,,,,,,,,,,,,,,,,,9.89718841796058E+01,9.91657488909688E+01,9.95731761413106E+01,9.56882318334508E+01,9.22418616596806E+01,8.88069368440534E+01,8.38745926508600E+01,8.55749970772772E+01,,9.84332000000000E+01,9.93010100000000E+01,9.87892300000000E+01,9.89978800000000E+01,9.90243300000000E+01,9.90913300000000E+01,9.89618700000000E+01,9.94050200000000E+01,9.97287200000000E+01,9.90403200000000E+01,,,
SWZ,,,,,,,,,,,,,,,,,,,,,,,,,,,,,,,5.99637238829399E+01,6.12182116488929E+01,6.29144589956348E+01,6.94985068479048E+01,7.08007486130609E+01,7.12313638873554E+01,7.31630940082648E+01,7.58147679735388E+01,8.41146317007349E+01,8.00477300000000E+01,7.39839500000000E+01,7.33043400000000E+01,7.68787900000000E+01,9.32355800000000E+01,8.42522400000000E+01,9.39732100000000E+01,8.03304600000000E+01,,,9.62251200000000E+01,,
SYC,,,,,,,,,,,,,,,,,,,,,,,,,,,,,,,,9.07683803206195E+01,9.66767371601212E+01,,,,,,9.67316456695742E+01,9.63461200000000E+01,9.09532700000000E+01,9.77967900000000E+01,9.83230300000000E+01,8.83001600000000E+01,,,,,9.49298000000000E+01,,,
SYR,,,,,,,,,,,,,,,,,,,,,,,,,,,,,,,8.21645154382278E+01,8.57758883761110E+01,7.98023111320740E+01,8.46889385439234E+01,8.72104543630509E+01,8.93935148164099E+01,8.80414091981268E+01,9.26099901217859E+01,,9.17723600000000E+01,9.20764300000000E+01,9.23779700000000E+01,,,,,,,,,,
TCA,,,,,,,,,,,,,,,,,,,,,,,,,,,,,,,,,,,,,,7.46428571428574E+01,,,,,4.58753500000000E+01,,,,,,,,,
TCD,,,,,,,,,,,,,,,,,,,,,,,,,,,,,,,3.56087547044615E+01,,,,3.18642248017674E+01,2.83132480633530E+01,2.58124706158911E+01,2.52270688849309E+01,,5.58869300000000E+01,5.48503000000000E+01,6.15424000000000E+01,5.35207200000000E+01,,3.34056200000000E+01,3.79500500000000E+01,,,,3.19622600000000E+01,,
TGO,,,,,,,,,,,,,,,,,,,,,,,,,,,,,,,4.45200019682135E+01,4.79342548340635E+01,5.09906255902502E+01,,3.92022191190023E+01,4.33960724985912E+01,4.22863212441597E+01,,,5.24820300000000E+01,7.47403400000000E+01,,6.92649800000000E+01,7.67742500000000E+01,7.52474600000000E+01,8.46517800000000E+01,,7.57142300000000E+01,,7.76691000000000E+01,,
TMP,,,,,,,,,,,,,,,,,,,,,,,,,,,,,,,,,,,,,,,,,,,,,,,,,7.94592900000000E+01,7.05252200000000E+01,,
TON,,,,,,,,,,,,,,,,,,,,,,,,,,,,,,,9.36624907885044E+01,8.94644732236616E+01,,7.85581568190267E+01,,,,,,,9.24755500000000E+01,,,,8.90545700000000E+01,9.15549800000000E+01,,,,,,
TTO,,,,,,,,,,,,,,,,,,,,,,,,,,,,,,,,9.84483152049899E+01,,,,,,,,9.63300700000000E+01,,,,,8.99429000000000E+01,,,9.47027000000000E+01,9.61443800000000E+01,,,
TUN,,,,,,,,,,,,,,,,,,,,,,,,,,,,,,,7.99751196715421E+01,7.30732657545378E+01,7.59397134213725E+01,7.86743057574882E+01,9.14210163255924E+01,9.71063078533430E+01,,9.90403478332530E+01,,9.21607600000000E+01,9.31024500000000E+01,9.54565300000000E+01,9.61536900000000E+01,9.64947500000000E+01,9.68361600000000E+01,9.67288400000000E+01,9.64259100000000E+01,9.60750200000000E+01,9.60895700000000E+01,,,
TUR,,,,,,,,,,,,,,,,,,,,,,,,,,,,,,,9.25985372934349E+01,,,9.92537664914974E+01,9.90626602345713E+01,9.96672526061820E+01,,,,,,,,,9.66129200000000E+01,9.78421700000000E+01,9.75021100000000E+01,9.42315200000000E+01,9.18130700000000E+01,,,
TUV,,,,,,,,,,,,,,,,,,,,,,,,,,,,,,,,,,7.46212121212124E+01,,,,,,,7.41780400723000E+01,6.99128333462000E+01,,,,,,,,,,
TZA,,,,,,,,,,,,,,,,,,,,,,,,,,,,,,,,,7.00912014666814E+01,7.48530138205189E+01,,,,,8.08942185329873E+01,,8.13610500000000E+01,9.65420300000000E+01,,8.77673600000000E+01,8.39535300000000E+01,8.49689700000000E+01,8.68568600000000E+01,,8.08660700000000E+01,8.98206100000000E+01,,
UGA,,,,,,,,,,,,,,,,,,,,,,,,,,,,,,,,,,,,,,,,,5.67083500000000E+01,6.32933700000000E+01,,,4.86670000000000E+01,,5.79613000000000E+01,,6.27107900000000E+01,5.70765900000000E+01,,
UMC,,,,,,,,,,,,,,,,,,,,,,,,,,,,,,,8.46024653549578E+01,8.73174448014844E+01,8.55866671865146E+01,8.63262781357165E+01,8.43021681431234E+01,7.81866494425678E+01,7.81927582805455E+01,8.42270404010039E+01,,,,,,,,,,,,,,
URY,,,,,,,,,,,,,,,,,,,,,,,,,,,,,,,9.83030709922767E+01,9.90396111405116E+01,9.65324600269702E+01,9.34522801272282E+01,9.22147777672930E+01,9.12950581127632E+01,9.32591924287901E+01,,8.83101644823404E+01,,8.85656300000000E+01,9.28949100000000E+01,8.84537600000000E+01,9.11658400000000E+01,9.48708100000000E+01,9.31352700000000E+01,9.43592100000000E+01,9.45199100000000E+01,9.53748200000000E+01,,,
USA,,,,,,,,,,,,,,,,,,,,,,,,,,,,,,,,,,,,,,,8.99280144849912E+01,,,9.07819400000000E+01,,9.18251800000000E+01,9.35230300000000E+01,9.36967200000000E+01,,,,,,
VCT,,,,,,,,,,,,,,,,,,,,,,,,,,,,,,,,,,,,,,,,,,,,9.19116900000000E+01,,,,,,,,
VEN,,,,,,,,,,,,,,,,,,,,,,,,,,,,,,,7.28498762342576E+01,7.42254669627042E+01,7.58203739601355E+01,7.83508634685559E+01,,,7.93982730706965E+01,7.93953551704809E+01,,9.07970700000000E+01,9.01366800000000E+01,,8.42077100000000E+01,9.10346000000000E+01,9.14297400000000E+01,9.20260800000000E+01,9.77313400000000E+01,8.43350400000000E+01,9.40696400000000E+01,9.38108800000000E+01,,
VNM,,,,,,,,,,,,,,,,,,,,,,,,,,,,,,,,,,,,,,,,8.28194700000000E+01,8.57421400000000E+01,8.89738100000000E+01,8.53807500000000E+01,,,,,,,,,
VUT,,,,,,,,,,,,,,,,,,,,,,,,,,,,,,,,,7.01601164483264E+01,,,,,,,7.20842800000000E+01,,,,,,,8.23214900000000E+01,8.22424100000000E+01,7.61102900000000E+01,,,
WSM,,,,,,,,,,,,,,,,,,,,,,,,,,,,,,,,,,,,8.65918367346942E+01,8.92577319587635E+01,8.23676612127048E+01,8.26140499053353E+01,9.10668100000000E+01,9.19779400000000E+01,,,,,,,,,9.63901600000000E+01,,
YEM,,,,,,,,,,,,,,,,,,,,,,,,,,,,,,,,,,,,,,,,,,7.44844700000000E+01,7.59059800000000E+01,7.31699000000000E+01,6.62697100000000E+01,,,,,,,
ZAF,,,,,,,,,,,,,,,,,,,,,,,,,,,,,,,,6.39964542825622E+01,,,,,,,7.85904123922644E+01,6.47592400000000E+01,,8.59743600000000E+01,8.41285400000000E+01,8.24504200000000E+01,,,,,,,,
ZAR,,,,,,,,,,,,,,,,,,,,,,,,,,,,,,,,6.09572519578413E+01,5.15331800003401E+01,5.51925391037651E+01,5.50830594039313E+01,,,,,,,,,,,,,7.76392200000000E+01,,,,
ZMB,,,,,,,,,,,,,,,,,,,,,,,,,,,,,,,,,,,,,,,7.82000054980890E+01,8.05950400000000E+01,,,,,,8.76465200000000E+01,8.84860000000000E+01,8.90728300000000E+01,7.09723200000000E+01,,,
ZWE,,,,,,,,,,,,,,,,,,,,,,,,,,,,,,,6.87337374029410E+01,7.10780085480856E+01,7.32953091294654E+01,,,,,,8.56951822418577E+01,,,,,,,,,,,,,
