"Country Code",1960,1961,1962,1963,1964,1965,1966,1967,1968,1969,1970,1971,1972,1973,1974,1975,1976,1977,1978,1979,1980,1981,1982,1983,1984,1985,1986,1987,1988,1989,1990,1991,1992,1993,1994,1995,1996,1997,1998,1999,2000,2001,2002,2003,2004,2005,2006,2007,2008,2009,2010,2011ABW,,,,,,,,,,,,,,,,,,,,,,,,,,,,,,,,,,,,,,,,9.60567200000000E+01,,9.87951800000000E+01,9.59176500000000E+01,9.50455000000000E+01,9.55102200000000E+01,,9.51916000000000E+01,8.83397900000000E+01,9.94350300000000E+01,,,
ADO,,,,,,,,,,,,,,,,,,,,,,,,,,,,,,,,,,,,,,,,,,,,,,,9.55496300000000E+01,9.47756100000000E+01,9.46811800000000E+01,9.61526100000000E+01,,
AFG,,,,,,,,,,,,,,,,,,,,,,,,,,,,,,,,,,8.93176769279601E+01,,,,,,,,,,,,,,,,,,
AGO,,,,,,,,,,,,,,,,,,,,,,,,,,,,,,,,,,,,,,,,,,,,,,,,,3.53558300000000E+01,3.65802000000000E+01,,
ALB,,,,,,,,,,,,,,,,,,,,,,,,,,,,,,,,,,,,,,,,,,,,,,,,,9.27533200000000E+01,9.54425600000000E+01,,
ARE,,,,,,,,,,,,,,,,,,,,,,,,,,,,,,,7.24312409197939E+01,7.98651685393262E+01,7.95551257253388E+01,8.08096937817025E+01,8.43092639888561E+01,8.07279760858098E+01,8.51780428738008E+01,9.02611610260234E+01,,9.16495500000000E+01,9.51821000000000E+01,9.56952000000000E+01,9.24875300000000E+01,9.47961900000000E+01,9.55428700000000E+01,9.88541000000000E+01,9.66822100000000E+01,,,,,
ARG,,,,,,,,,,,,,,,,,,,,,,,,,,,,,,,,,,,,,8.58608314379453E+01,8.81074617387768E+01,9.42572457725004E+01,9.22707300000000E+01,9.48872500000000E+01,9.33615000000000E+01,8.50812900000000E+01,9.74726300000000E+01,9.10238000000000E+01,9.67145800000000E+01,9.78999000000000E+01,9.94277800000000E+01,,,,
ATG,,,,,,,,,,,,,,,,,,,,,,,,,,,,,,,,,7.09342560553636E+01,,,,,,,,,,,,,,,9.52008800000000E+01,,,,
AUS,,,,,,,,,,,,,,,,,,,,,,,,,,,,,,,,9.94593008503924E+01,,,,,,,,,,,,,,,,,,,,
BDI,,,,,,,,,,,,,,,,,,,,,,,,,,,,,,,5.50775301863730E+01,6.10575157080719E+01,7.55211342726346E+01,,,,,,,,5.82897400000000E+01,5.95702000000000E+01,7.06562400000000E+01,6.33287100000000E+01,6.98639300000000E+01,,7.08244100000000E+01,6.78531200000000E+01,,6.57434100000000E+01,,
BEL,,,,,,,,,,,,,,,,,,,,,,,,,,,,,,,,8.99733033071216E+01,,,,,,,,,,,,,,9.69451700000000E+01,9.70674600000000E+01,9.20213200000000E+01,9.74914200000000E+01,,,
BEN,,,,,,,,,,,,,,,,,,,,,,,,,,,,,,,2.59711461394605E+01,3.10174514323347E+01,3.26566835829107E+01,3.35482013113594E+01,3.77245632489741E+01,3.83105769596472E+01,3.69813250568714E+01,3.48223459232340E+01,,,7.77160900000000E+01,6.77807800000000E+01,6.58107300000000E+01,6.95889100000000E+01,,,,,,5.89384300000000E+01,,
BFA,,,,,,,,,,,,,,,,,,,,,,,,,,,,,,,5.41808093031495E+01,5.80774215360345E+01,6.59126591847418E+01,4.93165746270524E+01,5.24897247477895E+01,,5.13971759997038E+01,,,7.04242000000000E+01,7.13620600000000E+01,6.78553300000000E+01,7.50549100000000E+01,7.79239000000000E+01,7.60889300000000E+01,7.39217700000000E+01,8.20707000000000E+01,8.14811700000000E+01,8.26163200000000E+01,7.75999600000000E+01,,
BGD,,,,,,,,,,,,,,,,,,,,,,,,,,,,,,,,,,,,,,,,,,,,,,,,,6.60710300000000E+01,,,
BHR,,,,,,,,,,,,,,,,,,,,,,,,,,,,,,,,8.70870870870875E+01,8.81939437635189E+01,8.72891463622428E+01,9.18822328114370E+01,9.21052631578951E+01,,,,9.68946900000000E+01,9.70354800000000E+01,9.77603600000000E+01,9.99189900000000E+01,9.92983400000000E+01,9.72118300000000E+01,,,,9.84478900000000E+01,,,
BHS,,,,,,,,,,,,,,,,,,,,,,,,,,,,,,,,,,,,,,,,,,,,,,8.81302300000000E+01,9.56361100000000E+01,9.30342600000000E+01,8.74181000000000E+01,,,
BIH,,,,,,,,,,,,,,,,,,,,,,,,,,,,,,,,,,,,,,,,,,,,,,,,,,7.29890900000000E+01,,
BLZ,,,,,,,,,,,,,,,,,,,,,,,,,,,,,,,,,6.28892291985710E+01,,,6.57389635316702E+01,6.31404958677687E+01,,,7.77948300000000E+01,,,,,,9.26188500000000E+01,8.76295300000000E+01,9.25147600000000E+01,9.61940300000000E+01,9.30867700000000E+01,,
BMU,,,,,,,,,,,,,,,,,,,,,,,,,,,,,,,,,,,,,,,,,,,9.63067800000000E+01,,,,,,,,,
BOL,,,,,,,,,,,,,,,,,,,,,,,,,,,,,,,5.07554780159101E+01,,,,,,,,7.83236360802592E+01,8.10324900000000E+01,7.70963800000000E+01,8.36525700000000E+01,8.09359800000000E+01,8.46664000000000E+01,,,8.32649000000000E+01,8.46124100000000E+01,,,,
BRB,,,,,,,,,,,,,,,,,,,,,,,,,,,,,,,,,,,,,,,,9.04278900000000E+01,,9.51493700000000E+01,9.49858700000000E+01,9.77058600000000E+01,9.96738000000000E+01,9.36200500000000E+01,,,8.96874600000000E+01,,,
BRN,,,,,,,,,,,,,,,,,,,,,,,,,,,,,,,,,,,,,,,,,,,,9.62855300000000E+01,9.87386900000000E+01,9.82687900000000E+01,9.87245300000000E+01,9.73588600000000E+01,,9.93475700000000E+01,,
BTN,,,,,,,,,,,,,,,,,,,,,,,,,,,,,,,,,,4.41552613865831E+01,6.38551165146912E+01,,,,8.88475379170162E+01,9.22377400000000E+01,9.32391600000000E+01,,,,,9.50354200000000E+01,,,9.85529000000000E+01,,,
BWA,,,,,,,,,,,,,,,,,,,,,,,,,,,,,,,7.83557625948934E+01,8.06633240177548E+01,8.69831735713995E+01,9.22191448848888E+01,9.15121742844941E+01,8.92862962359465E+01,8.83151180270593E+01,,9.10942366585470E+01,8.89810700000000E+01,9.18525000000000E+01,8.99248400000000E+01,9.17795500000000E+01,9.20150000000000E+01,9.32595300000000E+01,8.92889000000000E+01,,,,,,
CAF,,,,,,,,,,,,,,,,,,,,,,,,,,,,,,,3.71381620528380E+01,3.91894361692407E+01,3.57171656083058E+01,,,,,,,,,,,,,,,,4.84660900000000E+01,5.02169600000000E+01,,
CAN,,,,,,,,,,,,,,,,,,,,,,,,,,,,,,,,,,,,,,,9.92700814575351E+01,9.94869000000000E+01,,,,,,,,,,,,
CHE,,,,,,,,,,,,,,,,,,,,,,,,,,,,,,,6.71298134180236E+01,7.16672552908259E+01,7.21448837270972E+01,,8.04619703930581E+01,,8.81163696162127E+01,,,,9.64721000000000E+01,,,,,,,,,,,
CHL,,,,,,,,,,,,,,,,,,,,,,,,,,,,,,,,,,,,,,,1.00000000000000E+02,9.81217200000000E+01,,,9.67610100000000E+01,9.76920900000000E+01,,,9.66455000000000E+01,,,,,
CHN,,,,,,,,,,,,,,,,,,,,,,,,,,,,,,,,,,,,,7.58207926816455E+01,8.13925073259582E+01,,,,,,,,,,,,,,
CIV,,,,,,,,,,,,,,,,,,,,,,,,,,,,,,,5.71406677837267E+01,6.05673568163488E+01,6.30785100045263E+01,5.55251930959488E+01,5.65343693126142E+01,5.37470308788603E+01,5.46963020354142E+01,5.68193370295361E+01,,6.49680800000000E+01,8.72586700000000E+01,,,,,,7.31178300000000E+01,,6.60399600000000E+01,,,
CMR,,,,,,,,,,,,,,,,,,,,,,,,,,,,,,,6.71026090040569E+01,6.60198701624766E+01,,,,,,,,,,5.13265900000000E+01,6.43224600000000E+01,,,,8.76670300000000E+01,6.32248700000000E+01,7.92466600000000E+01,7.65432600000000E+01,,
COG,,,,,,,,,,,,,,,,,,,,,,,,,,,,,,,7.13599945911232E+01,6.76261137425065E+01,6.72878622040442E+01,6.60435017077121E+01,6.30387899199391E+01,,6.95113143957634E+01,,,,,,6.85163400000000E+01,,,,,7.93477100000000E+01,,,,
COL,,,,,,,,,,,,,,,,,,,,,,,,,,,,,,,6.00018877479715E+01,5.93383623732881E+01,6.17781755667019E+01,5.88601759879263E+01,6.37965316708101E+01,6.28788474406889E+01,6.08015046872202E+01,,7.21963409060400E+01,6.93014900000000E+01,6.30370000000000E+01,7.28363400000000E+01,,,8.36438500000000E+01,8.47549500000000E+01,8.92309500000000E+01,,,8.51106000000000E+01,,
COM,,,,,,,,,,,,,,,,,,,,,,,,,,,,,,,,,4.23281330361736E+01,,,,,,,,,,,,8.26446300000000E+01,,,,,,,
CPV,,,,,,,,,,,,,,,,,,,,,,,,,,,,,,,5.33530743772865E+01,,,,6.27051582649474E+01,,,,,,8.96712200000000E+01,9.44591300000000E+01,8.72939400000000E+01,9.44288500000000E+01,,9.28719700000000E+01,,9.07972500000000E+01,,,,
CRI,,,,,,,,,,,,,,,,,,,,,,,,,,,,,,,,7.26694248868889E+01,7.22772047207512E+01,7.68939124665296E+01,7.96387002909800E+01,8.47885631907744E+01,8.47126598285800E+01,,,9.29586600000000E+01,9.45935800000000E+01,9.30716200000000E+01,9.11060200000000E+01,9.10322000000000E+01,8.96816200000000E+01,9.45534100000000E+01,8.91703500000000E+01,9.70943800000000E+01,9.67570100000000E+01,9.21633700000000E+01,,
CUB,,,,,,,,,,,,,,,,,,,,,,,,,,,,,,,,,,,,,,,,7.90722800000000E+01,9.68702200000000E+01,9.78083000000000E+01,9.72489400000000E+01,9.66326400000000E+01,9.78443300000000E+01,9.79989600000000E+01,9.71364000000000E+01,9.70254600000000E+01,9.61642600000000E+01,9.65653600000000E+01,,
CYM,,,,,,,,,,,,,,,,,,,,,,,,,,,,,,,,,,,,,,,,,9.02601000000000E+01,,,,7.81669400000000E+01,,,,,,,
CYP,,,,,,,,,,,,,,,,,,,,,,,,,,,,,,,9.28585178055826E+01,9.73720608575382E+01,,9.92788509036812E+01,,9.84781462919490E+01,1.00000000000000E+02,9.93566698202462E+01,,9.63120700000000E+01,9.92733700000000E+01,9.82928700000000E+01,9.87243100000000E+01,9.82941600000000E+01,9.77137500000000E+01,9.96594700000000E+01,9.87766600000000E+01,9.67720800000000E+01,,,,
CZE,,,,,,,,,,,,,,,,,,,,,,,,,,,,,,,,,,,,,,,,9.86169200000000E+01,9.86780400000000E+01,9.89185800000000E+01,9.81255500000000E+01,9.85865900000000E+01,9.86810600000000E+01,9.92003100000000E+01,9.85425600000000E+01,9.88530100000000E+01,9.97981400000000E+01,,,
DJI,,,,,,,,,,,,,,,,,,,,,,,,,,,,,,,,,,,,,,,,,,,,,,,,,6.44737200000000E+01,,,
DMA,,,,,,,,,,,,,,,,,,,,,,,,,,,,,,,,,,,,,,,,,8.49240800000000E+01,8.42525300000000E+01,8.71796100000000E+01,8.15933300000000E+01,9.05391300000000E+01,,8.74556500000000E+01,8.95163900000000E+01,,9.37238300000000E+01,,
DNK,,,,,,,,,,,,,,,,,,,,,,,,,,,,,,,,,,9.88306285371614E+01,,9.14579796264861E+01,,,,9.99116300000000E+01,9.99773500000000E+01,,,,9.23767100000000E+01,9.97578600000000E+01,9.87818300000000E+01,,9.95862000000000E+01,,,
DOM,,,,,,,,,,,,,,,,,,,,,,,,,,,,,,,,,,,,,,,,7.90616100000000E+01,8.48223300000000E+01,,,,,7.13839200000000E+01,,,,,,
DZA,,,,,,,,,,,,,,,,,,,,,,,,,,,,,,,8.13072444818034E+01,7.89820686670936E+01,7.76894682491489E+01,8.24076068197039E+01,8.51949950030909E+01,9.36421974437612E+01,9.09677005753025E+01,9.06403523153203E+01,,9.61065400000000E+01,9.73965400000000E+01,9.72617200000000E+01,9.74750700000000E+01,9.73912400000000E+01,9.71287800000000E+01,9.56178100000000E+01,9.74880600000000E+01,9.72701800000000E+01,9.50816800000000E+01,9.71044400000000E+01,,
EAP,,,,,,,,,,,,,,,,,,,,,,,,,,,,,,,,,,,,,7.88665058426228E+01,8.18470584467393E+01,,,,,,,,,,,,,,
EAS,,,,,,,,,,,,,,,,,,,,,,,,,,,,,,,,,,,,,7.88665058426228E+01,8.18470584467393E+01,,,,,,,,,,,,,,
ECU,,,,,,,,,,,,,,,,,,,,,,,,,,,,,,,,,,,7.15157627197689E+01,7.09697454152316E+01,7.17303350441090E+01,7.32232138941276E+01,7.84192680909152E+01,7.72356900000000E+01,7.93739600000000E+01,7.86329100000000E+01,7.49907900000000E+01,7.73301400000000E+01,7.73400900000000E+01,7.80028500000000E+01,8.31072300000000E+01,,,,,
ERI,,,,,,,,,,,,,,,,,,,,,,,,,,,,,,,,,,,3.49147148043166E+01,4.44748087051577E+01,5.76143999215266E+01,7.12290352154454E+01,,9.14500000000000E+01,6.01501000000000E+01,,8.20799600000000E+01,7.34141700000000E+01,7.41343600000000E+01,6.95937600000000E+01,6.09776800000000E+01,6.86332200000000E+01,7.19647200000000E+01,6.68827300000000E+01,,
ESP,,,,,,,,,,,,,,,,,,,,,,,,,,,,,,,,,,,,,,,,,,,,9.98191200000000E+01,,9.92837900000000E+01,1.00000000000000E+02,,9.99977400000000E+01,,,
EST,,,,,,,,,,,,,,,,,,,,,,,,,,,,,,,,,,,,9.27908774642447E+01,8.77992844693150E+01,,,9.94584500000000E+01,9.82855400000000E+01,9.90501700000000E+01,9.88066400000000E+01,9.86310000000000E+01,9.90385700000000E+01,9.69934600000000E+01,9.78640300000000E+01,9.77236200000000E+01,9.88256000000000E+01,,,
ETH,,,,,,,,,,,,,,,,,,,,,,,,,,,,,,,,,,,2.91470417674433E+01,2.48580493585390E+01,2.27719394022111E+01,2.17231583653478E+01,,5.88336600000000E+01,6.57980800000000E+01,5.81114800000000E+01,5.21777700000000E+01,5.39514100000000E+01,6.94619500000000E+01,,6.53408700000000E+01,5.25293000000000E+01,4.88123300000000E+01,5.09162100000000E+01,,
FIN,,,,,,,,,,,,,,,,,,,,,,,,,,,,,,,9.76966117500780E+01,9.68814203796269E+01,9.71406323002650E+01,,,,,,1.00000000000000E+02,9.93247700000000E+01,1.00000000000000E+02,9.95979300000000E+01,9.99585800000000E+01,9.98477400000000E+01,1.00000000000000E+02,1.00000000000000E+02,9.95982400000000E+01,9.99959400000000E+01,9.96558600000000E+01,,,
FJI,,,,,,,,,,,,,,,,,,,,,,,,,,,,,,,,,,,,,,,,8.56725100000000E+01,9.25441300000000E+01,9.14114700000000E+01,9.40649700000000E+01,9.47060400000000E+01,,,,,9.22230500000000E+01,,,
FRA,,,,,,,,,,,,,,,,,,,,,,,,,,,,,,,,,,,,,,,,9.67628600000000E+01,,,,,,,,,,,,
GAB,,,,,,,,,,,,,,,,,,,,,,,,,,,,,,,,,4.62133867914024E+01,,,6.01372212692970E+01,5.52857505715015E+01,6.07823731638717E+01,,,,,,,,,,,,,,
GEO,,,,,,,,,,,,,,,,,,,,,,,,,,,,,,,,,,,,,,,,,,,,8.80131300000000E+01,9.03566100000000E+01,,,9.69890300000000E+01,9.54299800000000E+01,9.90453700000000E+01,,
GHA,,,,,,,,,,,,,,,,,,,,,,,,,,,,,,,,6.47361132148964E+01,6.72688725594910E+01,,,,,,,,6.51747400000000E+01,8.67631700000000E+01,6.47431300000000E+01,,,,,,7.65212800000000E+01,,,
GIN,,,,,,,,,,,,,,,,,,,,,,,,,,,,,,,4.18050121603048E+01,3.52363106391840E+01,4.11350508074378E+01,3.39532280134347E+01,3.41879326223228E+01,2.86794414384615E+01,,,,,,,,7.51483200000000E+01,7.33590700000000E+01,7.64814800000000E+01,7.76357800000000E+01,6.49618900000000E+01,6.42957000000000E+01,6.22282200000000E+01,,
GMB,,,,,,,,,,,,,,,,,,,,,,,,,,,,,,,,,5.33992094861663E+01,5.02583979328167E+01,5.04898422192433E+01,6.04079650315689E+01,4.67719021310184E+01,,,6.62181900000000E+01,7.50141000000000E+01,5.88072400000000E+01,,7.99191000000000E+01,6.97521800000000E+01,6.78482400000000E+01,,7.21419200000000E+01,9.03439200000000E+01,6.34344100000000E+01,,
GNQ,,,,,,,,,,,,,,,,,,,,,,,,,,,,,,,,,,,1.50898203592815E+01,,,,,,,3.54023300000000E+01,,,,,,,,7.21422500000000E+01,,
GRC,,,,,,,,,,,,,,,,,,,,,,,,,,,,,,,,,,,,,,,,,,,,,9.89858900000000E+01,9.91033100000000E+01,9.73861500000000E+01,,,,,
GTM,,,,,,,,,,,,,,,,,,,,,,,,,,,,,,,,,,,,,4.16039401542609E+01,,5.63889510320221E+01,5.78046700000000E+01,5.40048600000000E+01,6.36609200000000E+01,6.33353700000000E+01,6.73040200000000E+01,6.63486500000000E+01,6.76182800000000E+01,6.75066700000000E+01,6.98133800000000E+01,,,,
GUY,,,,,,,,,,,,,,,,,,,,,,,,,,,,,,,,,,,,8.72224120259654E+01,9.36367142306216E+01,9.16143332101962E+01,,,8.40237300000000E+01,,,,,,,,8.61669900000000E+01,,,
HKG,,,,,,,,,,,,,,,,,,,,,,,,,,,,,,,,,,,,,,,,,,,1.00000000000000E+02,9.97215100000000E+01,1.00000000000000E+02,9.99779500000000E+01,,9.95232000000000E+01,,,,
HND,,,,,,,,,,,,,,,,,,,,,,,,,,,,,,,,4.33477226188501E+01,,5.72175462917123E+01,,,,,,,,,,,6.36704400000000E+01,8.65571300000000E+01,,8.03368700000000E+01,7.96316000000000E+01,8.60759600000000E+01,,
HPC,,,,,,,,,,,,,,,,,,,,,,,,,,,,,,,,,,,,,,,,,,6.52921123008212E+01,,,,,,,,,,
HTI,,,,,,,,,,,,,,,,,,,,,,,,,,,,,,,4.56676358021651E+01,4.56689557963060E+01,,,,,,3.49203642841606E+01,,,,,,,,,,,,,,
IDN,,,,,,,,,,,,,,,,,,,,,,,,,,,,,,,,,,,,9.60362164256784E+01,9.64945453706938E+01,8.95404799368744E+01,,,9.90052300000000E+01,9.21794700000000E+01,8.98779900000000E+01,,8.48507400000000E+01,,,8.93197900000000E+01,,,,
IND,,,,,,,,,,,,,,,,,,,,,,,,,,,,,,,,,,,,5.41398521990684E+01,,,5.66873878391259E+01,6.04016100000000E+01,5.87137200000000E+01,6.35369800000000E+01,,,,6.52822700000000E+01,6.99702000000000E+01,,,,,
IRL,,,,,,,,,,,,,,,,,,,,,,,,,,,,,,,,,,,,,,,1.00000000000000E+02,9.63716600000000E+01,9.67396200000000E+01,9.86589700000000E+01,9.86466500000000E+01,9.97403200000000E+01,1.00000000000000E+02,9.99314200000000E+01,1.00000000000000E+02,9.96369700000000E+01,9.98834300000000E+01,,,
IRN,,,,,,,,,,,,,,,,,,,,,,,,,,,,,,,6.48655498897789E+01,6.69665911311618E+01,7.26004985574868E+01,8.39965953637120E+01,9.07527589061918E+01,,,9.74871672730679E+01,,,9.67449600000000E+01,9.37131000000000E+01,8.71606300000000E+01,,,,,,9.44852200000000E+01,,,
IRQ,,,,,,,,,,,,,,,,,,,,,,,,,,,,,,,,,,7.03150971067955E+01,,,,,,6.33414800000000E+01,,,,6.90639700000000E+01,,,,,,,,
ISL,,,,,,,,,,,,,,,,,,,,,,,,,,,,,,,,,,,,,,,1.00000000000000E+02,9.83934400000000E+01,1.00000000000000E+02,9.84227800000000E+01,9.81261000000000E+01,9.89220700000000E+01,9.82898000000000E+01,9.86703400000000E+01,,9.99365200000000E+01,9.85182400000000E+01,,,
ISR,,,,,,,,,,,,,,,,,,,,,,,,,,,,,,,,,,,,,,,,,,9.85971000000000E+01,9.84844700000000E+01,9.92107500000000E+01,9.93141300000000E+01,9.88665800000000E+01,,9.84801800000000E+01,9.78867100000000E+01,,,
ITA,,,,,,,,,,,,,,,,,,,,,,,,,,,,,,,,,,,,,,9.92973166208642E+01,,,9.61664200000000E+01,9.62881900000000E+01,,,9.95041000000000E+01,9.98754900000000E+01,9.99451500000000E+01,9.96919000000000E+01,9.99863700000000E+01,,,
JAM,,,,,,,,,,,,,,,,,,,,,,,,,,,,,,,9.44315964443160E+01,,,,,,,,,,8.90282300000000E+01,9.12506000000000E+01,,,9.00743200000000E+01,,,,8.99548100000000E+01,,,
JOR,,,,,,,,,,,,,,,,,,,,,,,,,,,,,,,9.24367825652972E+01,8.87063018370672E+01,9.21188727327244E+01,9.31115088206292E+01,,,9.47994472335444E+01,,,9.69998600000000E+01,,,9.74650800000000E+01,9.82225500000000E+01,9.55223900000000E+01,,9.55346500000000E+01,,,,,
JPN,,,,,,,,,,,,,,,,,,,,,,,,,,,,,,,,1.00000000000000E+02,,,,,,,,,,,,,,,,,9.99936600000000E+01,,,
KEN,,,,,,,,,,,,,,,,,,,,,,,,,,,,,,,,,,,,,,,,,,,,7.39614200000000E+01,8.27631300000000E+01,,,,,,,
KHM,,,,,,,,,,,,,,,,,,,,,,,,,,,,,,,,,,,,3.49124652025984E+01,,3.19997035201688E+01,5.64000701108263E+01,,6.28425100000000E+01,6.95752100000000E+01,6.23476600000000E+01,6.12945600000000E+01,6.48502400000000E+01,6.37720800000000E+01,6.35892500000000E+01,6.47995000000000E+01,,,,
KIR,,,,,,,,,,,,,,,,,,,,,,,,,,,,,,,,7.88930581613511E+01,8.29331046312181E+01,9.21338155515374E+01,,8.57023411371240E+01,,,,,,7.19393200000000E+01,,8.60651000000000E+01,,,,,,,,
KNA,,,,,,,,,,,,,,,,,,,,,,,,,,,,,,,,,9.52569169960478E+01,,,,,,,,,,,,,,,8.14083400000000E+01,,7.79022800000000E+01,,
KOR,,,,,,,,,,,,,,,,,,,,,,,,,,,,,,,9.24558135559565E+01,,,,,,,,9.97486836068122E+01,9.93328100000000E+01,9.92399500000000E+01,9.89555400000000E+01,9.97148400000000E+01,9.81592900000000E+01,9.89659700000000E+01,9.92821700000000E+01,9.79633400000000E+01,9.89392300000000E+01,9.90602700000000E+01,,,
KWT,,,,,,,,,,,,,,,,,,,,,,,,,,,,,,,,,,,,,,,,,,,,,,9.52570300000000E+01,9.82242800000000E+01,,,9.60209800000000E+01,,
LAO,,,,,,,,,,,,,,,,,,,,,,,,,,,,,,,,,3.21408364183063E+01,3.10576158663302E+01,3.41814900395140E+01,,4.12555123216604E+01,4.24421042247272E+01,,5.37610000000000E+01,5.40854200000000E+01,6.30167900000000E+01,6.49920600000000E+01,6.33821800000000E+01,6.25367800000000E+01,6.18310500000000E+01,6.12468200000000E+01,6.78275200000000E+01,,,,
LBN,,,,,,,,,,,,,,,,,,,,,,,,,,,,,,,,,,,,,,,,,,,,,,,9.85108200000000E+01,9.47186900000000E+01,9.60998400000000E+01,9.06964700000000E+01,,
LBR,,,,,,,,,,,,,,,,,,,,,,,,,,,,,,,,,,,,,,,,,,,,,,,,5.58174200000000E+01,,,,
LCA,,,,,,,,,,,,,,,,,,,,,,,,,,,,,,,,,,,,,,,,,,,,9.00987500000000E+01,9.55284500000000E+01,,,9.80370700000000E+01,9.59631200000000E+01,9.33131100000000E+01,,
LIE,,,,,,,,,,,,,,,,,,,,,,,,,,,,,,,,,,,,,,,,,,,,,,,,8.38264200000000E+01,,,,
LKA,,,,,,,,,,,,,,,,,,,,,,,,,,,,,,,9.56465895326014E+01,9.76009328841671E+01,,,,,,,,,,,,,,9.36044000000000E+01,9.89669700000000E+01,,,,,
LMC,,,,,,,,,,,,,,,,,,,,,,,,,,,,,,,,,,,,,,,,,6.70575214901303E+01,7.06153344837219E+01,,,,,,,,,,
LSO,,,,,,,,,,,,,,,,,,,,,,,,,,,,,,,7.96207644550830E+01,7.67638390796440E+01,7.78776467244570E+01,8.32225594529184E+01,7.67590544650265E+01,,8.12896405919666E+01,,7.60539928356664E+01,8.07377600000000E+01,7.44099000000000E+01,8.01107300000000E+01,8.42930900000000E+01,6.89455100000000E+01,8.12076900000000E+01,8.00239100000000E+01,6.94140700000000E+01,8.84323100000000E+01,8.05926800000000E+01,8.48190300000000E+01,,
LUX,,,,,,,,,,,,,,,,,,,,,,,,,,,,,,,,,,,,,,,,,9.41953200000000E+01,,,9.43296800000000E+01,9.57641100000000E+01,9.82574400000000E+01,9.87813400000000E+01,9.81155700000000E+01,,,,
LVA,,,,,,,,,,,,,,,,,,,,,,,,,,,,,,,,,,,,,,,,,,,,,,,9.51269700000000E+01,9.42959000000000E+01,9.61896600000000E+01,,,
MAC,,,,,,,,,,,,,,,,,,,,,,,,,,,,,,,7.40594059405944E+01,,6.78610804851161E+01,7.04936217415423E+01,,,,,,,,,9.96227100000000E+01,,,9.97472900000000E+01,,,9.95342800000000E+01,9.92505200000000E+01,,
MAR,,,,,,,,,,,,,,,,,,,,,,,,,,,,,,,6.69718187353224E+01,6.40719111649674E+01,6.33550828340653E+01,5.77807613262601E+01,5.73878858592472E+01,6.08315916398717E+01,6.35438955193130E+01,6.69992331470228E+01,,8.20437900000000E+01,8.09903900000000E+01,8.33983900000000E+01,8.04514700000000E+01,7.41340200000000E+01,7.70881900000000E+01,7.88272000000000E+01,8.32269200000000E+01,8.24677700000000E+01,8.45389800000000E+01,9.38718200000000E+01,9.29542800000000E+01,
MCO,,,,,,,,,,,,,,,,,,,,,,,,,,,,,,,,8.95348837209306E+01,9.13294797687866E+01,,,,,,,,,,,,,,,,,,,
MDG,,,,,,,,,,,,,,,,,,,,,,,,,,,,,,,3.50162480210746E+01,3.14623070996663E+01,3.23155448801632E+01,3.13930253580096E+01,2.79900161012653E+01,2.54462764694345E+01,2.72280126478512E+01,,,5.26605600000000E+01,3.72193300000000E+01,3.53494100000000E+01,5.54480000000000E+01,6.02642200000000E+01,4.29119200000000E+01,3.67656200000000E+01,4.32003800000000E+01,4.32916600000000E+01,5.04007000000000E+01,3.53794600000000E+01,,
MEX,,,,,,,,,,,,,,,,,,,,,,,,,,,,,,,,,,8.24001847057079E+01,8.62680702060661E+01,8.46738634759889E+01,8.67468894471616E+01,8.79567666241871E+01,8.97822960559294E+01,8.99976000000000E+01,8.92668800000000E+01,9.12684300000000E+01,9.35630600000000E+01,9.35006100000000E+01,9.44015400000000E+01,9.52023400000000E+01,9.54746600000000E+01,9.47527900000000E+01,9.67407600000000E+01,,,
MHL,,,,,,,,,,,,,,,,,,,,,,,,,,,,,,,,,,,,,,,,,,,6.86267500000000E+01,,,,7.43557200000000E+01,,8.18383900000000E+01,,,
MLI,,,,,,,,,,,,,,,,,,,,,,,,,,,,,,,,,4.21881651766710E+01,,3.54572150515607E+01,3.72806179834895E+01,4.76830569294930E+01,,,7.56925900000000E+01,,7.93023100000000E+01,7.06483700000000E+01,8.29957500000000E+01,8.33832800000000E+01,7.95688200000000E+01,,8.13773100000000E+01,8.51751800000000E+01,8.28951700000000E+01,,
MLT,,,,,,,,,,,,,,,,,,,,,,,,,,,,,,,,,,,9.32643865317569E+01,,,9.88045007032353E+01,,9.80006600000000E+01,9.83231600000000E+01,9.94207100000000E+01,9.82564500000000E+01,,,,,9.52709400000000E+01,8.05739600000000E+01,,,
MMR,,,,,,,,,,,,,,,,,,,,,,,,,,,,,,,,,,,,,,,,,5.51562700000000E+01,6.05388600000000E+01,6.56144700000000E+01,6.85580800000000E+01,,,,,6.92320500000000E+01,7.74507900000000E+01,,
MNG,,,,,,,,,,,,,,,,,,,,,,,,,,,,,,,,,,,,,,,,,,,,,,,8.26208200000000E+01,,,9.50944500000000E+01,,
MOZ,,,,,,,,,,,,,,,,,,,,,,,,,,,,,,,2.95908346972180E+01,3.41890363918089E+01,3.29294922056133E+01,2.97626800345304E+01,2.85072927476076E+01,2.64415894831194E+01,,,4.21163124775635E+01,3.76736800000000E+01,4.74018700000000E+01,4.53437100000000E+01,,,5.83850300000000E+01,5.51195000000000E+01,6.04035000000000E+01,5.79739000000000E+01,5.32757400000000E+01,5.11151600000000E+01,,
MRT,,,,,,,,,,,,,,,,,,,,,,,,,,,,,,,5.56784091883090E+01,4.70277043018239E+01,3.56768847542069E+01,3.29014106831511E+01,3.30104596346496E+01,3.68703675692029E+01,3.88749235681773E+01,4.45949850707936E+01,,,,5.58227300000000E+01,,,5.47332500000000E+01,5.61670600000000E+01,6.49377100000000E+01,5.12178300000000E+01,,7.45711300000000E+01,,
MUS,,,,,,,,,,,,,,,,,,,,,,,,,,,,,,,,,,,,8.81005316578061E+01,8.23975580427346E+01,8.98502965822431E+01,1.00000000000000E+02,9.85415700000000E+01,9.84363800000000E+01,9.81854900000000E+01,9.85223500000000E+01,9.86319500000000E+01,9.69799400000000E+01,9.99695500000000E+01,9.83879200000000E+01,9.68058300000000E+01,9.86098100000000E+01,9.71121700000000E+01,,
MWI,,,,,,,,,,,,,,,,,,,,,,,,,,,,,,,2.99513556048360E+01,3.28018492038153E+01,2.47419189515687E+01,2.46758606760716E+01,2.26928116630355E+01,1.96311791204015E+01,2.75151075872353E+01,,3.87694182348351E+01,4.21900800000000E+01,,3.81060200000000E+01,,,4.07490600000000E+01,4.44259900000000E+01,4.26766200000000E+01,6.58787200000000E+01,5.00655700000000E+01,6.22743200000000E+01,,
MYS,,,,,,,,,,,,,,,,,,,,,,,,,,,,,,,8.85677401182991E+01,8.66257968503591E+01,8.60945472947332E+01,8.86098115908687E+01,,,,,,,,8.72728200000000E+01,9.74756600000000E+01,9.96897500000000E+01,9.99704800000000E+01,9.19259900000000E+01,9.38322700000000E+01,9.68297000000000E+01,,,,
NAC,,,,,,,,,,,,,,,,,,,,,,,,,,,,,,,,,,,,,,,,,,9.10211200000000E+01,,9.27198100000000E+01,9.57101200000000E+01,9.48565300000000E+01,,,,,,
NAM,,,,,,,,,,,,,,,,,,,,,,,,,,,,,,,,,5.65512847738377E+01,,6.90108458207185E+01,,9.05233601123160E+01,,8.71075333042957E+01,9.30875400000000E+01,,,8.91767300000000E+01,8.41558000000000E+01,8.79685400000000E+01,8.96576800000000E+01,,,9.26899200000000E+01,,,
NER,,,,,,,,,,,,,,,,,,,,,,,,,,,,,,,5.82098424695344E+01,6.51483229394912E+01,6.55427116805075E+01,7.04587517227803E+01,,5.95973430117103E+01,5.50381008206333E+01,5.31202107923536E+01,,,7.12350700000000E+01,6.83945700000000E+01,6.71781200000000E+01,7.16655800000000E+01,,,6.91435400000000E+01,7.56718100000000E+01,6.63200200000000E+01,6.17506500000000E+01,,
NGA,,,,,,,,,,,,,,,,,,,,,,,,,,,,,,,,,,,,,,,,,,,8.04666300000000E+01,8.23967000000000E+01,8.12709500000000E+01,,,6.21751000000000E+01,7.66524700000000E+01,8.95621200000000E+01,,
NIC,,,,,,,,,,,,,,,,,,,,,,,,,,,,,,,,,,4.77181528456966E+01,4.88266322528914E+01,5.06937432215119E+01,,,5.92946226799997E+01,5.29196100000000E+01,5.82732700000000E+01,6.72778700000000E+01,5.87975400000000E+01,6.25374200000000E+01,5.63892100000000E+01,5.73374600000000E+01,5.10672100000000E+01,5.51638400000000E+01,,,,
NLD,,,,,,,,,,,,,,,,,,,,,,,,,,,,,,,,,,,,,,,,9.99164000000000E+01,9.99809000000000E+01,1.00000000000000E+02,9.99990500000000E+01,9.91603800000000E+01,9.98681300000000E+01,9.92788000000000E+01,9.98440000000000E+01,9.97569900000000E+01,1.00000000000000E+02,,,
NOR,,,,,,,,,,,,,,,,,,,,,,,,,,,,,,,1.00000000000000E+02,1.00000000000000E+02,9.86076787293661E+01,1.00000000000000E+02,,,,,9.97311816863500E+01,9.97139300000000E+01,9.92691900000000E+01,1.00000000000000E+02,9.88539300000000E+01,9.98506600000000E+01,9.98311200000000E+01,9.94461300000000E+01,9.93170800000000E+01,9.95917700000000E+01,9.91633300000000E+01,,,
NPL,,,,,,,,,,,,,,,,,,,,,,,,,,,,,,,,,3.22846653125823E+01,,,,,,,6.25118400000000E+01,5.19716300000000E+01,8.08124300000000E+01,6.74052000000000E+01,6.49583500000000E+01,6.70336100000000E+01,,,6.37369100000000E+01,,,,
NZL,,,,,,,,,,,,,,,,,,,,,,,,,,,,,,,9.73428260192967E+01,9.45142506895499E+01,9.44573643410859E+01,,,,,,,,,,,,,,,,,,,
OMN,,,,,,,,,,,,,,,,,,,,,,,,,,,,,,,7.77091873643601E+01,,,,8.10588527029267E+01,9.45846315881867E+01,9.81409127989355E+01,9.35843621399183E+01,,9.38115800000000E+01,9.67102800000000E+01,9.64217100000000E+01,9.80520400000000E+01,,,,,,,9.03598200000000E+01,,
PAK,,,,,,,,,,,,,,,,,,,,,,,,,,,,,,,,,,,,,,,,,,,,,7.23636900000000E+01,,,,5.95399400000000E+01,5.88606600000000E+01,,
PAN,,,,,,,,,,,,,,,,,,,,,,,,,,,,,,,,,,,,,,,8.60488565357238E+01,9.23875700000000E+01,8.92049200000000E+01,9.06459200000000E+01,8.41017000000000E+01,8.68060000000000E+01,8.56548300000000E+01,8.93387900000000E+01,9.04780700000000E+01,8.79152600000000E+01,9.07098700000000E+01,9.44241200000000E+01,,
PER,,,,,,,,,,,,,,,,,,,,,,,,,,,,,,,,,,,,7.32954234785941E+01,,,8.75571045007740E+01,8.66599000000000E+01,8.60798100000000E+01,8.27331000000000E+01,,8.97753600000000E+01,8.98949400000000E+01,8.85395700000000E+01,9.32895300000000E+01,8.77627800000000E+01,9.10814000000000E+01,,,
PHL,,,,,,,,,,,,,,,,,,,,,,,,,,,,,,,,,,,,,,,7.85236387567247E+01,,,8.30754200000000E+01,8.02332800000000E+01,7.96031200000000E+01,7.97654300000000E+01,7.81265500000000E+01,8.13518900000000E+01,8.24758900000000E+01,8.22256300000000E+01,,,
PNG,,,,,,,,,,,,,,,,,,,,,,,,,,,,,,,5.17816729531841E+01,5.21485098868519E+01,5.46497610539461E+01,5.41216974198292E+01,,5.60405586941722E+01,,,,,,,,,,,,,,,,
POL,,,,,,,,,,,,,,,,,,,,,,,,,,,,,,,,,,,,,,,,,,,,,,,,,9.80353800000000E+01,,,
PRY,,,,,,,,,,,,,,,,,,,,,,,,,,,,,,,5.61646184624180E+01,6.02735297424942E+01,6.72287549478754E+01,5.99033464471322E+01,6.08292410316169E+01,6.55415927280631E+01,6.68920880716189E+01,,7.90400975442789E+01,8.02307000000000E+01,7.83875800000000E+01,7.11722200000000E+01,8.29437000000000E+01,8.32637300000000E+01,8.97249000000000E+01,8.24464900000000E+01,8.44131400000000E+01,8.50068100000000E+01,8.38087200000000E+01,,,
QAT,,,,,,,,,,,,,,,,,,,,,,,,,,,,,,,8.66556836902804E+01,,9.85435168738902E+01,9.36550793115091E+01,,7.74376039933448E+01,9.21700223713650E+01,,,,,,,,,8.54819500000000E+01,,9.89380500000000E+01,,,,
RWA,,,,,,,,,,,,,,,,,,,,,,,,,,,,,,,5.23382891662162E+01,5.12523212955896E+01,4.80645133122018E+01,,,,,,,,4.27978100000000E+01,4.20297000000000E+01,4.83714100000000E+01,4.88456000000000E+01,,,,,5.05738300000000E+01,4.95200400000000E+01,,
SAS,,,,,,,,,,,,,,,,,,,,,,,,,,,,,,,,,,,,5.41398521990684E+01,,,5.67088910330917E+01,6.04791496339471E+01,5.85508387569790E+01,6.40185973454857E+01,,,,6.56617952771269E+01,7.03466141835498E+01,,,,,
SAU,,,,,,,,,,,,,,,,,,,,,,,,,,,,,,,7.16593927012725E+01,7.59205262519861E+01,7.54260068857812E+01,7.10104579957550E+01,7.65903492652196E+01,,8.45732057063775E+01,9.61461949303740E+01,,,,,,,,,,9.10397900000000E+01,,,,
SDN,,,,,,,,,,,,,,,,,,,,,,,,,,,,,,,,,,,,,,,,8.84383900000000E+01,,7.88230200000000E+01,8.83646500000000E+01,,,,6.90353500000000E+01,9.98024000000000E+01,,,,
SEN,,,,,,,,,,,,,,,,,,,,,,,,,,,,,,,6.64289242319475E+01,,6.82280643125028E+01,,6.36081230687886E+01,,4.88688041971663E+01,4.84755709987714E+01,,,6.93434600000000E+01,6.47713400000000E+01,7.72677400000000E+01,7.73882400000000E+01,7.14480000000000E+01,6.51348400000000E+01,,7.18558400000000E+01,7.07948500000000E+01,7.47003700000000E+01,,
SGP,,,,,,,,,,,,,,,,,,,,,,,,,,,,,,,,,,,,,,,,,,,,,,,,9.94593400000000E+01,9.94354300000000E+01,,,
SLB,,,,,,,,,,,,,,,,,,,,,,,,,,,,,,,,8.54118803460475E+01,,,,,,,,,,,,,,,,,,,,
SLV,,,,,,,,,,,,,,,,,,,,,,,,,,,,,,,,5.72857717898328E+01,5.36048532475524E+01,5.98684669191980E+01,,6.54561069151318E+01,5.47249871118692E+01,,6.22676293217529E+01,6.57145300000000E+01,6.99549900000000E+01,7.08201800000000E+01,7.60381000000000E+01,7.50201600000000E+01,7.18131700000000E+01,7.42651900000000E+01,7.56433900000000E+01,8.15872600000000E+01,8.17323300000000E+01,,,
SMR,,,,,,,,,,,,,,,,,,,,,,,,,,,,,,,,,,,,,,8.40909090909094E+01,,,,,,,,,,,,,,
SSA,,,,,,,,,,,,,,,,,,,,,,,,,,,,,,,,,,,,,,,,,,,,,,,,,6.68213789140609E+01,,,
SSF,,,,,,,,,,,,,,,,,,,,,,,,,,,,,,,,,,,,,,,,,,,,,,,,,6.68213789140609E+01,,,
STP,,,,,,,,,,,,,,,,,,,,,,,,,,,,,,,,,,,,,,,,,,6.53685600000000E+01,7.01201700000000E+01,6.78174200000000E+01,7.74282500000000E+01,,,7.56942000000000E+01,8.12111100000000E+01,,,
SUR,,,,,,,,,,,,,,,,,,,,,,,,,,,,,,,,,,,,,,,,,,,,,,8.51630500000000E+01,8.11934200000000E+01,,9.96221700000000E+01,,,
SVN,,,,,,,,,,,,,,,,,,,,,,,,,,,,,,,,,,,,,,,,,,,,,,,,,9.94309400000000E+01,,,
SWE,,,,,,,,,,,,,,,,,,,,,,,,,,,,,,,9.94607420189822E+01,,,9.68546086820619E+01,9.26915986304981E+01,8.89009125996467E+01,8.41527093596062E+01,8.55882961618673E+01,,9.83252200000000E+01,9.97049500000000E+01,9.88978900000000E+01,9.88613400000000E+01,9.94461900000000E+01,9.90796400000000E+01,9.94528000000000E+01,9.94182300000000E+01,9.98870900000000E+01,9.92806400000000E+01,,,
SWZ,,,,,,,,,,,,,,,,,,,,,,,,,,,,,,,6.35279259051364E+01,6.44102846901498E+01,6.56716417910451E+01,7.34535719318026E+01,7.42824184026605E+01,7.55827005612418E+01,7.63833992094867E+01,7.93435275507516E+01,8.71061055939013E+01,8.81292400000000E+01,7.92658900000000E+01,6.92345800000000E+01,7.99692000000000E+01,9.43112200000000E+01,8.73234300000000E+01,9.68809600000000E+01,8.59066200000000E+01,,,9.74186000000000E+01,,
SYC,,,,,,,,,,,,,,,,,,,,,,,,,,,,,,,,,,,,,,,,9.71127000000000E+01,9.16431900000000E+01,9.70820900000000E+01,9.96337000000000E+01,9.04652600000000E+01,,,,,9.32516700000000E+01,,,
SYR,,,,,,,,,,,,,,,,,,,,,,,,,,,,,,,8.12772911693899E+01,8.46663916067434E+01,7.78464684299042E+01,8.34005156523583E+01,8.66422142945955E+01,8.89988613050311E+01,8.81615421304415E+01,9.13361522607866E+01,,9.14972800000000E+01,9.19664600000000E+01,9.17796700000000E+01,,,,,,,,,,
TCA,,,,,,,,,,,,,,,,,,,,,,,,,,,,,,,,,,,,,,7.98561151079139E+01,,,,,5.14294500000000E+01,,,,,,,,,
TCD,,,,,,,,,,,,,,,,,,,,,,,,,,,,,,,2.23560330387571E+01,,,,2.33288492112023E+01,2.06949017826730E+01,1.89070066212078E+01,1.79472872288050E+01,,5.09259200000000E+01,4.92758600000000E+01,5.20839900000000E+01,4.93343700000000E+01,,3.23256600000000E+01,3.38621200000000E+01,,,,3.23103000000000E+01,,
TGO,,,,,,,,,,,,,,,,,,,,,,,,,,,,,,,3.63114201334793E+01,3.81254154664307E+01,4.11688547676375E+01,,3.08111882008991E+01,3.46957585507686E+01,3.38915755344289E+01,,,4.95107700000000E+01,6.92638600000000E+01,,6.47154100000000E+01,7.36021400000000E+01,7.07174200000000E+01,7.97063900000000E+01,,7.13318900000000E+01,,7.68320500000000E+01,,
TMP,,,,,,,,,,,,,,,,,,,,,,,,,,,,,,,,,,,,,,,,,,,,,,,,,8.28896100000000E+01,7.35634700000000E+01,,
TON,,,,,,,,,,,,,,,,,,,,,,,,,,,,,,,9.01845018450189E+01,,,7.55183413078153E+01,,,,,,,9.37296600000000E+01,,,,9.12411800000000E+01,9.15827900000000E+01,,,,,,
TTO,,,,,,,,,,,,,,,,,,,,,,,,,,,,,,,,9.91294800407816E+01,,,,,,,,9.66724300000000E+01,,,,,9.11539700000000E+01,,,9.52652500000000E+01,9.52446900000000E+01,,,
TUN,,,,,,,,,,,,,,,,,,,,,,,,,,,,,,,7.60858965301069E+01,6.99200664984877E+01,,7.68998833758431E+01,8.98969998948007E+01,9.53606806199078E+01,,9.80206773146100E+01,,9.28914400000000E+01,9.37761800000000E+01,9.56945600000000E+01,9.67071100000000E+01,9.66223400000000E+01,9.71889700000000E+01,9.70169400000000E+01,9.64067000000000E+01,9.63334200000000E+01,9.67505000000000E+01,,,
TUR,,,,,,,,,,,,,,,,,,,,,,,,,,,,,,,9.21466271013575E+01,,,9.84363630210009E+01,9.80211455841456E+01,9.95288983189729E+01,,,,,,,,,9.62746800000000E+01,9.81678300000000E+01,9.79907800000000E+01,9.44734600000000E+01,9.30271000000000E+01,,,
TUV,,,,,,,,,,,,,,,,,,,,,,,,,,,,,,,,,,7.96610169491528E+01,,,,,,,,,,,,,,,,,,
TZA,,,,,,,,,,,,,,,,,,,,,,,,,,,,,,,,,7.14309918768844E+01,7.70566540967187E+01,,,,,8.31931423051665E+01,,8.32583700000000E+01,9.66830900000000E+01,,8.96029000000000E+01,8.42508300000000E+01,8.64770000000000E+01,8.88668300000000E+01,,8.30329900000000E+01,9.27235000000000E+01,,
UGA,,,,,,,,,,,,,,,,,,,,,,,,,,,,,,,,,,,,,,,,,5.74838900000000E+01,6.40530000000000E+01,,,4.85178800000000E+01,,5.82690000000000E+01,,6.34142000000000E+01,5.83234000000000E+01,,
UMC,,,,,,,,,,,,,,,,,,,,,,,,,,,,,,,,,,,,,7.70933941810719E+01,8.32600097445894E+01,,,,,,,,,,,,,,
URY,,,,,,,,,,,,,,,,,,,,,,,,,,,,,,,,9.97779363946389E+01,9.89956280278865E+01,9.51123358977308E+01,9.35541077142528E+01,9.22476567459579E+01,9.35184494968322E+01,,9.11231599619501E+01,,8.97321400000000E+01,9.45267200000000E+01,9.04562300000000E+01,9.28275900000000E+01,9.61938300000000E+01,9.46219500000000E+01,9.61066100000000E+01,9.61866300000000E+01,9.69397300000000E+01,,,
USA,,,,,,,,,,,,,,,,,,,,,,,,,,,,,,,,,,,,,,,,,,9.10211200000000E+01,,9.27198100000000E+01,9.57101200000000E+01,9.48565300000000E+01,,,,,,
VEN,,,,,,,,,,,,,,,,,,,,,,,,,,,,,,,,7.95092073484726E+01,8.09776173075389E+01,8.33019695932880E+01,,,8.31438071862313E+01,8.30471796037988E+01,,9.43122600000000E+01,9.31218600000000E+01,,8.71061300000000E+01,9.36234500000000E+01,9.50410900000000E+01,9.44995200000000E+01,1.00000000000000E+02,8.65829400000000E+01,9.61510900000000E+01,9.50650800000000E+01,,
VNM,,,,,,,,,,,,,,,,,,,,,,,,,,,,,,,,,,,,,,,,8.61606300000000E+01,8.53661000000000E+01,8.79085200000000E+01,8.50283300000000E+01,,,,,,,,,
VUT,,,,,,,,,,,,,,,,,,,,,,,,,,,,,,,,,7.04249783174332E+01,,,,,,,7.18176000000000E+01,,,,,,,8.33201000000000E+01,8.65143300000000E+01,7.44625600000000E+01,,,
WSM,,,,,,,,,,,,,,,,,,,,,,,,,,,,,,,,,,,,,,,,9.35681300000000E+01,8.97057700000000E+01,,,,,,,,,9.88973100000000E+01,,
YEM,,,,,,,,,,,,,,,,,,,,,,,,,,,,,,,,,,,,,,,,,,6.96737800000000E+01,7.06575700000000E+01,6.68812100000000E+01,6.46840000000000E+01,,,,,,,
ZAF,,,,,,,,,,,,,,,,,,,,,,,,,,,,,,,,6.72903871561841E+01,,,,,,,8.02073356081525E+01,6.42501300000000E+01,,8.92187700000000E+01,8.67485000000000E+01,8.33878300000000E+01,,,,,,,,
ZAR,,,,,,,,,,,,,,,,,,,,,,,,,,,,,,,,5.46793363034984E+01,4.53246338319900E+01,4.95372820565806E+01,5.20796101524431E+01,,,,,,,,,,,,,7.67337500000000E+01,,,,
ZMB,,,,,,,,,,,,,,,,,,,,,,,,,,,,,,,,,,,,,,,7.30250156557213E+01,7.81031200000000E+01,,,,,,8.53943200000000E+01,8.34367000000000E+01,8.71785800000000E+01,7.04443500000000E+01,,,
ZWE,,,,,,,,,,,,,,,,,,,,,,,,,,,,,,,6.82654415729874E+01,7.21275244633566E+01,7.40392296085919E+01,,,,,,8.63387703013166E+01,,,,,,,,,,,,,
