"Country Code",1960,1961,1962,1963,1964,1965,1966,1967,1968,1969,1970,1971,1972,1973,1974,1975,1976,1977,1978,1979,1980,1981,1982,1983,1984,1985,1986,1987,1988,1989,1990,1991,1992,1993,1994,1995,1996,1997,1998,1999,2000,2001,2002,2003,2004,2005,2006,2007,2008,2009,2010,2011ABW,,,,,,,,,,,,,,,,,,,,,,,,,,,,,,,,,,,,,,,,1.55924100000000E+01,1.55617100000000E+01,1.50538600000000E+01,1.50490000000000E+01,1.49002200000000E+01,1.45574100000000E+01,1.41753000000000E+01,1.43610000000000E+01,1.44622500000000E+01,1.30991000000000E+01,1.34520800000000E+01,1.38007500000000E+01,
ADO,,,,,,,,,,,,,,,,1.73896103896104E+01,,,,,1.72362204724409E+01,,,,,,,,,,,,,,,,,,,,,,7.65770000000000E+00,7.25909000000000E+00,7.06522000000000E+00,7.75311000000000E+00,,,,,,
AFG,,,,,,,,,,,2.31376219876519E+01,,,,2.19675819984744E+01,,,,,,,,,,,,,,,,2.47879282218597E+01,2.50602666666667E+01,,,,2.80246448087432E+01,,,,,,,,,,,,3.15623600000000E+01,,,,
AGO,,,,,,,,,,,,1.51622968012585E+01,,,,,,,,,,,,,,,,,,,,,,,,,,,1.82694307008204E+01,1.82695900000000E+01,1.88340400000000E+01,1.89611800000000E+01,,,,,,,,,3.86726400000000E+01,
ALB,,,,,,,,,,,,,,,,,,,,,,,,,,,,,,,,,,,,,,,,,1.63455700000000E+01,1.69298900000000E+01,,1.76658500000000E+01,1.76000000000000E+01,,,,1.67941600000000E+01,1.47321000000000E+01,1.47774700000000E+01,
ARB,,,,,,,,,,,,2.17173503983519E+01,,,,2.35327287980580E+01,,,,,2.18732762224721E+01,,,,,2.12783687435622E+01,,,,,1.74029980046026E+01,1.75821033132445E+01,,,,,,,,,,,,2.01242407623053E+01,1.91532270589898E+01,,,,,,,
ARE,,,,,,,,,,,,,1.25475000000000E+01,,,9.24014665444546E+00,,,,,9.65097345132743E+00,,,,,1.23898231054815E+01,,,,,1.25648804833202E+01,1.25955633391710E+01,,,,1.27089130953328E+01,,,,1.23618000000000E+01,1.28057800000000E+01,1.29872600000000E+01,1.26966700000000E+01,1.36214300000000E+01,1.34580100000000E+01,1.30753800000000E+01,1.23325200000000E+01,1.28767400000000E+01,,1.19412900000000E+01,1.24244200000000E+01,
ARG,,,,,,,,,,,7.27655216588214E+00,,,,,7.67988187249396E+00,,,,,,,,,,7.82313673166937E+00,,,,,,,,,,9.58232303480641E+00,,,1.24185137200444E+01,,1.10102100000000E+01,1.56407300000000E+01,1.52917900000000E+01,1.44826500000000E+01,1.37663200000000E+01,1.35325900000000E+01,1.27557100000000E+01,1.21886900000000E+01,1.08995800000000E+01,,,
ARM,,,,,,,,,,,,,,,,,,,,,,,,,,,,,,,,,,,,9.46100278551532E+00,,,,,,,6.91742000000000E+00,6.91770000000000E+00,7.91265000000000E+00,8.64733000000000E+00,8.31169000000000E+00,7.76715000000000E+00,7.41918000000000E+00,7.03500000000000E+00,6.66660000000000E+00,
ASM,,,,,,,,,,,,,,,,,,,,,,,,,,,,,,,,1.55000000000000E+01,,,,,,,,,,,,,,,,,,,,
ATG,,,,,,,,,,,,2.77807486631016E+01,,,,2.65702479338843E+01,,,,,1.49820971867008E+01,,,,,1.40022172949002E+01,,,,,1.55882352941176E+01,1.52571428571429E+01,,,,1.44680851063830E+01,,,,,1.33908600000000E+01,,,,,,,,,1.26209400000000E+01,1.21556200000000E+01,
AUS,,,,,,,,,,,1.48691159435552E+01,,,,,1.48555800164774E+01,,,,,1.28951019451605E+01,,,,,1.20642914444811E+01,,,,,1.15776682759808E+01,1.16098288288288E+01,,,,1.25841118800461E+01,,,,,,,,,,,,,,,,
AUT,,,,,,,,,,,,1.95727412718047E+01,,,,1.70475293574984E+01,,,,,1.41460086422561E+01,,,,,1.17493508287293E+01,,,,,9.96331633057589E+00,9.78140114031064E+00,,,,9.40288010716678E+00,,,,1.03009100000000E+01,,,1.04373500000000E+01,1.05250800000000E+01,1.07067200000000E+01,1.09832300000000E+01,1.09434400000000E+01,1.08463500000000E+01,1.05796600000000E+01,1.02824900000000E+01,,
AZE,,,,,,,,,,,,,,,,,,,,,,,,,,,,,,,,,,,,1.03470066126808E+01,,,,7.84081000000000E+00,7.81556000000000E+00,8.29773000000000E+00,8.40097000000000E+00,8.72780000000000E+00,8.54095000000000E+00,8.38601000000000E+00,8.14303000000000E+00,7.81909000000000E+00,,,,
BDI,,,,,,,,,,,,1.13458333333333E+01,,,,2.04608985024958E+01,,,,,1.55692599620493E+01,,,,,1.45888077858881E+01,,,,,1.77398978169995E+01,2.18198420533070E+01,,,,,,,,,,,,1.88481400000000E+01,2.12166900000000E+01,2.28207500000000E+01,2.84041400000000E+01,2.79889300000000E+01,2.95794200000000E+01,2.65218900000000E+01,2.99403100000000E+01,
BEL,,,,,,,,,,,,,,,,1.10974436174853E+01,,,,,1.20221528056399E+01,,,,,,,,,,7.31764595720773E+00,7.23346369345316E+00,,,,,,,,,1.00571200000000E+01,1.03467100000000E+01,1.05711700000000E+01,,,,,,,,,
BEN,,,,,,,,,,,,2.31124031007752E+01,,,,3.38295358649789E+01,,,,,2.94289318755257E+01,,,,,3.94445534838077E+01,,,,,2.12332003682111E+01,2.45022970903522E+01,,,,2.71991247264770E+01,,,,2.37510000000000E+01,2.33834500000000E+01,2.15987200000000E+01,,2.23849700000000E+01,2.39340700000000E+01,,,,,,,
BFA,,,,,,,,,,,,2.26097046413502E+01,,,,2.04359313077939E+01,,,,,2.27885662431942E+01,,,,,2.12212003872217E+01,,,,,3.05442953020134E+01,2.71708321889591E+01,,,3.11420398009950E+01,,,,,2.78688700000000E+01,,,,3.13419800000000E+01,3.14647600000000E+01,,2.96009100000000E+01,2.81945900000000E+01,3.03310700000000E+01,2.56236900000000E+01,3.02580400000000E+01,
BGD,,,,,,,,,,,,,,,,2.38067534226694E+01,,,,,2.37584139662459E+01,,,,,2.77304259094942E+01,,,,,2.74381247661303E+01,,,,,,,,3.63132409888598E+01,3.74127400000000E+01,3.84303000000000E+01,3.74970300000000E+01,3.43673600000000E+01,3.10782400000000E+01,2.73735600000000E+01,2.39231500000000E+01,2.50471900000000E+01,2.52442700000000E+01,2.70682000000000E+01,2.81637600000000E+01,,
BGR,,,,,,,,,,,,,,,,,,,,,,,,,,,,,,,,,,,,,1.13310118619698E+01,,,1.25034700000000E+01,1.18553200000000E+01,1.21658700000000E+01,1.20771500000000E+01,1.23083700000000E+01,1.22320800000000E+01,1.19756200000000E+01,1.17447600000000E+01,1.15546100000000E+01,1.14762300000000E+01,1.19889200000000E+01,,
BHR,,,,,,,,,,,,2.05602409638554E+01,,,,2.15937873357228E+01,,,,,1.99120788824979E+01,,,,,1.73938953488372E+01,,,,,1.32192448233861E+01,1.41538693164709E+01,,,,1.37260039177277E+01,,,,,1.40202100000000E+01,1.34677500000000E+01,1.23968800000000E+01,,,,,,,,,
BHS,,,,,,,,,,,,3.34196567862715E+01,,,,3.21069767441860E+01,,,,,,2.16430769230769E+01,,,,1.59688235294118E+01,,,,,,,,,,1.61562500000000E+01,,,,2.28054800000000E+01,,1.81023100000000E+01,1.48538600000000E+01,1.55766200000000E+01,1.41740900000000E+01,1.35682900000000E+01,1.27819500000000E+01,1.22729600000000E+01,1.26653200000000E+01,1.23287800000000E+01,,
BLR,,,,,,,,,,,,,,,,1.35154538249965E+01,,,,,1.21157323688969E+01,,,,,,,,,,,,,,,1.25410036719706E+01,,,,9.15715000000000E+00,9.48068000000000E+00,9.37043000000000E+00,9.22715000000000E+00,9.42501000000000E+00,9.23597000000000E+00,8.92803000000000E+00,8.52639000000000E+00,8.09786000000000E+00,,,,
BLZ,,,,,,,,,,,,,,,,,,,,,,,,,,,,,,,,,,,,,,,,2.38798200000000E+01,2.33283100000000E+01,2.28846200000000E+01,2.38176700000000E+01,,,1.86767900000000E+01,1.72797200000000E+01,1.69682600000000E+01,1.69591300000000E+01,1.67393100000000E+01,1.68361600000000E+01,
BMU,,,,,,,,,,,,1.41794019933555E+01,,,,1.44615384615385E+01,,,,,1.20180586907449E+01,,,,,9.75231053604436E+00,,,,,9.59649122807017E+00,9.56369982547993E+00,,,,9.03036876355748E+00,,,,,,7.07907000000000E+00,7.01229000000000E+00,6.78311000000000E+00,6.86143000000000E+00,6.97361000000000E+00,6.04819000000000E+00,,,,5.35515000000000E+00,
BOL,,,,,,,,,,,,,,,,,,,,,,,,,,,,,,,,,,,,,,,,2.13954700000000E+01,2.19737600000000E+01,2.47949300000000E+01,2.43168400000000E+01,2.36420800000000E+01,,,,1.81657300000000E+01,,,,
BRA,,,,,,,,,,,1.32427370427027E+01,,,,,,,,,,,,,,,,,,,,,,,,,,,,,2.26218400000000E+01,2.21212000000000E+01,1.93348300000000E+01,1.91207300000000E+01,1.67302100000000E+01,1.60171200000000E+01,1.54277700000000E+01,,1.85515900000000E+01,1.71954200000000E+01,1.71386500000000E+01,,
BRB,,,,,,,,,,,,,,,,2.01792260692464E+01,,,,,2.00107382550336E+01,,,,,1.98033126293996E+01,,,,,1.96111111111111E+01,,,,,,,,,1.77569100000000E+01,1.72971200000000E+01,1.72446300000000E+01,1.57405700000000E+01,1.51679900000000E+01,1.68512700000000E+01,1.58887200000000E+01,1.45839200000000E+01,,,,,
BRN,,,,,,,,,,,1.94230088495575E+01,,,,,1.86879795396419E+01,,,,,1.23432413305025E+01,,,,,1.08092974115161E+01,,,,,,1.18319521178637E+01,,,,1.14743684992571E+01,,,1.06152096197595E+01,1.10163200000000E+01,1.08535800000000E+01,1.09523200000000E+01,1.12053300000000E+01,1.06300100000000E+01,1.01926500000000E+01,1.00919500000000E+01,1.07842500000000E+01,1.08032300000000E+01,1.05487700000000E+01,1.04583800000000E+01,,
BTN,,,,,,,,,,,,,,,,,,,,,,1.34961832061069E+01,,,,1.00894039735099E+01,,,6.97892271662763E+00,,,,,,,,,,3.86088888888889E+01,3.21968000000000E+01,3.24979100000000E+01,3.24027100000000E+01,,,,2.81147400000000E+01,2.28256500000000E+01,,2.37456700000000E+01,2.06436700000000E+01,,
BWA,,,,,,,,,,,1.47223796033994E+01,,,,,1.66116279069767E+01,,,,,1.84423922603342E+01,,,,,2.15785074626866E+01,,,,,1.66219052744887E+01,1.80885899814471E+01,,,,1.66617691154423E+01,,,1.81180776951234E+01,1.75806600000000E+01,1.72935400000000E+01,1.66960300000000E+01,1.53572800000000E+01,1.44260300000000E+01,1.43527200000000E+01,1.38440700000000E+01,1.40087300000000E+01,1.38783400000000E+01,,,,
CAF,,,,,,,,,,,,2.17741312741313E+01,,,,3.56844919786096E+01,,,,,5.28846153846154E+01,,,,,6.47759197324415E+01,,,,,3.73173880030372E+01,,,,,,,,,,,,,,,,,,7.61407800000000E+01,8.00523200000000E+01,5.23061100000000E+01,
CAN,,,,,,,,,,,,,,,,,,,,,,,,,,1.51546502384738E+01,,,,,1.42143640696516E+01,1.39679939070830E+01,,,,1.85182141303859E+01,,,1.87698989411136E+01,1.81079400000000E+01,1.84045100000000E+01,,,,,,,,7.08047000000000E+00,,,
CHE,,,,,,,,,,,,,,,,2.04196530591046E+01,,,,,1.58171077161465E+01,,,,,,,,,,,,,,,,,,,,,,,,,,,,,,,
CHL,,,,,,,,,,,,,,,,1.51828389758853E+01,,,,,,,,,,,,,,,,1.42507436534779E+01,,,,1.33060028995729E+01,,,,2.90089800000000E+01,2.93532000000000E+01,,3.25555600000000E+01,3.30542600000000E+01,2.51925600000000E+01,2.47686500000000E+01,2.44126900000000E+01,2.37109200000000E+01,2.33264700000000E+01,2.24076200000000E+01,,
CHN,,,,,,,,,,,,,,,,,2.09592058767413E+01,,,,1.88814999229054E+01,,,,,1.70783558792924E+01,,,,,1.46069595623484E+01,1.44253338840699E+01,,,,1.50736539417610E+01,,,,,1.71084600000000E+01,1.89229000000000E+01,1.89290900000000E+01,1.86111500000000E+01,,,1.75495400000000E+01,1.63685300000000E+01,1.59917600000000E+01,1.57150500000000E+01,,
CIV,,,,,,,,,,,,2.12607502287283E+01,,,,2.22073791348601E+01,,,,,2.13541193028039E+01,,,,,,,,,,1.79165844027641E+01,1.83828664799253E+01,,,,2.46684836471754E+01,,,,2.93952000000000E+01,,,,,,,,,,,,
CMR,,,,,,,,,,,,2.24885294117647E+01,,,,2.49859932925626E+01,,,,,2.54191545259135E+01,,,,,2.56440228000312E+01,,,,,2.58765494990661E+01,2.52407669021191E+01,,,,2.62829342745397E+01,,,,2.28057800000000E+01,,,,,1.64484700000000E+01,1.61701300000000E+01,1.61703100000000E+01,,,,,
COG,,,,,,,,,,,,3.30443587270974E+01,,,,4.10489967335511E+01,,,,,4.25944355270198E+01,,,,,3.66458370959003E+01,,,,,2.71205663189270E+01,2.67066121734053E+01,,,,3.00347222222222E+01,,,,,,,,2.81085249965569E+01,3.33131371141421E+01,,,,,,,
COL,,,,,,,,,,,1.71656940153336E+01,,,,,1.94541880172034E+01,,,,,2.03581605685088E+01,,,,,2.01501547181213E+01,,,,,1.98357167177392E+01,1.98589216816155E+01,,,,2.10486951318783E+01,,,1.92297415170904E+01,1.92304700000000E+01,1.92301700000000E+01,2.06154400000000E+01,2.09247400000000E+01,,2.46472300000000E+01,2.61716500000000E+01,2.73657200000000E+01,2.52348000000000E+01,2.56402500000000E+01,2.66563200000000E+01,2.71463400000000E+01,
COM,,,,,,,,,,,,2.02063492063492E+01,,,,2.64971751412429E+01,,,,,3.06944444444444E+01,,,,,,,,,,2.51054421768707E+01,2.46925566343042E+01,,,,2.45523329129887E+01,,,,,,,1.30384900000000E+01,1.12597800000000E+01,1.37958900000000E+01,1.38142100000000E+01,,,,,,
CPV,,,,,,,,,,,,1.99375000000000E+01,,,,2.13517241379310E+01,,,,,1.77784090909091E+01,,,,,,,,,,2.43529411764706E+01,,,,2.30343137254902E+01,,,,,,,2.51527100000000E+01,2.44928600000000E+01,2.36834100000000E+01,2.27040600000000E+01,2.26497100000000E+01,1.92198200000000E+01,1.90244100000000E+01,1.82452100000000E+01,1.82161300000000E+01,1.75119300000000E+01,
CRI,,,,,,,,,,,1.65451097263614E+01,,,,,2.26289308176101E+01,,,,,1.89786223277910E+01,,,,,1.70166339029185E+01,,,,,1.89509362752214E+01,1.92168574975859E+01,,,,1.92387691647904E+01,,,1.89582186639980E+01,1.95273000000000E+01,1.88416100000000E+01,1.95727900000000E+01,1.87517800000000E+01,1.87062100000000E+01,,,1.77943200000000E+01,1.79136400000000E+01,1.56410600000000E+01,1.58165600000000E+01,1.55078000000000E+01,
CUB,,,,,,,,,,,,1.25120976998301E+01,,,,1.28169259312116E+01,,,,,1.33673684709676E+01,,,,,1.17597690758927E+01,,,,,9.88503131908622E+00,1.00115663517050E+01,,,,9.77598607888631E+00,,,1.10108423163700E+01,1.14102900000000E+01,1.19465100000000E+01,1.13632500000000E+01,1.16268200000000E+01,1.16713200000000E+01,1.10379000000000E+01,1.10518200000000E+01,1.04854700000000E+01,9.63266000000000E+00,9.67207000000000E+00,9.61048000000000E+00,9.46352000000000E+00,
CYM,,,,,,,,,,,,1.92500000000000E+01,,,,1.89756097560976E+01,,,,,1.20500000000000E+01,,,,,1.00000000000000E+01,,,,,1.00000000000000E+01,1.00000000000000E+01,,,,1.00000000000000E+01,,,,9.07595000000000E+00,9.29365000000000E+00,9.77824000000000E+00,1.01342000000000E+01,,1.13012600000000E+01,1.02690900000000E+01,9.17405000000000E+00,,8.85873000000000E+00,,,
CYP,,,,,,,,,,,,2.10367976131278E+01,,,,2.08742194469224E+01,,,,,1.65021981738248E+01,,,,,1.52588419405321E+01,,,,,1.19720221606648E+01,1.19448460508701E+01,,,,1.24550743374273E+01,,,,1.28673500000000E+01,1.36032900000000E+01,1.27340500000000E+01,1.21473900000000E+01,1.21500200000000E+01,1.12507000000000E+01,1.12913600000000E+01,1.10395800000000E+01,1.06753900000000E+01,1.02260300000000E+01,9.91354000000000E+00,,
CZE,,,,,,,,,,,,1.23550380686199E+01,,,,1.17955254687078E+01,,,,,1.18205077740602E+01,,,,,1.30050133040986E+01,,,,,1.33303444776923E+01,1.29310858366910E+01,,,,1.17850194072157E+01,,,,,,1.08058100000000E+01,1.08093200000000E+01,1.07575300000000E+01,1.03069200000000E+01,1.04498400000000E+01,1.05463800000000E+01,1.15532500000000E+01,1.13213300000000E+01,1.11531400000000E+01,,
DEU,,,,,,,,,,,,,,,,,,,,,,,,,,,,,,,,,,,,1.50581134821727E+01,,,,1.53692900000000E+01,1.43631100000000E+01,1.42565200000000E+01,1.43485600000000E+01,1.41866500000000E+01,1.40240900000000E+01,1.39174100000000E+01,1.39507600000000E+01,1.34598600000000E+01,1.32387700000000E+01,1.32383200000000E+01,,
DJI,,,,,,,,,,,,1.31904761904762E+01,,,,1.53049645390071E+01,,,,,1.70687022900763E+01,,,,,1.95191740412979E+01,,,,,2.00262582056893E+01,2.02835820895522E+01,,,,2.01486725663717E+01,,,,2.28102900000000E+01,,2.37775000000000E+01,2.78750000000000E+01,,,,3.12978300000000E+01,3.42526900000000E+01,2.49297400000000E+01,2.85170300000000E+01,,
DMA,,,,,,,,,,,,2.92553191489362E+01,,,,2.38022388059701E+01,,,,,2.24316109422492E+01,,,,,2.24849397590361E+01,,,,,1.56500000000000E+01,1.32977667493797E+01,,,,1.31125000000000E+01,,,,1.89521300000000E+01,2.14711000000000E+01,1.99358300000000E+01,1.69300200000000E+01,1.67913000000000E+01,1.68022500000000E+01,1.50725800000000E+01,1.64285700000000E+01,1.59509600000000E+01,1.44446600000000E+01,1.37671800000000E+01,1.32407000000000E+01,
DNK,,,,,,,,,,,,,,,,1.26454118982879E+01,,,,,1.14756077432741E+01,,,,,,,,,,,,,,,8.87588822355290E+00,,,,9.56346000000000E+00,9.55770000000000E+00,1.00526600000000E+01,,,,,,,,,,
DOM,,,,,,,,,,,,2.70482005141388E+01,,,,,,,,,,,,,,3.62017279644895E+01,,,,,,,,,,,,,,,,3.34975100000000E+01,3.34905200000000E+01,2.62465900000000E+01,2.70377900000000E+01,2.64314200000000E+01,2.42813500000000E+01,2.90285100000000E+01,2.44680600000000E+01,2.69410200000000E+01,2.81924600000000E+01,
DZA,,,,,,,,,,,,2.10964568642814E+01,,,,2.57975504322767E+01,,,,,2.50431994418954E+01,,,,,2.32019117266001E+01,,,,,1.79127996554066E+01,1.71273145232397E+01,,,,1.68440310098643E+01,,,,,,,,2.08425400000000E+01,2.08482300000000E+01,,,,,,,
EAP,,,,,,,,,,,,,,,,,2.12072905834760E+01,,,,2.00413099758907E+01,,,,,1.79981840978342E+01,,,,,1.54648431435637E+01,1.52465239552835E+01,,,,1.63723663202587E+01,,,,,1.78995904683255E+01,1.99674815592462E+01,1.99800842730546E+01,1.98120536730830E+01,,,1.86994511088016E+01,1.77566213750654E+01,1.63785961163763E+01,1.68226665555151E+01,,
EAS,,,,,,,,,,,,,,,,,2.12072905834760E+01,,,,2.02600408305274E+01,,,,,1.83945904845084E+01,,,,,1.58454406670910E+01,1.55746831091838E+01,,,,1.63908552432501E+01,,,,,1.77021221436775E+01,1.95618559923296E+01,1.95266236450032E+01,1.93311104454218E+01,,,1.82836567598908E+01,1.74135544231224E+01,1.61405161735737E+01,1.65136352018173E+01,,
ECA,,,,,,,,,,,,,,,,,,,,,,,,,,,,,,,1.53516402511407E+01,1.47202374209097E+01,,,,,,,,,,,,,,,,,,,,
ECS,,,,,,,,,,,,,,,,,,,,,,,,,,,,,,,1.38666962852057E+01,1.34242774036518E+01,,,,,,,,,,,,,,1.14966058398554E+01,1.13694853110398E+01,1.11018899173211E+01,1.12740794196482E+01,,,
ECU,,,,,,,,,,,,1.38051468246385E+01,,,,1.59687929807920E+01,,,,,1.70381960858467E+01,,,,,1.60375437337400E+01,,,,,1.34286415573424E+01,1.30670253753155E+01,,,,,,,,1.67523000000000E+01,1.35791600000000E+01,1.35783800000000E+01,1.35772700000000E+01,1.32740700000000E+01,1.33431700000000E+01,1.39045900000000E+01,1.43587900000000E+01,1.46573500000000E+01,,2.23924400000000E+01,,
EGY,,,,,,,,,,,,2.43619021985971E+01,,,,2.75726880823251E+01,,,,,2.37773843808233E+01,,,,,2.15142470283742E+01,,,,,1.80865508233492E+01,1.80857160677824E+01,,,,1.90945511022399E+01,,,,1.68977700000000E+01,1.69473300000000E+01,1.69645300000000E+01,1.73925000000000E+01,1.72801000000000E+01,1.70794900000000E+01,,,,,,,
EMU,,,,,,,,,,,,,,,,1.51035614492038E+01,,,,,1.46448121983999E+01,,,,,,,,,,1.24425020274593E+01,1.21548301893976E+01,,,,1.31872208921010E+01,,,,1.26017896584859E+01,1.20220262557884E+01,1.18269214932797E+01,1.18734592133088E+01,1.19035569341433E+01,1.17567119982372E+01,1.17021544102450E+01,1.18401355401457E+01,1.15482944052671E+01,1.20074613276231E+01,1.20127812275246E+01,,
ERI,,,,,,,,,,,,,,,,,,,,,,,,,,,,,,,,,,,,3.37506938020352E+01,,,,5.06554000000000E+01,5.40619800000000E+01,5.24442800000000E+01,4.93132100000000E+01,5.35079600000000E+01,4.78373600000000E+01,5.13476900000000E+01,5.43901600000000E+01,4.93489300000000E+01,,4.26810800000000E+01,3.86842400000000E+01,
ESP,,,,,,,,,,,,2.14883331497191E+01,,,,2.03832414799913E+01,,,,,2.19008110422649E+01,,,,,2.02124036128143E+01,,,,,1.71829370045891E+01,1.66527943632970E+01,,,,1.58660217484351E+01,,,,1.19294400000000E+01,1.13821500000000E+01,1.08733900000000E+01,1.10480500000000E+01,1.11086300000000E+01,1.10071500000000E+01,1.10981500000000E+01,1.09525000000000E+01,1.08063300000000E+01,1.08042700000000E+01,1.05483300000000E+01,,
EST,,,,,,,,,,,,,,,,,,,,,,,,,,,,,,,,,,,,8.81703447789607E+00,,,,1.04636600000000E+01,9.79109000000000E+00,1.00549300000000E+01,,,,,,9.92589000000000E+00,9.40907000000000E+00,9.44342000000000E+00,,
ETH,,,,,,,,,,,,2.76722620266121E+01,,,,2.79883852691218E+01,,,,,3.80043807248108E+01,,,,,4.16353925704177E+01,,,,,3.92987117552335E+01,3.71377846391355E+01,,,,3.20376615123914E+01,,,,,,,,,,,,,4.62267700000000E+01,4.74135200000000E+01,4.30749500000000E+01,
EUU,,,,,,,,,,,,,,,,,,,,,,,,,,,,,,,,,,,,1.31177328073241E+01,,,,1.28373505784034E+01,1.24510460160825E+01,1.23721561147095E+01,1.23793257859657E+01,1.25618987977100E+01,1.22136692374353E+01,1.20410581335276E+01,1.20620111723786E+01,1.17972027858641E+01,1.21361198456346E+01,1.16979058956815E+01,,
FIN,,,,,,,,,,,,1.58058424039446E+01,,,,1.40578407236314E+01,,,,,1.35509777804686E+01,,,,,,,,,,,,,,,,,,,1.22210000000000E+01,1.27422900000000E+01,1.31808000000000E+01,1.27734200000000E+01,1.22262800000000E+01,1.01534100000000E+01,1.02566800000000E+01,,9.79414000000000E+00,1.00307700000000E+01,9.88786000000000E+00,,
FJI,,,,,,,,,,,3.17803867403315E+01,,,,,2.80173611111111E+01,,,,,1.94863494539782E+01,,,,,1.52650643195667E+01,,,,,,,,,,,,,,,2.02148800000000E+01,1.91483300000000E+01,1.85557500000000E+01,2.46239800000000E+01,2.23832800000000E+01,,,2.29022400000000E+01,1.87200400000000E+01,,,
FRA,,,,,,,,,,,,1.58016674724764E+01,,,,1.56393889970251E+01,,,,,1.37283020523196E+01,,,,,1.30276462378492E+01,,,,,1.24386523139593E+01,1.25084086152062E+01,,,,1.26749825301421E+01,,,,1.20254700000000E+01,1.17982600000000E+01,1.16057700000000E+01,1.14630900000000E+01,1.14672800000000E+01,1.13966300000000E+01,1.14308400000000E+01,1.20985200000000E+01,1.20996100000000E+01,1.22757800000000E+01,1.24965900000000E+01,,
FSM,,,,,,,,,,,,2.12190812720848E+01,,,,1.60686274509804E+01,,,,,1.48442307692308E+01,,,,,,,,,,,,,,,,,,,,,,,,,,,,,,,
GAB,,,,,,,,,,,,1.94980468750000E+01,,,,2.32289823008850E+01,,,,,1.86151704940849E+01,,,,,1.77981900452489E+01,,,,2.28732663797226E+01,,,,,,2.75894206549118E+01,,,,2.81166300000000E+01,,,,,,,,,,,,
GBR,,,,,,,,,,,,1.43991330813786E+01,,,,1.45602124028068E+01,,,,,1.38280120528551E+01,,,,,,,,,,1.11853785900783E+01,1.10913277052955E+01,,,,1.47588228013720E+01,,,1.40835930014639E+01,1.46713100000000E+01,1.50517100000000E+01,1.48695600000000E+01,1.54806600000000E+01,1.53412600000000E+01,1.53199800000000E+01,1.48655800000000E+01,1.45404500000000E+01,1.40053300000000E+01,1.42692200000000E+01,,,
GEO,,,,,,,,,,,,,,,,,,,,,,9.91426552450175E+00,,,,,9.92232836883641E+00,,,,,6.85243093256123E+00,,,,6.70817102720609E+00,,,,7.50714000000000E+00,7.46045000000000E+00,7.60845000000000E+00,9.40904000000000E+00,9.24507000000000E+00,,,,,7.46323000000000E+00,7.56748000000000E+00,,
GHA,,,,,,,,,,,,,,,,2.35801221494793E+01,,,,,2.09308594988899E+01,,,,,2.17181245009774E+01,,,,,1.80446474603535E+01,1.87096207093570E+01,,,,,,,,1.96164400000000E+01,1.91357000000000E+01,1.85288300000000E+01,1.86286000000000E+01,1.81742000000000E+01,1.87894800000000E+01,1.88996300000000E+01,1.96856100000000E+01,1.76834200000000E+01,1.74112800000000E+01,1.82754500000000E+01,,
GIB,,,,,,,,,,,,,,,,1.09931506849315E+01,,,,,1.28581560283688E+01,,,,,1.25416666666667E+01,,,,,,,,,,,,,,1.12295100000000E+01,1.18629000000000E+01,1.17424200000000E+01,,,,,,,5.45277000000000E+00,5.87589000000000E+00,,
GIN,,,,,,,,,,,,2.27680430879713E+01,,,,2.55697473174109E+01,,,,,2.36038882138518E+01,,,,,1.96618705035971E+01,,,,,1.64283625730994E+01,1.43811914323963E+01,,,,2.57570850202429E+01,,,,,,,,3.13330900000000E+01,3.18276700000000E+01,3.44252600000000E+01,3.58258500000000E+01,3.81527300000000E+01,3.32918300000000E+01,3.19115200000000E+01,,
GMB,,,,,,,,,,,,1.98503937007874E+01,,,,1.77068965517241E+01,,,,,1.66480446927374E+01,,,,,1.74102844638950E+01,,,,,2.49125168236878E+01,2.69841269841270E+01,,,,2.60239076669415E+01,,,,2.32033317001470E+01,2.28090366581415E+01,2.11184112843356E+01,1.99611950549451E+01,2.12445478336726E+01,2.19863417246920E+01,2.31798351914687E+01,,2.19684528954192E+01,2.41480036714089E+01,,,
GNB,,,,,,,,,,,,1.80901287553648E+01,,,,1.39947643979058E+01,,,,,1.17894736842105E+01,,,,,1.07245714285714E+01,,,,,,,,,,,,,,,1.44341000000000E+01,,,,,,3.72810800000000E+01,,,,,
GNQ,,,,,,,,,,,,3.43657142857143E+01,,,,2.64673913043478E+01,,,,,1.72721518987342E+01,,,,,,,,,,,,,,2.82585034013605E+01,,,,,2.33752900000000E+01,2.31599600000000E+01,,,,,,,,,,,
GRC,,,,,,,,,,,,2.49735061195104E+01,,,,2.03969298949870E+01,,,,,1.90863706939656E+01,,,,,1.66500819213141E+01,,,,,1.45533764553687E+01,1.41179211647845E+01,,,,1.26751756193685E+01,,,1.09276341893907E+01,1.03150200000000E+01,9.76026000000000E+00,9.41532000000000E+00,8.97739000000000E+00,8.60019000000000E+00,8.29880000000000E+00,8.28503000000000E+00,8.18975000000000E+00,7.88335000000000E+00,,,,
GRD,,,,,,,,,,,,2.53478260869565E+01,,,,2.45905707196030E+01,,,,,2.45770234986945E+01,,,,,3.09712460063898E+01,,,,,2.70287356321839E+01,2.70055248618785E+01,,,,2.70000000000000E+01,,,,,,,2.06671400000000E+01,2.00810800000000E+01,2.00882400000000E+01,1.54345400000000E+01,,,1.66032000000000E+01,1.83850000000000E+01,2.03180200000000E+01,
GTM,,,,,,,,,,,1.37902430111456E+01,,,,,1.65553887220554E+01,,,,,1.78823468220119E+01,,,,,1.39482534691366E+01,,,,,,1.42350243761162E+01,,,,1.56259083462847E+01,,,1.46952493013678E+01,1.32469900000000E+01,1.40318600000000E+01,1.36879000000000E+01,1.36923600000000E+01,1.45485600000000E+01,1.53868100000000E+01,1.57501700000000E+01,1.62036800000000E+01,1.61132600000000E+01,1.65656700000000E+01,,1.59853300000000E+01,
GUY,,,,,,,,,,,,2.55549915397631E+01,,,,2.26556420233463E+01,,,,,1.75093058900810E+01,,,,,2.01742726754136E+01,,,,,,4.35600000000000E+01,,,,4.06611464968153E+01,,,,1.86731300000000E+01,1.88180100000000E+01,2.03067400000000E+01,1.96646800000000E+01,1.64774200000000E+01,1.70402700000000E+01,1.80370400000000E+01,1.80412500000000E+01,2.23491600000000E+01,2.08934000000000E+01,2.20278200000000E+01,2.14222000000000E+01,
HIC,,,,,,,,,,,,,,,,,,,,,,,,,,,,,,,,,,,,1.47592546626154E+01,,,,1.44408208195453E+01,1.40587443232792E+01,1.38533003102090E+01,1.36737724813076E+01,1.36571135003700E+01,1.35013822339366E+01,1.32835809195398E+01,1.32096733852648E+01,1.30598431911729E+01,1.30085677319209E+01,1.28858761025201E+01,,
HKG,,,,,,,,,,,,,,,,2.47241908380215E+01,,,,,2.96906728122399E+01,,,,,2.48025891735402E+01,,,,,,2.07136176661615E+01,,,,2.06430199430199E+01,,,,,,,,,,,,,,,,
HND,,,,,,,,,,,,,,,,1.81050446998723E+01,,,,,2.83566495878815E+01,,,,,2.60413012729844E+01,,,,,,2.28145057011873E+01,,1.99149269822601E+01,,,,,,,,,,,,,,,,,,
HPC,,,,,,,,,,,,2.17424326862581E+01,,,,2.35732202494963E+01,,,,,2.57453780335978E+01,,,,,2.59802707089844E+01,,,,,2.52982394342860E+01,2.45851753678498E+01,,,,,,,,,,,,,,,,,,,,
HRV,,,,,,,,,,,,,,,,,,,,,,,,,,,,,,,,,,,,,1.40370196025688E+01,,,1.24726800000000E+01,1.18440200000000E+01,1.13285100000000E+01,1.10266400000000E+01,1.08635800000000E+01,,1.01368800000000E+01,9.54029000000000E+00,9.29822000000000E+00,9.08776000000000E+00,8.32827000000000E+00,,
HTI,,,,,,,,,,,,,1.49807692307692E+01,,,1.51643872351837E+01,,,,,2.27095569935291E+01,,,,,2.44927873429502E+01,,,,,1.94949994623078E+01,1.90319277108434E+01,,,,,,,,,,,,,,,,,,,,
HUN,,,,,,,,,,,,,,,,,,,,,,,,,,,,,,,,,,,,1.02719786719077E+01,,,1.02234555499749E+01,1.00420600000000E+01,9.84324000000000E+00,1.06770500000000E+01,1.08644800000000E+01,1.09614200000000E+01,9.85162000000000E+00,9.94135000000000E+00,9.85824000000000E+00,9.83302000000000E+00,1.02232200000000E+01,1.03289800000000E+01,,
IDN,,,,,,,,,,,1.31000500596455E+01,,,,,1.52292873535760E+01,,,,,,1.48546805958680E+01,,,,1.53772149577856E+01,,,,,1.29166045344102E+01,1.30369800571155E+01,,,,1.41382567630557E+01,,,,,1.57838000000000E+01,1.42566600000000E+01,1.35815800000000E+01,1.42342100000000E+01,1.42007600000000E+01,1.24783300000000E+01,1.22663300000000E+01,1.30443000000000E+01,1.19597100000000E+01,1.25935600000000E+01,,
IND,,,,,,,,,,,,2.19231765419490E+01,,,,2.16164781527073E+01,,,,,2.11233022090357E+01,,,,,2.59969819048210E+01,,,,,2.87137245585373E+01,2.88312308579820E+01,,,,3.22225337092921E+01,,,,3.36236300000000E+01,3.36231500000000E+01,3.34445800000000E+01,3.23246400000000E+01,3.23249300000000E+01,3.26999900000000E+01,,,,,,,
IRL,,,,,,,,,,,,1.35672495612039E+01,,,,1.23059071729958E+01,,,,,1.45182711198428E+01,,,,,1.54107970342910E+01,,,,,1.64915221579961E+01,1.59935737401757E+01,,,,1.48451571227724E+01,,,,,,,,,,,1.05445524571967E+01,,,,,
IRN,,,,,,,,,,,,3.42157288091692E+01,,,,2.86623303656323E+01,,,,,2.05117771343611E+01,,,,,1.50673377164911E+01,,,,,1.77747559881769E+01,2.35111733780916E+01,,,,3.06964064386479E+01,,,,,,,,,,,,,,,,
IRQ,,,,,,,,,,,,2.36495932509792E+01,,,,2.60283668709660E+01,,,,,2.96750084131306E+01,,,,,2.77912562937492E+01,,,,,2.14959202175884E+01,2.15214188169338E+01,,,,,1.86275362784127E+01,,,1.96869400000000E+01,1.97351900000000E+01,,,1.75718400000000E+01,1.87859500000000E+01,,,1.37332700000000E+01,,,,
ISL,,,,,,,,,,,,1.04866334390575E+01,,,,1.03721508495649E+01,,,,,1.10346770697876E+01,,,,,,,,,,,,,,,,,,1.33112980769231E+01,,,,,,,,,,,,,
ISR,,,,,,,,,,,,,,,,,,,,,,,,,,,,,,,,,,,,,,,,1.01738100000000E+01,1.04001900000000E+01,9.70297000000000E+00,9.61991000000000E+00,9.56029000000000E+00,9.54005000000000E+00,9.64722000000000E+00,9.81448000000000E+00,9.80146000000000E+00,9.62607000000000E+00,9.47449000000000E+00,,
ITA,,,,,,,,,,,,1.15130590835456E+01,,,,1.09981880797245E+01,,,,,1.03710105940375E+01,,,,,9.75738008728900E+00,,,,,9.17611575785461E+00,8.67947698230321E+00,,,,9.55936222306742E+00,,,,1.05428000000000E+01,1.04542200000000E+01,1.01398200000000E+01,1.02476500000000E+01,1.05757700000000E+01,1.08044400000000E+01,1.05400400000000E+01,1.06170000000000E+01,1.01011500000000E+01,,,,
JAM,,,,,,,,,,,,2.65795211212770E+01,,,,2.67090069284065E+01,,,,,2.18613276231263E+01,,,,,2.21411689846378E+01,,,,,2.21096261682243E+01,2.24536033914272E+01,,2.15049858201445E+01,,,,,,,1.89217500000000E+01,,1.93471700000000E+01,2.03005700000000E+01,1.91404000000000E+01,1.84712100000000E+01,,1.97744100000000E+01,,,,
JOR,,,,,,,,,,,,2.29567262464722E+01,,,,2.15010501050105E+01,,,,,2.04593927425327E+01,,,,,1.91878787878788E+01,,,,1.65167739901833E+01,,,,,,,,,,,,,1.87620600000000E+01,1.78783500000000E+01,,,,,,,,
JPN,,,,,,,,,,,,1.82451190653044E+01,,,,1.73376773204556E+01,,,,,1.71566403262809E+01,,,,,1.75982079197742E+01,,,,,1.70990505241450E+01,1.67419359247095E+01,,,,1.40605173824859E+01,,,1.44330130292647E+01,1.42238600000000E+01,1.39758900000000E+01,1.38311100000000E+01,1.35496300000000E+01,1.32181000000000E+01,1.28861900000000E+01,1.26323600000000E+01,1.24044900000000E+01,1.22223300000000E+01,1.21168500000000E+01,1.19678200000000E+01,,
KAZ,,,,,,,,,,,,,,,,,,,,,,,,,,,1.61748511904762E+01,,,,1.33302852962692E+01,1.28391809364148E+01,,,,,,,,,1.13016600000000E+01,1.15483300000000E+01,1.18635000000000E+01,1.17397400000000E+01,1.13197200000000E+01,1.09926200000000E+01,1.08966000000000E+01,1.03887500000000E+01,1.00145600000000E+01,9.71088000000000E+00,9.34847000000000E+00,
KEN,,,,,,,,,,,2.06137293529323E+01,,,,,2.47655704008222E+01,,,,,2.50584274925356E+01,,,,2.58396025206011E+01,,,,,,,,,,,,,,,,,,2.92964700000000E+01,2.93608400000000E+01,2.61767600000000E+01,2.47717300000000E+01,2.57628400000000E+01,2.66380300000000E+01,2.98868700000000E+01,2.96784200000000E+01,,
KGZ,,,,,,,,,,,,,,,,,,,,,,1.83974358974359E+01,,,,,1.62176165803109E+01,,,,1.37870195337114E+01,1.35047698050601E+01,,,,1.34997328465203E+01,,,,1.31622900000000E+01,1.33305900000000E+01,1.36591600000000E+01,1.34147700000000E+01,1.40396700000000E+01,1.37451800000000E+01,1.34167700000000E+01,1.35161300000000E+01,1.35631800000000E+01,1.32763000000000E+01,1.31813200000000E+01,1.52088500000000E+01,
KHM,,,,,,,,,,,,2.20977901955804E+01,,,,3.57132278694042E+01,,,,,,,2.26052757793765E+01,,,3.42237473347548E+01,,,,,2.00862628268785E+01,1.49321775468715E+01,,,,1.75338546093263E+01,,,1.71762538495381E+01,1.76029700000000E+01,1.84633200000000E+01,1.95640300000000E+01,2.16228100000000E+01,2.35882400000000E+01,2.50996800000000E+01,,2.99888100000000E+01,2.89219400000000E+01,,,,
KIR,,,,,,,,,,,1.08421052631579E+01,,,,,1.15789473684211E+01,,,,,1.58441558441558E+01,,,,,1.37250000000000E+01,,,,,1.21578947368421E+01,1.27796610169492E+01,,,,1.44792452830189E+01,,,,1.95569600000000E+01,1.76066600000000E+01,2.35768400000000E+01,1.83879000000000E+01,1.98811200000000E+01,1.86189700000000E+01,1.70391000000000E+01,1.79763800000000E+01,1.76646200000000E+01,1.74442800000000E+01,,,
KNA,,,,,,,,,,,,,,,,,1.72125435540070E+01,,,,1.71684981684982E+01,,,,,1.78595744680851E+01,,,,,1.46551724137931E+01,1.47260273972603E+01,,,,1.37267080745342E+01,,,,,1.04157300000000E+01,1.04547900000000E+01,1.00236400000000E+01,9.82734000000000E+00,9.27078000000000E+00,9.92191000000000E+00,,1.01163300000000E+01,1.05419700000000E+01,9.68254000000000E+00,9.26452000000000E+00,
KOR,,,,,,,,,,,,3.65086154081789E+01,,,,3.72139192908553E+01,,,,,3.81437841138975E+01,,,,,3.58937022801448E+01,,,,,2.76681490469571E+01,2.52293939930502E+01,,,,2.45996939499518E+01,,,2.26940958853574E+01,2.21285200000000E+01,2.10203600000000E+01,1.99079600000000E+01,1.82354000000000E+01,1.76831800000000E+01,1.77628800000000E+01,1.80575000000000E+01,1.80368800000000E+01,1.80569400000000E+01,1.80528800000000E+01,1.79805000000000E+01,,
KWT,,,,,,,,,,,,1.29170927684441E+01,,,,1.12247500861772E+01,,,,,1.18770189855483E+01,,,,,1.27533966640893E+01,,,,,1.25015890562388E+01,1.00259148512032E+01,,,,1.07938603640315E+01,,,,1.05599200000000E+01,1.07892900000000E+01,1.04567400000000E+01,1.02846300000000E+01,,1.05620400000000E+01,1.03439000000000E+01,9.67229000000000E+00,9.47253000000000E+00,9.08783000000000E+00,8.17474000000000E+00,7.99239000000000E+00,
LAC,,,,,,,,,,,,,,,,,,,,,,,,,,,,,,,,,,,,,,,,2.00596116005040E+01,1.91804241552973E+01,1.84503781164554E+01,1.89012190291518E+01,1.74561278788743E+01,1.72769258065797E+01,1.71688337804690E+01,,1.85608833926546E+01,1.75262262869887E+01,1.79983332082783E+01,,
LAO,,,,,,,,,,,,1.68885245901639E+01,,,,1.91277735271614E+01,,,,,2.22990553306343E+01,,,,,1.35995577938828E+01,,,,,1.17660409556314E+01,1.14049586776860E+01,,,,1.40659217877095E+01,,,,2.03581600000000E+01,2.13341400000000E+01,2.27328600000000E+01,2.40880700000000E+01,2.56598600000000E+01,2.66240400000000E+01,2.47848500000000E+01,2.47314700000000E+01,2.36021600000000E+01,2.27617700000000E+01,,,
LBN,,,,,,,,,,,,,,,,,,,,,,,,,,,,,,,,,,,,,,,,9.07330000000000E+00,,,,,,,9.18398000000000E+00,9.20215000000000E+00,9.12430000000000E+00,9.20378000000000E+00,8.94176000000000E+00,
LBR,,,,,,,,,,,1.65068897637795E+01,,,,,1.94039772727273E+01,,,,,1.26882694541231E+01,,,,,,,,,,,,,,,,,,,1.71787600000000E+01,2.64047200000000E+01,,,,,,,,,,,
LBY,,,,,,,,,,,,1.24229795072531E+01,,,,1.31692354491989E+01,,,,,1.35463711595168E+01,,,1.11075864767059E+01,,,,,,,,,,,,,,,,,,,,,,,,,,,,
LCA,,,,,,,,,,,,2.84078212290503E+01,,,,3.09391891891892E+01,,,,,1.98669201520913E+01,,,,,1.58066157760814E+01,,,,,1.85320665083135E+01,1.88329519450801E+01,,,,1.84166666666667E+01,,,,1.77085200000000E+01,1.77730500000000E+01,1.73542200000000E+01,1.79478900000000E+01,1.73128800000000E+01,1.74557700000000E+01,1.71681200000000E+01,1.70142000000000E+01,1.66990100000000E+01,1.63575100000000E+01,1.62016000000000E+01,1.57029400000000E+01,
LCN,,,,,,,,,,,,,,,,,,,,,,,,,,,,,,,,,,,,,,,,2.00599995083897E+01,1.91815016381327E+01,1.84500200816856E+01,1.88950490930400E+01,1.74567234973482E+01,1.72788106693330E+01,1.71623777711602E+01,,1.85442384935000E+01,1.75110752573081E+01,1.79933327661889E+01,,
LDC,,,,,,,,,,,,,,,,2.52427469896373E+01,,,,,2.60106625662076E+01,,,,,2.68366615739673E+01,,,,,2.63731347589438E+01,,,,,,,,,,,,,,,,,2.53737235698364E+01,3.02402945768751E+01,2.96243811228168E+01,,
LIC,,,,,,,,,,,,,,,,2.52867392661381E+01,,,,,2.63736690728347E+01,,,,,2.72198833245709E+01,,,,,2.65149692613112E+01,,,,,,,,,,,,,,,,,2.59117480080256E+01,3.01435984174234E+01,2.98979552031412E+01,,
LIE,,,,,,,,,,,,,,,,1.11111111111111E+01,,,,,1.09838709677419E+01,,,,,,,,,,,,,,,,,,,,,,,,,6.24390000000000E+00,5.77273000000000E+00,5.45799000000000E+00,6.35474000000000E+00,6.15634000000000E+00,,
LKA,,,,,,,,,,,,,,,,,,,,,,,,,,,,,,,1.91092855044794E+01,1.99168731440676E+01,,,,2.23424670760437E+01,,,,,,,1.95980000000000E+01,1.96866600000000E+01,1.95188400000000E+01,,,,,,,
LMC,,,,,,,,,,,,2.22504738204907E+01,,,,2.11179378039987E+01,,,,,2.26647814989022E+01,,,,,2.45046236193870E+01,,,,,2.37001386664010E+01,2.39614764343560E+01,,,,2.76886602731952E+01,,,,2.97483000576543E+01,2.80972033455662E+01,2.89294270676472E+01,2.81308067736966E+01,2.86159015826340E+01,2.97526268368777E+01,,,,,,,
LMY,,,,,,,,,,,,,,,,,,,,,2.14522210378182E+01,,,,,2.15808230649771E+01,,,,,2.02482447749244E+01,1.99682911249246E+01,,,,2.20494080157489E+01,,,,,2.35074808188320E+01,2.43766378668118E+01,2.39346317827425E+01,2.40581706593365E+01,,,,,,,,
LSO,,,,,,,,,,,,2.12922705314010E+01,,,,2.37406340057637E+01,,,,,1.97593750000000E+01,,,,,2.01418554476807E+01,,,,,2.02558823529412E+01,1.88735408560311E+01,,,,2.42152126892574E+01,,,2.31078055022393E+01,,,,,,,1.68558200000000E+01,1.61311100000000E+01,1.68524100000000E+01,,,,
LTU,,,,,,,,,,,,,,,,,,,,,,1.94780671951680E+01,,,,,1.61035650131270E+01,,,,1.27989268655791E+01,1.19789480052025E+01,,,,9.77603804544317E+00,,,,,1.11839400000000E+01,1.15008800000000E+01,1.03965300000000E+01,1.08686600000000E+01,1.02617900000000E+01,9.90824000000000E+00,9.70397000000000E+00,9.45009000000000E+00,9.15568000000000E+00,8.94914000000000E+00,,
LUX,,,,,,,,,,,,1.13232253618194E+01,,,,9.88463271744029E+00,,,,,1.26889352818372E+01,,,,,1.44156756756757E+01,,,,,1.16638917793965E+01,,,,,,,,,1.16450600000000E+01,1.08861800000000E+01,1.07539200000000E+01,1.06169700000000E+01,1.05873700000000E+01,1.04816900000000E+01,1.02908700000000E+01,1.00924500000000E+01,1.01755000000000E+01,1.01966800000000E+01,,,
LVA,,,,,,,,,,,,,,,,,,,,,,1.17149091519449E+01,,,,,,,,,9.59315178353499E+00,9.18539228284653E+00,,,,8.56808188821274E+00,,,,1.02773100000000E+01,1.07376600000000E+01,1.12438700000000E+01,1.13600400000000E+01,1.11467700000000E+01,1.10282900000000E+01,1.08116100000000E+01,1.02544200000000E+01,,9.84145000000000E+00,8.60649000000000E+00,,
MAC,,,,,,,,,,,,1.38027586206897E+01,,,,1.65182608695652E+01,,,,,2.12120383036936E+01,,,,,,,,,,,,,,,,,,,2.29366500000000E+01,2.38804900000000E+01,2.40240600000000E+01,2.39686300000000E+01,2.48045800000000E+01,2.32428800000000E+01,2.24068400000000E+01,2.15380700000000E+01,2.05475100000000E+01,1.89577400000000E+01,1.71438500000000E+01,1.62301500000000E+01,
MAR,,,,,,,,,,,,2.03596730245232E+01,,,,2.11391390867197E+01,,,,,2.15632419278253E+01,,,,,1.87436356700997E+01,,,,,1.74750186787496E+01,1.46588895161884E+01,,,,1.60200177003517E+01,,,,1.67151200000000E+01,1.69726500000000E+01,,,1.80970600000000E+01,1.87261100000000E+01,,,,,,,
MCO,,,,,,,,,,,,1.69791666666667E+01,,,,1.10346153846154E+01,,,,,1.00852459016393E+01,,,,,,,,,,,7.05063291139241E+00,,,,1.02544802867384E+01,,,,1.02964300000000E+01,,1.07644900000000E+01,,,1.11119100000000E+01,,,,5.80925000000000E+00,,,
MDA,,,,,,,,,,,,,,,,,,,,,,,,,,,1.47696581599021E+01,,,,1.32697606142728E+01,1.26642882724042E+01,,,,1.25389879600182E+01,,,,1.25945800000000E+01,1.32493600000000E+01,1.35347200000000E+01,1.32212000000000E+01,1.32431300000000E+01,1.29796100000000E+01,1.27577300000000E+01,1.23994300000000E+01,1.21028400000000E+01,1.14986600000000E+01,1.12525900000000E+01,1.04993000000000E+01,
MDG,,,,,,,,,,,,1.98406025573656E+01,,,,2.32053307008885E+01,,,,,2.71328994938539E+01,,,,,2.75872070147828E+01,,,,,2.16560327706058E+01,2.08195226438189E+01,,,,1.72517559869476E+01,,,,,,,,,,2.15550400000000E+01,2.36915200000000E+01,2.44233200000000E+01,2.67449000000000E+01,2.34838700000000E+01,,
MDV,,,,,,,,,,,1.25769230769231E+01,,,,,,,,,,,,,,,,,,,,,,,,,,,,1.69627071823204E+01,1.71487400000000E+01,1.52748100000000E+01,1.30610400000000E+01,1.50000000000000E+01,1.37030700000000E+01,,,,,,,,
MEA,,,,,,,,,,,,2.50707061415189E+01,,,,2.47051048464356E+01,,,,,2.17912199159040E+01,,,,,1.90477191039466E+01,,,,,1.74707445495591E+01,1.85224681852844E+01,,,,2.05142664170430E+01,,,,,,,,,,,,,,,,
MEX,,,,,,,,,,,,1.44728418744862E+01,,,,1.83742634945072E+01,,,,,1.70792618278927E+01,,,,,1.74569392094462E+01,,,,,1.69362849679979E+01,1.66577145355973E+01,,,,1.62009513678422E+01,,,,1.68032800000000E+01,1.69228500000000E+01,1.68772000000000E+01,1.69642400000000E+01,1.71406300000000E+01,1.79465300000000E+01,1.78016400000000E+01,1.78304200000000E+01,1.79158100000000E+01,1.80074400000000E+01,1.76396800000000E+01,,
MHL,,,,,,,,,,,,,,,,,,,,,,,,,,,,,,,,,,,,,,,,2.15833300000000E+01,,,1.66745400000000E+01,1.49379800000000E+01,,,,,,,,
MIC,,,,,,,,,,,,,,,,,,,,,2.07773974827648E+01,,,,,2.08573953149114E+01,,,,,1.95166097670808E+01,1.96070325681409E+01,,,,2.17336402171189E+01,,,,,2.28263442397211E+01,2.38061533919884E+01,2.34887411352232E+01,2.35644236149391E+01,,,,,,,,
MKD,,,,,,,,,,,,,,,,,,,,,,,,,,,,,,,,,,,,,,,,1.63293300000000E+01,1.60457600000000E+01,1.63643800000000E+01,1.60553200000000E+01,1.56122100000000E+01,1.51304300000000E+01,1.47082500000000E+01,,1.37217000000000E+01,1.30867900000000E+01,1.23565500000000E+01,,
MLI,,,,,,,,,,,,1.54415700267618E+01,,,,1.70197847969455E+01,,,,,2.02853092783505E+01,,,,,1.15533038147139E+01,,,,,,1.46520528879610E+01,,,,2.50631163708087E+01,,,,2.84092400000000E+01,2.89732600000000E+01,,,,,,,2.35476600000000E+01,2.35479800000000E+01,2.34090000000000E+01,,
MLT,,,,,,,,,,,,1.46738868832732E+01,,,,1.30332648870637E+01,,,,,1.24149842978914E+01,,,,,1.28212316176471E+01,,,,,1.22261904761905E+01,1.21071428571429E+01,,,,1.05829609770629E+01,,,,1.05668100000000E+01,9.89605000000000E+00,9.99807000000000E+00,9.88028000000000E+00,9.78021000000000E+00,1.11768000000000E+01,1.02922100000000E+01,,,8.51749000000000E+00,8.18523000000000E+00,,
MMR,,,,,,,,,,,,3.21098798506251E+01,,,,3.74435470510272E+01,,,,,3.07184705519581E+01,,,,,2.92247391672150E+01,,,,,,1.28162638549878E+01,,,,,,,,3.01209400000000E+01,3.18797300000000E+01,3.08171700000000E+01,3.11568400000000E+01,3.26107700000000E+01,3.30429200000000E+01,3.31351400000000E+01,3.37726500000000E+01,3.27813000000000E+01,3.44979700000000E+01,3.42181200000000E+01,3.40781900000000E+01,
MNA,,,,,,,,,,,,2.55655693191747E+01,,,,2.56109606060403E+01,,,,,2.26610876918450E+01,,,,,1.97994189045913E+01,,,,,1.80722810845338E+01,1.92289402280684E+01,,,,2.14753839530511E+01,,,,,,,,,,,,,,,,
MNG,,,,,,,,,,,,2.04107822410148E+01,,,,2.33208945170416E+01,,,,,2.32197748409202E+01,,,,,,,,,,1.88215382762151E+01,1.82183435174542E+01,,,,1.77592363580151E+01,,,1.75518585911100E+01,1.86453200000000E+01,1.99142900000000E+01,2.16847200000000E+01,2.18504300000000E+01,2.15172000000000E+01,2.27249400000000E+01,2.24059800000000E+01,2.03164700000000E+01,,,,,
MOZ,,,,,,,,,,,,1.67387739164389E+01,,,,2.02653970826580E+01,,,,,3.63854130660214E+01,,,,,3.23993174061433E+01,,,,,3.43948894137857E+01,3.23098031417777E+01,,,,3.29796972395370E+01,,,,,,,,,,3.21671000000000E+01,3.58009300000000E+01,3.68015600000000E+01,3.67163100000000E+01,3.80434800000000E+01,3.49548400000000E+01,
MRT,,,,,,,,,,,,2.20529411764706E+01,,,,2.37444444444444E+01,,,,,2.91523076923077E+01,,,,,2.48328335832084E+01,,,,,,1.67123834886818E+01,,,,2.49785932721713E+01,,,,2.62430800000000E+01,2.63266500000000E+01,2.63339100000000E+01,2.62433300000000E+01,2.60756900000000E+01,2.84472200000000E+01,3.09836400000000E+01,2.61969800000000E+01,2.65755900000000E+01,,,,
MUS,,,,,,,,,,,2.45146739130435E+01,,,,,2.99095084979329E+01,,,,,2.56982434127980E+01,,,,,1.96083783783784E+01,,,,,2.05629379704127E+01,2.00266408331315E+01,,,,2.00758842443730E+01,,,1.99444007858546E+01,1.95657100000000E+01,1.93951400000000E+01,1.92341700000000E+01,1.88380200000000E+01,1.85581500000000E+01,1.75732700000000E+01,1.73226200000000E+01,1.73174800000000E+01,1.67317800000000E+01,1.67430800000000E+01,1.64023900000000E+01,1.59263500000000E+01,
MWI,,,,,,,,,,,,1.78230769230769E+01,,,,2.00755319148936E+01,,,,,2.16963302752294E+01,,,,,2.17245508982036E+01,,,,,2.74720430107527E+01,2.79728110599078E+01,,,,1.99783088235294E+01,,,,,,,,,,,,,,,,
MYS,,,,,,,,,,,2.56298788694482E+01,,,,,2.73462924442622E+01,,,,,2.27573333333333E+01,,,,,2.20874978679857E+01,,,,,1.93353998513169E+01,1.87542228786318E+01,,,,1.86418685121107E+01,,,1.93619869633626E+01,,1.83782400000000E+01,1.78932600000000E+01,1.77151300000000E+01,1.77477900000000E+01,1.73627400000000E+01,1.62654400000000E+01,1.62953500000000E+01,1.49704400000000E+01,1.42236600000000E+01,,,
NAC,,,,,,,,,,,,,,,,,,,,,,,,,,,,,,,,,,,,1.57313684687027E+01,,,1.55422037659714E+01,1.52377257357000E+01,1.49793160534133E+01,1.51609386017336E+01,1.48817331561002E+01,1.49137632217744E+01,1.49736657053599E+01,1.49423658025299E+01,1.46163879362238E+01,1.45639100000000E+01,1.36561077091905E+01,1.39601700000000E+01,,
NAM,,,,,,,,,,,,,,,,,,,,,,,,,,,,,,,,,,,,,,,2.16131945807972E+01,2.37875900000000E+01,2.40503500000000E+01,2.45473100000000E+01,2.35302400000000E+01,2.52103000000000E+01,2.24399700000000E+01,2.51194000000000E+01,2.52000300000000E+01,2.46243200000000E+01,,,,
NER,,,,,,,,,,,,2.02283236994220E+01,,,,2.10460750853242E+01,,,,,2.71938435940100E+01,,,,,2.52117703810902E+01,,,,,2.58517397881997E+01,2.76605405405405E+01,,,,2.85880089772363E+01,,,,2.43860100000000E+01,2.34035700000000E+01,2.35417300000000E+01,2.68986800000000E+01,2.86284600000000E+01,3.08600700000000E+01,2.73844400000000E+01,2.94864100000000E+01,2.72530600000000E+01,2.79075700000000E+01,2.76192300000000E+01,2.96122600000000E+01,
NGA,,,,,,,,,,,2.12316898892462E+01,,,,,2.51666666666667E+01,,,,,4.19082849634699E+01,,,,,3.61591580614700E+01,,,,,2.05724127686965E+01,2.20740329773625E+01,,,2.91706794411387E+01,,,,,2.97999800000000E+01,3.08866800000000E+01,3.27175700000000E+01,3.14449600000000E+01,4.06197600000000E+01,4.06197000000000E+01,4.01648700000000E+01,3.18506800000000E+01,2.84401500000000E+01,2.23465900000000E+01,,3.30803400000000E+01,
NIC,,,,,,,,,,,2.59641232945932E+01,,,,,3.47495667244367E+01,,,,,3.31066098081023E+01,,,,,2.46923520368947E+01,,,,,3.26536005675772E+01,3.50224790248536E+01,,,,3.23996339231239E+01,,,,3.09992300000000E+01,3.19994200000000E+01,3.33073400000000E+01,3.38894700000000E+01,3.24220000000000E+01,3.24227200000000E+01,3.37329000000000E+01,3.28225800000000E+01,3.11067000000000E+01,2.85942800000000E+01,,3.08304700000000E+01,
NLD,,,,,,,,,,,,1.45125176660610E+01,,,,1.50552196845300E+01,,,,,1.45139674180994E+01,,,,,1.45672707856905E+01,,,,,1.55402297607200E+01,1.56846704710753E+01,,,,,,,,,,,1.34691800000000E+01,1.30853700000000E+01,1.27364900000000E+01,1.31323600000000E+01,1.33074800000000E+01,1.33166500000000E+01,1.31822700000000E+01,1.33998600000000E+01,,
NOR,,,,,,,,,,,,9.62497218601990E+00,,,,9.80659203980099E+00,,,,,8.64432450830234E+00,,,,,7.74717801443899E+00,,,,,7.11350274985777E+00,7.08269340974212E+00,,,,7.54050537699986E+00,,,,,,,,,,,,,,,,
NPL,,,,,,,,,,,2.08685421994885E+01,,,,,2.83317583190912E+01,,,,,3.12917684416219E+01,,,,,2.70624659623135E+01,,,,,3.10544697633655E+01,3.14147450470932E+01,,,,3.23646118576068E+01,,,,3.17070000000000E+01,3.02154200000000E+01,3.30924300000000E+01,2.90461900000000E+01,3.46874600000000E+01,,,,,4.09487000000000E+01,,,
NZL,,,,,,,,,,,2.46519269776876E+01,,,,,2.15511533077719E+01,,,,,2.07958340709270E+01,,,,,1.87205244792217E+01,,,,,1.53634520054078E+01,1.48532473118280E+01,,,,1.51649819494585E+01,,,1.74244717246931E+01,1.53898000000000E+01,1.55497100000000E+01,1.50342800000000E+01,,1.41861000000000E+01,1.31779900000000E+01,1.47109500000000E+01,1.47096800000000E+01,1.46345100000000E+01,1.44931000000000E+01,1.43059900000000E+01,,
OEC,,,,,,,,,,,,,,,,,,,,,,,,,,,,,,,,,,,,1.47617199562037E+01,,,,1.44429760940426E+01,1.40569848351080E+01,1.38590267690758E+01,1.36836079755555E+01,1.36550337279341E+01,1.35025977221944E+01,1.33608592552867E+01,1.32444046679701E+01,1.30677197236479E+01,1.30295446539881E+01,1.29798366928836E+01,,
OED,,,,,,,,,,,,,,,,,,,,,,,,,,,,,,,,,,,,1.53661644140898E+01,,,,1.49152454419578E+01,1.45891198245994E+01,1.41678517964191E+01,1.43260000516031E+01,1.43095232919647E+01,1.41618782117601E+01,1.39944819525843E+01,1.38933493632119E+01,1.37376055263956E+01,1.37363866311157E+01,1.37100566068875E+01,,
OMN,,,,,,,,,,,,,,,,5.23913043478261E+00,,,,,9.05366591080877E+00,,,,,1.24827379165416E+01,,,,,1.52802867383513E+01,1.46223725885402E+01,,,,1.72030666027791E+01,,,,1.78068000000000E+01,1.79282200000000E+01,1.76463700000000E+01,1.75261300000000E+01,1.73727700000000E+01,,,,,,1.47772000000000E+01,,
PAK,,,,,,,,,,,,1.98066787639141E+01,,,,1.93872734586939E+01,,,,,1.74241318246440E+01,,,,,1.81225344849813E+01,,,,,1.94660055980157E+01,,,,,,1.97840223174932E+01,,,,,,,,4.18565000000000E+01,,,,,,,
PAN,,,,,,,,,,,2.07362579281184E+01,,,,,2.35052947405577E+01,,,,,2.10460801179651E+01,,,,,1.90616671831422E+01,,,,,2.00843756407628E+01,1.98217286914766E+01,,,,1.82965219598883E+01,,,1.60139860139860E+01,1.59968000000000E+01,1.62561100000000E+01,1.60791100000000E+01,1.60909500000000E+01,1.60908200000000E+01,1.57613800000000E+01,1.56310400000000E+01,1.57736100000000E+01,1.54742100000000E+01,1.53867500000000E+01,1.46564800000000E+01,1.53368500000000E+01,
PER,,,,,,,,,,,1.72913856966474E+01,,,,,2.38308237637685E+01,,,,,,,,,,2.08234633285187E+01,,,,,1.96869804167101E+01,1.96819416001289E+01,,,,1.90320926098107E+01,,,1.72260614272809E+01,,,,1.89134700000000E+01,1.50231500000000E+01,1.52082900000000E+01,1.53529700000000E+01,1.62143100000000E+01,1.63880000000000E+01,1.62388600000000E+01,1.65314600000000E+01,,
PHL,,,,,,,,,,,,3.30784739991150E+01,,,,2.97711813043540E+01,,,,,3.42032328773546E+01,,,,,3.21133989738436E+01,,,,,3.33457261899752E+01,3.30929221327951E+01,,,,3.61286571443742E+01,,,3.36220140515223E+01,3.40682400000000E+01,,3.63867100000000E+01,3.83308000000000E+01,3.70865300000000E+01,3.75393700000000E+01,3.78689700000000E+01,3.72709300000000E+01,3.51337200000000E+01,,3.48142600000000E+01,,
PLW,,,,,,,,,,,,,,,,,,,,,,,,,,,,,,,,,,,,,,,,1.28816600000000E+01,1.50873000000000E+01,,,,,,,,,,,
PNG,,,,,,,,,,,1.85285171102662E+01,,,,,2.03495575221239E+01,,,,,2.14258928571429E+01,,,,,2.11791212917762E+01,,,,,2.16643564356436E+01,2.19570512820513E+01,,,,,,,,,,,,,,,,,,,,
POL,,,,,,,,,,,,,,,,,,,,,,,,,,,,,,,,,,,,,,,2.10105584951926E+01,,,1.32037200000000E+01,,1.41146100000000E+01,,1.16370500000000E+01,1.14644400000000E+01,1.11536900000000E+01,1.10412700000000E+01,1.06805900000000E+01,,
PRI,,,,,,,,,,,,,,,,,,,,,,,,,,,,,,,,,,,,,,,,,,,,,,,,,,,1.11230800000000E+01,
PRT,,,,,,,,,,,,1.66370696736614E+01,,,,1.52185120093732E+01,,,,,1.61286023306120E+01,,,,,1.39564295252808E+01,,,,,1.14598522026390E+01,1.03860462232418E+01,,,,,,,,,9.79384000000000E+00,9.72101000000000E+00,8.89720000000000E+00,8.77611000000000E+00,7.74783000000000E+00,7.13761000000000E+00,7.06038000000000E+00,7.31822000000000E+00,7.25845000000000E+00,7.27779000000000E+00,,
PRY,,,,,,,,,,,9.39323004378579E+00,,,,,,,,,,,,,,,,,,,,,1.38457194303487E+01,,,,,,,,1.10170500000000E+01,,1.28672000000000E+01,1.18610700000000E+01,1.18360900000000E+01,1.18362100000000E+01,,,,,,,
QAT,,,,,,,,,,,,1.26388888888889E+01,,,,1.23984126984127E+01,,,,,9.74219810040706E+00,,,,,9.05829015544041E+00,,,,,8.59346914319952E+00,8.46659148576262E+00,,,,9.75505443234837E+00,,,1.10717453691625E+01,1.01608700000000E+01,1.01115400000000E+01,1.02472800000000E+01,9.99022000000000E+00,1.01522200000000E+01,1.00733800000000E+01,1.15714600000000E+01,9.48177000000000E+00,,9.69258000000000E+00,9.61780000000000E+00,9.93428000000000E+00,
ROM,,,,,,,,,,,,,,,,,,,,,,,,,,,,,,,2.45370155038760E+01,1.80216924698680E+01,,,,1.33271768590737E+01,,,,1.25132600000000E+01,1.28386200000000E+01,1.31350700000000E+01,1.27936900000000E+01,1.34747800000000E+01,1.36650600000000E+01,1.29349000000000E+01,1.28368000000000E+01,1.27049000000000E+01,1.27262700000000E+01,1.23901500000000E+01,,
RUS,,,,,,,,,,,,,,,,,,,,,,1.58060591312812E+01,,,,,,,,,1.37137235612395E+01,1.34957934435741E+01,,,1.19888248646761E+01,,,,,,,,,,,9.51931000000000E+00,8.99245000000000E+00,8.63291000000000E+00,8.52573000000000E+00,8.46536000000000E+00,,
RWA,,,,,,,,,,,,1.36835820895522E+01,,,,1.67865748709122E+01,,,,,1.63894952251023E+01,,,,,1.57716171617162E+01,,,,,1.37957761351637E+01,1.37205223153381E+01,,,,,,,,,2.33255400000000E+01,2.58872200000000E+01,2.48521100000000E+01,2.53829700000000E+01,2.62646500000000E+01,2.87144500000000E+01,3.06509300000000E+01,2.20208200000000E+01,1.78848800000000E+01,2.26053900000000E+01,2.93974600000000E+01,
SAS,,,,,,,,,,,,2.17173762491673E+01,,,,2.17349192553144E+01,,,,,2.12005500787448E+01,,,,,2.54093477122875E+01,,,,,2.75228746556654E+01,2.86414555485103E+01,,,,3.19582227603178E+01,,,,3.39865125176453E+01,3.40650685173163E+01,3.38673280246432E+01,3.22789439627647E+01,3.20465832765152E+01,3.29993597390864E+01,,,,,,,
SAU,,,,,,,,,,,,1.76196682464455E+01,,,,1.42767110190423E+01,,,,,1.27277511402175E+01,,,,,1.16816865070384E+01,,,,,1.19295800632956E+01,1.25452922739603E+01,,,,1.30204392560348E+01,,,,,,,,,,1.11349600000000E+01,,,,1.13193700000000E+01,9.80154000000000E+00,
SDN,,,,,,,,,,,,1.65658256307769E+01,,,,2.30937976614133E+01,,,,,2.09457137848419E+01,,,,,2.73006700167504E+01,,,,,,2.17563934816225E+01,,,,,,,,,,2.22213300000000E+01,2.41302900000000E+01,2.65612700000000E+01,2.25479300000000E+01,2.15089800000000E+01,2.18827800000000E+01,1.84878800000000E+01,,2.22277400000000E+01,,
SEN,,,,,,,,,,,,2.59053641517662E+01,,,,2.53150053210358E+01,,,,,2.10746878001921E+01,,,,,2.27605844885725E+01,,,,,2.25053973208480E+01,2.24459912989434E+01,,,,,,,,,2.73476200000000E+01,2.50926800000000E+01,2.70364500000000E+01,2.55636300000000E+01,2.63670700000000E+01,2.63673500000000E+01,,,,,3.23219700000000E+01,
SGP,,,,,,,,,,,,,,,,,,,,,,,,,,,,,,,,1.78820000000000E+01,,,,,,,,,,,,,,,,1.69589400000000E+01,1.63607000000000E+01,1.49102200000000E+01,,
SLB,,,,,,,,,,,1.42857142857143E+01,,,,,1.53740458015267E+01,,,,,1.56809338521401E+01,,,,,1.84808259587021E+01,,,,,,1.74807692307692E+01,,,,,,,,1.26534400000000E+01,1.01174300000000E+01,,,,,,,,,,,
SLE,,,,,,,,,,,,2.03919952913479E+01,,,,2.93806015960712E+01,,,,,2.09393408134642E+01,,,,,2.05106555713416E+01,,,,,1.86618968996514E+01,1.71676997822081E+01,,,,,,,,,,2.66381800000000E+01,,,,,,,,,,
SLV,,,,,,,,,,,2.50090625885018E+01,,,,,,,,,,,,,,,,,,,,,,,,,,,,,,,,,2.90229900000000E+01,3.02536200000000E+01,2.89198900000000E+01,2.76978700000000E+01,2.68963300000000E+01,2.63267400000000E+01,2.43629100000000E+01,,
SMR,,,,,,,,,,,,1.20133333333333E+01,,,,1.22580645161290E+01,,,,,1.09642857142857E+01,,,,,7.20000000000000E+00,,,,,,,,,,,,,,,,,,,,,,,1.46250000000000E+01,1.36886200000000E+01,1.44968900000000E+01,
SOM,,,,,,,,,,,,2.43268101761252E+01,,,,,,,,,1.61501779359431E+01,,,,,,,,,,,,,,,,,,,,,,,,,,,1.93004000000000E+01,,,,
SRB,,,,,,,,,,,,,,,,,,,,,,,,,,,,,,,,,,,,,,,,,,,,,,,,1.08129000000000E+01,1.02910100000000E+01,1.00301300000000E+01,9.60059000000000E+00,
SSA,,,,,,,,,,,,,,,,2.39534584888796E+01,,,,,2.89861622335440E+01,,,,,2.84352316909372E+01,,,,,2.42443802242372E+01,2.42091706249151E+01,,,,,,,,,,,,,,,,2.51642419574017E+01,2.73279411515235E+01,,,
SSF,,,,,,,,,,,,,,,,2.39554989570710E+01,,,,,2.89787507290471E+01,,,,,2.84352316909372E+01,,,,,2.42443802242372E+01,2.42091706249151E+01,,,,,,,,,,,,,,,,2.51642419574017E+01,2.73279411515235E+01,,,
STP,,,,,,,,,,,,1.55981308411215E+01,,,,1.22954545454545E+01,,,,,1.51914893617021E+01,,,,1.97164179104478E+01,,,,,,2.20427350427350E+01,,,,,,,,,,,,,,2.17046800000000E+01,2.16916900000000E+01,,,,,,
SUR,,,,,,,,,,,,1.71938551572787E+01,,,,1.73106682297773E+01,,,,,1.53662940670679E+01,,,,,1.48532188841202E+01,,,,,1.33744475693049E+01,1.35217566478646E+01,,,,,,,,,,1.53328500000000E+01,1.51390200000000E+01,1.51068500000000E+01,,1.39010900000000E+01,1.40780400000000E+01,1.40038500000000E+01,,1.33054400000000E+01,,
SVK,,,,,,,,,,,,,,,,,,,,,,,,,,,,,,,,,,,,1.53129283093749E+01,,,1.26914635963932E+01,1.25484700000000E+01,1.22335300000000E+01,1.27217700000000E+01,1.26598600000000E+01,1.29219800000000E+01,1.29083400000000E+01,1.31152100000000E+01,1.28290800000000E+01,1.28131900000000E+01,1.25876700000000E+01,1.23733400000000E+01,,
SVN,,,,,,,,,,,,,,,,,,,,,,,,,,,,,,,,,,,,1.53776851785329E+01,,,,1.31128100000000E+01,1.29234400000000E+01,1.31431000000000E+01,1.30275500000000E+01,1.37322200000000E+01,1.14132800000000E+01,1.12099800000000E+01,1.06266400000000E+01,9.43940000000000E+00,9.33901000000000E+00,9.18321000000000E+00,,
SWE,,,,,,,,,,,,1.12338425381904E+01,,,,9.72617827868852E+00,,,,,1.07850182481752E+01,,,,,,,,,,,,,,,9.72965534189347E+00,,,,1.49896900000000E+01,1.43475800000000E+01,1.39537100000000E+01,1.33118000000000E+01,1.27263600000000E+01,9.45999000000000E+00,9.66166000000000E+00,9.49064000000000E+00,9.62452000000000E+00,9.67692000000000E+00,9.61574000000000E+00,,
SWZ,,,,,,,,,,,1.67753479125249E+01,,,,,2.08088779284834E+01,,,,,1.74649446494465E+01,,,,,1.81499416569428E+01,,,,,1.85839677563816E+01,1.81448979591837E+01,,,,1.87219776498476E+01,,,1.78073770491803E+01,,1.72793200000000E+01,1.69133500000000E+01,1.63006500000000E+01,1.69383800000000E+01,1.80715400000000E+01,1.67705700000000E+01,1.93940700000000E+01,1.90566800000000E+01,,1.76110600000000E+01,1.81828800000000E+01,
SYC,,,,,,,,,,,1.96583333333333E+01,,,,,2.13446327683616E+01,,,,1.78576388888889E+01,,,,,,,,,,,,,,,,1.25611814345992E+01,,,1.44630630630631E+01,1.40071900000000E+01,1.44710300000000E+01,1.43123800000000E+01,1.39351900000000E+01,1.36793500000000E+01,1.25525400000000E+01,1.34023800000000E+01,,1.32925200000000E+01,1.37879300000000E+01,1.25620800000000E+01,,
SYR,,,,,,,,,,,,2.20706635230717E+01,,,,1.99263945045868E+01,,,,,1.85125279009085E+01,,,,,1.67713533200272E+01,,,,,1.62165408252853E+01,1.68945763651483E+01,,,,1.49626610824742E+01,,,,1.92078100000000E+01,1.76461700000000E+01,1.79695800000000E+01,1.81303300000000E+01,,,,,,,,,
TCA,,,,,,,,,,,,1.26111111111111E+01,,,,1.77500000000000E+01,,,,,,1.47021276595745E+01,,,,1.38627450980392E+01,,,,,,,,,1.02178217821782E+01,,,,,9.20661000000000E+00,8.45833000000000E+00,1.01439400000000E+01,9.04487000000000E+00,9.55479000000000E+00,1.00397400000000E+01,9.06452000000000E+00,,,,,,
TCD,,,,,,,,,,,,2.12822580645161E+01,,,,2.18721109399076E+01,,,,,2.81190681622088E+01,,,,,,,,,,3.49463007159905E+01,3.92818294190358E+01,,,,3.71584415584416E+01,,,,3.41000300000000E+01,3.22227700000000E+01,3.62917800000000E+01,3.78857300000000E+01,3.21536400000000E+01,3.42074800000000E+01,3.35456800000000E+01,3.29959800000000E+01,3.29115600000000E+01,,3.23304500000000E+01,3.19238800000000E+01,
TGO,,,,,,,,,,,,2.50034090909091E+01,,,,3.62659176029963E+01,,,,,3.97556729872552E+01,,,,,2.12504659832246E+01,,,,,2.80483197891500E+01,2.79485752448798E+01,,,,3.16377140499278E+01,,,,3.51702800000000E+01,3.15344400000000E+01,,,3.37643900000000E+01,3.40361800000000E+01,3.05053200000000E+01,3.88600300000000E+01,3.55065100000000E+01,,,,
THA,,,,,,,,,,,,1.55291581017070E+01,,,,2.50437008336269E+01,,,,,1.86945646547262E+01,,,,,1.89979902383003E+01,,,,,1.62219320148899E+01,1.66594687859458E+01,,,,,,,,,,2.40381300000000E+01,2.39967200000000E+01,2.39961900000000E+01,,,2.16942900000000E+01,2.10124200000000E+01,2.12243400000000E+01,,,
TJK,,,,,,,,,,,,,,,,,,,,,,,,,,,,,,,,,,,,1.05856140350877E+01,,,,1.64799100000000E+01,1.64066900000000E+01,1.69400900000000E+01,1.78643100000000E+01,1.73393500000000E+01,1.57049100000000E+01,1.64281900000000E+01,1.64589700000000E+01,1.65442300000000E+01,1.65503000000000E+01,1.72151400000000E+01,1.71001900000000E+01,
TMP,,,,,,,,,,,,,,,,,,,,,,,,,,,,,,,,,,,,,,,,,,2.83555900000000E+01,2.83596600000000E+01,,2.76115700000000E+01,2.36778500000000E+01,,,3.21829000000000E+01,,2.29900300000000E+01,
TON,,,,,,,,,,,2.37359813084112E+01,,,,,2.09042357274401E+01,,,,,,2.26621067031464E+01,,,,1.81333333333333E+01,,,,,1.77271634615385E+01,1.69235159817352E+01,,1.80304678998912E+01,,,,,9.74393723252496E+00,1.46222700000000E+01,1.46263800000000E+01,1.38364300000000E+01,1.43942700000000E+01,,,,,,,,,
TTO,,,,,,,,,,,,2.43586302637668E+01,,,,,,,,,,,,,,1.92271973466003E+01,,,,,2.01391690197660E+01,1.97955329949239E+01,,,,2.06799436733052E+01,,,,2.08093500000000E+01,2.06463500000000E+01,1.93199000000000E+01,1.89839400000000E+01,1.89263200000000E+01,1.94358200000000E+01,1.64654000000000E+01,,1.39880700000000E+01,1.35237800000000E+01,,,
TUN,,,,,,,,,,,,2.77255611875453E+01,,,,2.09789619820589E+01,,,,,2.02119104044033E+01,,,,,1.84073131118037E+01,,,,,1.73157628138158E+01,1.70772581523383E+01,,,,1.78805707762557E+01,,,,1.87524700000000E+01,1.89929000000000E+01,1.88291800000000E+01,2.00653400000000E+01,,1.75787000000000E+01,1.72430900000000E+01,1.68768300000000E+01,1.61636900000000E+01,1.51750400000000E+01,1.38553400000000E+01,,
TUR,,,,,,,,,,,,2.75811135463205E+01,,,,2.60664198063863E+01,,,,,2.32244878791990E+01,,,,,2.06224495132502E+01,,,,,2.32619731339256E+01,2.38903269113745E+01,,,,2.33241906585786E+01,,,,,,,,,,,,,,,,
TZA,,,,,,,,,,,1.83507554103716E+01,,,,,1.92762585456805E+01,,,,,2.05147250456085E+01,,,,,1.76466679324093E+01,,,,,2.10410372608258E+01,1.84883885298869E+01,,,,1.74424495818987E+01,,,,,,,,,,,,,,,,
UGA,,,,,,,,,,,2.26177298311445E+01,,,,,2.12631781454406E+01,,,,,2.25828332898513E+01,,,,,1.97464717230176E+01,,,,,1.72830401042592E+01,1.63565232784564E+01,,,,1.78807623116708E+01,,,,,1.76655000000000E+01,1.78880000000000E+01,,1.75873200000000E+01,1.84763900000000E+01,1.90350700000000E+01,1.87342300000000E+01,1.85976800000000E+01,1.88304900000000E+01,1.81404800000000E+01,1.91736400000000E+01,
UKR,,,,,,,,,,,,,,,,1.13753284756244E+01,,,,,1.15048598511806E+01,,,,,,,,,,1.08333228718129E+01,1.07786571517141E+01,,,1.17545341614907E+01,,,,,1.30239000000000E+01,1.33658400000000E+01,,,,,,,,,,,
UMC,,,,,,,,,,,,,,,,,,,,,1.90432477535445E+01,,,,,1.73633857067132E+01,,,,,1.54545721418379E+01,1.56161860024653E+01,,,,1.63450367835748E+01,,,,,1.76201900444673E+01,1.88826404574104E+01,1.90480349505960E+01,1.85176313338538E+01,,,1.72490621002093E+01,1.65049657563991E+01,1.60578643497959E+01,1.57811058039580E+01,,
URY,,,,,,,,,,,,,,,,,,,,,,,,,,,,,,,,,,,,,,,1.73154151192799E+01,1.49498600000000E+01,1.46252300000000E+01,1.40717900000000E+01,,1.48155500000000E+01,,1.46047800000000E+01,1.54086500000000E+01,1.37981200000000E+01,1.26190000000000E+01,1.17040800000000E+01,,
USA,,,,,,,,,,,,,,,,,,,,,,,,,,,,,,,,,,,,1.54257044038110E+01,,,1.51882810355119E+01,1.49240100000000E+01,1.46058000000000E+01,1.51627100000000E+01,1.48834500000000E+01,1.49155300000000E+01,1.49754200000000E+01,1.49440800000000E+01,1.46182200000000E+01,1.45639100000000E+01,1.43765900000000E+01,1.39601700000000E+01,,
UZB,,,,,,,,,,,,,,,,,,,,,,1.49885476314420E+01,,,,,1.37649138311975E+01,,,,1.08896103896104E+01,1.05641534391534E+01,,,,9.75573192239859E+00,,,,1.10939800000000E+01,1.15015600000000E+01,1.20334200000000E+01,1.22021100000000E+01,1.29174700000000E+01,1.29711900000000E+01,1.33087300000000E+01,1.30355600000000E+01,1.30625700000000E+01,1.25779500000000E+01,1.22710600000000E+01,,
VCT,,,,,,,,,,,,,,,,1.99102040816327E+01,,,,,,,,,,,,,,,,2.48700696055684E+01,,,2.30536912751678E+01,,,,,,2.38399000000000E+01,2.40888900000000E+01,2.35629500000000E+01,2.20228800000000E+01,1.80834800000000E+01,1.78793400000000E+01,,,1.94665600000000E+01,1.32099300000000E+01,,
VEN,,,,,,,,,,,,1.84982813383805E+01,,,,1.76953267360040E+01,,,,1.79474596369607E+01,,,,,,,,,,,,,,,,,,,,,,,,,1.11795600000000E+01,1.08044100000000E+01,,,1.02255200000000E+01,8.41203000000000E+00,6.76660000000000E+00,
VIR,,,,,,,,,,,,,,,,,,,,,,,,,,,,,,,,1.80141843971631E+01,,,,,,,,,,,,,,,,,,,,
VNM,,,,,,,,,,,,,,,,,2.59041942643132E+01,,,,2.25000318580175E+01,,,,,,2.16794589188582E+01,,,,1.79830054416074E+01,1.77023292869573E+01,,,,2.45626050353762E+01,,,,2.86530800000000E+01,2.79525900000000E+01,2.69007400000000E+01,2.62801900000000E+01,2.55857500000000E+01,2.45374600000000E+01,2.39168000000000E+01,2.27418300000000E+01,2.18221900000000E+01,2.06709400000000E+01,,,
VUT,,,,,,,,,,,1.10422535211268E+01,,,,,1.38073394495413E+01,,,,,1.31135135135135E+01,,,,,,,,,,1.58425531914894E+01,1.57886792452830E+01,,,,,,,2.30397877984085E+01,2.30487200000000E+01,2.46950400000000E+01,1.51440400000000E+01,1.39445100000000E+01,,,,,,,,,
WBG,,,,,,,,,,,,,,,,,,,,,,,,,,,,,,,,,,,,,,,,2.50960600000000E+01,2.83663900000000E+01,2.69398600000000E+01,2.57555100000000E+01,2.61656900000000E+01,2.75946200000000E+01,2.66254700000000E+01,2.78636500000000E+01,2.51042900000000E+01,2.42047500000000E+01,2.33079000000000E+01,2.25079500000000E+01,
WLD,,,,,,,,,,,,,,,,,,,,,2.07654096607392E+01,,,,,2.10077197027571E+01,,,,,1.95781954241213E+01,1.92710668752951E+01,,,,2.05709094123151E+01,,,,,2.17771660510655E+01,2.24407187045851E+01,2.21392128748191E+01,2.22191331261005E+01,,,,,,,,
WSM,,,,,,,,,,,2.20586956521739E+01,,,,,2.46414219474498E+01,,,,,2.39818181818182E+01,,,,,,2.26666666666667E+01,,,,,1.81940850277264E+01,,,,1.85188811188811E+01,,,1.98909426987061E+01,1.98975300000000E+01,2.11728500000000E+01,2.08505600000000E+01,,2.07502200000000E+01,2.08273400000000E+01,,,,,2.10854100000000E+01,2.16650000000000E+01,
YEM,,,,,,,,,,,,,,,,,,,,,,,,,,,,,,,,,,,,,,,,2.16841700000000E+01,2.15413700000000E+01,,,2.45849100000000E+01,,,,,,,,
ZAF,,,,,,,,,,,,,2.19995995016020E+01,,,,2.27063711911357E+01,,,2.32035755797863E+01,,,,,,,,,,,,2.59618425120346E+01,,,,2.86294956710446E+01,,,2.95152777391449E+01,2.92461300000000E+01,2.80596800000000E+01,2.74290100000000E+01,2.96899100000000E+01,2.98353600000000E+01,3.07514100000000E+01,3.29020100000000E+01,3.01308500000000E+01,2.90214600000000E+01,2.75041300000000E+01,2.50476000000000E+01,,
ZAR,,,,,,,,,,,,2.34461335095836E+01,,,,2.50318892562910E+01,,,,,2.32608109595070E+01,,,,,2.10046808510638E+01,,,,,2.02603483798464E+01,,,,,,,,,1.37996200000000E+01,,,1.45304800000000E+01,,,,,1.56716400000000E+01,1.65749800000000E+01,1.60102800000000E+01,,
ZMB,,,,,,,,,,,,,,,,,,,,,2.08969684555510E+01,,,,,2.10126903553299E+01,,,,,,,,,,2.55621139327385E+01,,,2.25777000000000E+01,1.65509136560190E+01,1.84225230030671E+01,,1.87716055976926E+01,,,2.26872727272727E+01,,2.07485641828895E+01,2.32267737066008E+01,,,
ZWE,,,,,,,,,,,1.90248091603053E+01,,,,,1.77903430749682E+01,,,,,1.97636171337916E+01,,,,,2.78050187481973E+01,,,,,2.69306228867071E+01,2.81712190287413E+01,,,,2.58975162065700E+01,,,2.73079303154638E+01,2.73086484364778E+01,2.47104469747973E+01,2.44570533092388E+01,2.59240854898770E+01,2.23244906371452E+01,,,,,,,,
