"Country Code",1960,1961,1962,1963,1964,1965,1966,1967,1968,1969,1970,1971,1972,1973,1974,1975,1976,1977,1978,1979,1980,1981,1982,1983,1984,1985,1986,1987,1988,1989,1990,1991,1992,1993,1994,1995,1996,1997,1998,1999,2000,2001,2002,2003,2004,2005,2006,2007,2008,2009,2010,2011ABW,,,,,,,,,,,,,,,,,,,,,,,,,,,,,,,,,,,,,,,,,,9.14125700000000E+01,9.14607100000000E+01,9.16290600000000E+01,9.17969300000000E+01,9.13434500000000E+01,9.22435800000000E+01,9.22832000000000E+01,9.17881700000000E+01,9.18403000000000E+01,9.17733600000000E+01,
ADO,,,,,,,,,,,,,,,,,,,,,,,,,,,,,,,,,,,,,,,,,,,3.79949000000000E+00,4.22668000000000E+00,4.67692000000000E+00,4.12095000000000E+00,3.69503000000000E+00,3.11600000000000E+00,2.67463000000000E+00,2.37609000000000E+00,2.04484000000000E+00,
AGO,,,,,,,,,,,,,,,,,,,,,,,,,,,,,,,,,,,,,,,1.81479400000000E+01,,,,,,,,,,1.09293100000000E+01,1.02276100000000E+01,1.05841900000000E+01,
ALB,,,,,,,,,,,,,,,,,,,,,,,,,,,,,,,,,,,,,,,,,,7.48410000000000E-01,,3.09992000000000E+00,2.83512000000000E+00,,,,5.74341000000000E+00,5.81860000000000E+00,6.14436000000000E+00,
ARE,,,,,,,,,,,,,,,,,,,,,,,,,,,,,,,,,,,,,,,,3.07132700000000E+01,3.17758900000000E+01,3.36604100000000E+01,3.59140800000000E+01,3.80718200000000E+01,4.05869900000000E+01,4.23292300000000E+01,4.56489800000000E+01,4.87805400000000E+01,,5.43288100000000E+01,5.64684000000000E+01,
ARG,,,,,,,,,,,,,,,,,,,,,,,,,,,,,,,,,,,,,,,2.70100500000000E+01,2.62693300000000E+01,2.68463900000000E+01,2.71851800000000E+01,2.71977300000000E+01,2.69653700000000E+01,2.74908600000000E+01,2.78676800000000E+01,2.79377000000000E+01,2.81736100000000E+01,2.82550400000000E+01,,,
ARM,,,,,,,,,,,,,,,,,,,,,,,,,,,,,,,,,,,,,,,,,,,3.70780000000000E-01,4.28620000000000E-01,6.08280000000000E-01,7.36890000000000E-01,1.25917000000000E+00,1.44237000000000E+00,1.13916000000000E+00,1.25873000000000E+00,1.42952000000000E+00,
ATG,,,,,,,,,,,,,,,,,,,,,,,,,,,,,,,,,,,,,,,,,2.01099300000000E+01,,,,,,,1.89844300000000E+01,,1.71204900000000E+01,1.82788100000000E+01,
AUS,,,,,,,,,,,,,,,,,,,,,,,,,,,,,,,,,,,,,,,2.36296300000000E+01,2.39923000000000E+01,2.38599000000000E+01,2.41224100000000E+01,2.47681300000000E+01,3.04930600000000E+01,3.04771000000000E+01,2.69661700000000E+01,2.70078600000000E+01,2.75536500000000E+01,2.85184900000000E+01,3.25549100000000E+01,,
AUT,,,,,,,,,,,,,,,,,,,,,,,,,,,,,,,,,,,,,,,,8.47701000000000E+00,8.37324000000000E+00,,8.65202000000000E+00,8.81040000000000E+00,9.26646000000000E+00,9.74565000000000E+00,9.62412000000000E+00,9.67868000000000E+00,9.55705000000000E+00,9.66879000000000E+00,,
AZE,,,,,,,,,,,,,,,,,,,,,,,,,,,,,,,,,,,,,,,0.00000000000000E+00,0.00000000000000E+00,0.00000000000000E+00,0.00000000000000E+00,0.00000000000000E+00,2.60970000000000E-01,3.12910000000000E-01,3.31970000000000E-01,3.70200000000000E-01,4.61910000000000E-01,,,,
BDI,,,,,,,,,,,,,,,,,,,,,,,,,,,,,,,,,,,,,,,,,,,,1.14594000000000E+01,9.04953000000000E+00,1.03997400000000E+01,1.07006900000000E+01,6.95992000000000E+00,,8.80688000000000E+00,8.80481000000000E+00,
BEL,,,,,,,,,,,,,,,,,,,,,,,,,,,,,,,,,,,,,,,,,5.93803000000000E+01,5.78381300000000E+01,5.74115000000000E+01,5.73133000000000E+01,6.77666800000000E+01,6.81522900000000E+01,6.83345200000000E+01,6.83490600000000E+01,6.86996000000000E+01,6.86564000000000E+01,,
BEN,,,,,,,,,,,,,,,,,,,,,,,,,,,,,,,,,,,,,,,,1.82823200000000E+01,1.62602300000000E+01,1.75096600000000E+01,1.57801100000000E+01,1.88700100000000E+01,1.97460100000000E+01,2.51457700000000E+01,,,,,,
BFA,,,,,,,,,,,,,,,,,,,,,,,,,,,,,,,,,,,,,,,,3.30977700000000E+01,3.42107300000000E+01,3.44077100000000E+01,3.44134900000000E+01,,,3.91466800000000E+01,3.88414000000000E+01,3.86164200000000E+01,4.28360300000000E+01,4.20027000000000E+01,4.18568800000000E+01,
BGD,,,,,,,,,,,,,,,,,,,,,,,,,,,,,,,,,,,,,,,9.52313700000000E+01,9.56134100000000E+01,9.57317200000000E+01,9.58950700000000E+01,9.60528000000000E+01,9.59158300000000E+01,9.56867800000000E+01,9.59918400000000E+01,9.58242900000000E+01,9.56310400000000E+01,9.52675800000000E+01,9.53250400000000E+01,,
BGR,,,,,,,,,,,,,,,,,,,,,,,,,,,,,,,,,,,,,,,,5.79180000000000E-01,6.43900000000000E-01,6.98230000000000E-01,7.85680000000000E-01,8.31250000000000E-01,8.49750000000000E-01,9.23230000000000E-01,,9.54300000000000E-01,1.01227000000000E+00,1.05094000000000E+00,,
BHR,,,,,,,,,,,,,,,,,,,,,,,,,,,,,,,,,,,,,,,,1.31572700000000E+01,1.42978800000000E+01,1.52247600000000E+01,1.48574600000000E+01,1.52084600000000E+01,1.55044700000000E+01,1.58852700000000E+01,1.65182300000000E+01,,1.85953700000000E+01,1.98580100000000E+01,2.12490100000000E+01,
BHS,,,,,,,,,,,,,,,,,,,,,,,,,,,,,,,,,,,,,,,,,,,2.79065400000000E+01,2.43054900000000E+01,,2.89071000000000E+01,2.75520500000000E+01,3.16860000000000E+01,3.14776600000000E+01,3.16420600000000E+01,,
BIH,,,,,,,,,,,,,,,,,,,,,,,,,,,,,,,,,,,,,,,,,,,,,,,,,,,1.52556000000000E+00,
BLR,,,,,,,,,,,,,,,,,,,,,,,,,,,,,,,,,,,,,,,,5.21200000000000E-02,2.17020000000000E-01,6.14700000000000E-02,6.42400000000000E-02,5.36200000000000E-02,5.96000000000000E-02,6.03100000000000E-02,5.01700000000000E-02,5.19900000000000E-02,,,,
BLZ,,,,,,,,,,,,,,,,,,,,,,,,,,,,,,,,,,,,,,,,,7.65138800000000E+01,7.38757900000000E+01,,,,,7.09513400000000E+01,7.35192800000000E+01,7.01060400000000E+01,6.44242000000000E+01,6.32062200000000E+01,
BMU,,,,,,,,,,,,,,,,,,,,,,,,,,,,,,,,,,,,,,,,,,3.90276000000000E+01,4.11829100000000E+01,4.11802600000000E+01,3.98500900000000E+01,4.03910800000000E+01,4.23196100000000E+01,,,,4.52467200000000E+01,
BOL,,,,,,,,,,,,,,,,,,,,,,,,,,,,,,,,,,,,,,,,,2.91853400000000E+01,2.91651800000000E+01,2.80265300000000E+01,,,,1.32427800000000E+01,1.34919300000000E+01,1.35175000000000E+01,,,
BRA,,,,,,,,,,,,,,,,,,,,,,,,,,,,,,,,,,,,,,,,1.24253400000000E+01,1.12741300000000E+01,1.12718500000000E+01,1.10464900000000E+01,1.08900500000000E+01,1.22898500000000E+01,1.25376200000000E+01,,1.14373700000000E+01,1.26405700000000E+01,1.30763200000000E+01,,
BRB,,,,,,,,,,,,,,,,,,,,,,,,,,,,,,,,,,,,,,,,,6.26665000000000E+00,,5.93139000000000E+00,5.43753000000000E+00,4.80282000000000E+00,5.04249000000000E+00,5.14025000000000E+00,5.13292000000000E+00,5.45312000000000E+00,5.45464000000000E+00,5.55983000000000E+00,
BRN,,,,,,,,,,,,,,,,,,,,,,,,,,,,,,,,,,,,,,,1.16155900000000E+01,1.10149300000000E+01,1.06563700000000E+01,,1.12426300000000E+01,1.21957900000000E+01,1.29319100000000E+01,1.27858800000000E+01,1.28947200000000E+01,1.28170100000000E+01,1.28860000000000E+01,1.32525600000000E+01,,
BTN,,,,,,,,,,,,,,,,,,,,,,,,,,,,,,,,,,,,,,,0.00000000000000E+00,,,,,,,8.02724000000000E+00,7.51416000000000E+00,,9.17310000000000E+00,1.24153300000000E+01,,
BWA,,,,,,,,,,,,,,,,,,,,,,,,,,,,,,,,,,,,,,,5.46395000000000E+00,4.07911000000000E+00,4.08329000000000E+00,4.04459000000000E+00,4.11587000000000E+00,4.08709000000000E+00,,,4.06593000000000E+00,3.03859000000000E+00,,,,
CAF,,,,,,,,,,,,,,,,,,,,,,,,,,,,,,,,,,,,,,,,,,,,,,,,,8.94419000000000E+00,9.68170000000000E+00,1.29143400000000E+01,
CAN,,,,,,,,,,,,,,,,,,,,,,,,,,,,,,,,,,,,,,,5.88691000000000E+00,6.70256000000000E+00,6.63945000000000E+00,,,,,5.94990000000000E+00,5.82028000000000E+00,,6.53719000000000E+00,,,
CHE,,,,,,,,,,,,,,,,,,,,,,,,,,,,,,,,,,,,,,,,7.88251000000000E+00,7.67371000000000E+00,7.64318000000000E+00,7.15260000000000E+00,6.97924000000000E+00,6.98970000000000E+00,7.06023000000000E+00,7.10493000000000E+00,7.28208000000000E+00,7.24710000000000E+00,7.32189000000000E+00,,
CHL,,,,,,,,,,,,,,,,,,,,,,,,,,,,,,,,,,,,,,,4.59166800000000E+01,4.61295100000000E+01,4.97018200000000E+01,,4.82128500000000E+01,,5.11916200000000E+01,5.21726600000000E+01,5.36706800000000E+01,5.46031300000000E+01,5.60731900000000E+01,5.69665000000000E+01,,
CHN,,,,,,,,,,,,,,,,,,,,,,,,,,,,,,,,,,,,,,,,,,,,,,,7.48092000000000E+00,8.32112000000000E+00,9.05838000000000E+00,9.59147000000000E+00,,
CIV,,,,,,,,,,,,,,,,,,,,,,,,,,,,,,,,,,,,,,,,3.62254000000000E+01,,,,,,,,,,,,
CMR,,,,,,,,,,,,,,,,,,,,,,,,,,,,,,,,,,,,,,,2.79714000000000E+01,,3.20934600000000E+01,3.66983200000000E+01,,,,,2.81963900000000E+01,,2.94189600000000E+01,2.21822300000000E+01,,
COG,,,,,,,,,,,,,,,,,,,,,,,,,,,,,,,,,,,,,,,,,,,1.40277500000000E+01,1.32207400000000E+01,2.20927800000000E+01,,,,,,,
COL,,,,,,,,,,,,,,,,,,,,,,,,,,,,,,,,,,,,,,,3.33516000000000E+01,3.23592800000000E+01,3.00819700000000E+01,2.52992600000000E+01,2.40709700000000E+01,,2.23516000000000E+01,2.37628500000000E+01,2.37011500000000E+01,2.40695100000000E+01,2.39930600000000E+01,2.21894900000000E+01,2.10441200000000E+01,
COM,,,,,,,,,,,,,,,,,,,,,,,,,,,,,,,,,,,,,,,,4.61870600000000E+01,4.50536900000000E+01,,3.41146600000000E+01,4.20960500000000E+01,4.11030100000000E+01,,,,,,,
CPV,,,,,,,,,,,,,,,,,,,,,,,,,,,,,,,,,,,,,,,,,,0.00000000000000E+00,0.00000000000000E+00,0.00000000000000E+00,0.00000000000000E+00,0.00000000000000E+00,,,,1.24866300000000E+01,1.34150500000000E+01,
CRI,,,,,,,,,,,,,,,,,,,,,,,,,,,,,,,,,,,,,,,1.52836430180180E+01,1.23866300000000E+01,1.32250800000000E+01,1.24890800000000E+01,1.24980500000000E+01,1.25884200000000E+01,1.25778900000000E+01,,9.79948000000000E+00,1.00271500000000E+01,1.03342100000000E+01,9.83742000000000E+00,9.65636000000000E+00,
CYM,,,,,,,,,,,,,,,,,,,,,,,,,,,,,,,,,,,,,,,,2.51046000000000E+01,2.50213500000000E+01,2.55883600000000E+01,2.52883400000000E+01,,2.80636800000000E+01,2.50000000000000E+01,2.96309100000000E+01,2.88704300000000E+01,2.88617900000000E+01,,,
CYP,,,,,,,,,,,,,,,,,,,,,,,,,,,,,,,,,,,,,,,,1.00079300000000E+01,9.98948000000000E+00,1.05627100000000E+01,1.10644900000000E+01,1.18032500000000E+01,1.27932600000000E+01,1.34664700000000E+01,1.39784300000000E+01,1.43833000000000E+01,1.57513200000000E+01,1.70779300000000E+01,,
CZE,,,,,,,,,,,,,,,,,,,,,,,,,,,,,,,,,,,,,,,,5.83499000000000E+00,5.66006000000000E+00,6.33364000000000E+00,6.65076000000000E+00,7.09360000000000E+00,7.05278000000000E+00,7.17842000000000E+00,7.35967000000000E+00,7.79434000000000E+00,8.05209000000000E+00,8.37679000000000E+00,,
DEU,,,,,,,,,,,,,,,,,,,,,,,,,,,,,,,,,,,,,,,,6.53601000000000E+00,6.70299000000000E+00,6.85895000000000E+00,6.99860000000000E+00,7.22858000000000E+00,7.49170000000000E+00,7.77452000000000E+00,8.01984000000000E+00,8.37466000000000E+00,8.61950000000000E+00,8.39541000000000E+00,,
DJI,,,,,,,,,,,,,,,,,,,,,,,,,,,,,,,,,,,,,,,,1.38353400000000E+01,9.06906000000000E+00,1.46480200000000E+01,1.52515100000000E+01,,2.10290400000000E+01,2.33262600000000E+01,1.70791300000000E+01,1.58441000000000E+01,1.22038900000000E+01,1.15226000000000E+01,,
DMA,,,,,,,,,,,,,,,,,,,,,,,,,,,,,,,,,,,,,,,,2.66909900000000E+01,,,3.39200000000000E+01,3.25349600000000E+01,3.27671500000000E+01,3.28250400000000E+01,3.22274200000000E+01,2.55580800000000E+01,2.64742100000000E+01,2.71000800000000E+01,2.87023400000000E+01,
DNK,,,,,,,,,,,,,,,,,,,,,,,,,,,,,,,,,,,,,,,,1.17898000000000E+01,1.14833100000000E+01,2.36273000000000E+00,1.11167100000000E+01,,1.29647600000000E+01,1.29503700000000E+01,1.35398400000000E+01,1.33613300000000E+01,,1.40687100000000E+01,,
DOM,,,,,,,,,,,,,,,,,,,,,,,,,,,,,,,,,,,,,,,,2.32741300000000E+01,2.32715400000000E+01,2.31198400000000E+01,2.31354300000000E+01,2.33976800000000E+01,2.49070500000000E+01,2.45771600000000E+01,2.25083100000000E+01,,2.20924000000000E+01,2.29544000000000E+01,2.15802300000000E+01,
DZA,,,,,,,,,,,,,,,,,,,,,,,,,,,,,,,,,,,,,,,,,,,,,,0.00000000000000E+00,,,,1.34210000000000E-01,,
EAP,,,,,,,,,,,,,,,,,,,,,,,,,,,,,,,,,,,,,,,,,,,,,,,1.27967588839990E+01,1.44495180333723E+01,1.43698102562915E+01,1.48377083345308E+01,,
EAS,,,,,,,,,,,,,,,,,,,,,,,,,,,,,,,,,,,,,,,,,,,,,,,1.39325309957088E+01,1.53290569443829E+01,1.53695453867377E+01,1.58568503229962E+01,,
ECA,,,,,,,,,,,,,,,,,,,,,,,,,,,,,,,,,,,,,,,,,,,,5.27009999018812E-01,5.81104661520864E-01,5.66487604075816E-01,6.47216275259104E-01,7.16604481779445E-01,8.94723277032918E-01,,,
ECS,,,,,,,,,,,,,,,,,,,,,,,,,,,,,,,,,,,,,,,,,,1.27766906496606E+01,1.28918605387844E+01,1.04995780457158E+01,1.07351731818947E+01,9.56091413193642E+00,9.53693215931172E+00,9.76984548818807E+00,1.05257897870305E+01,1.10681209862966E+01,,
ECU,,,,,,,,,,,,,,,,,,,,,,,,,,,,,,,,,,,,,,,2.42474665534280E+01,2.42630100000000E+01,2.39611000000000E+01,2.46366400000000E+01,3.22955600000000E+01,3.30869300000000E+01,3.32676700000000E+01,3.33830600000000E+01,3.28917600000000E+01,3.20081300000000E+01,,3.34949300000000E+01,,
EGY,,,,,,,,,,,,,,,,,,,,,,,,,,,,,,,,,,,,,,,,,,,6.00000000000000E+00,5.99999000000000E+00,5.49141000000000E+00,,,,,,,
EMU,,,,,,,,,,,,,,,,,,,,,,,,,,,,,,,,,,,,,,,,1.68307983944357E+01,1.84379930008236E+01,1.89556831894631E+01,1.86664898828702E+01,1.88541943875959E+01,1.86619523385460E+01,1.53990891119103E+01,1.55696369670666E+01,1.59075645714848E+01,1.64405763395911E+01,1.67708318162083E+01,,
ERI,,,,,,,,,,,,,,,,,,,,,,,,,,,,,,,,,,,,,,,,6.50906000000000E+00,5.61575000000000E+00,5.99406000000000E+00,5.70510000000000E+00,5.82181000000000E+00,6.16616000000000E+00,5.80611000000000E+00,5.44107000000000E+00,5.18526000000000E+00,5.74605000000000E+00,5.22226000000000E+00,4.55414000000000E+00,
ESP,,,,,,,,,,,,,,,,,,,,,,,,,,,,,,,,,,,,,,,,2.75782900000000E+01,2.85739800000000E+01,2.90796700000000E+01,2.94171100000000E+01,2.93556600000000E+01,2.90925300000000E+01,2.82009600000000E+01,2.82388800000000E+01,2.82197600000000E+01,2.85552700000000E+01,2.86622600000000E+01,,
EST,,,,,,,,,,,,,,,,,,,,,,,,,,,,,,,,,,,,,,,,1.03206000000000E+00,1.07541000000000E+00,1.43974000000000E+00,1.63464000000000E+00,1.82004000000000E+00,1.92713000000000E+00,2.00895000000000E+00,2.20382000000000E+00,2.34076000000000E+00,2.64004000000000E+00,3.48828000000000E+00,,
ETH,,,,,,,,,,,,,,,,,,,,,,,,,,,,,,,,,,,,,,,,,,,,,,,,,,8.75576000000000E+00,1.43873800000000E+01,
EUU,,,,,,,,,,,,,,,,,,,,,,,,,,,,,,,,,,,,,,,,1.55889037544118E+01,1.58215063855510E+01,1.59901430072561E+01,1.62000768446015E+01,1.66376362409408E+01,1.65458078940588E+01,1.46175374484699E+01,1.43588478747525E+01,1.45073918356643E+01,1.51705736172226E+01,1.57898287818045E+01,,
FIN,,,,,,,,,,,,,,,,,,,,,,,,,,,,,,,,,,,,,,,5.68206000000000E+00,5.90708000000000E+00,7.82542000000000E+00,8.43339000000000E+00,8.17738000000000E+00,8.16493000000000E+00,6.61626000000000E+00,6.57693000000000E+00,6.65958000000000E+00,6.82467000000000E+00,6.78520000000000E+00,6.91123000000000E+00,,
FJI,,,,,,,,,,,,,,,,,,,,,,,,,,,,,,,,,,,,,,,,,,,,,9.19449500000000E+01,9.19855300000000E+01,,,9.21348200000000E+01,,,
FRA,,,,,,,,,,,,,,,,,,,,,,,,,,,,,,,,,,,,,,,,2.49902100000000E+01,2.50311800000000E+01,2.50991900000000E+01,2.51153500000000E+01,2.53090800000000E+01,2.53044900000000E+01,2.50164500000000E+01,2.52358700000000E+01,2.55883400000000E+01,2.59175900000000E+01,2.59322300000000E+01,,
GAB,,,,,,,,,,,,,,,,,,,,,,,,,,,,,,,,,,,,,,,,2.93414800000000E+01,,,2.98181400000000E+01,,,,,,,,,
GBR,,,,,,,,,,,,,,,,,,,,,,,,,,,,,,,,,,,,,,,,2.56606800000000E+01,2.60483200000000E+01,2.57430000000000E+01,2.68086100000000E+01,2.63329400000000E+01,2.89091800000000E+01,2.95190700000000E+01,2.49549000000000E+01,2.48688500000000E+01,2.59549000000000E+01,2.74445300000000E+01,,
GEO,,,,,,,,,,,,,,,,,,,,,,,,,,,,,,,,,,,,,,,,,,2.46676000000000E+00,2.21701000000000E+00,2.79797000000000E+00,3.14184000000000E+00,3.58057000000000E+00,4.43410000000000E+00,4.83107000000000E+00,5.33944000000000E+00,6.41419000000000E+00,,
GHA,,,,,,,,,,,,,,,,,,,,,,,,,,,,,,,,,,,,,,,,7.12562000000000E+00,9.61967000000000E+00,1.04947400000000E+01,1.15490900000000E+01,1.09855600000000E+01,,1.42102100000000E+01,1.34226900000000E+01,1.48596600000000E+01,1.59719000000000E+01,1.49461100000000E+01,,
GIB,,,,,,,,,,,,,,,,,,,,,,,,,,,,,,,,,,,,,,,,,,5.35484000000000E+00,,,,,,,2.27001000000000E+00,1.62945000000000E+00,,
GIN,,,,,,,,,,,,,,,,,,,,,,,,,,,,,,,,,,,,,,,,,,,,1.20663900000000E+01,9.29315000000000E+00,,1.58645500000000E+01,,2.33278400000000E+01,,,
GNB,,,,,,,,,,,,,,,,,,,,,,,,,,,,,,,,,,,,,,,,,1.27797600000000E+01,,,,,,,,,,,
GNQ,,,,,,,,,,,,,,,,,,,,,,,,,,,,,,,,,,,,,,,,2.32349400000000E+01,,,,,,,,,,,,
GRC,,,,,,,,,,,,,,,,,,,,,,,,,,,,,,,,,,,,,,,4.95375000000000E+00,5.02969000000000E+00,5.55984000000000E+00,5.81899000000000E+00,5.74799000000000E+00,5.96022000000000E+00,5.86272000000000E+00,5.53039000000000E+00,5.62401000000000E+00,5.18862000000000E+00,,,,
GRD,,,,,,,,,,,,,,,,,,,,,,,,,,,,,,,,,,,,,,,,,,,5.51531100000000E+01,5.96568000000000E+01,,,,5.96784100000000E+01,6.23386000000000E+01,6.13090400000000E+01,6.22695700000000E+01,
GTM,,,,,,,,,,,,,,,,,,,,,,,,,,,,,,,,,,,,,,,,,,,7.35283200000000E+01,,7.39380000000000E+01,7.38614900000000E+01,7.36701500000000E+01,7.40413200000000E+01,7.41165200000000E+01,,6.73383200000000E+01,
GUY,,,,,,,,,,,,,,,,,,,,,,,,,,,,,,,,,,,,,,,,8.13600000000000E-01,1.05620000000000E+00,,,1.78742000000000E+00,,,,2.07483000000000E+00,2.50559000000000E+00,2.44907000000000E+00,6.23482000000000E+00,
HIC,,,,,,,,,,,,,,,,,,,,,,,,,,,,,,,,,,,,,,,,1.57596546728940E+01,1.58749062943655E+01,1.63139886873745E+01,1.60750896598311E+01,1.65090502436874E+01,1.64428060792960E+01,1.46481505751967E+01,1.45167780697142E+01,1.49844527128568E+01,1.49280164627630E+01,1.58761744376648E+01,,
HKG,,,,,,,,,,,,,,,,,,,,,,,,,,,,,,,,,,,,,,,,,,,1.05863000000000E+01,1.05591300000000E+01,1.08210800000000E+01,1.16369100000000E+01,1.26377100000000E+01,1.38765900000000E+01,1.49059800000000E+01,1.64795100000000E+01,1.68981400000000E+01,
HND,,,,,,,,,,,,,,,,,,,,,,,,,,,,,,,,,,,,,,,,,,,,,,,,,2.63159300000000E+01,,2.46492400000000E+01,
HRV,,,,,,,,,,,,,,,,,,,,,,,,,,,,,,,,,,,,,,,,6.53720000000000E-01,7.62660000000000E-01,8.55950000000000E-01,9.14360000000000E-01,1.02165000000000E+00,,1.21763000000000E+00,1.27805000000000E+00,1.29940000000000E+00,1.35380000000000E+00,1.41581000000000E+00,,
HUN,,,,,,,,,,,,,,,,,,,,,,,,,,,,,,,,,,,,,,,5.37335000000000E+00,6.39414000000000E+00,7.17439000000000E+00,8.44923000000000E+00,9.71927000000000E+00,1.02743800000000E+01,9.21897000000000E+00,9.75698000000000E+00,9.98128000000000E+00,1.07653400000000E+01,1.15848500000000E+01,1.23500100000000E+01,,
IDN,,,,,,,,,,,,,,,,,,,,,,,,,,,,,,,,,,,,,,,,,4.27058700000000E+01,4.27035900000000E+01,4.27211600000000E+01,4.29378600000000E+01,4.29423500000000E+01,4.41694300000000E+01,4.34884800000000E+01,4.87737700000000E+01,4.28853600000000E+01,4.32708100000000E+01,,
IND,,,,,,,,,,,,,,,,,,,,,,,,,,,,,,,,,,,,,,,,,4.23734500000000E+01,4.25631300000000E+01,4.19937200000000E+01,4.18929100000000E+01,,,,,,,,
IRL,,,,,,,,,,,,,,,,,,,,,,,,,,,,,,,,,,,,,,,4.14390000000000E-01,3.82600000000000E-01,5.54920000000000E-01,4.68300000000000E-01,7.67390000000000E-01,6.65270000000000E-01,6.28280000000000E-01,5.96210000000000E-01,3.21870000000000E-01,6.65790000000000E-01,7.64800000000000E-01,7.85200000000000E-01,,
IRN,,,,,,,,,,,,,,,,,,,,,,,,,,,,,,,,,,,,,,,,,,,,6.71645000000000E+00,,8.74974000000000E+00,7.01249000000000E+00,6.88503000000000E+00,6.65409000000000E+00,,,
ISL,,,,,,,,,,,,,,,,,,,,,,,,,,,,,,,,,,,,,,,4.00301000000000E+00,3.78079000000000E+00,4.04569000000000E+00,4.18816000000000E+00,4.73631000000000E+00,4.09981000000000E+00,4.25076000000000E+00,5.85481000000000E+00,6.48083000000000E+00,6.79851000000000E+00,7.23307000000000E+00,1.19886000000000E+01,,
ISR,,,,,,,,,,,,,,,,,,,,,,,,,,,,,,,,,,,,,,,,,0.00000000000000E+00,,,,,,,,,,,
ITA,,,,,,,,,,,,,,,,,,,,,,,,,,,,,,,,,,,,,,,,5.90419000000000E+00,5.11056000000000E+00,5.37227000000000E+00,5.21954000000000E+00,5.01040000000000E+00,4.69037000000000E+00,4.65283000000000E+00,4.80460000000000E+00,5.01445000000000E+00,5.28268000000000E+00,7.04018000000000E+00,,
JAM,,,,,,,,,,,,,,,,,,,,,,,,,,,,,,,,,,,,,,,,,,2.36536000000000E+00,2.90650000000000E+00,1.64867000000000E+00,5.79026000000000E+00,5.79381000000000E+00,,,4.48158000000000E+00,5.66022000000000E+00,,
JOR,,,,,,,,,,,,,,,,,,,,,,,,,,,,,,,,,,,,,,,,1.65056200000000E+01,1.64567700000000E+01,,1.62091300000000E+01,1.62730000000000E+01,1.65686000000000E+01,,1.69868900000000E+01,1.70066900000000E+01,1.80810200000000E+01,,,
JPN,,,,,,,,,,,,,,,,,,,,,,,,,,,,,,,,,,,,,,,,,1.84417600000000E+01,1.85790700000000E+01,1.85873900000000E+01,1.86504200000000E+01,1.87966600000000E+01,1.90265000000000E+01,1.91365300000000E+01,1.91163200000000E+01,1.90361000000000E+01,1.91462300000000E+01,,
KAZ,,,,,,,,,,,,,,,,,,,,,,,,,,,,,,,,,,,,,,,,7.50330000000000E-01,6.86010000000000E-01,6.95240000000000E-01,8.61960000000000E-01,8.29930000000000E-01,8.41950000000000E-01,8.27590000000000E-01,7.29650000000000E-01,7.87000000000000E-01,7.57940000000000E-01,6.89380000000000E-01,7.85200000000000E-01,
KEN,,,,,,,,,,,,,,,,,,,,,,,,,,,,,,,,,,,,,,,,,,,,,,,8.08815000000000E+00,1.13487200000000E+01,1.17002700000000E+01,1.26512500000000E+01,,
KGZ,,,,,,,,,,,,,,,,,,,,,,,,,,,,,,,,,,,,,,,,2.36040000000000E-01,2.21240000000000E-01,3.80210000000000E-01,2.58190000000000E-01,2.29420000000000E-01,4.56450000000000E-01,6.99940000000000E-01,1.04038000000000E+00,1.35620000000000E+00,1.48371000000000E+00,1.27566000000000E+00,1.25820000000000E+00,
KHM,,,,,,,,,,,,,,,,,,,,,,,,,,,,,,,,,,,,,,,,0.00000000000000E+00,5.38200000000000E-01,,3.75080000000000E-01,3.16850000000000E-01,,,1.22839000000000E+00,1.97207000000000E+00,,,,
KNA,,,,,,,,,,,,,,,,,,,,,,,,,,,,,,,,,,,,,,,,,,,3.75000000000000E+00,3.29429000000000E+00,3.89444000000000E+00,3.40188000000000E+00,,3.78151000000000E+00,3.84440000000000E+00,3.41920000000000E+00,4.08542000000000E+00,
KOR,,,,,,,,,,,,,,,,,,,,,,,,,,,,,,,,,,,,,,,4.14455700000000E+01,4.08229500000000E+01,3.96041700000000E+01,3.84232100000000E+01,3.69925200000000E+01,3.58536300000000E+01,3.42247900000000E+01,3.31775700000000E+01,3.23608800000000E+01,3.21276900000000E+01,3.19443300000000E+01,3.18428700000000E+01,,
KWT,,,,,,,,,,,,,,,,,,,,,,,,,,,,,,,,,,,,,,,,2.69040300000000E+01,2.74532600000000E+01,2.72656800000000E+01,2.75789800000000E+01,2.70803000000000E+01,2.76148000000000E+01,,2.92661100000000E+01,2.93727000000000E+01,2.94770700000000E+01,3.07599700000000E+01,3.16391500000000E+01,
LAC,,,,,,,,,,,,,,,,,,,,,,,,,,,,,,,,,,,,,,,,1.76330735985616E+01,1.72497498958244E+01,1.61817781811890E+01,1.74411199909517E+01,1.49556248342237E+01,1.82972311300325E+01,1.87191450731675E+01,,1.84799814100444E+01,1.89696477712997E+01,1.75107613589889E+01,,
LAO,,,,,,,,,,,,,,,,,,,,,,,,,,,,,,,,,,,,,,,,6.81330000000000E-01,8.68530000000000E-01,8.29780000000000E-01,8.45210000000000E-01,8.39650000000000E-01,1.11439000000000E+00,1.57367000000000E+00,1.36324000000000E+00,1.54742000000000E+00,1.91743000000000E+00,,,
LBN,,,,,,,,,,,,,,,,,,,,,,,,,,,,,,,,,,,,,,,,5.70341300000000E+01,,,,,,,5.64194400000000E+01,5.56340800000000E+01,5.79526700000000E+01,5.86693000000000E+01,5.95698100000000E+01,
LBR,,,,,,,,,,,,,,,,,,,,,,,,,,,,,,,,,,,,,,,,3.71529200000000E+01,,,,,,,,,,,,
LBY,,,,,,,,,,,,,,,,,,,,,,,,,,,,,,,,,,,,,,,,,,,2.78956000000000E+00,2.79050000000000E+00,,,2.15939000000000E+00,,,,,
LCA,,,,,,,,,,,,,,,,,,,,,,,,,,,,,,,,,,,,,,,,,,,,4.47909000000000E+00,4.41270000000000E+00,4.00406000000000E+00,3.67949000000000E+00,3.75017000000000E+00,3.04109000000000E+00,2.96292000000000E+00,2.82824000000000E+00,
LCN,,,,,,,,,,,,,,,,,,,,,,,,,,,,,,,,,,,,,,,,1.76092163336592E+01,1.72256576861604E+01,1.61694011665057E+01,1.74520216827227E+01,1.49984710905094E+01,1.83187103175484E+01,1.87380755881756E+01,,1.84944590881002E+01,1.89823813360690E+01,1.75262660704525E+01,,
LIE,,,,,,,,,,,,,,,,,,,,,,,,,,,,,,,,,,,,,,,,,,,,5.81854000000000E+00,5.78436000000000E+00,6.20117000000000E+00,6.00394000000000E+00,5.61072000000000E+00,6.30414000000000E+00,6.03737000000000E+00,,
LKA,,,,,,,,,,,,,,,,,,,,,,,,,,,,,,,,,,,,,,,,,,,1.99999000000000E+00,2.00001000000000E+00,1.99998000000000E+00,,,,,,,
LMC,,,,,,,,,,,,,,,,,,,,,,,,,,,,,,,,,,,,,,,,,3.75251504450131E+01,3.50398211792353E+01,3.28334750422456E+01,3.34457199772505E+01,,,,,,,,
LSO,,,,,,,,,,,,,,,,,,,,,,,,,,,,,,,,,,,,,,,1.10721900000000E+01,0.00000000000000E+00,0.00000000000000E+00,,2.06670000000000E-01,5.33700000000000E-02,1.47556000000000E+00,2.09083000000000E+00,2.63203000000000E+00,,,,9.61830000000000E-01,
LTU,,,,,,,,,,,,,,,,,,,,,,,,,,,,,,,,,,,,,,,,2.07640000000000E-01,2.16800000000000E-01,2.44080000000000E-01,2.84530000000000E-01,3.06060000000000E-01,3.61230000000000E-01,3.92020000000000E-01,4.41650000000000E-01,6.48910000000000E-01,7.27400000000000E-01,1.01229000000000E+00,,
LUX,,,,,,,,,,,,,,,,,,,,,,,,,,,,,,,,,,,,,,,,1.75006900000000E+01,1.78779200000000E+01,1.77884900000000E+01,1.79211500000000E+01,1.82567100000000E+01,1.80385100000000E+01,1.84359900000000E+01,1.86333100000000E+01,1.81109200000000E+01,1.81580200000000E+01,,,
LVA,,,,,,,,,,,,,,,,,,,,,,,,,,,,,,,,,,,,,,,,7.66700000000000E-01,,1.00477000000000E+00,1.10951000000000E+00,1.11203000000000E+00,1.17713000000000E+00,1.25538000000000E+00,1.26068000000000E+00,1.33081000000000E+00,1.34898000000000E+00,1.40976000000000E+00,,
MAC,,,,,,,,,,,,,,,,,,,,,,,,,,,,,,,,,,,,,,,,9.35528400000000E+01,9.33610400000000E+01,9.33056000000000E+01,9.27791100000000E+01,9.37850300000000E+01,9.40828700000000E+01,9.42693200000000E+01,9.51910800000000E+01,9.51530500000000E+01,9.55247000000000E+01,9.53824200000000E+01,9.53560800000000E+01,
MAR,,,,,,,,,,,,,,,,,,,,,,,,,,,,,,,,,,,,,,,,4.82326000000000E+00,4.97534000000000E+00,5.00131000000000E+00,,4.62454000000000E+00,4.75216000000000E+00,4.91238000000000E+00,5.19853000000000E+00,,,,,
MCO,,,,,,,,,,,,,,,,,,,,,,,,,,,,,,,,,,,,,,,,2.34131100000000E+01,2.39672200000000E+01,2.46718300000000E+01,,,2.27420400000000E+01,,,,2.23217200000000E+01,2.13457100000000E+01,2.17405800000000E+01,
MDA,,,,,,,,,,,,,,,,,,,,,,,,,,,,,,,,,,,,,,,,,,,1.36888000000000E+00,1.33905000000000E+00,1.49687000000000E+00,1.36437000000000E+00,1.21376000000000E+00,1.11469000000000E+00,1.12154000000000E+00,1.24993000000000E+00,1.26943000000000E+00,
MDG,,,,,,,,,,,,,,,,,,,,,,,,,,,,,,,,,,,,,,,,,,,,,,,4.24107100000000E+01,4.08506600000000E+01,4.05119300000000E+01,4.02961900000000E+01,,
MDV,,,,,,,,,,,,,,,,,,,,,,,,,,,,,,,,,,,,,,,,2.04563700000000E+01,1.74762600000000E+01,1.29434700000000E+01,1.08890200000000E+01,9.41563000000000E+00,1.05963000000000E+01,,1.22254600000000E+01,,,,,
MEA,,,,,,,,,,,,,,,,,,,,,,,,,,,,,,,,,,,,,,,,,,,,6.39266647786472E+00,,,,,,,,
MEX,,,,,,,,,,,,,,,,,,,,,,,,,,,,,,,,,,,,,,,,1.51084300000000E+01,1.59610700000000E+01,1.63458300000000E+01,1.60361300000000E+01,1.55340700000000E+01,1.54590600000000E+01,1.49676200000000E+01,1.49675800000000E+01,1.51553700000000E+01,1.54945600000000E+01,1.37532100000000E+01,,
MHL,,,,,,,,,,,,,,,,,,,,,,,,,,,,,,,,,,,,,,,,3.52190700000000E+01,,,3.43932000000000E+01,,,,,,,2.09409100000000E+01,,
MKD,,,,,,,,,,,,,,,,,,,,,,,,,,,,,,,,,,,,,,,0.00000000000000E+00,,,,4.50570000000000E-01,5.07210000000000E-01,4.96380000000000E-01,6.01390000000000E-01,,6.27750000000000E-01,4.96930000000000E-01,5.84740000000000E-01,,
MLI,,,,,,,,,,,,,,,,,,,,,,,,,,,,,,,,,,,,,,,,,,,,2.47572300000000E+01,2.29039300000000E+01,2.55450100000000E+01,2.61762700000000E+01,2.82501200000000E+01,3.10730800000000E+01,3.23179400000000E+01,3.20529900000000E+01,
MLT,,,,,,,,,,,,,,,,,,,,,,,,,,,,,,,,,,,,,,,,2.45947900000000E+01,2.65707700000000E+01,2.73073400000000E+01,2.78524000000000E+01,2.79422700000000E+01,2.79246500000000E+01,2.64423700000000E+01,,2.78659700000000E+01,,2.57723900000000E+01,,
MMR,,,,,,,,,,,,,,,,,,,,,,,,,,,,,,,,,,,,,,,,,,,,,,,,,,3.21043000000000E+00,0.00000000000000E+00,
MNA,,,,,,,,,,,,,,,,,,,,,,,,,,,,,,,,,,,,,,,,,,,,5.81658234783996E+00,,,,,,,,
MNE,,,,,,,,,,,,,,,,,,,,,,,,,,,,,,,,,,,,,,,,,,,,,,,,,,1.87860000000000E-01,1.92480000000000E-01,
MNG,,,,,,,,,,,,,,,,,,,,,,,,,,,,,,,,,,,,,,,,1.27660000000000E-01,2.91350000000000E-01,1.35094000000000E+00,1.64452000000000E+00,2.21758000000000E+00,2.85210000000000E+00,3.65749000000000E+00,,,,6.78568000000000E+00,,
MOZ,,,,,,,,,,,,,,,,,,,,,,,,,,,,,,,,,,,,,,,,,,,,,,1.46954500000000E+01,1.35590100000000E+01,1.29915300000000E+01,1.13942800000000E+01,1.19194800000000E+01,1.18987600000000E+01,
MRT,,,,,,,,,,,,,,,,,,,,,,,,,,,,,,,,,,,,,,,,,,,8.83399000000000E+00,9.40680000000000E+00,1.01174000000000E+01,1.26384800000000E+01,1.67758200000000E+01,,,2.28332000000000E+01,2.68713900000000E+01,
MUS,,,,,,,,,,,,,,,,,,,,,,,,,,,,,,,,,,,,,,,7.39275200000000E+01,7.35216700000000E+01,6.76682600000000E+01,6.83622900000000E+01,7.32512600000000E+01,,,,5.93574500000000E+01,5.76403900000000E+01,5.56959800000000E+01,5.45818100000000E+01,5.37595700000000E+01,
MWI,,,,,,,,,,,,,,,,,,,,,,,,,,,,,,,,,,,,,,,,,,,,,,,1.24587300000000E+01,,,,,
MYS,,,,,,,,,,,,,,,,,,,,,,,,,,,,,,,,,,,,,,,6.49076000000000E+00,7.54673000000000E+00,5.80731000000000E+00,6.55480000000000E+00,3.47586000000000E+00,5.27399000000000E+00,5.32300000000000E+00,3.20539000000000E+00,4.09747000000000E+00,3.83848000000000E+00,4.00993000000000E+00,,,
NAC,,,,,,,,,,,,,,,,,,,,,,,,,,,,,,,,,,,,,,,,9.35513402244535E+00,9.35039220267226E+00,9.65695872803228E+00,8.81555984733550E+00,9.15963527149830E+00,8.81641290705117E+00,8.40644204433763E+00,7.99752730858798E+00,8.76462000000000E+00,8.55955765097152E+00,8.92714000000000E+00,,
NAM,,,,,,,,,,,,,,,,,,,,,,,,,,,,,,,,,,,,,,,4.53051000000000E+00,4.41743000000000E+00,4.25134000000000E+00,3.94724000000000E+00,4.43016000000000E+00,,6.10788000000000E+00,4.69805000000000E+00,4.85952000000000E+00,4.92154000000000E+00,,,,
NER,,,,,,,,,,,,,,,,,,,,,,,,,,,,,,,,,,,,,,,,1.64009400000000E+01,,,1.58587200000000E+01,1.49131500000000E+01,1.15496100000000E+01,1.08775000000000E+01,1.03889600000000E+01,1.50188600000000E+01,1.87623100000000E+01,2.00058500000000E+01,1.84679000000000E+01,
NGA,,,,,,,,,,,,,,,,,,,,,,,,,,,,,,,,,,,,,,,,,,,,,,,1.18466900000000E+01,1.36792400000000E+01,1.29024000000000E+01,1.99781300000000E+01,2.15315900000000E+01,
NIC,,,,,,,,,,,,,,,,,,,,,,,,,,,,,,,,,,,,,,,,3.20635300000000E+01,3.04981800000000E+01,3.45382300000000E+01,2.91248700000000E+01,2.82662700000000E+01,2.82662300000000E+01,2.72230600000000E+01,2.61516800000000E+01,2.37399000000000E+01,2.32822300000000E+01,,2.18335700000000E+01,
NLD,,,,,,,,,,,,,,,,,,,,,,,,,,,,,,,,,,,,,,,,8.46781200000000E+01,8.30147900000000E+01,8.35606700000000E+01,8.32055600000000E+01,8.32640600000000E+01,8.27857300000000E+01,,,,,,,
NOR,,,,,,,,,,,,,,,,,,,,,,,,,,,,,,,,,,,,,,,6.40026000000000E+00,6.72201000000000E+00,7.07046000000000E+00,7.15624000000000E+00,6.81179000000000E+00,6.41284000000000E+00,6.59438000000000E+00,6.61719000000000E+00,,,6.70329000000000E+00,6.63874000000000E+00,,
NPL,,,,,,,,,,,,,,,,,,,,,,,,,,,,,,,,,,,,,,,,,,1.59095300000000E+01,1.65927300000000E+01,2.77713200000000E+01,,2.67281400000000E+01,,,1.43626500000000E+01,,,
NZL,,,,,,,,,,,,,,,,,,,,,,,,,,,,,,,,,,,,,,,9.03696000000000E+00,9.74591000000000E+00,1.01594600000000E+01,1.12591100000000E+01,8.92995000000000E+00,9.99234000000000E+00,1.97543500000000E+01,2.16562900000000E+01,2.11622600000000E+01,2.03332600000000E+01,2.04655200000000E+01,2.29230800000000E+01,,
OEC,,,,,,,,,,,,,,,,,,,,,,,,,,,,,,,,,,,,,,,,1.57921636070956E+01,1.59022942271105E+01,1.63228001405541E+01,1.60874805564512E+01,1.64950536673621E+01,1.62809098091967E+01,1.47518674837293E+01,1.43629622058771E+01,1.49593535269629E+01,1.49845388967266E+01,1.57170336889449E+01,,
OED,,,,,,,,,,,,,,,,,,,,,,,,,,,,,,,,,,,,,,,,1.62174924132823E+01,1.64079796295283E+01,1.63252123024307E+01,1.66052871022141E+01,1.63861883950438E+01,1.67936070912417E+01,1.54266602117367E+01,1.51226682234803E+01,1.56911339392910E+01,1.57557585616296E+01,1.61712043644819E+01,,
OMN,,,,,,,,,,,,,,,,,,,,,,,,,,,,,,,,,,,,,,,,8.53600000000000E-01,9.00500000000000E-01,9.02570000000000E-01,9.13370000000000E-01,9.67050000000000E-01,,,,,,7.53847000000000E+00,6.36189000000000E+00,
PAK,,,,,,,,,,,,,,,,,,,,,,,,,,,,,,,,,,,,,,,,,,,,,3.20000000000000E+01,3.20000000000000E+01,3.24105800000000E+01,3.14108400000000E+01,3.13526900000000E+01,3.16539400000000E+01,3.15311100000000E+01,
PAN,,,,,,,,,,,,,,,,,,,,,,,,,,,,,,,,,,,,,,,1.63301310043668E+01,1.63349800000000E+01,1.56918800000000E+01,1.49432400000000E+01,1.45067400000000E+01,1.45182800000000E+01,1.48369400000000E+01,1.51414400000000E+01,1.55498900000000E+01,1.57475800000000E+01,1.57324900000000E+01,1.80489000000000E+01,1.63952400000000E+01,
PER,,,,,,,,,,,,,,,,,,,,,,,,,,,,,,,,,,,,,,,,1.59744300000000E+01,1.68904800000000E+01,1.71818800000000E+01,1.73105100000000E+01,1.68381900000000E+01,2.34848100000000E+01,2.42330200000000E+01,2.22995500000000E+01,2.27432800000000E+01,2.29415600000000E+01,2.40675700000000E+01,,
PHL,,,,,,,,,,,,,,,,,,,,,,,,,,,,,,,,,,,,,,,2.79855000000000E+01,2.63430000000000E+01,,2.26652000000000E+01,2.15167100000000E+01,2.04540800000000E+01,1.97225100000000E+01,1.98983300000000E+01,2.03922600000000E+01,2.02763900000000E+01,2.04761100000000E+01,,,
PLW,,,,,,,,,,,,,,,,,,,,,,,,,,,,,,,,,,,,,,,,2.71933900000000E+01,2.91425600000000E+01,,,,2.75846900000000E+01,2.74759000000000E+01,,2.82271200000000E+01,,,,
PNG,,,,,,,,,,,,,,,,,,,,,,,,,,,,,,,,,,,,,,,2.42319000000000E+00,,,,,,,,,,,,,
POL,,,,,,,,,,,,,,,,,,,,,,,,,,,,,,,,,,,,,,,,,4.50564000000000E+00,5.00168000000000E+00,5.42282000000000E+00,5.62484000000000E+00,2.33827000000000E+00,2.45734000000000E+00,2.76788000000000E+00,3.09653000000000E+00,3.51946000000000E+00,3.87503000000000E+00,,
PRI,,,,,,,,,,,,,,,,,,,,,,,,,,,,,,,,,,,,,,,,,,,,,,,,,,,2.12779800000000E+01,
PRT,,,,,,,,,,,,,,,,,,,,,,,,,,,,,,,,,,,,,,,,1.18119000000000E+01,1.23965200000000E+01,1.35839700000000E+01,1.42156500000000E+01,1.46670700000000E+01,1.51480800000000E+01,1.50374400000000E+01,1.55403600000000E+01,1.56716200000000E+01,1.59788700000000E+01,1.59369900000000E+01,,
PRY,,,,,,,,,,,,,,,,,,,,,,,,,,,,,,,,,,,,,,,2.92626900000000E+01,2.94134200000000E+01,2.76004900000000E+01,2.62883700000000E+01,2.56413400000000E+01,1.98838900000000E+01,2.00933100000000E+01,2.10908900000000E+01,2.04254800000000E+01,,2.15408700000000E+01,2.16250900000000E+01,,
QAT,,,,,,,,,,,,,,,,,,,,,,,,,,,,,,,,,,,,,,,,2.62212000000000E+01,,2.87386400000000E+01,3.03576500000000E+01,3.16913400000000E+01,3.22669700000000E+01,3.21766400000000E+01,3.34410700000000E+01,3.41603200000000E+01,3.78003800000000E+01,3.84401700000000E+01,3.86033900000000E+01,
ROM,,,,,,,,,,,,,,,,,,,,,,,,,,,,,,,,,,,,,,,,6.27410000000000E-01,5.09010000000000E-01,5.40020000000000E-01,5.98620000000000E-01,6.04340000000000E-01,6.45560000000000E-01,5.31190000000000E-01,7.10770000000000E-01,9.98170000000000E-01,1.21599000000000E+00,1.59623000000000E+00,,
RUS,,,,,,,,,,,,,,,,,,,,,,,,,,,,,,,,,,,,,,,,,,,,4.15460000000000E-01,4.79630000000000E-01,5.06450000000000E-01,6.19250000000000E-01,6.38100000000000E-01,6.73780000000000E-01,7.12330000000000E-01,,
RWA,,,,,,,,,,,,,,,,,,,,,,,,,,,,,,,,,,,,,,,,4.24875600000000E+01,4.37177900000000E+01,4.35411500000000E+01,4.35942800000000E+01,4.65077300000000E+01,,,,4.10745200000000E+01,3.71352900000000E+01,3.19051200000000E+01,2.42460400000000E+01,
SAS,,,,,,,,,,,,,,,,,,,,,,,,,,,,,,,,,,,,,,,,,4.91398007071693E+01,4.88202075770561E+01,4.70151534000255E+01,4.68559768886726E+01,,,,,,,,
SAU,,,,,,,,,,,,,,,,,,,,,,,,,,,,,,,,,,,,,,,,,,,,,,8.39262000000000E+00,,1.13854400000000E+01,1.26077900000000E+01,,,
SDN,,,,,,,,,,,,,,,,,,,,,,,,,,,,,,,,,,,,,,,,8.37845000000000E+00,8.61407000000000E+00,,,,,1.03661700000000E+01,8.28882000000000E+00,9.85078000000000E+00,1.13443100000000E+01,1.23446200000000E+01,,
SEN,,,,,,,,,,,,,,,,,,,,,,,,,,,,,,,,,,,,,,,,,2.62708000000000E+01,2.50692300000000E+01,2.40753200000000E+01,2.43687100000000E+01,2.62471700000000E+01,2.34792400000000E+01,,,1.97561900000000E+01,,2.09756400000000E+01,
SGP,,,,,,,,,,,,,,,,,,,,,,,,,,,,,,,,,,,,,,,,,,,,,,,,5.88583000000000E+00,5.96468000000000E+00,6.36759000000000E+00,,
SLB,,,,,,,,,,,,,,,,,,,,,,,,,,,,,,,,,,,,,,,,,,,,,,,2.58075500000000E+01,2.69208300000000E+01,,,,
SLE,,,,,,,,,,,,,,,,,,,,,,,,,,,,,,,,,,,,,,,,,,1.85836000000000E+00,,,,,,,,,,
SLV,,,,,,,,,,,,,,,,,,,,,,,,,,,,,,,,,,,,,,,2.49366800000000E+01,2.45323900000000E+01,2.30286100000000E+01,2.14259000000000E+01,,2.01500500000000E+01,,1.77860800000000E+01,1.79884200000000E+01,1.85432600000000E+01,1.79620100000000E+01,1.68843400000000E+01,,
SRB,,,,,,,,,,,,,,,,,,,,,,,,,,,,,,,,,,,,,,,,,,,,,,1.04620000000000E-01,1.75320000000000E-01,2.14420000000000E-01,2.40940000000000E-01,5.20180000000000E-01,4.69000000000000E-01,
SSA,,,,,,,,,,,,,,,,,,,,,,,,,,,,,,,,,,,,,,,,,,,,,,,,,,1.50808182155193E+01,,
SSF,,,,,,,,,,,,,,,,,,,,,,,,,,,,,,,,,,,,,,,,,,,,,,,,,,1.50808182155193E+01,,
STP,,,,,,,,,,,,,,,,,,,,,,,,,,,,,,,,,,,,,,,0.00000000000000E+00,,,,,0.00000000000000E+00,0.00000000000000E+00,0.00000000000000E+00,0.00000000000000E+00,0.00000000000000E+00,0.00000000000000E+00,1.75838000000000E+00,0.00000000000000E+00,
SUR,,,,,,,,,,,,,,,,,,,,,,,,,,,,,,,,,,,,,,,,,,2.21091800000000E+01,,,,2.04242900000000E+01,1.98287900000000E+01,1.83402100000000E+01,1.86541700000000E+01,1.76658700000000E+01,,
SVK,,,,,,,,,,,,,,,,,,,,,,,,,,,,,,,,,,,,,,,5.16069000000000E+00,5.34115000000000E+00,5.50672000000000E+00,5.58763000000000E+00,5.79207000000000E+00,6.38178000000000E+00,6.39665000000000E+00,7.65612000000000E+00,8.19815000000000E+00,8.47824000000000E+00,8.87330000000000E+00,9.27793000000000E+00,,
SVN,,,,,,,,,,,,,,,,,,,,,,,,,,,,,,,,,,,,,,,,7.52160000000000E-01,8.86140000000000E-01,2.06721000000000E+00,2.34008000000000E+00,2.35630000000000E+00,1.11545000000000E+00,1.15555000000000E+00,1.19314000000000E+00,1.37834000000000E+00,1.43087000000000E+00,1.45698000000000E+00,,
SWE,,,,,,,,,,,,,,,,,,,,,,,,,,,,,,,,,,,,,,,,1.83913000000000E+00,2.29321000000000E+00,2.94101000000000E+00,3.89639000000000E+00,,8.33495000000000E+00,9.57982000000000E+00,1.07207000000000E+01,1.20699700000000E+01,1.38465200000000E+01,1.55929700000000E+01,,
SWZ,,,,,,,,,,,,,,,,,,,,,,,,,,,,,,,,,,,,,,,,,,,0.00000000000000E+00,0.00000000000000E+00,0.00000000000000E+00,0.00000000000000E+00,0.00000000000000E+00,0.00000000000000E+00,,1.38045000000000E+00,1.96087000000000E+00,
SYC,,,,,,,,,,,,,,,,,,,,,,,,,,,,,,,,,,,,,,,2.81550000000000E+00,3.22291000000000E+00,2.95789000000000E+00,3.32712000000000E+00,3.85382000000000E+00,4.18488000000000E+00,,,,5.77021000000000E+00,6.47043000000000E+00,7.14572000000000E+00,,
SYR,,,,,,,,,,,,,,,,,,,,,,,,,,,,,,,,,,,,,,,,4.89110000000000E+00,4.87232000000000E+00,4.80052000000000E+00,4.54778000000000E+00,4.25416000000000E+00,4.04719000000000E+00,4.09612000000000E+00,3.99718000000000E+00,3.83617000000000E+00,3.93016000000000E+00,3.84576000000000E+00,3.87774000000000E+00,
TCA,,,,,,,,,,,,,,,,,,,,,,,,,,,,,,,,,,,,,,,,8.61759000000000E+00,8.12808000000000E+00,7.39358000000000E+00,9.78030000000000E+00,1.16129000000000E+01,1.32585800000000E+01,1.63701100000000E+01,,,,,,
TCD,,,,,,,,,,,,,,,,,,,,,,,,,,,,,,,,,,,,,,,,1.40128700000000E+01,1.49108700000000E+01,,1.70890200000000E+01,,,,2.30600600000000E+01,,,,1.63593000000000E+01,
TGO,,,,,,,,,,,,,,,,,,,,,,,,,,,,,,,,,,,,,,,,1.77194900000000E+01,,,,,,2.91989500000000E+01,3.13274300000000E+01,,,,2.06953300000000E+01,
THA,,,,,,,,,,,,,,,,,,,,,,,,,,,,,,,,,,,,,,,,,,9.10325000000000E+00,1.13278800000000E+01,1.13254100000000E+01,1.04092300000000E+01,1.33953600000000E+01,1.49991800000000E+01,1.79777000000000E+01,,1.61120400000000E+01,1.56570700000000E+01,
TMP,,,,,,,,,,,,,,,,,,,,,,,,,,,,,,,,,,,,,,,,,,,,,,,,,2.17939100000000E+01,2.22011700000000E+01,2.57859500000000E+01,
TON,,,,,,,,,,,,,,,,,,,,,,,,,,,,,,,,,,,,,,,,7.28348100000000E+01,,,,,,,,,,,,
TTO,,,,,,,,,,,,,,,,,,,,,,,,,,,,,,,,,,,,,,,,7.58988000000000E+00,8.11458000000000E+00,6.21470000000000E+00,,2.80469000000000E+01,2.69621700000000E+01,2.35321400000000E+01,,,,,,
TUN,,,,,,,,,,,,,,,,,,,,,,,,,,,,,,,,,,,,,,,,8.18367000000000E+00,7.60306000000000E+00,7.64285000000000E+00,,3.94602000000000E+00,3.89889000000000E+00,5.19174000000000E+00,4.70392000000000E+00,4.65795000000000E+00,4.54075000000000E+00,4.14794000000000E+00,,
TZA,,,,,,,,,,,,,,,,,,,,,,,,,,,,,,,,,,,,,,,,,,,,,,,,,,1.11382500000000E+01,,
UGA,,,,,,,,,,,,,,,,,,,,,,,,,,,,,,,,,,,,,,,,,,,,,4.45829100000000E+01,,,,5.14940300000000E+01,,,
UKR,,,,,,,,,,,,,,,,,,,,,,,,,,,,,,,,,,,,,,,,2.51950000000000E-01,,2.50940000000000E-01,3.17200000000000E-01,3.58850000000000E-01,4.15180000000000E-01,4.44960000000000E-01,4.31720000000000E-01,4.17200000000000E-01,4.22010000000000E-01,3.94980000000000E-01,3.69270000000000E-01,
UMC,,,,,,,,,,,,,,,,,,,,,,,,,,,,,,,,,,,,,,,,,,,,,,,9.31574083870810E+00,1.01446248176685E+01,1.06427393592431E+01,1.08965656804322E+01,,
URY,,,,,,,,,,,,,,,,,,,,,,,,,,,,,,,,,,,,,,,1.27071100000000E+01,,1.18134300000000E+01,1.19382300000000E+01,1.11709200000000E+01,1.04863800000000E+01,1.09031800000000E+01,1.12381500000000E+01,1.13411600000000E+01,1.25134000000000E+01,1.42471600000000E+01,1.53616600000000E+01,,
USA,,,,,,,,,,,,,,,,,,,,,,,,,,,,,,,,,,,,,,,9.63581000000000E+00,9.65195000000000E+00,9.65265000000000E+00,9.65115000000000E+00,8.80919000000000E+00,9.15338000000000E+00,8.81025000000000E+00,8.66183000000000E+00,8.22465000000000E+00,8.76462000000000E+00,8.77808000000000E+00,8.92714000000000E+00,,
VCT,,,,,,,,,,,,,,,,,,,,,,,,,,,,,,,,,,,,,,,,,,,,,,2.46114500000000E+01,,,2.36577600000000E+01,2.73667100000000E+01,,
VEN,,,,,,,,,,,,,,,,,,,,,,,,,,,,,,,,,,,,,,,,2.99910600000000E+01,2.71616700000000E+01,2.71450200000000E+01,2.58300500000000E+01,2.50267100000000E+01,2.41333800000000E+01,2.46174300000000E+01,2.53469500000000E+01,2.62255600000000E+01,2.71082300000000E+01,2.82973700000000E+01,2.88247800000000E+01,
VNM,,,,,,,,,,,,,,,,,,,,,,,,,,,,,,,,,,,,,,,,1.06401500000000E+01,1.10893800000000E+01,1.13751600000000E+01,1.08961500000000E+01,,,9.81110000000000E+00,,1.13920900000000E+01,,,,
VUT,,,,,,,,,,,,,,,,,,,,,,,,,,,,,,,,,,,,,,,,,2.73693300000000E+01,,,,,,,,,,,
WBG,,,,,,,,,,,,,,,,,,,,,,,,,,,,,,,,,,,,,,,,4.65706000000000E+00,4.56494000000000E+00,4.80700000000000E+00,4.27886000000000E+00,4.11147000000000E+00,4.29311000000000E+00,4.31473000000000E+00,4.44919000000000E+00,4.60515000000000E+00,4.92519000000000E+00,5.11387000000000E+00,5.45028000000000E+00,
WLD,,,,,,,,,,,,,,,,,,,,,,,,,,,,,,,,,,,,,,,,,,,,,,,,1.67078112228814E+01,,,,
WSM,,,,,,,,,,,,,,,,,,,,,,,,,,,,,,,,,,,,,,,2.98671100000000E+01,3.19431700000000E+01,3.17651400000000E+01,3.16880800000000E+01,,,3.21452600000000E+01,3.21631900000000E+01,,,,,,
YEM,,,,,,,,,,,,,,,,,,,,,,,,,,,,,,,,,,,,,,,,1.19896000000000E+00,,1.31912000000000E+00,,1.65375000000000E+00,1.67827000000000E+00,2.18113000000000E+00,,,,,,
ZAF,,,,,,,,,,,,,,,,,,,,,,,,,,,,,,,,,,,,,,,,2.32655000000000E+00,2.29503000000000E+00,2.37695000000000E+00,2.54094000000000E+00,2.56515000000000E+00,2.60142000000000E+00,2.84331000000000E+00,3.02827000000000E+00,2.95865000000000E+00,3.01680000000000E+00,3.23678000000000E+00,,
ZAR,,,,,,,,,,,,,,,,,,,,,,,,,,,,,,,,,,,,,,,,,,,1.33840300000000E+01,,,,,,,,,
