"Country Code",1960,1961,1962,1963,1964,1965,1966,1967,1968,1969,1970,1971,1972,1973,1974,1975,1976,1977,1978,1979,1980,1981,1982,1983,1984,1985,1986,1987,1988,1989,1990,1991,1992,1993,1994,1995,1996,1997,1998,1999,2000,2001,2002,2003,2004,2005,2006,2007,2008,2009,2010,2011ABW,,,,,,,,,,,,,,,,,,,,,,,,,,,,,,,,,,,,,,,1.20000000000000E+01,1.20000000000000E+01,1.20000000000000E+01,1.20000000000000E+01,1.20000000000000E+01,1.20000000000000E+01,1.20000000000000E+01,1.20000000000000E+01,1.20000000000000E+01,1.20000000000000E+01,1.20000000000000E+01,1.20000000000000E+01,1.20000000000000E+01,
ADO,,,,,,,,,,,1.10000000000000E+01,,,,,1.10000000000000E+01,,,,,1.10000000000000E+01,,,,,1.10000000000000E+01,,,,,1.10000000000000E+01,1.10000000000000E+01,,,,1.10000000000000E+01,,,1.20000000000000E+01,1.20000000000000E+01,1.20000000000000E+01,1.20000000000000E+01,1.20000000000000E+01,1.20000000000000E+01,1.20000000000000E+01,1.20000000000000E+01,1.20000000000000E+01,1.20000000000000E+01,1.20000000000000E+01,1.20000000000000E+01,1.20000000000000E+01,
AFG,,,,,,,,,,,1.30000000000000E+01,,,,1.30000000000000E+01,,,,,,1.30000000000000E+01,,,,,1.30000000000000E+01,,,,,1.30000000000000E+01,,,,,1.30000000000000E+01,,,1.30000000000000E+01,1.30000000000000E+01,1.30000000000000E+01,1.30000000000000E+01,1.30000000000000E+01,1.30000000000000E+01,1.30000000000000E+01,1.30000000000000E+01,1.30000000000000E+01,1.30000000000000E+01,1.30000000000000E+01,1.30000000000000E+01,1.30000000000000E+01,
AGO,,,,,,,,,,,,1.10000000000000E+01,,,,1.10000000000000E+01,,,,,1.10000000000000E+01,,,,,1.10000000000000E+01,,,,,1.00000000000000E+01,1.00000000000000E+01,,,,1.00000000000000E+01,,,1.00000000000000E+01,1.00000000000000E+01,1.00000000000000E+01,1.00000000000000E+01,1.00000000000000E+01,1.00000000000000E+01,1.00000000000000E+01,1.00000000000000E+01,1.00000000000000E+01,1.20000000000000E+01,1.20000000000000E+01,1.20000000000000E+01,1.20000000000000E+01,
ALB,,,,,,,,,,,1.00000000000000E+01,,,,,,1.00000000000000E+01,,,,1.00000000000000E+01,,,,,1.00000000000000E+01,,,,,1.00000000000000E+01,1.00000000000000E+01,,,,1.00000000000000E+01,,,1.00000000000000E+01,1.00000000000000E+01,1.00000000000000E+01,1.00000000000000E+01,1.00000000000000E+01,1.00000000000000E+01,1.00000000000000E+01,1.00000000000000E+01,1.00000000000000E+01,1.00000000000000E+01,1.00000000000000E+01,1.00000000000000E+01,1.00000000000000E+01,
ARE,,,,,,,,,,,,1.20000000000000E+01,,,,1.20000000000000E+01,,,,,1.20000000000000E+01,,,,,1.20000000000000E+01,,,,,1.20000000000000E+01,1.20000000000000E+01,,,,1.20000000000000E+01,,,1.20000000000000E+01,1.20000000000000E+01,1.20000000000000E+01,1.20000000000000E+01,1.20000000000000E+01,1.10000000000000E+01,1.10000000000000E+01,1.10000000000000E+01,1.10000000000000E+01,1.10000000000000E+01,1.10000000000000E+01,1.10000000000000E+01,1.10000000000000E+01,
ARG,,,,,,,,,,,1.30000000000000E+01,,,,,1.30000000000000E+01,,,,,1.30000000000000E+01,,,,,1.30000000000000E+01,,,,,1.30000000000000E+01,1.30000000000000E+01,,,,1.30000000000000E+01,,,1.20000000000000E+01,1.20000000000000E+01,1.20000000000000E+01,1.20000000000000E+01,1.20000000000000E+01,1.20000000000000E+01,1.20000000000000E+01,1.20000000000000E+01,1.20000000000000E+01,1.20000000000000E+01,1.20000000000000E+01,1.20000000000000E+01,1.20000000000000E+01,
ARM,,,,,,,,,,,,,,,,,,,,,,,,,,1.00000000000000E+01,,,,,1.00000000000000E+01,1.00000000000000E+01,,,,1.10000000000000E+01,,,1.00000000000000E+01,1.10000000000000E+01,1.00000000000000E+01,1.00000000000000E+01,1.00000000000000E+01,1.00000000000000E+01,1.00000000000000E+01,1.00000000000000E+01,1.00000000000000E+01,1.00000000000000E+01,1.00000000000000E+01,1.00000000000000E+01,1.00000000000000E+01,
ASM,,,,,,,,,,,,,,,,,,,,,,,,,,,,,,,,1.40000000000000E+01,,,,,,,1.20000000000000E+01,1.20000000000000E+01,,,,,,,,,,,,
ATG,,,,,,,,,,,1.20000000000000E+01,,,,,1.20000000000000E+01,,,,,1.20000000000000E+01,,,,,1.20000000000000E+01,,,,,1.20000000000000E+01,1.20000000000000E+01,,,,1.20000000000000E+01,,,1.20000000000000E+01,1.20000000000000E+01,1.20000000000000E+01,1.20000000000000E+01,1.20000000000000E+01,1.20000000000000E+01,1.20000000000000E+01,1.20000000000000E+01,1.20000000000000E+01,1.20000000000000E+01,1.20000000000000E+01,1.20000000000000E+01,1.20000000000000E+01,
AUS,,,,,,,,,,,1.20000000000000E+01,,,,,1.20000000000000E+01,,,,,1.20000000000000E+01,,,,,1.20000000000000E+01,,,,,1.20000000000000E+01,1.20000000000000E+01,,,,1.20000000000000E+01,,,1.20000000000000E+01,1.20000000000000E+01,1.20000000000000E+01,1.20000000000000E+01,1.20000000000000E+01,1.20000000000000E+01,1.20000000000000E+01,1.20000000000000E+01,1.20000000000000E+01,1.20000000000000E+01,1.20000000000000E+01,1.20000000000000E+01,1.20000000000000E+01,
AUT,,,,,,,,,,,,1.00000000000000E+01,,,,1.00000000000000E+01,,,,,1.00000000000000E+01,,,,,1.00000000000000E+01,,,,,1.00000000000000E+01,1.00000000000000E+01,,,,1.00000000000000E+01,,,1.00000000000000E+01,1.00000000000000E+01,1.00000000000000E+01,1.00000000000000E+01,1.00000000000000E+01,1.00000000000000E+01,1.00000000000000E+01,1.00000000000000E+01,1.00000000000000E+01,1.00000000000000E+01,1.00000000000000E+01,1.00000000000000E+01,1.00000000000000E+01,
AZE,,,,,,,,,,,,,,,,,,,,,,1.00000000000000E+01,,,,,1.00000000000000E+01,,,,1.00000000000000E+01,1.00000000000000E+01,,,,1.00000000000000E+01,,,1.00000000000000E+01,1.00000000000000E+01,1.00000000000000E+01,1.00000000000000E+01,1.00000000000000E+01,1.00000000000000E+01,1.00000000000000E+01,1.00000000000000E+01,1.00000000000000E+01,1.00000000000000E+01,1.00000000000000E+01,1.00000000000000E+01,1.00000000000000E+01,
BDI,,,,,,,,,,,,1.30000000000000E+01,,,,1.30000000000000E+01,,,,,1.30000000000000E+01,,,,,1.30000000000000E+01,,,,,1.30000000000000E+01,1.30000000000000E+01,,,,1.30000000000000E+01,,,1.30000000000000E+01,1.30000000000000E+01,1.30000000000000E+01,1.30000000000000E+01,1.30000000000000E+01,1.30000000000000E+01,1.30000000000000E+01,1.30000000000000E+01,1.30000000000000E+01,1.30000000000000E+01,1.30000000000000E+01,1.30000000000000E+01,1.30000000000000E+01,
BEL,,,,,,,,,,,,1.20000000000000E+01,,,,1.20000000000000E+01,,,,,1.20000000000000E+01,,,,,1.20000000000000E+01,,,,,1.20000000000000E+01,1.20000000000000E+01,,,,1.20000000000000E+01,,,1.20000000000000E+01,1.20000000000000E+01,1.20000000000000E+01,1.20000000000000E+01,1.20000000000000E+01,1.20000000000000E+01,1.20000000000000E+01,1.20000000000000E+01,1.20000000000000E+01,1.20000000000000E+01,1.20000000000000E+01,1.20000000000000E+01,1.20000000000000E+01,
BEN,,,,,,,,,,,,1.20000000000000E+01,,,,1.10000000000000E+01,,,,,1.10000000000000E+01,,,,,1.20000000000000E+01,,,,,1.20000000000000E+01,1.20000000000000E+01,,,,1.20000000000000E+01,,,1.20000000000000E+01,1.20000000000000E+01,1.20000000000000E+01,1.20000000000000E+01,1.20000000000000E+01,1.20000000000000E+01,1.20000000000000E+01,1.20000000000000E+01,1.20000000000000E+01,1.20000000000000E+01,1.20000000000000E+01,1.20000000000000E+01,1.20000000000000E+01,
BFA,,,,,,,,,,,,1.20000000000000E+01,,,,1.20000000000000E+01,,,,,1.30000000000000E+01,,,,,1.30000000000000E+01,,,,,1.30000000000000E+01,1.30000000000000E+01,,,1.30000000000000E+01,,,,1.30000000000000E+01,1.30000000000000E+01,1.30000000000000E+01,1.30000000000000E+01,1.30000000000000E+01,1.30000000000000E+01,1.30000000000000E+01,1.30000000000000E+01,1.30000000000000E+01,1.30000000000000E+01,1.30000000000000E+01,1.30000000000000E+01,1.20000000000000E+01,
BGD,,,,,,,,,,,,,1.00000000000000E+01,,,1.00000000000000E+01,,,,,1.00000000000000E+01,,,,,1.10000000000000E+01,,,,,1.10000000000000E+01,1.10000000000000E+01,,,,1.10000000000000E+01,,,1.10000000000000E+01,1.10000000000000E+01,1.10000000000000E+01,1.10000000000000E+01,1.10000000000000E+01,1.10000000000000E+01,1.10000000000000E+01,1.10000000000000E+01,1.10000000000000E+01,1.10000000000000E+01,1.10000000000000E+01,1.10000000000000E+01,1.10000000000000E+01,
BGR,,,,,,,,,,,,1.10000000000000E+01,,,,1.10000000000000E+01,,,,,1.10000000000000E+01,,,,,1.10000000000000E+01,,,,,1.10000000000000E+01,1.10000000000000E+01,,,,,1.10000000000000E+01,,1.10000000000000E+01,1.10000000000000E+01,1.10000000000000E+01,1.10000000000000E+01,1.10000000000000E+01,1.10000000000000E+01,1.10000000000000E+01,1.10000000000000E+01,1.10000000000000E+01,1.10000000000000E+01,1.10000000000000E+01,1.10000000000000E+01,1.10000000000000E+01,
BHR,,,,,,,,,,,,1.20000000000000E+01,,,,1.20000000000000E+01,,,,,1.20000000000000E+01,,,,,1.20000000000000E+01,,,,,1.20000000000000E+01,1.20000000000000E+01,,,,1.20000000000000E+01,,,1.20000000000000E+01,1.20000000000000E+01,1.20000000000000E+01,1.20000000000000E+01,1.20000000000000E+01,1.20000000000000E+01,1.20000000000000E+01,1.20000000000000E+01,1.20000000000000E+01,1.20000000000000E+01,1.20000000000000E+01,1.20000000000000E+01,1.20000000000000E+01,
BHS,,,,,,,,,,,,1.10000000000000E+01,,,,1.10000000000000E+01,,,,,,1.10000000000000E+01,,,,1.10000000000000E+01,,,,,,1.10000000000000E+01,1.10000000000000E+01,,,1.10000000000000E+01,,,1.10000000000000E+01,1.10000000000000E+01,1.10000000000000E+01,1.10000000000000E+01,1.10000000000000E+01,1.10000000000000E+01,1.10000000000000E+01,1.10000000000000E+01,1.10000000000000E+01,1.10000000000000E+01,1.10000000000000E+01,1.10000000000000E+01,1.10000000000000E+01,
BIH,,,,,,,,,,,,,,,,,,,,,,,,,,,,,,,,1.10000000000000E+01,,,,1.10000000000000E+01,,,1.00000000000000E+01,1.00000000000000E+01,1.00000000000000E+01,1.00000000000000E+01,1.00000000000000E+01,1.00000000000000E+01,1.00000000000000E+01,1.00000000000000E+01,1.00000000000000E+01,1.10000000000000E+01,1.10000000000000E+01,1.10000000000000E+01,1.10000000000000E+01,
BLR,,,,,,,,,,,,1.20000000000000E+01,,,,1.20000000000000E+01,,,,,1.20000000000000E+01,,,,,1.20000000000000E+01,,,,,1.20000000000000E+01,1.00000000000000E+01,,,,1.00000000000000E+01,,,1.00000000000000E+01,1.00000000000000E+01,1.00000000000000E+01,1.00000000000000E+01,1.00000000000000E+01,1.00000000000000E+01,1.00000000000000E+01,1.00000000000000E+01,1.00000000000000E+01,1.00000000000000E+01,1.00000000000000E+01,1.00000000000000E+01,1.00000000000000E+01,
BLZ,,,,,,,,,,,,1.20000000000000E+01,,,,1.20000000000000E+01,,,,,1.20000000000000E+01,,,,,1.20000000000000E+01,,,,,1.10000000000000E+01,1.10000000000000E+01,,,,1.10000000000000E+01,,,1.10000000000000E+01,1.10000000000000E+01,1.10000000000000E+01,1.10000000000000E+01,1.10000000000000E+01,,,1.10000000000000E+01,1.10000000000000E+01,1.10000000000000E+01,1.10000000000000E+01,1.10000000000000E+01,1.10000000000000E+01,
BMU,,,,,,,,,,,1.20000000000000E+01,,,,,1.20000000000000E+01,,,,,1.20000000000000E+01,,,,,1.20000000000000E+01,,,,,1.20000000000000E+01,,,,,1.20000000000000E+01,,,1.10000000000000E+01,1.10000000000000E+01,1.10000000000000E+01,1.10000000000000E+01,1.10000000000000E+01,1.10000000000000E+01,1.10000000000000E+01,1.10000000000000E+01,1.10000000000000E+01,1.10000000000000E+01,1.10000000000000E+01,1.10000000000000E+01,1.10000000000000E+01,
BOL,,,,,,,,,,,1.20000000000000E+01,,,,,1.20000000000000E+01,,,,,1.20000000000000E+01,,,,,,1.20000000000000E+01,,,,1.20000000000000E+01,1.20000000000000E+01,,,,1.20000000000000E+01,,,1.20000000000000E+01,1.20000000000000E+01,1.20000000000000E+01,1.20000000000000E+01,1.20000000000000E+01,1.20000000000000E+01,1.20000000000000E+01,1.20000000000000E+01,1.20000000000000E+01,1.20000000000000E+01,1.20000000000000E+01,,1.20000000000000E+01,
BRA,,,,,,,,,,,1.10000000000000E+01,,,,,1.10000000000000E+01,,,,,1.10000000000000E+01,,,,,1.10000000000000E+01,,,,,1.10000000000000E+01,1.10000000000000E+01,,,1.10000000000000E+01,,,,1.10000000000000E+01,1.10000000000000E+01,1.10000000000000E+01,1.10000000000000E+01,1.10000000000000E+01,1.10000000000000E+01,1.10000000000000E+01,1.10000000000000E+01,1.10000000000000E+01,1.10000000000000E+01,1.10000000000000E+01,1.10000000000000E+01,1.10000000000000E+01,
BRB,,,,,,,,,,,,1.10000000000000E+01,,,,1.10000000000000E+01,,,,,1.10000000000000E+01,,,,,1.20000000000000E+01,,,,,1.20000000000000E+01,,,,,1.20000000000000E+01,,,1.10000000000000E+01,1.10000000000000E+01,1.10000000000000E+01,1.10000000000000E+01,1.10000000000000E+01,1.10000000000000E+01,1.10000000000000E+01,1.10000000000000E+01,1.10000000000000E+01,1.10000000000000E+01,1.10000000000000E+01,1.10000000000000E+01,1.10000000000000E+01,
BRN,,,,,,,,,,,1.20000000000000E+01,,,,,1.20000000000000E+01,,,,,1.20000000000000E+01,,,,,1.20000000000000E+01,,,,,1.20000000000000E+01,1.20000000000000E+01,,,,1.20000000000000E+01,,,1.20000000000000E+01,1.20000000000000E+01,1.20000000000000E+01,1.20000000000000E+01,1.20000000000000E+01,1.20000000000000E+01,1.20000000000000E+01,1.20000000000000E+01,1.20000000000000E+01,1.20000000000000E+01,1.20000000000000E+01,1.20000000000000E+01,1.20000000000000E+01,
BTN,,,,,,,,,,,1.20000000000000E+01,,,,,1.20000000000000E+01,,,,,,1.20000000000000E+01,,,,1.20000000000000E+01,,,1.30000000000000E+01,,,1.30000000000000E+01,,,1.30000000000000E+01,,,,1.30000000000000E+01,1.30000000000000E+01,1.30000000000000E+01,1.30000000000000E+01,1.30000000000000E+01,1.30000000000000E+01,1.30000000000000E+01,1.30000000000000E+01,1.30000000000000E+01,1.30000000000000E+01,1.30000000000000E+01,1.30000000000000E+01,1.30000000000000E+01,
BWA,,,,,,,,,,,1.40000000000000E+01,,,,,1.30000000000000E+01,,,,,1.30000000000000E+01,,,,,1.40000000000000E+01,,,,,1.40000000000000E+01,1.40000000000000E+01,,,,1.30000000000000E+01,,,1.30000000000000E+01,1.30000000000000E+01,1.30000000000000E+01,1.30000000000000E+01,1.30000000000000E+01,1.30000000000000E+01,1.30000000000000E+01,1.30000000000000E+01,1.30000000000000E+01,1.30000000000000E+01,1.30000000000000E+01,1.30000000000000E+01,1.30000000000000E+01,
CAF,,,,,,,,,,,,1.20000000000000E+01,,,,1.20000000000000E+01,,,,,1.20000000000000E+01,,,,,1.20000000000000E+01,,,,,1.20000000000000E+01,1.20000000000000E+01,,,,1.20000000000000E+01,,,1.20000000000000E+01,1.20000000000000E+01,1.20000000000000E+01,1.20000000000000E+01,1.20000000000000E+01,1.20000000000000E+01,1.20000000000000E+01,1.20000000000000E+01,1.20000000000000E+01,1.20000000000000E+01,1.20000000000000E+01,1.20000000000000E+01,1.20000000000000E+01,
CAN,,,,,,,,,,,,,1.20000000000000E+01,,,1.20000000000000E+01,,,,,1.20000000000000E+01,,,,,1.20000000000000E+01,,,,,1.20000000000000E+01,1.20000000000000E+01,,,,1.20000000000000E+01,,,1.20000000000000E+01,1.20000000000000E+01,1.20000000000000E+01,1.20000000000000E+01,1.20000000000000E+01,1.20000000000000E+01,1.20000000000000E+01,1.20000000000000E+01,1.20000000000000E+01,1.20000000000000E+01,1.20000000000000E+01,1.20000000000000E+01,1.20000000000000E+01,
CHE,,,,,,,,,,,,1.30000000000000E+01,,,,1.30000000000000E+01,,,,,1.30000000000000E+01,,,,,1.30000000000000E+01,,,,,1.30000000000000E+01,1.30000000000000E+01,,,,1.30000000000000E+01,,,1.30000000000000E+01,1.30000000000000E+01,1.30000000000000E+01,1.30000000000000E+01,1.30000000000000E+01,1.30000000000000E+01,1.30000000000000E+01,1.30000000000000E+01,1.30000000000000E+01,1.30000000000000E+01,1.30000000000000E+01,1.30000000000000E+01,1.30000000000000E+01,
CHL,,,,,,,,,,,1.40000000000000E+01,,,,,1.40000000000000E+01,,,,,1.40000000000000E+01,,,,,1.40000000000000E+01,,,,,1.40000000000000E+01,1.40000000000000E+01,,,,1.40000000000000E+01,,,1.20000000000000E+01,1.20000000000000E+01,1.20000000000000E+01,1.20000000000000E+01,1.20000000000000E+01,1.20000000000000E+01,1.20000000000000E+01,1.20000000000000E+01,1.20000000000000E+01,1.20000000000000E+01,1.20000000000000E+01,1.20000000000000E+01,1.20000000000000E+01,
CHN,,,,,,,,,,,1.20000000000000E+01,,,,,,1.20000000000000E+01,,,,1.20000000000000E+01,,,,,1.20000000000000E+01,,,,,1.20000000000000E+01,1.20000000000000E+01,,,,1.20000000000000E+01,,,1.20000000000000E+01,1.20000000000000E+01,1.20000000000000E+01,1.20000000000000E+01,1.20000000000000E+01,1.20000000000000E+01,1.20000000000000E+01,1.20000000000000E+01,1.20000000000000E+01,1.20000000000000E+01,1.20000000000000E+01,1.20000000000000E+01,1.20000000000000E+01,
CIV,,,,,,,,,,,,1.20000000000000E+01,,,,1.20000000000000E+01,,,,,1.20000000000000E+01,,,,,1.20000000000000E+01,,,,,1.20000000000000E+01,1.20000000000000E+01,,,,1.20000000000000E+01,,,1.20000000000000E+01,1.20000000000000E+01,1.20000000000000E+01,1.20000000000000E+01,1.20000000000000E+01,1.20000000000000E+01,1.20000000000000E+01,1.20000000000000E+01,1.20000000000000E+01,1.20000000000000E+01,1.20000000000000E+01,1.20000000000000E+01,1.20000000000000E+01,
CMR,,,,,,,,,,,,1.20000000000000E+01,,,,1.20000000000000E+01,,,,,1.20000000000000E+01,,,,,1.20000000000000E+01,,,,,1.20000000000000E+01,1.20000000000000E+01,,,,1.20000000000000E+01,,,1.20000000000000E+01,1.20000000000000E+01,1.20000000000000E+01,1.20000000000000E+01,1.20000000000000E+01,1.20000000000000E+01,1.20000000000000E+01,1.20000000000000E+01,1.20000000000000E+01,1.20000000000000E+01,1.20000000000000E+01,1.20000000000000E+01,1.20000000000000E+01,
COG,,,,,,,,,,,,1.20000000000000E+01,,,,1.20000000000000E+01,,,,,1.20000000000000E+01,,,,,1.20000000000000E+01,,,,,1.20000000000000E+01,1.20000000000000E+01,,,,1.20000000000000E+01,,,1.20000000000000E+01,1.20000000000000E+01,1.20000000000000E+01,1.20000000000000E+01,1.20000000000000E+01,1.20000000000000E+01,1.20000000000000E+01,1.20000000000000E+01,1.20000000000000E+01,1.20000000000000E+01,1.20000000000000E+01,1.20000000000000E+01,1.20000000000000E+01,
COL,,,,,,,,,,,1.20000000000000E+01,,,,,1.20000000000000E+01,,,,,1.10000000000000E+01,,,,,1.10000000000000E+01,,,,,1.10000000000000E+01,1.10000000000000E+01,,,,1.10000000000000E+01,,,1.10000000000000E+01,1.10000000000000E+01,1.10000000000000E+01,1.10000000000000E+01,1.10000000000000E+01,1.10000000000000E+01,1.10000000000000E+01,1.10000000000000E+01,1.10000000000000E+01,1.10000000000000E+01,1.10000000000000E+01,1.10000000000000E+01,1.10000000000000E+01,
COM,,,,,,,,,,,,1.20000000000000E+01,,,,1.20000000000000E+01,,,,,1.20000000000000E+01,,,,,,1.20000000000000E+01,,,,1.20000000000000E+01,1.20000000000000E+01,,,,1.30000000000000E+01,,,1.30000000000000E+01,1.20000000000000E+01,1.20000000000000E+01,1.20000000000000E+01,1.20000000000000E+01,1.20000000000000E+01,1.20000000000000E+01,1.20000000000000E+01,1.20000000000000E+01,1.20000000000000E+01,1.20000000000000E+01,1.20000000000000E+01,1.20000000000000E+01,
CPV,,,,,,,,,,,,1.30000000000000E+01,,,,1.30000000000000E+01,,,,,1.30000000000000E+01,,,,,1.30000000000000E+01,,,,,1.30000000000000E+01,1.30000000000000E+01,,,1.30000000000000E+01,,,,1.20000000000000E+01,1.20000000000000E+01,1.20000000000000E+01,1.20000000000000E+01,1.20000000000000E+01,1.20000000000000E+01,1.20000000000000E+01,1.20000000000000E+01,1.20000000000000E+01,1.20000000000000E+01,1.20000000000000E+01,1.20000000000000E+01,1.20000000000000E+01,
CRI,,,,,,,,,,,1.20000000000000E+01,,,,,1.20000000000000E+01,,,,,1.20000000000000E+01,,,,,1.20000000000000E+01,,,,,1.20000000000000E+01,1.20000000000000E+01,,,,1.20000000000000E+01,,,1.20000000000000E+01,1.20000000000000E+01,1.20000000000000E+01,1.20000000000000E+01,1.20000000000000E+01,1.20000000000000E+01,1.20000000000000E+01,1.20000000000000E+01,1.20000000000000E+01,1.20000000000000E+01,1.20000000000000E+01,1.20000000000000E+01,1.20000000000000E+01,
CUB,,,,,,,,,,,,1.20000000000000E+01,,,,1.20000000000000E+01,,,,,1.20000000000000E+01,,,,,1.20000000000000E+01,,,,,1.20000000000000E+01,1.20000000000000E+01,,,,1.20000000000000E+01,,,1.20000000000000E+01,1.20000000000000E+01,1.20000000000000E+01,1.20000000000000E+01,1.20000000000000E+01,1.20000000000000E+01,1.20000000000000E+01,1.20000000000000E+01,1.20000000000000E+01,1.20000000000000E+01,1.20000000000000E+01,1.20000000000000E+01,1.20000000000000E+01,
CYM,,,,,,,,,,,1.10000000000000E+01,,,,,1.10000000000000E+01,,,,,1.10000000000000E+01,,,,,1.10000000000000E+01,,,,,1.10000000000000E+01,,,,,1.10000000000000E+01,,,,1.10000000000000E+01,1.10000000000000E+01,1.10000000000000E+01,1.10000000000000E+01,1.10000000000000E+01,1.10000000000000E+01,1.10000000000000E+01,1.10000000000000E+01,1.10000000000000E+01,1.10000000000000E+01,1.10000000000000E+01,1.10000000000000E+01,
CYP,,,,,,,,,,,,1.20000000000000E+01,,,,1.20000000000000E+01,,,,,1.20000000000000E+01,,,,,1.20000000000000E+01,,,,,1.20000000000000E+01,1.20000000000000E+01,,,,1.20000000000000E+01,,,1.20000000000000E+01,1.20000000000000E+01,1.20000000000000E+01,1.20000000000000E+01,1.20000000000000E+01,1.20000000000000E+01,1.20000000000000E+01,1.20000000000000E+01,1.20000000000000E+01,1.20000000000000E+01,1.20000000000000E+01,1.20000000000000E+01,1.20000000000000E+01,
CZE,,,,,,,,,,,,1.00000000000000E+01,,,,1.00000000000000E+01,,,,,1.00000000000000E+01,,,,,1.00000000000000E+01,,,,,1.00000000000000E+01,1.00000000000000E+01,,,,1.00000000000000E+01,,,1.10000000000000E+01,1.10000000000000E+01,1.10000000000000E+01,1.10000000000000E+01,1.10000000000000E+01,1.10000000000000E+01,1.10000000000000E+01,1.10000000000000E+01,1.10000000000000E+01,1.10000000000000E+01,1.10000000000000E+01,1.10000000000000E+01,1.10000000000000E+01,
DEU,,,,,,,,,,,1.00000000000000E+01,,,,,1.00000000000000E+01,,,,,1.00000000000000E+01,,,,,1.00000000000000E+01,,,,,,1.00000000000000E+01,,,,1.00000000000000E+01,,,1.00000000000000E+01,1.00000000000000E+01,1.00000000000000E+01,1.00000000000000E+01,1.00000000000000E+01,1.00000000000000E+01,1.00000000000000E+01,1.00000000000000E+01,1.00000000000000E+01,1.00000000000000E+01,1.00000000000000E+01,1.00000000000000E+01,1.00000000000000E+01,
DJI,,,,,,,,,,,,1.20000000000000E+01,,,,1.20000000000000E+01,,,,,1.20000000000000E+01,,,,,1.20000000000000E+01,,,,,1.20000000000000E+01,1.20000000000000E+01,,,,1.20000000000000E+01,,,1.20000000000000E+01,1.20000000000000E+01,1.20000000000000E+01,1.20000000000000E+01,1.20000000000000E+01,1.20000000000000E+01,1.20000000000000E+01,1.20000000000000E+01,1.20000000000000E+01,1.20000000000000E+01,1.10000000000000E+01,1.10000000000000E+01,1.10000000000000E+01,
DMA,,,,,,,,,,,1.20000000000000E+01,,,,,1.20000000000000E+01,,,,,1.20000000000000E+01,,,,,1.20000000000000E+01,,,,,1.20000000000000E+01,,,,,1.20000000000000E+01,,,,1.20000000000000E+01,1.20000000000000E+01,1.20000000000000E+01,1.20000000000000E+01,1.20000000000000E+01,1.20000000000000E+01,1.20000000000000E+01,1.20000000000000E+01,1.20000000000000E+01,1.20000000000000E+01,1.20000000000000E+01,1.20000000000000E+01,
DNK,,,,,,,,,,,,1.20000000000000E+01,,,,1.20000000000000E+01,,,,,1.20000000000000E+01,,,,,1.30000000000000E+01,,,,,1.30000000000000E+01,1.30000000000000E+01,,,,1.30000000000000E+01,,,1.30000000000000E+01,1.30000000000000E+01,1.30000000000000E+01,1.30000000000000E+01,1.30000000000000E+01,1.30000000000000E+01,1.30000000000000E+01,1.30000000000000E+01,1.30000000000000E+01,1.30000000000000E+01,1.30000000000000E+01,1.30000000000000E+01,1.30000000000000E+01,
DOM,,,,,,,,,,,,1.30000000000000E+01,,,,1.30000000000000E+01,,,,,1.30000000000000E+01,,,,,1.30000000000000E+01,,,1.30000000000000E+01,,,1.30000000000000E+01,,,1.30000000000000E+01,,,,1.20000000000000E+01,1.20000000000000E+01,1.20000000000000E+01,1.20000000000000E+01,1.20000000000000E+01,1.20000000000000E+01,1.20000000000000E+01,1.20000000000000E+01,1.20000000000000E+01,1.20000000000000E+01,1.20000000000000E+01,1.20000000000000E+01,1.20000000000000E+01,
DZA,,,,,,,,,,,,1.20000000000000E+01,,,,1.20000000000000E+01,,,,,1.20000000000000E+01,,,,,1.20000000000000E+01,,,,,1.20000000000000E+01,1.20000000000000E+01,,,,1.20000000000000E+01,,,1.20000000000000E+01,1.20000000000000E+01,1.20000000000000E+01,1.20000000000000E+01,1.20000000000000E+01,1.20000000000000E+01,1.20000000000000E+01,1.20000000000000E+01,1.20000000000000E+01,1.20000000000000E+01,1.20000000000000E+01,1.10000000000000E+01,1.10000000000000E+01,
ECU,,,,,,,,,,,,1.20000000000000E+01,,,,1.20000000000000E+01,,,,,1.20000000000000E+01,,,,,1.20000000000000E+01,,,,,1.20000000000000E+01,1.20000000000000E+01,,,,1.20000000000000E+01,,,1.20000000000000E+01,1.20000000000000E+01,1.20000000000000E+01,1.20000000000000E+01,1.20000000000000E+01,1.20000000000000E+01,1.20000000000000E+01,1.20000000000000E+01,1.20000000000000E+01,1.20000000000000E+01,1.20000000000000E+01,1.20000000000000E+01,,
EGY,,,,,,,,,,,,1.20000000000000E+01,,,,1.20000000000000E+01,,,,,1.20000000000000E+01,,,,,1.20000000000000E+01,,,,,1.10000000000000E+01,1.10000000000000E+01,,,,1.10000000000000E+01,,,1.10000000000000E+01,1.10000000000000E+01,1.10000000000000E+01,1.10000000000000E+01,1.10000000000000E+01,1.10000000000000E+01,1.10000000000000E+01,1.20000000000000E+01,1.20000000000000E+01,1.20000000000000E+01,1.20000000000000E+01,1.20000000000000E+01,1.20000000000000E+01,
ERI,,,,,,,,,,,1.30000000000000E+01,,,,,1.30000000000000E+01,,,,,1.30000000000000E+01,,,,,1.30000000000000E+01,,,,,1.30000000000000E+01,1.30000000000000E+01,,,,1.20000000000000E+01,,,1.20000000000000E+01,1.20000000000000E+01,1.20000000000000E+01,1.20000000000000E+01,1.20000000000000E+01,1.20000000000000E+01,1.20000000000000E+01,1.20000000000000E+01,1.20000000000000E+01,1.20000000000000E+01,1.20000000000000E+01,1.20000000000000E+01,1.20000000000000E+01,
ESP,,,,,,,,,,,,1.10000000000000E+01,,,,1.10000000000000E+01,,,,,1.10000000000000E+01,,,,,1.10000000000000E+01,,,,,1.10000000000000E+01,1.10000000000000E+01,,,,1.10000000000000E+01,,,1.20000000000000E+01,1.20000000000000E+01,1.20000000000000E+01,1.20000000000000E+01,1.20000000000000E+01,1.20000000000000E+01,1.20000000000000E+01,1.20000000000000E+01,1.20000000000000E+01,1.20000000000000E+01,1.20000000000000E+01,1.20000000000000E+01,1.20000000000000E+01,
EST,,,,,,,,,,,,,,,,,,,,,,1.20000000000000E+01,,,,1.20000000000000E+01,,,,,1.30000000000000E+01,1.30000000000000E+01,,,,1.30000000000000E+01,,,1.30000000000000E+01,1.30000000000000E+01,1.30000000000000E+01,1.30000000000000E+01,1.30000000000000E+01,1.30000000000000E+01,1.30000000000000E+01,1.30000000000000E+01,1.30000000000000E+01,1.30000000000000E+01,1.30000000000000E+01,1.30000000000000E+01,1.30000000000000E+01,
ETH,,,,,,,,,,,,1.30000000000000E+01,,,,1.30000000000000E+01,,,,,1.30000000000000E+01,,,,,1.30000000000000E+01,,,,,1.30000000000000E+01,1.30000000000000E+01,,,,1.30000000000000E+01,,,1.30000000000000E+01,1.30000000000000E+01,1.30000000000000E+01,1.30000000000000E+01,1.30000000000000E+01,1.30000000000000E+01,1.30000000000000E+01,1.30000000000000E+01,1.30000000000000E+01,1.30000000000000E+01,1.30000000000000E+01,1.30000000000000E+01,1.30000000000000E+01,
FIN,,,,,,,,,,,,1.30000000000000E+01,,,,1.30000000000000E+01,,,,,1.30000000000000E+01,,,,,1.30000000000000E+01,,,,,1.30000000000000E+01,1.30000000000000E+01,,,,1.30000000000000E+01,,,1.30000000000000E+01,1.30000000000000E+01,1.30000000000000E+01,1.30000000000000E+01,1.30000000000000E+01,1.30000000000000E+01,1.30000000000000E+01,1.30000000000000E+01,1.30000000000000E+01,1.30000000000000E+01,1.30000000000000E+01,1.30000000000000E+01,1.30000000000000E+01,
FJI,,,,,,,,,,,1.20000000000000E+01,,,,,1.20000000000000E+01,,,,,1.20000000000000E+01,,,,,1.20000000000000E+01,,,,,1.20000000000000E+01,,,,,1.20000000000000E+01,,,1.20000000000000E+01,1.20000000000000E+01,1.20000000000000E+01,1.20000000000000E+01,1.20000000000000E+01,1.20000000000000E+01,1.20000000000000E+01,1.20000000000000E+01,1.20000000000000E+01,1.20000000000000E+01,1.20000000000000E+01,1.20000000000000E+01,1.20000000000000E+01,
FRA,,,,,,,,,,,,1.10000000000000E+01,,,,1.10000000000000E+01,,,,,1.10000000000000E+01,,,,,1.10000000000000E+01,,,,,1.10000000000000E+01,1.10000000000000E+01,,,,1.10000000000000E+01,,,1.10000000000000E+01,1.10000000000000E+01,1.10000000000000E+01,1.10000000000000E+01,1.10000000000000E+01,1.10000000000000E+01,1.10000000000000E+01,1.10000000000000E+01,1.10000000000000E+01,1.10000000000000E+01,1.10000000000000E+01,1.10000000000000E+01,1.10000000000000E+01,
FSM,,,,,,,,,,,,1.40000000000000E+01,,,,1.40000000000000E+01,,,,,1.40000000000000E+01,,,,,1.40000000000000E+01,,,,,1.40000000000000E+01,1.40000000000000E+01,,,,1.40000000000000E+01,,,1.20000000000000E+01,1.20000000000000E+01,1.20000000000000E+01,1.20000000000000E+01,1.20000000000000E+01,1.20000000000000E+01,1.20000000000000E+01,1.20000000000000E+01,1.20000000000000E+01,1.20000000000000E+01,1.20000000000000E+01,1.20000000000000E+01,1.20000000000000E+01,
GAB,,,,,,,,,,,,1.20000000000000E+01,,,,1.20000000000000E+01,,,,,1.20000000000000E+01,,,,,1.20000000000000E+01,,,,1.20000000000000E+01,,1.20000000000000E+01,,,,1.20000000000000E+01,,,1.20000000000000E+01,1.20000000000000E+01,1.20000000000000E+01,1.20000000000000E+01,1.20000000000000E+01,1.20000000000000E+01,1.20000000000000E+01,1.20000000000000E+01,1.20000000000000E+01,1.20000000000000E+01,1.20000000000000E+01,1.20000000000000E+01,1.20000000000000E+01,
GBR,,,,,,,,,,,,1.10000000000000E+01,,,,1.10000000000000E+01,,,,,1.10000000000000E+01,,,,,1.10000000000000E+01,,,,,1.10000000000000E+01,1.10000000000000E+01,,,,1.10000000000000E+01,,,1.10000000000000E+01,1.10000000000000E+01,1.10000000000000E+01,1.10000000000000E+01,1.10000000000000E+01,1.10000000000000E+01,1.10000000000000E+01,1.10000000000000E+01,1.10000000000000E+01,1.10000000000000E+01,1.10000000000000E+01,1.10000000000000E+01,1.10000000000000E+01,
GEO,,,,,,,,,,,,,,,,,,,,,,1.00000000000000E+01,,,,,1.00000000000000E+01,,,,,1.00000000000000E+01,,,,1.00000000000000E+01,,,1.00000000000000E+01,1.00000000000000E+01,1.00000000000000E+01,1.00000000000000E+01,1.00000000000000E+01,1.00000000000000E+01,1.20000000000000E+01,1.20000000000000E+01,1.20000000000000E+01,1.20000000000000E+01,1.20000000000000E+01,1.20000000000000E+01,1.20000000000000E+01,
GHA,,,,,,,,,,,,1.20000000000000E+01,,,,1.20000000000000E+01,,,,,1.20000000000000E+01,,,,,1.20000000000000E+01,,,,,1.20000000000000E+01,1.20000000000000E+01,,,,1.20000000000000E+01,,,1.20000000000000E+01,1.20000000000000E+01,1.20000000000000E+01,1.20000000000000E+01,1.20000000000000E+01,1.20000000000000E+01,1.20000000000000E+01,1.20000000000000E+01,1.20000000000000E+01,1.20000000000000E+01,1.20000000000000E+01,1.20000000000000E+01,1.20000000000000E+01,
GIB,,,,,,,,,,,1.20000000000000E+01,,,,,1.20000000000000E+01,,,,,1.20000000000000E+01,,,,,1.20000000000000E+01,,,,,1.20000000000000E+01,,,,,1.20000000000000E+01,,,,1.10000000000000E+01,1.10000000000000E+01,1.10000000000000E+01,1.10000000000000E+01,1.10000000000000E+01,1.10000000000000E+01,1.10000000000000E+01,1.10000000000000E+01,1.10000000000000E+01,1.10000000000000E+01,1.10000000000000E+01,1.10000000000000E+01,
GIN,,,,,,,,,,,,1.30000000000000E+01,,,,1.30000000000000E+01,,,,,1.30000000000000E+01,,,,,1.30000000000000E+01,,,,,1.30000000000000E+01,1.30000000000000E+01,,,,1.30000000000000E+01,,,1.30000000000000E+01,1.30000000000000E+01,1.30000000000000E+01,1.30000000000000E+01,1.30000000000000E+01,1.30000000000000E+01,1.30000000000000E+01,1.30000000000000E+01,1.30000000000000E+01,1.30000000000000E+01,1.30000000000000E+01,1.30000000000000E+01,1.30000000000000E+01,
GMB,,,,,,,,,,,,1.20000000000000E+01,,,,1.40000000000000E+01,,,,,1.40000000000000E+01,,,,,1.40000000000000E+01,,,,,1.40000000000000E+01,1.30000000000000E+01,,,,1.30000000000000E+01,,,1.30000000000000E+01,1.30000000000000E+01,1.30000000000000E+01,1.30000000000000E+01,1.30000000000000E+01,1.30000000000000E+01,1.30000000000000E+01,1.30000000000000E+01,1.30000000000000E+01,1.30000000000000E+01,1.30000000000000E+01,1.30000000000000E+01,1.30000000000000E+01,
GNB,,,,,,,,,,,,1.30000000000000E+01,,,,1.30000000000000E+01,,,,,1.30000000000000E+01,,,,,1.30000000000000E+01,,,,1.30000000000000E+01,,1.30000000000000E+01,,,,1.30000000000000E+01,,,1.30000000000000E+01,1.30000000000000E+01,1.30000000000000E+01,1.30000000000000E+01,1.30000000000000E+01,1.30000000000000E+01,1.30000000000000E+01,1.30000000000000E+01,1.30000000000000E+01,1.30000000000000E+01,1.30000000000000E+01,1.30000000000000E+01,1.30000000000000E+01,
GNQ,,,,,,,,,,,,1.10000000000000E+01,,,,1.10000000000000E+01,,,,,1.10000000000000E+01,,,1.10000000000000E+01,,,,,,,1.10000000000000E+01,1.10000000000000E+01,,,1.10000000000000E+01,,,,1.10000000000000E+01,1.20000000000000E+01,1.20000000000000E+01,1.20000000000000E+01,1.20000000000000E+01,1.20000000000000E+01,1.20000000000000E+01,1.20000000000000E+01,1.20000000000000E+01,1.30000000000000E+01,1.30000000000000E+01,1.30000000000000E+01,1.30000000000000E+01,
GRC,,,,,,,,,,,,1.20000000000000E+01,,,,1.20000000000000E+01,,,,,1.20000000000000E+01,,,,,1.20000000000000E+01,,,,,1.20000000000000E+01,1.20000000000000E+01,,,,1.20000000000000E+01,,,1.20000000000000E+01,1.20000000000000E+01,1.20000000000000E+01,1.20000000000000E+01,1.20000000000000E+01,1.20000000000000E+01,1.20000000000000E+01,1.20000000000000E+01,1.20000000000000E+01,1.20000000000000E+01,1.20000000000000E+01,1.20000000000000E+01,1.20000000000000E+01,
GRD,,,,,,,,,,,,1.20000000000000E+01,,,,1.20000000000000E+01,,,,,1.20000000000000E+01,,,,,1.20000000000000E+01,,,,,1.20000000000000E+01,,,,,1.20000000000000E+01,,,,1.20000000000000E+01,1.20000000000000E+01,1.20000000000000E+01,1.20000000000000E+01,1.20000000000000E+01,1.20000000000000E+01,1.20000000000000E+01,1.20000000000000E+01,1.20000000000000E+01,1.20000000000000E+01,1.20000000000000E+01,1.20000000000000E+01,
GTM,,,,,,,,,,,1.30000000000000E+01,,,,,1.30000000000000E+01,,,,,1.30000000000000E+01,,,,,1.30000000000000E+01,,,,,,1.30000000000000E+01,,,,1.30000000000000E+01,,,1.30000000000000E+01,1.30000000000000E+01,1.30000000000000E+01,1.30000000000000E+01,1.30000000000000E+01,1.30000000000000E+01,1.30000000000000E+01,1.30000000000000E+01,1.30000000000000E+01,1.30000000000000E+01,1.30000000000000E+01,1.30000000000000E+01,1.30000000000000E+01,
GUY,,,,,,,,,,,,1.20000000000000E+01,,,,1.20000000000000E+01,,,,,1.20000000000000E+01,,,,,1.20000000000000E+01,,,,,1.20000000000000E+01,1.20000000000000E+01,,,,1.20000000000000E+01,,,1.20000000000000E+01,1.20000000000000E+01,1.20000000000000E+01,1.20000000000000E+01,1.20000000000000E+01,1.20000000000000E+01,1.20000000000000E+01,1.20000000000000E+01,1.20000000000000E+01,1.20000000000000E+01,1.20000000000000E+01,1.20000000000000E+01,1.20000000000000E+01,
HKG,,,,,,,,,,,1.20000000000000E+01,,,,,1.20000000000000E+01,,,,,1.20000000000000E+01,,,,,1.20000000000000E+01,,,,,1.20000000000000E+01,1.20000000000000E+01,,,,1.20000000000000E+01,,,1.20000000000000E+01,1.20000000000000E+01,1.20000000000000E+01,1.20000000000000E+01,1.20000000000000E+01,1.20000000000000E+01,1.20000000000000E+01,1.20000000000000E+01,1.20000000000000E+01,1.20000000000000E+01,1.20000000000000E+01,1.20000000000000E+01,1.20000000000000E+01,
HND,,,,,,,,,,,1.30000000000000E+01,,,,,1.30000000000000E+01,,,,,1.30000000000000E+01,,,,,1.30000000000000E+01,,,,,,1.30000000000000E+01,,1.30000000000000E+01,,,,,1.30000000000000E+01,1.30000000000000E+01,1.30000000000000E+01,1.30000000000000E+01,1.30000000000000E+01,1.20000000000000E+01,1.20000000000000E+01,1.20000000000000E+01,1.20000000000000E+01,1.20000000000000E+01,1.20000000000000E+01,1.20000000000000E+01,1.20000000000000E+01,
HRV,,,,,,,,,,,,,,,,,,,,,,,,,,,,,,,,1.10000000000000E+01,,,,,1.10000000000000E+01,,1.10000000000000E+01,1.10000000000000E+01,1.10000000000000E+01,1.10000000000000E+01,1.10000000000000E+01,1.10000000000000E+01,1.10000000000000E+01,1.10000000000000E+01,1.10000000000000E+01,1.10000000000000E+01,1.10000000000000E+01,1.10000000000000E+01,1.10000000000000E+01,
HTI,,,,,,,,,,,,,1.30000000000000E+01,,,1.30000000000000E+01,,,,,1.20000000000000E+01,,,,,1.20000000000000E+01,,,,,1.20000000000000E+01,1.20000000000000E+01,,,,,1.20000000000000E+01,,1.20000000000000E+01,1.20000000000000E+01,1.20000000000000E+01,1.20000000000000E+01,1.20000000000000E+01,1.20000000000000E+01,1.20000000000000E+01,1.20000000000000E+01,1.20000000000000E+01,1.20000000000000E+01,1.20000000000000E+01,1.20000000000000E+01,1.20000000000000E+01,
HUN,,,,,,,,,,,,1.00000000000000E+01,,,,1.00000000000000E+01,,,,,1.00000000000000E+01,,,,,1.00000000000000E+01,,,,,1.00000000000000E+01,1.00000000000000E+01,,,,1.00000000000000E+01,,,1.10000000000000E+01,1.10000000000000E+01,1.10000000000000E+01,1.10000000000000E+01,1.10000000000000E+01,1.10000000000000E+01,1.10000000000000E+01,1.10000000000000E+01,1.10000000000000E+01,1.10000000000000E+01,1.10000000000000E+01,1.10000000000000E+01,1.10000000000000E+01,
IDN,,,,,,,,,,,1.30000000000000E+01,,,,,1.30000000000000E+01,,,,,,1.30000000000000E+01,,,,1.30000000000000E+01,,,,,1.30000000000000E+01,1.30000000000000E+01,,,,1.30000000000000E+01,,,1.30000000000000E+01,1.30000000000000E+01,1.30000000000000E+01,1.30000000000000E+01,1.30000000000000E+01,1.30000000000000E+01,1.30000000000000E+01,1.30000000000000E+01,1.30000000000000E+01,1.30000000000000E+01,1.30000000000000E+01,1.30000000000000E+01,1.30000000000000E+01,
IND,,,,,,,,,,,,1.00000000000000E+01,,,,1.00000000000000E+01,,,,,1.00000000000000E+01,,,,,1.10000000000000E+01,,,,,1.10000000000000E+01,1.10000000000000E+01,,,,1.10000000000000E+01,,,1.10000000000000E+01,1.10000000000000E+01,1.10000000000000E+01,1.10000000000000E+01,1.10000000000000E+01,1.10000000000000E+01,1.10000000000000E+01,1.10000000000000E+01,1.10000000000000E+01,1.10000000000000E+01,1.10000000000000E+01,1.10000000000000E+01,1.10000000000000E+01,
IRL,,,,,,,,,,,,1.20000000000000E+01,,,,1.20000000000000E+01,,,,,1.20000000000000E+01,,,,,1.20000000000000E+01,,,,,1.20000000000000E+01,1.20000000000000E+01,,,,1.20000000000000E+01,,,1.20000000000000E+01,1.20000000000000E+01,1.20000000000000E+01,1.20000000000000E+01,1.20000000000000E+01,1.20000000000000E+01,1.20000000000000E+01,1.20000000000000E+01,1.20000000000000E+01,1.20000000000000E+01,1.20000000000000E+01,1.20000000000000E+01,1.20000000000000E+01,
IRN,,,,,,,,,,,,1.30000000000000E+01,,,,1.10000000000000E+01,,,,,1.10000000000000E+01,,,,,1.10000000000000E+01,,,,,1.10000000000000E+01,1.10000000000000E+01,,,,1.10000000000000E+01,,,1.10000000000000E+01,1.10000000000000E+01,1.10000000000000E+01,1.10000000000000E+01,1.10000000000000E+01,1.10000000000000E+01,1.10000000000000E+01,1.10000000000000E+01,1.10000000000000E+01,1.10000000000000E+01,1.10000000000000E+01,1.10000000000000E+01,1.10000000000000E+01,
IRQ,,,,,,,,,,,,1.20000000000000E+01,,,,1.20000000000000E+01,,,,,1.20000000000000E+01,,,,,1.20000000000000E+01,,,,,1.20000000000000E+01,1.20000000000000E+01,,,,,1.20000000000000E+01,,1.20000000000000E+01,1.20000000000000E+01,1.20000000000000E+01,1.20000000000000E+01,1.20000000000000E+01,1.20000000000000E+01,1.20000000000000E+01,,,1.20000000000000E+01,1.20000000000000E+01,1.20000000000000E+01,1.20000000000000E+01,
ISL,,,,,,,,,,,,1.30000000000000E+01,,,,1.30000000000000E+01,,,,,1.30000000000000E+01,,,,,1.30000000000000E+01,,,,,1.30000000000000E+01,1.30000000000000E+01,,,,1.30000000000000E+01,,,1.30000000000000E+01,1.30000000000000E+01,1.30000000000000E+01,1.30000000000000E+01,1.30000000000000E+01,1.30000000000000E+01,1.30000000000000E+01,1.30000000000000E+01,1.30000000000000E+01,1.30000000000000E+01,1.30000000000000E+01,1.30000000000000E+01,1.30000000000000E+01,
ISR,,,,,,,,,,,1.20000000000000E+01,,,,,1.20000000000000E+01,,,,,1.20000000000000E+01,,,,,1.20000000000000E+01,,,,,1.20000000000000E+01,1.20000000000000E+01,,,,1.20000000000000E+01,,,1.20000000000000E+01,1.20000000000000E+01,1.20000000000000E+01,1.20000000000000E+01,1.20000000000000E+01,1.20000000000000E+01,1.20000000000000E+01,1.20000000000000E+01,1.20000000000000E+01,1.20000000000000E+01,1.20000000000000E+01,1.20000000000000E+01,1.20000000000000E+01,
ITA,,,,,,,,,,,,1.10000000000000E+01,,,,1.10000000000000E+01,,,,,1.10000000000000E+01,,,,,1.10000000000000E+01,,,,,1.10000000000000E+01,1.10000000000000E+01,,,,1.10000000000000E+01,,,1.10000000000000E+01,1.10000000000000E+01,1.10000000000000E+01,1.10000000000000E+01,1.10000000000000E+01,1.10000000000000E+01,1.10000000000000E+01,1.10000000000000E+01,1.10000000000000E+01,1.10000000000000E+01,1.10000000000000E+01,1.10000000000000E+01,1.10000000000000E+01,
JAM,,,,,,,,,,,,1.10000000000000E+01,,,,1.20000000000000E+01,,,,,1.20000000000000E+01,,,,,1.20000000000000E+01,,,,,1.20000000000000E+01,1.20000000000000E+01,,1.20000000000000E+01,,,,,1.20000000000000E+01,1.20000000000000E+01,1.20000000000000E+01,1.20000000000000E+01,1.20000000000000E+01,1.20000000000000E+01,1.20000000000000E+01,1.20000000000000E+01,1.20000000000000E+01,1.20000000000000E+01,1.20000000000000E+01,1.20000000000000E+01,1.20000000000000E+01,
JOR,,,,,,,,,,,,1.20000000000000E+01,,,,1.20000000000000E+01,,,,,1.20000000000000E+01,,,,,1.20000000000000E+01,,,,1.20000000000000E+01,,1.20000000000000E+01,,,,,1.20000000000000E+01,,1.20000000000000E+01,1.20000000000000E+01,1.20000000000000E+01,1.20000000000000E+01,1.20000000000000E+01,1.20000000000000E+01,1.20000000000000E+01,1.20000000000000E+01,1.20000000000000E+01,1.20000000000000E+01,1.20000000000000E+01,1.20000000000000E+01,1.20000000000000E+01,
JPN,,,,,,,,,,,,1.20000000000000E+01,,,,1.20000000000000E+01,,,,,1.20000000000000E+01,,,,,1.20000000000000E+01,,,,,1.20000000000000E+01,1.20000000000000E+01,,,,1.20000000000000E+01,,,1.20000000000000E+01,1.20000000000000E+01,1.20000000000000E+01,1.20000000000000E+01,1.20000000000000E+01,1.20000000000000E+01,1.20000000000000E+01,1.20000000000000E+01,1.20000000000000E+01,1.20000000000000E+01,1.20000000000000E+01,1.20000000000000E+01,1.20000000000000E+01,
KAZ,,,,,,,,,,,,,,,,,,,,,,1.10000000000000E+01,,,,,1.10000000000000E+01,,,,1.10000000000000E+01,1.10000000000000E+01,,,,1.10000000000000E+01,,,1.10000000000000E+01,1.10000000000000E+01,1.10000000000000E+01,1.10000000000000E+01,1.10000000000000E+01,1.10000000000000E+01,1.10000000000000E+01,1.10000000000000E+01,1.10000000000000E+01,1.10000000000000E+01,1.10000000000000E+01,1.10000000000000E+01,1.10000000000000E+01,
KEN,,,,,,,,,,,1.30000000000000E+01,,,,,1.30000000000000E+01,,,,,1.30000000000000E+01,,,,1.30000000000000E+01,,,,,,1.20000000000000E+01,1.20000000000000E+01,,,,1.20000000000000E+01,,,1.20000000000000E+01,1.20000000000000E+01,1.20000000000000E+01,1.20000000000000E+01,1.20000000000000E+01,1.20000000000000E+01,1.20000000000000E+01,1.20000000000000E+01,1.20000000000000E+01,1.20000000000000E+01,1.20000000000000E+01,1.20000000000000E+01,1.20000000000000E+01,
KGZ,,,,,,,,,,,,,,,,,,,,,,1.00000000000000E+01,,,,,1.00000000000000E+01,,,,1.00000000000000E+01,1.00000000000000E+01,,,,1.10000000000000E+01,,,1.10000000000000E+01,1.10000000000000E+01,1.10000000000000E+01,1.10000000000000E+01,1.10000000000000E+01,1.10000000000000E+01,1.10000000000000E+01,1.10000000000000E+01,1.10000000000000E+01,1.10000000000000E+01,1.10000000000000E+01,1.10000000000000E+01,1.10000000000000E+01,
KHM,,,,,,,,,,,,1.20000000000000E+01,,,,1.20000000000000E+01,,,,,,,1.10000000000000E+01,,,1.10000000000000E+01,,,,,1.10000000000000E+01,1.10000000000000E+01,,,,1.10000000000000E+01,,,1.20000000000000E+01,1.20000000000000E+01,1.20000000000000E+01,1.20000000000000E+01,1.20000000000000E+01,1.20000000000000E+01,1.20000000000000E+01,1.20000000000000E+01,1.20000000000000E+01,1.20000000000000E+01,1.20000000000000E+01,1.20000000000000E+01,1.20000000000000E+01,
KIR,,,,,,,,,,,1.30000000000000E+01,,,,,1.30000000000000E+01,,,,,1.30000000000000E+01,,,,,1.30000000000000E+01,,,,,1.30000000000000E+01,1.30000000000000E+01,,,,1.30000000000000E+01,,,1.20000000000000E+01,1.20000000000000E+01,1.20000000000000E+01,1.20000000000000E+01,1.20000000000000E+01,1.20000000000000E+01,1.20000000000000E+01,1.20000000000000E+01,1.20000000000000E+01,1.20000000000000E+01,1.20000000000000E+01,1.20000000000000E+01,1.20000000000000E+01,
KNA,,,,,,,,,,,1.20000000000000E+01,,,,,1.20000000000000E+01,,,,,1.20000000000000E+01,,,,,1.20000000000000E+01,,,,,1.20000000000000E+01,1.20000000000000E+01,,,,1.20000000000000E+01,,,1.20000000000000E+01,1.20000000000000E+01,1.20000000000000E+01,1.20000000000000E+01,1.20000000000000E+01,1.20000000000000E+01,1.20000000000000E+01,1.20000000000000E+01,1.20000000000000E+01,1.20000000000000E+01,1.20000000000000E+01,1.20000000000000E+01,1.20000000000000E+01,
KOR,,,,,,,,,,,,1.20000000000000E+01,,,,1.20000000000000E+01,,,,,1.20000000000000E+01,,,,,1.20000000000000E+01,,,,,1.20000000000000E+01,1.20000000000000E+01,,,,1.20000000000000E+01,,,1.20000000000000E+01,1.20000000000000E+01,1.20000000000000E+01,1.20000000000000E+01,1.20000000000000E+01,1.20000000000000E+01,1.20000000000000E+01,1.20000000000000E+01,1.20000000000000E+01,1.20000000000000E+01,1.20000000000000E+01,1.20000000000000E+01,1.20000000000000E+01,
KWT,,,,,,,,,,,,1.00000000000000E+01,,,,1.00000000000000E+01,,,,,1.00000000000000E+01,,,,,1.00000000000000E+01,,,,,1.00000000000000E+01,1.00000000000000E+01,,,,1.00000000000000E+01,,,1.00000000000000E+01,1.00000000000000E+01,1.00000000000000E+01,1.00000000000000E+01,1.00000000000000E+01,1.00000000000000E+01,1.00000000000000E+01,1.10000000000000E+01,1.10000000000000E+01,1.10000000000000E+01,1.10000000000000E+01,1.10000000000000E+01,1.10000000000000E+01,
LAO,,,,,,,,,,,,1.20000000000000E+01,,,,1.20000000000000E+01,,,,,1.10000000000000E+01,,,,,1.10000000000000E+01,,,,,1.10000000000000E+01,1.10000000000000E+01,,,,1.10000000000000E+01,,,1.10000000000000E+01,1.10000000000000E+01,1.10000000000000E+01,1.10000000000000E+01,1.10000000000000E+01,1.10000000000000E+01,1.10000000000000E+01,1.10000000000000E+01,1.10000000000000E+01,1.10000000000000E+01,1.10000000000000E+01,1.10000000000000E+01,1.10000000000000E+01,
LBN,,,,,,,,,,,,1.10000000000000E+01,,,,1.10000000000000E+01,,,,,1.10000000000000E+01,,,,,1.10000000000000E+01,,,,,1.10000000000000E+01,1.10000000000000E+01,,,,1.10000000000000E+01,,,1.10000000000000E+01,1.10000000000000E+01,,,,,,,1.20000000000000E+01,1.20000000000000E+01,1.20000000000000E+01,1.20000000000000E+01,1.20000000000000E+01,
LBR,,,,,,,,,,,1.20000000000000E+01,,,,,1.20000000000000E+01,,,,,1.20000000000000E+01,,,,1.30000000000000E+01,,,,,,1.30000000000000E+01,1.30000000000000E+01,,,,1.30000000000000E+01,,,1.20000000000000E+01,1.20000000000000E+01,1.20000000000000E+01,1.20000000000000E+01,1.20000000000000E+01,1.20000000000000E+01,1.20000000000000E+01,1.20000000000000E+01,1.20000000000000E+01,1.20000000000000E+01,1.20000000000000E+01,1.20000000000000E+01,1.20000000000000E+01,
LBY,,,,,,,,,,,,1.20000000000000E+01,,,,1.20000000000000E+01,,,,,1.20000000000000E+01,,,1.20000000000000E+01,,,,,,,1.20000000000000E+01,1.20000000000000E+01,,,,1.20000000000000E+01,,,,1.20000000000000E+01,1.20000000000000E+01,1.20000000000000E+01,1.20000000000000E+01,1.20000000000000E+01,1.20000000000000E+01,1.20000000000000E+01,1.20000000000000E+01,1.20000000000000E+01,1.20000000000000E+01,1.20000000000000E+01,1.20000000000000E+01,
LCA,,,,,,,,,,,,1.20000000000000E+01,,,,1.20000000000000E+01,,,,,1.20000000000000E+01,,,,,1.20000000000000E+01,,,,,1.20000000000000E+01,1.20000000000000E+01,,,,1.20000000000000E+01,,,1.20000000000000E+01,1.20000000000000E+01,1.20000000000000E+01,1.20000000000000E+01,1.20000000000000E+01,1.20000000000000E+01,1.20000000000000E+01,1.20000000000000E+01,1.20000000000000E+01,1.20000000000000E+01,1.20000000000000E+01,1.20000000000000E+01,1.20000000000000E+01,
LIE,,,,,,,,,,,1.10000000000000E+01,,,,,1.10000000000000E+01,,,,,1.10000000000000E+01,,,,,1.10000000000000E+01,,,,,1.10000000000000E+01,1.10000000000000E+01,,,,1.10000000000000E+01,,,1.10000000000000E+01,1.20000000000000E+01,1.20000000000000E+01,1.20000000000000E+01,1.20000000000000E+01,1.20000000000000E+01,1.20000000000000E+01,1.20000000000000E+01,1.20000000000000E+01,1.20000000000000E+01,1.20000000000000E+01,1.20000000000000E+01,1.20000000000000E+01,
LKA,,,,,,,,,,,1.10000000000000E+01,,,,,1.10000000000000E+01,,,,,1.10000000000000E+01,,,,,1.10000000000000E+01,,,,,1.00000000000000E+01,1.00000000000000E+01,,,,1.00000000000000E+01,,,1.00000000000000E+01,1.00000000000000E+01,1.00000000000000E+01,1.00000000000000E+01,1.00000000000000E+01,1.00000000000000E+01,1.00000000000000E+01,1.00000000000000E+01,1.00000000000000E+01,1.00000000000000E+01,1.00000000000000E+01,1.00000000000000E+01,1.00000000000000E+01,
LSO,,,,,,,,,,,,1.30000000000000E+01,,,,1.30000000000000E+01,,,,,1.30000000000000E+01,,,,,1.30000000000000E+01,,,,,1.30000000000000E+01,1.30000000000000E+01,,,,1.30000000000000E+01,,,1.30000000000000E+01,1.30000000000000E+01,1.30000000000000E+01,1.30000000000000E+01,1.30000000000000E+01,1.30000000000000E+01,1.30000000000000E+01,1.30000000000000E+01,1.30000000000000E+01,1.30000000000000E+01,1.30000000000000E+01,1.30000000000000E+01,1.30000000000000E+01,
LTU,,,,,,,,,,,,,,,,,,,,,,1.10000000000000E+01,,,,,1.10000000000000E+01,,,,1.10000000000000E+01,1.10000000000000E+01,,,,1.10000000000000E+01,,,1.10000000000000E+01,1.10000000000000E+01,1.10000000000000E+01,1.10000000000000E+01,1.10000000000000E+01,1.10000000000000E+01,1.10000000000000E+01,1.10000000000000E+01,1.10000000000000E+01,1.10000000000000E+01,1.10000000000000E+01,1.10000000000000E+01,1.10000000000000E+01,
LUX,,,,,,,,,,,,1.20000000000000E+01,,,,1.20000000000000E+01,,,,,1.20000000000000E+01,,,,,1.20000000000000E+01,,,,,1.20000000000000E+01,1.20000000000000E+01,,,,1.20000000000000E+01,,,1.20000000000000E+01,1.20000000000000E+01,1.20000000000000E+01,1.20000000000000E+01,1.20000000000000E+01,1.20000000000000E+01,1.20000000000000E+01,1.20000000000000E+01,1.20000000000000E+01,1.20000000000000E+01,1.20000000000000E+01,1.20000000000000E+01,1.20000000000000E+01,
LVA,,,,,,,,,,,,,,,,,,,,,,1.10000000000000E+01,,,,1.10000000000000E+01,,,,,1.10000000000000E+01,1.10000000000000E+01,,,,1.10000000000000E+01,,,1.10000000000000E+01,1.10000000000000E+01,1.10000000000000E+01,1.10000000000000E+01,1.10000000000000E+01,1.10000000000000E+01,1.10000000000000E+01,1.10000000000000E+01,1.10000000000000E+01,1.30000000000000E+01,1.30000000000000E+01,1.30000000000000E+01,1.30000000000000E+01,
MAC,,,,,,,,,,,,1.20000000000000E+01,,,,1.20000000000000E+01,,,,,1.20000000000000E+01,,,,,1.20000000000000E+01,,,,,1.20000000000000E+01,,,1.20000000000000E+01,,,,,,1.20000000000000E+01,1.20000000000000E+01,1.20000000000000E+01,1.20000000000000E+01,1.20000000000000E+01,1.20000000000000E+01,1.20000000000000E+01,1.20000000000000E+01,1.20000000000000E+01,1.20000000000000E+01,1.20000000000000E+01,1.20000000000000E+01,
MAR,,,,,,,,,,,,1.20000000000000E+01,,,,1.20000000000000E+01,,,,,1.20000000000000E+01,,,,,1.20000000000000E+01,,,,,1.20000000000000E+01,1.30000000000000E+01,,,,1.30000000000000E+01,,,1.30000000000000E+01,1.20000000000000E+01,1.20000000000000E+01,1.20000000000000E+01,1.20000000000000E+01,1.20000000000000E+01,1.20000000000000E+01,1.20000000000000E+01,1.20000000000000E+01,1.20000000000000E+01,1.20000000000000E+01,1.20000000000000E+01,1.20000000000000E+01,
MCO,,,,,,,,,,,1.10000000000000E+01,,,,,1.10000000000000E+01,,,,,1.10000000000000E+01,,,,,1.10000000000000E+01,,,,,1.10000000000000E+01,1.10000000000000E+01,,,,1.10000000000000E+01,,,1.10000000000000E+01,1.10000000000000E+01,1.10000000000000E+01,1.10000000000000E+01,1.10000000000000E+01,1.10000000000000E+01,1.10000000000000E+01,1.10000000000000E+01,1.10000000000000E+01,1.10000000000000E+01,1.10000000000000E+01,1.10000000000000E+01,1.10000000000000E+01,
MDA,,,,,,,,,,,,,,,,,,,,,,1.10000000000000E+01,,,,,1.10000000000000E+01,,,,1.10000000000000E+01,1.10000000000000E+01,,,,1.10000000000000E+01,,,1.10000000000000E+01,1.10000000000000E+01,1.10000000000000E+01,1.10000000000000E+01,1.10000000000000E+01,1.10000000000000E+01,1.10000000000000E+01,1.10000000000000E+01,1.10000000000000E+01,1.10000000000000E+01,1.10000000000000E+01,1.10000000000000E+01,1.10000000000000E+01,
MDG,,,,,,,,,,,,1.20000000000000E+01,,,,1.20000000000000E+01,,,,,1.10000000000000E+01,,,,,1.10000000000000E+01,,,,,1.10000000000000E+01,1.10000000000000E+01,,,,1.10000000000000E+01,,,1.10000000000000E+01,1.10000000000000E+01,1.10000000000000E+01,1.10000000000000E+01,1.10000000000000E+01,1.10000000000000E+01,1.10000000000000E+01,1.10000000000000E+01,1.10000000000000E+01,1.10000000000000E+01,1.10000000000000E+01,1.10000000000000E+01,1.10000000000000E+01,
MDV,,,,,,,,,,,1.10000000000000E+01,,,,,1.10000000000000E+01,,,,,1.10000000000000E+01,,,1.10000000000000E+01,,,,,,,,1.10000000000000E+01,1.10000000000000E+01,,,1.10000000000000E+01,,,1.30000000000000E+01,1.30000000000000E+01,1.30000000000000E+01,1.30000000000000E+01,1.30000000000000E+01,1.30000000000000E+01,1.30000000000000E+01,1.30000000000000E+01,1.30000000000000E+01,1.30000000000000E+01,1.30000000000000E+01,1.30000000000000E+01,1.30000000000000E+01,
MEX,,,,,,,,,,,,1.20000000000000E+01,,,,1.20000000000000E+01,,,,,1.20000000000000E+01,,,,,1.20000000000000E+01,,,,,1.20000000000000E+01,1.20000000000000E+01,,,,1.20000000000000E+01,,,1.20000000000000E+01,1.20000000000000E+01,1.20000000000000E+01,1.20000000000000E+01,1.20000000000000E+01,1.20000000000000E+01,1.20000000000000E+01,1.20000000000000E+01,1.20000000000000E+01,1.20000000000000E+01,1.20000000000000E+01,1.20000000000000E+01,1.20000000000000E+01,
MHL,,,,,,,,,,,,,,,,,,,,,,,,,,,,,,,,,,,,,,,1.20000000000000E+01,1.20000000000000E+01,1.20000000000000E+01,1.20000000000000E+01,1.20000000000000E+01,1.20000000000000E+01,1.20000000000000E+01,1.20000000000000E+01,1.20000000000000E+01,1.20000000000000E+01,1.20000000000000E+01,1.20000000000000E+01,1.20000000000000E+01,
MKD,,,,,,,,,,,1.10000000000000E+01,,,,,1.10000000000000E+01,,,,,1.10000000000000E+01,,,,,1.10000000000000E+01,,,,,1.10000000000000E+01,1.10000000000000E+01,,,,1.10000000000000E+01,,,1.10000000000000E+01,1.10000000000000E+01,1.10000000000000E+01,1.10000000000000E+01,1.10000000000000E+01,1.10000000000000E+01,1.10000000000000E+01,1.10000000000000E+01,1.10000000000000E+01,1.10000000000000E+01,1.10000000000000E+01,1.10000000000000E+01,1.10000000000000E+01,
MLI,,,,,,,,,,,,1.30000000000000E+01,,,,1.30000000000000E+01,,,,,1.30000000000000E+01,,,,,1.30000000000000E+01,,,,,1.30000000000000E+01,1.30000000000000E+01,,,,1.30000000000000E+01,,,1.30000000000000E+01,1.30000000000000E+01,1.30000000000000E+01,1.30000000000000E+01,1.30000000000000E+01,1.30000000000000E+01,1.30000000000000E+01,1.30000000000000E+01,1.30000000000000E+01,1.30000000000000E+01,1.30000000000000E+01,1.30000000000000E+01,1.30000000000000E+01,
MLT,,,,,,,,,,,,1.10000000000000E+01,,,,1.10000000000000E+01,,,,,1.10000000000000E+01,,,,,1.10000000000000E+01,,,,,1.10000000000000E+01,1.10000000000000E+01,,,,1.10000000000000E+01,,,1.10000000000000E+01,1.10000000000000E+01,1.10000000000000E+01,1.10000000000000E+01,1.10000000000000E+01,1.10000000000000E+01,1.10000000000000E+01,1.10000000000000E+01,1.10000000000000E+01,1.10000000000000E+01,1.10000000000000E+01,1.10000000000000E+01,1.10000000000000E+01,
MMR,,,,,,,,,,,,1.00000000000000E+01,,,,1.00000000000000E+01,,,,,1.00000000000000E+01,,,,,1.00000000000000E+01,,,,,1.00000000000000E+01,1.00000000000000E+01,,,,1.00000000000000E+01,,,1.00000000000000E+01,1.00000000000000E+01,1.00000000000000E+01,1.00000000000000E+01,1.00000000000000E+01,1.00000000000000E+01,1.00000000000000E+01,1.00000000000000E+01,1.00000000000000E+01,1.00000000000000E+01,1.00000000000000E+01,1.00000000000000E+01,1.00000000000000E+01,
MNE,,,,,,,,,,,,,,,,,,,,,,,,,,,,,,,,,,,,,,,,1.10000000000000E+01,1.10000000000000E+01,1.10000000000000E+01,1.10000000000000E+01,1.10000000000000E+01,1.10000000000000E+01,1.10000000000000E+01,1.10000000000000E+01,1.10000000000000E+01,1.10000000000000E+01,1.10000000000000E+01,1.10000000000000E+01,
MNG,,,,,,,,,,,,1.20000000000000E+01,,,,1.10000000000000E+01,,,,,1.10000000000000E+01,,,,,1.10000000000000E+01,,,,,1.10000000000000E+01,1.10000000000000E+01,,,,1.10000000000000E+01,,,1.20000000000000E+01,1.20000000000000E+01,1.20000000000000E+01,1.20000000000000E+01,1.20000000000000E+01,1.20000000000000E+01,1.20000000000000E+01,1.20000000000000E+01,1.20000000000000E+01,1.20000000000000E+01,1.20000000000000E+01,1.20000000000000E+01,1.20000000000000E+01,
MOZ,,,,,,,,,,,,1.10000000000000E+01,,,,1.10000000000000E+01,,,,,1.00000000000000E+01,,,,,1.10000000000000E+01,,,,,1.20000000000000E+01,1.20000000000000E+01,,,,1.20000000000000E+01,,,1.30000000000000E+01,1.30000000000000E+01,1.30000000000000E+01,1.30000000000000E+01,1.30000000000000E+01,1.30000000000000E+01,1.30000000000000E+01,1.30000000000000E+01,1.30000000000000E+01,1.30000000000000E+01,1.30000000000000E+01,1.30000000000000E+01,1.30000000000000E+01,
MRT,,,,,,,,,,,,1.30000000000000E+01,,,,1.30000000000000E+01,,,,,1.20000000000000E+01,,,,,1.20000000000000E+01,,,,,1.20000000000000E+01,1.20000000000000E+01,,,,1.20000000000000E+01,,,1.20000000000000E+01,1.20000000000000E+01,1.20000000000000E+01,1.20000000000000E+01,1.20000000000000E+01,1.20000000000000E+01,1.20000000000000E+01,1.20000000000000E+01,1.20000000000000E+01,1.20000000000000E+01,1.20000000000000E+01,1.20000000000000E+01,1.20000000000000E+01,
MUS,,,,,,,,,,,1.10000000000000E+01,,,,,1.10000000000000E+01,,,,,1.10000000000000E+01,,,,,1.10000000000000E+01,,,,,1.10000000000000E+01,1.10000000000000E+01,,,,1.10000000000000E+01,,,1.10000000000000E+01,1.10000000000000E+01,1.10000000000000E+01,1.10000000000000E+01,1.10000000000000E+01,1.10000000000000E+01,1.10000000000000E+01,1.10000000000000E+01,1.10000000000000E+01,1.10000000000000E+01,1.10000000000000E+01,1.10000000000000E+01,1.10000000000000E+01,
MWI,,,,,,,,,,,,1.40000000000000E+01,,,,1.40000000000000E+01,,,,,1.40000000000000E+01,,,,,1.40000000000000E+01,,,,,1.40000000000000E+01,1.40000000000000E+01,,,,1.40000000000000E+01,,,1.20000000000000E+01,1.20000000000000E+01,1.20000000000000E+01,1.20000000000000E+01,1.20000000000000E+01,1.20000000000000E+01,1.20000000000000E+01,1.20000000000000E+01,1.20000000000000E+01,1.20000000000000E+01,1.20000000000000E+01,1.20000000000000E+01,1.20000000000000E+01,
MYS,,,,,,,,,,,1.20000000000000E+01,,,,,1.20000000000000E+01,,,,,1.20000000000000E+01,,,,,1.20000000000000E+01,,,,,1.20000000000000E+01,1.20000000000000E+01,,,,1.20000000000000E+01,,,1.20000000000000E+01,1.20000000000000E+01,1.20000000000000E+01,1.20000000000000E+01,1.20000000000000E+01,1.20000000000000E+01,1.20000000000000E+01,1.20000000000000E+01,1.20000000000000E+01,1.20000000000000E+01,1.20000000000000E+01,1.20000000000000E+01,1.20000000000000E+01,
NAM,,,,,,,,,,,1.40000000000000E+01,,,,,1.40000000000000E+01,,,,,1.40000000000000E+01,,,,,,1.40000000000000E+01,,,,1.40000000000000E+01,,,,,1.40000000000000E+01,,,1.40000000000000E+01,1.40000000000000E+01,1.40000000000000E+01,1.40000000000000E+01,1.40000000000000E+01,1.40000000000000E+01,1.40000000000000E+01,1.40000000000000E+01,1.40000000000000E+01,1.40000000000000E+01,1.40000000000000E+01,1.40000000000000E+01,1.40000000000000E+01,
NCL,,,,,,,,,,,,,,,,,,,,,,,,,,,,,,,,,,,,,,,,1.10000000000000E+01,,,,,,,,,,,,
NER,,,,,,,,,,,,1.30000000000000E+01,,,,1.30000000000000E+01,,,,,1.30000000000000E+01,,,,,1.30000000000000E+01,,,,,1.30000000000000E+01,1.30000000000000E+01,,,,1.30000000000000E+01,,,1.30000000000000E+01,1.30000000000000E+01,1.30000000000000E+01,1.30000000000000E+01,1.30000000000000E+01,1.30000000000000E+01,1.30000000000000E+01,1.30000000000000E+01,1.30000000000000E+01,1.30000000000000E+01,1.30000000000000E+01,1.30000000000000E+01,1.30000000000000E+01,
NGA,,,,,,,,,,,1.20000000000000E+01,,,,,1.20000000000000E+01,,,,,1.20000000000000E+01,,,,,1.20000000000000E+01,,,,,1.20000000000000E+01,1.20000000000000E+01,,,1.20000000000000E+01,,,,1.20000000000000E+01,1.20000000000000E+01,1.20000000000000E+01,1.20000000000000E+01,1.20000000000000E+01,1.20000000000000E+01,1.20000000000000E+01,1.20000000000000E+01,1.20000000000000E+01,1.20000000000000E+01,1.20000000000000E+01,1.20000000000000E+01,1.20000000000000E+01,
NIC,,,,,,,,,,,1.30000000000000E+01,,,,,1.30000000000000E+01,,,,,1.30000000000000E+01,,,,,1.30000000000000E+01,,,,,1.30000000000000E+01,1.30000000000000E+01,,,,1.30000000000000E+01,,,1.30000000000000E+01,1.30000000000000E+01,1.30000000000000E+01,1.30000000000000E+01,1.30000000000000E+01,1.30000000000000E+01,1.30000000000000E+01,1.30000000000000E+01,1.20000000000000E+01,1.20000000000000E+01,1.20000000000000E+01,1.20000000000000E+01,1.20000000000000E+01,
NLD,,,,,,,,,,,,1.20000000000000E+01,,,,1.20000000000000E+01,,,,,1.20000000000000E+01,,,,,1.20000000000000E+01,,,,,1.20000000000000E+01,1.20000000000000E+01,,,,1.20000000000000E+01,,,1.20000000000000E+01,1.20000000000000E+01,1.20000000000000E+01,1.20000000000000E+01,1.20000000000000E+01,1.20000000000000E+01,1.20000000000000E+01,1.20000000000000E+01,1.20000000000000E+01,1.20000000000000E+01,1.20000000000000E+01,1.20000000000000E+01,1.20000000000000E+01,
NOR,,,,,,,,,,,,1.30000000000000E+01,,,,1.30000000000000E+01,,,,,1.30000000000000E+01,,,,,1.30000000000000E+01,,,,,1.30000000000000E+01,1.30000000000000E+01,,,,1.30000000000000E+01,,,1.30000000000000E+01,1.30000000000000E+01,1.30000000000000E+01,1.30000000000000E+01,1.30000000000000E+01,1.30000000000000E+01,1.30000000000000E+01,1.30000000000000E+01,1.30000000000000E+01,1.30000000000000E+01,1.30000000000000E+01,1.30000000000000E+01,1.30000000000000E+01,
NPL,,,,,,,,,,,1.10000000000000E+01,,,,,9.00000000000000E+00,,,,,9.00000000000000E+00,,,,,1.10000000000000E+01,,,,,1.10000000000000E+01,1.10000000000000E+01,,,,1.10000000000000E+01,,,1.10000000000000E+01,1.10000000000000E+01,1.10000000000000E+01,1.10000000000000E+01,1.10000000000000E+01,1.00000000000000E+01,1.00000000000000E+01,1.00000000000000E+01,1.00000000000000E+01,1.00000000000000E+01,1.00000000000000E+01,1.00000000000000E+01,1.00000000000000E+01,
NZL,,,,,,,,,,,1.10000000000000E+01,,,,,1.10000000000000E+01,,,,,1.10000000000000E+01,,,,,1.10000000000000E+01,,,,,1.10000000000000E+01,1.10000000000000E+01,,,,1.10000000000000E+01,,,1.10000000000000E+01,1.10000000000000E+01,1.10000000000000E+01,1.10000000000000E+01,1.10000000000000E+01,1.10000000000000E+01,1.10000000000000E+01,1.10000000000000E+01,1.10000000000000E+01,1.10000000000000E+01,1.10000000000000E+01,1.10000000000000E+01,1.10000000000000E+01,
OMN,,,,,,,,,,,,1.20000000000000E+01,,,,1.20000000000000E+01,,,,,1.20000000000000E+01,,,,,1.20000000000000E+01,,,,,1.20000000000000E+01,1.20000000000000E+01,,,,1.20000000000000E+01,,,1.20000000000000E+01,1.20000000000000E+01,1.20000000000000E+01,1.20000000000000E+01,1.20000000000000E+01,1.20000000000000E+01,,,,,,1.20000000000000E+01,1.20000000000000E+01,
PAK,,,,,,,,,,,,1.00000000000000E+01,,,,1.00000000000000E+01,,,,,1.00000000000000E+01,,,,,1.00000000000000E+01,,,,,1.00000000000000E+01,1.00000000000000E+01,,,,,1.00000000000000E+01,,1.00000000000000E+01,1.00000000000000E+01,1.00000000000000E+01,1.00000000000000E+01,1.00000000000000E+01,1.00000000000000E+01,1.00000000000000E+01,1.00000000000000E+01,1.00000000000000E+01,1.00000000000000E+01,1.00000000000000E+01,1.00000000000000E+01,1.00000000000000E+01,
PAN,,,,,,,,,,,1.20000000000000E+01,,,,,1.20000000000000E+01,,,,,1.20000000000000E+01,,,,,1.20000000000000E+01,,,,,1.20000000000000E+01,1.20000000000000E+01,,,,1.20000000000000E+01,,,1.20000000000000E+01,1.20000000000000E+01,1.20000000000000E+01,1.20000000000000E+01,1.20000000000000E+01,1.20000000000000E+01,1.20000000000000E+01,1.20000000000000E+01,1.20000000000000E+01,1.20000000000000E+01,1.20000000000000E+01,1.20000000000000E+01,1.20000000000000E+01,
PER,,,,,,,,,,,1.20000000000000E+01,,,,,1.20000000000000E+01,,,,,1.20000000000000E+01,,,,,1.20000000000000E+01,,,,,1.20000000000000E+01,1.20000000000000E+01,,,,1.20000000000000E+01,,,1.20000000000000E+01,1.20000000000000E+01,1.20000000000000E+01,1.20000000000000E+01,1.20000000000000E+01,1.20000000000000E+01,1.20000000000000E+01,1.20000000000000E+01,1.20000000000000E+01,1.20000000000000E+01,1.20000000000000E+01,1.20000000000000E+01,1.20000000000000E+01,
PHL,,,,,,,,,,,,1.30000000000000E+01,,,,1.30000000000000E+01,,,,,1.30000000000000E+01,,,,,1.30000000000000E+01,,,,,1.30000000000000E+01,,,,,1.30000000000000E+01,,,1.20000000000000E+01,1.20000000000000E+01,1.20000000000000E+01,1.20000000000000E+01,1.20000000000000E+01,1.20000000000000E+01,1.20000000000000E+01,1.20000000000000E+01,1.20000000000000E+01,1.20000000000000E+01,1.20000000000000E+01,1.20000000000000E+01,1.20000000000000E+01,
PLW,,,,,,,,,,,,,,,,,,,,,,,,,,,,,,,,,,,,,,,,1.10000000000000E+01,1.10000000000000E+01,1.10000000000000E+01,1.10000000000000E+01,1.10000000000000E+01,1.10000000000000E+01,1.10000000000000E+01,1.10000000000000E+01,1.10000000000000E+01,1.10000000000000E+01,1.10000000000000E+01,1.10000000000000E+01,
PNG,,,,,,,,,,,1.30000000000000E+01,,,,,1.30000000000000E+01,,,,,1.30000000000000E+01,,,,,1.30000000000000E+01,,,,,1.30000000000000E+01,1.30000000000000E+01,,,,1.30000000000000E+01,,,1.30000000000000E+01,1.30000000000000E+01,1.30000000000000E+01,1.30000000000000E+01,1.30000000000000E+01,1.30000000000000E+01,1.30000000000000E+01,1.30000000000000E+01,1.30000000000000E+01,1.30000000000000E+01,1.30000000000000E+01,1.30000000000000E+01,1.30000000000000E+01,
POL,,,,,,,,,,,,1.30000000000000E+01,,,,1.30000000000000E+01,,,,,1.30000000000000E+01,,,,,1.30000000000000E+01,,,,,1.30000000000000E+01,,,,1.30000000000000E+01,,,,,1.30000000000000E+01,1.30000000000000E+01,1.30000000000000E+01,1.30000000000000E+01,1.30000000000000E+01,1.30000000000000E+01,1.30000000000000E+01,1.30000000000000E+01,1.30000000000000E+01,1.30000000000000E+01,1.30000000000000E+01,1.30000000000000E+01,
PRI,,,,,,,,,,,,,,,,,,,,,,,,,,,,,,,,,,,,,,,,1.20000000000000E+01,1.20000000000000E+01,1.20000000000000E+01,1.20000000000000E+01,1.20000000000000E+01,1.20000000000000E+01,1.20000000000000E+01,1.20000000000000E+01,1.20000000000000E+01,1.20000000000000E+01,1.20000000000000E+01,1.20000000000000E+01,
PRK,,,,,,,,,,,1.00000000000000E+01,,,,,1.00000000000000E+01,,,,,1.00000000000000E+01,,,,,1.00000000000000E+01,,,,,1.00000000000000E+01,,,,,1.00000000000000E+01,,,,1.00000000000000E+01,1.00000000000000E+01,1.00000000000000E+01,1.00000000000000E+01,1.00000000000000E+01,1.00000000000000E+01,1.00000000000000E+01,1.00000000000000E+01,1.00000000000000E+01,1.00000000000000E+01,1.00000000000000E+01,1.00000000000000E+01,
PRT,,,,,,,,,,,,1.20000000000000E+01,,,,1.20000000000000E+01,,,,,1.20000000000000E+01,,,,,1.20000000000000E+01,,,,,1.20000000000000E+01,1.20000000000000E+01,,,,1.20000000000000E+01,,,1.20000000000000E+01,1.20000000000000E+01,1.20000000000000E+01,1.20000000000000E+01,1.20000000000000E+01,1.20000000000000E+01,1.20000000000000E+01,1.20000000000000E+01,1.20000000000000E+01,1.20000000000000E+01,1.20000000000000E+01,1.20000000000000E+01,1.20000000000000E+01,
PRY,,,,,,,,,,,1.30000000000000E+01,,,,,1.30000000000000E+01,,,,,1.30000000000000E+01,,,,,1.30000000000000E+01,,,,,1.30000000000000E+01,1.30000000000000E+01,,,,1.20000000000000E+01,,,1.20000000000000E+01,1.20000000000000E+01,1.20000000000000E+01,1.20000000000000E+01,1.20000000000000E+01,1.20000000000000E+01,1.20000000000000E+01,1.20000000000000E+01,1.20000000000000E+01,1.20000000000000E+01,1.20000000000000E+01,1.20000000000000E+01,1.20000000000000E+01,
QAT,,,,,,,,,,,,1.20000000000000E+01,,,,1.20000000000000E+01,,,,,1.20000000000000E+01,,,,,1.20000000000000E+01,,,,,1.20000000000000E+01,1.20000000000000E+01,,,,1.20000000000000E+01,,,1.20000000000000E+01,1.20000000000000E+01,1.20000000000000E+01,1.20000000000000E+01,1.20000000000000E+01,1.20000000000000E+01,1.20000000000000E+01,1.20000000000000E+01,1.20000000000000E+01,1.20000000000000E+01,1.20000000000000E+01,1.20000000000000E+01,1.20000000000000E+01,
ROM,,,,,,,,,,,,1.00000000000000E+01,,,1.00000000000000E+01,,,,,,1.00000000000000E+01,,,,,1.00000000000000E+01,,,,,1.00000000000000E+01,1.00000000000000E+01,,,,1.10000000000000E+01,,,1.10000000000000E+01,1.10000000000000E+01,1.10000000000000E+01,1.10000000000000E+01,1.10000000000000E+01,1.10000000000000E+01,1.10000000000000E+01,1.10000000000000E+01,1.10000000000000E+01,1.10000000000000E+01,1.10000000000000E+01,1.10000000000000E+01,1.10000000000000E+01,
RUS,,,,,,,,,,,,,,,,,,,,,,1.00000000000000E+01,,,,1.00000000000000E+01,,,,,1.00000000000000E+01,1.00000000000000E+01,,,1.00000000000000E+01,,,,1.00000000000000E+01,1.00000000000000E+01,1.00000000000000E+01,1.00000000000000E+01,1.00000000000000E+01,1.00000000000000E+01,1.10000000000000E+01,1.10000000000000E+01,1.10000000000000E+01,1.10000000000000E+01,1.10000000000000E+01,1.10000000000000E+01,1.10000000000000E+01,
RWA,,,,,,,,,,,,1.30000000000000E+01,,,,1.30000000000000E+01,,,,,1.40000000000000E+01,,,,,1.50000000000000E+01,,,,,1.50000000000000E+01,1.50000000000000E+01,,,,1.40000000000000E+01,,,,1.30000000000000E+01,1.30000000000000E+01,1.30000000000000E+01,1.30000000000000E+01,1.30000000000000E+01,1.30000000000000E+01,1.30000000000000E+01,1.30000000000000E+01,1.30000000000000E+01,1.30000000000000E+01,1.30000000000000E+01,1.30000000000000E+01,
SAU,,,,,,,,,,,,1.20000000000000E+01,,,,1.20000000000000E+01,,,,,1.20000000000000E+01,,,,,1.20000000000000E+01,,,,,1.20000000000000E+01,1.20000000000000E+01,,,,1.20000000000000E+01,,,1.20000000000000E+01,1.20000000000000E+01,1.20000000000000E+01,1.20000000000000E+01,1.20000000000000E+01,1.20000000000000E+01,1.20000000000000E+01,1.20000000000000E+01,1.20000000000000E+01,1.20000000000000E+01,1.20000000000000E+01,1.20000000000000E+01,1.20000000000000E+01,
SDN,,,,,,,,,,,,1.30000000000000E+01,,,,1.30000000000000E+01,,,,,1.30000000000000E+01,,,,,1.30000000000000E+01,,,,,1.30000000000000E+01,1.30000000000000E+01,,,,1.20000000000000E+01,,,,2.00000000000000E+00,2.00000000000000E+00,2.00000000000000E+00,2.00000000000000E+00,2.00000000000000E+00,2.00000000000000E+00,2.00000000000000E+00,2.00000000000000E+00,2.00000000000000E+00,2.00000000000000E+00,2.00000000000000E+00,2.00000000000000E+00,
SEN,,,,,,,,,,,,1.20000000000000E+01,,,,1.20000000000000E+01,,,,,1.20000000000000E+01,,,,,1.20000000000000E+01,,,,,1.30000000000000E+01,1.30000000000000E+01,,,,1.30000000000000E+01,,,1.30000000000000E+01,1.30000000000000E+01,1.30000000000000E+01,1.30000000000000E+01,1.30000000000000E+01,1.30000000000000E+01,1.30000000000000E+01,1.30000000000000E+01,1.30000000000000E+01,1.30000000000000E+01,1.30000000000000E+01,1.30000000000000E+01,1.30000000000000E+01,
SGP,,,,,,,,,,,,,,,,,,,,,,,,,,,,,,,,1.20000000000000E+01,,,,,,,1.20000000000000E+01,1.20000000000000E+01,1.20000000000000E+01,1.20000000000000E+01,1.20000000000000E+01,1.20000000000000E+01,1.20000000000000E+01,1.20000000000000E+01,1.20000000000000E+01,1.20000000000000E+01,1.20000000000000E+01,1.20000000000000E+01,1.20000000000000E+01,
SLB,,,,,,,,,,,1.30000000000000E+01,,,,,1.30000000000000E+01,,,,,1.30000000000000E+01,,,,,1.20000000000000E+01,,,,,1.20000000000000E+01,1.20000000000000E+01,,,1.20000000000000E+01,,,,,1.20000000000000E+01,1.20000000000000E+01,1.20000000000000E+01,1.20000000000000E+01,1.20000000000000E+01,1.20000000000000E+01,1.20000000000000E+01,1.20000000000000E+01,1.20000000000000E+01,1.20000000000000E+01,1.20000000000000E+01,1.20000000000000E+01,
SLE,,,,,,,,,,,,1.20000000000000E+01,,,,1.20000000000000E+01,,,,,1.20000000000000E+01,,,,,1.20000000000000E+01,,,,,1.20000000000000E+01,1.20000000000000E+01,,,,1.20000000000000E+01,,,1.20000000000000E+01,1.20000000000000E+01,1.20000000000000E+01,1.20000000000000E+01,1.20000000000000E+01,1.20000000000000E+01,1.20000000000000E+01,1.20000000000000E+01,1.20000000000000E+01,1.20000000000000E+01,1.20000000000000E+01,1.20000000000000E+01,1.20000000000000E+01,
SLV,,,,,,,,,,,1.30000000000000E+01,,,,,1.30000000000000E+01,,,,,1.30000000000000E+01,,,,1.30000000000000E+01,,,,,,,1.30000000000000E+01,,,,1.30000000000000E+01,,,1.30000000000000E+01,1.30000000000000E+01,1.30000000000000E+01,1.30000000000000E+01,1.30000000000000E+01,1.30000000000000E+01,1.30000000000000E+01,1.30000000000000E+01,1.30000000000000E+01,1.30000000000000E+01,1.30000000000000E+01,1.30000000000000E+01,1.30000000000000E+01,
SMR,,,,,,,,,,,1.10000000000000E+01,,,,,1.10000000000000E+01,,,,,1.10000000000000E+01,,,,,1.10000000000000E+01,,,,,1.10000000000000E+01,1.10000000000000E+01,,,,1.10000000000000E+01,,,1.10000000000000E+01,1.10000000000000E+01,1.10000000000000E+01,1.10000000000000E+01,1.10000000000000E+01,1.10000000000000E+01,1.10000000000000E+01,1.10000000000000E+01,1.10000000000000E+01,1.10000000000000E+01,1.10000000000000E+01,1.10000000000000E+01,1.10000000000000E+01,
SOM,,,,,,,,,,,,1.00000000000000E+01,,,,1.00000000000000E+01,,,,,1.00000000000000E+01,,,,,1.00000000000000E+01,,,,,1.00000000000000E+01,1.00000000000000E+01,,,,1.00000000000000E+01,,,1.20000000000000E+01,1.20000000000000E+01,1.20000000000000E+01,1.20000000000000E+01,1.20000000000000E+01,1.20000000000000E+01,1.20000000000000E+01,1.20000000000000E+01,1.20000000000000E+01,1.20000000000000E+01,1.20000000000000E+01,1.20000000000000E+01,1.20000000000000E+01,
SRB,,,,,,,,,,,,,,,,,,,,,,,,,,,,,,,,,,,,,,,,1.10000000000000E+01,1.10000000000000E+01,1.10000000000000E+01,1.10000000000000E+01,1.10000000000000E+01,1.10000000000000E+01,1.10000000000000E+01,1.10000000000000E+01,1.10000000000000E+01,1.10000000000000E+01,1.10000000000000E+01,1.10000000000000E+01,
STP,,,,,,,,,,,,1.10000000000000E+01,,,,1.10000000000000E+01,,,,,1.10000000000000E+01,,,,1.10000000000000E+01,,,,,,1.10000000000000E+01,1.10000000000000E+01,,,,1.10000000000000E+01,,,1.10000000000000E+01,1.30000000000000E+01,1.30000000000000E+01,1.30000000000000E+01,1.30000000000000E+01,1.30000000000000E+01,1.30000000000000E+01,1.30000000000000E+01,1.20000000000000E+01,1.20000000000000E+01,1.20000000000000E+01,1.20000000000000E+01,1.20000000000000E+01,
SUR,,,,,,,,,,,,1.20000000000000E+01,,,,1.20000000000000E+01,,,,,1.20000000000000E+01,,,,,1.20000000000000E+01,,,,,1.20000000000000E+01,1.20000000000000E+01,,,1.20000000000000E+01,,,,1.20000000000000E+01,1.20000000000000E+01,1.20000000000000E+01,1.20000000000000E+01,1.20000000000000E+01,1.20000000000000E+01,1.20000000000000E+01,1.20000000000000E+01,1.20000000000000E+01,1.20000000000000E+01,1.20000000000000E+01,1.20000000000000E+01,1.20000000000000E+01,
SVK,,,,,,,,,,,,,,,,,,,,,,,,,,1.00000000000000E+01,,,,,1.00000000000000E+01,1.00000000000000E+01,,,,1.00000000000000E+01,,,1.00000000000000E+01,1.00000000000000E+01,1.00000000000000E+01,1.00000000000000E+01,1.00000000000000E+01,1.00000000000000E+01,1.00000000000000E+01,1.00000000000000E+01,1.00000000000000E+01,1.00000000000000E+01,1.00000000000000E+01,1.00000000000000E+01,1.00000000000000E+01,
SVN,,,,,,,,,,,,,,,,,,,,,,,1.10000000000000E+01,,,1.10000000000000E+01,,,,,1.10000000000000E+01,1.10000000000000E+01,,,,1.10000000000000E+01,,,1.10000000000000E+01,1.10000000000000E+01,1.10000000000000E+01,1.10000000000000E+01,1.10000000000000E+01,1.10000000000000E+01,1.10000000000000E+01,1.10000000000000E+01,1.10000000000000E+01,1.20000000000000E+01,1.20000000000000E+01,1.20000000000000E+01,1.20000000000000E+01,
SWE,,,,,,,,,,,,1.30000000000000E+01,,,,1.30000000000000E+01,,,,,1.30000000000000E+01,,,,,1.30000000000000E+01,,,,,1.30000000000000E+01,1.30000000000000E+01,,,,1.30000000000000E+01,,,1.30000000000000E+01,1.30000000000000E+01,1.30000000000000E+01,1.30000000000000E+01,1.30000000000000E+01,1.30000000000000E+01,1.30000000000000E+01,1.30000000000000E+01,1.30000000000000E+01,1.30000000000000E+01,1.30000000000000E+01,1.30000000000000E+01,1.30000000000000E+01,
SWZ,,,,,,,,,,,1.30000000000000E+01,,,,,1.30000000000000E+01,,,,,1.30000000000000E+01,,,,,1.30000000000000E+01,,,,,1.30000000000000E+01,1.30000000000000E+01,,,,1.30000000000000E+01,,,1.30000000000000E+01,1.30000000000000E+01,1.30000000000000E+01,1.30000000000000E+01,1.30000000000000E+01,1.30000000000000E+01,1.30000000000000E+01,1.30000000000000E+01,1.30000000000000E+01,1.30000000000000E+01,1.30000000000000E+01,1.30000000000000E+01,1.30000000000000E+01,
SYC,,,,,,,,,,,1.20000000000000E+01,,,,,1.20000000000000E+01,,,,,1.20000000000000E+01,,,,,1.20000000000000E+01,,,,,1.20000000000000E+01,1.20000000000000E+01,,,,1.20000000000000E+01,,,1.20000000000000E+01,1.20000000000000E+01,1.20000000000000E+01,1.20000000000000E+01,1.20000000000000E+01,1.20000000000000E+01,1.20000000000000E+01,1.20000000000000E+01,1.20000000000000E+01,1.20000000000000E+01,1.20000000000000E+01,1.20000000000000E+01,1.20000000000000E+01,
SYR,,,,,,,,,,,,1.20000000000000E+01,,,,1.20000000000000E+01,,,,,1.20000000000000E+01,,,,,1.20000000000000E+01,,,,,1.20000000000000E+01,1.20000000000000E+01,,,,1.20000000000000E+01,,,1.20000000000000E+01,1.20000000000000E+01,1.20000000000000E+01,1.20000000000000E+01,1.20000000000000E+01,1.00000000000000E+01,1.00000000000000E+01,1.00000000000000E+01,1.00000000000000E+01,1.00000000000000E+01,1.00000000000000E+01,1.00000000000000E+01,1.00000000000000E+01,
TCA,,,,,,,,,,,1.20000000000000E+01,,,,,1.20000000000000E+01,,,,,1.20000000000000E+01,,,,,1.20000000000000E+01,,,,,1.20000000000000E+01,,,,,1.20000000000000E+01,,,,1.20000000000000E+01,1.20000000000000E+01,1.20000000000000E+01,1.20000000000000E+01,1.20000000000000E+01,1.20000000000000E+01,1.20000000000000E+01,1.20000000000000E+01,1.20000000000000E+01,1.20000000000000E+01,1.20000000000000E+01,1.20000000000000E+01,
TCD,,,,,,,,,,,,1.20000000000000E+01,,,,1.20000000000000E+01,,,,,1.20000000000000E+01,,,,,1.20000000000000E+01,,,,,1.20000000000000E+01,1.20000000000000E+01,,,,1.20000000000000E+01,,,1.20000000000000E+01,1.20000000000000E+01,1.20000000000000E+01,1.20000000000000E+01,1.20000000000000E+01,1.20000000000000E+01,1.20000000000000E+01,1.20000000000000E+01,1.20000000000000E+01,1.20000000000000E+01,1.20000000000000E+01,1.20000000000000E+01,1.20000000000000E+01,
TGO,,,,,,,,,,,,1.20000000000000E+01,,,,1.20000000000000E+01,,,,,1.20000000000000E+01,,,,,1.20000000000000E+01,,,,,1.20000000000000E+01,1.20000000000000E+01,,,,1.20000000000000E+01,,,1.20000000000000E+01,1.20000000000000E+01,1.20000000000000E+01,1.20000000000000E+01,1.20000000000000E+01,1.20000000000000E+01,1.20000000000000E+01,1.20000000000000E+01,1.20000000000000E+01,1.20000000000000E+01,1.20000000000000E+01,1.20000000000000E+01,1.20000000000000E+01,
THA,,,,,,,,,,,,1.40000000000000E+01,,,,1.40000000000000E+01,,,,,1.30000000000000E+01,,,,,1.30000000000000E+01,,,,,1.20000000000000E+01,1.20000000000000E+01,,,,1.20000000000000E+01,,,1.20000000000000E+01,1.20000000000000E+01,1.20000000000000E+01,1.20000000000000E+01,1.20000000000000E+01,1.20000000000000E+01,1.20000000000000E+01,1.20000000000000E+01,1.20000000000000E+01,1.20000000000000E+01,1.20000000000000E+01,1.20000000000000E+01,1.20000000000000E+01,
TJK,,,,,,,,,,,,,,,,,,,,,,,,,,,,,,,,,,,,1.10000000000000E+01,,,1.00000000000000E+01,1.10000000000000E+01,1.10000000000000E+01,1.10000000000000E+01,1.10000000000000E+01,1.10000000000000E+01,1.10000000000000E+01,1.10000000000000E+01,1.10000000000000E+01,1.10000000000000E+01,1.10000000000000E+01,1.10000000000000E+01,1.10000000000000E+01,
TKM,,,,,,,,,,,,,,,,,,,,,,,,,,1.10000000000000E+01,,,,,1.10000000000000E+01,1.10000000000000E+01,,,,1.10000000000000E+01,,,1.00000000000000E+01,1.00000000000000E+01,1.00000000000000E+01,1.00000000000000E+01,1.00000000000000E+01,1.00000000000000E+01,1.00000000000000E+01,1.00000000000000E+01,1.00000000000000E+01,1.00000000000000E+01,1.00000000000000E+01,1.00000000000000E+01,1.00000000000000E+01,
TMP,,,,,,,,,,,,,,,,,,,,,,,,,,,,,,,,,,,,,,,1.20000000000000E+01,1.20000000000000E+01,1.20000000000000E+01,1.20000000000000E+01,1.20000000000000E+01,1.20000000000000E+01,1.20000000000000E+01,1.20000000000000E+01,1.20000000000000E+01,1.20000000000000E+01,1.20000000000000E+01,1.20000000000000E+01,1.20000000000000E+01,
TON,,,,,,,,,,,1.20000000000000E+01,,,,,1.20000000000000E+01,,,,,,1.20000000000000E+01,,,,1.20000000000000E+01,,,,,1.20000000000000E+01,,,1.20000000000000E+01,,,,,1.10000000000000E+01,1.20000000000000E+01,1.10000000000000E+01,1.10000000000000E+01,1.10000000000000E+01,1.10000000000000E+01,1.10000000000000E+01,1.10000000000000E+01,1.10000000000000E+01,1.10000000000000E+01,1.10000000000000E+01,1.10000000000000E+01,1.10000000000000E+01,
TTO,,,,,,,,,,,,1.20000000000000E+01,,,,1.20000000000000E+01,,,,,1.20000000000000E+01,,,,,1.20000000000000E+01,,,,,1.20000000000000E+01,1.20000000000000E+01,,,,1.20000000000000E+01,,,1.20000000000000E+01,1.20000000000000E+01,1.20000000000000E+01,1.20000000000000E+01,1.20000000000000E+01,1.20000000000000E+01,1.20000000000000E+01,1.20000000000000E+01,1.20000000000000E+01,1.20000000000000E+01,1.20000000000000E+01,1.20000000000000E+01,1.20000000000000E+01,
TUN,,,,,,,,,,,,1.20000000000000E+01,,,,1.20000000000000E+01,,,,,1.20000000000000E+01,,,,,1.20000000000000E+01,,,,,1.20000000000000E+01,1.20000000000000E+01,,,,1.20000000000000E+01,,,1.20000000000000E+01,1.20000000000000E+01,1.20000000000000E+01,1.20000000000000E+01,1.20000000000000E+01,1.20000000000000E+01,1.20000000000000E+01,1.20000000000000E+01,1.20000000000000E+01,1.20000000000000E+01,1.20000000000000E+01,1.20000000000000E+01,1.20000000000000E+01,
TUR,,,,,,,,,,,,1.10000000000000E+01,,,,1.10000000000000E+01,,,,,1.10000000000000E+01,,,,,1.10000000000000E+01,,,,,1.10000000000000E+01,1.10000000000000E+01,,,,1.10000000000000E+01,,,1.20000000000000E+01,1.10000000000000E+01,1.10000000000000E+01,1.10000000000000E+01,1.10000000000000E+01,1.10000000000000E+01,1.10000000000000E+01,1.10000000000000E+01,1.10000000000000E+01,1.10000000000000E+01,1.10000000000000E+01,1.10000000000000E+01,1.10000000000000E+01,
TUV,,,,,,,,,,,1.20000000000000E+01,,,,,1.20000000000000E+01,,,,,1.20000000000000E+01,,,,,1.20000000000000E+01,,,,,1.20000000000000E+01,,,,,1.20000000000000E+01,,,,1.20000000000000E+01,1.20000000000000E+01,1.20000000000000E+01,1.20000000000000E+01,1.20000000000000E+01,1.20000000000000E+01,1.20000000000000E+01,1.20000000000000E+01,1.20000000000000E+01,1.20000000000000E+01,1.20000000000000E+01,1.20000000000000E+01,
TZA,,,,,,,,,,,1.40000000000000E+01,,,,,1.40000000000000E+01,,,,,1.40000000000000E+01,,,,,1.40000000000000E+01,,,,,1.40000000000000E+01,1.40000000000000E+01,,,,1.40000000000000E+01,,,1.40000000000000E+01,1.40000000000000E+01,1.40000000000000E+01,1.40000000000000E+01,1.40000000000000E+01,1.40000000000000E+01,1.40000000000000E+01,1.40000000000000E+01,1.40000000000000E+01,1.40000000000000E+01,1.40000000000000E+01,1.40000000000000E+01,1.40000000000000E+01,
UGA,,,,,,,,,,,1.30000000000000E+01,,,,,1.30000000000000E+01,,,,,1.30000000000000E+01,,,,,1.30000000000000E+01,,,,,1.30000000000000E+01,1.30000000000000E+01,,,,1.30000000000000E+01,,,1.30000000000000E+01,1.30000000000000E+01,1.30000000000000E+01,1.30000000000000E+01,1.30000000000000E+01,1.30000000000000E+01,1.30000000000000E+01,1.30000000000000E+01,1.30000000000000E+01,1.30000000000000E+01,1.30000000000000E+01,1.30000000000000E+01,1.30000000000000E+01,
UKR,,,,,,,,,,,,1.20000000000000E+01,,,,1.20000000000000E+01,,,,,1.20000000000000E+01,,,,,1.20000000000000E+01,,,,,1.20000000000000E+01,1.20000000000000E+01,,,1.10000000000000E+01,,,,1.00000000000000E+01,1.00000000000000E+01,1.00000000000000E+01,1.00000000000000E+01,1.00000000000000E+01,1.00000000000000E+01,1.00000000000000E+01,1.00000000000000E+01,1.00000000000000E+01,1.00000000000000E+01,1.00000000000000E+01,1.00000000000000E+01,1.00000000000000E+01,
URY,,,,,,,,,,,1.20000000000000E+01,,,,,1.20000000000000E+01,,,,,1.20000000000000E+01,,,,,1.20000000000000E+01,,,,,1.20000000000000E+01,1.20000000000000E+01,,,,1.20000000000000E+01,,,1.20000000000000E+01,1.20000000000000E+01,1.20000000000000E+01,1.20000000000000E+01,1.20000000000000E+01,1.20000000000000E+01,1.20000000000000E+01,1.20000000000000E+01,1.20000000000000E+01,1.20000000000000E+01,1.20000000000000E+01,1.20000000000000E+01,1.20000000000000E+01,
USA,,,,,,,,,,,,1.20000000000000E+01,,,,1.20000000000000E+01,,,,,1.20000000000000E+01,,,,,1.20000000000000E+01,,,,,1.20000000000000E+01,1.20000000000000E+01,,,,1.20000000000000E+01,,,1.20000000000000E+01,1.20000000000000E+01,1.20000000000000E+01,1.20000000000000E+01,1.20000000000000E+01,1.20000000000000E+01,1.20000000000000E+01,1.20000000000000E+01,1.20000000000000E+01,1.20000000000000E+01,1.20000000000000E+01,1.20000000000000E+01,1.20000000000000E+01,
UZB,,,,,,,,,,,,,,,,,,,,,,1.00000000000000E+01,,,,,1.00000000000000E+01,,,,1.00000000000000E+01,1.00000000000000E+01,,,,1.00000000000000E+01,,,1.10000000000000E+01,1.10000000000000E+01,1.10000000000000E+01,1.10000000000000E+01,1.10000000000000E+01,1.10000000000000E+01,1.10000000000000E+01,1.10000000000000E+01,1.10000000000000E+01,1.10000000000000E+01,1.10000000000000E+01,1.10000000000000E+01,1.10000000000000E+01,
VCT,,,,,,,,,,,,1.20000000000000E+01,,,,1.20000000000000E+01,,,,,1.20000000000000E+01,,,,,1.20000000000000E+01,,,,,,1.20000000000000E+01,,,1.20000000000000E+01,,,,1.20000000000000E+01,1.20000000000000E+01,1.20000000000000E+01,1.20000000000000E+01,1.20000000000000E+01,1.20000000000000E+01,1.20000000000000E+01,1.20000000000000E+01,1.20000000000000E+01,1.20000000000000E+01,1.20000000000000E+01,1.20000000000000E+01,1.20000000000000E+01,
VEN,,,,,,,,,,,,1.30000000000000E+01,,,,1.30000000000000E+01,,,,1.30000000000000E+01,,,,,,1.30000000000000E+01,,,,,1.20000000000000E+01,1.20000000000000E+01,,,,1.20000000000000E+01,,,1.20000000000000E+01,1.20000000000000E+01,1.20000000000000E+01,1.20000000000000E+01,1.20000000000000E+01,1.20000000000000E+01,1.20000000000000E+01,1.20000000000000E+01,1.20000000000000E+01,1.20000000000000E+01,1.20000000000000E+01,1.20000000000000E+01,1.20000000000000E+01,
VIR,,,,,,,,,,,,,,,,,,,,,,,,,,,,,,,,1.20000000000000E+01,,,,,,,1.20000000000000E+01,1.20000000000000E+01,,,,,,,,,,,,
VNM,,,,,,,,,,,1.10000000000000E+01,,,,,,1.10000000000000E+01,,,,1.10000000000000E+01,,,,,,1.10000000000000E+01,,,,1.10000000000000E+01,1.10000000000000E+01,,,,1.10000000000000E+01,,,1.10000000000000E+01,1.10000000000000E+01,1.10000000000000E+01,1.10000000000000E+01,1.10000000000000E+01,1.10000000000000E+01,1.10000000000000E+01,1.10000000000000E+01,1.10000000000000E+01,1.10000000000000E+01,1.10000000000000E+01,1.10000000000000E+01,1.10000000000000E+01,
VUT,,,,,,,,,,,1.20000000000000E+01,,,,,1.20000000000000E+01,,,,,1.20000000000000E+01,,,1.20000000000000E+01,,,,,,,1.20000000000000E+01,1.20000000000000E+01,,,,1.20000000000000E+01,,,1.20000000000000E+01,1.20000000000000E+01,1.20000000000000E+01,1.20000000000000E+01,1.20000000000000E+01,1.20000000000000E+01,1.20000000000000E+01,1.20000000000000E+01,1.20000000000000E+01,1.20000000000000E+01,1.20000000000000E+01,1.20000000000000E+01,1.20000000000000E+01,
WBG,,,,,,,,,,,,,,,,,,,,,,,,,,,,,,,,1.20000000000000E+01,,,,1.00000000000000E+01,,,,1.00000000000000E+01,1.00000000000000E+01,1.00000000000000E+01,1.00000000000000E+01,1.00000000000000E+01,1.00000000000000E+01,1.00000000000000E+01,1.00000000000000E+01,1.00000000000000E+01,1.00000000000000E+01,1.00000000000000E+01,1.00000000000000E+01,
WSM,,,,,,,,,,,1.20000000000000E+01,,,,,1.20000000000000E+01,,,,,1.20000000000000E+01,,,,,,1.20000000000000E+01,,,,1.20000000000000E+01,1.20000000000000E+01,,,,1.30000000000000E+01,,,1.10000000000000E+01,1.10000000000000E+01,1.10000000000000E+01,1.10000000000000E+01,1.10000000000000E+01,1.10000000000000E+01,1.10000000000000E+01,1.10000000000000E+01,1.10000000000000E+01,1.10000000000000E+01,1.10000000000000E+01,1.10000000000000E+01,1.10000000000000E+01,
YEM,,,,,,,,,,,,,,,,,,,,,,,,,,,,,,,,1.20000000000000E+01,,,,,,,,1.20000000000000E+01,1.20000000000000E+01,1.20000000000000E+01,1.20000000000000E+01,1.20000000000000E+01,1.20000000000000E+01,1.20000000000000E+01,1.20000000000000E+01,1.20000000000000E+01,1.20000000000000E+01,1.20000000000000E+01,1.20000000000000E+01,
ZAF,,,,,,,,,,,,,1.30000000000000E+01,,,,1.30000000000000E+01,,,1.30000000000000E+01,,,,,,,1.30000000000000E+01,,,,1.30000000000000E+01,1.30000000000000E+01,,,,1.30000000000000E+01,,,1.40000000000000E+01,1.40000000000000E+01,1.40000000000000E+01,1.40000000000000E+01,1.40000000000000E+01,1.40000000000000E+01,1.40000000000000E+01,1.40000000000000E+01,1.40000000000000E+01,1.40000000000000E+01,1.40000000000000E+01,1.40000000000000E+01,1.40000000000000E+01,
ZAR,,,,,,,,,,,,1.20000000000000E+01,,,,1.20000000000000E+01,,,,,1.20000000000000E+01,,,,,1.20000000000000E+01,,,,,1.20000000000000E+01,1.20000000000000E+01,,,,1.20000000000000E+01,,,1.20000000000000E+01,1.20000000000000E+01,1.20000000000000E+01,1.20000000000000E+01,1.20000000000000E+01,1.20000000000000E+01,1.20000000000000E+01,1.20000000000000E+01,1.20000000000000E+01,1.20000000000000E+01,1.20000000000000E+01,1.20000000000000E+01,1.20000000000000E+01,
ZMB,,,,,,,,,,,1.40000000000000E+01,,,,,1.40000000000000E+01,,,,,1.40000000000000E+01,,,,,1.40000000000000E+01,,,,,1.40000000000000E+01,1.40000000000000E+01,,,,1.40000000000000E+01,,,1.40000000000000E+01,1.40000000000000E+01,1.40000000000000E+01,1.40000000000000E+01,1.40000000000000E+01,1.40000000000000E+01,1.40000000000000E+01,1.40000000000000E+01,1.40000000000000E+01,1.40000000000000E+01,1.40000000000000E+01,1.40000000000000E+01,1.40000000000000E+01,
ZWE,,,,,,,,,,,1.40000000000000E+01,,,,,1.40000000000000E+01,,,,,1.40000000000000E+01,,,,,1.40000000000000E+01,,,,,1.40000000000000E+01,,,,,1.30000000000000E+01,,,1.30000000000000E+01,1.30000000000000E+01,1.30000000000000E+01,1.30000000000000E+01,1.30000000000000E+01,1.30000000000000E+01,1.30000000000000E+01,1.30000000000000E+01,1.30000000000000E+01,1.30000000000000E+01,1.30000000000000E+01,1.30000000000000E+01,1.30000000000000E+01,
