"Country Code",1960,1961,1962,1963,1964,1965,1966,1967,1968,1969,1970,1971,1972,1973,1974,1975,1976,1977,1978,1979,1980,1981,1982,1983,1984,1985,1986,1987,1988,1989,1990,1991,1992,1993,1994,1995,1996,1997,1998,1999,2000,2001,2002,2003,2004,2005,2006,2007,2008,2009,2010,2011ABW,,,,,,,,,,,,,,,,,,,,,,,,,,,,,,,,,,,,,,,,3.34222200000000E+01,3.31203400000000E+01,3.67100400000000E+01,3.73956600000000E+01,3.83043100000000E+01,3.97248500000000E+01,3.82978700000000E+01,3.75000000000000E+01,3.88375200000000E+01,3.65455900000000E+01,3.57027500000000E+01,3.68651500000000E+01,
ADO,,,,,,,,,,,,,,,,,,,,,,,,,,,,,,,,,,,,,0.00000000000000E+00,0.00000000000000E+00,,,,,4.51162800000000E+01,4.61187200000000E+01,4.81982000000000E+01,4.93506500000000E+01,4.95935000000000E+01,5.02040800000000E+01,5.15267200000000E+01,5.41666700000000E+01,4.98637600000000E+01,
AFG,,,,,,,,,,,,,,,,,,,,,,,,,,,,,,,,,,,,,,,,,,,,,4.12297000000000E+00,1.00654800000000E+01,,1.10945900000000E+01,7.99712000000000E+00,3.21342100000000E+01,6.18115000000000E+00,
AGO,,,,,,,,,,,,,,,,,,,,,,,,,,,,,,,,,,,,,,,3.04867595976000E+01,2.73592700000000E+01,3.92670100000000E+01,3.89508800000000E+01,4.16600100000000E+01,,,,,,3.63591700000000E+01,3.69276400000000E+01,3.92608000000000E+01,
ALB,,,,,,,,,,,,,,,,,,,,,,,,,,,,,,,3.89356881426829E+01,3.90267407216685E+01,,,3.58373156392891E+01,3.08673716891433E+01,3.10527453523563E+01,,,2.96636500000000E+01,3.09289000000000E+01,3.03964800000000E+01,3.13814500000000E+01,4.89267200000000E+01,3.35927400000000E+01,,,,3.54546100000000E+01,3.50955800000000E+01,3.09507100000000E+01,
ARB,,,,,,,,,,,,,,,,,,,,,,,,,,,,,,,,,,,,,,,,,,4.48413850491795E+01,,4.41923496172726E+01,4.28196018322883E+01,,,,,,,
ARE,,,,,,,,,,,,,,,,,,,,,,,,,,,,,,,0.00000000000000E+00,0.00000000000000E+00,0.00000000000000E+00,0.00000000000000E+00,0.00000000000000E+00,,0.00000000000000E+00,,,,,,,,,,,,,,,
ARG,,,,,,,,,,,,,,,,,,,,,,,,,,,,,,,,,,,4.32710962375778E+01,4.32702661129057E+01,4.46509149230140E+01,,4.30396425629441E+01,4.69923000000000E+01,4.84065900000000E+01,4.99215300000000E+01,5.18824000000000E+01,5.22453400000000E+01,5.31092300000000E+01,5.35597400000000E+01,5.41181000000000E+01,5.46603500000000E+01,5.48557100000000E+01,,,
ARM,,,,,,,,,,,,,,,,,,,,,,,,,,,,,,,,,,,,,,,,,,,,2.16216200000000E+01,3.04865900000000E+01,3.10412600000000E+01,2.84499700000000E+01,3.32229600000000E+01,3.81464800000000E+01,2.44628500000000E+01,2.46707000000000E+01,
ATG,,,,,,,,,,,,,,,,,,,,,,,,,,,,,,,,,,,,,0.00000000000000E+00,0.00000000000000E+00,,,3.32857100000000E+01,,,,,,,,3.59922200000000E+01,3.46869700000000E+01,4.80672300000000E+01,
AUS,,,,,,,,,,,,,,,,,,,,,,,,,,,,,,,,,,4.77487558526458E+01,4.69524459351332E+01,4.70984489684245E+01,4.73535357225490E+01,4.93686879490273E+01,4.94130762612292E+01,4.72412900000000E+01,4.74514700000000E+01,4.63983800000000E+01,4.55525900000000E+01,4.57578200000000E+01,4.46918200000000E+01,4.40459100000000E+01,4.35586600000000E+01,4.40625600000000E+01,4.37776500000000E+01,4.29654300000000E+01,,
AUT,,,,,,,,,,,,,,,,,,,,,,,,,,,,,,,4.37525100241600E+01,4.37781570739639E+01,4.35165544590980E+01,4.35482469624264E+01,4.34993561055650E+01,4.32474888047079E+01,4.35143582405193E+01,4.36359825955052E+01,,4.30843800000000E+01,4.34747600000000E+01,4.38439100000000E+01,4.33420500000000E+01,4.31439200000000E+01,4.33295300000000E+01,4.37313300000000E+01,4.42079700000000E+01,4.40933300000000E+01,4.38488400000000E+01,4.36955200000000E+01,,
AZE,,,,,,,,,,,,,,,,,,,,,,,,,,,,,,,3.34102968274760E+01,3.15992636142289E+01,3.15004717174618E+01,3.49995506829619E+01,3.45012715456344E+01,3.14018691588785E+01,2.50916980937129E+01,3.27008734887488E+01,3.26989547328530E+01,3.49003300000000E+01,3.53983100000000E+01,3.66980500000000E+01,3.16989700000000E+01,3.35999600000000E+01,3.05084700000000E+01,3.03921600000000E+01,2.90002900000000E+01,2.77458300000000E+01,,,,
BDI,,,,,,,,,,,,,,,,,,,,,,,,,,,,,,,3.55135230687644E+01,3.19383259911894E+01,3.52607709750567E+01,3.92305450306033E+01,,,,,,,,,,4.36062000000000E+01,4.86801000000000E+01,4.86857600000000E+01,4.89842200000000E+01,4.42676200000000E+01,4.42676200000000E+01,3.75616100000000E+01,3.60297400000000E+01,
BEL,,,,,,,,,,,,,,,,,,,,,,,,,,,,,,,4.72347205443652E+01,4.71871068240368E+01,4.71841276978417E+01,5.05688351813088E+01,5.04710644656122E+01,5.09935891775428E+01,5.07079454731733E+01,,,,,,,,4.31767200000000E+01,4.31446800000000E+01,4.33085400000000E+01,4.35476900000000E+01,4.38682500000000E+01,4.39776800000000E+01,,
BEN,,,,,,,,,,,,,,,,,,,,,,,,,,,,,,,3.99166666666667E+01,,3.99166666666667E+01,4.06153846153847E+01,4.06153846153847E+01,4.07142857142857E+01,4.06666666666667E+01,4.06666666666667E+01,,3.77491300000000E+01,3.71724900000000E+01,3.68099500000000E+01,3.30991700000000E+01,2.47653000000000E+01,4.18651300000000E+01,4.34542000000000E+01,,,,,,
BFA,,,,,,,,,,,,,,,,,,,,,,,,,,,,,,,4.78645752446032E+01,4.94308231173380E+01,4.50012465719273E+01,4.79890201694713E+01,4.92166212534061E+01,4.89130434782609E+01,4.89583333333333E+01,4.90000000000001E+01,,5.26813600000000E+01,5.51224700000000E+01,5.07530500000000E+01,5.07560100000000E+01,5.01927100000000E+01,4.96564600000000E+01,4.92154100000000E+01,4.94913500000000E+01,4.94079800000000E+01,4.85591600000000E+01,4.85914100000000E+01,4.74529400000000E+01,
BGD,,,,,,,,,,,,,,,,,,,,,,,,,,,,,,,7.63832344616339E+00,,9.25925925925926E+00,9.25000000000000E+00,9.48275862068965E+00,9.51500000000000E+01,9.51659684176603E+01,,2.34168138225739E+01,2.38290600000000E+01,2.47572700000000E+01,2.52331400000000E+01,2.55921800000000E+01,2.64553800000000E+01,2.70964000000000E+01,2.97032100000000E+01,2.92442200000000E+01,3.00552500000000E+01,3.00555100000000E+01,2.98691600000000E+01,,
BGR,,,,,,,,,,,,,,,,,,,,,,,,,,,,,,,3.84999081695691E+01,3.91627977075109E+01,3.84146654790860E+01,3.75940968729845E+01,3.76575851539754E+01,3.75459625896300E+01,3.74285754463595E+01,3.78288231592196E+01,,3.70980400000000E+01,3.72911200000000E+01,3.83023100000000E+01,3.89271200000000E+01,3.87891500000000E+01,3.82462300000000E+01,3.80766200000000E+01,3.81739700000000E+01,3.81499700000000E+01,3.86753300000000E+01,3.89162600000000E+01,,
BHR,,,,,,,,,,,,,,,,,,,,,,,,,,,,,,,2.72457891453525E+01,2.59515015256143E+01,2.56934306569343E+01,2.48709526044111E+01,2.55017709563164E+01,2.48558976521862E+01,2.75444264943457E+01,3.11513654453136E+01,,3.46808500000000E+01,3.78586200000000E+01,4.02914300000000E+01,4.05413600000000E+01,4.05414500000000E+01,3.85705900000000E+01,3.86580300000000E+01,3.92302600000000E+01,,3.56652000000000E+01,2.66216800000000E+01,1.26039900000000E+01,
BIH,,,,,,,,,,,,,,,,,,,,,,,,,,,,,,,,,,,,,,,,,,,,,,,,4.52949500000000E+01,4.49628800000000E+01,4.49110500000000E+01,4.49279900000000E+01,
BLR,,,,,,,,,,,,,,,,,,,,,,,,,,,,,,,5.00000000000000E+01,,,,,,5.00000000000000E+01,5.00000000000000E+01,2.76315789473684E+01,3.96640400000000E+01,3.70810300000000E+01,4.00279700000000E+01,3.33333300000000E+01,3.43802700000000E+01,3.34988100000000E+01,3.17910400000000E+01,2.69442500000000E+01,3.07196800000000E+01,2.99980000000000E+01,,4.59954200000000E+01,
BLZ,,,,,,,,,,,,,,,,,,,,,,,,,,,,,,,,3.80952380952381E+00,,,1.26582278481013E+01,2.24000000000000E+01,,,,,,5.04149400000000E+01,5.03274100000000E+01,,,4.33082300000000E+01,3.99630500000000E+01,4.96519700000000E+01,5.04188900000000E+01,4.82522800000000E+01,5.01512900000000E+01,
BMU,,,,,,,,,,,,,,,,,,,,,,,,,,,,,,,3.77192982456140E+01,3.77586206896552E+01,3.77966101694915E+01,3.80000000000000E+01,3.78688524590164E+01,3.78688524590164E+01,,3.84615384615385E+01,,,,,,,,,,,,,,
BOL,,,,,,,,,,,,,,,,,,,,,,,,,,,,,,,,,,,,,,,5.79639982325706E+01,5.94129200000000E+01,5.89227200000000E+01,6.53439400000000E+01,6.58581100000000E+01,6.50826600000000E+01,,,,,,,,
BRA,,,,,,,,,,,,,,,,,,,,,,,,,,,,,,,,,,,,,,,,6.07618000000000E+01,6.48885800000000E+01,5.45848900000000E+01,5.41628600000000E+01,7.30436300000000E+01,4.74604500000000E+01,5.03151200000000E+01,,5.76426600000000E+01,5.73376600000000E+01,5.71536700000000E+01,,
BRB,,,,,,,,,,,,,,,,,,,,,,,,,,,,,,,,2.48447204968944E+01,,,,,,,,,,2.36842100000000E+01,2.81818200000000E+01,2.29357800000000E+01,1.41025600000000E+01,3.83561600000000E+01,,,,,,
BRN,,,,,,,,,,,,,,,,,,,,,,,,,,,,,,,,3.56902356902357E+01,3.64636830520910E+01,3.97991211550534E+01,4.01823708206687E+01,3.75615763546798E+01,4.18488160291439E+01,,4.05389572349151E+01,3.96103900000000E+01,3.61439300000000E+01,3.60167500000000E+01,3.64386200000000E+01,3.93154900000000E+01,3.99387900000000E+01,4.06644500000000E+01,3.97385200000000E+01,3.74303400000000E+01,3.75466800000000E+01,3.87638900000000E+01,,
BTN,,,,,,,,,,,,,,,,,,,,,,,,,,,,,,,,,4.79166666666667E+00,4.79166666666667E+00,4.79166666666667E+00,4.79166666666667E+00,4.79166666666667E+00,,,,,3.76126100000000E+01,3.87715900000000E+01,,,3.36507900000000E+01,3.64130400000000E+01,,,,,
BWA,,,,,,,,,,,,,,,,,,,,,,,,,,,,,,,2.72054638588503E+01,3.56760613628256E+01,3.75661375661376E+01,3.34501347708895E+01,3.52308819936477E+01,3.42593925435440E+01,3.42857142857143E+01,,3.73578830868297E+01,3.57061100000000E+01,3.71566600000000E+01,3.83679500000000E+01,3.81179900000000E+01,3.81837800000000E+01,3.81233800000000E+01,3.81180600000000E+01,3.78406300000000E+01,3.54550300000000E+01,,,,
CAF,,,,,,,,,,,,,,,,,,,,,,,,,,,,,,,4.17757541263518E+01,4.76906552094522E+01,3.91333784698714E+01,3.93333333333333E+01,3.93750000000000E+01,3.94117647058824E+01,3.94444444444445E+01,3.94736842105263E+01,,,,,,,,,,,,3.70752300000000E+01,3.39553800000000E+01,
CAN,,,,,,,,,,,,,,,,,,,,,,,,,,,,,,,,,,,,,,,0.00000000000000E+00,,,,,,,,,,,,,
CHE,,,,,,,,,,,,,,,,,,,,,,,,,,,,,,,4.19667045449635E+01,4.19263596889558E+01,4.15696885107681E+01,3.90156363029325E+01,3.83200508035311E+01,,3.75825757839620E+01,,,3.94424400000000E+01,3.92714300000000E+01,4.01341100000000E+01,3.99215500000000E+01,3.99877900000000E+01,3.95327800000000E+01,3.97780200000000E+01,3.95463300000000E+01,4.02040300000000E+01,4.07375000000000E+01,4.11911000000000E+01,,
CHL,,,,,,,,,,,,,,,,,,,,,,,,,,,,,,,4.77388056195085E+01,4.77310207454973E+01,4.71990370092778E+01,4.74502406660597E+01,4.65544357311364E+01,4.80443088425277E+01,4.70904182784627E+01,,4.74793316921497E+01,4.73612000000000E+01,4.69912000000000E+01,,4.69305300000000E+01,4.59610400000000E+01,4.60264600000000E+01,4.61917200000000E+01,4.67566100000000E+01,4.70149500000000E+01,4.73128200000000E+01,4.76358600000000E+01,,
CHN,,,,,,,,,,,,,,,,,,,,,,,,,,,,,,,3.59475365127211E+01,3.67671448356046E+01,3.72739602169982E+01,3.79118101807802E+01,4.39408204438467E+01,4.53612771182187E+01,4.58807111874145E+01,4.41219885589720E+01,,,,,,4.81034500000000E+01,,,5.10576900000000E+01,5.04637400000000E+01,5.01695500000000E+01,5.00368800000000E+01,,
CIV,,,,,,,,,,,,,,,,,,,,,,,,,,,,,,,,,,,,,,,,4.98618600000000E+01,,,,,,,,,,,,
CMR,,,,,,,,,,,,,,,,,,,,,,,,,,,,,,,4.04450716213643E+01,4.15004220909051E+01,4.35503853870865E+01,4.14847161572052E+01,4.08981110724234E+01,4.14009099101079E+01,,3.95982225513794E+01,,3.99035400000000E+01,3.81540900000000E+01,3.78456700000000E+01,,4.00002600000000E+01,4.00002900000000E+01,4.00000000000000E+01,3.91216700000000E+01,,3.86125800000000E+01,3.74974900000000E+01,,
COG,,,,,,,,,,,,,,,,,,,,,,,,,,,,,,,5.51441932969603E+01,4.65466688385731E+01,4.66479775730877E+01,3.74875000000000E+01,3.72758412250655E+01,,4.41943551268310E+01,4.41935483870968E+01,,,,,5.24765200000000E+01,5.30068500000000E+01,5.13729500000000E+01,,,,,,,
COL,,,,,,,,,,,,,,,,,,,,,,,,,,,,,,,,5.90457505590082E+01,6.04544156652825E+01,,,,5.42383481937787E+01,,5.38208745518512E+01,4.88631800000000E+01,5.15221200000000E+01,5.28217100000000E+01,5.48782500000000E+01,,5.52488900000000E+01,5.43330700000000E+01,5.40676700000000E+01,5.45863300000000E+01,5.36031100000000E+01,5.42478900000000E+01,5.42805700000000E+01,
COM,,,,,,,,,,,,,,,,,,,,,,,,,,,,,,,2.65000000000000E+01,,2.94117647058824E+01,2.50000000000000E+01,2.77777777777778E+01,2.76923076923077E+01,2.78571428571429E+01,2.66666666666667E+01,,2.45283000000000E+01,2.41379300000000E+01,1.22449000000000E+01,4.02654900000000E+01,1.01449300000000E+01,6.54762000000000E+00,6.54762000000000E+00,,,,,,
CPV,,,,,,,,,,,,,,,,,,,,,,,,,,,,,,,3.62244897959184E+01,,3.61183637946040E+01,,4.28571428571429E+01,,,,,,,,,,,,,,,,4.84951700000000E+01,
CRI,,,,,,,,,,,,,,,,,,,,,,,,,,,,,,,4.80722974366023E+01,4.82702929681192E+01,4.82020394776075E+01,4.90022733013387E+01,4.84361012397255E+01,4.88275415712436E+01,4.91112277806946E+01,5.02450585609426E+01,4.98265453234817E+01,4.98185700000000E+01,5.00736300000000E+01,4.89697800000000E+01,4.98206600000000E+01,4.97904700000000E+01,5.04300400000000E+01,5.08795000000000E+01,5.02694400000000E+01,5.05153400000000E+01,5.07136500000000E+01,5.07326100000000E+01,5.03166600000000E+01,
CUB,,,,,,,,,,,,,,,,,,,,,,,,,,,,,,,4.65707581644036E+01,4.71925698489420E+01,4.80273203184644E+01,4.72162537917088E+01,4.64695109020455E+01,4.77954661515575E+01,4.38984452462551E+01,4.74779770999567E+01,4.06453327855879E+01,4.09023800000000E+01,3.99844800000000E+01,4.18392100000000E+01,3.79471600000000E+01,3.91804100000000E+01,4.28144000000000E+01,4.39656500000000E+01,4.43940500000000E+01,4.24665300000000E+01,4.10139000000000E+01,4.01641600000000E+01,3.80017300000000E+01,
CYP,,,,,,,,,,,,,,,,,,,,,,,,,,,,,,,2.71658986175115E+01,1.72277227722772E+01,2.73909006499536E+01,2.74468085106383E+01,2.67937880872814E+01,2.77777777777778E+01,2.75862068965518E+01,2.83333333333334E+01,,1.59821600000000E+01,1.57103800000000E+01,1.62552800000000E+01,1.70396300000000E+01,1.75108900000000E+01,1.77041400000000E+01,1.74791100000000E+01,1.68448000000000E+01,1.54376800000000E+01,1.50789700000000E+01,1.60009700000000E+01,,
CZE,,,,,,,,,,,,,,,,,,,,,,,,,,,,,,,4.01817576341556E+01,,4.70055931470716E+01,5.00692982300938E+01,4.70870039925699E+01,4.78926727324479E+01,4.82873762298951E+01,4.86774098850657E+01,,4.88381100000000E+01,4.69515100000000E+01,4.74098400000000E+01,4.71002300000000E+01,4.68133300000000E+01,4.62685700000000E+01,4.64329500000000E+01,4.64919000000000E+01,4.61375400000000E+01,4.57973100000000E+01,4.54451500000000E+01,,
DEU,,,,,,,,,,,,,,,,,,,,,,,,,,,,,,,,4.48638052477977E+01,4.41260651663268E+01,4.36278893362051E+01,4.38283055236872E+01,4.36926409721811E+01,4.38063170000844E+01,4.41420577341180E+01,,4.31203700000000E+01,4.29180400000000E+01,4.29600500000000E+01,4.29665900000000E+01,4.25373100000000E+01,4.22763300000000E+01,4.25816500000000E+01,4.20767200000000E+01,4.20356100000000E+01,4.18529200000000E+01,3.83942900000000E+01,,
DJI,,,,,,,,,,,,,,,,,,,,,,,,,,,,,,,6.16649537512847E+01,,6.15170105967652E+01,6.58899676375405E+01,6.32478632478633E+01,5.78668238067177E+01,5.91533180778032E+01,5.85008147745790E+01,,5.77707300000000E+01,4.17874400000000E+01,3.73437500000000E+01,3.82861100000000E+01,4.48914800000000E+01,4.90154100000000E+01,4.61008200000000E+01,3.72039300000000E+01,5.03320700000000E+01,3.88336300000000E+01,3.95868200000000E+01,,
DMA,,,,,,,,,,,,,,,,,,,,,,,,,,,,,,,5.76158940397351E+01,5.73770491803278E+01,5.77922077922078E+01,5.76923076923077E+01,5.75000000000000E+01,5.76470588235294E+01,5.77777777777778E+01,5.78947368421052E+01,,5.49963000000000E+01,3.30088500000000E+01,3.27063700000000E+01,3.52941200000000E+01,6.08374400000000E+01,6.19926200000000E+01,6.78294600000000E+01,6.73170700000000E+01,7.27611900000000E+01,4.55782300000000E+01,6.73611100000000E+01,5.78378400000000E+01,
DNK,,,,,,,,,,,,,,,,,,,,,,,,,,,,,,,4.51784992412043E+01,4.43659637229630E+01,4.47585685830071E+01,4.40692364872040E+01,4.41113082113430E+01,4.44650015417823E+01,4.43416708313193E+01,,,4.65839500000000E+01,4.60418100000000E+01,4.57588000000000E+01,4.53222300000000E+01,4.55467400000000E+01,4.52060500000000E+01,4.42576100000000E+01,4.41639600000000E+01,4.40743000000000E+01,4.36981900000000E+01,4.35075100000000E+01,,
DOM,,,,,,,,,,,,,,,,,,,,,,,,,,,,,,,,,,,6.39905061658326E+01,5.74617495233224E+01,,,,5.81445200000000E+01,5.83489200000000E+01,5.50213100000000E+01,5.50324800000000E+01,5.50316500000000E+01,5.90888800000000E+01,5.99535000000000E+01,6.05651300000000E+01,5.97066800000000E+01,6.06840300000000E+01,6.20794600000000E+01,6.17967500000000E+01,
DZA,,,,,,,,,,,,,,,,,,,,,,,,,,,,,,,3.10185129130293E+01,3.11189358372457E+01,3.18427492840406E+01,2.81005560632580E+01,3.41679389312978E+01,3.44025502913048E+01,3.46287427586862E+01,3.60140214667498E+01,,,,,4.03230600000000E+01,4.01743800000000E+01,3.89966700000000E+01,3.89966600000000E+01,,,,3.51553900000000E+01,,
EAP,,,,,,,,,,,,,,,,,,,,,,,,,,,,,,,,,,,,,,,,,,,,4.70755107358911E+01,,,4.97506301757146E+01,4.93008397012140E+01,4.90315770970654E+01,4.86479647853183E+01,,
EAS,,,,,,,,,,,,,,,,,,,,,,,,,,,,,,,,,,,,,,,,,,,,4.68223594127113E+01,,,4.90449785217410E+01,4.87357627865924E+01,4.85210385187876E+01,4.82152979152837E+01,,
ECA,,,,,,,,,,,,,,,,,,,,,,,,,,,,,,,,,,,,,,,,,,,,3.66825914164786E+01,3.75055514099484E+01,3.96640320046716E+01,3.98716835519572E+01,4.05759632968396E+01,4.12067542112773E+01,4.20356506717326E+01,,
ECS,,,,,,,,,,,,,,,,,,,,,,,,,,,,,,,,,,,,,,,,4.28587048844435E+01,4.27701999959015E+01,4.28917031050237E+01,4.26327191678019E+01,4.17950669608483E+01,4.16906354093101E+01,4.22764198097180E+01,4.18071068423604E+01,4.19934169705329E+01,4.21482136281874E+01,4.20752819067542E+01,,
ECU,,,,,,,,,,,,,,,,,,,,,,,,,,,,,,,,,,5.45694851874537E+01,5.85657370517929E+01,5.86956521739131E+01,5.85714285714286E+01,,5.79124457308249E+01,5.76086800000000E+01,5.56150300000000E+01,5.48194600000000E+01,5.33022600000000E+01,5.30433100000000E+01,5.19016300000000E+01,5.17224400000000E+01,5.14365700000000E+01,5.11807800000000E+01,,5.18172700000000E+01,,
EGY,,,,,,,,,,,,,,,,,,,,,,,,,,,,,,,4.15242918622972E+01,4.25528597420088E+01,4.31552787646012E+01,4.49271942509395E+01,4.54669294687082E+01,4.50329717508231E+01,4.39696043897988E+01,4.41460952699735E+01,,,,4.48930100000000E+01,,4.49832200000000E+01,4.44736200000000E+01,,,,,4.38708900000000E+01,,
EMU,,,,,,,,,,,,,,,,,,,,,,,,,,,,,,,,,,,,,,,,4.38319237522762E+01,4.46324032916012E+01,4.47703272956614E+01,4.46341096213407E+01,4.46050752761712E+01,4.31534806737472E+01,4.32321509841446E+01,4.26749322586596E+01,4.26700304316485E+01,4.27016039013819E+01,4.19068427460887E+01,,
ERI,,,,,,,,,,,,,,,,,,,,,,,,,,,,,,,1.45408163265306E+01,1.20120120120120E+01,1.27083333333333E+01,1.08007448789572E+01,1.01867572156197E+01,1.08669108669109E+01,,1.35014836795252E+01,,1.63289600000000E+01,1.96682500000000E+01,2.19390900000000E+01,2.11097700000000E+01,2.26197000000000E+01,2.84006800000000E+01,3.62124500000000E+01,4.27669900000000E+01,4.60349500000000E+01,4.33109300000000E+01,,4.53220900000000E+01,
ESP,,,,,,,,,,,,,,,,,,,,,,,,,,,,,,,4.84687625242779E+01,4.91788667326211E+01,5.12448669853328E+01,5.15348327040909E+01,5.15126914630541E+01,5.18599770677949E+01,5.24807609286490E+01,4.99168240588755E+01,,5.22083300000000E+01,5.12816800000000E+01,4.98324800000000E+01,4.98700600000000E+01,4.75933500000000E+01,4.80255000000000E+01,4.93460100000000E+01,4.95410800000000E+01,5.01830800000000E+01,4.92064300000000E+01,4.76227000000000E+01,,
EST,,,,,,,,,,,,,,,,,,,,,,,,,,,,,,,,,4.33543436557961E+01,4.26119715362076E+01,4.87743488728387E+01,4.71541733900543E+01,4.36929460580913E+01,,,3.53990300000000E+01,3.51702400000000E+01,3.38602200000000E+01,3.33774500000000E+01,3.36738400000000E+01,3.33410000000000E+01,3.34360200000000E+01,3.37140400000000E+01,3.36202000000000E+01,3.40973300000000E+01,3.44838700000000E+01,,
ETH,,,,,,,,,,,,,,,,,,,,,,,,,,,,,,,,1.73588288019121E+01,1.99700822737472E+01,1.81151023561221E+01,1.62380038387716E+01,1.61351556567958E+01,1.73119065010957E+01,1.41928864569083E+01,,2.14878500000000E+01,2.16593400000000E+01,2.34054900000000E+01,4.69745400000000E+01,4.82040400000000E+01,4.74540500000000E+01,5.11548300000000E+01,5.02942000000000E+01,4.38522400000000E+01,4.80384000000000E+01,4.63438600000000E+01,4.42767800000000E+01,
EUU,,,,,,,,,,,,,,,,,,,,,,,,,,,,,,,,,,,,,,,,4.41549016702527E+01,4.45285517657642E+01,4.45947425166936E+01,4.46586480937743E+01,4.46396952377355E+01,4.37981435442703E+01,4.35051532529422E+01,4.28261543754354E+01,4.27370029916119E+01,4.26313755565453E+01,4.20455678417494E+01,,
FIN,,,,,,,,,,,,,,,,,,,,,,,,,,,,,,,5.40100834639665E+01,5.49654630433884E+01,5.52259074274404E+01,5.43788438833543E+01,5.30607163518927E+01,5.17239564537471E+01,5.38467796209057E+01,5.12223391546732E+01,4.87130062590698E+01,4.78764000000000E+01,4.83783200000000E+01,4.93325300000000E+01,4.94978700000000E+01,4.95707300000000E+01,4.60040300000000E+01,4.61955200000000E+01,4.62028800000000E+01,4.62873700000000E+01,4.65447700000000E+01,4.65329000000000E+01,,
FJI,,,,,,,,,,,,,,,,,,,,,,,,,,,,,,,,3.01902536715621E+01,2.58980910867278E+01,,,,,,2.25790265930758E+01,2.85714300000000E+01,4.02122200000000E+01,3.74784100000000E+01,2.85768200000000E+01,3.37645500000000E+01,2.84859200000000E+01,2.84744600000000E+01,3.38724200000000E+01,3.44044700000000E+01,3.12742500000000E+01,3.13364100000000E+01,,
FRA,,,,,,,,,,,,,,,,,,,,,,,,,,,,,,,4.61191212438272E+01,4.60277165359386E+01,4.53367074010119E+01,4.42219721918810E+01,4.21478171597126E+01,4.16162440242639E+01,4.16075161077350E+01,4.22141465776065E+01,,4.40195100000000E+01,4.41924200000000E+01,4.43055700000000E+01,4.42624600000000E+01,4.47222100000000E+01,4.37548600000000E+01,4.37349500000000E+01,4.19524900000000E+01,4.21928400000000E+01,4.23928400000000E+01,4.27282500000000E+01,,
GAB,,,,,,,,,,,,,,,,,,,,,,,,,,,,,,,,,,,,3.99934846345966E+01,3.47654190827623E+01,,,3.44586900000000E+01,3.44519400000000E+01,3.26570800000000E+01,3.37682900000000E+01,,,,,,,,,
GBR,,,,,,,,,,,,,,,,,,,,,,,,,,,,,,,5.38802660753881E+01,5.43089092422981E+01,5.32909090909091E+01,5.62248155771895E+01,5.66496321072380E+01,5.74083080040528E+01,5.74872366667558E+01,5.68030662076991E+01,4.68814751562995E+01,4.89585800000000E+01,4.88191900000000E+01,4.84483400000000E+01,4.87743600000000E+01,5.06914500000000E+01,4.93595800000000E+01,4.92307600000000E+01,4.86554500000000E+01,4.80186300000000E+01,4.84442200000000E+01,4.79245700000000E+01,,
GEO,,,,,,,,,,,,,,,,,,,,,,,,,,,,,,,,3.29991705178339E+01,2.99997252520812E+01,3.00002909260176E+01,3.00017758835020E+01,3.30014150201772E+01,4.37988943360801E+01,4.77619558005410E+01,,3.61380600000000E+01,3.13145200000000E+01,2.79845800000000E+01,2.87866000000000E+01,2.75746600000000E+01,2.72590400000000E+01,3.06482900000000E+01,3.06507900000000E+01,,4.34177200000000E+01,,,
GHA,,,,,,,,,,,,,,,,,,,,,,,,,,,,,,,3.05555555555556E+01,,3.06227300912393E+01,,,,,,,2.20072300000000E+01,8.64846000000000E+00,1.24485500000000E+01,1.24933000000000E+01,1.37430500000000E+01,1.49046700000000E+01,1.39283000000000E+01,4.98951200000000E+01,4.49107200000000E+01,4.63123500000000E+01,3.80239800000000E+01,,
GIB,,,,,,,,,,,,,,,,,,,,,,,,,,,,,,,1.66666666666667E+01,1.66666666666667E+01,1.84615384615385E+01,1.84615384615385E+01,1.84615384615385E+01,2.14285714285714E+01,2.00000000000000E+01,2.12500000000000E+01,,,,,,,,,,,,,,
GIN,,,,,,,,,,,,,,,,,,,,,,,,,,,,,,,2.29236466231705E+01,2.68836869056328E+01,,2.56420233463035E+01,2.52086811352254E+01,,3.52346104175635E+01,,,,,,,1.32749600000000E+01,1.32860500000000E+01,1.37827900000000E+01,1.42344800000000E+01,1.42382000000000E+01,4.32085400000000E+01,4.41666700000000E+01,,
GMB,,,,,,,,,,,,,,,,,,,,,,,,,,,,,,,,3.83333333333334E+01,3.84615384615385E+01,3.92857142857143E+01,4.00000000000000E+01,4.06250000000000E+01,4.00000000000000E+01,4.00000000000000E+01,0.00000000000000E+00,,,,,,,,,,,4.76047700000000E+01,,
GNB,,,,,,,,,,,,,,,,,,,,,,,,,,,,,,,,,,,,,,,,,2.66973500000000E+01,,,,,,,,,,,
GNQ,,,,,,,,,,,,,,,,,,,,,,,,,,,,,,,3.04347826086957E+01,,3.02702702702703E+01,3.02013422818792E+01,3.15508021390374E+01,3.15000000000000E+01,3.16000000000000E+01,3.16666666666667E+01,,4.52153100000000E+01,3.96890300000000E+01,,2.00701800000000E+01,,,,,,,,,
GRC,,,,,,,,,,,,,,,,,,,,,,,,,,,,,,,3.19700469641573E+01,3.27108759605481E+01,3.49115706232802E+01,3.71875046529980E+01,3.43364696479820E+01,3.53291778515856E+01,3.94129728518616E+01,3.96764303919034E+01,4.03018788103134E+01,3.83891400000000E+01,4.31605400000000E+01,4.35490500000000E+01,4.22417500000000E+01,4.13284200000000E+01,3.94635500000000E+01,3.78588000000000E+01,3.67920300000000E+01,3.51973300000000E+01,,,,
GRD,,,,,,,,,,,,,,,,,,,,,,,,,,,,,,,,,,,,,0.00000000000000E+00,,,,,,5.58659200000000E+01,2.93726200000000E+01,4.56349200000000E+01,4.59259300000000E+01,,3.49409400000000E+01,,2.94117600000000E+01,3.24444400000000E+01,
GTM,,,,,,,,,,,,,,,,,,,,,,,,,,,,,,,,,4.78723404255319E+01,4.80000000000000E+01,4.79416775625025E+01,4.78872160288090E+01,4.78857142857143E+01,,4.81235091046479E+01,4.88341300000000E+01,5.07668000000000E+01,5.13631500000000E+01,5.12610200000000E+01,5.14767600000000E+01,5.16621400000000E+01,5.13483200000000E+01,5.14526700000000E+01,5.14703400000000E+01,5.16014700000000E+01,,5.09115000000000E+01,
GUY,,,,,,,,,,,,,,,,,,,,,,,,,,,,,,,,0.00000000000000E+00,0.00000000000000E+00,0.00000000000000E+00,0.00000000000000E+00,0.00000000000000E+00,0.00000000000000E+00,,,3.77533000000000E+01,3.47985800000000E+01,4.58937200000000E+01,4.53186300000000E+01,5.19413100000000E+01,4.50490800000000E+01,4.49794500000000E+01,,3.06108100000000E+01,4.27385900000000E+01,4.68171600000000E+01,4.33912900000000E+01,
HKG,,,,,,,,,,,,,,,,,,,,,,,,,,,,,,,3.15217391304348E+01,3.14893617021277E+01,3.14895833333334E+01,3.14895833333334E+01,3.14895833333334E+01,3.22448979591837E+01,3.20283423990839E+01,3.20000000000000E+01,,,,1.04460600000000E+01,9.37409000000000E+00,1.07665700000000E+01,1.23103200000000E+01,1.47937000000000E+01,1.54309100000000E+01,1.50377900000000E+01,1.00466600000000E+01,9.50570000000000E+00,1.14260200000000E+01,
HND,,,,,,,,,,,,,,,,,,,,,,,,,,,,,,,5.62286689419796E+01,5.62203326161937E+01,5.62286689419796E+01,5.58451228592703E+01,5.58818593723780E+01,5.58333333333334E+01,5.58347107438017E+01,,,,,,,,,,,5.63069400000000E+01,5.62903000000000E+01,5.55882000000000E+01,,
HPC,,,,,,,,,,,,,,,,,,,,,,,,,,,,,,,,,,,,,,,,3.61702413889837E+01,,,,,,,,,4.11766906893876E+01,,,
HRV,,,,,,,,,,,,,,,,,,,,,,,,,,,,,,,,,,4.73385639144062E+01,4.60680802869188E+01,4.61868471901307E+01,4.61705962844062E+01,4.59243659478805E+01,,4.59540100000000E+01,4.59811900000000E+01,4.59366100000000E+01,4.58995500000000E+01,4.59562900000000E+01,,4.70094100000000E+01,4.67271000000000E+01,4.65555900000000E+01,4.64977600000000E+01,4.65362500000000E+01,,
HTI,,,,,,,,,,,,,,,,,,,,,,,,,,,,,,,,,3.05555555555556E+01,3.05555555555556E+01,3.05555555555556E+01,3.05555555555556E+01,3.05555555555556E+01,3.05555555555556E+01,,,,,,,,,,,,,,
HUN,,,,,,,,,,,,,,,,,,,,,,,,,,,,,,,4.27323452580035E+01,4.27317623964428E+01,4.27377976250479E+01,,4.57358335087397E+01,4.60425216495219E+01,4.60038559177010E+01,4.64860183428288E+01,3.66587112171838E+01,3.94102900000000E+01,3.49757000000000E+01,3.72896900000000E+01,3.95733900000000E+01,3.85749800000000E+01,3.81890900000000E+01,3.84836200000000E+01,3.84837100000000E+01,3.87353400000000E+01,3.74679300000000E+01,3.75368000000000E+01,,
IDN,,,,,,,,,,,,,,,,,,,,,,,,,,,,,,,4.24988695748860E+01,3.85994582735598E+01,3.92576773822981E+01,3.97482186634716E+01,3.99490862805710E+01,4.24466799894708E+01,4.26241232705611E+01,,,,4.26763200000000E+01,,4.29869500000000E+01,4.32063700000000E+01,4.33063800000000E+01,4.24147000000000E+01,4.19415200000000E+01,4.14525400000000E+01,4.12841800000000E+01,4.10681100000000E+01,,
IND,,,,,,,,,,,,,,,,,,,,,,,,,,,,,,,2.65384615384616E+01,,1.71393341553637E+01,1.27299838192007E+01,1.30728829917822E+01,1.39861044573847E+01,1.54846979256155E+01,1.54554112688922E+01,2.75080567240797E+01,2.00800300000000E+01,2.04151000000000E+01,1.66231800000000E+01,1.74373400000000E+01,1.51650700000000E+01,1.51650200000000E+01,1.51650900000000E+01,,2.50000300000000E+01,2.49999700000000E+01,,,
IRL,,,,,,,,,,,,,,,,,,,,,,,,,,,,,,,6.38261162311156E+01,6.39838129496404E+01,6.20064251148794E+01,4.81787340416034E+01,4.92099047990066E+01,5.05797216279745E+01,5.35262898725174E+01,5.51977385472383E+01,,,,,,,5.47194800000000E+01,5.48611900000000E+01,5.38672800000000E+01,5.39653500000000E+01,5.39155700000000E+01,5.40417700000000E+01,,
IRN,,,,,,,,,,,,,,,,,,,,,,,,,,,,,,,1.96529938708157E+01,1.96939072680724E+01,2.01300196487781E+01,2.06113393473278E+01,2.41429846923791E+01,2.42230726669126E+01,,,,3.55729400000000E+01,3.76090600000000E+01,3.68875200000000E+01,3.66773100000000E+01,3.76365900000000E+01,3.73928700000000E+01,3.78314300000000E+01,3.77459700000000E+01,3.69455600000000E+01,3.52952100000000E+01,3.03567400000000E+01,,
IRQ,,,,,,,,,,,,,,,,,,,,,,,,,,,,,,,,,,2.58581920600447E+01,,,1.75926764247271E+01,,,1.33728000000000E+01,1.74499400000000E+01,2.02582900000000E+01,2.02627600000000E+01,3.32135400000000E+01,3.19416700000000E+01,,,1.19996000000000E+01,,,,
ISL,,,,,,,,,,,,,,,,,,,,,,,,,,,,,,,,3.07782820642125E+01,2.90856207962189E+01,2.89375928677563E+01,3.04536679536680E+01,3.30154946364720E+01,,,3.28676696346331E+01,3.43842200000000E+01,3.58880800000000E+01,3.76556200000000E+01,4.02646300000000E+01,3.82741500000000E+01,4.13561600000000E+01,3.99116100000000E+01,4.09536800000000E+01,4.26082000000000E+01,4.24041900000000E+01,4.16240900000000E+01,,
ISR,,,,,,,,,,,,,,,,,,,,,,,,,,,,,,,4.61359780054261E+01,4.54273697382599E+01,4.50147037079630E+01,4.49508188638624E+01,4.52488761749081E+01,,,,,3.63623300000000E+01,3.93569600000000E+01,3.91928900000000E+01,4.03941900000000E+01,4.16604500000000E+01,4.24941900000000E+01,4.27106800000000E+01,4.28129600000000E+01,4.31412500000000E+01,4.35382300000000E+01,4.44154600000000E+01,,
ITA,,,,,,,,,,,,,,,,,,,,,,,,,,,,,,,4.36999937600979E+01,4.38190675792952E+01,4.36780159469170E+01,4.34896505554052E+01,4.27481177031335E+01,4.21152343149346E+01,4.19492184580636E+01,4.14613973687806E+01,,4.14489600000000E+01,,4.52255700000000E+01,4.47729100000000E+01,4.54629000000000E+01,4.03148300000000E+01,3.99887600000000E+01,3.97830800000000E+01,3.94132100000000E+01,3.93287600000000E+01,3.94698900000000E+01,,
JAM,,,,,,,,,,,,,,,,,,,,,,,,,,,,,,,,5.16257465162575E+01,,,,,,,,5.83710400000000E+01,5.84245100000000E+01,5.64257000000000E+01,4.42408400000000E+01,4.20212800000000E+01,,,,,,,,
JOR,,,,,,,,,,,,,,,,,,,,,,,,,,,,,,,3.49745523091424E+01,3.45594696061986E+01,3.71034158202283E+01,3.60634226353198E+01,3.51224544123520E+01,3.41178338891536E+01,3.34601908904193E+01,3.46074931841817E+01,,3.62736400000000E+01,3.67313500000000E+01,,3.58113000000000E+01,4.55802600000000E+01,3.72119900000000E+01,3.53549400000000E+01,3.53541600000000E+01,,3.75731800000000E+01,,,
JPN,,,,,,,,,,,,,,,,,,,,,,,,,,,,,,,4.65303742183105E+01,4.56345362801143E+01,4.54465507469543E+01,4.53741496598640E+01,4.54780818204987E+01,4.51969877218742E+01,,,4.54311653856850E+01,4.52304500000000E+01,4.51387800000000E+01,4.50941200000000E+01,4.49046200000000E+01,4.44717100000000E+01,4.29468800000000E+01,4.30747000000000E+01,4.30802400000000E+01,4.31098300000000E+01,4.30302600000000E+01,4.30792300000000E+01,,
KAZ,,,,,,,,,,,,,,,,,,,,,,,,,,,,,,,,,,3.66814377154111E+01,3.67001586462189E+01,,,5.44255511734661E+01,3.03004973460944E+01,3.36316600000000E+01,3.56765300000000E+01,3.73357800000000E+01,3.78588500000000E+01,3.61486300000000E+01,3.47146700000000E+01,3.36457100000000E+01,3.26259300000000E+01,3.11542200000000E+01,3.04311200000000E+01,3.01412700000000E+01,3.03366100000000E+01,
KEN,,,,,,,,,,,,,,,,,,,,,,,,,,,,,,,,,,,,,,,3.85811467444120E+01,3.89982300000000E+01,2.91957100000000E+01,2.53410700000000E+01,3.03805200000000E+01,3.19793000000000E+01,,,6.19118200000000E+01,6.19139000000000E+01,5.90733100000000E+01,5.78164900000000E+01,,
KGZ,,,,,,,,,,,,,,,,,,,,,,,,,,,,,,,4.99075785582256E+01,4.99009900990099E+01,4.98985801217038E+01,4.98942917547569E+01,4.98812351543943E+01,,,,,3.55687300000000E+01,3.55205600000000E+01,3.59255500000000E+01,3.60653200000000E+01,3.56460800000000E+01,3.50458500000000E+01,3.62276600000000E+01,3.53107600000000E+01,3.26239000000000E+01,2.87490600000000E+01,2.95430800000000E+01,2.72900900000000E+01,
KHM,,,,,,,,,,,,,,,,,,,,,,,,,,,,,,,,1.72328597899938E+01,,,,,,2.44241733181300E+01,3.60690684289064E+01,4.40924700000000E+01,3.89862100000000E+01,3.90529500000000E+01,3.41956000000000E+01,3.36176700000000E+01,3.36143700000000E+01,,3.88944700000000E+01,4.67230400000000E+01,,,,
KIR,,,,,,,,,,,,,,,,,,,,,,,,,,,,,,,1.59362549800797E+01,1.88235294117647E+01,4.18803418803419E+01,4.20000000000000E+01,4.21641791044776E+01,4.87179487179487E+01,4.87179487179487E+01,5.15000000000000E+01,,,,,,,,,,,,,,
KNA,,,,,,,,,,,,,,,,,,,,,,,,,,,,,,,,,,,,,0.00000000000000E+00,0.00000000000000E+00,,,,,,,,,,,,,,
KOR,,,,,,,,,,,,,,,,,,,,,,,,,,,,,,,5.20806593743415E+01,5.30853729836998E+01,5.34001652692828E+01,5.34234165232564E+01,5.19294523997042E+01,5.35683919447870E+01,5.34978209103222E+01,5.20047380889708E+01,5.06039894375258E+01,4.91250400000000E+01,4.89903600000000E+01,4.88701000000000E+01,4.81903400000000E+01,4.76159500000000E+01,4.67769900000000E+01,4.63258100000000E+01,4.59297000000000E+01,4.59390600000000E+01,4.55607500000000E+01,4.53756700000000E+01,,
KWT,,,,,,,,,,,,,,,,,,,,,,,,,,,,,,,1.30641330166271E+01,,2.14511041009464E+01,1.95829555757026E+01,3.34845735027223E+01,3.42322097378277E+01,2.85569620253165E+01,3.15931593159316E+01,,2.13730900000000E+01,3.89867300000000E+01,3.90134500000000E+01,3.43361200000000E+01,4.08843400000000E+01,4.67322200000000E+01,3.60882500000000E+01,8.29146000000000E+00,1.06258100000000E+01,6.58904000000000E+00,1.03764900000000E+01,,
LAC,,,,,,,,,,,,,,,,,,,,,,,,,,,,,,,,,,,,,,,,5.36435662373415E+01,5.40176433203195E+01,5.28464673045591E+01,5.26717292908826E+01,5.53299214470856E+01,5.25222434900231E+01,5.26997790182575E+01,,5.38928280596767E+01,5.41000384385146E+01,5.42044543612711E+01,,
LAO,,,,,,,,,,,,,,,,,,,,,,,,,,,,,,,3.30046022353715E+01,,3.35403726708075E+01,3.09651315006545E+01,3.09517566858941E+01,3.21170179301667E+01,3.40696236084114E+01,,,3.85852100000000E+01,3.55502800000000E+01,3.28688700000000E+01,3.42360200000000E+01,3.95804500000000E+01,3.47354100000000E+01,3.70440500000000E+01,3.45074900000000E+01,3.54718000000000E+01,4.00478700000000E+01,,,
LBN,,,,,,,,,,,,,,,,,,,,,,,,,,,,,,,3.91690544412608E+01,,3.84995855947384E+01,,3.96514161220044E+01,4.68389549108704E+01,4.68965085721436E+01,4.54537315570836E+01,,4.02011500000000E+01,,,,,,,3.96689100000000E+01,4.10323600000000E+01,4.00982300000000E+01,4.16833100000000E+01,4.20238700000000E+01,
LBR,,,,,,,,,,,,,,,,,,,,,,,,,,,,,,,,,,,,,,,,3.03159200000000E+01,4.01158300000000E+01,,,,,,,,,,,
LBY,,,,,,,,,,,,,,,,,,,,,,,,,,,,,,,,,,,,,,,,,,5.13132000000000E+01,5.30767300000000E+01,5.30333800000000E+01,,,,,,,,
LCA,,,,,,,,,,,,,,,,,,,,,,,,,,,,,,,9.93993993993994E+01,9.59409594095941E+01,9.04040404040404E+01,9.50372208436725E+01,,9.44444444444445E+01,9.57446808510639E+01,9.49494949494950E+01,,,,,,3.63636400000000E+01,3.11424100000000E+01,4.01585200000000E+01,3.74792700000000E+01,2.88732400000000E+01,3.16666700000000E+01,1.94968600000000E+01,1.87500000000000E+01,
LCN,,,,,,,,,,,,,,,,,,,,,,,,,,,,,,,,,,,,,,,,5.36378564159604E+01,5.40129506326449E+01,5.28419236133370E+01,5.26670311335369E+01,5.53233212808434E+01,5.25148404532928E+01,5.26924280173588E+01,,5.38890598584123E+01,5.40961886554799E+01,5.41995968311708E+01,,
LDC,,,,,,,,,,,,,,,,,,,,,,,,,,,,,,,,,,,,,,,,3.08918216689094E+01,,,3.63407787707090E+01,,,3.72048403959244E+01,,,3.63002056640860E+01,,,
LIC,,,,,,,,,,,,,,,,,,,,,,,,,,,,,,,,,,,,,,,,3.11574087396287E+01,,,3.55275388596350E+01,,,,,,3.67103094966457E+01,,,
LIE,,,,,,,,,,,,,,,,,,,,,,,,,,,,,,,,,,,,,,,,,,,,,5.42372900000000E+01,,,,,,,
LMC,,,,,,,,,,,,,,,,,,,,,,,,,,,,,,,,,,,,,,,,3.73699730624248E+01,3.94513015688652E+01,4.10378115218561E+01,3.93824020779877E+01,4.13124262903538E+01,4.10538509419893E+01,4.02798924959885E+01,,4.18031880065976E+01,4.22090341028773E+01,,,
LMY,,,,,,,,,,,,,,,,,,,,,,,,,,,,,,,,,,,,,,,,,,,,4.49753077953142E+01,,,,4.72696608805209E+01,4.70272868188651E+01,,,
LSO,,,,,,,,,,,,,,,,,,,,,,,,,,,,,,,5.04487179487180E+01,4.78750000000000E+01,7.49644381223329E+01,7.73809523809524E+01,8.62244897959184E+01,7.64951321279555E+01,6.44542772861357E+01,7.33812949640288E+01,4.92291880781089E+01,5.73964500000000E+01,5.50340700000000E+01,4.99628800000000E+01,4.48581600000000E+01,6.03079600000000E+01,4.98838600000000E+01,5.15714300000000E+01,5.26178000000000E+01,,,,7.90938000000000E+01,
LTU,,,,,,,,,,,,,,,,,,,,,,,,,,,,,,,,,3.64922424000123E+01,3.81817851695839E+01,4.08495480312548E+01,4.20797943898962E+01,4.00420743828769E+01,3.91973570597290E+01,,3.59678300000000E+01,3.58686500000000E+01,3.60112700000000E+01,3.58087600000000E+01,3.53572800000000E+01,3.50236900000000E+01,3.55308300000000E+01,3.51819200000000E+01,3.53013000000000E+01,3.49788200000000E+01,3.42349900000000E+01,,
LUX,,,,,,,,,,,,,,,,,,,,,,,,,,,,,,,4.63087248322148E+01,,4.65838509316770E+01,4.70985359933247E+01,4.69582420688193E+01,4.64597770412775E+01,4.72778421313917E+01,4.82335902343144E+01,,4.80135600000000E+01,4.87699300000000E+01,4.86484100000000E+01,4.83514500000000E+01,4.77937400000000E+01,4.84299400000000E+01,4.85663900000000E+01,4.80308100000000E+01,4.77835000000000E+01,4.77040600000000E+01,,,
LVA,,,,,,,,,,,,,,,,,,,,,,,,,,,,,,,4.39908035204358E+01,4.39992539865096E+01,4.40002718268463E+01,4.39816555146230E+01,4.54065274580730E+01,4.53185102834908E+01,4.54373834863251E+01,4.55872133425991E+01,,3.97952500000000E+01,3.94347900000000E+01,3.95910900000000E+01,3.92814500000000E+01,3.89003900000000E+01,3.82286500000000E+01,3.84889300000000E+01,3.91605500000000E+01,4.01213300000000E+01,4.04421900000000E+01,4.06167500000000E+01,,
MAC,,,,,,,,,,,,,,,,,,,,,,,,,,,,,,,5.02152080344333E+00,7.44827586206897E+00,7.42705570291778E+00,1.00350058343057E+01,1.00000000000000E+01,1.11111111111111E+01,1.06382978723404E+01,1.02040816326531E+01,,4.80529000000000E+01,4.48858400000000E+01,4.58837800000000E+01,4.75270500000000E+01,4.75529900000000E+01,4.77576700000000E+01,4.58506200000000E+01,4.40068500000000E+01,4.35269400000000E+01,4.34300300000000E+01,4.53164600000000E+01,4.35877300000000E+01,
MAR,,,,,,,,,,,,,,,,,,,,,,,,,,,,,,,5.05046495804038E+01,4.57938064398432E+01,4.62235541334352E+01,4.59203036053131E+01,4.40699015346403E+01,4.48110246107485E+01,4.59731474415823E+01,4.56966618287373E+01,,4.44184500000000E+01,4.43513300000000E+01,4.48307800000000E+01,4.27007900000000E+01,4.24960200000000E+01,3.90660700000000E+01,3.86405000000000E+01,,,,,,
MCO,,,,,,,,,,,,,,,,,,,,,,,,,,,,,,,,3.67567567567568E+01,3.60000000000000E+01,,4.04444444444444E+01,4.19483101391650E+01,4.26923076923077E+01,4.56439393939394E+01,,4.71774200000000E+01,4.23157900000000E+01,4.35622300000000E+01,,,,,,,4.08602200000000E+01,4.29809400000000E+01,4.54713500000000E+01,
MDA,,,,,,,,,,,,,,,,,,,,,,,,,,,,,,,5.69987044050230E+01,5.69991683127144E+01,5.69994510234492E+01,5.95102963335007E+01,5.70003066031163E+01,4.25802201938459E+01,3.78306775236685E+01,3.83322962041070E+01,,3.62821800000000E+01,3.84424500000000E+01,3.60024600000000E+01,3.66624600000000E+01,3.68878900000000E+01,4.27126500000000E+01,4.43911200000000E+01,4.29929900000000E+01,4.29061100000000E+01,4.20796600000000E+01,4.23616700000000E+01,4.15284500000000E+01,
MDG,,,,,,,,,,,,,,,,,,,,,,,,,,,,,,,3.97518783854621E+01,4.06446310103916E+01,4.06432748538012E+01,4.05714285714285E+01,,,,,,,,,,,,3.42108000000000E+01,3.46531900000000E+01,3.62198300000000E+01,3.60449700000000E+01,,,
MDV,,,,,,,,,,,,,,,,,,,,,,,,,,,,,,,,,3.24675324675325E+00,3.22580645161290E+00,,3.22580645161290E+00,3.22580645161290E+00,,,,4.46389500000000E+01,5.13478000000000E+01,5.16891900000000E+01,3.01558200000000E+01,3.00448400000000E+01,,,,,,,
MEA,,,,,,,,,,,,,,,,,,,,,,,,,,,,,,,,,,,,,,,,,,4.33115218305167E+01,,4.29475291688742E+01,4.17689602113599E+01,,,,,,,
MEX,,,,,,,,,,,,,,,,,,,,,,,,,,,,,,,6.32202238806849E+01,6.33385532271436E+01,5.37262191977042E+01,5.70093802905626E+01,5.93088211137959E+01,5.84569288748326E+01,5.78544497821210E+01,5.65431245467730E+01,,5.59118200000000E+01,5.61070500000000E+01,5.59407700000000E+01,5.70930200000000E+01,5.92524300000000E+01,5.73966500000000E+01,5.66326900000000E+01,5.60685000000000E+01,5.56003600000000E+01,5.54262800000000E+01,5.64104300000000E+01,,
MHL,,,,,,,,,,,,,,,,,,,,,,,,,,,,,,,,,,,,,,,,,,,,,,,,4.97435900000000E+01,,,,
MIC,,,,,,,,,,,,,,,,,,,,,,,,,,,,,,,,,,,,,,,,,,,,4.51364833357417E+01,,,,4.74752537472413E+01,4.74485217038569E+01,,,
MKD,,,,,,,,,,,,,,,,,,,,,,,,,,,,,,,,,,4.41428951266761E+01,4.42395524092259E+01,4.39270097234266E+01,4.35906136152582E+01,4.35319506054430E+01,,4.28803800000000E+01,4.28492400000000E+01,4.27640600000000E+01,4.28710000000000E+01,4.28537500000000E+01,4.27583200000000E+01,4.25463800000000E+01,,4.24313900000000E+01,4.20230200000000E+01,4.27357400000000E+01,,
MLI,,,,,,,,,,,,,,,,,,,,,,,,,,,,,,,2.54276231810059E+01,2.64376542038338E+01,2.42724049798005E+01,3.28408611228367E+01,3.03064275037369E+01,3.00536381860541E+01,3.91991511225288E+01,3.31462987748379E+01,,4.00014900000000E+01,3.65407900000000E+01,3.86594100000000E+01,3.99260100000000E+01,4.03847200000000E+01,4.05228300000000E+01,4.04730300000000E+01,4.09493200000000E+01,5.09096200000000E+01,4.11362200000000E+01,4.11357700000000E+01,4.11356100000000E+01,
MLT,,,,,,,,,,,,,,,,,,,,,,,,,,,,,,,2.52806593718914E+01,2.17946790921389E+01,1.85947264136565E+01,1.58548387096774E+01,1.49667972075600E+01,1.40923737916219E+01,1.44167450611477E+01,,,2.23622000000000E+01,2.59350900000000E+01,2.50816600000000E+01,2.66554600000000E+01,2.38504500000000E+01,2.72971400000000E+01,3.23208700000000E+01,,3.44002900000000E+01,3.39320000000000E+01,3.20971700000000E+01,,
MMR,,,,,,,,,,,,,,,,,,,,,,,,,,,,,,,0.00000000000000E+00,,0.00000000000000E+00,0.00000000000000E+00,0.00000000000000E+00,,0.00000000000000E+00,,,,,,,,,,,,,,,
MNA,,,,,,,,,,,,,,,,,,,,,,,,,,,,,,,,,,,,,,,,,,4.34733292308236E+01,3.94612381249156E+01,4.30105710049187E+01,4.17639094843293E+01,,,,,3.78477922675113E+01,,
MNE,,,,,,,,,,,,,,,,,,,,,,,,,,,,,,,,,,,,,,,,,,,,,,,,,,,4.60754300000000E+01,
MNG,,,,,,,,,,,,,,,,,,,,,,,,,,,,,,,,4.86209375354698E+01,,4.96040379427378E+00,4.96823601079106E+01,4.84976836532098E+01,5.20721171904345E+01,5.25822426600637E+01,5.18993506493507E+01,5.38710400000000E+01,5.05999400000000E+01,5.09096100000000E+01,5.07123200000000E+01,4.98461500000000E+01,4.87280500000000E+01,5.01952700000000E+01,4.61321800000000E+01,4.60308500000000E+01,,4.54721500000000E+01,4.71434200000000E+01,
MOZ,,,,,,,,,,,,,,,,,,,,,,,,,,,,,,,2.12645992750705E+01,1.93236714975846E+01,2.53986099754702E+01,2.53521126760563E+01,2.52388535031847E+01,2.58469345768756E+01,,,,2.62334100000000E+01,2.78296000000000E+01,2.80986600000000E+01,2.80561100000000E+01,,2.78737300000000E+01,2.98176900000000E+01,3.07701100000000E+01,3.06828400000000E+01,3.05626200000000E+01,3.25867400000000E+01,3.36243700000000E+01,
MRT,,,,,,,,,,,,,,,,,,,,,,,,,,,,,,,2.33100233100233E-01,1.25000000000000E+00,1.40776699029126E+01,1.65529010238908E+01,2.31178033658105E+01,2.65188834154351E+01,2.93493635077794E+01,,,3.17479200000000E+01,3.27097800000000E+01,3.56471800000000E+01,3.43370300000000E+01,4.41035500000000E+01,4.22708200000000E+01,3.80528300000000E+01,3.36168900000000E+01,,,,,
MUS,,,,,,,,,,,,,,,,,,,,,,,,,,,,,,,3.17247542448615E+01,3.16250000000000E+01,3.16481709823264E+01,3.16000000000000E+01,3.16000000000000E+01,3.13725490196079E+01,2.89464594127807E+01,3.52042510793756E+01,2.79882566755208E+01,2.23010200000000E+01,2.10637000000000E+01,2.28649900000000E+01,2.91000900000000E+01,2.97351800000000E+01,2.98829100000000E+01,,,,,,,
MWI,,,,,,,,,,,,,,,,,,,,,,,,,,,,,,,8.70129870129871E+00,8.07692307692308E+00,,7.53186558516802E+00,3.97219463753724E+00,4.16666666666667E+00,4.45920303605313E+00,,,,,,,,,,,,,,,
MYS,,,,,,,,,,,,,,,,,,,,,,,,,,,,,,,4.90971585701191E+01,4.66374870419429E+01,4.34651805637274E+01,4.70588235294118E+01,3.99578634279341E+01,,,,3.31366402360317E+01,4.35441000000000E+01,4.11501700000000E+01,4.29435200000000E+01,4.24158500000000E+01,4.15684300000000E+01,4.19412700000000E+01,4.32767300000000E+01,4.32243300000000E+01,4.36297600000000E+01,4.32195800000000E+01,,,
NAM,,,,,,,,,,,,,,,,,,,,,,,,,,,,,,,2.22408026755853E+01,1.60000000000000E+01,2.15577190542420E+01,2.13921901528014E+01,3.89705882352941E+01,3.02083333333334E+01,4.26829268292683E+01,5.15463917525773E+01,0.00000000000000E+00,,,,,,,,,,,,,
NER,,,,,,,,,,,,,,,,,,,,,,,,,,,,,,,8.82352941176470E+00,8.77817319098459E+00,9.42211055276382E+00,1.26903553299492E+01,1.26903553299492E+01,1.46496815286624E+01,1.48527528809219E+01,1.78881987577640E+01,,3.96895400000000E+01,,4.25271700000000E+01,3.44298200000000E+01,3.62029900000000E+01,4.32330800000000E+01,3.93229200000000E+01,4.79715900000000E+01,1.69132300000000E+01,1.44769900000000E+01,3.19713000000000E+01,1.43248500000000E+01,
NGA,,,,,,,,,,,,,,,,,,,,,,,,,,,,,,,4.49417027722005E+01,,,,,,,,,,,,,,,,,3.75470000000000E+01,,,,
NIC,,,,,,,,,,,,,,,,,,,,,,,,,,,,,,,,,,,,,,,,5.63380300000000E+01,5.63060000000000E+01,5.72046100000000E+01,5.61011700000000E+01,5.41775400000000E+01,5.41753600000000E+01,5.48139900000000E+01,5.41215600000000E+01,5.45660300000000E+01,5.53359400000000E+01,,5.96802300000000E+01,
NLD,,,,,,,,,,,,,,,,,,,,,,,,,,,,,,,4.19754155241753E+01,4.19836591340483E+01,4.23479357433369E+01,4.33292510974276E+01,4.14977027633196E+01,4.28680169401424E+01,4.28230237791466E+01,4.38927146896477E+01,,4.45170500000000E+01,4.49437400000000E+01,4.58215100000000E+01,4.59999700000000E+01,4.70078300000000E+01,4.65384000000000E+01,4.63495600000000E+01,4.59441600000000E+01,4.58913000000000E+01,4.59451400000000E+01,4.60326100000000E+01,,
NOR,,,,,,,,,,,,,,,,,,,,,,,,,,,,,,,4.72317851376633E+01,4.61109102983331E+01,4.46110320525852E+01,4.18146254521838E+01,4.11659984957530E+01,3.81958900914753E+01,3.99693975983767E+01,4.10067210984746E+01,4.29976784936003E+01,4.40404900000000E+01,4.45860000000000E+01,4.46376900000000E+01,4.46961000000000E+01,4.50076500000000E+01,4.55957700000000E+01,4.43093500000000E+01,4.31556500000000E+01,4.20095800000000E+01,4.07601200000000E+01,4.01628000000000E+01,,
NPL,,,,,,,,,,,,,,,,,,,,,,,,,,,,,,,,,,,,,,,,1.24235800000000E+01,2.11287400000000E+01,2.01285000000000E+01,2.01304400000000E+01,2.21925100000000E+01,,2.21923900000000E+01,2.21928800000000E+01,2.21939500000000E+01,,,,
NZL,,,,,,,,,,,,,,,,,,,,,,,,,,,,,,,4.92079541624537E+01,5.12323522373773E+01,4.53663911845730E+01,4.80714609146668E+01,4.74111659178737E+01,4.18878248974008E+01,5.18136754449624E+01,5.14471007121059E+01,5.34511308138926E+01,,,,5.95941800000000E+01,,,,,,,4.85388000000000E+01,,
OEC,,,,,,,,,,,,,,,,,,,,,,,,,,,,,,,,,,,,,,,,,,,,,4.39934222109144E+01,4.36588231041964E+01,4.30310952457659E+01,4.30276506794155E+01,,,,
OED,,,,,,,,,,,,,,,,,,,,,,,,,,,,,,,,,,,,,,,,4.47845549310772E+01,,4.49994316010895E+01,4.49243781825199E+01,4.51018479230961E+01,4.42692482285873E+01,4.44863021751551E+01,4.40561968571738E+01,4.41123805372261E+01,4.43245086408534E+01,4.41062396824255E+01,,
OMN,,,,,,,,,,,,,,,,,,,,,,,,,,,,,,,0.00000000000000E+00,0.00000000000000E+00,0.00000000000000E+00,0.00000000000000E+00,0.00000000000000E+00,0.00000000000000E+00,0.00000000000000E+00,0.00000000000000E+00,,,,,,,,,,,,,,
PAK,,,,,,,,,,,,,,,,,,,,,,,,,,,,,,,2.09993057770606E+01,1.88144948404128E+01,2.12735706542023E+01,3.18681318681319E+01,3.26086956521739E+01,3.01075268817204E+01,2.44680851063830E+01,,,,,,,4.60532100000000E+01,4.22997500000000E+01,4.22999600000000E+01,3.91837700000000E+01,3.46576400000000E+01,3.46928600000000E+01,4.05858700000000E+01,4.20799400000000E+01,
PAN,,,,,,,,,,,,,,,,,,,,,,,,,,,,,,,5.08203329705326E+01,,,,,,,,5.04950495049505E+01,5.12792400000000E+01,4.91047900000000E+01,5.11376900000000E+01,4.93023700000000E+01,4.93007500000000E+01,4.96849500000000E+01,4.89286600000000E+01,4.96002200000000E+01,4.77820900000000E+01,4.85260100000000E+01,4.81702800000000E+01,4.87202900000000E+01,
PER,,,,,,,,,,,,,,,,,,,,,,,,,,,,,,,,,,,0.00000000000000E+00,0.00000000000000E+00,0.00000000000000E+00,,,,,,,7.05823200000000E+01,6.77231700000000E+01,7.02430000000000E+01,6.69079100000000E+01,6.45308400000000E+01,6.62474300000000E+01,5.97417800000000E+01,,
PNG,,,,,,,,,,,,,,,,,,,,,,,,,,,,,,,3.45022327291831E+01,2.90841163817503E+01,2.98004129387474E+01,3.21612841582267E+01,3.07115089051623E+01,2.81919558952513E+01,,,,,,,,,,,,,,,,
POL,,,,,,,,,,,,,,,,,,,,,,,,,,,,,,,4.26747649923746E+01,4.22348121344865E+01,4.18167071284403E+01,4.13203983828886E+01,4.12497802121685E+01,4.13255923161981E+01,4.13714689257467E+01,4.12774268356433E+01,4.13043243853702E+01,4.12022300000000E+01,4.08084000000000E+01,4.04812900000000E+01,4.00936600000000E+01,3.87607100000000E+01,4.01236700000000E+01,3.71629900000000E+01,3.60018900000000E+01,3.61547700000000E+01,3.65885400000000E+01,3.70612400000000E+01,,
PRT,,,,,,,,,,,,,,,,,,,,,,,,,,,,,,,3.30903961443517E+01,3.64937720765942E+01,,4.59129309688714E+01,4.51503307815050E+01,4.58093690626639E+01,4.60255229992699E+01,,,4.46000200000000E+01,4.45060400000000E+01,4.43646300000000E+01,4.40758800000000E+01,4.58379400000000E+01,4.29451000000000E+01,4.21185300000000E+01,4.15411200000000E+01,4.22222400000000E+01,4.24009800000000E+01,4.25965600000000E+01,,
PRY,,,,,,,,,,,,,,,,,,,,,,,,,,,,,,,4.50322948328268E+01,4.40753424657535E+01,4.31353216662559E+01,4.30223178273729E+01,4.32480141218006E+01,,5.20687595973384E+01,5.15842583249243E+01,4.86229566453447E+01,4.86061200000000E+01,4.92219800000000E+01,4.73470300000000E+01,4.58583000000000E+01,4.66754900000000E+01,4.60456600000000E+01,4.73454700000000E+01,4.80745600000000E+01,4.86029800000000E+01,4.92567800000000E+01,4.95963500000000E+01,,
QAT,,,,,,,,,,,,,,,,,,,,,,,,,,,,,,,0.00000000000000E+00,0.00000000000000E+00,0.00000000000000E+00,0.00000000000000E+00,0.00000000000000E+00,0.00000000000000E+00,0.00000000000000E+00,,,,,,,,,,,,,,,
ROM,,,,,,,,,,,,,,,,,,,,,,,,,,,,,,,,4.54949735886363E+01,4.36895367405392E+01,4.10226592957775E+01,4.20170161590215E+01,4.19671826471408E+01,4.15561451234950E+01,4.06662647952492E+01,,4.30334000000000E+01,4.33292000000000E+01,4.34734500000000E+01,4.39690200000000E+01,4.40791600000000E+01,4.41059800000000E+01,4.43267400000000E+01,4.40579300000000E+01,4.34545400000000E+01,4.31291800000000E+01,4.30736200000000E+01,,
RUS,,,,,,,,,,,,,,,,,,,,,,,,,,,,,,,3.66988847583643E+01,,3.70040485829960E+01,3.69981751824818E+01,3.70009930486594E+01,,,,,,,,,3.70082200000000E+01,3.71112200000000E+01,3.72146100000000E+01,3.71487200000000E+01,3.71029300000000E+01,3.67733700000000E+01,3.71545200000000E+01,,
RWA,,,,,,,,,,,,,,,,,,,,,,,,,,,,,,,4.35457452616801E+01,4.38154031468795E+01,4.40653223294924E+01,,,,,,,5.43438500000000E+01,5.10330400000000E+01,,4.98133900000000E+01,4.83548600000000E+01,5.26102500000000E+01,5.16915000000000E+01,4.90967200000000E+01,4.98765800000000E+01,4.90073100000000E+01,4.76401500000000E+01,,
SAS,,,,,,,,,,,,,,,,,,,,,,,,,,,,,,,,,,,,,,,2.72493268739558E+01,2.03384240332696E+01,2.10629851261869E+01,1.84420911261220E+01,1.88805741913064E+01,2.18039442350273E+01,2.16962579126161E+01,2.27688244050557E+01,,2.81957903398962E+01,2.82078441340907E+01,,,
SAU,,,,,,,,,,,,,,,,,,,,,,,,,,,,,,,1.57240351427675E+01,1.68728591577675E+01,1.54206721220307E+01,1.39929110802897E+01,7.31587869655303E+00,4.69483568075118E+00,4.70492470492471E+00,5.88835784882372E+00,,,,,,,,9.36113000000000E+00,,,1.42243000000000E+00,,,
SDN,,,,,,,,,,,,,,,,,,,,,,,,,,,,,,,,2.20196492153501E+01,1.74830964537050E+01,,,1.58777439616655E+01,3.52327814872404E+01,3.77616290072292E+01,,3.57565300000000E+01,3.67667700000000E+01,3.38552400000000E+01,3.31378100000000E+01,3.60864400000000E+01,3.44353400000000E+01,2.83635800000000E+01,,2.05016200000000E+01,2.00805300000000E+01,2.42711900000000E+01,,
SEN,,,,,,,,,,,,,,,,,,,,,,,,,,,,,,,2.98515376458112E+01,3.23543123543124E+01,3.35358605204068E+01,3.47212710587591E+01,,,3.75389122871269E+01,3.40068999507146E+01,,3.60829700000000E+01,3.68361600000000E+01,3.58939800000000E+01,4.48806800000000E+01,,3.98692800000000E+01,3.98641700000000E+01,,,4.52320500000000E+01,,5.21015100000000E+01,
SGP,,,,,,,,,,,,,,,,,,,,,,,,,,,,,,,2.44725448422789E+01,2.40933809012504E+01,2.46599183093589E+01,2.45651999679410E+01,,,,,,,,,,,,,,3.62761000000000E+01,3.52137200000000E+01,3.51334200000000E+01,,
SLE,,,,,,,,,,,,,,,,,,,,,,,,,,,,,,,4.34522623081523E+01,5.16313364055300E+01,,,,,,,,,,4.40384100000000E+01,,,,,,,,,,
SLV,,,,,,,,,,,,,,,,,,,,,,,,,,,,,,,,5.62934186471664E+01,5.41957390146472E+01,5.31443684240787E+01,,,,,5.02928325741378E+01,,5.19775400000000E+01,5.20585400000000E+01,5.20882800000000E+01,5.21549100000000E+01,5.21941100000000E+01,5.26334300000000E+01,5.31447600000000E+01,5.32050100000000E+01,5.28485500000000E+01,5.23398400000000E+01,,
SMR,,,,,,,,,,,,,,,,,,,,,,,,,,,,,,,1.85840707964602E+01,2.62773722627737E+01,2.62773722627737E+01,3.16455696202532E+01,3.37423312883436E+01,,2.76595744680851E+01,2.86821705426357E+01,,,,,,,,,,,3.19688100000000E+01,3.53167000000000E+01,3.23017400000000E+01,
SRB,,,,,,,,,,,,,,,,,,,,,,,,,,,,,,,,,,,,,,,,4.66437100000000E+01,4.69057100000000E+01,4.63124900000000E+01,4.74056800000000E+01,4.74549500000000E+01,4.72850000000000E+01,4.73703500000000E+01,4.76771500000000E+01,4.72979600000000E+01,4.72354400000000E+01,4.72768100000000E+01,4.70460300000000E+01,
SSA,,,,,,,,,,,,,,,,,,,,,,,,,,,,,,,,,,,,,,,,3.53901183771633E+01,,,,,,,,,,,,
SSF,,,,,,,,,,,,,,,,,,,,,,,,,,,,,,,,,,,,,,,,3.54017860684391E+01,,,,,,,,,,,,
STP,,,,,,,,,,,,,,,,,,,,,,,,,,,,,,,3.26732673267327E+01,,,,,,,,,,,,,2.97297300000000E+01,2.32142900000000E+01,1.77215200000000E+01,1.81818200000000E+01,1.30000000000000E+01,,1.72839500000000E+01,3.29192500000000E+01,
SUR,,,,,,,,,,,,,,,,,,,,,,,,,,,,,,,4.61125777058674E+01,4.11789833404528E+01,4.45978766220248E+01,4.79886417415996E+01,4.81818181818182E+01,4.81818181818182E+01,4.81818181818182E+01,4.81818181818182E+01,,,,4.76443000000000E+01,5.26343200000000E+01,5.20093500000000E+01,,5.02952000000000E+01,5.09186700000000E+01,5.06340300000000E+01,4.91020400000000E+01,4.67370000000000E+01,,
SVK,,,,,,,,,,,,,,,,,,,,,,,,,,,,,,,,,,4.74723765054910E+01,4.74323289385916E+01,4.84322568575080E+01,,,4.79966875885180E+01,4.80312200000000E+01,4.85425600000000E+01,4.78561400000000E+01,4.72900800000000E+01,4.67920400000000E+01,4.65919900000000E+01,4.61718200000000E+01,4.59997700000000E+01,4.60215400000000E+01,4.59318100000000E+01,4.57647800000000E+01,,
SVN,,,,,,,,,,,,,,,,,,,,,,,,,,,,,,,4.75630425322371E+01,4.70561803067391E+01,4.81727462746949E+01,4.36249428012813E+01,4.39655289962775E+01,4.44567803330690E+01,4.49382524873215E+01,4.62877464437235E+01,,4.70266400000000E+01,4.65008200000000E+01,4.68752800000000E+01,4.55124200000000E+01,4.45813800000000E+01,4.31324100000000E+01,4.26620100000000E+01,4.24050200000000E+01,4.18000000000000E+01,4.14132400000000E+01,4.13336200000000E+01,,
SWE,,,,,,,,,,,,,,,,,,,,,,,,,,,,,,,4.63809604392299E+01,4.60377787138577E+01,4.55114291767697E+01,4.94487733265577E+01,4.99643507602818E+01,4.88451073304637E+01,4.91208152078652E+01,4.97075841594162E+01,,5.68171000000000E+01,5.70458600000000E+01,5.67817500000000E+01,5.51468500000000E+01,5.33116100000000E+01,5.36194000000000E+01,4.36565900000000E+01,4.38887900000000E+01,4.41151100000000E+01,4.42244800000000E+01,4.41049100000000E+01,,
SWZ,,,,,,,,,,,,,,,,,,,,,,,,,,,,,,,,,,,,,,,0.00000000000000E+00,,,2.27011500000000E+01,7.23880600000000E+01,2.62390700000000E+01,,,,,,,,
SYC,,,,,,,,,,,,,,,,,,,,,,,,,,,,,,,,4.10780669144981E+01,4.36893203883495E+01,4.16520210896310E+01,4.01515151515152E+01,3.14939434724092E+01,4.05063291139241E+01,,,,,,,,,,,,,,,
SYR,,,,,,,,,,,,,,,,,,,,,,,,,,,,,,,3.72788707013065E+01,3.95474445965667E+01,3.82330312071910E+01,4.22341872432311E+01,4.39330543933055E+01,4.53151246001979E+01,5.07046561685737E+01,5.15287944548812E+01,,5.24158800000000E+01,5.06997800000000E+01,4.81172800000000E+01,4.59818700000000E+01,4.45303300000000E+01,4.42317600000000E+01,4.27588300000000E+01,4.15793800000000E+01,4.04526300000000E+01,3.96866100000000E+01,4.00689800000000E+01,3.99537800000000E+01,
TCA,,,,,,,,,,,,,,,,,,,,,,,,,,,,,,,,,,,6.62921348314607E+01,6.84210526315790E+01,6.90000000000001E+01,6.81818181818182E+01,,4.84848500000000E+01,8.21138200000000E+01,4.85507200000000E+01,4.82758600000000E+01,4.88000000000000E+01,5.00000000000000E+01,4.84375000000000E+01,,,,,,
TCD,,,,,,,,,,,,,,,,,,,,,,,,,,,,,,,2.42683797287652E+01,3.12641448431943E+01,2.96978851963746E+01,3.01666666666667E+01,3.00893132121959E+01,2.72431259044862E+01,3.01415094339623E+01,3.00510915002323E+01,,3.05719200000000E+01,3.16314200000000E+01,3.24001200000000E+01,3.30983900000000E+01,3.67511500000000E+01,4.08137700000000E+01,3.78923100000000E+01,3.54038900000000E+01,4.55219800000000E+01,4.89535700000000E+01,4.02081600000000E+01,3.80567500000000E+01,
TGO,,,,,,,,,,,,,,,,,,,,,,,,,,,,,,,2.73836231071228E+01,2.57507149666349E+01,2.36276849642005E+01,,2.38813229571985E+01,2.76634779190146E+01,2.52144960942502E+01,2.82613486117232E+01,,2.48383300000000E+01,3.04301700000000E+01,3.22869000000000E+01,3.11955900000000E+01,3.17198100000000E+01,3.33854200000000E+01,3.64172200000000E+01,3.83944000000000E+01,3.83941500000000E+01,,,,
THA,,,,,,,,,,,,,,,,,,,,,,,,,,,,,,,4.80063739272083E+01,4.36158584241046E+01,4.39022537040895E+01,4.46460526491943E+01,,,,,,,,4.77335800000000E+01,4.06899400000000E+01,4.06986500000000E+01,4.53893200000000E+01,4.40709600000000E+01,4.49522900000000E+01,4.46170000000000E+01,4.43758200000000E+01,4.36143400000000E+01,4.34398700000000E+01,
TJK,,,,,,,,,,,,,,,,,,,,,,,,,,,,,,,,,,,,,4.03703703703704E+01,,,2.95649700000000E+01,3.15692300000000E+01,3.44458100000000E+01,2.80259100000000E+01,2.87912000000000E+01,2.84304300000000E+01,2.68154600000000E+01,2.80879500000000E+01,2.53307000000000E+01,3.01262400000000E+01,2.79386200000000E+01,1.54258200000000E+01,
TKM,,,,,,,,,,,,,,,,,,,,,,,,,,,,,,,3.67073020563970E+01,3.66997219337331E+01,3.66666666666667E+01,3.66666666666667E+01,3.66153846153846E+01,3.71428571428572E+01,3.71428571428572E+01,3.71469329529244E+01,,,,,,,,,,,,,,
TMP,,,,,,,,,,,,,,,,,,,,,,,,,,,,,,,,,,,,,,,,,,,,,3.93790300000000E+01,3.97500000000000E+01,,,,4.37190900000000E+01,4.35740500000000E+01,
TON,,,,,,,,,,,,,,,,,,,,,,,,,,,,,,,4.39577039274925E+01,4.37745740498034E+01,,4.19313850063532E+01,4.18987341772152E+01,4.17721518987342E+01,4.17721518987342E+01,,5.20000000000000E+01,4.14062500000000E+01,4.06605900000000E+01,4.03614500000000E+01,,,3.23818000000000E+01,,,,,,,
TTO,,,,,,,,,,,,,,,,,,,,,,,,,,,,,,,2.73361227336123E+01,2.89709172259508E+01,1.99637023593467E+01,1.64244186046512E+01,,,,,,5.00000000000000E+01,5.00000000000000E+01,5.14285700000000E+01,5.20000000000000E+01,5.29411800000000E+01,2.75784800000000E+01,2.75784800000000E+01,,,,,,
TUN,,,,,,,,,,,,,,,,,,,,,,,,,,,,,,,3.74507540358786E+01,3.72628947225392E+01,3.87309174267180E+01,3.81626605202503E+01,4.84539961488236E+01,4.70966970319135E+01,4.56253979805332E+01,4.63793103448276E+01,,,5.48211100000000E+01,4.92994900000000E+01,3.80970300000000E+01,,,3.93897500000000E+01,3.87360600000000E+01,,3.64669800000000E+01,3.49836400000000E+01,,
TUR,,,,,,,,,,,,,,,,,,,,,,,,,,,,,,,3.27598120175849E+01,3.40404685599391E+01,3.50565452915092E+01,3.60513048983516E+01,3.86381536063944E+01,3.72814602280754E+01,,3.92167731666538E+01,,3.18815900000000E+01,3.12931200000000E+01,3.00314500000000E+01,2.87455000000000E+01,2.83835200000000E+01,3.12762500000000E+01,3.73226200000000E+01,3.75012000000000E+01,3.83919400000000E+01,4.06853800000000E+01,4.21585100000000E+01,,
TUV,,,,,,,,,,,,,,,,,,,,,,,,,,,,,,,0.00000000000000E+00,,,,,,,,,,,,,,,,,,,,,
TZA,,,,,,,,,,,,,,,,,,,,,,,,,,,,,,,,,,,,,,,3.14453039639876E+01,3.14465100000000E+01,,,,,,,,,,,,
UGA,,,,,,,,,,,,,,,,,,,,,,,,,,,,,,,5.22868171715990E+00,7.65910551933144E+00,1.34235095199588E+01,,1.12731038878266E+01,,,9.64335399013533E+00,2.96906567312990E+01,3.00929500000000E+01,3.04354000000000E+01,3.03540100000000E+01,3.03455200000000E+01,3.26893500000000E+01,3.31727400000000E+01,3.25037600000000E+01,,,4.33992900000000E+01,,,
UKR,,,,,,,,,,,,,,,,,,,,,,,,,,,,,,,5.00000000000000E+01,5.00000000000000E+01,5.00000000000000E+01,5.00000000000000E+01,5.00000000000000E+01,,,,,4.04999800000000E+01,3.23807400000000E+01,3.24998700000000E+01,3.26999000000000E+01,3.30998500000000E+01,3.30000300000000E+01,3.36998600000000E+01,3.42000500000000E+01,3.45001400000000E+01,3.47014800000000E+01,3.48720200000000E+01,3.55299400000000E+01,
UMC,,,,,,,,,,,,,,,,,,,,,,,,,,,,,,,,,,,,,,,,,,,,4.64234636516392E+01,,,4.86063510961173E+01,4.87627685822619E+01,4.87211286391123E+01,4.82191964919658E+01,,
URY,,,,,,,,,,,,,,,,,,,,,,,,,,,,,,,4.79976387249114E+01,4.89261998356541E+01,4.76844739036917E+01,4.76086002632734E+01,4.70077287692344E+01,4.64006277840607E+01,4.47001201367711E+01,,,4.33749400000000E+01,4.18539700000000E+01,4.27932100000000E+01,4.49152800000000E+01,4.33028100000000E+01,4.53351100000000E+01,4.57683600000000E+01,4.58692000000000E+01,4.28770500000000E+01,4.39196600000000E+01,,,
USA,,,,,,,,,,,,,,,,,,,,,,,,,,,,,,,,,,,,0.00000000000000E+00,0.00000000000000E+00,,,,,,,,,,,,,,,
UZB,,,,,,,,,,,,,,,,,,,,,,,,,,,,,,,,,,,,,,,,4.51474600000000E+01,4.39622500000000E+01,4.53792200000000E+01,4.35454900000000E+01,4.28959100000000E+01,4.45855500000000E+01,4.68972700000000E+01,4.76494700000000E+01,4.89067900000000E+01,4.90169700000000E+01,4.93808400000000E+01,,
VCT,,,,,,,,,,,,,,,,,,,,,,,,,,,,,,,7.19063545150501E+01,7.12837837837838E+01,7.13333333333334E+01,,7.09677419354839E+01,7.03125000000000E+01,6.96969696969698E+01,7.05882352941176E+01,,,5.43103400000000E+01,4.96785500000000E+01,3.62450400000000E+01,3.35277000000000E+01,3.17693600000000E+01,3.35917300000000E+01,,,,2.90322600000000E+01,,
VEN,,,,,,,,,,,,,,,,,,,,,,,,,,,,,,,,5.37278938906753E+01,5.36667124066416E+01,5.46205746342203E+01,,,,,,4.95335700000000E+01,4.83794900000000E+01,4.96410300000000E+01,5.07161200000000E+01,5.11983200000000E+01,5.09960200000000E+01,4.98808900000000E+01,5.05871600000000E+01,4.99053900000000E+01,4.93372900000000E+01,4.98785400000000E+01,4.95259200000000E+01,
VNM,,,,,,,,,,,,,,,,,,,,,,,,,,,,,,,3.45078979343864E+01,,4.49910554561718E+01,4.62430426716141E+01,4.50000000000001E+01,4.49871465295630E+01,4.49853372434017E+01,4.49535962877031E+01,,4.96617000000000E+01,5.14913100000000E+01,5.26557600000000E+01,5.08692100000000E+01,5.12896700000000E+01,5.17861100000000E+01,5.49836700000000E+01,5.39162300000000E+01,5.61409400000000E+01,5.61409300000000E+01,,,
VUT,,,,,,,,,,,,,,,,,,,,,,,,,,,,,,,3.81909547738694E+01,3.75478927203065E+01,3.15315315315315E+01,,,,,,4.09544950055494E+01,4.09431900000000E+01,4.09431900000000E+01,3.49177300000000E+01,3.71069200000000E+01,2.77672400000000E+01,2.95440500000000E+01,,,,,,3.93525500000000E+01,
WBG,,,,,,,,,,,,,,,,,,,,,,,,,,,,,,,,,,,,1.60081743869210E+01,1.87864644107351E+01,1.87042253521127E+01,,2.33069500000000E+01,2.38440300000000E+01,2.50762800000000E+01,2.75648900000000E+01,2.87648800000000E+01,2.89577800000000E+01,3.04413700000000E+01,3.08489000000000E+01,3.40984600000000E+01,3.28167700000000E+01,3.24393500000000E+01,3.54009100000000E+01,
WLD,,,,,,,,,,,,,,,,,,,,,,,,,,,,,,,,,,,,,,,,,,,,4.49570452409219E+01,,,,4.61605006067710E+01,4.59448893198910E+01,,,
YEM,,,,,,,,,,,,,,,,,,,,,,,,,,,,,,,,,,,,,,1.47567288773425E+01,,1.65832400000000E+01,1.65804500000000E+01,,,5.31788000000000E+00,5.34805000000000E+00,5.80157000000000E+00,,,,,,
ZAF,,,,,,,,,,,,,,,,,,,,,,,,,,,,,,,3.85555366227697E+01,3.80570581289986E+01,,,4.06811572979645E+01,,,,4.39997256019607E+01,4.39997300000000E+01,4.20001200000000E+01,4.20001100000000E+01,3.99999200000000E+01,4.00001500000000E+01,4.00001500000000E+01,3.90714900000000E+01,,,,4.25000200000000E+01,,
ZAR,,,,,,,,,,,,,,,,,,,,,,,,,,,,,,,,,3.55183857963107E+01,3.54741464452312E+01,3.24383468417332E+01,,,,,3.10621500000000E+01,,,3.76972200000000E+01,,,,,,3.34703900000000E+01,3.39503600000000E+01,,
ZMB,,,,,,,,,,,,,,,,,,,,,,,,,,,,,,,,,,,,,,,6.06427090532135E+00,,,,,,,,,,,,,
