"Country Code",1960,1961,1962,1963,1964,1965,1966,1967,1968,1969,1970,1971,1972,1973,1974,1975,1976,1977,1978,1979,1980,1981,1982,1983,1984,1985,1986,1987,1988,1989,1990,1991,1992,1993,1994,1995,1996,1997,1998,1999,2000,2001,2002,2003,2004,2005,2006,2007,2008,2009,2010,2011ABW,,,,,,,,,,,,,,,,,,,,,,,,,,,,,,,,,,,,,,,,1.12500000000000E+03,9.39000000000000E+02,1.07600000000000E+03,1.19800000000000E+03,1.32100000000000E+03,1.16300000000000E+03,1.12800000000000E+03,1.12800000000000E+03,1.51400000000000E+03,1.34900000000000E+03,1.23800000000000E+03,1.14200000000000E+03,
ADO,,,,,,,,,,,,,,,,,,,,,,,,,,,,,,,,,,,,,,,,,,,2.15000000000000E+02,2.19000000000000E+02,2.22000000000000E+02,2.31000000000000E+02,2.46000000000000E+02,2.45000000000000E+02,2.62000000000000E+02,3.12000000000000E+02,3.67000000000000E+02,
AFG,,,,,,,,,,,,,,,,,,,,,,,,,,,,,,,,,,,,,,,,,,0.00000000000000E+00,,,2.76500000000000E+03,9.01100000000000E+03,,7.40000000000000E+03,9.71600000000000E+03,2.27110000000000E+04,1.14380000000000E+04,
AGO,,,,,,,,,,,,,,,,,,,,,,,,,,,,,,,,,,,,,,,4.43340000000000E+04,5.81960000000000E+04,7.02600000000000E+04,7.65400000000000E+04,9.50960000000000E+04,,,,1.49773000000000E+05,1.52988000000000E+05,2.52481000000000E+05,3.02868000000000E+05,3.62805000000000E+05,
ALB,,,,,,,,,,,,,,,,,,,,,,,,,,,,,,,,,,,,,,,,1.51330000000000E+04,1.45010000000000E+04,1.63440000000000E+04,1.84950000000000E+04,2.00320000000000E+04,2.40290000000000E+04,,,,2.96520000000000E+04,2.16580000000000E+04,2.00060000000000E+04,
ARE,,,,,,,,,,,,,,,,,,,,,,,,,,,,,,,,,,,,,,,,1.77200000000000E+03,1.71300000000000E+03,1.65900000000000E+03,1.66700000000000E+03,1.72400000000000E+03,1.62700000000000E+03,1.35700000000000E+03,1.47500000000000E+03,,,,,
ARG,,,,,,,,,,,,,,,,,,,,,,,,,,,,,,,,,,,,,,,5.18357000000000E+05,8.15406000000000E+05,9.41692000000000E+05,1.15458600000000E+06,1.20941200000000E+06,1.28585500000000E+06,1.25295900000000E+06,1.23350300000000E+06,1.23092100000000E+06,1.22297800000000E+06,1.17954000000000E+06,,,
ARM,,,,,,,,,,,,,,,,,,,,,,,,,,,,,,,,,,,,,,,,0.00000000000000E+00,0.00000000000000E+00,0.00000000000000E+00,0.00000000000000E+00,1.22100000000000E+03,2.01400000000000E+03,1.52700000000000E+03,1.52900000000000E+03,1.81200000000000E+03,2.88100000000000E+03,3.86300000000000E+03,5.61800000000000E+03,
ASM,,,,,,,,,,,,,,,,,,,,,,,,,,,,,,,,1.40000000000000E+02,,,,,,,,,,,,,,,,,,,,
ATG,,,,,,,,,,,,,,,,,,,,,,,,,,,,,,,,,,,,,,,,,7.00000000000000E+02,,,,,,,,5.14000000000000E+02,5.91000000000000E+02,5.95000000000000E+02,
AUS,,,,,,,,,,,,,,,,,,,,,,,,,,,,,,,,,,,,,,,1.08089000000000E+06,1.12075900000000E+06,1.21316800000000E+06,1.11087500000000E+06,1.10205800000000E+06,1.13111600000000E+06,1.04401200000000E+06,1.02767100000000E+06,1.04819100000000E+06,1.00922200000000E+06,1.02701500000000E+06,7.27678000000000E+05,,
AUT,,,,,,,,,,,,,,,,,,,,,,,,,,,,,,,,,,,,,,,,2.60902000000000E+05,2.61722000000000E+05,2.63081000000000E+05,2.65645000000000E+05,2.66909000000000E+05,2.92161000000000E+05,2.99968000000000E+05,3.02683000000000E+05,3.01168000000000E+05,2.99903000000000E+05,3.02047000000000E+05,,
AZE,,,,,,,,,,,,,,,,,,,,,,,,,,,,,,,,,,,,,,,2.40130000000000E+04,2.35270000000000E+04,2.26960000000000E+04,2.29440000000000E+04,2.16190000000000E+04,2.07530000000000E+04,2.77300000000000E+03,3.06000000000000E+03,3.43100000000000E+03,3.47800000000000E+03,,,,
BDI,,,,,,,,,,,,,,,,,,,,,,,,,,,,,,,,,,,,,,,,,,,,1.01270000000000E+04,1.15160000000000E+04,1.18700000000000E+04,1.19120000000000E+04,1.26300000000000E+04,1.26300000000000E+04,1.37960000000000E+04,1.54650000000000E+04,
BEL,,,,,,,,,,,,,,,,,,,,,,,,,,,,,,,,,,,,,,,,,,,,,3.26009000000000E+05,3.29452000000000E+05,3.35024000000000E+05,3.42916000000000E+05,3.41069000000000E+05,3.38192000000000E+05,,
BEN,,,,,,,,,,,,,,,,,,,,,,,,,,,,,,,,,,,,,,,,2.54390000000000E+04,2.03430000000000E+04,2.35670000000000E+04,2.43420000000000E+04,2.88670000000000E+04,3.09040000000000E+04,5.78310000000000E+04,,,,,,
BFA,,,,,,,,,,,,,,,,,,,,,,,,,,,,,,,,,,,,,,,,1.31090000000000E+04,1.51880000000000E+04,1.73960000000000E+04,1.79230000000000E+04,1.84210000000000E+04,2.03760000000000E+04,2.24320000000000E+04,2.30020000000000E+04,2.45770000000000E+04,2.56100000000000E+04,2.58770000000000E+04,2.64030000000000E+04,
BGD,,,,,,,,,,,,,,,,,,,,,,,,,,,,,,,,,,,,,,,1.02499000000000E+05,1.05791000000000E+05,1.05157000000000E+05,1.23746000000000E+05,1.26355000000000E+05,1.27218000000000E+05,1.67764000000000E+05,1.92491000000000E+05,2.19086000000000E+05,2.54122000000000E+05,3.44629000000000E+05,3.67409000000000E+05,,
BGR,,,,,,,,,,,,,,,,,,,,,,,,,,,,,,,,,,,,,,,,1.89851000000000E+05,1.85752000000000E+05,1.86135000000000E+05,1.87756000000000E+05,1.99347000000000E+05,2.08614000000000E+05,2.04359000000000E+05,1.98135000000000E+05,1.90721000000000E+05,1.75546000000000E+05,1.64412000000000E+05,,
BHR,,,,,,,,,,,,,,,,,,,,,,,,,,,,,,,,,,,,,,,,8.93000000000000E+03,1.01430000000000E+04,1.13920000000000E+04,1.31150000000000E+04,1.48860000000000E+04,1.53770000000000E+04,1.57380000000000E+04,1.52000000000000E+04,,1.20790000000000E+04,9.18800000000000E+03,6.37100000000000E+03,
BIH,,,,,,,,,,,,,,,,,,,,,,,,,,,,,,,,,,,,,,,,,,,,,,,,1.23495000000000E+05,1.18262000000000E+05,1.10681000000000E+05,1.09424000000000E+05,
BLR,,,,,,,,,,,,,,,,,,,,,,,,,,,,,,,,,,,,,,,7.60000000000000E+03,6.60800000000000E+03,6.14600000000000E+03,5.72100000000000E+03,5.14800000000000E+03,4.74400000000000E+03,4.63300000000000E+03,4.69000000000000E+03,5.81200000000000E+03,5.43300000000000E+03,5.00700000000000E+03,,3.93300000000000E+03,
BLZ,,,,,,,,,,,,,,,,,,,,,,,,,,,,,,,,,,,,,,,,,,9.64000000000000E+02,1.06900000000000E+03,,,3.45200000000000E+03,1.62400000000000E+03,1.29300000000000E+03,1.31300000000000E+03,1.31600000000000E+03,1.32200000000000E+03,
BOL,,,,,,,,,,,,,,,,,,,,,,,,,,,,,,,,,,,,,,,5.20530000000000E+04,4.87840000000000E+04,6.37530000000000E+04,4.19840000000000E+04,4.00300000000000E+04,4.96000000000000E+04,,,,0.00000000000000E+00,,,,
BRA,,,,,,,,,,,,,,,,,,,,,,,,,,,,,,,,,,,,,,,,1.52055400000000E+06,1.00257400000000E+06,1.31436200000000E+06,4.71227000000000E+05,4.52342000000000E+05,7.17568000000000E+05,7.53523000000000E+05,,9.97258000000000E+05,1.12958400000000E+06,1.23267500000000E+06,,
BRB,,,,,,,,,,,,,,,,,,,,,,,,,,,,,,,,,,,,,,,,,,1.14000000000000E+02,1.10000000000000E+02,1.09000000000000E+02,7.80000000000000E+01,7.30000000000000E+01,,,,,,
BRN,,,,,,,,,,,,,,,,,,,,,,,,,,,,,,,,,,,,,,,1.70700000000000E+03,1.84800000000000E+03,1.86200000000000E+03,2.14900000000000E+03,2.06100000000000E+03,2.27900000000000E+03,2.61400000000000E+03,3.01000000000000E+03,3.28900000000000E+03,3.23000000000000E+03,3.48100000000000E+03,3.68900000000000E+03,,
BTN,,,,,,,,,,,,,,,,,,,,,,,,,,,,,,,,,,,,,,,,0.00000000000000E+00,0.00000000000000E+00,4.44000000000000E+02,5.21000000000000E+02,,,6.30000000000000E+02,7.36000000000000E+02,,0.00000000000000E+00,0.00000000000000E+00,,
BWA,,,,,,,,,,,,,,,,,,,,,,,,,,,,,,,,,,,,,,,9.93900000000000E+03,9.60900000000000E+03,1.05580000000000E+04,1.15070000000000E+04,1.08820000000000E+04,1.11330000000000E+04,1.11690000000000E+04,1.12650000000000E+04,1.06420000000000E+04,9.39500000000000E+03,,,,
CAF,,,,,,,,,,,,,,,,,,,,,,,,,,,,,,,,,,,,,,,,,,6.77800000000000E+03,,,,,,,,4.26700000000000E+03,4.66200000000000E+03,
CAN,,,,,,,,,,,,,,,,,,,,,,,,,,,,,,,,,,,,,,,0.00000000000000E+00,,,,,,,,,,,,,
CHE,,,,,,,,,,,,,,,,,,,,,,,,,,,,,,,,,,,,,,,,1.75874000000000E+05,1.79474000000000E+05,1.80156000000000E+05,1.74893000000000E+05,1.75281000000000E+05,1.75978000000000E+05,1.79564000000000E+05,1.81850000000000E+05,1.90558000000000E+05,1.96826000000000E+05,2.03056000000000E+05,,
CHL,,,,,,,,,,,,,,,,,,,,,,,,,,,,,,,,,,,,,,,3.58278000000000E+05,3.70016000000000E+05,3.77958000000000E+05,,3.95557000000000E+05,3.86832000000000E+05,3.84355000000000E+05,3.97673000000000E+05,3.95420000000000E+05,3.88921000000000E+05,3.79115000000000E+05,3.58291000000000E+05,,
CHN,,,,,,,,,,,,,,,,,,,,,,,,,,,,,,,,,,,,,,,,1.27523830000000E+07,1.23270790000000E+07,,,1.12980310000000E+07,,,1.53063020000000E+07,1.72286690000000E+07,1.89064270000000E+07,1.97774880000000E+07,,
CIV,,,,,,,,,,,,,,,,,,,,,,,,,,,,,,,,,,,,,,,,2.56990000000000E+04,,,,,,,,,,,,
CMR,,,,,,,,,,,,,,,,,,,,,,,,,,,,,,,,,,,,,,,,1.22122000000000E+05,1.44839000000000E+05,1.63633000000000E+05,,1.53939000000000E+05,1.39899000000000E+05,1.44090000000000E+05,1.18042000000000E+05,,2.15220000000000E+05,2.58868000000000E+05,,
COG,,,,,,,,,,,,,,,,,,,,,,,,,,,,,,,,,,,,,,,,,,,2.95980000000000E+04,3.98590000000000E+04,4.01690000000000E+04,,,,,,,
COL,,,,,,,,,,,,,,,,,,,,,,,,,,,,,,,,,,,,,,,7.16001000000000E+05,5.69177000000000E+05,4.52460000000000E+05,3.69191000000000E+05,2.85922000000000E+05,,3.17648000000000E+05,2.82894000000000E+05,2.53843000000000E+05,2.76201000000000E+05,3.09191000000000E+05,3.74127000000000E+05,3.85626000000000E+05,
COM,,,,,,,,,,,,,,,,,,,,,,,,,,,,,,,,,,,,,,,,1.59000000000000E+02,1.16000000000000E+02,4.90000000000000E+01,2.26000000000000E+02,6.90000000000000E+01,1.68000000000000E+02,1.68000000000000E+02,,,,,,
CPV,,,,,,,,,,,,,,,,,,,,,,,,,,,,,,,,,,,,,,,,,,,,,,,,,,,1.76100000000000E+03,
CRI,,,,,,,,,,,,,,,,,,,,,,,,,,,,,,,,,,,,,,,4.43920000000000E+04,4.24400000000000E+04,4.88920000000000E+04,5.24160000000000E+04,5.38090000000000E+04,5.41690000000000E+04,5.84830000000000E+04,6.08300000000000E+04,5.58570000000000E+04,5.74380000000000E+04,5.88520000000000E+04,6.12880000000000E+04,6.17390000000000E+04,
CUB,,,,,,,,,,,,,,,,,,,,,,,,,,,,,,,,,,,,,,,1.65527000000000E+05,1.83515000000000E+05,2.02286000000000E+05,2.26761000000000E+05,2.57400000000000E+05,2.71891000000000E+05,2.60389000000000E+05,2.68612000000000E+05,2.70962000000000E+05,2.53190000000000E+05,2.28425000000000E+05,2.16621000000000E+05,2.03146000000000E+05,
CYP,,,,,,,,,,,,,,,,,,,,,,,,,,,,,,,,,,,,,,,,4.26100000000000E+03,4.39200000000000E+03,4.49700000000000E+03,4.29000000000000E+03,4.36300000000000E+03,4.22500000000000E+03,4.30800000000000E+03,4.30400000000000E+03,4.20400000000000E+03,4.05200000000000E+03,4.10600000000000E+03,,
CZE,,,,,,,,,,,,,,,,,,,,,,,,,,,,,,,,,,,,,,,,3.15952000000000E+05,3.47320000000000E+05,3.88548000000000E+05,3.91928000000000E+05,3.90658000000000E+05,3.82065000000000E+05,3.82571000000000E+05,3.80933000000000E+05,3.59952000000000E+05,3.49300000000000E+05,3.40560000000000E+05,,
DEU,,,,,,,,,,,,,,,,,,,,,,,,,,,,,,,,,,,,,,,,1.72997600000000E+06,1.73584600000000E+06,1.74047300000000E+06,1.75340900000000E+06,1.72983900000000E+06,1.79129300000000E+06,1.79016800000000E+06,1.81298600000000E+06,1.72666000000000E+06,1.74124300000000E+06,1.58267800000000E+06,,
DJI,,,,,,,,,,,,,,,,,,,,,,,,,,,,,,,,,,,,,,,,2.20700000000000E+03,1.24200000000000E+03,1.28000000000000E+03,1.44700000000000E+03,1.88900000000000E+03,2.33600000000000E+03,2.32100000000000E+03,1.73100000000000E+03,2.10800000000000E+03,2.21200000000000E+03,1.79100000000000E+03,,
DMA,,,,,,,,,,,,,,,,,,,,,,,,,,,,,,,,,,,,,,,,1.35100000000000E+03,1.13000000000000E+03,9.57000000000000E+02,8.50000000000000E+02,4.06000000000000E+02,2.71000000000000E+02,2.58000000000000E+02,2.05000000000000E+02,2.68000000000000E+02,1.47000000000000E+02,2.88000000000000E+02,1.85000000000000E+02,
DNK,,,,,,,,,,,,,,,,,,,,,,,,,,,,,,,,,,,,,,,,1.13728000000000E+05,1.19878000000000E+05,1.28125000000000E+05,1.17695000000000E+05,1.18329000000000E+05,1.23103000000000E+05,1.25366000000000E+05,1.24271000000000E+05,1.25715000000000E+05,1.26067000000000E+05,1.27555000000000E+05,,
DOM,,,,,,,,,,,,,,,,,,,,,,,,,,,,,,,,,,,,,,,,3.54840000000000E+04,3.63520000000000E+04,3.77690000000000E+04,3.81720000000000E+04,3.83870000000000E+04,3.13020000000000E+04,4.00010000000000E+04,3.53190000000000E+04,3.51150000000000E+04,4.13140000000000E+04,2.95750000000000E+04,3.80020000000000E+04,
DZA,,,,,,,,,,,,,,,,,,,,,,,,,,,,,,,,,,,,,,,,,,,3.52508000000000E+05,3.56237000000000E+05,4.22295000000000E+05,4.63850000000000E+05,,,,4.46182000000000E+05,,
ECU,,,,,,,,,,,,,,,,,,,,,,,,,,,,,,,,,,,,,,,1.65840000000000E+05,1.73703000000000E+05,1.76179000000000E+05,1.85166000000000E+05,2.03179000000000E+05,2.15933000000000E+05,2.22704000000000E+05,2.38063000000000E+05,2.51119000000000E+05,2.61438000000000E+05,,2.93435000000000E+05,,
EGY,,,,,,,,,,,,,,,,,,,,,,,,,,,,,,,,,,,,,,,,,,2.42073300000000E+06,2.44958200000000E+06,2.51382600000000E+06,2.52531500000000E+06,,,,,1.31183100000000E+06,,
ERI,,,,,,,,,,,,,,,,,,,,,,,,,,,,,,,,,,,,,,,,8.39000000000000E+02,1.26600000000000E+03,1.60900000000000E+03,1.65800000000000E+03,1.81700000000000E+03,1.75700000000000E+03,1.86400000000000E+03,2.06000000000000E+03,1.48800000000000E+03,1.63700000000000E+03,0.00000000000000E+00,1.30400000000000E+03,
ESP,,,,,,,,,,,,,,,,,,,,,,,,,,,,,,,,,,,,,,,,4.44318000000000E+05,4.09189000000000E+05,4.32196000000000E+05,4.43665000000000E+05,4.10301000000000E+05,4.22790000000000E+05,4.87314000000000E+05,4.82220000000000E+05,4.92411000000000E+05,4.94411000000000E+05,4.82102000000000E+05,,
EST,,,,,,,,,,,,,,,,,,,,,,,,,,,,,,,,,,,,,,,,1.88960000000000E+04,1.80920000000000E+04,1.77140000000000E+04,1.81320000000000E+04,1.65440000000000E+04,1.73960000000000E+04,1.91530000000000E+04,1.89120000000000E+04,1.91730000000000E+04,1.87610000000000E+04,1.86870000000000E+04,,
ETH,,,,,,,,,,,,,,,,,,,,,,,,,,,,,,,,,,,,,,,,3.37400000000000E+03,7.73800000000000E+03,8.63900000000000E+03,3.81760000000000E+04,7.21620000000000E+04,8.71580000000000E+04,1.06336000000000E+05,1.23557000000000E+05,1.91151000000000E+05,2.29252000000000E+05,3.07674000000000E+05,3.53420000000000E+05,
FIN,,,,,,,,,,,,,,,,,,,,,,,,,,,,,,,,,,,,,,,1.36442000000000E+05,1.47085000000000E+05,1.65446000000000E+05,1.77161000000000E+05,1.81129000000000E+05,1.89273000000000E+05,1.19996000000000E+05,1.23105000000000E+05,1.24568000000000E+05,1.25989000000000E+05,1.26504000000000E+05,1.27484000000000E+05,,
FJI,,,,,,,,,,,,,,,,,,,,,,,,,,,,,,,,,,,,,,,1.99300000000000E+03,1.72200000000000E+03,2.73300000000000E+03,2.89500000000000E+03,2.64900000000000E+03,2.31900000000000E+03,2.84000000000000E+03,2.79900000000000E+03,2.22600000000000E+03,2.86300000000000E+03,3.35100000000000E+03,2.38700000000000E+03,,
FRA,,,,,,,,,,,,,,,,,,,,,,,,,,,,,,,,,,,,,,,,1.51543700000000E+06,1.50578300000000E+06,1.46139200000000E+06,1.44372900000000E+06,1.45724000000000E+06,1.52838100000000E+06,1.59474500000000E+06,1.16458400000000E+06,1.17958400000000E+06,1.17860000000000E+06,1.16183800000000E+06,,
GAB,,,,,,,,,,,,,,,,,,,,,,,,,,,,,,,,,,,,,,,,6.16100000000000E+03,6.37700000000000E+03,6.60500000000000E+03,7.58700000000000E+03,,,,,,,,,
GBR,,,,,,,,,,,,,,,,,,,,,,,,,,,,,,,,,,,,,,,6.69868000000000E+05,1.00848300000000E+06,1.05889300000000E+06,1.05406500000000E+06,1.14406000000000E+06,1.06645000000000E+06,1.31085000000000E+06,1.34632500000000E+06,9.75942000000000E+05,9.88987000000000E+05,7.17002000000000E+05,6.79883000000000E+05,,
GEO,,,,,,,,,,,,,,,,,,,,,,,,,,,,,,,,,,,,,,,,1.88610000000000E+04,1.67590000000000E+04,1.42650000000000E+04,1.18180000000000E+04,1.04480000000000E+04,9.29600000000000E+03,8.77700000000000E+03,6.30000000000000E+03,7.43200000000000E+03,1.58000000000000E+03,4.96800000000000E+03,,
GHA,,,,,,,,,,,,,,,,,,,,,,,,,,,,,,,,,,,,,,,,2.29470000000000E+04,1.40950000000000E+04,1.40900000000000E+04,1.49360000000000E+04,1.97700000000000E+04,1.86720000000000E+04,2.14240000000000E+04,3.14660000000000E+04,6.98920000000000E+04,6.73600000000000E+04,5.00500000000000E+04,,
GIB,,,,,,,,,,,,,,,,,,,,,,,,,,,,,,,,,,,,,,,,0.00000000000000E+00,0.00000000000000E+00,0.00000000000000E+00,,,,,,,0.00000000000000E+00,0.00000000000000E+00,,
GIN,,,,,,,,,,,,,,,,,,,,,,,,,,,,,,,,,,,,,,,,,,,,4.22600000000000E+03,4.23000000000000E+03,4.34600000000000E+03,4.46100000000000E+03,4.81100000000000E+03,1.10580000000000E+04,1.14000000000000E+04,,
GMB,,,,,,,,,,,,,,,,,,,,,,,,,,,,,,,,,,,,,,,0.00000000000000E+00,,,,,,,,,,,1.20030000000000E+04,,
GNB,,,,,,,,,,,,,,,,,,,,,,,,,,,,,,,,,,,,,,,,,8.69000000000000E+02,,,,,,9.77000000000000E+02,,,,,
GNQ,,,,,,,,,,,,,,,,,,,,,,,,,,,,,,,,,,,,,,,,1.25400000000000E+03,1.22200000000000E+03,1.25400000000000E+03,1.42500000000000E+03,,,,,,,,,
GRC,,,,,,,,,,,,,,,,,,,,,,,,,,,,,,,,,,,,,,,1.32371000000000E+05,1.01362000000000E+05,1.19644000000000E+05,1.34515000000000E+05,1.62498000000000E+05,1.34099000000000E+05,1.24596000000000E+05,1.37334000000000E+05,1.24970000000000E+05,1.09031000000000E+05,,,,
GRD,,,,,,,,,,,,,,,,,,,,,,,,,,,,,,,,,,,,,,,,,,,1.25300000000000E+03,1.05200000000000E+03,7.56000000000000E+02,6.75000000000000E+02,,1.01600000000000E+03,,3.74000000000000E+02,4.50000000000000E+02,
GTM,,,,,,,,,,,,,,,,,,,,,,,,,,,,,,,,,,,,,,,1.34986000000000E+05,1.32090000000000E+05,1.44758000000000E+05,1.56439000000000E+05,1.73590000000000E+05,1.87945000000000E+05,2.02299000000000E+05,2.21795000000000E+05,2.39111000000000E+05,2.46643000000000E+05,2.53330000000000E+05,,2.69228000000000E+05,
GUY,,,,,,,,,,,,,,,,,,,,,,,,,,,,,,,,,,,,,,,,7.35300000000000E+03,7.89400000000000E+03,6.21000000000000E+03,6.62200000000000E+03,5.58900000000000E+03,6.92800000000000E+03,6.81200000000000E+03,,7.08900000000000E+03,5.06100000000000E+03,7.13200000000000E+03,5.34900000000000E+03,
HKG,,,,,,,,,,,,,,,,,,,,,,,,,,,,,,,,,,,,,,,,,,1.49530000000000E+04,1.36760000000000E+04,1.15450000000000E+04,1.17300000000000E+04,1.03490000000000E+04,8.80700000000000E+03,7.67400000000000E+03,6.43000000000000E+03,5.78600000000000E+03,5.61000000000000E+03,
HND,,,,,,,,,,,,,,,,,,,,,,,,,,,,,,,,,,,,,,,,,,,,,,,,1.71121000000000E+05,2.60846000000000E+05,,2.25446000000000E+05,
HRV,,,,,,,,,,,,,,,,,,,,,,,,,,,,,,,,,,,,,,,,1.51125000000000E+05,1.46399000000000E+05,1.45002000000000E+05,1.44594000000000E+05,1.45510000000000E+05,,1.54267000000000E+05,1.51456000000000E+05,1.49866000000000E+05,1.46949000000000E+05,1.44872000000000E+05,,
HTI,,,,,,,,,,,,,,,,,,,,,,,,,,,,,,,,3.59000000000000E+03,,,,,,,,,,,,,,,,,,,,
HUN,,,,,,,,,,,,,,,,,,,,,,,,,,,,,,,,,,,,,,,4.39950000000000E+04,5.50440000000000E+04,5.08210000000000E+04,5.77720000000000E+04,6.54000000000000E+04,6.72690000000000E+04,1.30498000000000E+05,1.30983000000000E+05,1.29434000000000E+05,1.27829000000000E+05,1.30557000000000E+05,1.31455000000000E+05,,
IDN,,,,,,,,,,,,,,,,,,,,,,,,,,,,,,,,,,,,,,,,,2.05389300000000E+06,,2.02746400000000E+06,2.09975300000000E+06,2.19844300000000E+06,2.16406800000000E+06,2.23192700000000E+06,2.40173200000000E+06,2.73896200000000E+06,3.09570400000000E+06,,
IND,,,,,,,,,,,,,,,,,,,,,,,,,,,,,,,,,,,,,,,1.51829700000000E+06,5.57310000000000E+05,6.18116000000000E+05,5.13548000000000E+05,6.19303000000000E+05,7.10376000000000E+05,7.40942000000000E+05,7.42330000000000E+05,7.49510000000000E+05,7.42331000000000E+05,8.29377000000000E+05,,,
IRL,,,,,,,,,,,,,,,,,,,,,,,,,,,,,,,,,,,,,,,,,,,,,4.98360000000000E+04,5.05020000000000E+04,5.02550000000000E+04,5.13070000000000E+04,5.26360000000000E+04,5.61140000000000E+04,,
IRN,,,,,,,,,,,,,,,,,,,,,,,,,,,,,,,,,,,,,,,,5.86235000000000E+05,6.73343000000000E+05,6.98697000000000E+05,7.36199000000000E+05,8.19264000000000E+05,8.71717000000000E+05,8.75814000000000E+05,8.94355000000000E+05,8.65449000000000E+05,8.38451000000000E+05,8.96552000000000E+05,,
IRQ,,,,,,,,,,,,,,,,,,,,,,,,,,,,,,,,,,,,,,,,6.67250000000000E+04,7.57080000000000E+04,7.82840000000000E+04,8.06060000000000E+04,1.16865000000000E+05,1.34946000000000E+05,,,7.08690000000000E+04,,,,
ISL,,,,,,,,,,,,,,,,,,,,,,,,,,,,,,,,,,,,,,,6.51400000000000E+03,6.43900000000000E+03,6.57600000000000E+03,7.14900000000000E+03,7.70900000000000E+03,7.26600000000000E+03,7.30000000000000E+03,7.24100000000000E+03,7.34000000000000E+03,7.00100000000000E+03,7.25400000000000E+03,7.24100000000000E+03,,
ISR,,,,,,,,,,,,,,,,,,,,,,,,,,,,,,,,,,,,,,,,1.38825000000000E+05,1.13337000000000E+05,1.15424000000000E+05,1.25674000000000E+05,1.24629000000000E+05,1.24690000000000E+05,1.24559000000000E+05,1.23500000000000E+05,1.22741000000000E+05,1.24842000000000E+05,1.29196000000000E+05,,
ITA,,,,,,,,,,,,,,,,,,,,,,,,,,,,,,,,,,,,,,,,1.66835300000000E+06,6.36068000000000E+05,6.88093000000000E+05,7.20344000000000E+05,6.98717000000000E+05,1.69564900000000E+06,1.66940900000000E+06,1.67555900000000E+06,1.68741900000000E+06,1.69048300000000E+06,1.66256600000000E+06,,
JAM,,,,,,,,,,,,,,,,,,,,,,,,,,,,,,,,,,,,,,,,4.42000000000000E+02,4.57000000000000E+02,4.98000000000000E+02,3.82000000000000E+02,3.76000000000000E+02,0.00000000000000E+00,0.00000000000000E+00,,0.00000000000000E+00,0.00000000000000E+00,,,
JOR,,,,,,,,,,,,,,,,,,,,,,,,,,,,,,,,,,,,,,,,4.18210000000000E+04,4.15340000000000E+04,,4.24810000000000E+04,3.48550000000000E+04,3.55020000000000E+04,3.09490000000000E+04,3.23300000000000E+04,3.14320000000000E+04,2.81850000000000E+04,,,
JPN,,,,,,,,,,,,,,,,,,,,,,,,,,,,,,,,,,,,,,,1.21898700000000E+06,1.17021600000000E+06,1.14447500000000E+06,1.12537500000000E+06,1.09167600000000E+06,1.04772000000000E+06,1.01500500000000E+06,9.93848000000000E+05,9.60517000000000E+05,9.22184000000000E+05,8.89381000000000E+05,8.72418000000000E+05,,
KAZ,,,,,,,,,,,,,,,,,,,,,,,,,,,,,,,,,,,,,,,9.57080000000000E+04,9.48630000000000E+04,8.98630000000000E+04,8.60890000000000E+04,8.73270000000000E+04,9.07780000000000E+04,9.80450000000000E+04,1.01799000000000E+05,1.04184000000000E+05,1.06098000000000E+05,1.06769000000000E+05,1.08018000000000E+05,1.15504000000000E+05,
KEN,,,,,,,,,,,,,,,,,,,,,,,,,,,,,,,,,,,,,,,9.26100000000000E+03,9.60300000000000E+03,9.03900000000000E+03,1.27540000000000E+04,1.46640000000000E+04,1.41060000000000E+04,,,2.29520000000000E+04,2.50170000000000E+04,2.96970000000000E+04,1.56720000000000E+04,,
KGZ,,,,,,,,,,,,,,,,,,,,,,,,,,,,,,,,,,,,,,,,2.54690000000000E+04,2.55880000000000E+04,2.65410000000000E+04,2.59030000000000E+04,2.59720000000000E+04,2.76980000000000E+04,2.84810000000000E+04,2.86230000000000E+04,2.93190000000000E+04,2.12320000000000E+04,2.19950000000000E+04,2.25100000000000E+04,
KHM,,,,,,,,,,,,,,,,,,,,,,,,,,,,,,,,,,,,,,,9.38200000000000E+03,8.17600000000000E+03,8.04900000000000E+03,7.85600000000000E+03,8.81400000000000E+03,1.45370000000000E+04,1.54190000000000E+04,,1.29350000000000E+04,1.89200000000000E+04,,,,
KIR,,,,,,,,,,,,,,,,,,,,,,,,,,,,,,,,,,,,,,,,0.00000000000000E+00,0.00000000000000E+00,0.00000000000000E+00,0.00000000000000E+00,0.00000000000000E+00,0.00000000000000E+00,0.00000000000000E+00,,0.00000000000000E+00,0.00000000000000E+00,,,
KOR,,,,,,,,,,,,,,,,,,,,,,,,,,,,,,,,,,,,,,,9.36523000000000E+05,8.60150000000000E+05,7.53587000000000E+05,6.56606000000000E+05,5.80274000000000E+05,5.46401000000000E+05,5.14550000000000E+05,5.03104000000000E+05,4.94349000000000E+05,4.94011000000000E+05,4.87492000000000E+05,4.80826000000000E+05,,
KWT,,,,,,,,,,,,,,,,,,,,,,,,,,,,,,,,,,,,,,,,3.99100000000000E+03,4.14500000000000E+03,4.23700000000000E+03,4.42100000000000E+03,1.35920000000000E+04,1.55610000000000E+04,1.48220000000000E+04,5.17400000000000E+03,4.60200000000000E+03,3.77900000000000E+03,4.35600000000000E+03,,
LAO,,,,,,,,,,,,,,,,,,,,,,,,,,,,,,,,,,,,,,,,3.11000000000000E+03,3.78900000000000E+03,4.01900000000000E+03,4.54200000000000E+03,5.05300000000000E+03,5.15900000000000E+03,5.81200000000000E+03,4.74100000000000E+03,3.74100000000000E+03,2.50700000000000E+03,,,
LBN,,,,,,,,,,,,,,,,,,,,,,,,,,,,,,,,,,,,,,,,3.82800000000000E+04,,,,,,,5.01980000000000E+04,5.19200000000000E+04,5.70100000000000E+04,6.26030000000000E+04,5.67130000000000E+04,
LBR,,,,,,,,,,,,,,,,,,,,,,,,,,,,,,,,,,,,,,,,1.97520000000000E+04,4.50670000000000E+04,,,,,,,,,,,
LBY,,,,,,,,,,,,,,,,,,,,,,,,,,,,,,,,,,,,,,,,,,2.45165000000000E+05,1.83393000000000E+05,1.78052000000000E+05,,,,,,,,
LCA,,,,,,,,,,,,,,,,,,,,,,,,,,,,,,,,,,,,,,,,,,,,6.60000000000000E+02,6.39000000000000E+02,7.57000000000000E+02,6.03000000000000E+02,2.84000000000000E+02,2.40000000000000E+02,1.59000000000000E+02,1.28000000000000E+02,
LIE,,,,,,,,,,,,,,,,,,,,,,,,,,,,,,,,,,,,,,,,,,,,0.00000000000000E+00,5.90000000000000E+01,0.00000000000000E+00,0.00000000000000E+00,0.00000000000000E+00,0.00000000000000E+00,0.00000000000000E+00,,
LKA,,,,,,,,,,,,,,,,,,,,,,,,,,,,,,,,0.00000000000000E+00,,,,,,,,,,,,,,,,,,,,
LSO,,,,,,,,,,,,,,,,,,,,,,,,,,,,,,,,,,,,,,,9.73000000000000E+02,1.18300000000000E+03,1.32100000000000E+03,1.34700000000000E+03,1.12800000000000E+03,1.16900000000000E+03,1.72200000000000E+03,1.40000000000000E+03,1.52800000000000E+03,,,,2.51600000000000E+03,
LTU,,,,,,,,,,,,,,,,,,,,,,,,,,,,,,,,,,,,,,,,5.13570000000000E+04,4.64110000000000E+04,4.04540000000000E+04,3.76500000000000E+04,3.69740000000000E+04,3.81970000000000E+04,3.84680000000000E+04,3.80110000000000E+04,3.76870000000000E+04,3.70710000000000E+04,3.68950000000000E+04,,
LUX,,,,,,,,,,,,,,,,,,,,,,,,,,,,,,,,,,,,,,,,1.06220000000000E+04,1.08530000000000E+04,1.11720000000000E+04,1.13130000000000E+04,1.15580000000000E+04,1.13690000000000E+04,1.13350000000000E+04,1.15530000000000E+04,1.18430000000000E+04,1.20430000000000E+04,,,
LVA,,,,,,,,,,,,,,,,,,,,,,,,,,,,,,,,,,,,,,,,3.50670000000000E+04,3.99850000000000E+04,4.00090000000000E+04,4.01640000000000E+04,3.91230000000000E+04,4.02970000000000E+04,4.01570000000000E+04,3.84060000000000E+04,3.69230000000000E+04,3.56410000000000E+04,3.59950000000000E+04,,
MAC,,,,,,,,,,,,,,,,,,,,,,,,,,,,,,,,,,,,,,,,1.36100000000000E+03,2.19000000000000E+03,2.47800000000000E+03,2.58800000000000E+03,2.59500000000000E+03,2.54200000000000E+03,2.41000000000000E+03,2.33600000000000E+03,1.42900000000000E+03,1.17200000000000E+03,1.18500000000000E+03,1.27100000000000E+03,
MAR,,,,,,,,,,,,,,,,,,,,,,,,,,,,,,,,,,,,,,,,1.03448000000000E+05,1.00112000000000E+05,1.04745000000000E+05,9.93190000000000E+04,1.06097000000000E+05,1.14698000000000E+05,1.17690000000000E+05,1.18515000000000E+05,1.21900000000000E+05,,,,
MCO,,,,,,,,,,,,,,,,,,,,,,,,,,,,,,,,,,,,,,,,4.96000000000000E+02,4.75000000000000E+02,4.66000000000000E+02,,,4.78000000000000E+02,,,,3.72000000000000E+02,5.77000000000000E+02,5.41000000000000E+02,
MDA,,,,,,,,,,,,,,,,,,,,,,,,,,,,,,,,,,,,,,,,3.24760000000000E+04,2.29720000000000E+04,2.28040000000000E+04,2.29990000000000E+04,2.26470000000000E+04,2.96610000000000E+04,3.45880000000000E+04,3.80690000000000E+04,3.70530000000000E+04,3.84390000000000E+04,3.97600000000000E+04,3.55130000000000E+04,
MDG,,,,,,,,,,,,,,,,,,,,,,,,,,,,,,,,,,,,,,,,,,,,,,2.83390000000000E+04,2.85890000000000E+04,2.81310000000000E+04,3.30920000000000E+04,,,
MDV,,,,,,,,,,,,,,,,,,,,,,,,,,,,,,,,,,,,,,,,,4.57000000000000E+02,1.52100000000000E+03,2.96000000000000E+02,1.09100000000000E+03,1.11500000000000E+03,,,,,,,
MEX,,,,,,,,,,,,,,,,,,,,,,,,,,,,,,,,,,,,,,,,1.23845200000000E+06,1.36719900000000E+06,1.41324300000000E+06,1.44855000000000E+06,1.59201400000000E+06,1.53960200000000E+06,1.48418700000000E+06,1.60186200000000E+06,1.67560600000000E+06,1.85549700000000E+06,1.76350900000000E+06,,
MHL,,,,,,,,,,,,,,,,,,,,,,,,,,,,,,,,,,,,,,,,,,,,,,,,1.95000000000000E+02,,,,
MKD,,,,,,,,,,,,,,,,,,,,,,,,,,,,,,,,,,,,,,,,5.90270000000000E+04,5.96650000000000E+04,5.90870000000000E+04,5.77150000000000E+04,5.88910000000000E+04,5.82600000000000E+04,5.80590000000000E+04,,5.81150000000000E+04,5.68950000000000E+04,5.60140000000000E+04,,
MLI,,,,,,,,,,,,,,,,,,,,,,,,,,,,,,,,,,,,,,,,2.67840000000000E+04,3.31000000000000E+04,3.36270000000000E+04,3.73040000000000E+04,3.78980000000000E+04,3.96690000000000E+04,4.21960000000000E+04,4.54220000000000E+04,5.46930000000000E+04,7.52670000000000E+04,8.90320000000000E+04,1.04666000000000E+05,
MLT,,,,,,,,,,,,,,,,,,,,,,,,,,,,,,,,,,,,,,,,4.44500000000000E+03,3.63600000000000E+03,4.28600000000000E+03,2.97500000000000E+03,2.32700000000000E+03,6.70400000000000E+03,6.42000000000000E+03,,5.56100000000000E+03,5.73500000000000E+03,7.73900000000000E+03,,
MMR,,,,,,,,,,,,,,,,,,,,,,,,,,,,,,,,,,,,,,,,0.00000000000000E+00,0.00000000000000E+00,0.00000000000000E+00,0.00000000000000E+00,0.00000000000000E+00,0.00000000000000E+00,0.00000000000000E+00,0.00000000000000E+00,0.00000000000000E+00,0.00000000000000E+00,0.00000000000000E+00,0.00000000000000E+00,
MNE,,,,,,,,,,,,,,,,,,,,,,,,,,,,,,,,,,,,,,,,,,,,2.24520000000000E+04,2.19180000000000E+04,2.19710000000000E+04,2.20110000000000E+04,2.17130000000000E+04,2.17170000000000E+04,2.15110000000000E+04,2.15820000000000E+04,
MNG,,,,,,,,,,,,,,,,,,,,,,,,,,,,,,,,,,,,,,,1.23200000000000E+04,9.58400000000000E+03,9.25100000000000E+03,1.05540000000000E+04,1.30560000000000E+04,1.69000000000000E+04,2.05590000000000E+04,2.04840000000000E+04,2.20150000000000E+04,2.47660000000000E+04,,2.63370000000000E+04,2.78830000000000E+04,
MOZ,,,,,,,,,,,,,,,,,,,,,,,,,,,,,,,,,,,,,,,,2.05730000000000E+04,2.00470000000000E+04,2.08800000000000E+04,2.24550000000000E+04,,2.35060000000000E+04,2.52870000000000E+04,2.62690000000000E+04,2.77810000000000E+04,2.94870000000000E+04,3.73250000000000E+04,3.51620000000000E+04,
MRT,,,,,,,,,,,,,,,,,,,,,,,,,,,,,,,,,,,,,,,,1.68200000000000E+03,1.87100000000000E+03,1.91600000000000E+03,1.89300000000000E+03,3.12900000000000E+03,3.33800000000000E+03,3.25600000000000E+03,3.17400000000000E+03,,,,,
MUS,,,,,,,,,,,,,,,,,,,,,,,,,,,,,,,,,,,,,,,7.15300000000000E+03,8.88300000000000E+03,9.98400000000000E+03,1.01990000000000E+04,1.20790000000000E+04,1.43870000000000E+04,1.65680000000000E+04,,,,,,,
MWI,,,,,,,,,,,,,,,,,,,,,,,,,,,,,,,,,,,,,,,,0.00000000000000E+00,0.00000000000000E+00,0.00000000000000E+00,0.00000000000000E+00,0.00000000000000E+00,0.00000000000000E+00,0.00000000000000E+00,0.00000000000000E+00,0.00000000000000E+00,0.00000000000000E+00,0.00000000000000E+00,0.00000000000000E+00,
MYS,,,,,,,,,,,,,,,,,,,,,,,,,,,,,,,,,,,,,,,9.21910000000000E+04,1.24816000000000E+05,1.31511000000000E+05,1.34302000000000E+05,1.41242000000000E+05,1.38521000000000E+05,1.48212000000000E+05,1.45755000000000E+05,1.46753000000000E+05,1.57812000000000E+05,1.66295000000000E+05,,,
NAM,,,,,,,,,,,,,,,,,,,,,,,,,,,,,,,,,,,,,,,0.00000000000000E+00,,,,,,,,,,,,,
NER,,,,,,,,,,,,,,,,,,,,,,,,,,,,,,,,,,,,,,,,6.57100000000000E+03,6.40200000000000E+03,5.88800000000000E+03,2.73600000000000E+03,2.20700000000000E+03,3.19200000000000E+03,4.60800000000000E+03,6.33500000000000E+03,2.50100000000000E+03,2.39000000000000E+03,6.41200000000000E+03,2.55500000000000E+03,
NGA,,,,,,,,,,,,,,,,,,,,,,,,,,,,,,,,,,,,,,,,,,,,,,,,2.62479000000000E+05,,,,
NIC,,,,,,,,,,,,,,,,,,,,,,,,,,,,,,,,,,,,,,,,1.73240000000000E+04,1.78560000000000E+04,1.87380000000000E+04,1.89390000000000E+04,2.18430000000000E+04,2.20580000000000E+04,2.25800000000000E+04,2.25400000000000E+04,1.94370000000000E+04,1.53300000000000E+04,,6.88000000000000E+03,
NLD,,,,,,,,,,,,,,,,,,,,,,,,,,,,,,,,,,,,,,,,4.56479000000000E+05,4.64948000000000E+05,4.87832000000000E+05,4.77072000000000E+05,4.89444000000000E+05,7.24593000000000E+05,7.25638000000000E+05,6.56904000000000E+05,6.71319000000000E+05,6.84821000000000E+05,6.90076000000000E+05,,
NOR,,,,,,,,,,,,,,,,,,,,,,,,,,,,,,,,,,,,,,,1.12427000000000E+05,1.19238000000000E+05,1.22294000000000E+05,1.19650000000000E+05,1.18771000000000E+05,1.24230000000000E+05,1.32089000000000E+05,1.31927000000000E+05,1.34432000000000E+05,1.35431000000000E+05,1.31874000000000E+05,1.27521000000000E+05,,
NPL,,,,,,,,,,,,,,,,,,,,,,,,,,,,,,,,,,,,,,,,2.84620000000000E+04,1.84630000000000E+04,2.08560000000000E+04,2.05460000000000E+04,1.57080000000000E+04,,2.16020000000000E+04,2.15880000000000E+04,1.84690000000000E+04,1.50530000000000E+04,,,
NZL,,,,,,,,,,,,,,,,,,,,,,,,,,,,,,,,,,,,,,,4.77090000000000E+04,,,,5.55910000000000E+04,,,,,,,1.15248000000000E+05,,
PAK,,,,,,,,,,,,,,,,,,,,,,,,,,,,,,,,,,,,,,,,,,,,1.69454000000000E+05,1.92812000000000E+05,2.26804000000000E+05,2.84013000000000E+05,3.30738000000000E+05,3.42350000000000E+05,3.88310000000000E+05,4.12156000000000E+05,
PAN,,,,,,,,,,,,,,,,,,,,,,,,,,,,,,,,,,,,,,,1.01000000000000E+05,1.01310000000000E+05,9.99760000000000E+04,1.01170000000000E+05,1.03350000000000E+05,1.04254000000000E+05,1.02047000000000E+05,9.83350000000000E+04,4.77760000000000E+04,4.29910000000000E+04,4.28430000000000E+04,4.45150000000000E+04,4.48920000000000E+04,
PER,,,,,,,,,,,,,,,,,,,,,,,,,,,,,,,,,,,,,,,,,,,,5.96580000000000E+04,6.29120000000000E+04,5.72840000000000E+04,4.86370000000000E+04,4.97700000000000E+04,4.23790000000000E+04,1.45610000000000E+04,,
PNG,,,,,,,,,,,,,,,,,,,,,,,,,,,,,,,,8.83300000000000E+03,,,,,,,,,,,,,,,,,,,,
POL,,,,,,,,,,,,,,,,,,,,,,,,,,,,,,,,,,,,,,,1.76207700000000E+06,1.75981000000000E+06,1.74935300000000E+06,1.72557000000000E+06,1.33830400000000E+06,1.18096400000000E+06,8.76864000000000E+05,8.13589000000000E+05,7.79359000000000E+05,7.84223000000000E+05,8.06094000000000E+05,8.16222000000000E+05,,
PRT,,,,,,,,,,,,,,,,,,,,,,,,,,,,,,,,,,,,,,,,1.02343000000000E+05,9.84900000000000E+04,1.14438000000000E+05,1.14920000000000E+05,1.05753000000000E+05,9.35520000000000E+04,1.10303000000000E+05,1.10647000000000E+05,1.24721000000000E+05,1.53204000000000E+05,1.77350000000000E+05,,
PRY,,,,,,,,,,,,,,,,,,,,,,,,,,,,,,,,,,,,,,,2.25120000000000E+04,3.11360000000000E+04,3.46390000000000E+04,3.98610000000000E+04,4.53920000000000E+04,4.68190000000000E+04,4.72140000000000E+04,4.72400000000000E+04,4.87680000000000E+04,5.14310000000000E+04,5.38870000000000E+04,5.56170000000000E+04,,
QAT,,,,,,,,,,,,,,,,,,,,,,,,,,,,,,,,,,,,,,,,7.41000000000000E+02,7.60000000000000E+02,7.38000000000000E+02,5.52000000000000E+02,5.57000000000000E+02,4.93000000000000E+02,5.19000000000000E+02,5.84000000000000E+02,,6.04000000000000E+02,6.32000000000000E+02,6.02000000000000E+02,
ROM,,,,,,,,,,,,,,,,,,,,,,,,,,,,,,,,,,,,,,,,6.54738000000000E+05,5.73110000000000E+05,5.92465000000000E+05,6.16707000000000E+05,6.50482000000000E+05,6.72707000000000E+05,6.93340000000000E+05,6.82531000000000E+05,6.68899000000000E+05,6.55271000000000E+05,6.19797000000000E+05,,
RUS,,,,,,,,,,,,,,,,,,,,,,,,,,,,,,,,,,,,,,,,1.67580000000000E+06,,,,1.98527500000000E+06,2.03259300000000E+06,2.02348200000000E+06,1.95764200000000E+06,1.84150400000000E+06,1.67135900000000E+06,1.55675800000000E+06,,
RWA,,,,,,,,,,,,,,,,,,,,,,,,,,,,,,,,,,,,,,,,2.78670000000000E+04,3.19930000000000E+04,,3.75120000000000E+04,3.87200000000000E+04,4.04750000000000E+04,3.99350000000000E+04,4.19580000000000E+04,4.33490000000000E+04,4.68930000000000E+04,5.43890000000000E+04,,
SAU,,,,,,,,,,,,,,,,,,,,,,,,,,,,,,,,,,,,,,,,,,,,,,8.56200000000000E+04,,7.96020000000000E+04,1.03555000000000E+05,,,
SDN,,,,,,,,,,,,,,,,,,,,,,,,,,,,,,,,,,,,,,,,2.60400000000000E+04,2.57080000000000E+04,3.06570000000000E+04,3.10280000000000E+04,2.85980000000000E+04,2.77070000000000E+04,1.78010000000000E+04,,3.11390000000000E+04,3.05470000000000E+04,2.80250000000000E+04,,
SEN,,,,,,,,,,,,,,,,,,,,,,,,,,,,,,,,,,,,,,,,4.14600000000000E+03,4.42500000000000E+03,4.45200000000000E+03,3.89700000000000E+03,3.89700000000000E+03,4.28400000000000E+03,4.85900000000000E+03,,,2.40250000000000E+04,,3.74730000000000E+04,
SGP,,,,,,,,,,,,,,,,,,,,,,,,,,,,,,,,,,,,,,,,,,,,,,,,2.78310000000000E+04,2.69980000000000E+04,2.68320000000000E+04,,
SLE,,,,,,,,,,,,,,,,,,,,,,,,,,,,,,,,,,,,,,,,,,2.14540000000000E+04,,,,,,,,,,
SLV,,,,,,,,,,,,,,,,,,,,,,,,,,,,,,,,,,,,,,,9.68130000000000E+04,,8.72800000000000E+04,8.62260000000000E+04,1.00322000000000E+05,1.02974000000000E+05,1.10660000000000E+05,1.07863000000000E+05,1.06908000000000E+05,1.04165000000000E+05,1.04281000000000E+05,1.05755000000000E+05,,
SMR,,,,,,,,,,,,,,,,,,,,,,,,,,,,,,,,,,,,,,,,,0.00000000000000E+00,,,,,,,,5.13000000000000E+02,5.21000000000000E+02,5.17000000000000E+02,
SOM,,,,,,,,,,,,,,,,,,,,,,,,,,,,,,,,6.40000000000000E+03,,,,,,,,,,,,,,,,,,,,
SRB,,,,,,,,,,,,,,,,,,,,,,,,,,,,,,,,,,,,,,,,2.56995000000000E+05,2.51916000000000E+05,2.44962000000000E+05,2.37615000000000E+05,2.37225000000000E+05,2.30847000000000E+05,2.26114000000000E+05,2.22765000000000E+05,2.20352000000000E+05,2.19185000000000E+05,2.19467000000000E+05,2.18418000000000E+05,
STP,,,,,,,,,,,,,,,,,,,,,,,,,,,,,,,,,,,,,,,,,,,,3.70000000000000E+01,5.60000000000000E+01,7.90000000000000E+01,8.80000000000000E+01,1.00000000000000E+02,1.36000000000000E+02,1.62000000000000E+02,1.61000000000000E+02,
SUR,,,,,,,,,,,,,,,,,,,,,,,,,,,,,,,,,,,,,,,,,,1.96120000000000E+04,1.91700000000000E+04,1.79660000000000E+04,,2.15110000000000E+04,2.03010000000000E+04,2.27120000000000E+04,2.25510000000000E+04,2.18970000000000E+04,,
SVK,,,,,,,,,,,,,,,,,,,,,,,,,,,,,,,,,,,,,,,2.58422000000000E+05,2.40606000000000E+05,2.06629000000000E+05,2.05610000000000E+05,2.10209000000000E+05,2.17849000000000E+05,2.27009000000000E+05,2.26857000000000E+05,2.19575000000000E+05,2.14945000000000E+05,2.06234000000000E+05,1.99671000000000E+05,,
SVN,,,,,,,,,,,,,,,,,,,,,,,,,,,,,,,,,,,,,,,,8.75440000000000E+04,8.45340000000000E+04,9.04080000000000E+04,8.71850000000000E+04,8.67380000000000E+04,6.35740000000000E+04,6.17880000000000E+04,5.95920000000000E+04,5.66890000000000E+04,5.35650000000000E+04,5.08690000000000E+04,,
SWE,,,,,,,,,,,,,,,,,,,,,,,,,,,,,,,,,,,,,,,,2.92067000000000E+05,2.82478000000000E+05,2.93265000000000E+05,2.75887000000000E+05,2.58379000000000E+05,1.92615000000000E+05,2.01335000000000E+05,2.10024000000000E+05,2.22570000000000E+05,2.32871000000000E+05,2.37223000000000E+05,,
SWZ,,,,,,,,,,,,,,,,,,,,,,,,,,,,,,,,,,,,,,,0.00000000000000E+00,0.00000000000000E+00,0.00000000000000E+00,3.48000000000000E+02,1.07200000000000E+03,6.86000000000000E+02,0.00000000000000E+00,0.00000000000000E+00,0.00000000000000E+00,0.00000000000000E+00,,0.00000000000000E+00,0.00000000000000E+00,
SYR,,,,,,,,,,,,,,,,,,,,,,,,,,,,,,,,,,,,,,,,1.04434000000000E+05,1.13750000000000E+05,1.14595000000000E+05,1.17505000000000E+05,1.21744000000000E+05,1.28462000000000E+05,1.22356000000000E+05,1.13994000000000E+05,1.03573000000000E+05,1.00258000000000E+05,1.01767000000000E+05,1.06443000000000E+05,
TCA,,,,,,,,,,,,,,,,,,,,,,,,,,,,,,,,,,,,,,,,1.32000000000000E+02,1.23000000000000E+02,1.38000000000000E+02,1.45000000000000E+02,1.25000000000000E+02,1.30000000000000E+02,1.28000000000000E+02,,,,,,
TCD,,,,,,,,,,,,,,,,,,,,,,,,,,,,,,,,,,,,,,,,2.88500000000000E+03,3.31000000000000E+03,3.42900000000000E+03,3.54700000000000E+03,3.47200000000000E+03,3.19500000000000E+03,3.47300000000000E+03,3.75100000000000E+03,3.64000000000000E+03,4.15700000000000E+03,4.70800000000000E+03,5.56800000000000E+03,
TGO,,,,,,,,,,,,,,,,,,,,,,,,,,,,,,,,,,,,,,,,1.54640000000000E+04,1.50870000000000E+04,1.85710000000000E+04,1.97560000000000E+04,2.01010000000000E+04,1.98380000000000E+04,2.73140000000000E+04,2.78400000000000E+04,3.18460000000000E+04,,,,
THA,,,,,,,,,,,,,,,,,,,,,,,,,,,,,,,,,,,,,,,,,,6.23031000000000E+05,5.92370000000000E+05,5.88624000000000E+05,6.17555000000000E+05,6.85710000000000E+05,7.03428000000000E+05,7.67304000000000E+05,7.76531000000000E+05,7.66718000000000E+05,7.52813000000000E+05,
TJK,,,,,,,,,,,,,,,,,,,,,,,,,,,,,,,,,,,,,,,,2.46880000000000E+04,2.38270000000000E+04,2.44500000000000E+04,2.53230000000000E+04,2.55460000000000E+04,2.39110000000000E+04,2.41950000000000E+04,2.49680000000000E+04,2.32840000000000E+04,2.09120000000000E+04,2.12430000000000E+04,2.20280000000000E+04,
TMP,,,,,,,,,,,,,,,,,,,,,,,,,,,,,,,,,,,,,,,,,,0.00000000000000E+00,0.00000000000000E+00,,3.25300000000000E+03,2.80000000000000E+03,,,0.00000000000000E+00,4.04400000000000E+03,5.71900000000000E+03,
TON,,,,,,,,,,,,,,,,,,,,,,,,,,,,,,,,,,,,,,,5.75000000000000E+02,8.96000000000000E+02,8.78000000000000E+02,8.30000000000000E+02,,1.11600000000000E+03,1.12100000000000E+03,,,,,,,
TTO,,,,,,,,,,,,,,,,,,,,,,,,,,,,,,,,,,,,,,,,2.00000000000000E+03,2.01400000000000E+03,2.10000000000000E+03,2.50000000000000E+03,2.55000000000000E+03,8.92000000000000E+02,8.92000000000000E+02,,,,,,
TUN,,,,,,,,,,,,,,,,,,,,,,,,,,,,,,,,,,,,,,,,,1.05038000000000E+05,7.89420000000000E+04,6.36480000000000E+04,,8.65970000000000E+04,1.02811000000000E+05,1.12869000000000E+05,1.20330000000000E+05,1.32476000000000E+05,1.42721000000000E+05,,
TUR,,,,,,,,,,,,,,,,,,,,,,,,,,,,,,,,,,,,,,,,1.22753300000000E+06,1.12960600000000E+06,1.12129100000000E+06,1.24028800000000E+06,1.26107700000000E+06,1.32054200000000E+06,1.03965100000000E+06,1.11226300000000E+06,1.17203000000000E+06,1.17721900000000E+06,1.41909900000000E+06,,
TZA,,,,,,,,,,,,,,,,,,,,,,,,,,,,,,,,,,,,,,,2.28810000000000E+04,2.35670000000000E+04,,,,,,,,,,,,
UGA,,,,,,,,,,,,,,,,,,,,,,,,,,,,,,,,,,,,,,,3.81130000000000E+04,3.99130000000000E+04,2.80430000000000E+04,3.07340000000000E+04,3.16620000000000E+04,3.31270000000000E+04,3.52850000000000E+04,3.19440000000000E+04,,,5.67060000000000E+04,,,
UKR,,,,,,,,,,,,,,,,,,,,,,,,,,,,,,,,,,,,,,,,3.54373000000000E+05,3.53003000000000E+05,3.46106000000000E+05,3.33634000000000E+05,3.26213000000000E+05,3.19633000000000E+05,3.19580000000000E+05,3.11289000000000E+05,2.97306000000000E+05,2.82279000000000E+05,2.72224000000000E+05,2.41706000000000E+05,
URY,,,,,,,,,,,,,,,,,,,,,,,,,,,,,,,,,,,,,,,5.49600000000000E+04,5.42410000000000E+04,5.93970000000000E+04,6.12270000000000E+04,2.82710000000000E+04,3.00350000000000E+04,5.18340000000000E+04,4.68140000000000E+04,5.00750000000000E+04,4.37670000000000E+04,4.20700000000000E+04,3.07410000000000E+04,,
UZB,,,,,,,,,,,,,,,,,,,,,,,,,,,,,,,,,,,,,,,,3.58771000000000E+05,4.03130000000000E+05,3.96968000000000E+05,4.17375000000000E+05,4.85347000000000E+05,5.67906000000000E+05,7.88033000000000E+05,8.90671000000000E+05,1.07499600000000E+06,1.19532900000000E+06,1.38042200000000E+06,,
VCT,,,,,,,,,,,,,,,,,,,,,,,,,,,,,,,,,,,,,,,,,1.74000000000000E+03,1.71100000000000E+03,1.76300000000000E+03,1.71500000000000E+03,1.76900000000000E+03,3.87000000000000E+02,,,,2.79000000000000E+02,,
VEN,,,,,,,,,,,,,,,,,,,,,,,,,,,,,,,,,,,,,,,,3.36600000000000E+04,4.11290000000000E+04,4.62440000000000E+04,5.36220000000000E+04,5.67460000000000E+04,6.83720000000000E+04,7.76590000000000E+04,1.14790000000000E+05,1.17324000000000E+05,1.23584000000000E+05,1.32139000000000E+05,1.22027000000000E+05,
VIR,,,,,,,,,,,,,,,,,,,,,,,,,,,,,,,,0.00000000000000E+00,,,,,,,,,,,,,,,,,,,,
VNM,,,,,,,,,,,,,,,,,,,,,,,,,,,,,,,,,,,,,,,,1.78244000000000E+05,1.82994000000000E+05,2.00225000000000E+05,1.94831000000000E+05,3.09807000000000E+05,3.60392000000000E+05,4.66504000000000E+05,5.00252000000000E+05,5.15670000000000E+05,6.14500000000000E+05,,,
VUT,,,,,,,,,,,,,,,,,,,,,,,,,,,,,,,,,,,,,,,9.01000000000000E+02,9.33000000000000E+02,1.86600000000000E+03,2.18800000000000E+03,2.70300000000000E+03,3.16200000000000E+03,3.24600000000000E+03,,,,0.00000000000000E+00,0.00000000000000E+00,1.97700000000000E+03,
WBG,,,,,,,,,,,,,,,,,,,,,,,,,,,,,,,,,,,,,,,,2.27400000000000E+03,2.89800000000000E+03,3.60500000000000E+03,4.04500000000000E+03,4.28300000000000E+03,4.54800000000000E+03,5.27900000000000E+03,5.89000000000000E+03,6.31700000000000E+03,6.58200000000000E+03,8.20300000000000E+03,9.25400000000000E+03,
YEM,,,,,,,,,,,,,,,,,,,,,,,,,,,,,,,,,,,,,,,,9.38900000000000E+03,1.08260000000000E+04,,,9.23300000000000E+03,9.42400000000000E+03,1.00490000000000E+04,,,,,,
ZAF,,,,,,,,,,,,,,,,,,,,,,,,,,,,,,,,,,,,,,,1.60351000000000E+05,1.60351000000000E+05,1.98328000000000E+05,2.21128000000000E+05,2.45108000000000E+05,2.59959000000000E+05,2.75589000000000E+05,2.26966000000000E+05,,,,2.69054000000000E+05,,
ZAR,,,,,,,,,,,,,,,,,,,,,,,,,,,,,,,,,,,,,,,,3.71803000000000E+05,,,4.31427000000000E+05,,,,,5.61896000000000E+05,6.00961000000000E+05,6.16992000000000E+05,,
ZMB,,,,,,,,,,,,,,,,,,,,,,,,,,,,,,,,,,,,,,,5.78800000000000E+03,,,,,,,,,,,,,
