"Country Code",1960,1961,1962,1963,1964,1965,1966,1967,1968,1969,1970,1971,1972,1973,1974,1975,1976,1977,1978,1979,1980,1981,1982,1983,1984,1985,1986,1987,1988,1989,1990,1991,1992,1993,1994,1995,1996,1997,1998,1999,2000,2001,2002,2003,2004,2005,2006,2007,2008,2009,2010,2011ABW,,,,,,,,,,,,,,,,,,,,,,,,,,,,,,,,,,,,,,,,2.61586800000000E+01,2.36932500000000E+01,2.32693000000000E+01,2.14212900000000E+01,2.20492900000000E+01,2.11808800000000E+01,2.57290400000000E+01,2.46734000000000E+01,2.70002900000000E+01,2.67405500000000E+01,2.52832300000000E+01,2.66506300000000E+01,
ADO,,,,,,,,,,,,,,,,,,,,,,,,,,,,,,,,,,,,,,,,,,,6.74044000000000E+00,7.51556000000000E+00,7.92910000000000E+00,7.83217000000000E+00,9.01246000000000E+00,,9.27688000000000E+00,,,
AFG,,,,,,,,,,,1.12966000000000E+00,,1.41514000000000E+00,1.59804000000000E+00,1.53916000000000E+00,1.64451000000000E+00,1.87534000000000E+00,1.93294000000000E+00,2.54787000000000E+00,2.86652000000000E+00,,,,,,,3.38297000000000E+00,,,,2.83629000000000E+00,,,,,,,,,,,,,1.73958000000000E+00,1.75514000000000E+00,,,,,5.25218000000000E+00,,
AGO,,,,,,,,,,,,4.97270000000000E-01,,,,,,,,,,,5.80910000000000E-01,,,,,,,,1.00341000000000E+00,,,,,,,,7.43960000000000E-01,7.29130000000000E-01,,,1.04341000000000E+00,,,,,,,,4.09214000000000E+00,
ALB,,,,,,,,,,,,1.88623800000000E+01,2.03291000000000E+01,,,,,,6.14253000000000E+00,,,4.80947000000000E+00,,5.78579000000000E+00,6.63010000000000E+00,7.33364000000000E+00,7.47068000000000E+00,7.24130000000000E+00,7.31429000000000E+00,7.53463000000000E+00,7.60064000000000E+00,6.50153000000000E+00,8.45898000000000E+00,7.23733000000000E+00,9.82707000000000E+00,,,1.19558400000000E+01,,1.31640500000000E+01,1.39136700000000E+01,1.33543100000000E+01,1.27328500000000E+01,1.22517200000000E+01,1.42590800000000E+01,,,,,,,
ARB,,,,,,,,,,,,6.62211373021090E+00,6.96786705834702E+00,7.27440224579500E+00,7.92367222518724E+00,9.14899928424661E+00,1.01214838448068E+01,1.12628489801295E+01,1.16327709829486E+01,1.17304725439675E+01,1.25985221264799E+01,1.41441372848001E+01,1.47439727120129E+01,1.48706539900016E+01,,,1.51392814877580E+01,1.49601191314572E+01,1.51706649261577E+01,,,,,,,,,,,,,,,,2.24541042338994E+01,,,,,,,
ARE,,,,,,,,,,,,,,,,,,,5.94800000000000E-01,1.02159000000000E+00,1.41546000000000E+00,2.38319000000000E+00,2.66786000000000E+00,3.56307000000000E+00,4.85153000000000E+00,5.04771000000000E+00,5.78234000000000E+00,5.68427000000000E+00,5.06692000000000E+00,3.63634000000000E+00,3.36558000000000E+00,3.56248000000000E+00,2.83305000000000E+00,3.31654000000000E+00,,,,,,8.90487000000000E+00,8.97323000000000E+00,1.32580500000000E+01,1.23236300000000E+01,1.22733700000000E+01,,,,,,,,
ARG,,,,,,,,,,,1.53468200000000E+01,1.69769700000000E+01,1.78596400000000E+01,2.14172300000000E+01,2.49214900000000E+01,2.82262700000000E+01,2.80471800000000E+01,2.48284900000000E+01,2.09669600000000E+01,2.19375900000000E+01,2.11567700000000E+01,2.12761900000000E+01,2.21395700000000E+01,2.29106900000000E+01,2.67956500000000E+01,3.36984500000000E+01,3.52465700000000E+01,3.67637200000000E+01,,,,,,,,,,,,3.63711800000000E+01,4.16703500000000E+01,4.70283500000000E+01,5.00739600000000E+01,5.17238100000000E+01,5.40458000000000E+01,5.22157300000000E+01,5.33203600000000E+01,5.30442400000000E+01,5.45599000000000E+01,,,
ARM,,,,,,,,,,,,,,,,,,,,,,,,,,,,,,,,,,,,,1.67842300000000E+01,1.33234800000000E+01,,2.25016400000000E+01,2.26243400000000E+01,2.32714900000000E+01,2.52309600000000E+01,2.38399900000000E+01,2.40149300000000E+01,2.54727100000000E+01,2.90491000000000E+01,3.10179700000000E+01,4.09998100000000E+01,4.38606100000000E+01,4.51986700000000E+01,
ASM,,,,,,,,,,,,0.00000000000000E+00,,,,,,,,,,,,,,,,,,,,,,,,,,,,,,,,,,,,2.12966073228082E+01,,,,
ATG,,,,,,,,,,,,,,,,,,,,,,,,,,,,,,,,,,,,,,,,,,,,,,,,,,9.15641000000000E+00,8.99563000000000E+00,
AUS,,,,,,,,,,,2.10152600000000E+01,2.18110700000000E+01,2.29132900000000E+01,2.40914000000000E+01,2.61457300000000E+01,2.73309100000000E+01,2.74818600000000E+01,2.76941400000000E+01,2.74742500000000E+01,2.71627500000000E+01,2.69557100000000E+01,2.75831000000000E+01,2.74732200000000E+01,2.79334100000000E+01,2.83762300000000E+01,2.85272000000000E+01,2.92551400000000E+01,2.84410900000000E+01,2.95595100000000E+01,3.01311000000000E+01,3.25592600000000E+01,3.53285100000000E+01,3.68178100000000E+01,6.67818000000000E+01,6.71495000000000E+01,6.89570100000000E+01,7.18997600000000E+01,7.56468500000000E+01,5.99340500000000E+01,5.93549700000000E+01,5.87013200000000E+01,5.89739500000000E+01,6.73457200000000E+01,6.54146400000000E+01,6.41270300000000E+01,6.43388800000000E+01,6.29146500000000E+01,6.32897000000000E+01,6.30211300000000E+01,6.54029200000000E+01,,
AUT,,,,,,,,,,,,1.67796400000000E+01,1.79806700000000E+01,1.91291800000000E+01,1.98948800000000E+01,2.02334800000000E+01,2.22715000000000E+01,2.30911600000000E+01,2.32435700000000E+01,2.37313800000000E+01,2.44533500000000E+01,2.52385900000000E+01,2.50280000000000E+01,2.50966000000000E+01,2.58754000000000E+01,2.72477100000000E+01,2.82677300000000E+01,2.95373300000000E+01,3.11710900000000E+01,3.26390400000000E+01,3.46154800000000E+01,3.69264300000000E+01,3.98541300000000E+01,4.19803600000000E+01,4.43800400000000E+01,4.66779500000000E+01,4.86489000000000E+01,4.99394800000000E+01,5.19468100000000E+01,5.34594900000000E+01,5.42725100000000E+01,5.33108300000000E+01,4.29074600000000E+01,4.25762400000000E+01,4.30378100000000E+01,4.33166100000000E+01,4.46602100000000E+01,4.63025000000000E+01,5.10868700000000E+01,5.52598300000000E+01,,
AZE,,,,,,,,,,,,,,,,,,,,,,2.73458400000000E+01,,,,,2.57656800000000E+01,,,,,2.81696100000000E+01,2.97601500000000E+01,2.55813100000000E+01,2.13366800000000E+01,1.89992100000000E+01,1.76902200000000E+01,1.69706800000000E+01,1.74190200000000E+01,1.94357700000000E+01,1.82769500000000E+01,1.81057900000000E+01,1.68453100000000E+01,1.62705800000000E+01,1.54403500000000E+01,1.54705600000000E+01,1.50263400000000E+01,1.57565400000000E+01,1.68022900000000E+01,1.91841000000000E+01,1.93622500000000E+01,
BDI,,,,,,,,,,,,3.06620000000000E-01,3.07850000000000E-01,2.81460000000000E-01,3.81770000000000E-01,4.35300000000000E-01,5.25690000000000E-01,,,7.70940000000000E-01,7.49650000000000E-01,7.18640000000000E-01,7.64220000000000E-01,7.99700000000000E-01,8.05330000000000E-01,8.22990000000000E-01,9.05950000000000E-01,8.36620000000000E-01,1.00853000000000E+00,9.82480000000000E-01,8.92940000000000E-01,1.04605000000000E+00,1.11470000000000E+00,1.23799000000000E+00,,,,,1.24732000000000E+00,1.40528000000000E+00,1.73557000000000E+00,1.70426000000000E+00,2.56639000000000E+00,2.65885000000000E+00,3.47647000000000E+00,3.51342000000000E+00,3.37539000000000E+00,,,,4.22157000000000E+00,
BEL,,,,,,,,,,,,2.14107100000000E+01,2.12936700000000E+01,2.26549100000000E+01,2.33541400000000E+01,2.34225000000000E+01,2.59082800000000E+01,2.69159000000000E+01,2.73814200000000E+01,2.90661200000000E+01,2.80834000000000E+01,2.67524100000000E+01,2.89839400000000E+01,2.93876800000000E+01,3.02251600000000E+01,3.33384600000000E+01,3.37518600000000E+01,3.41537300000000E+01,3.49049900000000E+01,3.71378700000000E+01,3.84493200000000E+01,3.99005500000000E+01,,4.55574800000000E+01,4.82089900000000E+01,5.35000500000000E+01,5.46425200000000E+01,,,5.19803000000000E+01,5.34839900000000E+01,5.35725100000000E+01,5.42077900000000E+01,5.48330700000000E+01,5.58646400000000E+01,5.55714500000000E+01,5.59105000000000E+01,5.54979500000000E+01,5.64793200000000E+01,6.00354900000000E+01,,
BEN,,,,,,,,,,,,2.71530000000000E-01,4.55710000000000E-01,8.16800000000000E-01,1.27246000000000E+00,1.24674000000000E+00,1.34144000000000E+00,,1.88011000000000E+00,1.66645000000000E+00,,,2.92077000000000E+00,3.23052000000000E+00,3.26207000000000E+00,3.38747000000000E+00,4.15560000000000E+00,3.93200000000000E+00,3.89508000000000E+00,,,4.34849000000000E+00,3.95710000000000E+00,3.52974000000000E+00,3.55603000000000E+00,3.54856000000000E+00,3.46134000000000E+00,4.16968000000000E+00,,5.58478000000000E+00,6.37840000000000E+00,7.74741000000000E+00,,,,,,,,,,
BFA,,,,,,,,,,,,6.31500000000000E-02,8.29800000000000E-02,9.38500000000000E-02,1.40760000000000E-01,1.59130000000000E-01,3.35720000000000E-01,2.97670000000000E-01,3.57240000000000E-01,3.70260000000000E-01,3.32430000000000E-01,4.36830000000000E-01,6.63820000000000E-01,7.67140000000000E-01,8.24290000000000E-01,8.95830000000000E-01,9.20390000000000E-01,9.45040000000000E-01,9.97140000000000E-01,1.10499000000000E+00,1.12026000000000E+00,1.03520000000000E+00,1.37703000000000E+00,1.58899000000000E+00,1.51735000000000E+00,1.62458000000000E+00,1.52658000000000E+00,1.43422000000000E+00,,1.40035000000000E+00,1.51519000000000E+00,1.56714000000000E+00,1.91725000000000E+00,2.26944000000000E+00,2.28681000000000E+00,2.93854000000000E+00,3.10059000000000E+00,3.32635000000000E+00,3.94739000000000E+00,4.41479000000000E+00,4.48604000000000E+00,
BGD,,,,,,,,,,,3.28198000000000E+00,,3.45251000000000E+00,,4.37652000000000E+00,,3.46694000000000E+00,3.81757000000000E+00,3.15910000000000E+00,4.64638000000000E+00,4.67970000000000E+00,4.63985000000000E+00,5.23682000000000E+00,6.85866000000000E+00,7.57153000000000E+00,7.66667000000000E+00,7.51851000000000E+00,6.60125000000000E+00,5.82682000000000E+00,5.72190000000000E+00,6.50455000000000E+00,,,,,,,,,7.41381000000000E+00,7.37308000000000E+00,8.47170000000000E+00,8.26562000000000E+00,8.28602000000000E+00,7.65763000000000E+00,8.12748000000000E+00,9.07939000000000E+00,9.81125000000000E+00,1.10595200000000E+01,1.31326000000000E+01,,
BGR,,,,,,,,,,,,1.38459800000000E+01,1.41660400000000E+01,1.53204100000000E+01,1.56917700000000E+01,1.60636400000000E+01,1.62489300000000E+01,1.62533900000000E+01,1.61455300000000E+01,1.50342200000000E+01,1.42733700000000E+01,1.38324600000000E+01,1.41900000000000E+01,1.42783200000000E+01,1.46925100000000E+01,1.55799200000000E+01,1.67928200000000E+01,1.82294000000000E+01,1.95893500000000E+01,2.24292300000000E+01,2.42455300000000E+01,2.95507400000000E+01,2.79012300000000E+01,2.68396800000000E+01,2.71990400000000E+01,2.82161800000000E+01,3.05543900000000E+01,3.28539700000000E+01,3.31492100000000E+01,3.55959900000000E+01,3.68732500000000E+01,3.64396000000000E+01,3.63989800000000E+01,3.77835000000000E+01,3.85561600000000E+01,4.11627700000000E+01,4.14225200000000E+01,4.42044800000000E+01,4.39829200000000E+01,4.59859100000000E+01,,
BHR,,,,,,,,,,,,1.25844000000000E+00,1.16002000000000E+00,1.02695000000000E+00,1.81774000000000E+00,1.83461000000000E+00,1.69786000000000E+00,2.85967000000000E+00,3.35258000000000E+00,3.21810000000000E+00,3.56977000000000E+00,5.28921000000000E+00,6.09460000000000E+00,,,1.03851100000000E+01,9.68148000000000E+00,8.75086000000000E+00,1.13417000000000E+01,,,1.50313600000000E+01,1.42795700000000E+01,1.54683600000000E+01,1.45304100000000E+01,1.37712000000000E+01,1.34804600000000E+01,,,1.56883600000000E+01,,,,,,,,,,,,
BHS,,,,,,,,,,,,,,,,,,,,,,,,,,,,,1.21898100000000E+01,,,,,,,8.14422000000000E+00,,,,,,,,,,,,,,,,
BIH,,,,,,,,,,,,,,,,,,,,,,,,,,,,,,,,,,,,,,,,,,,,,,,,,3.04898000000000E+01,3.07529400000000E+01,3.12769200000000E+01,
BLR,,,,,,,,,,,,,,,,,,,,,,,,,,,,,,,,,,,,,3.93833700000000E+01,3.90246100000000E+01,4.24368300000000E+01,4.48207000000000E+01,4.64569500000000E+01,4.83071900000000E+01,4.94566000000000E+01,5.10028500000000E+01,5.23073900000000E+01,5.43610300000000E+01,5.57434500000000E+01,5.67166800000000E+01,5.96083500000000E+01,6.28495800000000E+01,,
BLZ,,,,,,,,,,,,6.10300000000000E-01,5.60080000000000E-01,,4.59840000000000E-01,7.36490000000000E-01,,,,,,,,,,,,,,,,,,,,,,,,,,,,,,,,,,1.64875500000000E+01,1.66656400000000E+01,
BMU,,,,,,,,,,,,,,,,,,,,,,,,,,,,,,,,,,,,,,,,1.14499700000000E+01,1.41004900000000E+01,,1.00588600000000E+01,,1.26163400000000E+01,1.12740100000000E+01,1.01870100000000E+01,1.22781800000000E+01,1.23943700000000E+01,1.25581400000000E+01,1.26335300000000E+01,
BOL,,,,,,,,,,,,,,,,,,,,,,,,,,,,,,,,,,,,,,,3.89091502768861E+01,,,,,,,,,4.19779500000000E+01,,,,
BRA,,,,,,,,,,,5.88800000000000E+00,7.19548000000000E+00,7.86567000000000E+00,8.40714000000000E+00,9.58397000000000E+00,,,,,1.11642200000000E+01,1.14934200000000E+01,,,1.08701100000000E+01,,,,,1.03737100000000E+01,1.03233800000000E+01,1.02997700000000E+01,1.09242700000000E+01,1.05507900000000E+01,1.06302900000000E+01,1.07208600000000E+01,,,,1.19155200000000E+01,1.28692300000000E+01,1.40205100000000E+01,1.54739100000000E+01,1.73271200000000E+01,1.91933600000000E+01,2.05696300000000E+01,2.23753900000000E+01,,2.65335000000000E+01,3.03498900000000E+01,3.07197100000000E+01,,
BRB,,,,,,,,,,,,,,,,,,,,,,,,,,,,,,,,,,,,,,,,2.02165000000000E+01,2.15642800000000E+01,2.25250400000000E+01,,,,,,3.48890600000000E+01,,4.28516900000000E+01,3.97065800000000E+01,
BRN,,,,,,,,,,,,,,,,,,1.69781000000000E+00,1.54362000000000E+00,1.65380000000000E+00,6.07200000000000E-01,5.18560000000000E-01,7.38920000000000E-01,1.00413000000000E+00,2.01058000000000E+00,,2.78970000000000E+00,4.29256000000000E+00,,,,,4.55929000000000E+00,4.64141000000000E+00,4.82667000000000E+00,,,,7.00257000000000E+00,8.42281000000000E+00,9.28940000000000E+00,1.09728500000000E+01,1.08100900000000E+01,1.07329100000000E+01,1.12058000000000E+01,1.12538500000000E+01,1.14685600000000E+01,1.20005100000000E+01,1.18909600000000E+01,1.36782300000000E+01,1.24369600000000E+01,
BTN,,,,,,,,,,,,,,,,,,,5.96290000000000E-01,1.02611000000000E+00,1.32089000000000E+00,,,1.18440000000000E+00,,,,,,,,,,,,,,,,3.22725000000000E+00,3.98337000000000E+00,3.75180000000000E+00,,,,5.57965000000000E+00,6.10082000000000E+00,6.84825000000000E+00,8.16913000000000E+00,,,
BWA,,,,,,,,,,,0.00000000000000E+00,0.00000000000000E+00,4.14170000000000E-01,4.91460000000000E-01,5.11140000000000E-01,7.92380000000000E-01,8.21170000000000E-01,9.19190000000000E-01,1.10610000000000E+00,1.15749000000000E+00,1.48111000000000E+00,1.57898000000000E+00,1.83265000000000E+00,1.88748000000000E+00,2.23018000000000E+00,2.04325000000000E+00,,2.66051000000000E+00,,,,4.89305000000000E+00,,5.54810000000000E+00,6.27279000000000E+00,5.37538000000000E+00,5.77532000000000E+00,,,5.44804000000000E+00,5.75558000000000E+00,6.09986000000000E+00,6.47676000000000E+00,7.44398000000000E+00,7.07434000000000E+00,6.83735000000000E+00,6.91635000000000E+00,,,,,
CAF,,,,,,,,,,,,,,,,,,,,1.33314000000000E+00,1.97716000000000E+00,1.62268000000000E+00,2.26548000000000E+00,1.94861000000000E+00,2.00917000000000E+00,2.02507000000000E+00,2.05835000000000E+00,,1.99023000000000E+00,2.20411000000000E+00,2.34444000000000E+00,2.61306000000000E+00,2.39520000000000E+00,,,,,,,3.21652000000000E+00,3.16487000000000E+00,,,,,,1.77470000000000E+00,,3.39869000000000E+00,3.44706000000000E+00,3.92188000000000E+00,
CAN,,,,,,,,,,,,,,,,,,,,,,,,,,,,,,,8.01515800000000E+01,8.54372700000000E+01,8.78074700000000E+01,8.18113600000000E+01,8.36055900000000E+01,8.32665200000000E+01,8.12328400000000E+01,,5.13921500000000E+01,5.17214700000000E+01,5.08698600000000E+01,,5.10830100000000E+01,,,,,,,,,
CHE,,,,,,,,,,,,,,,,,,2.34277600000000E+01,2.41009800000000E+01,2.49130000000000E+01,2.53518200000000E+01,2.55986600000000E+01,2.56432600000000E+01,2.51651800000000E+01,2.56704800000000E+01,2.81146100000000E+01,2.86531400000000E+01,3.01741100000000E+01,3.14877600000000E+01,3.20921100000000E+01,3.36011900000000E+01,3.49346500000000E+01,3.66743500000000E+01,3.77935600000000E+01,3.88457700000000E+01,3.93685800000000E+01,4.00832300000000E+01,,4.12108000000000E+01,4.28934400000000E+01,4.30559700000000E+01,4.51884700000000E+01,4.59596700000000E+01,4.85317400000000E+01,4.96066100000000E+01,4.88872900000000E+01,4.89339000000000E+01,4.94118900000000E+01,4.98280300000000E+01,5.12344900000000E+01,,
CHL,,,,,,,,,,,1.12036800000000E+01,1.40253300000000E+01,1.69245300000000E+01,,,1.59647700000000E+01,1.43852300000000E+01,1.36968200000000E+01,1.30883600000000E+01,1.28215800000000E+01,1.34078200000000E+01,,,1.59525500000000E+01,1.66761100000000E+01,1.72499300000000E+01,1.85834300000000E+01,1.94076600000000E+01,,,,,,2.88090700000000E+01,2.96718600000000E+01,3.05401000000000E+01,3.29840100000000E+01,3.39673800000000E+01,3.63032800000000E+01,3.97390800000000E+01,3.89041800000000E+01,,4.19188400000000E+01,4.40696400000000E+01,4.38830800000000E+01,4.88540400000000E+01,4.67670300000000E+01,5.20822200000000E+01,5.42650800000000E+01,5.74551800000000E+01,,
CHN,,,,,,,,,,,,,,,4.88470000000000E-01,6.47840000000000E-01,7.66550000000000E-01,8.38820000000000E-01,9.70740000000000E-01,1.41139000000000E+00,1.64752000000000E+00,,,,,,,,,,,,,,,,,,,,,,,1.68458600000000E+01,1.87432200000000E+01,2.02797900000000E+01,2.14998100000000E+01,2.19540100000000E+01,2.20048800000000E+01,2.36025000000000E+01,,
CIV,,,,,,,,,,,,1.66479000000000E+00,1.67514000000000E+00,1.96861000000000E+00,2.01675000000000E+00,,2.11901000000000E+00,2.42605000000000E+00,,3.15955000000000E+00,3.47253000000000E+00,,,,3.78417000000000E+00,,,4.15302000000000E+00,,,,,,,6.20584000000000E+00,5.92598000000000E+00,,,,9.29624000000000E+00,9.52231000000000E+00,,,,,,1.15082400000000E+01,1.18155500000000E+01,,,,
CMR,,,,,,,,,,,,8.56730000000000E-01,1.05020000000000E+00,1.29829000000000E+00,1.55411000000000E+00,1.71513000000000E+00,,,,,,,,,,,,,,,,,,,,,,,,,,,6.05422000000000E+00,6.13121000000000E+00,6.13518000000000E+00,7.01236000000000E+00,7.91162000000000E+00,8.20259000000000E+00,8.94405000000000E+00,1.03513200000000E+01,1.26428600000000E+01,
COG,,,,,,,,,,,,3.05079000000000E+00,2.39969000000000E+00,,,4.32633000000000E+00,4.44188000000000E+00,4.86317000000000E+00,5.61385000000000E+00,6.49048000000000E+00,7.77329000000000E+00,7.89386000000000E+00,9.49634000000000E+00,9.72222000000000E+00,9.71497000000000E+00,9.75553000000000E+00,9.58031000000000E+00,9.52634000000000E+00,9.73673000000000E+00,8.32200000000000E+00,8.04329000000000E+00,7.77460000000000E+00,8.37233000000000E+00,,,,,,,5.77536000000000E+00,7.89662000000000E+00,7.62212000000000E+00,6.48657000000000E+00,6.52440000000000E+00,,,,,,1.06401000000000E+01,8.24611000000000E+00,
COL,,,,,,,,,,,5.94103000000000E+00,,,,7.90112000000000E+00,8.87470000000000E+00,,1.04279800000000E+01,1.05692500000000E+01,1.06438900000000E+01,9.89491000000000E+00,1.12748400000000E+01,1.12622700000000E+01,,1.16348900000000E+01,1.16825300000000E+01,1.23243100000000E+01,1.26726200000000E+01,1.35966300000000E+01,1.32416200000000E+01,,1.43312900000000E+01,,,,1.59836000000000E+01,1.68290500000000E+01,1.95141700000000E+01,2.32149800000000E+01,2.16439600000000E+01,2.30105400000000E+01,2.37380000000000E+01,2.39906500000000E+01,2.36663600000000E+01,2.65354600000000E+01,2.88682200000000E+01,3.06687200000000E+01,3.16874800000000E+01,3.56971800000000E+01,3.62332600000000E+01,3.73853600000000E+01,
COM,,,,,,,,,,,,,,,,,,,,,,,,,,,,,,,1.08651000000000E+00,,8.00080000000000E-01,,,,,,,1.38604000000000E+00,1.47818000000000E+00,,,2.99531000000000E+00,3.01620000000000E+00,,,,,8.26751000000000E+00,9.09259000000000E+00,
CPV,,,,,,,,,,,,,,,,,,,,,,,,,,,,,,,0.00000000000000E+00,,,,,,,,,,1.88190000000000E+00,1.60472000000000E+00,3.84899000000000E+00,4.31687000000000E+00,5.70217000000000E+00,7.30378000000000E+00,8.05186000000000E+00,8.62050000000000E+00,1.04413400000000E+01,1.28617600000000E+01,1.55980600000000E+01,
CRI,,,,,,,,,,,9.70059000000000E+00,1.03379400000000E+01,1.10804600000000E+01,,,,,,,,,,,,,,,,,,,,,,,,,,,,,,,,2.28648000000000E+01,2.27123900000000E+01,,,,,,
CUB,,,,,,,,,,,,4.41850000000000E+00,6.54987000000000E+00,8.75419000000000E+00,9.18542000000000E+00,1.09357300000000E+01,,1.55047500000000E+01,,1.68357200000000E+01,1.71841700000000E+01,1.64393800000000E+01,1.59953200000000E+01,1.56852600000000E+01,1.64930500000000E+01,1.70574700000000E+01,1.82862300000000E+01,1.91575600000000E+01,1.93471700000000E+01,1.80383400000000E+01,1.75486100000000E+01,1.80385300000000E+01,1.69338100000000E+01,1.57174800000000E+01,1.49059500000000E+01,1.20978000000000E+01,1.07578100000000E+01,1.02741800000000E+01,1.01257600000000E+01,1.87808700000000E+01,2.01566700000000E+01,2.36567600000000E+01,2.40926500000000E+01,2.80598100000000E+01,3.95816000000000E+01,4.59325400000000E+01,6.61826900000000E+01,7.53681400000000E+01,8.89647000000000E+01,8.66083600000000E+01,7.22443700000000E+01,
CYM,,,,,,,,,,,,,,,,,,,,,,,,,,,,,,,,,,,,,,,,9.19118000000000E+00,9.31966000000000E+00,9.30451000000000E+00,,,,,1.08857300000000E+01,1.26174500000000E+01,1.89081200000000E+01,,,
CYP,,,,,,,,,,,,1.44853000000000E+00,1.44053000000000E+00,1.78411000000000E+00,1.61113000000000E+00,1.22180000000000E+00,1.14327000000000E+00,1.40757000000000E+00,1.58100000000000E+00,2.49269000000000E+00,2.70792000000000E+00,3.68313000000000E+00,4.00536000000000E+00,3.34078000000000E+00,4.00119000000000E+00,4.77237000000000E+00,5.49885000000000E+00,6.24115000000000E+00,7.63361000000000E+00,8.79784000000000E+00,9.96733000000000E+00,1.21803500000000E+01,9.26286000000000E+00,1.41054700000000E+01,1.39300800000000E+01,1.49526100000000E+01,1.57933800000000E+01,1.88132700000000E+01,,1.86882500000000E+01,1.68909200000000E+01,1.82596700000000E+01,2.22737600000000E+01,3.14476600000000E+01,3.62099400000000E+01,3.12016300000000E+01,3.26448900000000E+01,3.62868900000000E+01,4.35287100000000E+01,5.55818000000000E+01,,
CZE,,,,,,,,,,,,1.13046500000000E+01,1.06893100000000E+01,1.06789400000000E+01,1.14781500000000E+01,1.25547700000000E+01,1.38806500000000E+01,1.55592500000000E+01,1.72469600000000E+01,1.80916100000000E+01,1.91734000000000E+01,1.99632300000000E+01,2.02680900000000E+01,1.99455200000000E+01,1.91493400000000E+01,1.87087100000000E+01,1.81232500000000E+01,1.82675700000000E+01,1.80293800000000E+01,1.75226200000000E+01,1.76444900000000E+01,1.76000000000000E+01,1.59975200000000E+01,1.58550000000000E+01,1.98673100000000E+01,2.11339900000000E+01,2.27418200000000E+01,2.39041400000000E+01,2.48083100000000E+01,2.54683000000000E+01,2.81738900000000E+01,2.94503100000000E+01,3.28640000000000E+01,3.54946900000000E+01,4.12340300000000E+01,4.41212100000000E+01,4.44874800000000E+01,4.71591200000000E+01,4.97700200000000E+01,5.12114800000000E+01,,
DEU,,,,,,,,,,,,,,,,,,,,,,,,,,,,,,,,,4.02641400000000E+01,4.37730200000000E+01,4.65979800000000E+01,4.88835500000000E+01,4.97819300000000E+01,4.99056900000000E+01,,,,,,,,,,,,,,
DJI,,,,,,,,,,,,,,,,,0.00000000000000E+00,,,,,0.00000000000000E+00,,,,,0.00000000000000E+00,,,,,0.00000000000000E+00,1.33260000000000E-01,9.52600000000000E-02,1.28780000000000E-01,,2.31680000000000E-01,2.93700000000000E-01,,2.61190000000000E-01,2.95180000000000E-01,8.14840000000000E-01,1.10307000000000E+00,1.41880000000000E+00,1.61453000000000E+00,2.47631000000000E+00,2.81385000000000E+00,3.08594000000000E+00,,4.06522000000000E+00,,
DMA,,,,,,,,,,,,,,,,,,,,,,,,,,,,,,,,6.29823000000000E+00,,,,,,,,,,,,,,,,,1.66515000000000E+00,,,
DNK,,,,,,,,,,,,2.32115900000000E+01,2.49057000000000E+01,2.76729200000000E+01,3.00189000000000E+01,,3.26495300000000E+01,3.13928400000000E+01,3.35341200000000E+01,2.94490100000000E+01,2.85738000000000E+01,2.82653000000000E+01,2.76102800000000E+01,2.86151700000000E+01,2.86165900000000E+01,2.85581300000000E+01,2.87823200000000E+01,2.89781100000000E+01,2.95232800000000E+01,3.04187200000000E+01,3.22419800000000E+01,3.41027400000000E+01,3.58107300000000E+01,4.11474200000000E+01,4.27557600000000E+01,4.29649700000000E+01,4.31906900000000E+01,,4.60427400000000E+01,4.79323000000000E+01,4.84931800000000E+01,5.14896800000000E+01,5.32380400000000E+01,5.59910300000000E+01,6.18010400000000E+01,6.73948300000000E+01,6.62262500000000E+01,6.55553300000000E+01,6.24950800000000E+01,6.09079800000000E+01,,
DOM,,,,,,,,,,,,7.10115000000000E+00,8.77223000000000E+00,9.35316000000000E+00,,9.75137000000000E+00,,,,,,,,,,,,,,,,,,,,,,1.88187300000000E+01,,,,,,2.60963500000000E+01,2.62853200000000E+01,,,,,,,
DZA,,,,,,,,,,,,2.92669000000000E+00,3.41857000000000E+00,3.60832000000000E+00,3.70655000000000E+00,,,5.53223000000000E+00,6.32835000000000E+00,5.83397000000000E+00,6.35966000000000E+00,,,,,,,,,,,,,,,,,,,,,,,,1.86201700000000E+01,1.85973700000000E+01,1.92832500000000E+01,2.01205200000000E+01,,2.53074300000000E+01,2.51510400000000E+01,
EAP,,,,,,,,,,,,,,,,,,,,,,,,,,,,,,,,,,,,,,,,1.11494100000000E+01,1.21677200000000E+01,1.39253100000000E+01,1.57060600000000E+01,1.78700300000000E+01,1.94097200000000E+01,2.04907200000000E+01,2.12639400000000E+01,2.18482200000000E+01,2.25429700000000E+01,2.38304500000000E+01,,
EAS,,,,,,,,,,,,,,,,,,,,,,,,,,,,,,,,,,,,,,,,1.55994500000000E+01,1.67577100000000E+01,1.85048200000000E+01,2.02300600000000E+01,2.21333600000000E+01,2.34669000000000E+01,2.43541100000000E+01,2.50167200000000E+01,2.55113100000000E+01,2.61379000000000E+01,2.73303700000000E+01,,
ECA,,,,,,,,,,,,,,,,,,,,,,,,,,,,,,,,,,,,,,,,3.36852000000000E+01,3.58095100000000E+01,3.83258500000000E+01,4.08003700000000E+01,4.20809000000000E+01,4.41343100000000E+01,4.56726100000000E+01,4.73714800000000E+01,4.88427400000000E+01,5.00626400000000E+01,4.97167700000000E+01,,
ECS,,,,,,,,,,,,,,,,,,,,,,,,,,,,,,,,,,,,,,,,3.95900500000000E+01,4.12132500000000E+01,4.32129200000000E+01,4.51323800000000E+01,4.64514600000000E+01,4.79408000000000E+01,4.91172900000000E+01,5.02031700000000E+01,5.10897000000000E+01,5.18444700000000E+01,5.20192400000000E+01,,
ECU,,,,,,,,,,,,9.93710000000000E+00,1.07146400000000E+01,1.31169300000000E+01,,,,,,4.07085300000000E+01,4.30133600000000E+01,4.32050600000000E+01,4.04282900000000E+01,,3.79404400000000E+01,,,,3.38037500000000E+01,,,,,,,,,,,,,,,,,,,,3.70646900000000E+01,,,
EGY,,,,,,,,,,,,9.68345000000000E+00,1.05269600000000E+01,1.18079800000000E+01,1.33411800000000E+01,1.52243300000000E+01,1.74121600000000E+01,2.05145000000000E+01,2.14692300000000E+01,2.13475400000000E+01,2.17505800000000E+01,2.27004200000000E+01,2.39007300000000E+01,2.44891000000000E+01,2.52406200000000E+01,2.31173400000000E+01,2.42994400000000E+01,2.50786300000000E+01,2.33081000000000E+01,1.99018400000000E+01,1.82879300000000E+01,1.48971200000000E+01,,,,,,,,,,,,,3.33206100000000E+01,,,,,,,
EMU,,,,,,,,,,,,,,,,,,,,,,,,,,,,,,,,,,,,,,,,4.71421700000000E+01,4.84651400000000E+01,4.98322900000000E+01,5.04599600000000E+01,5.19414200000000E+01,5.30384800000000E+01,5.37935000000000E+01,5.41880900000000E+01,5.43334200000000E+01,5.47488200000000E+01,5.54463000000000E+01,,
ERI,,,,,,,,,,,,,,,,,,,,,,,,,,,,,,,,,,,,1.49914000000000E+00,1.42424000000000E+00,,1.33445000000000E+00,1.62030000000000E+00,1.62965000000000E+00,2.18028000000000E+00,2.17067000000000E+00,2.25171000000000E+00,1.78493000000000E+00,,,,,3.01586000000000E+00,3.01401000000000E+00,
ESP,,,,,,,,,,,,1.26236100000000E+01,1.36781400000000E+01,1.92760900000000E+01,2.06351200000000E+01,2.22589800000000E+01,2.52884800000000E+01,2.57743500000000E+01,2.79402300000000E+01,2.56172300000000E+01,2.63675100000000E+01,2.55374900000000E+01,2.52584100000000E+01,2.51587200000000E+01,2.61507600000000E+01,2.73315900000000E+01,2.89570200000000E+01,2.98087800000000E+01,3.10428000000000E+01,3.30286200000000E+01,3.43473500000000E+01,3.56503900000000E+01,3.76815600000000E+01,3.91533100000000E+01,4.24802200000000E+01,4.28054900000000E+01,4.46010200000000E+01,4.76364700000000E+01,4.98934400000000E+01,5.14502700000000E+01,5.40581000000000E+01,5.64495700000000E+01,5.68463100000000E+01,5.86114800000000E+01,5.93342100000000E+01,6.02304100000000E+01,6.13113900000000E+01,6.19309000000000E+01,6.34771700000000E+01,6.56203400000000E+01,,
EST,,,,,,,,,,,,,,,,,,,,,,,,,,,,,,,,,,,2.31160400000000E+01,2.40677400000000E+01,3.74627100000000E+01,4.07980200000000E+01,3.99808600000000E+01,4.21078500000000E+01,4.56178800000000E+01,4.69882200000000E+01,4.73326200000000E+01,4.89900500000000E+01,4.94367200000000E+01,5.03688400000000E+01,4.95457700000000E+01,4.93513200000000E+01,4.71061700000000E+01,4.67353300000000E+01,,
ETH,,,,,,,,,,,,3.15610000000000E-01,3.40900000000000E-01,,4.23750000000000E-01,,,,,,8.26100000000000E-01,,8.14900000000000E-01,8.53900000000000E-01,8.31130000000000E-01,1.02851000000000E+00,1.21212000000000E+00,1.31383000000000E+00,1.22127000000000E+00,1.24830000000000E+00,1.29761000000000E+00,1.28428000000000E+00,,,9.52420000000000E-01,1.06428000000000E+00,1.12438000000000E+00,1.30284000000000E+00,1.38947000000000E+00,1.57658000000000E+00,1.91400000000000E+00,2.40678000000000E+00,2.54842000000000E+00,3.64658000000000E+00,4.09909000000000E+00,4.43491000000000E+00,4.02576000000000E+00,5.38206000000000E+00,5.50148000000000E+00,6.00614000000000E+00,8.02786000000000E+00,
FIN,,,,,,,,,,,,1.31868500000000E+01,1.36814400000000E+01,1.41889000000000E+01,1.52824900000000E+01,1.64343800000000E+01,,3.04930400000000E+01,3.18229500000000E+01,3.23900500000000E+01,3.26005600000000E+01,3.25345300000000E+01,3.27944000000000E+01,3.33362500000000E+01,3.23611100000000E+01,3.24150200000000E+01,3.41717700000000E+01,3.56010100000000E+01,3.72557500000000E+01,3.95851200000000E+01,4.24546800000000E+01,4.59293300000000E+01,4.89034700000000E+01,5.41223700000000E+01,5.82169400000000E+01,6.17750500000000E+01,6.52041200000000E+01,6.83250300000000E+01,7.30341000000000E+01,7.34125200000000E+01,7.46675100000000E+01,7.61931500000000E+01,7.63136800000000E+01,7.92670000000000E+01,8.17966900000000E+01,8.34492000000000E+01,8.41286300000000E+01,8.45475800000000E+01,8.50320900000000E+01,8.22944000000000E+01,,
FJI,,,,,,,,,,,9.02560000000000E-01,9.03770000000000E-01,1.52948000000000E+00,1.77560000000000E+00,2.79689000000000E+00,3.71483000000000E+00,,,,,,,,,,3.87163000000000E+00,3.93283000000000E+00,,,,,,,,,,,,,,,,,1.43822400000000E+01,1.45637900000000E+01,1.47593300000000E+01,,,,,,
FRA,,,,,,,,,,,,,,,,,,,,2.46018500000000E+01,2.65335500000000E+01,,2.72841900000000E+01,2.75078300000000E+01,,2.86863700000000E+01,2.89359400000000E+01,2.89616700000000E+01,2.94674000000000E+01,3.18063200000000E+01,3.43443700000000E+01,3.65332300000000E+01,3.93700300000000E+01,4.17894000000000E+01,4.48090200000000E+01,4.49651900000000E+01,4.61894500000000E+01,4.61960700000000E+01,4.65373700000000E+01,4.80952200000000E+01,4.85787700000000E+01,4.85874900000000E+01,4.70324300000000E+01,4.81694200000000E+01,4.86653300000000E+01,4.88243700000000E+01,4.88898500000000E+01,4.81027500000000E+01,4.77444600000000E+01,4.79583400000000E+01,,
FSM,,,,,,,,,,,,,,,,,,,,3.49895900000000E+01,2.53388300000000E+01,4.64080500000000E+01,2.39724100000000E+01,,,,,,,,,,,,,,,,,,,,,,,,,,,,,
GAB,,,,,,,,,,,,7.39540000000000E-01,1.28405000000000E+00,1.35310000000000E+00,,,3.22826000000000E+00,3.97400000000000E+00,3.97617000000000E+00,3.70621000000000E+00,4.79709000000000E+00,,,7.72273000000000E+00,7.93544000000000E+00,,,8.98742000000000E+00,8.49693000000000E+00,8.02981000000000E+00,,,,,,,,,,9.19932000000000E+00,,,,,,,,,,,,
GBR,,,,,,,,,,,,1.91067300000000E+01,1.96262600000000E+01,1.98951200000000E+01,2.04373900000000E+01,2.26897100000000E+01,2.36012400000000E+01,2.39114100000000E+01,2.37540900000000E+01,2.37425400000000E+01,2.31553900000000E+01,2.33904200000000E+01,2.34613600000000E+01,2.34151000000000E+01,2.33716700000000E+01,2.31539900000000E+01,2.34013700000000E+01,2.40810800000000E+01,2.47020800000000E+01,2.57389300000000E+01,2.74869600000000E+01,2.98682600000000E+01,3.35988300000000E+01,3.77301700000000E+01,4.21269300000000E+01,4.65756500000000E+01,4.85952000000000E+01,5.03225900000000E+01,5.15775300000000E+01,5.56720800000000E+01,5.32969700000000E+01,5.32053100000000E+01,5.50883200000000E+01,5.36403400000000E+01,4.98281600000000E+01,4.92574000000000E+01,4.91648800000000E+01,4.89654600000000E+01,4.75761600000000E+01,4.90499800000000E+01,,
GEO,,,,,,,,,,,,,,,,,,,,,,3.17614000000000E+01,,,,,,,,,,3.83557200000000E+01,,,,3.83634400000000E+01,3.90210100000000E+01,4.31574200000000E+01,,3.46608600000000E+01,3.87623300000000E+01,3.99542500000000E+01,4.14498800000000E+01,4.37030000000000E+01,4.15094000000000E+01,4.58312800000000E+01,3.57797500000000E+01,3.50430000000000E+01,3.09609900000000E+01,2.25452300000000E+01,2.51071100000000E+01,
GHA,,,,,,,,,,,,1.15388000000000E+00,1.22548000000000E+00,1.33067000000000E+00,1.51247000000000E+00,1.52814000000000E+00,1.80099000000000E+00,,,,,,2.50316000000000E+00,,,,,,,,,1.47329000000000E+00,1.66665000000000E+00,2.05687000000000E+00,1.97988000000000E+00,,,,,,,,,,,7.19704000000000E+00,6.59932000000000E+00,8.13616000000000E+00,,1.07978800000000E+01,,
GIN,,,,,,,,,,,,1.09425000000000E+00,,,,4.78565000000000E+00,5.54813000000000E+00,6.10037000000000E+00,8.22357000000000E+00,,,7.04291000000000E+00,4.79431000000000E+00,4.66229000000000E+00,4.19432000000000E+00,3.41055000000000E+00,3.15928000000000E+00,2.38327000000000E+00,2.08414000000000E+00,2.17471000000000E+00,2.03722000000000E+00,1.81947000000000E+00,1.69909000000000E+00,2.29330000000000E+00,2.12744000000000E+00,,2.07183000000000E+00,2.07040000000000E+00,2.09611000000000E+00,,,,,3.68211000000000E+00,3.68274000000000E+00,4.79982000000000E+00,8.14026000000000E+00,1.22447400000000E+01,1.40655800000000E+01,,,
GMB,,,,,,,,,,,,,,,,,,,,,,,,,,,,,,,,,,,,2.31343000000000E+00,,,,1.58175000000000E+00,1.55289000000000E+00,,,,1.77302000000000E+00,,,,,,,
GNB,,,,,,,,,,,,,,,,,,,,,,,,,,,,,,9.59890000000000E-01,,,,,,,,,,7.77920000000000E-01,7.08640000000000E-01,6.94200000000000E-01,,,,,,,,,,
GNQ,,,,,,,,,,,,,,,,,,,,,,,7.49490000000000E+00,,,,,,,,,2.75445000000000E+00,,,,,,,,,4.53366000000000E+00,,,,,,,,,,,
GRC,,,,,,,,,,,,1.73866800000000E+01,1.68513900000000E+01,1.74997200000000E+01,1.83317500000000E+01,2.09428400000000E+01,2.13919500000000E+01,2.20003600000000E+01,2.10572300000000E+01,2.08630100000000E+01,1.99829700000000E+01,1.95938200000000E+01,1.93811000000000E+01,2.03907300000000E+01,2.04804400000000E+01,2.23335200000000E+01,2.36429300000000E+01,2.52978200000000E+01,2.42178400000000E+01,2.41042600000000E+01,2.46308800000000E+01,,3.45600500000000E+01,3.71307400000000E+01,4.04665600000000E+01,3.57262800000000E+01,4.00851200000000E+01,4.41379600000000E+01,4.32398700000000E+01,4.45175300000000E+01,4.90005300000000E+01,5.48871900000000E+01,6.17678300000000E+01,6.76141800000000E+01,7.29451800000000E+01,8.28740200000000E+01,8.76478000000000E+01,8.52154000000000E+01,,,,
GRD,,,,,,,,,,,,,,,,,,,,1.47344000000000E+00,4.77676000000000E+00,,6.72063000000000E+00,4.75932000000000E+00,4.17246000000000E+00,,,,,,,,,,,,,,,,,,,,,,,,,4.48734000000000E+01,,
GTM,,,,,,,,,,,4.91448000000000E+00,5.10993000000000E+00,5.55365000000000E+00,6.05384000000000E+00,5.49368000000000E+00,6.04778000000000E+00,6.64726000000000E+00,7.33211000000000E+00,8.31207000000000E+00,,,,,,,,,,,,,,,,,,,,,,,,1.09925000000000E+01,1.10420000000000E+01,,,,1.78520800000000E+01,,,,
GUY,,,,,,,,,,,,2.56440000000000E+00,2.65314000000000E+00,2.81479000000000E+00,,,4.66283000000000E+00,,,3.30772000000000E+00,3.25547000000000E+00,3.08256000000000E+00,3.33737000000000E+00,2.65099000000000E+00,2.43136000000000E+00,2.61836000000000E+00,2.74365000000000E+00,3.75742000000000E+00,4.83439000000000E+00,,6.40801000000000E+00,,,,9.76738000000000E+00,8.53968000000000E+00,9.51505000000000E+00,1.03763600000000E+01,,,,,,,7.31552000000000E+00,7.20256000000000E+00,7.13447000000000E+00,7.49477000000000E+00,9.36762000000000E+00,1.10576800000000E+01,6.80596000000000E+00,
HIC,,,,,,,,,,,,,,,,,,,,,,,,,,,,,,,,,,,,,,,,5.22117800000000E+01,5.23934500000000E+01,5.37854000000000E+01,5.72553500000000E+01,5.85144100000000E+01,5.89756800000000E+01,5.95481000000000E+01,5.98923100000000E+01,6.03617800000000E+01,6.11383100000000E+01,6.25594500000000E+01,,
HKG,,,,,,,,,,,,9.13692000000000E+00,9.76380000000000E+00,1.03077900000000E+01,1.15855500000000E+01,1.25048400000000E+01,1.42030600000000E+01,1.30058900000000E+01,,1.34121500000000E+01,1.35999500000000E+01,1.37629700000000E+01,1.41632600000000E+01,1.54128500000000E+01,1.60778700000000E+01,,,,,,,,2.26906400000000E+01,2.31040100000000E+01,2.46733700000000E+01,,,,,,,,,3.15144300000000E+01,3.13628000000000E+01,3.26637500000000E+01,3.39674700000000E+01,4.25955100000000E+01,5.57215500000000E+01,5.69999300000000E+01,5.84451300000000E+01,
HND,,,,,,,,,,,,,,,4.85214000000000E+00,5.26443000000000E+00,6.75602000000000E+00,7.98540000000000E+00,8.88697000000000E+00,,9.08465000000000E+00,,,,,,,,1.14832700000000E+01,1.13157500000000E+01,1.01563800000000E+01,9.99718000000000E+00,1.06222600000000E+01,1.01584200000000E+01,1.14290600000000E+01,,,,,1.29157300000000E+01,1.32704200000000E+01,1.37462800000000E+01,1.44197400000000E+01,1.42086300000000E+01,1.42479900000000E+01,,,,1.49848700000000E+01,,,
HRV,,,,,,,,,,,,,,,,,,,,,,,,,,,,,,,,,,2.60682700000000E+01,2.76712200000000E+01,2.66746100000000E+01,2.79819400000000E+01,2.65428100000000E+01,2.80310600000000E+01,2.81608700000000E+01,2.85636700000000E+01,3.09559100000000E+01,3.34883300000000E+01,3.57459700000000E+01,,3.95989800000000E+01,4.05675000000000E+01,4.24842000000000E+01,4.40996800000000E+01,4.34447100000000E+01,,
HTI,,,,,,,,,,,,,,,,,9.85550000000000E-01,9.29040000000000E-01,1.23199000000000E+00,1.22775000000000E+00,,1.19485000000000E+00,,,1.42945000000000E+00,,1.54437000000000E+00,,,,,,,,,,,,,,,,,,,,,,,,,
HUN,,,,,,,,,,,,1.09966200000000E+01,1.11455200000000E+01,1.10394500000000E+01,1.14662800000000E+01,1.16516300000000E+01,1.18552700000000E+01,1.20090000000000E+01,1.20532200000000E+01,1.23827500000000E+01,1.27726900000000E+01,1.32252500000000E+01,1.36822400000000E+01,1.38362800000000E+01,1.38808700000000E+01,1.41935800000000E+01,1.41082500000000E+01,1.39411300000000E+01,1.38591200000000E+01,1.35433900000000E+01,1.40465500000000E+01,1.39896700000000E+01,1.42587700000000E+01,1.51351000000000E+01,1.77691300000000E+01,2.04352600000000E+01,2.23563400000000E+01,2.43085000000000E+01,2.79259500000000E+01,2.99166500000000E+01,3.33925800000000E+01,3.60310400000000E+01,3.97036700000000E+01,4.45571700000000E+01,4.99961200000000E+01,5.22832800000000E+01,5.40851100000000E+01,5.42396200000000E+01,5.27932300000000E+01,5.23064800000000E+01,,
IDN,,,,,,,,,,,4.06875000000000E+00,3.87948000000000E+00,3.77276000000000E+00,,,,3.58045000000000E+00,,,,,,5.31699000000000E+00,5.57230000000000E+00,7.43501000000000E+00,8.41446000000000E+00,,,,,,,,1.15948000000000E+01,,1.42655800000000E+01,1.53625200000000E+01,,,,,1.59066700000000E+01,1.56621500000000E+01,1.74328900000000E+01,1.78948100000000E+01,1.84343100000000E+01,1.72363200000000E+01,1.73439600000000E+01,2.10304900000000E+01,2.28159100000000E+01,,
IND,,,,,,,,,,,,7.44278000000000E+00,,7.60297000000000E+00,,,7.23826000000000E+00,6.86325000000000E+00,7.06494000000000E+00,6.96922000000000E+00,7.04177000000000E+00,7.43839000000000E+00,6.89524000000000E+00,7.77433000000000E+00,8.19303000000000E+00,7.98426000000000E+00,8.12752000000000E+00,8.59232000000000E+00,7.32516000000000E+00,7.58619000000000E+00,7.77670000000000E+00,7.82666000000000E+00,,,,7.03144000000000E+00,7.75123000000000E+00,8.04100000000000E+00,,,1.12147500000000E+01,1.13492100000000E+01,1.19183600000000E+01,1.26589600000000E+01,1.31267600000000E+01,1.25884600000000E+01,1.34180900000000E+01,1.55005100000000E+01,,1.91214400000000E+01,,
IRL,,,,,,,,,,,,1.52941800000000E+01,1.54207300000000E+01,1.49410300000000E+01,1.52853900000000E+01,,2.16170800000000E+01,2.00364800000000E+01,1.97606000000000E+01,1.91234500000000E+01,1.93649000000000E+01,2.11234500000000E+01,2.29328400000000E+01,2.39141900000000E+01,2.31823600000000E+01,2.39239200000000E+01,2.48581700000000E+01,2.57086300000000E+01,2.66822400000000E+01,2.83335300000000E+01,2.93043600000000E+01,3.07233700000000E+01,3.35440500000000E+01,3.49862100000000E+01,3.75361000000000E+01,3.76448700000000E+01,3.84378800000000E+01,3.91817400000000E+01,4.03411900000000E+01,4.24996200000000E+01,4.45680000000000E+01,4.53500000000000E+01,4.68754800000000E+01,4.76098000000000E+01,5.05521100000000E+01,5.15759300000000E+01,5.28721600000000E+01,5.50105800000000E+01,5.36740300000000E+01,5.62482400000000E+01,,
IRN,,,,,,,,,,,,4.17536000000000E+00,4.57007000000000E+00,5.28415000000000E+00,5.59089000000000E+00,6.09043000000000E+00,6.69386000000000E+00,6.42588000000000E+00,6.40137000000000E+00,,,,,4.55077000000000E+00,4.84335000000000E+00,,,,,,,8.29196000000000E+00,,,,,2.09510800000000E+01,,,2.11597300000000E+01,2.07533000000000E+01,2.10692400000000E+01,1.93771500000000E+01,1.95877800000000E+01,2.12220900000000E+01,2.25512500000000E+01,2.45766200000000E+01,2.83142600000000E+01,3.37728900000000E+01,3.53835100000000E+01,4.25972600000000E+01,
IRQ,,,,,,,,,,,,7.06642000000000E+00,7.67396000000000E+00,8.35025000000000E+00,8.59519000000000E+00,9.30601000000000E+00,9.36983000000000E+00,9.96276000000000E+00,9.97989000000000E+00,9.94552000000000E+00,1.13780400000000E+01,1.17431600000000E+01,1.24923900000000E+01,1.24015700000000E+01,1.19765800000000E+01,1.35348500000000E+01,1.35110300000000E+01,1.24740800000000E+01,1.27589500000000E+01,1.44250400000000E+01,,,,,,,,,,1.48241600000000E+01,1.54391500000000E+01,,1.64890600000000E+01,,2.01113100000000E+01,,,,,,,
ISL,,,,,,,,,,,,1.41988300000000E+01,1.54899400000000E+01,1.67518000000000E+01,1.72417300000000E+01,1.78904100000000E+01,1.84391600000000E+01,1.83185500000000E+01,1.82437500000000E+01,,,1.98809300000000E+01,,2.19441300000000E+01,2.19725500000000E+01,,1.83860800000000E+01,,,2.00858600000000E+01,2.20115300000000E+01,2.09455600000000E+01,2.42220100000000E+01,2.28794200000000E+01,2.82092700000000E+01,2.96706400000000E+01,2.90727300000000E+01,3.08516600000000E+01,3.03501200000000E+01,2.98917100000000E+01,3.42702900000000E+01,3.52368600000000E+01,3.94118700000000E+01,4.47210700000000E+01,4.79203000000000E+01,4.86118700000000E+01,5.08620700000000E+01,5.00794500000000E+01,5.12476200000000E+01,5.19422500000000E+01,,
ISR,,,,,,,,,,,,2.05035900000000E+01,,2.41253400000000E+01,,2.48497800000000E+01,,2.76437000000000E+01,2.69569800000000E+01,3.06747700000000E+01,3.12020500000000E+01,2.88478200000000E+01,3.51794000000000E+01,3.55166600000000E+01,3.53345400000000E+01,,3.50286700000000E+01,3.55969300000000E+01,3.34894200000000E+01,3.30375400000000E+01,3.29572700000000E+01,3.43760500000000E+01,,3.61766100000000E+01,,,,,3.96915300000000E+01,3.99221600000000E+01,4.09833900000000E+01,4.34504900000000E+01,4.80142900000000E+01,4.90533600000000E+01,4.87869300000000E+01,5.00852800000000E+01,5.08896700000000E+01,5.25941900000000E+01,5.22430100000000E+01,5.45106400000000E+01,,
ITA,,,,,,,,,,,,2.15087400000000E+01,2.49583600000000E+01,2.54005600000000E+01,2.66407300000000E+01,2.96565300000000E+01,3.14079800000000E+01,3.23448600000000E+01,3.23750700000000E+01,3.24934100000000E+01,3.13917800000000E+01,3.09930000000000E+01,,2.78738700000000E+01,2.76349400000000E+01,2.81285700000000E+01,2.73261800000000E+01,2.60149000000000E+01,2.73802700000000E+01,2.86963700000000E+01,2.99741200000000E+01,3.26547000000000E+01,3.34210400000000E+01,3.48087100000000E+01,3.78759900000000E+01,3.82369300000000E+01,3.84376000000000E+01,4.13937100000000E+01,4.03988600000000E+01,4.20657300000000E+01,4.28020300000000E+01,4.49514600000000E+01,4.68840800000000E+01,4.95827700000000E+01,5.27972500000000E+01,5.43571600000000E+01,5.53735100000000E+01,5.54568800000000E+01,5.49733000000000E+01,5.49155700000000E+01,,
JAM,,,,,,,,,,,,6.30447000000000E+00,6.95507000000000E+00,7.53020000000000E+00,7.38814000000000E+00,,,,,,,,,,,,,,,,,,,,,,,,,,1.08557300000000E+01,1.20190000000000E+01,1.20688000000000E+01,1.18041000000000E+01,,,,,1.56953100000000E+01,1.52389000000000E+01,,
JOR,,,,,,,,,,,,3.90391000000000E+00,4.20707000000000E+00,5.31881000000000E+00,6.48588000000000E+00,7.16787000000000E+00,8.98498000000000E+00,1.17874000000000E+01,1.15001100000000E+01,1.22580100000000E+01,1.64941300000000E+01,1.81760800000000E+01,2.34343500000000E+01,2.35797800000000E+01,2.51126900000000E+01,2.20888500000000E+01,2.05423200000000E+01,2.07151600000000E+01,1.74437300000000E+01,1.96250600000000E+01,1.87377700000000E+01,2.17033900000000E+01,2.12410400000000E+01,2.06049200000000E+01,1.91345700000000E+01,,2.07943700000000E+01,2.27862000000000E+01,,,2.64108100000000E+01,,3.03302100000000E+01,3.24603200000000E+01,3.62929200000000E+01,3.67592600000000E+01,3.53514500000000E+01,3.64279600000000E+01,3.87968800000000E+01,3.94843800000000E+01,,
JPN,,,,,,,,,,,,2.49475100000000E+01,2.70958200000000E+01,2.84786600000000E+01,3.07617100000000E+01,3.31619500000000E+01,3.55866000000000E+01,3.71223900000000E+01,4.05915500000000E+01,4.08469200000000E+01,4.10169400000000E+01,4.07550200000000E+01,4.02817600000000E+01,3.93829600000000E+01,3.88016600000000E+01,3.75654100000000E+01,3.56021200000000E+01,3.51495300000000E+01,3.50627700000000E+01,3.49650600000000E+01,3.50676100000000E+01,3.56683000000000E+01,3.54221300000000E+01,,4.33921500000000E+01,4.40432200000000E+01,,,4.71960100000000E+01,5.03801300000000E+01,5.24467300000000E+01,5.37496800000000E+01,5.44500200000000E+01,5.53245900000000E+01,5.69880700000000E+01,5.85130900000000E+01,6.11121900000000E+01,6.20541400000000E+01,6.20687200000000E+01,6.24968800000000E+01,,
KAZ,,,,,,,,,,,,,,,,,,,,,,,,,,,,,,,,,,,3.19388900000000E+01,3.10455600000000E+01,2.75410800000000E+01,,,2.27771600000000E+01,2.57872300000000E+01,3.07916400000000E+01,3.46574900000000E+01,3.81624900000000E+01,4.01937600000000E+01,4.34693800000000E+01,4.36678400000000E+01,4.16416300000000E+01,3.78299800000000E+01,3.28827600000000E+01,3.16779900000000E+01,
KEN,,,,,,,,,,,,,,,,,,,,,,,,,1.62826000000000E+00,1.90112000000000E+00,,2.12094000000000E+00,,,,,,,,,,,,,3.56391000000000E+00,3.66345000000000E+00,3.66777000000000E+00,,3.63706000000000E+00,3.70467000000000E+00,,,,4.72690000000000E+00,,
KGZ,,,,,,,,,,,,,,,,,,,,,,,,,,,,,,,,,,1.95971500000000E+01,1.88254400000000E+01,1.83446500000000E+01,1.99376400000000E+01,2.18925100000000E+01,2.61068500000000E+01,2.85732600000000E+01,3.45612800000000E+01,3.93190600000000E+01,4.04919800000000E+01,3.73156100000000E+01,3.72908800000000E+01,3.79619600000000E+01,3.85538000000000E+01,3.74799400000000E+01,4.34477800000000E+01,4.24829900000000E+01,,
KHM,,,,,,,,,,,,,2.48269000000000E+00,2.38388000000000E+00,,,,,,,,,,,,,,,,,,,,2.07808000000000E+00,2.42364000000000E+00,2.36468000000000E+00,2.64260000000000E+00,1.86574000000000E+00,1.51723000000000E+00,,4.07387000000000E+00,3.58283000000000E+00,3.55850000000000E+00,4.12339000000000E+00,3.83890000000000E+00,4.60038000000000E+00,6.01453000000000E+00,7.29797000000000E+00,1.02305500000000E+01,,,
KNA,,,,,,,,,,,,,,,,,,,,,,,,,,,,,,,,,5.70175000000000E+00,9.06788000000000E+00,,,,,,,,,,,,,,,1.17968100000000E+01,,,
KOR,,,,,,,,,,,,1.06375100000000E+01,1.06288200000000E+01,1.05872600000000E+01,1.07444600000000E+01,1.10422400000000E+01,1.25480100000000E+01,1.31138400000000E+01,1.42755400000000E+01,1.60873800000000E+01,1.92641200000000E+01,,2.81566500000000E+01,3.46144100000000E+01,3.94128400000000E+01,4.21327600000000E+01,4.61363700000000E+01,4.75962300000000E+01,4.81547900000000E+01,4.82499700000000E+01,4.93102600000000E+01,5.06672800000000E+01,5.22206800000000E+01,5.50781800000000E+01,5.75138500000000E+01,6.14372000000000E+01,6.71317300000000E+01,7.58508600000000E+01,8.27260100000000E+01,9.15549800000000E+01,9.64665400000000E+01,1.01402980000000E+02,1.04781340000000E+02,1.06754880000000E+02,1.08871070000000E+02,1.12047510000000E+02,1.16560900000000E+02,1.20545260000000E+02,1.21621980000000E+02,1.21005000000000E+02,,
KWT,,,,,,,,,,,,3.69758000000000E+00,4.70144000000000E+00,5.12121000000000E+00,5.25835000000000E+00,5.22968000000000E+00,7.45527000000000E+00,8.78058000000000E+00,1.03313300000000E+01,8.19669000000000E+00,8.21711000000000E+00,8.54201000000000E+00,1.02885500000000E+01,1.12507100000000E+01,1.26951500000000E+01,1.47303100000000E+01,1.53231100000000E+01,1.48588500000000E+01,1.46497100000000E+01,1.35575000000000E+01,9.15013000000000E+00,,8.45758000000000E+00,9.10083000000000E+00,1.22755100000000E+01,1.34612700000000E+01,1.45606900000000E+01,1.50947900000000E+01,,1.30180800000000E+01,,1.66004100000000E+01,1.60179400000000E+01,1.47015200000000E+01,1.41937600000000E+01,,,,,,,
LAC,,,,,,,,,,,,,,,,,,,,,,,,,,,,,,,,,,,,,,,,1.93812900000000E+01,2.06177200000000E+01,2.22163800000000E+01,2.37232600000000E+01,2.49335900000000E+01,2.63919800000000E+01,2.78957400000000E+01,2.96502300000000E+01,3.12876300000000E+01,3.26313500000000E+01,3.28376900000000E+01,,
LAO,,,,,,,,,,,,2.87920000000000E-01,2.92740000000000E-01,2.36830000000000E-01,5.07710000000000E-01,4.18850000000000E-01,,,,,5.49160000000000E-01,6.09930000000000E-01,1.21597000000000E+00,1.61834000000000E+00,,1.90169000000000E+00,1.87385000000000E+00,,1.69663000000000E+00,,1.50713000000000E+00,,,1.87211000000000E+00,1.93424000000000E+00,2.38126000000000E+00,3.38747000000000E+00,3.59642000000000E+00,2.86683000000000E+00,3.17228000000000E+00,3.53419000000000E+00,3.91667000000000E+00,5.33513000000000E+00,6.33851000000000E+00,7.13930000000000E+00,9.20184000000000E+00,1.08165800000000E+01,1.34702000000000E+01,1.50754100000000E+01,,,
LBN,,,,,,,,,,,,3.04983200000000E+01,2.93070200000000E+01,,,,,,,,3.85090400000000E+01,3.57880300000000E+01,3.09123500000000E+01,3.17566000000000E+01,3.03342700000000E+01,2.90137700000000E+01,,,,,,,2.90135100000000E+01,,,,2.45092600000000E+01,,,3.32790300000000E+01,,,,,,,4.24577000000000E+01,4.50981600000000E+01,4.68971400000000E+01,4.87652400000000E+01,4.93840800000000E+01,
LBR,,,,,,,,,,,1.50760000000000E+00,1.61723000000000E+00,1.72541000000000E+00,2.03908000000000E+00,,2.69720000000000E+00,,,,3.18444000000000E+00,,,,,,,,3.67501000000000E+00,,,,,,,,,,,,1.30551600000000E+01,1.82837800000000E+01,,,,,,,,,,,
LBY,,,,,,,,,,,,4.84683000000000E+00,5.54685000000000E+00,6.84106000000000E+00,7.58386000000000E+00,8.98270000000000E+00,9.47688000000000E+00,9.12804000000000E+00,9.98488000000000E+00,9.51393000000000E+00,8.76627000000000E+00,1.05719500000000E+01,1.17964400000000E+01,1.29676100000000E+01,,,,,,,,,1.67219700000000E+01,,,,,,,5.26198900000000E+01,4.75439800000000E+01,4.93976800000000E+01,5.11842800000000E+01,5.21386600000000E+01,,,,,,,,
LCA,,,,,,,,,,,,,,,,,,2.57590000000000E+00,2.51924000000000E+00,1.67001000000000E+00,1.26785000000000E+00,2.23950000000000E+00,2.23506000000000E+00,3.28041000000000E+00,3.02760000000000E+00,2.77204000000000E+00,2.63891000000000E+00,2.40420000000000E+00,2.56485000000000E+00,,,,,5.03693000000000E+00,,,1.15436600000000E+01,,,,,,,8.26374000000000E+00,6.21027000000000E+00,6.92474000000000E+00,2.97288000000000E+00,4.94493000000000E+00,9.07188000000000E+00,8.93519000000000E+00,6.31421000000000E+00,
LCN,,,,,,,,,,,,,,,,,,,,,,,,,,,,,,,,,,,,,,,,1.96037400000000E+01,2.08210900000000E+01,2.23996000000000E+01,2.38870500000000E+01,2.50807900000000E+01,2.65315800000000E+01,2.80188000000000E+01,2.99722000000000E+01,3.13852300000000E+01,3.40247300000000E+01,3.43802000000000E+01,,
LIC,,,,,,,,,,,,,,,,,,,,,,,,,,,,,,,,,,,,,,,,4.69371000000000E+00,5.02087000000000E+00,5.63195000000000E+00,5.80045000000000E+00,6.00489000000000E+00,6.02352000000000E+00,6.27559000000000E+00,6.62416000000000E+00,7.28673000000000E+00,7.58359000000000E+00,8.10268000000000E+00,,
LIE,,,,,,,,,,,,,,,,,,,,,,,,,,,,,,,,,,,,,,,,,,,,2.98050100000000E+01,3.57470200000000E+01,,4.15962400000000E+01,4.30581600000000E+01,4.80717500000000E+01,4.56560300000000E+01,,
LKA,,,,,,,,,,,1.12265000000000E+00,1.34111000000000E+00,,1.30873000000000E+00,1.34078000000000E+00,1.42467000000000E+00,,,,3.42895000000000E+00,,3.23560000000000E+00,4.11669000000000E+00,4.84898000000000E+00,5.01759000000000E+00,4.42320000000000E+00,4.52068000000000E+00,,3.56318000000000E+00,,,4.41766000000000E+00,,,6.21461000000000E+00,,,,,,,,,,,,,,,,,
LMC,,,,,,,,,,,,,,,,,,,,,,,,,,,,,,,,,,,,,,,,1.26139300000000E+01,1.31961800000000E+01,1.33648200000000E+01,1.37057800000000E+01,1.43342400000000E+01,1.50246100000000E+01,1.49675000000000E+01,1.52693100000000E+01,1.64230500000000E+01,1.68223700000000E+01,1.69814200000000E+01,,
LMY,,,,,,,,,,,,,,,,,,,,,,,,,,,,,,,,,,,,,,,,1.29449800000000E+01,1.38132700000000E+01,1.48193300000000E+01,1.58173500000000E+01,1.69140400000000E+01,1.78555800000000E+01,1.84421800000000E+01,1.92095300000000E+01,2.02420200000000E+01,2.07572400000000E+01,2.12173100000000E+01,,
LSO,,,,,,,,,,,6.17470000000000E-01,4.99770000000000E-01,,5.24460000000000E-01,6.28930000000000E-01,5.96660000000000E-01,,9.18230000000000E-01,9.65690000000000E-01,1.16281000000000E+00,,1.10534000000000E+00,1.11489000000000E+00,1.13195000000000E+00,1.06292000000000E+00,1.27755000000000E+00,1.28147000000000E+00,1.32951000000000E+00,1.33492000000000E+00,1.32171000000000E+00,1.19028000000000E+00,1.19357000000000E+00,2.28140000000000E+00,2.35117000000000E+00,2.54161000000000E+00,2.46475000000000E+00,2.55139000000000E+00,,,1.44695000000000E+00,1.62135000000000E+00,1.67188000000000E+00,1.87958000000000E+00,2.06329000000000E+00,,2.85910000000000E+00,3.13619000000000E+00,,,,,
LTU,,,,,,,,,,,,,,,,,,,,,,2.23284000000000E+01,,,,,2.22720700000000E+01,,,3.55821900000000E+01,3.85332900000000E+01,,2.44725000000000E+01,2.20848300000000E+01,2.13243900000000E+01,2.17543100000000E+01,2.28774500000000E+01,2.60387500000000E+01,3.00046300000000E+01,3.49463200000000E+01,4.01940000000000E+01,4.49675400000000E+01,4.79778500000000E+01,5.36654300000000E+01,5.73095900000000E+01,5.98770400000000E+01,6.00821600000000E+01,5.89955600000000E+01,5.96929100000000E+01,6.19268300000000E+01,,
LUX,,,,,,,,,,,,1.80342000000000E+00,1.62945000000000E+00,2.08697000000000E+00,1.90701000000000E+00,2.07023000000000E+00,1.98548000000000E+00,1.81385000000000E+00,1.21060000000000E+00,1.59260000000000E+00,1.52464000000000E+00,3.36766000000000E+00,3.15512000000000E+00,4.41806000000000E+00,4.33617000000000E+00,3.79816000000000E+00,3.41939000000000E+00,3.40329000000000E+00,,,,,,,,,1.29392600000000E+01,1.34348200000000E+01,,1.04438400000000E+01,,9.43861000000000E+00,1.09854700000000E+01,1.11507700000000E+01,,,9.73987000000000E+00,,1.07064300000000E+01,,,
LVA,,,,,,,,,,,,,,,,,,,,,,2.00248500000000E+01,2.00719800000000E+01,1.97572700000000E+01,1.90598000000000E+01,1.88718900000000E+01,1.74504000000000E+01,1.61542500000000E+01,1.74119800000000E+01,1.76554300000000E+01,2.04992100000000E+01,2.20275400000000E+01,2.34196300000000E+01,,,,,2.64438700000000E+01,3.42452900000000E+01,3.84816500000000E+01,4.09485600000000E+01,4.78336600000000E+01,5.11657300000000E+01,5.38176100000000E+01,5.56636400000000E+01,5.42553400000000E+01,5.28382100000000E+01,4.99369500000000E+01,4.74667000000000E+01,4.71471600000000E+01,,
MAC,,,,,,,,,,,,,,,,,,,,,,,,,,,,,,4.00000000000000E+01,4.64003300000000E+01,3.67039600000000E+01,3.59369700000000E+01,3.53082000000000E+01,3.03229100000000E+01,,,3.14153800000000E+01,,3.21514500000000E+01,2.75893900000000E+01,5.62685800000000E+01,8.61949000000000E+01,1.02633040000000E+02,8.39122300000000E+01,7.09986800000000E+01,6.29280200000000E+01,5.81925500000000E+01,5.87106600000000E+01,6.50917300000000E+01,6.53821700000000E+01,
MAR,,,,,,,,,,,,2.45288000000000E+00,2.45200000000000E+00,3.05205000000000E+00,3.15865000000000E+00,3.87323000000000E+00,4.79620000000000E+00,5.69257000000000E+00,6.13009000000000E+00,6.49987000000000E+00,7.45646000000000E+00,8.67438000000000E+00,9.39669000000000E+00,8.21309000000000E+00,,,1.17783200000000E+01,1.20816000000000E+01,1.29362500000000E+01,1.33023100000000E+01,1.36296200000000E+01,1.35376400000000E+01,1.27682900000000E+01,1.29503900000000E+01,1.28995400000000E+01,1.32782100000000E+01,,1.36289300000000E+01,1.05078600000000E+01,1.12282400000000E+01,1.10074200000000E+01,1.17038300000000E+01,1.15992200000000E+01,1.18730900000000E+01,1.18356700000000E+01,1.27005000000000E+01,1.32884000000000E+01,1.22096800000000E+01,1.33854200000000E+01,1.41296900000000E+01,,
MDA,,,,,,,,,,,,,,,,,,,,,,,,,,,,,,,,,,,,2.81057000000000E+01,2.29892500000000E+01,2.48225400000000E+01,,2.85910700000000E+01,2.80534200000000E+01,2.77499900000000E+01,2.75982900000000E+01,2.87326200000000E+01,2.92698400000000E+01,2.94639400000000E+01,3.31220000000000E+01,3.46083900000000E+01,3.28039300000000E+01,3.21435500000000E+01,3.27299700000000E+01,
MDG,,,,,,,,,,,,1.50049000000000E+00,,1.99920000000000E+00,,,1.18002000000000E+00,2.04819000000000E+00,2.46054000000000E+00,2.82092000000000E+00,,,,,,,5.04330000000000E+00,4.30586000000000E+00,4.25554000000000E+00,4.10298000000000E+00,3.94379000000000E+00,3.59950000000000E+00,,,3.30378000000000E+00,2.58611000000000E+00,2.44181000000000E+00,2.20989000000000E+00,2.47490000000000E+00,2.38307000000000E+00,2.42101000000000E+00,2.34168000000000E+00,2.43581000000000E+00,2.67830000000000E+00,2.99520000000000E+00,3.10093000000000E+00,3.30590000000000E+00,3.65949000000000E+00,3.52884000000000E+00,3.71229000000000E+00,3.86414000000000E+00,
MDV,,,,,,,,,,,,,,,,,,,,,,,,,,,,,,,,,,,,,,,,,,,,1.31180000000000E-01,1.25110000000000E-01,,0.00000000000000E+00,,,,,
MEA,,,,,,,,,,,,,,,,,,,,,,,,,,,,,,,,,,,,,,,,2.31496700000000E+01,2.26432700000000E+01,2.26235000000000E+01,2.19005100000000E+01,2.19493400000000E+01,2.28428500000000E+01,2.38076400000000E+01,2.44659100000000E+01,2.57155700000000E+01,2.73481000000000E+01,2.80288900000000E+01,,
MEX,,,,,,,,,,,,8.42372000000000E+00,8.97389000000000E+00,,,,,1.37813800000000E+01,1.50159800000000E+01,,1.76997000000000E+01,1.86174100000000E+01,1.92743600000000E+01,1.94302900000000E+01,2.01296300000000E+01,,,,,,,,,1.52819400000000E+01,1.52829600000000E+01,1.54744700000000E+01,1.62415600000000E+01,1.68331300000000E+01,1.78629600000000E+01,1.93784200000000E+01,2.05045000000000E+01,2.12608500000000E+01,2.22504900000000E+01,2.31639700000000E+01,2.40410800000000E+01,2.46394400000000E+01,2.53219000000000E+01,2.60912600000000E+01,2.68687000000000E+01,2.73721000000000E+01,,
MHL,,,,,,,,,,,,,,,,,,,,,,,,,,,,,,,,,,,,,,,,,,1.47372400000000E+01,1.42494600000000E+01,1.41944600000000E+01,,,,,,,,
MIC,,,,,,,,,,,,,,,,,,,,,,,,,,,,,,,,,,,,,,,,1.41889500000000E+01,1.51671200000000E+01,1.62563600000000E+01,1.73988800000000E+01,1.86458400000000E+01,1.97378100000000E+01,2.03820900000000E+01,2.12481100000000E+01,2.23277200000000E+01,2.30370300000000E+01,2.35168600000000E+01,,
MKD,,,,,,,,,,,,,,,,,,,,,,,,,,,,,,2.06063500000000E+01,1.86118700000000E+01,1.59289700000000E+01,1.66016000000000E+01,1.59155600000000E+01,1.61595700000000E+01,1.67516900000000E+01,1.68747300000000E+01,1.73818100000000E+01,1.78620500000000E+01,1.90744400000000E+01,1.98524000000000E+01,2.10871400000000E+01,2.35362600000000E+01,2.33819200000000E+01,2.33726700000000E+01,2.49524300000000E+01,2.45645500000000E+01,3.12626200000000E+01,3.65492000000000E+01,3.69465700000000E+01,,
MLI,,,,,,,,,,,,2.48540000000000E-01,3.38830000000000E-01,4.68690000000000E-01,,7.97330000000000E-01,9.24660000000000E-01,1.09127000000000E+00,1.22909000000000E+00,1.35539000000000E+00,1.45523000000000E+00,1.28989000000000E+00,1.18592000000000E+00,1.47897000000000E+00,1.78990000000000E+00,1.80636000000000E+00,1.62577000000000E+00,1.29698000000000E+00,,1.01315000000000E+00,1.04339000000000E+00,1.01225000000000E+00,1.29946000000000E+00,1.50284000000000E+00,,1.59617000000000E+00,1.78391000000000E+00,2.42348000000000E+00,2.39339000000000E+00,2.44757000000000E+00,2.48832000000000E+00,2.62129000000000E+00,2.63281000000000E+00,2.85149000000000E+00,3.05699000000000E+00,3.45344000000000E+00,,6.87880000000000E+00,6.90158000000000E+00,7.85764000000000E+00,8.13774000000000E+00,
MLT,,,,,,,,,,,,7.78562000000000E+00,6.76117000000000E+00,7.83564000000000E+00,7.54608000000000E+00,1.18995200000000E+01,7.93737000000000E+00,9.52381000000000E+00,9.11614000000000E+00,8.71852000000000E+00,4.28155000000000E+00,4.65388000000000E+00,4.81644000000000E+00,5.33046000000000E+00,7.02198000000000E+00,7.25042000000000E+00,7.56559000000000E+00,7.43497000000000E+00,7.34062000000000E+00,8.37625000000000E+00,1.16351900000000E+01,1.39313000000000E+01,1.49310700000000E+01,1.82911200000000E+01,1.93888000000000E+01,2.13243600000000E+01,2.17508300000000E+01,2.09618500000000E+01,2.51651200000000E+01,1.79699500000000E+01,1.87250000000000E+01,2.12157600000000E+01,1.98540100000000E+01,2.44972000000000E+01,2.20766000000000E+01,2.61730900000000E+01,,2.61966000000000E+01,2.49452700000000E+01,2.82698800000000E+01,,
MMR,,,,,,,,,,,,,2.24396000000000E+00,2.19917000000000E+00,,,,2.75041000000000E+00,,3.71735000000000E+00,,,,,,,,,,,,,3.93329000000000E+00,4.60000000000000E+00,,4.12109000000000E+00,,,5.36545000000000E+00,,,,,,,,,9.20903000000000E+00,,,,
MNA,,,,,,,,,,,,,,,,,,,,,,,,,,,,,,,,1.56608775093169E+01,,,,,,,,2.36011800000000E+01,2.29026100000000E+01,2.27409400000000E+01,2.19605800000000E+01,2.18141100000000E+01,2.27283700000000E+01,2.36624100000000E+01,2.42878500000000E+01,2.54467600000000E+01,2.71886500000000E+01,2.78085200000000E+01,,
MNE,,,,,,,,,,,,,,,,,,,,,,,,,,,,,,,,,,,,,,,,,,1.41602700000000E+01,1.33621000000000E+01,1.36793600000000E+01,1.51050000000000E+01,1.73807800000000E+01,2.05015800000000E+01,2.70751100000000E+01,3.42366400000000E+01,3.94388000000000E+01,,
MNG,,,,,,,,,,,,,,,,,,,,,,,,,,,,,,,,,,,,,9.83585000000000E+00,1.13379900000000E+01,1.34389400000000E+01,1.89699600000000E+01,2.19120800000000E+01,2.52197000000000E+01,2.63079000000000E+01,2.84484800000000E+01,3.09817800000000E+01,3.41491500000000E+01,3.69393200000000E+01,3.65399200000000E+01,3.73290800000000E+01,3.97872000000000E+01,4.12324100000000E+01,
MOZ,,,,,,,,,,,,,,3.23420000000000E-01,,,,1.17410000000000E-01,,,,,1.55300000000000E-01,,,1.84560000000000E-01,2.41220000000000E-01,3.12220000000000E-01,,,,,5.74300000000000E-01,6.42700000000000E-01,7.23190000000000E-01,7.62340000000000E-01,7.96870000000000E-01,,,,,,,1.27258000000000E+00,1.61384000000000E+00,1.95191000000000E+00,,,,,,
MRT,,,,,,,,,,,,,,,,,,,6.67090000000000E-01,,,,,,,,,,5.11179000000000E+00,5.34167000000000E+00,5.28811000000000E+00,4.58681000000000E+00,4.83880000000000E+00,6.02117000000000E+00,5.80912000000000E+00,5.71446000000000E+00,6.02487000000000E+00,,6.24975000000000E+00,,,5.56024000000000E+00,4.63512000000000E+00,4.92581000000000E+00,4.84122000000000E+00,4.39259000000000E+00,4.89087000000000E+00,,5.18583000000000E+00,5.28931000000000E+00,6.14958000000000E+00,
MUS,,,,,,,,,,,4.81007000000000E+00,2.75645000000000E+00,2.72690000000000E+00,2.73491000000000E+00,2.62193000000000E+00,2.17987000000000E+00,2.63360000000000E+00,2.54045000000000E+00,2.21235000000000E+00,1.85085000000000E+00,1.46515000000000E+00,1.26082000000000E+00,1.32957000000000E+00,9.23000000000000E-01,1.05225000000000E+00,1.31769000000000E+00,1.29388000000000E+00,1.70149000000000E+00,2.42632000000000E+00,2.45753000000000E+00,3.80324000000000E+00,4.08033000000000E+00,,,5.38506000000000E+00,5.62407000000000E+00,,7.18356000000000E+00,,1.05359100000000E+01,1.15418600000000E+01,1.52806400000000E+01,1.64545300000000E+01,1.79153200000000E+01,1.86973900000000E+01,2.11885000000000E+01,2.28392200000000E+01,2.12093500000000E+01,2.22418900000000E+01,,,
MWI,,,,,,,,,,,,,,,,,,,,,7.21880000000000E-01,7.00720000000000E-01,7.30380000000000E-01,7.16070000000000E-01,7.36570000000000E-01,7.43030000000000E-01,7.26790000000000E-01,7.19420000000000E-01,,8.33750000000000E-01,8.26040000000000E-01,8.45000000000000E-01,8.35440000000000E-01,8.63930000000000E-01,8.63100000000000E-01,8.16410000000000E-01,8.13940000000000E-01,,,4.30670000000000E-01,4.74660000000000E-01,5.28330000000000E-01,5.77560000000000E-01,6.01120000000000E-01,6.54520000000000E-01,6.39330000000000E-01,6.85660000000000E-01,6.75930000000000E-01,,,,
MYS,,,,,,,,,,,,,,,,,,,,4.92598000000000E+00,5.19780000000000E+00,5.46033000000000E+00,5.30448000000000E+00,5.04661000000000E+00,5.74319000000000E+00,6.55304000000000E+00,,8.19301000000000E+00,8.12963000000000E+00,,,,,,,,,,2.13835200000000E+01,2.25487100000000E+01,2.50242200000000E+01,2.30524600000000E+01,2.50471900000000E+01,2.67471900000000E+01,2.75648000000000E+01,2.54993200000000E+01,2.72985000000000E+01,2.88041900000000E+01,3.26151400000000E+01,,,
NAC,,,,,,,,,,,,,,,,,,,,,,,,,,,,,,,,,,,,,,,,6.09776400000000E+01,5.76406700000000E+01,5.82255400000000E+01,6.58061000000000E+01,6.69876000000000E+01,6.65462100000000E+01,6.67273700000000E+01,6.64342000000000E+01,6.66226000000000E+01,6.78723600000000E+01,7.02251200000000E+01,,
NAM,,,,,,,,,,,,,,,,,,,,,,,,,,,,,,,,2.09667000000000E+00,,,4.81697000000000E+00,5.56384000000000E+00,,4.97178000000000E+00,6.06425000000000E+00,,,7.57508000000000E+00,4.80241000000000E+00,5.63247000000000E+00,,7.09314000000000E+00,6.73172000000000E+00,,7.71274000000000E+00,,,
NER,,,,,,,,,,,,0.00000000000000E+00,0.00000000000000E+00,1.11280000000000E-01,1.45650000000000E-01,1.74050000000000E-01,2.68470000000000E-01,3.73010000000000E-01,3.93490000000000E-01,4.80930000000000E-01,4.95740000000000E-01,7.17070000000000E-01,9.09530000000000E-01,9.84340000000000E-01,9.79810000000000E-01,1.10389000000000E+00,,1.16561000000000E+00,,1.28197000000000E+00,1.52368000000000E+00,,,,,,,,,,,,,1.57163000000000E+00,1.52137000000000E+00,1.79311000000000E+00,1.90259000000000E+00,1.68259000000000E+00,1.83232000000000E+00,2.17733000000000E+00,2.20078000000000E+00,
NGA,,,,,,,,,,,,,,,,,,,,,,,,,,4.97750000000000E+00,5.17284000000000E+00,4.94919000000000E+00,,,,,,,,,,,,6.70609000000000E+00,,,,1.12367200000000E+01,1.13344300000000E+01,1.19504600000000E+01,,,,,,
NIC,,,,,,,,,,,6.01073000000000E+00,5.60776000000000E+00,6.86012000000000E+00,5.73692000000000E+00,6.00014000000000E+00,8.21873000000000E+00,9.40235000000000E+00,8.81761000000000E+00,,,,,1.03202300000000E+01,1.13703200000000E+01,9.56467000000000E+00,7.17007000000000E+00,6.41839000000000E+00,6.61615000000000E+00,,,7.46088000000000E+00,7.82316000000000E+00,8.47902000000000E+00,,,1.05241000000000E+01,,1.07258900000000E+01,,,,1.66899900000000E+01,1.69415900000000E+01,1.72007100000000E+01,,,,,,,,
NLD,,,,,,,,,,,,2.76292000000000E+01,2.94833800000000E+01,,1.56531800000000E+01,3.14659400000000E+01,3.36225800000000E+01,3.48280100000000E+01,3.54747700000000E+01,3.51273000000000E+01,3.52885700000000E+01,3.46502400000000E+01,3.44424100000000E+01,3.43302800000000E+01,3.45095700000000E+01,3.53785600000000E+01,3.68298100000000E+01,3.59726700000000E+01,3.67847200000000E+01,3.69054000000000E+01,3.91064000000000E+01,4.34521800000000E+01,4.51055200000000E+01,4.72837400000000E+01,5.13202200000000E+01,4.92654100000000E+01,4.95123700000000E+01,4.79664700000000E+01,4.80167700000000E+01,4.97684500000000E+01,5.18081900000000E+01,5.31598300000000E+01,5.37881700000000E+01,5.38509400000000E+01,5.51158800000000E+01,5.66337000000000E+01,5.74071900000000E+01,5.77943700000000E+01,5.83518700000000E+01,5.91792700000000E+01,,
NOC,,,,,,,,,,,,,,,,,,,,,,,,,,,,,,,,,,,,,,,,2.09054100000000E+01,2.17062000000000E+01,2.28226400000000E+01,2.26438000000000E+01,2.43716800000000E+01,2.50466000000000E+01,2.58938800000000E+01,2.66289100000000E+01,2.90793900000000E+01,3.24487900000000E+01,3.35526600000000E+01,,
NOR,,,,,,,,,,,,2.13598300000000E+01,2.25768200000000E+01,2.41092400000000E+01,2.64422500000000E+01,2.64692500000000E+01,2.68957800000000E+01,2.72328200000000E+01,2.64648600000000E+01,2.68951300000000E+01,2.66573900000000E+01,2.60105300000000E+01,2.65696600000000E+01,2.82535900000000E+01,2.86777600000000E+01,2.90079200000000E+01,2.77635200000000E+01,3.06480300000000E+01,2.96647700000000E+01,3.14198800000000E+01,3.48731100000000E+01,3.88268300000000E+01,4.19830400000000E+01,4.57547400000000E+01,4.92547800000000E+01,4.84209700000000E+01,5.11211200000000E+01,5.28826000000000E+01,5.32771700000000E+01,5.56420200000000E+01,5.66766800000000E+01,5.62825600000000E+01,5.82262400000000E+01,6.26900500000000E+01,6.30815300000000E+01,6.25069600000000E+01,6.14528100000000E+01,5.89266300000000E+01,5.59021500000000E+01,5.61717800000000E+01,,
NPL,,,,,,,,,,,,,,,,,2.27053000000000E+00,2.83476000000000E+00,3.57015000000000E+00,,,,,,,,,,,8.60103000000000E+00,7.40192000000000E+00,8.40015000000000E+00,,,,,,,,,5.81877000000000E+00,6.76174000000000E+00,7.62755000000000E+00,7.15940000000000E+00,7.85087000000000E+00,,,,,,,
NZL,,,,,,,,,,,1.93317600000000E+01,1.95902800000000E+01,3.20030500000000E+01,3.23988100000000E+01,3.08540800000000E+01,3.03101500000000E+01,3.08924800000000E+01,,,3.09440900000000E+01,3.09065200000000E+01,3.14715100000000E+01,3.18155400000000E+01,3.17263000000000E+01,3.36556500000000E+01,3.28479500000000E+01,3.46645600000000E+01,3.58100800000000E+01,3.91253100000000E+01,4.12916900000000E+01,3.76395700000000E+01,4.27637300000000E+01,4.78936300000000E+01,5.27109600000000E+01,5.34670700000000E+01,5.18657400000000E+01,5.14506800000000E+01,5.31743200000000E+01,5.02078900000000E+01,5.27370200000000E+01,5.39652800000000E+01,5.44857300000000E+01,5.48064100000000E+01,5.65231300000000E+01,6.87175300000000E+01,6.58327000000000E+01,6.37457000000000E+01,6.42984900000000E+01,6.36955200000000E+01,6.79160900000000E+01,,
OEC,,,,,,,,,,,,,,,,,,,,,,,,,,,,,,,,4.57161082618967E+01,,,,,,,,5.42146400000000E+01,5.44485500000000E+01,5.59349800000000E+01,5.97191700000000E+01,6.09855300000000E+01,6.14588900000000E+01,6.20425500000000E+01,6.23827100000000E+01,6.27381800000000E+01,6.33527700000000E+01,6.48374200000000E+01,,
OMN,,,,,,,,,,,,,,,,,,,3.87300000000000E-02,2.15400000000000E-02,2.63700000000000E-02,3.26500000000000E-02,2.27500000000000E-02,4.73300000000000E-02,1.04510000000000E-01,3.47880000000000E-01,9.56300000000000E-01,1.95897000000000E+00,2.87932000000000E+00,3.29244000000000E+00,3.97574000000000E+00,4.19096000000000E+00,4.57654000000000E+00,4.73902000000000E+00,4.78158000000000E+00,5.81237000000000E+00,5.67530000000000E+00,6.78660000000000E+00,8.32320000000000E+00,,,,1.68474100000000E+01,1.72453600000000E+01,,,,,,2.06073000000000E+01,2.10415200000000E+01,
PAK,,,,,,,,,,,,3.22729000000000E+00,2.79133000000000E+00,2.79542000000000E+00,2.78544000000000E+00,2.73532000000000E+00,3.00064000000000E+00,2.95757000000000E+00,3.14945000000000E+00,3.19233000000000E+00,3.11464000000000E+00,,,,,3.90910000000000E+00,4.10158000000000E+00,4.00354000000000E+00,4.40644000000000E+00,,4.02988000000000E+00,,,,,,,,,,,,2.84951000000000E+00,2.87384000000000E+00,3.63875000000000E+00,5.05885000000000E+00,5.18425000000000E+00,5.85898000000000E+00,5.84828000000000E+00,,,
PAN,,,,,,,,,,,7.41055000000000E+00,1.20875100000000E+01,1.39875200000000E+01,1.40862700000000E+01,1.49654600000000E+01,1.60515100000000E+01,1.74759000000000E+01,1.91132800000000E+01,1.76136900000000E+01,1.80455200000000E+01,1.86853200000000E+01,1.93351000000000E+01,1.94426400000000E+01,1.70689300000000E+01,2.06001300000000E+01,2.04036000000000E+01,,1.83541400000000E+01,1.76903600000000E+01,,,,,,2.11359000000000E+01,,,,3.02567100000000E+01,3.14115300000000E+01,3.27161100000000E+01,3.19753000000000E+01,3.17288900000000E+01,3.60144800000000E+01,3.41797400000000E+01,3.34271700000000E+01,3.42712900000000E+01,3.45477600000000E+01,3.53650500000000E+01,3.54093200000000E+01,,
PER,,,,,,,,,,,1.30289800000000E+01,1.29247400000000E+01,1.36840800000000E+01,1.53506100000000E+01,1.66254300000000E+01,1.75643900000000E+01,1.79507700000000E+01,,,,2.21618600000000E+01,,,,,,,,,,,,,,,,,,2.92923900000000E+01,,,3.20136100000000E+01,3.06840300000000E+01,3.07468100000000E+01,3.32736600000000E+01,3.33285000000000E+01,3.39612000000000E+01,,,,,
PHL,,,,,,,,,,,,1.53831400000000E+01,,1.56608000000000E+01,,,,,,2.19071100000000E+01,2.23519700000000E+01,2.32975400000000E+01,2.37038600000000E+01,,,,,,,,,,2.05729300000000E+01,,,,2.41763800000000E+01,,2.34444300000000E+01,2.50940600000000E+01,,,2.60673100000000E+01,2.53323100000000E+01,2.48156700000000E+01,2.46520600000000E+01,2.48374200000000E+01,,2.57886400000000E+01,,,
PLW,,,,,,,,,,,,,,,,,,,,,,,,,,,,,,,,,,,,,,,,,,2.51076000000000E+01,2.56150500000000E+01,,,,,,,,,
PNG,,,,,,,,,,,,,,,,,,2.80168000000000E+00,2.71579000000000E+00,2.60895000000000E+00,2.50170000000000E+00,,2.29564000000000E+00,2.10514000000000E+00,2.55262000000000E+00,2.05341000000000E+00,2.48271000000000E+00,,,,,,,,,4.18034000000000E+00,4.13054000000000E+00,,2.59683000000000E+00,2.39037000000000E+00,,,,,,,,,,,,
POL,,,,,,,,,,,,1.36837300000000E+01,1.31131200000000E+01,1.29399600000000E+01,1.35671800000000E+01,1.39553800000000E+01,1.48920100000000E+01,1.54720500000000E+01,1.58159300000000E+01,1.60086100000000E+01,1.58538000000000E+01,1.56394400000000E+01,1.49549800000000E+01,1.43801500000000E+01,1.43871900000000E+01,1.43623600000000E+01,1.47609400000000E+01,1.50091500000000E+01,1.55518200000000E+01,1.70085100000000E+01,1.64746700000000E+01,1.86699600000000E+01,1.82541500000000E+01,2.06674800000000E+01,2.32019900000000E+01,2.57964000000000E+01,2.86765300000000E+01,3.21957200000000E+01,3.29311100000000E+01,3.85865900000000E+01,4.22320100000000E+01,4.60440700000000E+01,4.86273200000000E+01,4.98999900000000E+01,5.13462300000000E+01,5.33583100000000E+01,5.47924100000000E+01,5.59537600000000E+01,5.76317300000000E+01,5.83413700000000E+01,,
PRI,,,,,,,,,,,,,,,,,,,,,,,,,,,,,,,,,,,,,,,,,,,,,,,,5.49658100000000E+01,6.07449300000000E+01,6.34232300000000E+01,6.95743000000000E+01,
PRT,,,,,,,,,,,,8.28967000000000E+00,8.42631000000000E+00,8.21872000000000E+00,8.46593000000000E+00,9.76574000000000E+00,1.14595400000000E+01,1.39263500000000E+01,1.23280900000000E+01,1.20413800000000E+01,1.16986400000000E+01,1.18053900000000E+01,1.16691300000000E+01,1.18762200000000E+01,1.08579500000000E+01,1.24785200000000E+01,1.12422600000000E+01,1.47474400000000E+01,,,,2.01475400000000E+01,1.84712600000000E+01,2.65065700000000E+01,2.89120100000000E+01,3.14480000000000E+01,3.35532900000000E+01,,3.79869600000000E+01,3.86491300000000E+01,4.05903100000000E+01,4.24817500000000E+01,4.44683200000000E+01,4.66326400000000E+01,4.79603300000000E+01,4.82472000000000E+01,4.87393000000000E+01,5.18593900000000E+01,5.56573300000000E+01,5.68936100000000E+01,,
PRY,,,,,,,,,,,4.27667000000000E+00,,,,,,7.76812000000000E+00,8.48439000000000E+00,8.47871000000000E+00,,,,,,,,,9.12293000000000E+00,8.84110000000000E+00,8.52817000000000E+00,8.86593000000000E+00,,,1.04786500000000E+01,,,,,,1.10180100000000E+01,1.33733700000000E+01,1.48611700000000E+01,2.16506100000000E+01,2.07749100000000E+01,2.13321400000000E+01,2.40390200000000E+01,,2.45500100000000E+01,,3.02178100000000E+01,,
QAT,,,,,,,,,,,,0.00000000000000E+00,,,,,2.60107000000000E+00,2.88585000000000E+00,,,5.38685000000000E+00,6.35970000000000E+00,9.08059000000000E+00,1.18733500000000E+01,1.13027800000000E+01,1.21697700000000E+01,1.23109500000000E+01,1.05635100000000E+01,1.01476800000000E+01,1.12758500000000E+01,1.16772400000000E+01,1.19135100000000E+01,1.02397500000000E+01,1.05372500000000E+01,9.90399000000000E+00,9.59204000000000E+00,9.61924000000000E+00,9.73194000000000E+00,1.07330600000000E+01,1.36299200000000E+01,,9.55123000000000E+00,7.64804000000000E+00,6.78884000000000E+00,8.12242000000000E+00,9.19451000000000E+00,9.74737000000000E+00,6.65566000000000E+00,5.66108000000000E+00,4.81426000000000E+00,4.85579000000000E+00,
ROM,,,,,,,,,,,,1.08115500000000E+01,1.01479100000000E+01,9.88552000000000E+00,8.92405000000000E+00,9.38601000000000E+00,9.76758000000000E+00,1.04569500000000E+01,1.10049900000000E+01,1.19815400000000E+01,1.23854300000000E+01,1.28645100000000E+01,1.31810100000000E+01,1.31401400000000E+01,1.29677800000000E+01,1.25526900000000E+01,1.16681800000000E+01,1.06120100000000E+01,9.73706000000000E+00,8.96172000000000E+00,8.61466000000000E+00,9.93404000000000E+00,1.12513900000000E+01,,,,,2.07921700000000E+01,1.91652200000000E+01,2.02486900000000E+01,2.22546200000000E+01,2.58038500000000E+01,2.88842400000000E+01,3.36260100000000E+01,3.69024400000000E+01,4.07066600000000E+01,4.52757900000000E+01,4.84616500000000E+01,5.32878800000000E+01,5.47178200000000E+01,,
RUS,,,,,,,,,,,,4.18049500000000E+01,,,,,,,,,,3.99995900000000E+01,,,,,4.51034500000000E+01,,,,,4.67866500000000E+01,4.51143900000000E+01,4.21063100000000E+01,,,,,,,,,,5.64897900000000E+01,5.95922800000000E+01,6.11506900000000E+01,6.13818600000000E+01,6.24535900000000E+01,6.34819200000000E+01,6.47394500000000E+01,,
RWA,,,,,,,,,,,,3.16510000000000E-01,,3.91270000000000E-01,3.55990000000000E-01,4.92090000000000E-01,,5.00980000000000E-01,4.74380000000000E-01,,4.88250000000000E-01,4.79390000000000E-01,,,5.68430000000000E-01,6.03320000000000E-01,6.28680000000000E-01,6.07480000000000E-01,6.43470000000000E-01,7.15070000000000E-01,9.34970000000000E-01,,,,,,,,,,,2.18530000000000E+00,2.53023000000000E+00,2.94914000000000E+00,3.35863000000000E+00,,,,,5.49128000000000E+00,,
SAS,,,,,,,,,,,,,,,,,,,,,,,,,,,,,,,,,,,,,,,,8.85779000000000E+00,9.66317000000000E+00,9.86814000000000E+00,1.02646400000000E+01,1.07855100000000E+01,1.11479900000000E+01,1.09453900000000E+01,1.16666600000000E+01,1.34200100000000E+01,1.34002600000000E+01,,,
SAU,,,,,,,,,,,,2.83371000000000E+00,2.92882000000000E+00,3.25358000000000E+00,3.96463000000000E+00,4.86109000000000E+00,5.73634000000000E+00,6.55195000000000E+00,8.37392000000000E+00,8.24534000000000E+00,8.45260000000000E+00,8.97264000000000E+00,9.31195000000000E+00,9.81747000000000E+00,9.35875000000000E+00,1.00846000000000E+01,1.01500900000000E+01,1.13404100000000E+01,,,,1.10936000000000E+01,1.25996500000000E+01,1.34905200000000E+01,1.45858400000000E+01,1.63679100000000E+01,1.69868600000000E+01,1.81683100000000E+01,1.64756500000000E+01,1.70818400000000E+01,1.98660100000000E+01,2.16262600000000E+01,1.91092400000000E+01,2.18441000000000E+01,2.28670400000000E+01,2.39276100000000E+01,2.49135700000000E+01,2.66092700000000E+01,2.70121200000000E+01,2.80209200000000E+01,3.47279700000000E+01,
SDN,,,,,,,,,,,,1.81110000000000E+00,2.05206000000000E+00,2.09489000000000E+00,2.26287000000000E+00,2.41823000000000E+00,2.29026000000000E+00,2.15132000000000E+00,2.28078000000000E+00,2.32366000000000E+00,2.23768000000000E+00,2.27407000000000E+00,2.43695000000000E+00,2.33495000000000E+00,2.23672000000000E+00,2.19315000000000E+00,2.16571000000000E+00,2.31583000000000E+00,1.84955000000000E+00,,2.94190000000000E+00,,,,,,4.28234000000000E+00,,,6.40124000000000E+00,6.34064000000000E+00,,,,,,,,,,,
SEN,,,,,,,,,,,,2.33748000000000E+00,2.62102000000000E+00,,,,,3.58213000000000E+00,3.67367000000000E+00,,4.47699000000000E+00,4.77319000000000E+00,4.28207000000000E+00,4.50264000000000E+00,3.70703000000000E+00,3.76239000000000E+00,,,,,,,,,,,,,,,,,,,,,8.19731000000000E+00,8.68760000000000E+00,1.07320900000000E+01,1.05040200000000E+01,9.92462000000000E+00,
SLE,,,,,,,,,,,,8.35390000000000E-01,9.39440000000000E-01,1.02387000000000E+00,1.10506000000000E+00,1.20144000000000E+00,1.21494000000000E+00,,,,,,,,1.08221000000000E+00,1.09612000000000E+00,,,,,,,,,,,,,,,1.89373000000000E+00,3.09647000000000E+00,3.05817000000000E+00,,,,,,,,,
SLV,,,,,,,,,,,,,,8.00497000000000E+00,1.00732500000000E+01,1.00863700000000E+01,,,1.09501100000000E+01,,,,1.41252400000000E+01,1.59313900000000E+01,1.71936300000000E+01,1.90366300000000E+01,1.99273000000000E+01,,,,,,,,2.07399100000000E+01,2.15630500000000E+01,2.10228200000000E+01,,2.02227200000000E+01,1.98714100000000E+01,1.94990400000000E+01,1.86658500000000E+01,1.91303200000000E+01,1.96356200000000E+01,1.92111700000000E+01,1.96279000000000E+01,1.95818000000000E+01,2.02067800000000E+01,2.08333900000000E+01,2.12422100000000E+01,,
SOM,,,,,,,,,,,,,5.02230000000000E-01,,,7.66510000000000E-01,9.45750000000000E-01,,,,,,,,,,,4.15524000000000E+00,,,,,,,,,,,,,,,,,,,,,,,,
SRB,,,,,,,,,,,,,,,,,,,,,,,,,,,,,,,,,,,,,,,,,,,,,,,,4.20498100000000E+01,4.24747600000000E+01,4.36125300000000E+01,4.28422800000000E+01,
SSA,,,,,,,,,,,,,,,,,,,,,,,,,,,,,,,,,,,,,,,,4.70437000000000E+00,5.11889000000000E+00,5.53291000000000E+00,5.92459000000000E+00,6.46652000000000E+00,6.65017000000000E+00,6.72622000000000E+00,6.82120000000000E+00,7.15542000000000E+00,7.41320000000000E+00,7.65380000000000E+00,,
SSF,,,,,,,,,,,,,,,,,,,,,,,,,,,,,,,,,,,,,,,,4.70424000000000E+00,5.11863000000000E+00,5.53244000000000E+00,5.92390000000000E+00,6.46549000000000E+00,6.64896000000000E+00,6.72487000000000E+00,6.81970000000000E+00,7.15374000000000E+00,7.41125000000000E+00,7.65157000000000E+00,,
STP,,,,,,,,,,,,,,,,,,,,,,,,,,,,,,,,,,,,,,,,,,,,,,,,,,4.33913000000000E+00,4.52970000000000E+00,
SUR,,,,,,,,,,,,,,,,,,,,,,,,,,6.50687000000000E+00,5.78344000000000E+00,7.52015000000000E+00,8.05493000000000E+00,8.59855000000000E+00,9.28763000000000E+00,,,,,,,,,,,,8.96370000000000E+00,,,,,,,,,
SVK,,,,,,,,,,,,,,,,,,,,,,,,,,,,,,,,,,1.63635000000000E+01,1.71884900000000E+01,1.86723100000000E+01,2.00166600000000E+01,2.15509000000000E+01,2.35367500000000E+01,2.47820400000000E+01,2.78669100000000E+01,2.89057900000000E+01,3.02667700000000E+01,3.12296400000000E+01,3.23288300000000E+01,3.51330600000000E+01,3.67385200000000E+01,3.96894200000000E+01,4.07251100000000E+01,4.19588300000000E+01,,
SVN,,,,,,,,,,,,,,,,,,,,,,1.77171500000000E+01,1.67739400000000E+01,1.72744500000000E+01,1.88613100000000E+01,1.88155500000000E+01,1.94838000000000E+01,2.01010400000000E+01,1.99762900000000E+01,1.98054800000000E+01,2.15214700000000E+01,2.05956000000000E+01,2.48894900000000E+01,2.43964200000000E+01,2.54713800000000E+01,2.52191300000000E+01,2.76107600000000E+01,3.07297900000000E+01,3.95271100000000E+01,4.44673100000000E+01,4.70598800000000E+01,5.16828300000000E+01,5.48947800000000E+01,5.89607100000000E+01,6.10074700000000E+01,6.54378800000000E+01,6.73649800000000E+01,6.91808100000000E+01,7.02119900000000E+01,7.12579500000000E+01,,
SWE,,,,,,,,,,,,2.45831200000000E+01,2.54995600000000E+01,2.47505300000000E+01,2.40253700000000E+01,2.41711300000000E+01,3.45489000000000E+01,3.59274700000000E+01,3.85637900000000E+01,3.90217300000000E+01,3.90658100000000E+01,,,,,2.88591500000000E+01,2.80768000000000E+01,2.78529500000000E+01,2.78532300000000E+01,2.78536700000000E+01,2.80883100000000E+01,2.88626900000000E+01,3.10835300000000E+01,3.34751300000000E+01,3.55321800000000E+01,3.76111600000000E+01,4.03436100000000E+01,4.29843800000000E+01,4.45162400000000E+01,5.28327900000000E+01,5.48483800000000E+01,5.62148100000000E+01,5.96643200000000E+01,6.43927400000000E+01,6.63446900000000E+01,6.48295600000000E+01,6.27012300000000E+01,5.86786900000000E+01,5.49021900000000E+01,5.50600200000000E+01,,
SWZ,,,,,,,,,,,6.71570000000000E-01,,1.00818000000000E+00,,,,3.15761000000000E+00,3.44478000000000E+00,,3.48498000000000E+00,4.40868000000000E+00,3.82362000000000E+00,4.34894000000000E+00,,,,,,,,4.96292000000000E+00,4.48034000000000E+00,4.42330000000000E+00,5.74553000000000E+00,,,6.26060000000000E+00,,,5.11392000000000E+00,4.68597000000000E+00,,4.18360000000000E+00,4.20810000000000E+00,5.23767000000000E+00,4.58444000000000E+00,4.46245000000000E+00,,,,,
SYR,,,,,,,,,,,,1.15581500000000E+01,1.34623800000000E+01,1.31329300000000E+01,1.36966600000000E+01,1.46795200000000E+01,1.49855100000000E+01,1.80913200000000E+01,1.93065100000000E+01,2.11413100000000E+01,1.97957000000000E+01,2.31277800000000E+01,2.20579700000000E+01,2.20039200000000E+01,2.16380600000000E+01,2.26038100000000E+01,2.24245500000000E+01,2.18381700000000E+01,2.37397100000000E+01,2.26357300000000E+01,2.18959900000000E+01,2.16647300000000E+01,2.03769500000000E+01,1.99124000000000E+01,1.80182300000000E+01,1.71475900000000E+01,,,,,,,,,,,,,,,,
TCA,,,,,,,,,,,,,,,,,,,,,,,,,,,,,,,,,,,,,,,,,,,,,,,,,8.03200000000000E-02,,,
TCD,,,,,,,,,,,,0.00000000000000E+00,2.90100000000000E-02,1.43980000000000E-01,3.26210000000000E-01,2.26380000000000E-01,2.84140000000000E-01,3.85230000000000E-01,,,,,,,,6.97040000000000E-01,7.87220000000000E-01,8.88380000000000E-01,,,,,,,,,9.57460000000000E-01,9.95540000000000E-01,1.22053000000000E+00,,1.39164000000000E+00,1.38251000000000E+00,,1.63565000000000E+00,2.08815000000000E+00,2.65082000000000E+00,,,3.43254000000000E+00,3.50262000000000E+00,3.68968000000000E+00,
TGO,,,,,,,,,,,,,1.31800000000000E+00,1.34230000000000E+00,1.27803000000000E+00,1.36737000000000E+00,1.93159000000000E+00,2.17140000000000E+00,2.31674000000000E+00,2.35671000000000E+00,2.65598000000000E+00,3.41231000000000E+00,2.99318000000000E+00,2.71167000000000E+00,2.68324000000000E+00,2.72864000000000E+00,3.11473000000000E+00,3.59124000000000E+00,3.95192000000000E+00,3.97916000000000E+00,4.00066000000000E+00,4.38396000000000E+00,4.94810000000000E+00,4.17137000000000E+00,4.22819000000000E+00,4.83172000000000E+00,4.75205000000000E+00,,5.23785000000000E+00,,,,,,,,,,,,,
THA,,,,,,,,,,,,,,,,,3.94990000000000E+00,4.68579000000000E+00,5.75211000000000E+00,,,,,,,,,,,,,,,1.79245600000000E+01,,,,,,3.01941700000000E+01,3.17008500000000E+01,3.64868600000000E+01,3.76701000000000E+01,3.77608500000000E+01,3.80078900000000E+01,4.11106300000000E+01,4.21151500000000E+01,4.19512800000000E+01,4.13202600000000E+01,4.10124600000000E+01,4.00092800000000E+01,
TJK,,,,,,,,,,,,,,,,,,,,,,,,,,,,,,,,,,,,,,,,2.03314400000000E+01,2.08756800000000E+01,2.02364200000000E+01,2.13012500000000E+01,2.35399000000000E+01,2.53414300000000E+01,2.63172800000000E+01,2.76126000000000E+01,2.88732600000000E+01,2.89740800000000E+01,2.81691500000000E+01,2.78571100000000E+01,
TMP,,,,,,,,,,,,,,,,,,,,,,,,,,,,,,,,,,,,,,,,,,,7.70003000000000E+00,,,,,,,1.94789100000000E+01,,
TON,,,,,,,,,,,0.00000000000000E+00,,,,,,,,2.29787000000000E+00,2.16138000000000E+00,,7.74358000000000E+00,,,5.59730000000000E+00,5.69737000000000E+00,,,,,,,,,,,,,,3.16847000000000E+00,3.64018000000000E+00,3.13101000000000E+00,4.20959000000000E+00,4.82368000000000E+00,5.02283000000000E+00,,,,,,,
TTO,,,,,,,,,,,,3.13326000000000E+00,3.30673000000000E+00,3.34757000000000E+00,3.38651000000000E+00,3.35705000000000E+00,5.52661000000000E+00,5.60529000000000E+00,5.62077000000000E+00,5.55115000000000E+00,5.34214000000000E+00,5.01606000000000E+00,5.31835000000000E+00,4.39299000000000E+00,4.84579000000000E+00,5.53848000000000E+00,6.49380000000000E+00,6.41320000000000E+00,,7.68408000000000E+00,,7.30416000000000E+00,8.05729000000000E+00,8.64051000000000E+00,,,,,,5.08090000000000E+00,4.73000000000000E+00,4.92837000000000E+00,6.72830000000000E+00,6.48073000000000E+00,1.00065700000000E+01,1.01203900000000E+01,,,,,,
TUN,,,,,,,,,,,,4.24370000000000E+00,4.14593000000000E+00,3.75627000000000E+00,4.21260000000000E+00,4.28493000000000E+00,5.84031000000000E+00,6.18623000000000E+00,6.73991000000000E+00,6.77582000000000E+00,6.63261000000000E+00,6.73359000000000E+00,6.57638000000000E+00,6.49462000000000E+00,6.44857000000000E+00,6.77484000000000E+00,7.16294000000000E+00,6.79497000000000E+00,7.09559000000000E+00,8.59675000000000E+00,9.67109000000000E+00,1.02629100000000E+01,1.10757900000000E+01,1.25460500000000E+01,1.33804500000000E+01,1.39237700000000E+01,1.48462100000000E+01,1.54484300000000E+01,1.64960800000000E+01,1.76002800000000E+01,,2.22892700000000E+01,2.12584300000000E+01,2.38792900000000E+01,2.52195700000000E+01,2.61503100000000E+01,2.67856600000000E+01,2.55983300000000E+01,2.74083900000000E+01,2.75258400000000E+01,,
TUR,,,,,,,,,,,,7.79607000000000E+00,7.45007000000000E+00,7.25776000000000E+00,7.45112000000000E+00,9.87844000000000E+00,1.19806200000000E+01,1.26781200000000E+01,1.21354700000000E+01,1.11513800000000E+01,9.08540000000000E+00,,7.74890000000000E+00,7.98423000000000E+00,8.88783000000000E+00,1.12537100000000E+01,1.22614200000000E+01,1.26426300000000E+01,1.30179400000000E+01,1.39961500000000E+01,1.56774900000000E+01,1.66741600000000E+01,1.74778700000000E+01,1.93284200000000E+01,2.24791200000000E+01,2.23399500000000E+01,,2.76992000000000E+01,2.49852900000000E+01,2.76146000000000E+01,2.93491200000000E+01,2.86312900000000E+01,2.92566900000000E+01,3.28061600000000E+01,3.43102000000000E+01,3.66858500000000E+01,4.10134600000000E+01,4.32452300000000E+01,4.45252400000000E+01,5.10390700000000E+01,,
TZA,,,,,,,,,,,2.96990000000000E-01,3.11400000000000E-01,3.70870000000000E-01,4.04210000000000E-01,4.54940000000000E-01,4.04530000000000E-01,4.24980000000000E-01,3.30370000000000E-01,5.80660000000000E-01,4.48440000000000E-01,,,4.35950000000000E-01,4.39830000000000E-01,4.57160000000000E-01,4.54860000000000E-01,4.55440000000000E-01,5.43560000000000E-01,,,,5.61550000000000E-01,5.75350000000000E-01,6.56530000000000E-01,6.90570000000000E-01,8.23540000000000E-01,9.11030000000000E-01,1.02589000000000E+00,8.81610000000000E-01,1.00258000000000E+00,,1.05374000000000E+00,1.17223000000000E+00,1.28454000000000E+00,1.76883000000000E+00,1.96818000000000E+00,,,,,,
UGA,,,,,,,,,,,8.76210000000000E-01,8.66420000000000E-01,9.93580000000000E-01,,1.00143000000000E+00,9.54590000000000E-01,8.51900000000000E-01,9.42560000000000E-01,,8.86910000000000E-01,8.35250000000000E-01,9.05760000000000E-01,9.28140000000000E-01,,,1.21806000000000E+00,1.20208000000000E+00,,1.42694000000000E+00,1.44465000000000E+00,1.62996000000000E+00,1.91405000000000E+00,1.83395000000000E+00,1.94622000000000E+00,2.09210000000000E+00,2.18416000000000E+00,2.40247000000000E+00,,,2.53165000000000E+00,3.39600000000000E+00,3.64372000000000E+00,4.03059000000000E+00,4.03319000000000E+00,4.36789000000000E+00,,3.92637000000000E+00,,4.21172000000000E+00,4.68826000000000E+00,,
UKR,,,,,,,,,,,,,,,,,,,,,,,,,,,,,,,,,,,3.53190200000000E+01,,,,4.25868900000000E+01,4.45143700000000E+01,4.60383600000000E+01,4.83458200000000E+01,5.19217700000000E+01,5.48994500000000E+01,5.85396800000000E+01,6.17180600000000E+01,6.53074700000000E+01,6.82468200000000E+01,7.06183900000000E+01,7.13629600000000E+01,7.08175200000000E+01,
UMC,,,,,,,,,,,,,,,,,,,,,,,,,,,,,,,,,,,,,,,,1.58452300000000E+01,1.72978700000000E+01,1.94390800000000E+01,2.14905600000000E+01,2.34093000000000E+01,2.49077700000000E+01,2.62589600000000E+01,2.76488000000000E+01,2.86888500000000E+01,2.94383900000000E+01,3.02766200000000E+01,,
URY,,,,,,,,,,,,,,,1.31557100000000E+01,1.66835200000000E+01,,1.84532100000000E+01,,1.59675500000000E+01,1.46992400000000E+01,,2.28587400000000E+01,2.48594200000000E+01,,,,,,,,,,,,,,,2.46420900000000E+01,2.46021600000000E+01,,,,,,,3.45100900000000E+01,4.65522600000000E+01,4.73218400000000E+01,4.64587700000000E+01,,
USA,,,,,,,,,,,,5.58022700000000E+01,5.64474700000000E+01,5.54418200000000E+01,5.47615800000000E+01,5.57489700000000E+01,5.94953800000000E+01,5.50413200000000E+01,5.38482500000000E+01,5.17427600000000E+01,5.16732000000000E+01,5.32669100000000E+01,5.43683100000000E+01,5.53865200000000E+01,5.60810100000000E+01,5.55037900000000E+01,5.60769500000000E+01,5.78036700000000E+01,5.94357900000000E+01,6.13005900000000E+01,6.42795900000000E+01,6.56402800000000E+01,,6.94654500000000E+01,6.83940500000000E+01,6.75120000000000E+01,6.67268900000000E+01,,6.06352200000000E+01,6.30285800000000E+01,5.92978300000000E+01,5.97714600000000E+01,6.75928300000000E+01,6.84140800000000E+01,6.77776900000000E+01,6.81975600000000E+01,6.84027500000000E+01,6.91736700000000E+01,7.11834100000000E+01,7.43127800000000E+01,,
UZB,,,,,,,,,,,,,,,,,,,,,,,,,,,,,,,,,,,,,,,,1.41960300000000E+01,1.41460500000000E+01,1.47458600000000E+01,1.53837900000000E+01,1.58806100000000E+01,1.60670500000000E+01,1.15375200000000E+01,1.17422800000000E+01,1.16723500000000E+01,1.19727100000000E+01,1.16527300000000E+01,,
VCT,,,,,,,,,,,,,,,,,,,,7.75830000000000E-01,1.13815000000000E+00,,,,,,3.90168000000000E+00,5.00691000000000E+00,,,3.96524000000000E+00,,,,,,,,,,,,,,,,,,,,,
VEN,,,,,,,,,,,,,,,,,,,,,,,,,,,2.84027000000000E+01,2.29254200000000E+01,2.58809100000000E+01,2.77586200000000E+01,,,,,,,,,,,2.30915100000000E+01,,3.65700000000000E+01,3.83528300000000E+01,,,,,5.84171800000000E+01,,,
VNM,,,,,,,,,,,,,,,,,2.13264000000000E+00,2.84301000000000E+00,3.51519000000000E+00,3.84621000000000E+00,,3.36774000000000E+00,,,,,,,,,,,,,,,,,1.18425700000000E+01,1.25464800000000E+01,1.12929000000000E+01,1.11197200000000E+01,1.10852600000000E+01,1.13272000000000E+01,1.83544400000000E+01,1.83537000000000E+01,1.66687100000000E+01,1.79904600000000E+01,1.87721700000000E+01,1.98283700000000E+01,2.22702400000000E+01,
VUT,,,,,,,,,,,,,,,,,,,,,,,,,,,,,,,,,,,,,,,,,,,6.02334000000000E+00,5.80446000000000E+00,5.84403000000000E+00,,,,,,,
WBG,,,,,,,,,,,,,,,,,,,,,,,,,,,,,,,,,,,,,1.77026200000000E+01,2.07511900000000E+01,2.32140200000000E+01,2.47584600000000E+01,2.51137500000000E+01,2.70105300000000E+01,2.87124100000000E+01,3.20719900000000E+01,3.67902900000000E+01,4.10316100000000E+01,4.11093900000000E+01,4.44409800000000E+01,4.58706800000000E+01,4.27226700000000E+01,4.30628000000000E+01,
WLD,,,,,,,,,,,,,,,,,,,,,,,,,,,,,,,,,,,,,,,,1.82465000000000E+01,1.89557100000000E+01,1.99403600000000E+01,2.11781700000000E+01,2.22042900000000E+01,2.29973700000000E+01,2.35004900000000E+01,2.41369500000000E+01,2.50314400000000E+01,2.55106000000000E+01,2.60264300000000E+01,,
WSM,,,,,,,,,,,1.58197000000000E+00,1.65590000000000E+00,,,,2.73782000000000E+00,,3.68200000000000E+00,,,,6.29003000000000E+00,,,,,,,,,,,,,,,,,9.12147000000000E+00,1.14368800000000E+01,7.68961000000000E+00,7.73859000000000E+00,,,,,,,,,,
YEM,,,,,,,,,,,,,,,,,,,,,,,,,,,,,,,,,7.11402000000000E+00,,,,,7.54480000000000E+00,,1.61347500000000E+01,1.59903000000000E+01,,,,1.33394300000000E+01,1.34307700000000E+01,1.27457400000000E+01,1.42971100000000E+01,,,,
ZAF,,,,,,,,,,,,,,,,,,,,,,,,,,,,,1.18481100000000E+01,1.27912000000000E+01,1.33587100000000E+01,1.35193000000000E+01,1.35763100000000E+01,1.49583300000000E+01,1.57336400000000E+01,,,,,,,,,,,,,,,,,
ZAR,,,,,,,,,,,,1.25971000000000E+00,1.47092000000000E+00,,1.65375000000000E+00,,,,,,,,,,,,,,,,,,,,,,,,,,,,,,,,,6.19648000000000E+00,7.73169000000000E+00,9.44238000000000E+00,,
ZMB,,,,,,,,,,,6.56820000000000E-01,,,,1.77811000000000E+00,3.50058000000000E+00,,,,2.35334000000000E+00,,2.30183000000000E+00,2.33041000000000E+00,,,,,,3.14753000000000E+00,2.91904000000000E+00,,,,,,,,,3.22022000000000E+00,3.18623000000000E+00,3.28772000000000E+00,,,,,,,,,,,
ZWE,,,,,,,,,,,,,,,,,,,,,,,,1.83559000000000E+00,2.03771000000000E+00,,2.88798000000000E+00,,,,,,8.25534000000000E+00,,4.71367000000000E+00,5.16575000000000E+00,4.97862000000000E+00,,,,,,,,,,,,,,6.89690000000000E+00,
