"Country Code",1960,1961,1962,1963,1964,1965,1966,1967,1968,1969,1970,1971,1972,1973,1974,1975,1976,1977,1978,1979,1980,1981,1982,1983,1984,1985,1986,1987,1988,1989,1990,1991,1992,1993,1994,1995,1996,1997,1998,1999,2000,2001,2002,2003,2004,2005,2006,2007,2008,2009,2010,2011AFG,,,,,,,,,,,,,,,,,,,,,,,,,,,,,,,,,,,,,,,,,,,,1.58000000000000E+06,,,,,,,,
AGO,,,,,,,,,,,,,,,,,,,,,,,,,,,,,,,,,,,,,,,,,,,,4.50000000000000E+07,,,9.40000000000000E+06,0.00000000000000E+00,0.00000000000000E+00,,,
ALB,,,,,,,,,,,,,,,,,,,,,,,,,,,,,,,,,,,,0.00000000000000E+00,0.00000000000000E+00,,,,,,8.00000000000000E+06,1.60000000000000E+06,,7.81000000000000E+08,,,,6.64000000000000E+08,,
ARG,,,,,,,,,,,,,,,,,,,,,,,,,,,,,,,,,5.02315000000000E+09,2.49484000000000E+09,2.07568000000000E+09,2.13520000000000E+09,2.37979000000000E+09,3.08050000000000E+09,3.64230000000000E+09,1.75480000000000E+09,2.14290000000000E+09,9.45500000000000E+08,1.11830000000000E+08,1.04040000000000E+08,2.74000000000000E+08,2.48600000000000E+08,1.92800000000000E+09,4.89000000000000E+08,7.17750000000000E+08,3.44250000000000E+08,,
ARM,,,,,,,,,,,,,,,,,,,,,,,,,,,,,,,,,,,,,,,0.00000000000000E+00,,,,4.90000000000000E+07,2.50000000000000E+07,,,2.00000000000000E+07,3.70000000000000E+07,7.00000000000000E+07,,,
AZE,,,,,,,,,,,,,,,,,,,,,,,,,,,,,,,,,,,,,,,,,,2.30000000000000E+08,1.45200000000000E+08,,,,,,,,,
BEN,,,,,,,,,,,,,,,,,,,,,,,,,,,,,,,,,,,,,,,,,,,,,,5.90000000000000E+08,,,,,,
BFA,,,,,,,,,,,,,,,,,,,,,,,,,,,,,,,,,,,,,,,5.60000000000000E+06,,,,,,,,,,,,,
BGD,,,,,,,,,,,,,,,,,,,,,,,,,,,,,,,,,,,,,,3.13700000000000E+08,2.25000000000000E+08,1.61500000000000E+07,1.85000000000000E+07,4.83000000000000E+08,,,,,1.78000000000000E+07,7.30000000000000E+06,1.53800000000000E+08,6.46300000000000E+07,,
BGR,,,,,,,,,,,,,,,,,,,,,,,,,,,,,,,,,,,,,,,,,,,,7.93600000000000E+08,1.17800000000000E+08,2.34210000000000E+09,8.26100000000000E+08,3.46700000000000E+08,6.07860000000000E+08,4.66000000000000E+08,,
BIH,,,,,,,,,,,,,,,,,,,,,,,,,,,,,,,,,,,,,,,,,,,,,,,,8.00000000000000E+08,,,,
BLR,,,,,,,,,,,,,,,,,,,,,,,,,,,,,,,,,,,,,5.00000000000000E+08,,,,,,,,,,,6.25000000000000E+08,6.25000000000000E+08,6.25000000000000E+08,,
BLZ,,,,,,,,,,,,,,,,,,,,,,,,,,,,,,,,,3.19000000000000E+07,,3.70000000000000E+07,6.00000000000000E+07,,,,2.50000000000000E+07,,,,3.00000000000000E+07,,,1.60000000000000E+07,8.55000000000000E+07,7.50000000000000E+07,2.15000000000000E+07,,
BOL,,,,,,,,,,,,,,,,,,,,,,,,,,,,,,,,,,,,2.52400000000000E+08,,1.16600000000000E+08,2.28160000000000E+09,1.26700000000000E+08,1.64300000000000E+08,6.44000000000000E+07,4.74000000000000E+08,2.91000000000000E+07,2.59000000000000E+07,1.26700000000000E+08,5.35000000000000E+07,6.38000000000000E+07,2.00000000000000E+07,0.00000000000000E+00,,
BRA,,,,,,,,,,,,,,,,,,,,,,,,,,,,,,1.86000000000000E+07,1.86000000000000E+07,1.86000000000000E+07,1.86000000000000E+07,1.86000000000000E+07,2.30600000000000E+08,4.20230000000000E+08,3.08990000000000E+09,1.39288500000000E+10,9.91660000000000E+09,5.76520000000000E+09,8.59849000000000E+09,4.00789000000000E+09,3.93801000000000E+09,3.63225000000000E+09,1.96774000000000E+09,4.02723000000000E+09,5.85136000000000E+09,8.20970000000000E+09,9.30600000000000E+09,2.33234100000000E+10,,
BTN,,,,,,,,,,,,,,,,,,,,,,,,,,,,,,,,,,,,,,,,,,,,,,,,,,2.01000000000000E+08,,
CHL,,,,,,,,,,,,,,,,,,,,,,,,,0.00000000000000E+00,,5.70000000000000E+06,1.16550000000000E+08,3.60000000000000E+06,7.26550000000000E+08,7.71200000000000E+08,,8.20000000000000E+07,8.05000000000000E+07,5.28000000000000E+08,9.55300000000000E+08,1.53660000000000E+09,1.54270000000000E+09,2.04940000000000E+09,7.24600000000000E+08,6.23000000000000E+08,2.47000000000000E+08,8.20000000000000E+06,2.41510000000000E+08,1.40300000000000E+08,3.30500000000000E+08,3.93840000000000E+08,7.74460000000000E+08,3.05470000000000E+08,9.23900000000000E+08,,
CHN,,,,,,,,,,,,,,,,,,,,,,,,,6.20000000000000E+07,,4.00000000000000E+09,,,5.42600000000000E+08,,,1.88100000000000E+09,2.19700000000000E+09,1.04810000000000E+09,9.87370000000000E+08,2.85910000000000E+09,5.94633500000000E+09,3.02600000000000E+09,4.34780000000000E+09,8.46800000000000E+08,9.97130000000000E+08,1.35133000000000E+09,4.67885000000000E+09,1.39049000000000E+09,1.70626000000000E+09,1.19758000000000E+09,2.19916000000000E+09,6.78770000000000E+08,3.09495000000000E+09,,
CIV,,,,,,,,,,,,,,,,,,,,,,,,,,,,,,,3.96000000000000E+07,,,,7.00000000000000E+07,3.76000000000000E+07,,,,2.23000000000000E+08,0.00000000000000E+00,,,,,0.00000000000000E+00,,,0.00000000000000E+00,0.00000000000000E+00,,
CMR,,,,,,,,,,,,,,,,,,,,,,,,,,,,,,,,,,,,,,,,,,7.03000000000000E+07,2.15000000000000E+07,,,0.00000000000000E+00,4.40000000000000E+08,0.00000000000000E+00,0.00000000000000E+00,0.00000000000000E+00,,
COG,,,,,,,,,,,,,,,,,,,,,,,,,,,,,,,,,,,,,3.25000000000000E+08,,,,,,,,,,,,,,,
COL,,,,,,,,,,,,,,,,,,,,,,,,,,,,,,,,,,2.82000000000000E+08,2.58000000000000E+08,1.27320000000000E+09,1.46860000000000E+09,3.38292600000000E+09,5.97100000000000E+08,2.63600000000000E+08,8.19000000000000E+07,5.30000000000000E+07,5.13000000000000E+07,5.07000000000000E+07,5.30000000000000E+07,6.17000000000000E+07,1.47600000000000E+08,4.95600000000000E+08,1.59300000000000E+08,1.42100000000000E+08,,
COM,,,,,,,,,,,,,,,,,,,,,,,,,,,,,,,,,,,,,,,0.00000000000000E+00,,,,,,,,,,,,,
CPV,,,,,,,,,,,,,,,,,,,,,,,,,,,,,,,,,,,,,,,,0.00000000000000E+00,,,,0.00000000000000E+00,,,,,,,,
CRI,,,,,,,,,,,,,,,,,,,,,,,,,,,,,,,,,3.20000000000000E+06,,1.50000000000000E+07,5.81000000000000E+07,8.83000000000000E+07,9.29000000000000E+07,5.85000000000000E+07,3.40000000000000E+06,0.00000000000000E+00,,,0.00000000000000E+00,8.00000000000000E+07,,8.00000000000000E+07,,,1.10000000000000E+08,,
CUB,,,,,,,,,,,,,,,,,,,,,,,,,,,,,,,,,,,,,,,1.50000000000000E+08,1.50000000000000E+07,,,,,1.16000000000000E+08,,6.00000000000000E+07,,,,,
DMA,,,,,,,,,,,,,,,,,,,,,,,,,,,,,,,,,,,,,,7.80000000000000E+06,1.85000000000000E+07,,,,,,,,,,,,,
DOM,,,,,,,,,,,,,,,,,,,,,,,,,,,,,,,,,,,8.75000000000000E+07,2.85000000000000E+08,,,2.00000000000000E+07,6.74000000000000E+08,5.77300000000000E+08,2.65000000000000E+08,4.21800000000000E+08,,,4.25000000000000E+07,0.00000000000000E+00,,0.00000000000000E+00,,,
DZA,,,,,,,,,,,,,,,,,,,,,,,,,,,,,,,,,,2.30000000000000E+09,,,,,,,,,,,5.62000000000000E+08,4.00000000000000E+08,2.32000000000000E+09,,,,,
EAP,,,,,,,,,,,,,,,,,,,,,,,,,6.20000000000000E+07,,4.00000000000000E+09,,,5.42600000000000E+08,,,3.52800000000000E+09,5.57760000000000E+09,6.58320000000000E+09,8.76537000000000E+09,1.10682000000000E+10,1.35604350000000E+10,5.19000000000000E+09,5.09530000000000E+09,3.47630000000000E+09,4.43923000000000E+09,3.46133000000000E+09,9.45515000000000E+09,3.98460000000000E+09,6.47376000000000E+09,3.97358000000000E+09,5.87784000000000E+09,8.41507000000000E+09,7.84593000000000E+09,,
ECA,,,,,,,,,,,,,,,,,,,,,,,,,,,,,,,,,,,,,,,9.09000000000000E+08,,,3.81310000000000E+09,1.52600000000000E+09,,,,,1.89102000000000E+10,1.96549600000000E+10,9.55520000000000E+09,,
ECU,,,,,,,,,,,,,,,,,,,,,,,,,,,,,,,,,0.00000000000000E+00,,,,3.00000000000000E+07,,,,,,,3.02000000000000E+08,,0.00000000000000E+00,1.29000000000000E+08,,,,,
EGY,,,,,,,,,,,,,,,,,,,,,,,,,,,,,,,,,,,,,,,2.20000000000000E+08,4.14000000000000E+08,,6.78000000000000E+08,,,,,,4.69000000000000E+08,,,,
ETH,,,,,,,,,,,,,,,,,,,,,,,,,,,,,,,,,,,,,,,,,,,,,,,,,,4.00000000000000E+06,,
FJI,,,,,,,,,,,,,,,,,,,,,,,,,,,,,,,,,,,,,,,,,,,,0.00000000000000E+00,,,,,,,,
GAB,,,,,,,,,,,,,,,,,,,,,,,,,,,,,,,,,,0.00000000000000E+00,,,,2.94000000000000E+08,,,,,0.00000000000000E+00,,0.00000000000000E+00,,,0.00000000000000E+00,,,,
GEO,,,,,,,,,,,,,,,,,,,,,,,,,,,,,,,,,,,,,,,1.19000000000000E+08,1.00000000000000E+07,1.10000000000000E+07,0.00000000000000E+00,,2.00000000000000E+06,2.70000000000000E+07,,9.45000000000000E+07,4.57700000000000E+08,5.00000000000000E+07,3.20000000000000E+07,,
GHA,,,,,,,,,,,,,,,,,,,,,,,,,,,,,,,,,,,0.00000000000000E+00,,,,,1.10000000000000E+08,,,,,,5.90000000000000E+08,,1.00000000000000E+08,,,,
GIN,,,,,,,,,,,,,,,,,,,,,,,,,,,,,,,,,,,,3.64000000000000E+07,,,,,,,,,,,,,,,,
GMB,,,,,,,,,,,,,,,,,,,,,,,,,,,,,,,,,,0.00000000000000E+00,,,,,,,,,,,,,0.00000000000000E+00,,,,,
GNB,,,,,,,,,,,,,,,,,,,,,,,,,,,,,,,,0.00000000000000E+00,,,,,,,,,,,,,,,,,,,,
GRD,,,,,,,,,,,,,,,,,,,,,,,,,,,,,,,,,,,5.60000000000000E+06,0.00000000000000E+00,,,,,,0.00000000000000E+00,0.00000000000000E+00,0.00000000000000E+00,1.50000000000000E+06,7.50000000000000E+06,5.00000000000000E+05,1.60000000000000E+06,8.60000000000000E+06,1.36000000000000E+07,,
GTM,,,,,,,,,,,,,,,,,,,,,,,,,,,,,,,,,,,1.00000000000000E+08,3.48000000000000E+07,3.42000000000000E+08,1.68300000000000E+08,5.40400000000000E+08,1.37700000000000E+08,5.00000000000000E+07,0.00000000000000E+00,6.00000000000000E+07,,,0.00000000000000E+00,3.70000000000000E+07,2.26800000000000E+08,,,,
GUY,,,,,,,,,,,,,,,,,,,,,,,,,,,,,,,,,,,,,,,,5.00000000000000E+07,,,,,,,,,,,,
HND,,,,,,,,,,,,,,,,,,,,,,,,,,,,,,,,,,,7.00000000000000E+07,2.53000000000000E+07,,,8.68000000000000E+07,,,,,3.58800000000000E+08,,,,,,,,
HRV,,,,,,,,,,,,,,,,,,,,,,,,,,,,,,,,,,,,,,1.93500000000000E+08,,1.75000000000000E+08,,,7.10000000000000E+06,,,,,,8.50000000000000E+07,,,
HTI,,,,,,,,,,,,,,,,,,,,,,,,,,,,,,,,,,,,4.70000000000000E+06,,,,,,,,5.52000000000000E+06,,,,,,,,
HUN,,,,,,,,,,,,,,,,,,,,,,,,,,,,,,,,,,,,,3.74200000000000E+08,6.08300000000000E+08,4.33000000000000E+08,2.39900000000000E+08,1.40000000000000E+08,1.10700000000000E+08,,9.90000000000000E+06,4.98000000000000E+08,9.30000000000000E+07,1.51300000000000E+09,1.94000000000000E+08,,,,
IDN,,,,,,,,,,,,,,,,,,,,,,,,,,,,,,,,,1.37000000000000E+08,,5.95500000000000E+08,2.47000000000000E+09,3.20360000000000E+09,3.02350000000000E+09,3.30000000000000E+08,1.25000000000000E+08,,,1.87600000000000E+08,8.29000000000000E+08,7.38000000000000E+08,1.05900000000000E+08,6.11100000000000E+08,3.05000000000000E+08,2.86320000000000E+09,0.00000000000000E+00,,
IND,,,,,,,,,,,,,,,,,,,,,,,,,,,,,0.00000000000000E+00,,,6.13600000000000E+08,1.34000000000000E+07,1.05070000000000E+09,3.14800000000000E+08,1.00830000000000E+09,1.55310000000000E+09,1.02750000000000E+09,1.06630000000000E+09,2.52750000000000E+09,1.95378000000000E+09,2.35300000000000E+08,3.85820000000000E+08,8.46670000000000E+08,4.15587000000000E+09,7.91740000000000E+08,5.33005000000000E+09,9.88632000000000E+09,1.26662800000000E+10,2.28717500000000E+10,,
IRN,,,,,,,,,,,,,,,,,,,,,,,,,,,,,,,,,,,,,,,,,,,,,6.50000000000000E+08,0.00000000000000E+00,,,,,,
IRQ,,,,,,,,,,,,,,,,,,,,,,,,,,,,,,,,,,,,,,,,,,,,,,,3.50000000000000E+08,2.40000000000000E+08,,,,
JAM,,,,,,,,,,,,,,,,,,,,,,,,,,,,,,,,,,,2.46000000000000E+08,4.30000000000000E+07,,,,,,2.01000000000000E+08,,,,,7.80000000000000E+07,,,,,
JOR,,,,,,,,,,,,,,,,,,,,,,,,,,,,,,,,,,,,,,,,,,,,,,,,4.20000000000000E+08,1.04000000000000E+08,4.65000000000000E+08,,
KAZ,,,,,,,,,,,,,,,,,,,,,,,,,,,,,,,,,,,0.00000000000000E+00,0.00000000000000E+00,1.07507210000000E+09,7.05189700000000E+08,2.00000000000000E+07,0.00000000000000E+00,3.00000000000000E+08,,,,,,,,0.00000000000000E+00,0.00000000000000E+00,,
KEN,,,,,,,,,,,,,,,,,,,,,,,,,,,,,,,,,,,,,9.90000000000000E+07,,,1.39000000000000E+08,,,,,,,1.16690000000000E+08,0.00000000000000E+00,2.05000000000000E+08,1.10000000000000E+07,,
KHM,,,,,,,,,,,,,,,,,,,,,,,,,,,,,,,,,,,,,,1.27000000000000E+08,,1.60000000000000E+07,,2.80000000000000E+07,4.10000000000000E+06,,2.50000000000000E+07,2.50000000000000E+07,,6.48700000000000E+08,4.71000000000000E+07,,,
LAC,,,,,,,,,,,,,,,,,,,,,,,,,,,,,,,,,,,,6.49678000000000E+09,9.93449000000000E+09,2.30078760000000E+10,2.25958000000000E+10,1.07857000000000E+10,1.54253900000000E+10,6.41659000000000E+09,7.92044000000000E+09,7.09179000000000E+09,3.67494000000000E+09,5.15283000000000E+09,9.70680000000000E+09,1.15002600000000E+10,1.14225200000000E+10,2.53105300000000E+10,,
LAO,,,,,,,,,,,,,,,,,,,,,,,,,,,,,,,,,,,,,5.35500000000000E+08,,,,,,,,,1.25000000000000E+09,7.60000000000000E+08,,6.65000000000000E+08,,,
LCA,,,,,,,,,,,,,,,,,,,,,,,,,,,,,,,,,,,0.00000000000000E+00,,,,,,1.53000000000000E+07,7.50000000000000E+06,4.70000000000000E+06,6.40000000000000E+06,1.59000000000000E+07,1.00000000000000E+07,9.70000000000000E+06,1.90000000000000E+07,1.05000000000000E+07,1.12000000000000E+07,,
LCN,,,,,,,,,,,,,,,,,,,,,,,,,,,,,,,,,,,,6.49678000000000E+09,9.93449000000000E+09,2.30078760000000E+10,2.25958000000000E+10,1.07857000000000E+10,1.54253900000000E+10,6.41659000000000E+09,7.92044000000000E+09,7.09179000000000E+09,3.67494000000000E+09,5.15283000000000E+09,9.70680000000000E+09,1.15002600000000E+10,1.14225200000000E+10,2.53105300000000E+10,,
LKA,,,,,,,,,,,,,,,,,,,,,,,,,,,,,,,,,,,,2.17000000000000E+07,6.20000000000000E+07,1.60000000000000E+07,,7.73000000000000E+07,,1.32000000000000E+08,1.00500000000000E+07,6.78000000000000E+06,6.20000000000000E+07,6.00000000000000E+07,,,,,,
LMC,,,,,,,,,,,,,,,,,,,,,,,,,,,,,,,,,3.49000000000000E+08,,4.07370000000000E+09,8.12390000000000E+09,1.03089000000000E+10,1.12297000000000E+10,7.91110000000000E+09,4.52430000000000E+09,,3.09600000000000E+09,3.56727000000000E+09,3.12765000000000E+09,5.70968000000000E+09,4.77185000000000E+09,8.69574000000000E+09,1.61848000000000E+10,1.93268800000000E+10,2.92522300000000E+10,,
LMY,,,,,,,,,,,,,,,,,,,,,,,,,,,,,,,,,,,1.39362700000000E+10,1.99077500000000E+10,2.91702621000000E+10,4.47427007000000E+10,3.23210000000000E+10,2.00619500000000E+10,,1.75989200000000E+10,1.38171400000000E+10,2.13349700000000E+10,1.36536100000000E+10,2.10303000000000E+10,2.48664600000000E+10,4.96996000000000E+10,5.40470300000000E+10,6.78355400000000E+10,,
LSO,,,,,,,,,,,,,,,,,,,,,,,,,,,,,,,,,,,,,,,,,,,0.00000000000000E+00,,,,,,,,,
LTU,,,,,,,,,,,,,,,,,,,,,,,,,,,,,,,,,,,,0.00000000000000E+00,,,1.00000000000000E+07,,,,3.38000000000000E+07,2.53700000000000E+08,1.11800000000000E+08,1.15000000000000E+08,9.60000000000000E+07,1.03000000000000E+08,1.62600000000000E+08,5.60000000000000E+07,,
LVA,,,,,,,,,,,,,,,,,,,,,,,,,,,,,,,,,,,,,,1.06000000000000E+08,,,4.80000000000000E+07,2.31000000000000E+07,0.00000000000000E+00,0.00000000000000E+00,4.40000000000000E+07,4.30000000000000E+07,4.50000000000000E+07,5.70000000000000E+07,4.80000000000000E+07,3.40000000000000E+07,,
MAR,,,,,,,,,,,,,,,,,,,,,,,,,,,,,,,,,,2.30000000000000E+09,,,,4.60800000000000E+09,1.37000000000000E+09,,,6.89000000000000E+08,0.00000000000000E+00,3.60000000000000E+08,,,,,,,,
MDA,,,,,,,,,,,,,,,,,,,,,,,,,,,,,,,,,,,,,,,,6.00000000000000E+07,1.25200000000000E+08,,,,,1.02000000000000E+08,1.50000000000000E+07,1.70000000000000E+07,1.30000000000000E+07,2.30000000000000E+07,,
MDG,,,,,,,,,,,,,,,,,,,,,,,,,,,,,,,,,,,,,,,,,,,,,,0.00000000000000E+00,,,,,,
MEX,,,,,,,,,,,,,,,,,,,,,,,,,,,,,,,,,,,,1.00000000000000E+06,4.35000000000000E+07,5.26300000000000E+08,1.20150000000000E+09,3.48500000000000E+08,2.21430000000000E+09,3.11000000000000E+08,2.12400000000000E+09,1.28500000000000E+09,6.95000000000000E+08,1.20000000000000E+08,8.01000000000000E+08,1.20000000000000E+08,5.62000000000000E+08,0.00000000000000E+00,,
MIC,,,,,,,,,,,,,,,,,,,,,,,,,,,,,,,,,8.70695000000000E+09,1.47312400000000E+10,1.38045700000000E+10,1.94726500000000E+10,2.89730621000000E+10,4.38500007000000E+10,3.14904000000000E+10,1.98908000000000E+10,2.50815700000000E+10,1.67719200000000E+10,1.37970400000000E+10,2.01097700000000E+10,1.36228100000000E+10,1.96958900000000E+10,2.41356700000000E+10,4.82316200000000E+10,5.33001300000000E+10,6.77289100000000E+10,,
MKD,,,,,,,,,,,,,,,,,,,,,,,,,,,,,,,,,,,,,,,,,,,,,,,3.91000000000000E+08,2.33000000000000E+08,,3.10000000000000E+07,,
MLI,,,,,,,,,,,,,,,,,,,,,,,,,,,,,,,,,,,0.00000000000000E+00,,,,,,3.65900000000000E+08,,,,0.00000000000000E+00,,,,,,,
MMR,,,,,,,,,,,,,,,,,,,,,,,,,,,,,,,,,,,,3.94000000000000E+08,,3.25000000000000E+08,,,,,,,,,5.56100000000000E+08,,,,,
MNE,,,,,,,,,,,,,,,,,,,,,,,,,,,,,,,,,,,,,,,,,,,0.00000000000000E+00,,,,,,,2.68000000000000E+08,,
MOZ,,,,,,,,,,,,,,,,,,,,,,,,,,,,,,,,,,,,,,,,,,,,1.20000000000000E+09,5.80000000000000E+06,,,,,,,
MUS,,,,,,,,,,,,,,,,,,,,,,,,,,,,,,,,,,,,,,0.00000000000000E+00,1.09300000000000E+08,,,,,,0.00000000000000E+00,,,,,,,
MWI,,,,,,,,,,,,,,,,,,,,,,,,,,,,,,,,,,,,,,,,,,0.00000000000000E+00,,,,,,,,,,
MYS,,,,,,,,,,,,,,,,,,,,,,,,,,,,,,,,,1.35000000000000E+09,1.33000000000000E+09,3.18170000000000E+09,1.20000000000000E+09,,2.15200000000000E+08,,1.95000000000000E+08,,1.76530000000000E+09,1.23000000000000E+07,2.05000000000000E+09,1.21000000000000E+09,1.60000000000000E+09,2.03000000000000E+08,0.00000000000000E+00,0.00000000000000E+00,1.81500000000000E+08,,
NAM,,,,,,,,,,,,,,,,,,,,,,,,,,,,,,,,,,,,,4.00000000000000E+06,,,,1.00000000000000E+06,,,,,,,,,,,
NGA,,,,,,,,,,,,,,,,,,,,,,,,,,,,,,,,,,,,,,,,,,2.95000000000000E+08,4.62000000000000E+08,3.40000000000000E+07,,1.12900000000000E+09,,2.80000000000000E+08,,,,
NIC,,,,,,,,,,,,,,,,,,,,,,,,,,,,,,,,,,,,,3.80000000000000E+07,,4.30000000000000E+07,1.51400000000000E+08,1.15000000000000E+08,0.00000000000000E+00,1.13000000000000E+07,0.00000000000000E+00,0.00000000000000E+00,0.00000000000000E+00,0.00000000000000E+00,9.50000000000000E+07,0.00000000000000E+00,,,
NPL,,,,,,,,,,,,,,,,,,,,,,,,,,,,,,,,,,,1.25700000000000E+08,,9.82000000000000E+07,,,,1.51000000000000E+07,,,0.00000000000000E+00,,,,,,,,
PAK,,,,,,,,,,,,,,,,,,,,,,,,,,,,,,,,,6.70000000000000E+06,,1.63200000000000E+09,1.77860000000000E+09,2.36570000000000E+09,1.54000000000000E+08,,,,,,,2.98000000000000E+07,3.45600000000000E+08,2.97600000000000E+08,1.19670000000000E+09,1.08440000000000E+09,1.47950000000000E+09,,
PAN,,,,,,,,,,,,,,,,,,,,,,,,,,,,,,,,,,,,,4.00000000000000E+07,,4.18000000000000E+08,2.11200000000000E+08,5.98000000000000E+07,0.00000000000000E+00,3.70000000000000E+08,0.00000000000000E+00,0.00000000000000E+00,1.95000000000000E+07,4.50000000000000E+07,4.90500000000000E+08,1.97000000000000E+07,2.15000000000000E+07,,
PER,,,,,,,,,,,,,,,,,,,,,,,,,,,,,,,,,,,4.51190000000000E+08,7.56550000000000E+08,8.77800000000000E+08,1.61000000000000E+08,9.05100000000000E+08,3.04400000000000E+08,3.48100000000000E+08,3.04300000000000E+08,3.45300000000000E+08,1.03700000000000E+09,3.05600000000000E+08,1.58600000000000E+08,7.63000000000000E+07,4.29300000000000E+08,2.38200000000000E+08,3.99070000000000E+08,,
PHL,,,,,,,,,,,,,,,,,,,,,,,,,,,,,,,4.40000000000000E+07,3.78600000000000E+08,1.60000000000000E+08,1.87930000000000E+09,1.24280000000000E+09,2.32920000000000E+09,1.61400000000000E+09,1.67280000000000E+09,1.26000000000000E+09,1.82000000000000E+08,1.76400000000000E+09,6.72000000000000E+08,1.26000000000000E+08,1.49300000000000E+08,6.21110000000000E+08,9.60000000000000E+07,6.45800000000000E+08,2.43800000000000E+09,1.82000000000000E+09,4.55948000000000E+09,,
PNG,,,,,,,,,,,,,,,,,,,,,,,,,,,,,,,,,,,,,6.50000000000000E+07,,,,,,,,,,,,,,,
POL,,,,,,,,,,,,,,,,,,,,,,,,,,,,,,,,,,,,1.45000000000000E+08,,1.59800000000000E+08,1.35300000000000E+08,1.88000000000000E+08,4.53300000000000E+08,6.62400000000000E+08,7.71200000000000E+08,3.90600000000000E+08,2.14000000000000E+08,1.29000000000000E+08,7.41500000000000E+07,4.10000000000000E+07,1.50020000000000E+09,8.60000000000000E+08,,
ROM,,,,,,,,,,,,,,,,,,,,,,,,,,,,,,,,,,,,,,,1.00000000000000E+08,,,,,,,1.24075000000000E+09,4.50000000000000E+07,2.60000000000000E+09,1.44750000000000E+09,2.19620000000000E+09,,
RUS,,,,,,,,,,,,,,,,,,,,,,,,,,,,,,,,,,0.00000000000000E+00,1.10000000000000E+09,,8.53300000000000E+08,4.90000000000000E+08,6.60000000000000E+08,2.78000000000000E+08,,1.70000000000000E+09,1.40000000000000E+07,0.00000000000000E+00,9.00000000000000E+06,3.00000000000000E+06,4.59000000000000E+08,1.35522000000000E+10,1.24120000000000E+10,7.91000000000000E+08,,
RWA,,,,,,,,,,,,,,,,,,,,,,,,,,,,,,,,,,,,,,,,,,,,0.00000000000000E+00,,1.58000000000000E+06,,,,,,
SAS,,,,,,,,,,,,,,,,,,,,,,,,,,,,,0.00000000000000E+00,,,6.13600000000000E+08,2.01000000000000E+07,1.05070000000000E+09,2.07250000000000E+09,2.80860000000000E+09,4.07900000000000E+09,1.51120000000000E+09,1.29130000000000E+09,2.62095000000000E+09,1.98738000000000E+09,8.50300000000000E+08,3.95870000000000E+08,8.55030000000000E+08,4.24767000000000E+09,1.19734000000000E+09,5.64545000000000E+09,1.10903200000000E+10,1.39044800000000E+10,2.46168800000000E+10,,
SEN,,,,,,,,,,,,,,,,,,,,,,,,,,,,,,,,,,,,,,5.90000000000000E+07,,6.50000000000000E+07,,,,,,9.33100000000000E+07,,,,,,
SLE,,,,,,,,,,,,,,,,,,,,,,,,,,,,,,,,,,,,,,,,,,,,,,,,1.18000000000000E+06,,,,
SLV,,,,,,,,,,,,,,,,,,,,,,,,,,,,,,,,,,,,1.06000000000000E+08,,,5.94000000000000E+08,2.00200000000000E+08,7.50000000000000E+07,1.00000000000000E+07,,,,,0.00000000000000E+00,0.00000000000000E+00,0.00000000000000E+00,0.00000000000000E+00,,
STP,,,,,,,,,,,,,,,,,,,,,,,,,,,,,,,,,,0.00000000000000E+00,,,,,,,,,,,5.00000000000000E+07,,,,,,,
TCD,,,,,,,,,,,,,,,,,,,,,,,,,,,,,,,,,,,,,,,,,0.00000000000000E+00,,,,,,,,,,,
TGO,,,,,,,,,,,,,,,,,,,,,,,,,,,,,,,,,,,,,,0.00000000000000E+00,,,6.77000000000000E+07,,,,,5.90000000000000E+08,,,1.90000000000000E+08,,,
THA,,,,,,,,,,,,,,,,,,,,,,,,,,,,,,,,,,1.71300000000000E+08,5.03500000000000E+08,1.38480000000000E+09,2.58600000000000E+09,2.14060000000000E+09,5.74000000000000E+08,1.90000000000000E+08,8.58500000000000E+08,8.89800000000000E+08,,1.33600000000000E+09,0.00000000000000E+00,1.60900000000000E+09,,,2.34100000000000E+09,,,
TJK,,,,,,,,,,,,,,,,,,,,,,,,,,,,,,,,,,,,,,,,,,,1.60000000000000E+07,,,,,,,,,
TON,,,,,,,,,,,,,,,,,,,,,,,,,,,,,,,,,,,,,,,,,7.00000000000000E+06,,,,0.00000000000000E+00,0.00000000000000E+00,,,,,,
TUN,,,,,,,,,,,,,,,,,,,,,,,,,,,,,,,,,,6.27000000000000E+08,,,,,3.00000000000000E+07,2.61000000000000E+08,,,3.00000000000000E+07,,,,,,,,,
TUR,,,,,,,,,,,,,,,,,,,,,,,,,,,,0.00000000000000E+00,,,6.80000000000000E+07,,,,,1.76000000000000E+09,1.23220000000000E+09,,0.00000000000000E+00,,3.57500000000000E+09,1.70000000000000E+09,1.26000000000000E+09,,1.69000000000000E+08,5.08000000000000E+07,2.47050000000000E+08,8.16000000000000E+07,4.21900000000000E+09,4.31500000000000E+09,,
TZA,,,,,,,,,,,,,,,,,,,,,,,,,,,,,,,,,,,6.00000000000000E+06,,,1.27000000000000E+08,,,,3.16000000000000E+08,0.00000000000000E+00,,0.00000000000000E+00,3.20000000000000E+07,2.84000000000000E+07,,,,,
UGA,,,,,,,,,,,,,,,,,,,,,,,,,,,,,,,,,,,,,,,,,,,,1.81000000000000E+07,,9.58300000000000E+07,1.18000000000000E+07,8.10800000000000E+08,1.51000000000000E+08,2.70000000000000E+07,,
UKR,,,,,,,,,,,,,,,,,,,,,,,,,,,,,,,,,,,,,,,0.00000000000000E+00,,,1.60000000000000E+08,0.00000000000000E+00,,,,,,,5.40000000000000E+07,,
UMC,,,,,,,,,,,,,,,,,,,,,,,,,,,,,,,,,8.35795000000000E+09,9.50124000000000E+09,9.73087000000000E+09,1.13487500000000E+10,1.86641621000000E+10,3.26203007000000E+10,2.35793000000000E+10,1.53665000000000E+10,2.06662900000000E+10,1.36759200000000E+10,1.02297700000000E+10,1.69821200000000E+10,7.91313000000000E+09,1.49240400000000E+10,1.54399300000000E+10,3.20468200000000E+10,3.39732500000000E+10,3.84766800000000E+10,,
URY,,,,,,,,,,,,,,,,,,,,,,,,,,,,,,,,,,,,8.60000000000000E+07,,,,,3.30000000000000E+08,,,,,,,,,,,
VEN,,,,,,,,,,,,,,,,,,,,,,,,,,,,,,,,,,,,,,,7.30000000000000E+07,3.00000000000000E+07,3.00000000000000E+07,,,9.47000000000000E+06,,0.00000000000000E+00,,,,,,
VNM,,,,,,,,,,,,,,,,,,,,,,,,,,,,,,,,,,,,,2.05000000000000E+08,1.10000000000000E+08,,3.95000000000000E+07,,8.70000000000000E+07,1.78000000000000E+09,4.12000000000000E+08,,8.16000000000000E+07,,2.86980000000000E+08,,1.00000000000000E+07,,
VUT,,,,,,,,,,,,,,,,,,,,,,,,,,,,,,,,,,,1.16000000000000E+07,,,,,,,,,0.00000000000000E+00,,,,,,,,
WBG,,,,,,,,,,,,,,,,,,,,,,,,,,,,,,,,,,,,,,,,,1.50000000000000E+08,,,,,,,,,,,
YEM,,,,,,,,,,,,,,,,,,,,,,,,,,,,,,,,,,,,,,,,,,,,,,,1.57900000000000E+07,,,,,
ZAF,,,,,,,,,,,,,,,,,,,,,,,,,,,,,,,,,,,,3.00000000000000E+06,,,,,1.59000000000000E+07,2.84000000000000E+07,,1.20000000000000E+09,,7.00000000000000E+06,9.90000000000000E+06,,,,,
ZMB,,,,,,,,,,,,,,,,,,,,,,,,,,,,,,,,,,,,,,2.74000000000000E+08,,,,3.00000000000000E+06,,,,,,,,,,
ZWE,,,,,,,,,,,,,,,,,,,,,,,,,,,,,,,,,,,,,,,6.00000000000000E+08,,,,,,,,,,,,,
